117
XYZ file of cluster: frame_4000_97f94.4c85d.4cf7a - created by MolEdiTo
 O      29.11400000      17.92300000      15.84600000
 H      28.32700000      18.25100000      16.37800000
 H      29.77900000      17.59400000      16.48100000
 O      23.97200000      10.53000000      16.27900000
 H      24.22300000      10.22300000      15.35700000
 H      24.34800000      11.43700000      16.45700000
 O      21.87300000      16.62400000      14.79000000
 H      21.83500000      17.61000000      14.74500000
 H      22.68500000      16.42500000      15.27800000
 O      23.49400000      14.04300000      13.78300000
 H      23.29800000      13.67700000      14.62700000
 H      23.61900000      14.96000000      13.91900000
 O      27.97400000      11.57000000      13.57500000
 H      27.36700000      11.53400000      12.82200000
 H      28.67100000      12.22600000      13.30700000
 O      30.22400000      15.72300000      10.94200000
 H      29.37400000      15.98300000      11.29700000
 H      30.19700000      15.84700000       9.98200000
 O      26.12400000      12.12600000      21.10100000
 H      25.31100000      12.37300000      20.64200000
 H      25.78800000      11.27100000      21.54400000
 O      26.67400000      16.41500000      14.44100000
 H      26.97400000      16.94900000      15.16200000
 H      26.98300000      16.81400000      13.59700000
 O      22.33300000      15.65800000      11.10300000
 H      22.88800000      16.46000000      11.12700000
 H      22.52700000      15.27500000      11.97300000
 O      30.33100000      16.79500000      18.27800000
 H      29.82800000      16.17200000      18.84300000
 H      30.64200000      17.49700000      18.89100000
 O      29.70600000      13.43100000      12.47600000
 H      28.94500000      14.03300000      12.83300000
 H      30.19900000      14.02400000      11.95500000
 O      22.26300000      17.26500000      19.84200000
 H      21.87100000      17.18900000      20.72900000
 H      21.97300000      18.22200000      19.66600000
 O      23.95800000      14.66300000      21.22000000
 H      23.23800000      14.80200000      20.57100000
 H      24.18500000      13.71600000      21.02700000
 O      30.12500000      21.32400000      13.81400000
 H      30.99500000      21.59900000      14.12500000
 H      29.74100000      20.83400000      14.54300000
 O      29.13300000      10.09000000      19.18000000
 H      29.53500000      10.96700000      19.25400000
 H      29.44900000       9.95600000      18.30400000
 O      27.89400000      17.82900000      12.37500000
 H      27.53300000      17.69600000      11.46100000
 H      28.29900000      18.77800000      12.27800000
 O      30.63600000      19.44100000      19.78400000
 H      31.44100000      19.42200000      20.35600000
 H      29.84800000      19.48800000      20.37500000
 O      24.36200000      12.93500000      17.34900000
 H      24.18000000      13.91100000      17.57700000
 H      25.06700000      12.99700000      16.69200000
 O      23.80200000      11.83700000      20.02100000
 H      23.67700000      12.11900000      19.09700000
 H      24.17000000      10.94700000      19.81500000
 O      27.41200000      14.38300000      19.81300000
 H      28.35500000      14.27900000      19.71400000
 H      27.10500000      13.63700000      20.35300000
 O      25.35500000      12.30200000      12.64800000
 H      25.38800000      12.14800000      11.65600000
 H      24.61200000      12.91200000      12.78800000
 O      25.14500000      19.25500000      19.64800000
 H      25.23400000      18.50000000      20.31200000
 H      25.63600000      20.03800000      19.92300000
 O      30.30700000      13.99500000      19.77400000
 H      30.15600000      14.09500000      20.70100000
 H      31.10900000      13.42200000      19.85600000
 O      23.97500000      20.81700000      11.20700000
 H      23.32800000      21.08600000      11.93900000
 H      24.50900000      21.55500000      10.87800000
 O      28.91200000      20.17000000      11.58900000
 H      28.84900000      20.63100000      12.46300000
 H      29.02400000      20.94700000      10.98000000
 O      27.86300000      19.27900000      17.87400000
 H      26.98500000      18.96400000      18.17300000
 H      28.40800000      19.26600000      18.65300000
 O      24.38200000       9.83000000      13.58500000
 H      23.49800000       9.87900000      13.31300000
 H      24.78300000      10.65700000      13.13700000
 O      28.94200000      12.88100000      17.51000000
 H      29.10100000      13.20600000      18.42400000
 H      27.95700000      13.26800000      17.32000000
 O      20.83200000      11.25700000      17.77200000
 H      21.43300000      10.86000000      17.11700000
 H      20.68900000      12.11200000      17.29300000
 O      25.06000000      18.78600000      16.78400000
 H      24.73900000      19.44500000      16.15000000
 H      24.97300000      19.14300000      17.75200000
 O      26.15200000      13.69500000      15.23700000
 H      26.03200000      13.32100000      14.36500000
 H      26.31700000      14.65800000      15.13000000
 O      20.54700000      12.25500000      20.29300000
 H      21.12300000      11.78000000      19.62800000
 H      20.35800000      11.61000000      21.03400000
 O      20.77700000      15.56600000      17.63700000
 H      19.99700000      14.98800000      17.95900000
 H      21.12700000      16.05500000      18.43700000
 O      26.24300000      16.85800000      20.64200000
 H      26.83700000      16.16200000      20.18100000
 H      25.46700000      16.21500000      21.04000000
 O      22.58100000      19.31200000      14.88800000
 H      21.83800000      19.73400000      14.45500000
 H      22.54200000      19.83300000      15.64600000
 O      23.92900000      15.73600000      17.75100000
 H      23.08100000      16.00100000      18.27100000
 H      24.32700000      16.53500000      17.35800000
 O      24.04100000      17.21600000      12.75800000
 H      25.04200000      17.14500000      12.80900000
 H      23.81900000      18.02100000      13.32900000
 O      29.21500000      10.71800000      15.81900000
 H      29.43200000      11.61400000      16.25400000
 H      28.65900000      10.94700000      15.03300000
 O      20.32200000      11.45200000      14.71900000
 H      19.60700000      11.20500000      14.07100000
 H      21.16900000      11.45100000      14.19500000
