169
XYZ file of cluster: frame_4000_6e857.20b80.23664 - created by MolEdiTo
 O      16.62400000      12.61500000      11.13000000
 H      16.12000000      12.65800000      10.28900000
 H      16.92200000      13.51900000      11.23100000
 O      24.20000000       9.90600000       6.62900000
 H      23.31500000       9.76900000       6.36300000
 H      24.46100000       9.06400000       6.88800000
 O      19.51200000      15.07900000      15.09200000
 H      20.00400000      15.04000000      15.97000000
 H      20.22900000      15.59400000      14.57100000
 O      26.19700000       6.65400000       9.96700000
 H      26.10800000       6.08400000      10.76000000
 H      27.08400000       6.37400000       9.53500000
 O      17.86400000       7.55200000       8.33400000
 H      17.90100000       8.16100000       7.53200000
 H      17.28000000       6.82900000       8.04700000
 O      23.03500000      13.00300000       6.20700000
 H      23.09100000      12.82500000       7.21900000
 H      22.07300000      13.16200000       6.12300000
 O      23.97200000      10.53000000      16.27900000
 H      24.22300000      10.22300000      15.35700000
 H      24.34800000      11.43700000      16.45700000
 O      22.84800000       7.60000000      12.70600000
 H      22.60100000       6.77000000      13.20300000
 H      21.99600000       8.02600000      12.56300000
 O      17.40500000       9.83100000      10.20600000
 H      17.46000000       9.00600000       9.73100000
 H      16.43800000       9.75900000      10.54700000
 O      23.49400000      14.04300000      13.78300000
 H      23.29800000      13.67700000      14.62700000
 H      23.61900000      14.96000000      13.91900000
 O      25.57500000      11.92000000       9.61500000
 H      25.76000000      11.00700000       9.19800000
 H      25.71800000      12.58400000       8.84000000
 O      25.64100000       7.52400000      13.27800000
 H      25.50100000       7.75200000      14.24700000
 H      24.70700000       7.48500000      13.01400000
 O      22.33300000      15.65800000      11.10300000
 H      22.88800000      16.46000000      11.12700000
 H      22.52700000      15.27500000      11.97300000
 O      18.41800000       8.74400000       5.84400000
 H      19.22400000       8.19500000       5.69700000
 H      17.88600000       8.57800000       5.05000000
 O      20.16400000       8.34600000      12.21500000
 H      19.76600000       7.81300000      11.45800000
 H      19.42100000       8.23100000      12.89400000
 O      24.79900000       7.29400000       7.53200000
 H      25.41500000       7.37600000       8.28200000
 H      23.87600000       7.35700000       7.85600000
 O      18.72100000      14.17800000      12.64100000
 H      18.83700000      14.38200000      13.55500000
 H      19.13400000      14.92700000      12.17000000
 O      18.15900000      10.90100000      12.66000000
 H      18.10100000      10.26400000      11.98700000
 H      17.77500000      11.81600000      12.28000000
 O      17.88100000      14.86800000       9.67600000
 H      16.94200000      15.16700000       9.59700000
 H      18.36700000      15.71800000       9.56100000
 O      22.13700000      16.29000000       6.91200000
 H      22.08800000      16.25300000       5.94100000
 H      22.51400000      15.42200000       7.19900000
 O      25.96600000       4.88200000      12.22900000
 H      25.36900000       4.38600000      12.84400000
 H      26.07200000       5.73900000      12.69400000
 O      17.06200000       5.11800000      10.77800000
 H      17.22800000       5.48100000      11.67900000
 H      17.34300000       4.20300000      10.75000000
 O      19.72900000      12.55700000      10.63600000
 H      19.14800000      13.29100000      10.65600000
 H      19.48700000      11.96500000      11.35100000
 O      18.18100000       7.52100000      13.88500000
 H      18.28000000       6.56500000      13.87400000
 H      17.87800000       7.72600000      14.88100000
 O      22.12400000      10.77100000       9.84800000
 H      21.40900000      11.13100000       9.24700000
 H      22.66100000      10.16700000       9.34800000
 O      23.32400000      13.84700000       8.89700000
 H      24.29500000      13.80000000       9.25400000
 H      22.86200000      14.33100000       9.62500000
 O      25.35500000      12.30200000      12.64800000
 H      25.38800000      12.14800000      11.65600000
 H      24.61200000      12.91200000      12.78800000
 O      18.00400000      11.29000000       8.78000000
 H      17.61400000      10.51900000       9.29000000
 H      18.58800000      11.74500000       9.48000000
 O      20.34600000      14.45500000       8.06700000
 H      19.99200000      14.26800000       8.91300000
 H      20.81600000      15.35600000       8.20700000
 O      19.41100000       5.44700000      12.53400000
 H      20.11800000       5.72000000      11.95700000
 H      19.12800000       4.63300000      12.15100000
 O      21.66300000       6.59900000      15.14800000
 H      21.54100000       7.55300000      15.09500000
 H      22.55300000       6.46100000      15.53100000
 O      16.55000000       5.30100000       7.92300000
 H      17.07300000       5.24900000       8.68600000
 H      15.92800000       4.55100000       8.07900000
 O      24.41500000       8.90900000      10.43800000
 H      23.73200000       8.77100000      11.12000000
 H      25.16800000       8.27900000      10.54200000
 O      15.61600000       8.53900000      13.06800000
 H      15.68600000       9.33900000      13.64400000
 H      16.52400000       8.25200000      13.32200000
 C      15.07900000      16.68600000      17.20200000
 C      16.26000000      15.84100000      16.69300000
 C      15.27800000      14.71500000      14.66100000
 H      14.97900000      13.98100000      16.55800000
 H      15.64700000      18.20400000      16.12400000
 O      16.90600000      13.46600000      16.05000000
 O      14.30300000      16.31600000      18.08400000
 O      15.03300000      18.03600000      16.86700000
 C      15.87200000      14.42800000      16.05800000
 O      17.05500000      16.57500000      15.76200000
 H      16.86800000      15.64800000      17.62200000
 O      14.25900000      15.34200000      14.44500000
 O      16.02300000      14.32800000      13.58000000
 H      16.77200000      13.83100000      14.04200000
 H      17.94400000      16.07000000      15.69000000
 H      17.31600000      13.47800000      16.98000000
 O      21.49500000       9.70500000      12.70800000
 H      21.68500000       9.88500000      11.76800000
 H      20.85500000       8.92200000      12.63600000
 O      19.97100000       6.44800000       5.11600000
 H      19.50500000       5.71800000       4.59900000
 H      20.74800000       5.93100000       5.57600000
 O      18.29600000      14.02500000       6.32400000
 H      17.96500000      14.99600000       6.32600000
 H      19.00500000      14.06400000       7.02900000
 O      24.38200000       9.83000000      13.58500000
 H      23.49800000       9.87900000      13.31300000
 H      24.78300000      10.65700000      13.13700000
 O      15.46900000      13.72900000       5.44000000
 H      15.86500000      13.07500000       6.04900000
 H      14.54800000      13.96400000       5.83100000
 O      20.03300000       6.37400000       9.99500000
 H      19.40600000       6.77300000       9.41700000
 H      20.29400000       5.52000000       9.59100000
 O      26.15200000      13.69500000      15.23700000
 H      26.03200000      13.32100000      14.36500000
 H      26.31700000      14.65800000      15.13000000
 O      21.03200000       9.43200000      15.53300000
 H      21.59600000      10.02700000      14.99500000
 H      20.08900000       9.62100000      15.23000000
 O      20.17700000       9.20600000       8.33000000
 H      19.61900000       9.99800000       8.36600000
 H      19.83000000       8.59500000       9.05000000
 O      21.91800000       7.97600000       8.00600000
 H      21.55200000       7.49600000       8.78800000
 H      21.73300000       8.93000000       8.26300000
 O      25.27400000       7.94900000      15.88400000
 H      24.73100000       8.75500000      15.79300000
 H      26.02500000       8.24700000      16.51100000
 O      15.68900000      11.30000000       7.35300000
 H      15.26100000      10.49700000       7.19400000
 H      16.62300000      11.06100000       7.73600000
 O      23.13200000       5.76800000       9.61200000
 H      22.80100000       4.83800000       9.45000000
 H      22.94700000       6.00400000      10.46400000
 O      20.77800000      10.44300000       4.92300000
 H      21.24900000      10.28800000       5.78500000
 H      20.59300000       9.52200000       4.59100000
 O      20.32200000      11.45200000      14.71900000
 H      19.60700000      11.20500000      14.07100000
 H      21.16900000      11.45100000      14.19500000
 O      22.35600000       5.53000000       6.61000000
 H      22.65300000       5.10400000       7.41600000
 H      22.30900000       6.48700000       6.85600000
 O      16.80900000      16.18000000       5.05000000
 H      16.57600000      15.27500000       5.33400000
 H      16.47200000      16.64000000       5.85400000
