144
XYZ file of cluster: frame_4000_74e68.21e.23664 - created by MolEdiTo
 O      24.20000000       9.90600000       6.62900000
 H      23.31500000       9.76900000       6.36300000
 H      24.46100000       9.06400000       6.88800000
 O      20.82800000       3.75000000       9.13100000
 H      20.52300000       3.06600000       9.74400000
 H      21.67100000       3.41700000       8.70700000
 O      17.48400000       0.93800000      13.43000000
 H      17.25800000       1.13000000      14.37100000
 H      16.55800000       0.89600000      13.06000000
 O      26.19700000       6.65400000       9.96700000
 H      26.10800000       6.08400000      10.76000000
 H      27.08400000       6.37400000       9.53500000
 O      22.43600000       4.64600000      12.84900000
 H      23.04700000       4.29500000      13.54100000
 H      22.34400000       3.85500000      12.30100000
 O      17.86400000       7.55200000       8.33400000
 H      17.90100000       8.16100000       7.53200000
 H      17.28000000       6.82900000       8.04700000
 O      22.35600000       5.53000000       6.61000000
 H      22.65300000       5.10400000       7.41600000
 H      22.30900000       6.48700000       6.85600000
 O      23.97200000      10.53000000      16.27900000
 H      24.22300000      10.22300000      15.35700000
 H      24.34800000      11.43700000      16.45700000
 O      22.84800000       7.60000000      12.70600000
 H      22.60100000       6.77000000      13.20300000
 H      21.99600000       8.02600000      12.56300000
 O      17.40500000       9.83100000      10.20600000
 H      17.46000000       9.00600000       9.73100000
 H      16.43800000       9.75900000      10.54700000
 O      18.73400000       2.87400000      11.44700000
 H      18.70100000       2.68800000      12.39300000
 H      18.33300000       2.05700000      11.10600000
 O      20.31100000       0.87300000       8.18500000
 H      19.89000000       0.67600000       9.06100000
 H      20.20400000       0.01700000       7.70600000
 O      25.64100000       7.52400000      13.27800000
 H      25.50100000       7.75200000      14.24700000
 H      24.70700000       7.48500000      13.01400000
 O      21.86000000       1.68000000      12.68600000
 H      21.65400000       0.68700000      12.58500000
 H      21.41900000       1.96600000      13.52700000
 O      18.41800000       8.74400000       5.84400000
 H      19.22400000       8.19500000       5.69700000
 H      17.88600000       8.57800000       5.05000000
 O      20.16400000       8.34600000      12.21500000
 H      19.76600000       7.81300000      11.45800000
 H      19.42100000       8.23100000      12.89400000
 O      24.79900000       7.29400000       7.53200000
 H      25.41500000       7.37600000       8.28200000
 H      23.87600000       7.35700000       7.85600000
 O      18.15900000      10.90100000      12.66000000
 H      18.10100000      10.26400000      11.98700000
 H      17.77500000      11.81600000      12.28000000
 O      19.02400000       3.26400000       6.59700000
 H      19.19200000       2.58300000       7.24900000
 H      19.70600000       3.90300000       6.89900000
 O      22.41400000       1.77000000       6.42200000
 H      21.66300000       1.56500000       6.96100000
 H      23.20700000       1.62500000       6.94700000
 O      24.75700000       1.04900000       8.29400000
 H      24.57200000       0.72800000       9.18500000
 H      24.90900000       0.16800000       7.95100000
 O      25.96600000       4.88200000      12.22900000
 H      25.36900000       4.38600000      12.84400000
 H      26.07200000       5.73900000      12.69400000
 O      17.06200000       5.11800000      10.77800000
 H      17.22800000       5.48100000      11.67900000
 H      17.34300000       4.20300000      10.75000000
 O      22.12400000      10.77100000       9.84800000
 H      21.40900000      11.13100000       9.24700000
 H      22.66100000      10.16700000       9.34800000
 O      18.18100000       7.52100000      13.88500000
 H      18.28000000       6.56500000      13.87400000
 H      17.87800000       7.72600000      14.88100000
 O      25.62700000       4.14500000       7.75400000
 H      25.43400000       5.03700000       8.20500000
 H      25.20100000       3.49900000       8.39200000
 O      15.72300000       4.39000000      13.45900000
 H      15.08200000       5.03200000      13.36500000
 H      16.06800000       4.60100000      14.37000000
 O      19.41100000       5.44700000      12.53400000
 H      20.11800000       5.72000000      11.95700000
 H      19.12800000       4.63300000      12.15100000
 O      21.66300000       6.59900000      15.14800000
 H      21.54100000       7.55300000      15.09500000
 H      22.55300000       6.46100000      15.53100000
 O      21.49500000       9.70500000      12.70800000
 H      21.68500000       9.88500000      11.76800000
 H      20.85500000       8.92200000      12.63600000
 O      24.41500000       8.90900000      10.43800000
 H      23.73200000       8.77100000      11.12000000
 H      25.16800000       8.27900000      10.54200000
 O      16.55000000       5.30100000       7.92300000
 H      17.07300000       5.24900000       8.68600000
 H      15.92800000       4.55100000       8.07900000
 O      20.53200000       4.00100000      14.76400000
 H      20.80300000       4.80200000      15.28600000
 H      20.59100000       4.28000000      13.81300000
 O      15.61600000       8.53900000      13.06800000
 H      15.68600000       9.33900000      13.64400000
 H      16.52400000       8.25200000      13.32200000
 O      19.97100000       6.44800000       5.11600000
 H      19.50500000       5.71800000       4.59900000
 H      20.74800000       5.93100000       5.57600000
 O      24.38200000       9.83000000      13.58500000
 H      23.49800000       9.87900000      13.31300000
 H      24.78300000      10.65700000      13.13700000
 O      20.03300000       6.37400000       9.99500000
 H      19.40600000       6.77300000       9.41700000
 H      20.29400000       5.52000000       9.59100000
 O      21.03200000       9.43200000      15.53300000
 H      21.59600000      10.02700000      14.99500000
 H      20.08900000       9.62100000      15.23000000
 O      25.89500000       0.88100000      15.96400000
 H      26.39900000       0.51100000      16.75500000
 H      26.44000000       0.58700000      15.18100000
 O      23.44700000       3.02300000      10.06100000
 H      23.09000000       2.58900000      10.84400000
 H      24.38200000       2.61600000      10.11500000
 O      20.17700000       9.20600000       8.33000000
 H      19.61900000       9.99800000       8.36600000
 H      19.83000000       8.59500000       9.05000000
 O      15.93500000       2.33100000       7.60900000
 H      15.50900000       1.84100000       8.38500000
 H      16.62200000       1.69200000       7.38400000
 O      24.12900000       3.01400000      14.38500000
 H      23.62100000       2.28800000      14.86500000
 H      25.02900000       3.00000000      14.85500000
 O      21.91800000       7.97600000       8.00600000
 H      21.55200000       7.49600000       8.78800000
 H      21.73300000       8.93000000       8.26300000
 O      25.27400000       7.94900000      15.88400000
 H      24.73100000       8.75500000      15.79300000
 H      26.02500000       8.24700000      16.51100000
 O      23.13200000       5.76800000       9.61200000
 H      22.80100000       4.83800000       9.45000000
 H      22.94700000       6.00400000      10.46400000
 O      20.77800000      10.44300000       4.92300000
 H      21.24900000      10.28800000       5.78500000
 H      20.59300000       9.52200000       4.59100000
 O      17.54700000       1.36800000       5.35900000
 H      18.08300000       2.11300000       5.74600000
 H      18.10800000       0.93000000       4.66800000
