153
XYZ file of cluster: frame_4000_34b5.75724.6fcfb - created by MolEdiTo
 O       7.50900000      23.51700000      23.73600000
 H       6.65900000      23.42400000      23.30700000
 H       7.99000000      23.83100000      22.90200000
 O      10.93400000      26.14100000      26.06000000
 H      10.36600000      25.88600000      26.81400000
 H      11.51100000      25.41800000      26.05900000
 O       1.57200000      19.34800000      16.14200000
 H       0.92000000      19.45700000      15.48300000
 H       1.33700000      18.51400000      16.56600000
 O       7.56800000      25.01800000      16.78200000
 H       6.79500000      24.89800000      16.22500000
 H       7.56200000      24.25500000      17.45700000
 O       6.70700000      25.08200000      21.60400000
 H       6.69800000      25.53600000      22.49100000
 H       6.43400000      25.86900000      21.04100000
 O       3.18800000      15.77400000      21.18700000
 H       3.51300000      15.68100000      20.23600000
 H       3.03600000      16.74900000      21.25800000
 O       6.31500000      18.73000000      25.62000000
 H       6.43700000      19.71900000      25.41000000
 H       6.94000000      18.24400000      25.04300000
 O       0.67100000      22.85700000      25.71300000
 H       1.14400000      22.22800000      25.04900000
 H       0.42500000      22.17300000      26.36400000
 O       3.68700000      17.57100000      18.23700000
 H       4.24100000      17.89500000      17.47700000
 H       3.17800000      18.34700000      18.46600000
 O       1.69400000      25.71700000      24.35900000
 H       1.60900000      24.84800000      23.85000000
 H       2.48200000      25.65400000      24.97400000
 O       8.53900000      21.74000000      19.89400000
 H       8.29600000      21.15300000      20.66900000
 H       9.45300000      21.34600000      19.66500000
 O       7.74200000      24.84400000      26.26500000
 H       7.25500000      25.59500000      25.84400000
 H       7.95400000      24.32400000      25.48300000
 O       6.60700000      21.84200000      26.15800000
 H       6.87600000      22.62000000      26.69500000
 H       6.70300000      22.10600000      25.23500000
 O       2.16100000      23.01900000      21.81700000
 H       2.93100000      23.08300000      21.29700000
 H       2.20100000      22.12800000      22.19800000
 O       5.11600000      21.71800000      25.80200000
 H       5.36800000      22.36200000      26.51600000
 H       6.00500000      21.41400000      25.60000000
 O       5.24200000      23.42300000      24.48200000
 H       5.06100000      22.49400000      24.71400000
 H       5.15000000      23.40100000      23.51500000
 O       6.31300000      18.02800000      17.71100000
 H       6.41200000      19.01600000      17.71500000
 H       6.89300000      17.73000000      18.43800000
 O       4.96500000      22.72100000      15.98500000
 H       5.41800000      21.95900000      15.50200000
 H       4.49100000      23.31100000      15.35400000
 O       6.63300000      19.20100000      23.47300000
 H       6.72700000      19.04600000      22.48300000
 H       5.82900000      18.75200000      23.72300000
 O      10.48100000      16.26100000      26.45000000
 H       9.85900000      15.65200000      25.91000000
 H      11.30900000      16.28200000      25.92800000
 O       4.93000000      23.96200000      21.25600000
 H       5.29000000      24.27700000      20.43700000
 H       5.77100000      23.40200000      21.41400000
 O       2.92000000      18.52100000      21.05100000
 H       3.84500000      18.78400000      21.01100000
 H       2.85400000      18.38300000      22.04700000
 O       5.45900000      18.76700000      20.86000000
 H       5.27000000      19.15900000      19.95800000
 H       5.84700000      17.92300000      20.67800000
 O       9.28700000      17.37300000      21.93500000
 H       8.76100000      18.17400000      21.85000000
 H       8.93000000      16.77000000      22.63500000
 O       5.35000000      24.85200000      18.18100000
 H       4.86800000      24.11600000      17.67500000
 H       6.17400000      24.50600000      18.47100000
 O       9.74900000      24.32600000      22.38200000
 H       9.55800000      25.27400000      21.95200000
 H      10.49100000      23.91600000      21.84700000
 O       4.92300000      18.22800000      25.64900000
 H       5.91700000      18.48200000      25.79600000
 H       4.96900000      17.33400000      26.06200000
 O       3.32100000      21.02800000      17.69200000
 H       2.75300000      20.44800000      17.12800000
 H       3.79100000      21.63600000      17.11400000
 O       4.24900000      26.43900000      21.92600000
 H       3.39700000      26.21500000      22.31700000
 H       4.59500000      25.55400000      21.70400000
 O       5.48000000      21.65200000      21.49300000
 H       5.52200000      21.02100000      22.22300000
 H       5.66600000      21.03800000      20.68000000
 O      10.40500000      17.02800000      17.47700000
 H      10.47300000      17.86800000      17.93000000
 H      11.04000000      16.95000000      16.68100000
 O       2.16500000      24.00100000      26.63100000
 H       1.50900000      23.70300000      25.97400000
 H       2.60500000      23.18800000      26.84100000
 O       8.14600000      15.33100000      23.55400000
 H       8.55700000      15.82700000      24.36500000
 H       7.27900000      15.08700000      23.99100000
 O       6.07700000      20.62900000      18.36100000
 H       5.21200000      21.04500000      18.38700000
 H       6.56400000      21.36400000      17.88800000
 O       5.07300000      15.95100000      26.26700000
 H       4.10800000      15.78800000      26.18100000
 H       5.29500000      15.10200000      26.67100000
 O       6.30300000      26.20000000      26.72300000
 H       6.32100000      26.47800000      25.78100000
 H       5.96600000      25.27000000      26.71400000
 O       7.94900000      22.38500000      15.94700000
 H       7.86300000      21.48100000      15.67900000
 H       8.86100000      22.37100000      16.37500000
 O       0.90100000      22.73700000      18.58000000
 H       1.54000000      22.10300000      18.23000000
 H       1.08000000      23.64300000      18.34500000
 O       2.76100000      20.88600000      25.18200000
 H       3.12200000      20.02300000      25.00400000
 H       3.43200000      21.19700000      25.87500000
 O       6.18100000      16.97400000      15.24400000
 H       6.69300000      17.39500000      14.50100000
 H       6.22700000      17.66200000      16.00900000
 O       9.42100000      22.91300000      27.06400000
 H      10.23900000      22.52700000      26.74000000
 H       9.07100000      23.18200000      26.13200000
 O      10.12000000      22.85100000      25.09100000
 H      10.93100000      22.41100000      24.77400000
 H       9.55300000      23.00100000      24.26000000
 O       6.32000000      25.63300000      15.07200000
 H       5.79400000      25.95400000      15.86200000
 H       6.89500000      26.35100000      14.75500000
 O       8.56200000      17.51900000      25.50900000
 H       8.78000000      17.50500000      26.45800000
 H       9.38800000      17.70000000      24.98000000
 O       2.87200000      24.73800000      17.33300000
 H       3.54000000      25.32300000      17.69200000
 H       2.02200000      25.11700000      17.58700000
 O       2.90600000      17.91200000      23.78900000
 H       3.46000000      17.94400000      24.56700000
 H       2.38700000      17.05800000      23.81100000
 O       3.90300000      25.26400000      25.12400000
 H       3.15900000      24.82700000      25.66400000
 H       4.36500000      24.57500000      24.54800000
 O       9.54000000      15.79500000      19.81700000
 H       9.67200000      16.42900000      20.53300000
 H      10.24700000      16.02400000      19.09500000
 O       6.51700000      23.39300000      19.27500000
 H       7.28200000      22.76500000      19.38500000
 H       6.76700000      24.01000000      20.04300000
 O       8.81700000      20.24600000      22.51500000
 H       8.62800000      20.49200000      23.47400000
 H       9.70300000      20.20700000      22.23800000
 O       1.46500000      23.34700000      15.58800000
 H       2.17900000      23.75600000      16.12500000
 H       1.71700000      23.49800000      14.65700000
