111
XYZ file of cluster: frame_4000_c2a29.9d03f.2097c - created by MolEdiTo
 O      28.97200000      26.40400000      10.99700000
 H      29.19700000      27.03400000      11.76200000
 H      28.11300000      26.76500000      10.65900000
 O      25.43500000      30.47100000      10.87900000
 H      26.27500000      30.96100000      10.58800000
 H      25.55700000      30.42800000      11.84600000
 O      25.46200000      23.24800000      12.94500000
 H      25.11100000      23.63200000      12.15900000
 H      26.45500000      23.30200000      12.96500000
 O      28.57000000      28.92400000       6.77700000
 H      27.60400000      28.80700000       6.82900000
 H      28.75500000      29.88800000       6.43800000
 O      28.98200000      21.49800000       8.37900000
 H      29.27500000      22.18500000       7.74500000
 H      29.40100000      21.69200000       9.24100000
 O      30.04800000      22.92600000      10.38500000
 H      29.51400000      23.04800000      11.19500000
 H      30.96500000      22.97500000      10.72900000
 O      30.12500000      21.32400000      13.81400000
 H      30.99500000      21.59900000      14.12500000
 H      29.74100000      20.83400000      14.54300000
 O      26.94700000      21.23000000      14.26500000
 H      26.12100000      21.73100000      14.01400000
 H      27.11400000      21.31900000      15.20300000
 O      29.96800000      30.12900000      15.40400000
 H      30.00000000      31.02400000      15.75900000
 H      29.27500000      29.62100000      15.90500000
 O      28.91200000      20.17000000      11.58900000
 H      28.84900000      20.63100000      12.46300000
 H      29.02400000      20.94700000      10.98000000
 O      28.94900000      25.31200000      15.12600000
 H      29.96400000      25.14400000      15.13100000
 H      28.70600000      24.79900000      15.95500000
 O      28.44800000      24.54600000       7.86300000
 H      28.67800000      24.05300000       8.72800000
 H      29.00000000      25.33700000       7.82600000
 O      26.96800000      30.41700000      13.33600000
 H      27.79700000      30.05200000      12.97600000
 H      27.28100000      31.36200000      13.44000000
 O      30.20600000      26.55200000       8.55600000
 H      29.89800000      26.73800000       9.52700000
 H      30.09000000      27.41300000       8.30100000
 O      25.78900000      24.60300000       7.27800000
 H      26.79300000      24.56100000       7.31600000
 H      25.73400000      25.63100000       7.34400000
 O      28.47300000      23.39500000      12.61200000
 H      28.44900000      24.26600000      13.12000000
 H      28.82900000      22.71900000      13.24400000
 O      27.88900000      27.77700000      14.94600000
 H      28.34900000      26.91300000      15.06000000
 H      27.17800000      27.50800000      14.35100000
 O      36.38300000      30.54900000       9.36900000
 H      36.62900000      29.69900000       9.83200000
 H      36.61200000      31.29000000      10.00800000
 O      34.53100000      21.47300000      13.45400000
 H      35.44000000      21.25900000      13.79500000
 H      34.64800000      22.12800000      12.71200000
 O      35.02800000      26.44600000      11.90000000
 H      35.92200000      26.43700000      11.56800000
 H      34.41800000      27.03900000      11.38400000
 O      34.35400000      23.38300000      11.26500000
 H      34.53700000      24.07600000      11.94400000
 H      35.10000000      23.22200000      10.69800000
 O      34.78300000      28.02000000      14.72600000
 H      33.85100000      28.24200000      14.36800000
 H      34.85800000      27.10900000      14.52900000
 O      36.46300000      22.72100000      15.98500000
 H      36.91600000      21.95900000      15.50200000
 H      35.98900000      23.31100000      15.35400000
 O      33.82600000      30.45100000      13.24000000
 H      32.93500000      30.69800000      13.32100000
 H      34.15200000      30.76700000      14.09400000
 O      37.19000000      29.17300000       6.82700000
 H      36.46900000      28.54800000       6.58800000
 H      37.03600000      29.86200000       6.19300000
 O      32.44600000      28.22000000       5.55700000
 H      32.81000000      27.37300000       5.87800000
 H      31.77500000      28.47500000       6.25700000
 O      35.55900000      21.94300000       4.62200000
 H      35.48600000      21.04300000       4.22700000
 H      35.26600000      21.87900000       5.54800000
 O      35.34600000      28.22600000       6.28100000
 H      34.86500000      28.90400000       6.78300000
 H      35.03400000      28.33000000       5.32700000
 O      33.08300000      21.05500000       6.62800000
 H      33.24100000      21.92600000       7.09300000
 H      32.44000000      21.34000000       6.02500000
 O      32.62400000      25.22900000       5.65700000
 H      32.74300000      24.75900000       6.51800000
 H      31.63100000      25.28300000       5.56400000
 O      34.13200000      30.52900000       7.69100000
 H      35.08500000      30.50900000       8.00000000
 H      33.63200000      31.22600000       8.20700000
 O      35.56300000      25.61800000       8.91000000
 H      36.30100000      25.99700000       9.39700000
 H      35.24700000      26.37100000       8.38600000
 O      34.99200000      30.53100000      15.92600000
 H      35.00100000      29.71500000      15.36600000
 H      35.67700000      30.21200000      16.61600000
 O      35.26000000      24.63300000      13.78900000
 H      35.20600000      25.48600000      13.19800000
 H      36.23100000      24.45100000      13.65900000
 O      33.05500000      29.00500000       9.76200000
 H      32.12600000      29.30400000       9.72700000
 H      33.61600000      29.71800000       9.43900000
 O      33.28600000      24.00000000       8.22900000
 H      33.77100000      24.70600000       8.74400000
 H      32.76300000      23.74800000       9.01200000
 O      32.96300000      23.34700000      15.58800000
 H      33.67700000      23.75600000      16.12500000
 H      33.21500000      23.49800000      14.65700000
