111
XYZ file of cluster: frame_4000_77aae.9e0b0.9cfed - created by MolEdiTo
 O      17.62000000      27.37800000      25.73900000
 H      17.61100000      27.96600000      24.95300000
 H      18.37300000      26.76200000      25.43100000
 O      20.31500000      28.07100000      30.70100000
 H      19.78400000      27.96100000      29.83700000
 H      21.12700000      27.55100000      30.53600000
 O      25.16500000      25.38500000      26.46900000
 H      25.92000000      24.79600000      26.25700000
 H      25.20800000      26.13600000      25.84800000
 O      21.70700000      21.16000000      29.83800000
 H      22.12500000      20.30200000      30.03100000
 H      20.82800000      20.97000000      29.37300000
 O      21.97300000      23.80900000      23.76600000
 H      22.69300000      24.47300000      23.91200000
 H      21.23000000      24.26900000      24.28100000
 O      15.69900000      21.66700000      24.93500000
 H      15.45800000      20.74200000      24.74400000
 H      16.63500000      21.75200000      24.63200000
 O      16.28100000      27.32100000      27.92800000
 H      16.25300000      27.25600000      28.85800000
 H      16.57500000      26.46900000      27.64300000
 O      18.67100000      25.82900000      28.25100000
 H      19.21100000      26.12800000      27.46800000
 H      18.90300000      24.79700000      28.19700000
 O      19.74800000      26.34200000      24.26400000
 H      19.88600000      26.63900000      23.33500000
 H      20.72200000      26.23800000      24.65300000
 O      18.75300000      29.30700000      27.15400000
 H      18.73400000      29.55500000      26.24000000
 H      18.01500000      28.63000000      27.14200000
 O      25.02000000      28.22500000      29.23500000
 H      25.00000000      28.74900000      28.44200000
 H      25.82600000      28.55800000      29.77200000
 O      16.44400000      25.65300000      22.67500000
 H      16.78900000      26.59800000      22.73200000
 H      15.43900000      25.66300000      22.58700000
 O      19.71600000      22.86300000      30.86300000
 H      20.55200000      23.29400000      30.70500000
 H      19.71500000      22.23200000      30.10200000
 O      21.96800000      21.98100000      21.60900000
 H      22.11500000      22.45300000      22.43500000
 H      21.00000000      21.98600000      21.56100000
 O      17.68600000      24.53900000      25.78500000
 H      16.93400000      24.39300000      26.51900000
 H      17.23800000      25.27200000      25.27200000
 O      20.16200000      26.29600000      21.33900000
 H      19.94400000      27.12800000      20.74400000
 H      21.00300000      25.87900000      21.03900000
 O      25.09300000      25.79200000      21.27200000
 H      24.64300000      26.20300000      22.06000000
 H      26.00700000      25.46900000      21.51200000
 O      19.78300000      28.92500000      22.15600000
 H      18.90300000      28.79200000      22.40500000
 H      19.96800000      29.74500000      22.67200000
 O      25.18300000      28.74100000      23.61300000
 H      25.49800000      29.13900000      22.78800000
 H      24.33500000      29.20800000      23.68300000
 O      20.33000000      23.09200000      25.71600000
 H      19.89000000      22.26800000      26.01500000
 H      19.65600000      23.73100000      25.97700000
 O      22.33000000      21.57200000      25.49700000
 H      22.25700000      22.16500000      26.31000000
 H      22.33200000      22.22700000      24.80000000
 O      17.70100000      22.56400000      28.12600000
 H      18.26600000      21.81900000      28.38300000
 H      16.77100000      22.27800000      28.32700000
 O      23.66400000      28.72500000      26.35100000
 H      23.53700000      29.23100000      25.54500000
 H      23.60600000      29.44100000      27.06000000
 O      26.56600000      25.46400000      29.59200000
 H      26.12200000      26.40200000      29.44900000
 H      26.77900000      25.57400000      30.54400000
 O      21.39700000      24.86900000      28.91800000
 H      22.03500000      24.95400000      29.63900000
 H      21.35900000      25.77800000      28.46100000
 O      21.71600000      26.91800000      25.03100000
 H      20.97400000      27.43600000      25.36000000
 H      22.41400000      27.53400000      24.94100000
 O      21.83000000      27.40200000      28.49600000
 H      22.55200000      27.86900000      28.95000000
 H      22.00400000      27.61700000      27.54000000
 O      22.60300000      25.02700000      20.37700000
 H      23.50700000      25.25200000      20.36100000
 H      22.60400000      24.48500000      21.17300000
 O      18.09900000      23.04700000      24.20700000
 H      18.13700000      23.62500000      23.39500000
 H      17.94800000      23.63400000      24.99100000
 O      15.96500000      25.55900000      30.70800000
 H      16.96800000      25.41300000      30.64200000
 H      15.55400000      24.99000000      30.05600000
 O      22.78100000      30.33900000      28.45700000
 H      21.80600000      30.63900000      28.21600000
 H      22.73300000      30.19800000      29.45000000
 O      17.41800000      29.24400000      23.25100000
 H      17.31400000      30.13600000      23.54600000
 H      16.51700000      28.98800000      22.96500000
 O      18.63500000      23.93800000      21.45300000
 H      19.05400000      24.79100000      21.25600000
 H      17.71700000      24.24100000      21.32900000
 O      23.09300000      23.29800000      27.04800000
 H      23.83100000      23.95800000      26.97600000
 H      22.39900000      23.92600000      27.30600000
 O      24.67500000      20.84800000      27.81900000
 H      23.99400000      21.51900000      27.55000000
 H      25.45800000      21.26800000      28.18000000
 O      19.46700000      20.94800000      25.18200000
 H      19.13000000      21.82100000      24.91200000
 H      20.43300000      21.04700000      25.21100000
 O      23.87600000      25.87300000      24.19400000
 H      24.17900000      26.77900000      24.54600000
 H      24.77000000      25.54400000      24.17600000
