322
XYZ file of cluster: frame_16000_4fe9d.2380b.2460f - created by MolEdiTo
 O      19.43600000      12.20700000      16.19300000
 H      19.32300000      12.73500000      17.00300000
 H      18.49200000      12.02300000      15.94700000
 O      26.28600000      15.73600000      13.99200000
 H      26.64000000      15.19400000      14.72300000
 H      26.08300000      16.56600000      14.46100000
 O      20.73700000      18.63800000      15.03000000
 H      21.00600000      19.56200000      15.03200000
 H      21.05800000      18.24200000      15.87500000
 O      16.92200000       8.92200000      19.86100000
 H      16.42600000       8.48900000      19.09100000
 H      17.81800000       8.62700000      19.54000000
 O      16.45100000      20.52100000      17.04600000
 H      16.93800000      20.84600000      17.77200000
 H      16.01300000      19.71300000      17.36200000
 O      20.98400000      10.95900000       9.02600000
 H      20.75200000      11.38700000       9.84100000
 H      21.87200000      11.28700000       8.79800000
 O      17.60600000       8.84700000      15.23800000
 H      16.89800000       8.82300000      14.53200000
 H      17.46800000       9.79200000      15.54800000
 O      24.14500000      19.89300000      14.54200000
 H      23.30300000      20.36900000      14.82400000
 H      23.98000000      19.03600000      14.97900000
 O      23.94500000      19.32800000      18.97700000
 H      24.33800000      20.13300000      19.30200000
 H      23.62400000      18.87600000      19.78500000
 O      27.46000000      11.15900000       9.05400000
 H      26.86100000      10.38200000       9.10100000
 H      27.97500000      11.05600000       9.88100000
 O      22.54800000       8.51800000       9.79700000
 H      23.41000000       8.50200000       9.31700000
 H      22.03700000       9.13200000       9.26100000
 O      17.64500000       8.32100000       8.96100000
 H      17.51400000       9.23900000       8.73900000
 H      17.53000000       8.37700000       9.93400000
 O      22.23000000      15.92100000      11.26100000
 H      21.95200000      16.17200000      12.13400000
 H      23.16800000      15.71300000      11.41500000
 O      19.53800000      20.23500000       7.53800000
 H      19.42100000      19.82900000       6.64800000
 H      18.67100000      20.29500000       7.90900000
 O      25.68100000      12.54300000      12.46700000
 H      25.28400000      13.43900000      12.47500000
 H      24.94900000      12.13800000      11.83900000
 O      24.72200000      15.46000000      11.76100000
 H      25.46300000      15.06200000      11.17900000
 H      25.29300000      15.62600000      12.52200000
 O      21.85500000      16.31000000      13.77100000
 H      22.54300000      16.74500000      14.32000000
 H      21.04600000      16.62700000      14.23900000
 O      20.02100000      15.13500000      18.15500000
 H      20.76600000      14.52000000      18.36500000
 H      19.89700000      15.50600000      19.02300000
 O      28.09300000       8.63500000      12.48100000
 H      28.43800000       9.33800000      11.87700000
 H      27.24700000       8.95000000      12.70200000
 O      19.40700000       9.27500000      11.29800000
 H      20.18700000       8.72200000      11.02200000
 H      19.29700000       9.02900000      12.22500000
 O      16.10700000      16.05000000      16.10700000
 H      16.14400000      16.38600000      15.21800000
 H      17.09200000      15.84100000      16.25900000
 O      21.46100000       8.44400000      21.73100000
 H      21.75100000       7.56600000      21.96100000
 H      21.66800000       8.46500000      20.74200000
 O      13.92300000      17.54600000      13.09400000
 H      13.79400000      18.30700000      12.54100000
 H      14.82200000      17.73600000      13.43100000
 O      19.18500000       6.81400000      18.76500000
 H      18.56700000       6.09300000      18.43700000
 H      19.64600000       6.93700000      17.95000000
 O      19.62800000      20.55600000      12.06800000
 H      18.96800000      19.94400000      11.79100000
 H      20.26300000      19.99100000      12.56400000
 O      15.89900000       8.15000000      17.45800000
 H      15.09500000       8.22500000      16.97300000
 H      16.61300000       8.26100000      16.82400000
 O      14.91700000      12.47400000      13.59000000
 H      14.91100000      13.49000000      13.48800000
 H      14.31900000      12.21900000      12.90200000
 O      22.99900000      12.31400000      16.52800000
 H      23.49700000      12.05700000      17.33900000
 H      23.66100000      12.15800000      15.79900000
 O      19.64900000      17.13700000       9.52800000
 H      20.31000000      17.59700000       9.00800000
 H      19.99300000      16.24400000       9.51100000
 O      21.20300000      12.35600000      14.20900000
 H      20.37500000      12.24300000      14.76700000
 H      21.83100000      12.35900000      14.92900000
 C      21.83800000      21.81100000      22.12200000
 C      20.71400000      21.58400000      21.10100000
 C      19.40700000      19.80100000      19.75500000
 H      21.63700000      19.98000000      19.94000000
 H      23.21400000      22.40300000      21.77500000
 O      20.95900000      19.15700000      21.60400000
 O      22.58000000      23.03100000      22.04100000
 O      22.97300000      21.38900000      21.59900000
 C      20.71200000      20.13600000      20.54400000
 O      19.35800000      21.88400000      21.68700000
 H      20.92200000      22.24900000      20.24600000
 O      19.25500000      20.72400000      18.73300000
 O      19.49100000      18.42600000      19.19700000
 H      20.14100000      18.63000000      18.44900000
 H      19.33400000      22.76900000      22.13600000
 H      21.72300000      18.48000000      21.23300000
 O      14.85500000      12.08600000       8.79300000
 H      14.28200000      12.89300000       8.78800000
 H      15.70500000      12.53600000       8.69700000
 O      18.36500000      11.24600000       8.42400000
 H      18.62500000      11.44100000       7.51700000
 H      19.20200000      10.82800000       8.74400000
 O      22.62900000      18.48200000      11.11500000
 H      22.28400000      18.65300000      10.24500000
 H      22.47500000      17.50400000      11.21100000
 O      21.71100000      13.80400000       9.19600000
 H      21.77100000      14.31200000      10.02400000
 H      22.19700000      14.30400000       8.57800000
 O      26.28000000       9.73700000      17.82900000
 H      26.13600000       9.48800000      16.93900000
 H      26.45100000       8.93300000      18.32300000
 O      22.30600000       8.87600000      19.18400000
 H      21.29300000       8.93900000      19.06700000
 H      22.57200000       9.67900000      18.73900000
 O      19.27000000      14.94600000      13.08500000
 H      19.04200000      15.36600000      13.88400000
 H      20.24300000      14.73300000      13.24100000
 O      22.74100000       8.56700000      12.52300000
 H      23.73300000       8.59800000      12.61500000
 H      22.68400000       8.64700000      11.54200000
 O      24.15500000      20.65700000      12.00300000
 H      24.19700000      20.45600000      13.01400000
 H      23.59600000      19.92600000      11.71500000
 O      14.54400000      11.55500000      17.15200000
 H      14.88000000      12.19400000      17.82300000
 H      13.62000000      11.98900000      16.96900000
 O      14.07800000      11.96700000      20.35700000
 H      13.94900000      11.23300000      20.97100000
 H      14.96000000      11.75100000      20.00700000
 O      19.79300000       7.20600000       8.20000000
 H      19.09200000       7.81700000       8.51000000
 H      20.16200000       7.69200000       7.46800000
 O      26.39800000       8.61500000       9.38400000
 H      26.80300000       7.69300000       9.25700000
 H      25.80600000       8.53100000       8.58500000
 O      16.91900000      11.65600000      19.98600000
 H      17.91200000      11.65200000      20.16600000
 H      16.77600000      10.68100000      19.85300000
 O      26.24200000      20.63400000      16.23100000
 H      26.06000000      21.65300000      16.31000000
 H      25.54800000      20.43600000      15.59300000
 O      24.52000000       6.94700000      17.67900000
 H      24.22700000       6.04900000      18.04200000
 H      24.08200000       7.54300000      18.30000000
 O      24.05700000      11.08600000      19.07700000
 H      24.82200000      10.67100000      18.66700000
 H      24.28900000      10.93600000      20.05200000
 O      19.56700000       7.31500000      16.26900000
 H      18.87000000       7.92700000      15.94300000
 H      19.97800000       7.09800000      15.40600000
 O      22.98300000      17.73500000      20.89200000
 H      23.85900000      17.60000000      21.29000000
 H      22.76500000      16.73000000      20.82900000
 O      19.69300000      11.56300000      19.83800000
 H      20.28200000      12.29500000      19.55800000
 H      19.76500000      11.01900000      19.04100000
 O      23.65700000      17.19700000      15.71800000
 H      24.59500000      17.18600000      15.99500000
 H      23.39100000      16.30100000      16.12600000
 O      17.02300000      14.62000000      20.02300000
 H      16.33400000      14.63600000      19.34400000
 H      16.78500000      13.70600000      20.35700000
 O      15.56400000      15.53000000       7.23300000
 H      14.74300000      15.19300000       7.69100000
 H      16.20600000      15.37900000       7.88100000
 O      26.21300000      17.57200000      16.54800000
 H      26.40400000      18.51400000      16.57000000
 H      26.70600000      17.25000000      17.30700000
 O      23.44200000      11.52500000       7.93600000
 H      24.31200000      11.88800000       7.59700000
 H      22.98100000      11.58600000       7.03600000
 O      21.68200000      18.76900000       8.51700000
 H      21.01300000      19.42100000       8.20200000
 H      22.21700000      18.65100000       7.66400000
 O      16.31000000      18.01100000      13.84400000
 H      16.62100000      18.79200000      14.37500000
 H      17.13600000      17.83900000      13.31700000
 O      28.28300000      11.39100000      11.77000000
 H      28.56400000      12.06400000      12.45000000
 H      27.37400000      11.78200000      11.60100000
 O      21.75800000      12.97000000      19.25500000
 H      22.49600000      12.31200000      19.39000000
 H      22.13100000      13.68300000      19.80200000
 O      17.17000000      14.17700000      11.76600000
 H      18.06800000      14.34000000      12.06700000
 H      17.04800000      13.24800000      12.01000000
 O      25.66000000      20.01700000       8.87800000
 H      25.55400000      19.09900000       9.11500000
 H      24.77900000      20.27400000       8.63700000
 O      20.32700000      13.18000000       6.97600000
 H      20.67100000      14.03200000       6.68900000
 H      20.67800000      13.03800000       7.83700000
 O      16.96400000      14.12500000       9.32600000
 H      17.05600000      14.16000000      10.31300000
 H      17.70000000      13.55200000       9.09800000
 O      24.97300000      11.45900000      14.88700000
 H      25.28400000      10.50600000      14.92600000
 H      25.12500000      11.66600000      13.95900000
 O      16.62800000      18.75800000       9.30300000
 H      16.88500000      19.70900000       9.23500000
 H      17.26200000      18.49100000       9.99400000
 O      24.28300000       9.00600000       7.46700000
 H      24.10800000       9.15100000       6.52400000
 H      23.92400000       9.92100000       7.85400000
 O      25.45700000       9.64700000      11.93500000
 H      24.92200000      10.36000000      11.57200000
 H      25.83600000       9.29200000      11.12200000
 O      23.35300000      15.49400000       7.55700000
 H      23.92700000      16.11300000       7.02100000
 H      22.75500000      15.18900000       6.84300000
 O      18.12300000      17.83100000      11.50100000
 H      18.77100000      17.77500000      10.77400000
 H      18.23100000      16.88500000      11.80100000
 O      14.20500000      14.99800000      12.94300000
 H      14.50000000      14.96700000      11.99600000
 H      14.03400000      15.91200000      13.03000000
 O      25.75000000       6.80800000       6.29300000
 H      25.69700000       6.19200000       7.03000000
 H      24.84300000       7.24300000       6.39500000
 O      28.19800000      16.01600000      20.19800000
 H      27.35100000      15.53000000      20.54000000
 H      27.98400000      15.81500000      19.22700000
 O      23.11100000      14.98100000      16.98500000
 H      23.78300000      14.80500000      17.67000000
 H      22.92400000      14.06800000      16.64700000
 O      27.09700000      12.33200000      18.77200000
 H      28.03700000      12.15700000      18.83600000
 H      26.83800000      11.37100000      18.44600000
 O      28.06500000      18.37900000      11.14300000
 H      28.06900000      19.21600000      11.63800000
 H      27.13500000      18.13800000      11.12100000
 O      25.92700000       8.45700000      15.56300000
 H      25.37000000       8.04000000      16.24900000
 H      25.96900000       7.74400000      14.87500000
 O      14.56300000      18.79800000       7.39300000
 H      14.08900000      19.56000000       7.74800000
 H      15.26600000      18.72300000       8.06300000
 O      20.05500000       9.78100000      17.75500000
 H      19.86200000      10.35300000      16.98800000
 H      20.02400000       8.88100000      17.43100000
 O      21.61400000      18.15500000      17.68200000
 H      21.92800000      17.26300000      17.43700000
 H      22.36500000      18.62500000      18.00200000
 O      15.32800000      18.12200000      17.64900000
 H      15.60100000      17.52400000      16.89600000
 H      15.85300000      17.65600000      18.37500000
 O      28.66100000      19.85400000      16.42900000
 H      28.67600000      19.95900000      17.45500000
 H      27.67800000      20.11900000      16.34100000
 O      20.85800000      12.06400000      11.60400000
 H      19.91800000      11.78300000      11.60400000
 H      21.01900000      12.15200000      12.58100000
 O      15.21500000      14.47500000      17.99000000
 H      14.27300000      14.80100000      17.88100000
 H      15.52400000      14.63600000      17.05500000
 O      14.35600000      19.54400000      10.68400000
 H      15.12700000      19.00000000      10.36200000
 H      14.12600000      20.02000000       9.83800000
 O      17.48800000      20.28100000      14.77600000
 H      18.28600000      20.71500000      14.95800000
 H      17.10500000      20.22400000      15.69600000
 O      26.27200000      19.74300000      21.38500000
 H      25.86900000      20.22600000      20.61900000
 H      26.81600000      20.41200000      21.79400000
 O      28.23800000      19.69800000       7.58500000
 H      27.43400000      19.71000000       8.20800000
 H      27.85000000      19.20900000       6.88600000
 O      25.49600000      17.81600000      10.33800000
 H      25.89900000      16.94600000      10.00000000
 H      24.70200000      17.50700000      10.72800000
 O      24.76300000      14.19200000      18.92500000
 H      25.44900000      13.55100000      18.77600000
 H      24.96400000      14.57800000      19.80300000
 O      26.99200000      13.80600000      16.05800000
 H      26.65600000      12.98900000      15.68700000
 H      27.59400000      13.49800000      16.75700000
 O      23.79600000      11.69200000      10.80200000
 H      23.56800000      11.80200000       9.83600000
 H      22.95300000      11.49500000      11.19600000
 O      20.67300000       7.14200000      13.63200000
 H      20.46100000       6.99300000      12.68300000
 H      21.41700000       7.78800000      13.47900000
 O      16.70700000      11.82000000      15.61800000
 H      16.37300000      12.03400000      14.72000000
 H      15.85700000      11.63300000      16.04600000
 O      14.27800000       9.98700000       7.21700000
 H      13.73300000       9.46000000       7.82000000
 H      14.41800000      10.80600000       7.75400000
 O      25.96300000      12.19000000       6.99000000
 H      26.55500000      12.01500000       6.21700000
 H      26.57300000      11.90100000       7.69500000
 O      26.89800000      14.95000000       9.79700000
 H      27.88700000      15.20000000       9.82600000
 H      26.93500000      14.38000000       9.01300000
 O      27.86400000      15.72800000      17.64400000
 H      28.58200000      16.06500000      17.11800000
 H      27.37400000      15.18000000      16.97900000
 O      14.12200000       6.65600000       7.31600000
 H      13.80200000       6.95500000       8.13200000
 H      13.90900000       7.46900000       6.77600000
 O      18.03600000      11.58500000      11.65400000
 H      17.92900000      11.20600000      10.78300000
 H      17.71900000      10.93100000      12.26400000
 O      16.36700000       8.72500000      12.83900000
 H      15.36600000       8.83800000      12.75300000
 H      16.37800000       7.74700000      12.94700000
 O      19.05800000      16.10800000      15.88900000
 H      19.38400000      17.01400000      15.94500000
 H      19.58500000      15.67200000      16.62500000
 O      17.14400000      17.20700000      19.51400000
 H      17.20300000      16.24600000      19.75400000
 H      18.07900000      17.46700000      19.53400000
