672
XYZ file of cluster: frame_16000_c831b.2b4b.c6426 - created by MolEdiTo
 O      34.90600000      35.61700000      37.80600000
 H      35.10500000      34.98700000      37.11600000
 H      34.58100000      36.38300000      37.34000000
 O      39.93300000      23.07300000      35.51200000
 H      40.07300000      22.27300000      34.97500000
 H      40.14000000      22.72900000      36.41800000
 O      37.75100000      13.42500000      34.86900000
 H      38.41700000      14.03400000      34.64100000
 H      37.14200000      13.48800000      34.14600000
 O      35.02200000      34.51300000      40.28900000
 H      36.00200000      34.57400000      40.47400000
 H      34.98400000      35.10300000      39.52700000
 O      37.65500000      36.97700000      37.01700000
 H      36.95200000      36.20700000      37.00400000
 H      38.32500000      36.51400000      36.44400000
 O      34.44900000       7.53400000      39.00400000
 H      34.12500000       7.08200000      38.16400000
 H      35.34200000       7.19800000      38.94900000
 O      35.48200000      31.18000000      34.40900000
 H      35.48200000      30.61800000      35.21900000
 H      34.76200000      30.71300000      33.94200000
 O      39.86200000      35.65000000      35.88600000
 H      39.83200000      36.07100000      34.98500000
 H      39.75000000      34.70600000      35.58400000
 O      37.73800000      10.82600000      35.27900000
 H      38.69600000      10.87600000      35.15000000
 H      37.51400000      11.76800000      35.38300000
 O      35.09000000      30.99100000      37.22400000
 H      35.34100000      31.02700000      38.15900000
 H      34.30300000      30.39800000      37.28900000
 O      36.48900000      34.44200000      35.64300000
 H      36.30200000      34.23700000      34.71000000
 H      36.78800000      33.55500000      35.94600000
 O      35.00400000      12.37500000      37.68400000
 H      34.24900000      12.89000000      38.01900000
 H      35.61200000      13.08500000      37.39900000
 O      38.78700000      28.87400000      37.97400000
 H      39.42400000      28.13100000      37.68800000
 H      39.33700000      29.26600000      38.71100000
 O      36.79700000       2.82100000      39.96100000
 H      37.06200000       3.23700000      40.80300000
 H      36.13200000       2.19900000      40.34700000
 O      40.45400000      29.76300000      39.90600000
 H      41.03500000      30.23400000      39.32400000
 H      41.06200000      29.38200000      40.59000000
 O      37.58600000      23.73800000      40.76500000
 H      37.18000000      23.41200000      39.95400000
 H      37.08300000      23.22000000      41.46100000
 O      37.24400000       4.02400000      37.46500000
 H      36.88200000       3.69900000      38.28800000
 H      37.54500000       3.26400000      37.02700000
 O      35.20900000      20.52600000      36.88000000
 H      35.12500000      20.06700000      37.73900000
 H      35.74600000      19.84000000      36.40100000
 O      36.85600000      29.86400000      39.94600000
 H      37.49400000      29.42800000      40.48200000
 H      37.13000000      29.56700000      39.08400000
 O      36.95400000      39.83500000      37.74300000
 H      36.31400000      39.53600000      38.41400000
 H      37.22800000      38.97300000      37.34100000
 O      37.04400000       6.74800000      38.39200000
 H      36.88300000       5.99600000      37.76700000
 H      37.75700000       7.25000000      37.94200000
 O      40.44200000      37.31700000      37.96800000
 H      40.52300000      36.65200000      38.68700000
 H      40.12900000      36.82000000      37.21200000
 O      34.80100000      23.26700000      35.96100000
 H      34.79300000      22.33900000      36.29900000
 H      35.59700000      23.17100000      35.33700000
 O      39.84000000      17.38900000      40.17300000
 H      39.76700000      16.71900000      40.92600000
 H      40.75300000      17.17200000      39.83000000
 O      39.55000000       4.95600000      38.93400000
 H      39.99000000       4.86000000      38.00900000
 H      38.75000000       4.47800000      38.61000000
 O      37.02100000       9.74100000      40.41600000
 H      36.73100000       9.71800000      39.47600000
 H      36.77000000       8.85500000      40.70900000
 O      37.95700000      32.33200000      36.65000000
 H      37.18600000      31.81700000      36.95300000
 H      38.19600000      31.87400000      35.84800000
 O      37.54700000      35.59100000      39.85200000
 H      37.71000000      36.38200000      39.29400000
 H      38.04600000      34.91400000      39.41400000
 O      37.28200000       5.99400000      35.05100000
 H      37.07700000       6.89800000      34.72500000
 H      38.19000000       6.13700000      35.40700000
 O      34.63700000       1.40200000      36.60300000
 H      35.43700000       0.90000000      36.89900000
 H      35.05900000       2.16900000      36.14700000
 O      40.40900000       7.73300000      34.78300000
 H      41.35800000       7.89000000      34.58600000
 H      40.28600000       8.27600000      35.59200000
 O      34.97000000      24.97400000      39.27300000
 H      34.89600000      25.70700000      39.92700000
 H      35.92800000      25.06800000      39.06700000
 O      37.26100000      29.37300000      35.79900000
 H      37.42200000      28.56000000      35.31400000
 H      37.65000000      29.13300000      36.65900000
 O      39.24100000       8.28900000      37.32200000
 H      40.15400000       8.24100000      37.59600000
 H      38.94900000       9.11200000      37.72400000
 O      39.36900000       1.76400000      38.86000000
 H      38.38500000       1.98700000      38.83100000
 H      39.31600000       0.82300000      38.54200000
 O      40.21100000      39.91200000      36.75500000
 H      40.80100000      39.62600000      36.00500000
 H      40.16800000      38.98200000      37.16300000
 O      36.53800000       9.83800000      37.72400000
 H      36.86900000      10.70600000      37.35000000
 H      36.04000000       9.47300000      36.95200000
 O      39.04400000      33.57900000      38.88900000
 H      39.99600000      33.48900000      38.74200000
 H      38.65300000      32.91700000      38.28200000
 O      40.20400000      26.54300000      37.54000000
 H      41.11800000      26.83400000      37.39200000
 H      40.31200000      25.95500000      38.30900000
 O      35.95600000       3.45700000      34.72800000
 H      36.00100000       4.43400000      34.79500000
 H      35.00500000       3.30400000      34.88300000
 O      37.49300000      25.11200000      37.63600000
 H      37.37000000      24.71400000      36.78600000
 H      38.38300000      25.43300000      37.58600000
 O      39.44800000      15.46800000      36.97900000
 H      40.13900000      14.82300000      37.02400000
 H      39.58200000      15.77700000      36.00000000
 O      36.88600000      18.49200000      35.85400000
 H      37.28600000      18.16800000      36.68200000
 H      36.40800000      17.74300000      35.48000000
 O      35.38800000      16.84400000      39.12400000
 H      36.19800000      17.14400000      38.74500000
 H      35.59700000      16.42200000      39.96100000
 O      38.14500000       1.56600000      36.19100000
 H      37.62100000       0.90400000      36.77900000
 H      39.06600000       1.10600000      36.31000000
 O      39.01400000       3.87100000      34.63500000
 H      38.50800000       3.05700000      34.92800000
 H      38.19100000       4.46700000      34.49100000
 O      36.83200000      14.17900000      37.21500000
 H      37.64300000      14.37100000      37.79000000
 H      37.30100000      14.26700000      36.33500000
 O      35.43000000      16.06600000      35.64600000
 H      35.40400000      15.47500000      36.44600000
 H      35.23600000      15.35700000      34.97500000
 O      39.96200000      24.37100000      39.53100000
 H      39.06700000      24.41100000      39.95000000
 H      40.47000000      24.30800000      40.37700000
 O      40.31900000      11.88200000      35.27300000
 H      40.59200000      12.34200000      34.44000000
 H      40.69900000      12.48100000      35.89100000
 O      38.06800000      17.55500000      38.08100000
 H      38.64100000      17.61900000      38.85300000
 H      38.44600000      16.82200000      37.55100000
 O      34.91100000       8.53900000      35.77500000
 H      34.70400000       7.67000000      36.22200000
 H      34.27300000       9.08600000      36.21500000
 O      39.34100000      25.82800000      34.94300000
 H      39.62000000      24.90800000      35.12000000
 H      39.93200000      26.33600000      35.56100000
 O      35.92200000      39.06500000      40.10700000
 H      35.77800000      39.89600000      40.60800000
 H      35.00100000      38.64000000      40.28000000
 O      37.45400000      11.56500000      49.42300000
 H      37.37600000      12.17000000      48.63700000
 H      38.36900000      11.83300000      49.67500000
 O      34.69700000      36.00800000      47.17000000
 H      34.25900000      36.08100000      48.05700000
 H      34.12000000      35.37000000      46.76400000
 O      38.23600000       5.76700000      48.54100000
 H      37.59500000       6.38000000      48.87900000
 H      38.26900000       5.98800000      47.57400000
 O      40.18400000       5.20400000      43.25800000
 H      39.95100000       5.18100000      42.33000000
 H      40.36800000       6.13900000      43.42300000
 O      40.41800000      13.17100000      43.62900000
 H      40.50200000      12.38800000      44.20200000
 H      40.02200000      12.73200000      42.88100000
 O      35.20000000      30.67600000      43.58900000
 H      35.98000000      30.53300000      44.19400000
 H      35.54200000      30.32200000      42.74100000
 O      34.74000000       9.55300000      44.36300000
 H      34.66700000       9.77500000      43.44500000
 H      34.43500000       8.65600000      44.39800000
 O      36.80400000      15.89400000      43.33300000
 H      36.73400000      16.84100000      43.63700000
 H      37.81000000      15.78000000      43.46800000
 O      40.73500000       9.81600000      47.87000000
 H      40.97900000       8.99700000      48.33900000
 H      41.55200000      10.16800000      47.58900000
 O      35.52800000       2.97300000      46.38900000
 H      36.50100000       2.83800000      46.64800000
 H      35.31300000       2.12600000      45.99400000
 O      35.05500000       5.83800000      47.18400000
 H      34.64800000       5.86700000      48.08800000
 H      34.99100000       4.85800000      47.12600000
 O      37.30900000      29.15400000      47.00600000
 H      37.61400000      29.43500000      46.07700000
 H      38.03600000      29.62400000      47.50800000
 O      39.53000000       9.61300000      43.32200000
 H      38.60700000       9.53000000      42.94000000
 H      39.30000000      10.02400000      44.17600000
 O      34.86600000      37.70700000      44.98600000
 H      34.59600000      37.45300000      45.90600000
 H      34.80100000      38.65800000      45.02100000
 O      36.55100000      32.47900000      47.56400000
 H      36.63800000      33.21400000      46.89500000
 H      37.34000000      32.63500000      48.12300000
 O      38.82900000       3.18200000      48.83300000
 H      38.66800000       4.12400000      48.63100000
 H      38.41000000       2.73400000      48.10000000
 O      38.26800000      35.31600000      44.13700000
 H      38.24000000      36.23900000      44.43400000
 H      38.19000000      35.39400000      43.16000000
 O      36.91800000      18.67000000      44.70800000
 H      37.11300000      18.66800000      45.65100000
 H      36.10700000      19.21100000      44.64500000
 O      36.70600000      12.47100000      42.69400000
 H      37.04300000      11.58000000      42.74100000
 H      36.68000000      12.62600000      41.72300000
 O      37.42600000       6.38100000      45.88800000
 H      36.61300000       6.37200000      46.38700000
 H      37.16300000       6.86700000      45.06400000
 O      36.30400000      21.61300000      48.44900000
 H      37.20600000      21.52900000      48.01400000
 H      36.01600000      22.47400000      48.20300000
 O      35.98600000      34.22700000      45.37800000
 H      36.88900000      34.42300000      45.06200000
 H      35.69700000      35.13600000      45.68100000
 O      34.83800000      39.93500000      48.09700000
 H      34.22200000      40.22700000      48.85200000
 H      35.57300000      39.69600000      48.64900000
 O      39.49900000      22.92300000      45.31500000
 H      40.18500000      23.53300000      44.88800000
 H      39.65400000      22.06600000      44.82800000
 O      34.59200000      27.56300000      43.29800000
 H      35.27100000      28.23200000      43.12300000
 H      34.58300000      27.53100000      44.26700000
 O      38.01700000      30.34800000      44.62400000
 H      38.37600000      31.25400000      44.61100000
 H      38.21200000      30.07700000      43.70600000
 O      38.03000000      26.21000000      47.29100000
 H      38.89900000      26.64600000      47.28200000
 H      37.43000000      26.92500000      46.93000000
 O      34.71400000      30.21700000      47.84500000
 H      34.58400000      30.98900000      47.20600000
 H      35.66900000      30.05800000      47.66500000
 O      38.92400000      30.48100000      48.64900000
 H      39.75900000      31.00400000      48.47700000
 H      39.26000000      29.89200000      49.37000000
 O      35.61200000      22.33300000      43.72800000
 H      35.25700000      21.42600000      43.96200000
 H      34.82500000      22.88400000      43.66700000
 O      35.80600000      23.69600000      46.52300000
 H      35.32700000      24.28500000      45.97100000
 H      36.15500000      23.03800000      45.92100000
 O      35.77100000      17.56900000      47.98300000
 H      36.27700000      18.31800000      47.55200000
 H      35.37900000      17.98900000      48.73100000
 O      39.67100000      32.99500000      44.78600000
 H      39.96600000      33.41100000      45.68500000
 H      39.39800000      33.78300000      44.30400000
 O      38.92000000       1.62000000      44.50300000
 H      39.52700000       1.62200000      43.72600000
 H      38.31300000       2.35500000      44.20500000
 O      40.14200000      15.63400000      46.78100000
 H      40.66900000      14.78800000      47.00500000
 H      39.54200000      15.61000000      47.55800000
 O      37.30900000      13.53400000      47.54700000
 H      37.56700000      14.40000000      47.92100000
 H      36.70400000      13.86800000      46.86600000
 O      38.18500000      25.66300000      44.20200000
 H      38.38800000      25.09800000      44.91700000
 H      37.91500000      25.06700000      43.48500000
 O      39.96900000      19.23500000      43.83500000
 H      39.18000000      19.03000000      44.34000000
 H      40.01400000      18.62000000      43.14000000
 O      40.70500000       4.18500000      46.02000000
 H      40.88800000       3.26500000      45.79500000
 H      40.59100000       4.60600000      45.15700000
 O      38.85500000      21.75600000      47.48800000
 H      39.11700000      22.23200000      46.69000000
 H      39.42100000      22.22100000      48.14800000
 O      40.34400000      37.56900000      44.69200000
 H      39.44200000      37.92700000      44.62400000
 H      40.69100000      37.94200000      45.49500000
 O      36.17200000      13.95000000      45.08500000
 H      36.35300000      14.89500000      44.71300000
 H      36.34600000      13.49600000      44.21100000
 O      38.19300000      28.05300000      42.89900000
 H      39.04500000      27.79000000      42.46500000
 H      38.14200000      27.31200000      43.58900000
 O      37.46400000      36.34100000      48.46000000
 H      36.60500000      36.09100000      48.08400000
 H      37.77000000      35.50500000      48.83000000
 O      37.99800000      19.21800000      47.36000000
 H      38.38200000      20.08800000      47.60800000
 H      38.75800000      18.65900000      47.78600000
 O      37.78200000       3.90900000      44.12100000
 H      38.47700000       4.47800000      43.83400000
 H      37.33100000       4.49300000      44.74600000
 O      37.60800000       1.31000000      46.96600000
 H      38.28300000       1.08400000      46.24800000
 H      37.73700000       0.46100000      47.48700000
 O      35.79100000      11.19800000      46.71700000
 H      36.18900000      11.87800000      46.23200000
 H      35.52100000      10.53500000      46.01000000
 O      35.09400000       1.18900000      42.98300000
 H      34.83400000       1.03900000      43.92700000
 H      34.19000000       1.55900000      42.68900000
 O      37.64000000       8.84800000      49.07300000
 H      37.36300000       9.80900000      49.20100000
 H      38.01800000       8.90100000      48.18000000
 O      39.18500000      10.97300000      45.83900000
 H      39.68900000      10.67500000      46.72500000
 H      38.71800000      11.70300000      46.20800000
 O      40.41900000      34.62500000      46.63000000
 H      41.33100000      34.85800000      46.29400000
 H      39.97300000      35.51800000      46.50100000
 O      36.41000000       7.30400000      43.14900000
 H      36.38600000       6.73100000      42.40900000
 H      35.59800000       7.06500000      43.65800000
 O      37.51500000      37.88400000      44.01500000
 H      36.62700000      37.59800000      44.40400000
 H      37.13700000      38.27300000      43.20800000
 O      36.04900000      25.31100000      48.88700000
 H      36.56700000      25.94300000      48.34000000
 H      35.96800000      24.60800000      48.22200000
 O      40.48200000      27.52500000      46.76600000
 H      41.18900000      28.00600000      47.29600000
 H      40.43500000      28.16700000      46.04200000
 O      39.33100000      15.68500000      43.97600000
 H      39.88200000      14.82500000      43.79800000
 H      39.72800000      15.82300000      44.89100000
 O      38.14600000      15.91400000      48.47600000
 H      37.30500000      16.40800000      48.42500000
 H      38.73400000      16.66100000      48.83300000
 O      34.54700000       9.73900000      48.90500000
 H      34.63100000      10.66700000      49.22500000
 H      35.19200000       9.70800000      48.20900000
 O      47.51800000      12.72300000      34.92800000
 H      46.94100000      12.36500000      34.20200000
 H      48.27900000      12.06600000      34.83400000
 O      45.72200000       8.81800000      34.75200000
 H      45.13000000       9.15600000      35.47100000
 H      45.34800000       7.95300000      34.55300000
 O      45.74600000      35.85000000      34.98600000
 H      46.59400000      35.58400000      35.36200000
 H      45.16700000      35.06400000      35.25400000
 O      44.18300000      17.69400000      39.15400000
 H      44.57400000      18.46800000      38.68200000
 H      44.48500000      16.93200000      38.61400000
 O      48.49600000      31.04500000      34.50400000
 H      49.37700000      30.83800000      34.84500000
 H      48.34100000      30.26900000      33.88200000
 O      45.45700000      14.38500000      35.92800000
 H      46.36800000      14.06700000      35.66700000
 H      45.70000000      15.32700000      36.17800000
 O      48.92100000      38.32900000      36.63500000
 H      49.72000000      38.89300000      36.44400000
 H      48.44700000      38.83800000      37.29300000
 O      47.93600000      25.65700000      39.03000000
 H      48.75400000      26.17700000      38.91400000
 H      47.98500000      25.43100000      39.99200000
 O      43.93600000      26.59200000      40.08000000
 H      43.58600000      27.31000000      39.52300000
 H      44.41900000      27.11300000      40.76800000
 O      47.96500000      32.64700000      37.74500000
 H      47.96800000      32.45600000      38.67400000
 H      48.80900000      33.10800000      37.64700000
 O      47.20100000      27.61100000      37.29700000
 H      47.28900000      26.91300000      37.97200000
 H      46.92500000      27.00000000      36.53900000
 O      46.97000000       8.07000000      39.77900000
 H      46.98000000       8.24000000      40.73700000
 H      46.39600000       7.31000000      39.68600000
 O      44.11600000      33.55200000      35.70300000
 H      43.49700000      33.03800000      35.13700000
 H      44.84400000      32.91300000      35.82400000
 O      46.05000000      23.41000000      39.81900000
 H      46.28800000      24.19900000      39.30800000
 H      46.12800000      23.84000000      40.76500000
 O      46.20800000      31.67100000      36.02900000
 H      46.81100000      31.39000000      35.35900000
 H      46.75600000      31.84800000      36.81000000
 O      46.97700000      37.82200000      39.75000000
 H      47.13500000      37.57000000      40.67600000
 H      47.31600000      38.76600000      39.81000000
 O      46.05800000      26.64400000      35.00500000
 H      46.50800000      26.35900000      34.19100000
 H      45.51400000      25.92600000      35.30900000
 O      45.45600000      35.87600000      38.21300000
 H      46.07400000      36.29900000      38.79500000
 H      46.13000000      35.49900000      37.55700000
 O      44.63700000      20.21900000      35.12300000
 H      43.73400000      20.27200000      34.69900000
 H      44.99500000      21.03300000      34.76400000
 O      42.99100000      13.35900000      37.23600000
 H      43.90200000      13.70500000      36.91400000
 H      43.16700000      13.34300000      38.20900000
 O      44.77500000       6.01300000      37.23300000
 H      43.88500000       5.63100000      36.98100000
 H      44.49000000       6.35500000      38.10200000
 O      47.29200000       4.73000000      37.83900000
 H      46.55200000       5.25300000      37.42000000
 H      46.73400000       3.89800000      37.95900000
 O      44.06400000      28.53800000      37.61100000
 H      45.00900000      28.36700000      37.30900000
 H      43.94500000      29.42700000      37.32200000
 O      48.92100000       9.28500000      37.24100000
 H      47.96100000       9.13100000      36.98000000
 H      48.77900000      10.20700000      37.67700000
 O      42.49100000       4.71700000      36.49900000
 H      41.77800000       4.57400000      35.83000000
 H      43.21300000       4.21900000      36.14100000
 O      46.43200000      16.69200000      36.63800000
 H      46.77000000      17.46000000      36.05400000
 H      47.13300000      16.61900000      37.27300000
 O      48.60200000      11.67100000      38.42800000
 H      49.30800000      11.66700000      39.14800000
 H      47.89200000      12.11100000      38.97300000
 O      47.73700000      40.69700000      38.37000000
 H      48.53400000      41.35600000      38.38100000
 H      47.03500000      41.39600000      38.33900000
 O      45.48700000      39.93700000      34.65300000
 H      44.63000000      39.55300000      34.86400000
 H      45.89700000      39.78000000      35.57500000
 O      43.24600000      38.26700000      35.03800000
 H      43.12900000      37.81600000      34.19200000
 H      43.50600000      37.51700000      35.64100000
 O      44.79800000       6.21000000      40.23400000
 H      43.98600000       6.48500000      40.71100000
 H      44.82300000       5.24300000      40.42500000
 O      44.53900000      31.19900000      38.42400000
 H      45.45900000      31.41000000      38.24900000
 H      44.20100000      31.99700000      38.85400000
 O      48.09500000      20.16700000      37.33500000
 H      48.30000000      20.84700000      37.99300000
 H      48.93800000      19.59500000      37.56000000
 O      46.46100000      32.36400000      40.55400000
 H      46.40400000      32.13400000      41.50600000
 H      45.87800000      33.19000000      40.55000000
 O      44.79500000      24.24600000      35.76300000
 H      44.10500000      23.77000000      36.27300000
 H      44.74400000      23.75000000      34.92200000
 O      43.38800000      33.87000000      38.48900000
 H      43.92000000      34.69200000      38.48100000
 H      43.39300000      33.71800000      37.49700000
 O      45.78800000      20.85100000      40.53100000
 H      45.62900000      20.39300000      39.66700000
 H      45.91700000      21.78900000      40.26800000
 O      47.90400000      35.43800000      36.57100000
 H      48.01700000      36.37400000      36.71200000
 H      48.76800000      35.16200000      36.28200000
 O      46.62500000      12.75500000      40.00000000
 H      45.92800000      13.47700000      39.81600000
 H      46.87200000      13.14400000      40.90400000
 O      43.42100000       2.00100000      37.15900000
 H      43.13400000       1.07300000      37.24100000
 H      42.74500000       2.55400000      37.56300000
 O      42.64300000      22.21800000      37.75700000
 H      42.48900000      23.01100000      38.29600000
 H      42.96000000      21.59100000      38.41400000
 O      48.79900000      29.98700000      38.29700000
 H      48.23700000      29.31600000      37.85900000
 H      48.64300000      29.94400000      39.24400000
 O      47.71200000      24.11000000      36.44500000
 H      47.46800000      24.35200000      37.36800000
 H      46.79900000      24.06300000      36.06200000
 O      44.25600000       3.53500000      34.89300000
 H      44.30600000       2.72100000      35.47300000
 H      44.76000000       3.09300000      34.14300000
 O      44.03000000      14.31300000      40.09200000
 H      44.38500000      15.01900000      40.65300000
 H      43.39500000      13.83400000      40.62200000
 O      46.00400000      38.96000000      37.17500000
 H      45.87100000      38.26500000      37.87100000
 H      46.34000000      39.72100000      37.70200000
 O      45.14900000      20.09600000      37.80100000
 H      46.12300000      20.12500000      37.65700000
 H      44.87600000      20.11700000      36.89700000
 O      44.87500000      10.51200000      40.52700000
 H      44.91700000      10.57400000      41.53100000
 H      45.52600000      11.22100000      40.37300000
 O      43.64000000       9.73100000      36.52000000
 H      43.42300000       9.70000000      37.49400000
 H      43.43300000      10.62600000      36.32900000
 O      48.49500000      15.33600000      35.06700000
 H      48.27400000      14.38600000      35.07800000
 H      48.69600000      15.53700000      36.01800000
 O      42.84300000       9.63300000      39.08100000
 H      42.24500000       9.31400000      39.83500000
 H      43.61500000       9.89600000      39.63000000
 O      45.55500000       2.60600000      38.65900000
 H      45.31300000       2.74200000      39.63400000
 H      44.65200000       2.46500000      38.32600000
 O      43.39300000      39.45400000      39.88100000
 H      43.92500000      38.90200000      40.41600000
 H      43.00300000      38.83000000      39.21800000
 O      42.39800000      36.31800000      40.41000000
 H      42.24100000      36.86800000      41.23300000
 H      42.08500000      35.46800000      40.77800000
 O      47.65500000       8.07900000      44.85200000
 H      48.00200000       7.16300000      44.70000000
 H      47.83500000       8.16100000      45.79300000
 O      42.88200000      32.06600000      48.01200000
 H      43.46300000      32.37700000      48.71300000
 H      42.39300000      32.88200000      47.78600000
 O      44.18000000       5.18900000      47.56500000
 H      43.39100000       4.68700000      47.17400000
 H      43.63700000       5.94000000      47.85400000
 O      45.48800000      24.32100000      47.80100000
 H      44.63800000      24.73700000      47.62100000
 H      45.37700000      23.38400000      47.45600000
 O      47.55100000      37.91400000      45.08600000
 H      47.71300000      38.52500000      45.91200000
 H      48.38800000      38.17300000      44.63900000
 O      43.32000000       1.60600000      45.75000000
 H      43.09900000       1.56400000      44.81300000
 H      44.33200000       1.58100000      45.70400000
 O      42.99800000      24.88100000      43.57900000
 H      43.43500000      25.23500000      42.80000000
 H      43.74700000      24.32900000      43.96400000
 O      48.31900000       8.11700000      47.70900000
 H      48.67600000       7.35800000      48.19500000
 H      47.42400000       8.17500000      48.09400000
 O      45.73900000      19.09800000      44.28000000
 H      46.66500000      19.09700000      44.57900000
 H      45.71300000      19.84100000      43.66800000
 O      48.71800000      22.88800000      48.89200000
 H      49.41700000      23.19600000      48.20500000
 H      48.24900000      23.73800000      49.04200000
 O      48.10600000      12.92600000      47.96300000
 H      47.55000000      13.58900000      47.62000000
 H      47.60800000      12.55100000      48.73700000
 O      42.97000000      37.97200000      47.45000000
 H      43.94600000      38.13300000      47.60100000
 H      42.70500000      37.64900000      48.39400000
 O      43.18000000      24.96500000      46.68900000
 H      42.75200000      25.74700000      47.03100000
 H      42.86700000      25.00000000      45.75300000
 O      48.91000000      36.14800000      47.26900000
 H      48.08500000      36.55900000      46.98000000
 H      49.09600000      36.57900000      48.15700000
 O      46.96800000      20.23300000      47.71900000
 H      47.13500000      19.27300000      47.61300000
 H      47.56200000      20.58500000      46.99600000
 O      48.00600000       5.36200000      44.01600000
 H      47.08700000       5.17600000      44.19200000
 H      48.07200000       5.15100000      43.01800000
 O      47.46600000      27.77300000      47.12300000
 H      48.11500000      28.37200000      46.64600000
 H      48.14400000      27.32400000      47.77800000
 O      48.19800000      40.00700000      46.94900000
 H      48.29300000      40.03400000      47.92300000
 H      48.94000000      40.69400000      46.78000000
 O      44.71900000      28.31300000      48.04700000
 H      45.57200000      27.99100000      47.70900000
 H      44.89700000      28.69100000      48.90300000
 O      44.32300000      34.92900000      45.84600000
 H      44.42200000      35.85400000      45.55200000
 H      44.87700000      34.40700000      45.28700000
 O      45.05300000      34.61700000      42.71000000
 H      44.12000000      34.44500000      42.32300000
 H      44.91700000      35.53900000      42.85700000
 O      48.18200000      34.80000000      42.60000000
 H      48.31900000      33.93100000      42.98500000
 H      47.17400000      34.79000000      42.57800000
 O      45.21100000      22.04300000      46.47200000
 H      45.52100000      21.28800000      46.93100000
 H      44.26000000      21.85200000      46.35300000
 O      48.71200000      16.31100000      47.26000000
 H      47.82300000      16.17700000      47.70100000
 H      48.50600000      16.23100000      46.31000000
 O      48.36700000      30.03400000      42.71100000
 H      48.93000000      29.44800000      43.27600000
 H      47.48500000      29.62300000      42.90900000
 O      47.83700000      25.49500000      45.62800000
 H      48.56600000      25.20700000      46.22700000
 H      47.44600000      26.17600000      46.20600000
 O      46.78800000      14.63900000      43.85000000
 H      47.57100000      15.23400000      44.11900000
 H      46.26700000      15.32200000      43.41200000
 O      42.91500000      13.33600000      47.91900000
 H      43.59900000      13.74600000      48.51300000
 H      43.47200000      12.64900000      47.50800000
 O      43.05100000       7.67100000      43.65400000
 H      43.87200000       8.21000000      43.83000000
 H      42.48600000       8.43300000      43.54000000
 O      45.80300000      24.02700000      44.29700000
 H      45.46000000      23.18800000      44.68500000
 H      46.44600000      24.30700000      45.01200000
 O      46.11600000       1.70900000      45.26100000
 H      46.82100000       1.58300000      45.91900000
 H      46.67300000       1.56000000      44.39900000
 O      48.69800000      32.43400000      44.39700000
 H      48.56400000      31.74100000      43.72000000
 H      47.92400000      32.24100000      44.96900000
 O      42.60600000       1.73900000      42.63300000
 H      42.97300000       0.83800000      42.49800000
 H      42.03900000       1.83800000      41.80900000
 O      46.17500000      31.80800000      45.12300000
 H      45.18500000      31.64200000      45.20800000
 H      46.38200000      31.60200000      46.06000000
 O      46.70800000      28.37000000      44.46000000
 H      47.54300000      27.91000000      44.27000000
 H      46.57600000      28.17000000      45.37700000
 O      43.46500000      21.50900000      43.84300000
 H      42.89000000      20.72300000      43.55400000
 H      44.28300000      21.34900000      43.38100000
 O      44.56300000      11.23600000      47.39100000
 H      44.90500000      11.07700000      46.46500000
 H      45.15400000      10.57200000      47.83100000
 O      43.81200000      28.85400000      43.70800000
 H      43.66000000      29.58100000      44.34700000
 H      44.74500000      28.62200000      43.94200000
 O      44.89200000      34.71700000      48.44200000
 H      44.59500000      34.80000000      47.47800000
 H      44.64700000      35.66200000      48.68900000
 O      44.95800000      16.59200000      43.21000000
 H      45.02700000      17.38000000      43.81900000
 H      44.61000000      17.13200000      42.42900000
 O      46.49500000      14.82000000      46.63800000
 H      46.50300000      14.36300000      45.76100000
 H      45.74700000      15.47000000      46.41400000
 O      43.30500000      30.62400000      45.72400000
 H      43.37700000      30.91600000      46.65000000
 H      42.51600000      31.07700000      45.40700000
 O      44.90100000      37.19700000      44.02400000
 H      44.58900000      38.11400000      43.93100000
 H      45.81900000      37.42200000      44.37200000
 O      46.75900000      31.26300000      47.62700000
 H      46.09800000      30.64200000      47.94400000
 H      46.99300000      31.74500000      48.50900000
 O      42.95600000      18.97800000      46.71700000
 H      43.10300000      19.22700000      45.77200000
 H      43.19700000      19.88100000      47.07200000
 O      45.49300000      14.72800000      49.29500000
 H      45.79100000      14.70500000      48.39800000
 H      46.12800000      14.03500000      49.67600000
 O      48.14400000       4.01100000      46.76800000
 H      48.95400000       3.40600000      46.73200000
 H      48.18000000       4.40500000      45.87400000
 O      45.97800000      10.65300000      45.05800000
 H      46.84000000      11.16400000      45.07700000
 H      46.33500000       9.76400000      44.91900000
 O      43.49600000      21.00300000      48.42100000
 H      44.34700000      20.55600000      48.66900000
 H      42.95500000      20.72300000      49.22300000
 O      42.80100000       1.52100000      48.47300000
 H      42.85300000       1.41500000      47.51200000
 H      42.15100000       2.25600000      48.53100000
 O      44.77500000       3.56900000      42.70100000
 H      43.99700000       2.93000000      42.80500000
 H      44.84800000       3.99300000      43.50600000
 O      44.25500000      16.66800000      46.63400000
 H      43.29800000      16.42400000      46.68300000
 H      44.17800000      17.67200000      46.77100000
 O      46.29300000       3.95900000      48.77300000
 H      47.08900000       3.99400000      48.09800000
 H      45.59300000       4.09500000      48.10100000
 O      44.96500000       5.18400000      44.80300000
 H      44.66100000       6.10200000      44.75900000
 H      44.83300000       5.02300000      45.81500000
 O      48.31100000      20.55800000      45.46600000
 H      48.87800000      19.86300000      45.00600000
 H      48.09200000      21.08200000      44.66300000
 O      47.78400000       1.14600000      43.09300000
 H      48.73400000       0.95600000      42.95100000
 H      47.52000000       1.51100000      42.26400000
 O      48.24400000      12.19400000      45.32100000
 H      48.40100000      12.39700000      46.28500000
 H      49.13100000      12.46600000      44.95000000
