696
XYZ file of cluster: frame_16000_9bf75.c5c62.38d4 - created by MolEdiTo
 O      27.89700000      36.68900000      10.01400000
 H      28.01500000      37.59900000       9.79500000
 H      26.98600000      36.54800000       9.72700000
 O      27.70200000      35.10400000      23.72400000
 H      28.67100000      35.09400000      23.57500000
 H      27.66300000      35.68600000      24.59700000
 O      33.66900000      37.23800000      25.68900000
 H      33.51100000      37.02200000      24.75700000
 H      34.38900000      36.62000000      25.89600000
 O      34.80100000      38.34900000      34.50200000
 H      35.42000000      39.09500000      34.42700000
 H      34.24200000      38.46700000      33.69400000
 O      32.89600000      37.78100000      29.88200000
 H      32.15500000      37.20900000      29.62600000
 H      32.99500000      38.25000000      29.00600000
 O      40.02300000      36.09900000      26.15300000
 H      40.56400000      36.23600000      26.97200000
 H      39.12100000      36.09700000      26.55800000
 O      27.60400000      36.71000000      25.73500000
 H      27.28100000      35.98800000      26.33100000
 H      28.58400000      36.54700000      25.86400000
 O      32.93700000      39.28200000      27.42300000
 H      33.06000000      38.65200000      26.67900000
 H      32.54700000      40.03700000      27.02400000
 O      39.19100000      34.45400000      23.67200000
 H      38.71100000      34.96600000      22.95800000
 H      39.11600000      35.10900000      24.38300000
 O      34.85300000      34.72400000      27.08200000
 H      34.07000000      34.61400000      27.62900000
 H      34.86100000      33.85400000      26.57900000
 O      30.91900000      37.16900000      33.03100000
 H      31.77700000      37.29000000      32.59700000
 H      30.95100000      36.24700000      33.25600000
 O      33.30200000      37.46500000      36.61200000
 H      33.83500000      37.91700000      35.87900000
 H      33.09400000      38.28500000      37.10800000
 O      40.12500000      40.08600000       8.91200000
 H      40.42100000      40.67000000       8.23700000
 H      40.22800000      39.22400000       8.32400000
 O      34.91000000      37.93300000      20.14200000
 H      35.39000000      38.19700000      20.99600000
 H      34.15100000      37.47000000      20.55900000
 O      34.82200000      39.85500000      16.97000000
 H      34.09700000      40.18700000      16.35000000
 H      35.17200000      40.67300000      17.39300000
 O      32.53200000      34.23000000      28.64400000
 H      32.02000000      35.07600000      28.85900000
 H      32.42800000      33.69700000      29.43400000
 O      34.62500000      35.45800000      17.00000000
 H      33.71400000      35.75800000      16.87200000
 H      35.16900000      36.23400000      16.87800000
 O      36.84600000      39.44300000      26.94700000
 H      37.65700000      39.93200000      26.76900000
 H      36.16200000      40.16500000      27.07600000
 O      32.43600000      39.90200000      37.72900000
 H      33.15400000      40.50900000      37.41700000
 H      31.69000000      40.46600000      37.35400000
 O      37.08400000      39.10300000      10.15000000
 H      36.42800000      38.42600000       9.91800000
 H      36.37200000      39.73300000      10.58100000
 O      28.43300000      37.70500000      28.64400000
 H      27.54100000      37.29900000      28.92100000
 H      28.11600000      38.01200000      27.75600000
 O      29.45100000      37.17800000      20.60300000
 H      30.28600000      37.46500000      21.01000000
 H      29.51800000      36.21900000      20.80700000
 O      30.20400000      36.30100000      25.65000000
 H      30.56400000      35.35400000      25.61600000
 H      31.05000000      36.77500000      25.53600000
 O      34.69700000      36.00800000       5.44700000
 H      34.25900000      36.08100000       6.33400000
 H      34.12000000      35.37000000       5.04100000
 O      34.90600000      35.61700000      37.80600000
 H      35.10500000      34.98700000      37.11600000
 H      34.58100000      36.38300000      37.34000000
 O      38.58900000      36.53300000      18.22000000
 H      39.13200000      37.35000000      17.90600000
 H      37.69500000      36.92900000      18.09100000
 O      32.56000000      39.37100000      23.24200000
 H      31.58300000      39.41900000      23.53900000
 H      32.67100000      38.39200000      23.24900000
 O      39.53500000      39.25900000      24.72000000
 H      39.63300000      39.35900000      25.71700000
 H      39.52800000      40.23200000      24.47200000
 O      38.78000000      37.26400000      22.64400000
 H      39.12800000      37.79200000      23.33100000
 H      39.62200000      36.98900000      22.17700000
 O      30.63000000      36.08500000      29.51400000
 H      29.77900000      36.46000000      29.21900000
 H      30.28800000      35.38700000      30.09700000
 O      36.64200000      37.11100000      24.94600000
 H      37.06500000      36.66800000      25.70100000
 H      36.35600000      37.92100000      25.44600000
 O      27.54600000      37.80700000      19.03300000
 H      26.89300000      37.81200000      19.71700000
 H      28.34500000      37.59300000      19.56100000
 O      27.25200000      35.68500000      33.60100000
 H      28.12500000      35.71000000      33.18200000
 H      27.44300000      35.26300000      34.50300000
 O      28.51500000      38.53200000       2.75800000
 H      27.92200000      39.32400000       2.85300000
 H      28.13100000      37.98500000       3.46000000
 O      30.01700000      40.70400000       5.00500000
 H      30.09100000      39.94000000       5.65200000
 H      29.25700000      41.17900000       5.44900000
 O      36.30100000      37.57100000      17.84500000
 H      35.82000000      37.65200000      18.73300000
 H      35.90500000      38.38000000      17.41000000
 O      33.81900000      37.43500000      14.72700000
 H      33.30600000      37.51700000      15.56700000
 H      33.83200000      38.41000000      14.46400000
 O      34.28400000      40.51800000       3.88500000
 H      34.65400000      40.34200000       4.78900000
 H      33.48200000      41.01700000       4.11600000
 O      33.87800000      39.22100000      32.14800000
 H      33.30000000      38.87000000      31.38200000
 H      34.31700000      39.96000000      31.66400000
 O      34.69400000      35.91900000      31.14900000
 H      34.96600000      36.38700000      31.97200000
 H      34.26900000      36.71800000      30.70500000
 O      37.54700000      35.59100000      39.85200000
 H      37.71000000      36.38200000      39.29400000
 H      38.04600000      34.91400000      39.41400000
 O      31.14400000      35.65500000      10.07000000
 H      30.27000000      36.10000000      10.12800000
 H      31.56000000      36.09500000      10.86400000
 O      38.40500000      39.90900000      33.78800000
 H      37.45600000      40.14900000      33.53000000
 H      38.52400000      40.48200000      34.53500000
 O      40.26300000      39.62700000      27.52100000
 H      40.88000000      38.99700000      27.89000000
 H      40.16200000      40.26400000      28.22900000
 O      31.48300000      37.62900000      39.09700000
 H      32.24200000      37.45000000      39.73400000
 H      31.79900000      38.47700000      38.71400000
 O      37.85200000      34.84200000      16.34800000
 H      37.32000000      35.34400000      15.66000000
 H      38.08000000      35.59200000      16.92300000
 O      37.46400000      36.34100000       6.73700000
 H      36.60500000      36.09100000       6.36100000
 H      37.77000000      35.50500000       7.10700000
 O      38.82800000      36.76900000      10.06500000
 H      38.36500000      37.68600000      10.22900000
 H      38.06800000      36.23000000       9.87600000
 O      38.22000000      34.24000000      19.70500000
 H      39.09700000      34.23200000      19.97900000
 H      38.11300000      35.10900000      19.17600000
 O      40.53200000      34.74700000      29.44800000
 H      40.96700000      35.55600000      29.06900000
 H      40.20800000      34.38500000      28.55700000
 O      28.90500000      39.87300000      39.15700000
 H      29.78000000      39.54700000      39.49100000
 H      28.55900000      39.01000000      38.83800000
 O      31.63200000      35.00400000      37.27100000
 H      32.37500000      34.44900000      36.97700000
 H      31.93900000      35.89500000      37.01300000
 O      27.52200000      36.36600000      16.61900000
 H      28.45300000      36.18800000      16.39000000
 H      27.73900000      36.82300000      17.49800000
 O      31.85100000      34.80000000      33.71300000
 H      31.94500000      33.86500000      33.40900000
 H      32.36900000      34.87600000      34.48300000
 O      36.24200000      36.04000000      22.78100000
 H      36.95500000      36.52500000      22.35600000
 H      36.43000000      36.43700000      23.72600000
 O      37.84400000      39.30100000       7.10200000
 H      37.49400000      38.42400000       6.97300000
 H      38.22700000      39.30900000       8.01500000
 O      32.22600000      35.25100000       4.12300000
 H      32.65300000      35.07900000       3.28100000
 H      31.98800000      36.16800000       4.05400000
 O      35.02200000      34.51300000      40.28900000
 H      36.00200000      34.57400000      40.47400000
 H      34.98400000      35.10300000      39.52700000
 O      39.86200000      35.65000000      35.88600000
 H      39.83200000      36.07100000      34.98500000
 H      39.75000000      34.70600000      35.58400000
 O      39.91400000      39.38100000      13.33700000
 H      40.16300000      38.54600000      13.82200000
 H      38.91400000      39.44500000      13.58200000
 O      32.43900000      36.66300000      20.45200000
 H      32.43700000      37.56200000      20.04900000
 H      31.98000000      36.17200000      19.71800000
 O      36.47900000      36.18400000      14.54900000
 H      36.63200000      37.13200000      14.20300000
 H      35.51600000      36.17100000      14.60900000
 O      37.60800000      37.85400000      31.34300000
 H      38.07100000      37.02700000      30.99800000
 H      37.83200000      37.73400000      32.32500000
 O      33.47100000      37.68600000       0.86100000
 H      34.15100000      37.58100000       1.57100000
 H      32.71100000      38.01400000       1.46300000
 O      28.73400000      40.20200000      34.96900000
 H      28.22800000      39.30200000      35.02200000
 H      29.02700000      40.06700000      34.00300000
 O      40.49700000      34.21500000      13.24700000
 H      39.72800000      33.80200000      12.76300000
 H      40.59100000      35.00800000      12.71500000
 O      30.36400000      39.76100000      29.34300000
 H      29.79300000      38.95000000      29.27900000
 H      31.22900000      39.47700000      29.35700000
 O      32.49000000      39.08700000      18.85400000
 H      33.38800000      39.33300000      19.09900000
 H      32.09300000      39.97600000      18.71700000
 O      29.73900000      35.66400000      38.93700000
 H      30.31500000      35.32600000      38.18100000
 H      30.33500000      36.42200000      39.20700000
 O      31.21700000      38.45200000       3.23200000
 H      31.34800000      39.12700000       3.90200000
 H      30.33100000      38.52800000       2.88600000
 O      29.73200000      35.34600000      15.56800000
 H      30.34300000      36.02200000      15.85100000
 H      30.27300000      34.77300000      15.02600000
 O      33.39900000      36.56600000      23.02400000
 H      32.92200000      36.35800000      22.18400000
 H      34.14600000      35.96100000      22.90500000
 O      40.21100000      39.91200000      36.75500000
 H      40.80100000      39.62600000      36.00500000
 H      40.16800000      38.98200000      37.16300000
 O      28.91700000      38.95000000      32.32400000
 H      28.35200000      38.58500000      31.59400000
 H      29.49700000      38.22400000      32.55800000
 O      33.68000000      36.00300000       8.10900000
 H      32.82600000      35.94200000       8.57600000
 H      33.75900000      35.13100000       7.74400000
 O      40.62800000      34.73900000      15.72800000
 H      39.68200000      34.49100000      15.87300000
 H      40.74500000      34.50000000      14.75700000
 O      27.57800000      40.74600000      18.81500000
 H      27.91300000      41.02500000      17.93400000
 H      27.59200000      39.82500000      18.80600000
 O      37.51500000      37.88400000       2.29200000
 H      36.62700000      37.59800000       2.68100000
 H      37.13700000      38.27300000       1.48500000
 O      28.06000000      34.46200000      11.25000000
 H      27.11100000      34.32900000      11.34600000
 H      28.15700000      35.34100000      10.90000000
 O      35.10900000      40.53900000      23.83100000
 H      35.16900000      41.10300000      24.58400000
 H      34.12000000      40.42100000      23.84000000
 O      30.86900000      35.61200000      18.45500000
 H      31.16600000      34.71200000      18.13300000
 H      30.05500000      35.24400000      18.98500000
 O      37.57800000      40.75300000      19.76300000
 H      38.11000000      41.40000000      20.30600000
 H      37.46400000      40.06100000      20.39800000
 O      37.65500000      36.97700000      37.01700000
 H      36.95200000      36.20700000      37.00400000
 H      38.32500000      36.51400000      36.44400000
 O      29.78800000      39.26400000      23.45000000
 H      29.30600000      40.03000000      23.05800000
 H      29.03200000      38.73200000      23.69600000
 O      30.10100000      38.59400000       7.02000000
 H      29.21300000      38.14300000       6.77300000
 H      30.71100000      37.85900000       6.96800000
 O      36.60900000      39.35400000      22.13000000
 H      36.01400000      39.75400000      22.87200000
 H      37.34200000      39.09200000      22.65200000
 O      31.26800000      37.10300000      12.20100000
 H      31.80900000      37.90100000      12.40400000
 H      30.39000000      37.34800000      12.43300000
 O      37.52800000      36.10000000      27.40600000
 H      36.62400000      35.63800000      27.46100000
 H      37.26400000      36.97000000      27.66700000
 O      37.50500000      39.29700000      14.44900000
 H      37.54000000      39.63100000      15.36400000
 H      37.16000000      40.17400000      14.04100000
 O      38.26800000      35.31600000       2.41400000
 H      38.24000000      36.23900000       2.71100000
 H      38.19000000      35.39400000       1.43700000
 O      35.98600000      34.22700000       3.65500000
 H      36.88900000      34.42300000       3.33900000
 H      35.69700000      35.13600000       3.95800000
 O      34.83800000      39.93500000       6.37400000
 H      34.22200000      40.22700000       7.12900000
 H      35.57300000      39.69600000       6.92600000
 O      36.95400000      39.83500000      37.74300000
 H      36.31400000      39.53600000      38.41400000
 H      37.22800000      38.97300000      37.34100000
 O      35.45300000      36.58600000       9.97200000
 H      34.99800000      36.08100000      10.69900000
 H      34.82200000      36.35400000       9.22100000
 O      40.44200000      37.31700000      37.96800000
 H      40.52300000      36.65200000      38.68700000
 H      40.12900000      36.82000000      37.21200000
 O      35.55000000      40.66300000      11.92900000
 H      35.90800000      41.09700000      12.70200000
 H      34.79700000      41.19500000      11.68400000
 O      40.37200000      40.03100000      31.63500000
 H      40.57100000      40.88000000      32.13400000
 H      39.67100000      39.70700000      32.17100000
 O      39.80400000      36.27700000      33.21500000
 H      39.13000000      35.81600000      32.67600000
 H      40.50000000      36.52500000      32.54200000
 O      33.25200000      40.39100000      14.52100000
 H      33.24600000      40.63600000      13.60000000
 H      32.84400000      41.19100000      14.90900000
 O      39.95400000      38.94300000      17.61400000
 H      39.30200000      39.63800000      17.33800000
 H      40.47700000      39.46600000      18.28600000
 O      31.85400000      40.29300000      11.90100000
 H      31.11600000      40.54900000      12.49700000
 H      31.36800000      40.02000000      11.10300000
 O      40.34400000      37.56900000       2.96900000
 H      39.44200000      37.92700000       2.90100000
 H      40.69100000      37.94200000       3.77200000
 O      32.47900000      35.34700000      13.67700000
 H      32.99900000      36.01100000      14.20300000
 H      31.90400000      35.96700000      13.13400000
 O      32.71000000      34.97400000       1.26900000
 H      33.60000000      34.70200000       0.90000000
 H      32.67600000      35.85100000       0.91500000
 O      30.84900000      40.27300000       9.29300000
 H      30.13800000      40.66600000       9.85600000
 H      30.43000000      40.22000000       8.42500000
 O      27.67100000      37.40400000      38.21700000
 H      28.45400000      36.95700000      38.46500000
 H      27.80100000      37.64400000      37.27900000
 O      40.41900000      34.62500000       4.90700000
 H      41.33100000      34.85800000       4.57100000
 H      39.97300000      35.51800000       4.77800000
 O      29.05200000      38.75000000      12.86000000
 H      29.07900000      39.71800000      13.00200000
 H      28.13400000      38.59000000      12.60200000
 O      32.21500000      37.14000000      16.97900000
 H      31.66400000      36.51100000      17.60400000
 H      32.32300000      37.84700000      17.62500000
 O      34.86600000      37.70700000       3.26300000
 H      34.59600000      37.45300000       4.18300000
 H      34.80100000      38.65800000       3.29800000
 O      35.92200000      39.06500000      40.10700000
 H      35.77800000      39.89600000      40.60800000
 H      35.00100000      38.64000000      40.28000000
 O      32.63300000      44.95400000       5.07100000
 H      32.56600000      45.15900000       6.02400000
 H      33.60600000      44.94200000       4.99500000
 O      34.36000000      45.27600000      17.29200000
 H      35.26700000      45.39900000      16.96600000
 H      34.54100000      44.56600000      17.95000000
 O      39.17600000      48.41400000      26.73600000
 H      39.28000000      47.84700000      27.56900000
 H      38.25700000      48.21900000      26.52300000
 O      28.30400000      46.65600000      25.68200000
 H      27.41600000      47.05300000      25.63800000
 H      28.11500000      45.78800000      25.26900000
 O      28.36100000      48.08500000       1.72300000
 H      27.67600000      48.68500000       2.01300000
 H      28.32000000      47.45800000       2.45500000
 O      38.83700000      45.12100000      16.98700000
 H      39.05800000      45.27200000      17.96200000
 H      39.73600000      45.15900000      16.66800000
 O      32.48400000      43.23800000      40.80100000
 H      32.10900000      43.13000000      41.72300000
 H      32.07100000      44.12300000      40.59600000
 O      32.37600000      43.97900000      16.11600000
 H      31.76000000      44.62700000      15.64300000
 H      33.02500000      44.62200000      16.46900000
 O      32.80300000      42.52400000      34.33100000
 H      33.49100000      42.85800000      34.93700000
 H      33.36500000      42.06000000      33.68800000
 O      38.82900000      44.77900000       7.11000000
 H      38.66800000      45.72100000       6.90800000
 H      38.41000000      44.33100000       6.37700000
 O      27.47100000      47.20500000       4.38500000
 H      26.92500000      47.58800000       5.10500000
 H      28.31600000      47.01800000       4.89500000
 O      33.14200000      43.29100000      21.02300000
 H      32.22600000      43.13200000      20.80400000
 H      33.24900000      42.77200000      21.83400000
 O      29.47600000      45.54800000      35.21300000
 H      30.14900000      45.79800000      34.57300000
 H      28.67200000      45.48700000      34.71300000
 O      28.51200000      47.45000000      11.71300000
 H      28.17000000      48.37000000      11.69300000
 H      29.35700000      47.65700000      12.10900000
 O      39.55000000      46.55300000      38.93400000
 H      39.99000000      46.45700000      38.00900000
 H      38.75000000      46.07500000      38.61000000
 O      34.66800000      48.25500000      19.51600000
 H      34.09900000      47.58400000      19.96700000
 H      35.55800000      47.81100000      19.69200000
 O      30.82800000      45.60700000      15.01800000
 H      30.01500000      45.57600000      14.47800000
 H      30.81800000      46.52300000      15.27700000
 O      33.55800000      47.91400000      36.78400000
 H      32.64100000      47.76200000      37.20700000
 H      33.79200000      47.00900000      36.54300000
 O      40.27300000      43.15900000      15.36800000
 H      40.28100000      42.54800000      14.58700000
 H      39.34700000      43.45900000      15.26200000
 O      36.69400000      48.52900000      24.11400000
 H      36.16500000      48.61300000      24.98000000
 H      36.01700000      48.92300000      23.50900000
 O      30.65700000      47.37500000      26.91400000
 H      30.37900000      47.06000000      27.82000000
 H      29.76000000      47.27300000      26.45300000
 O      32.40300000      48.53000000      23.48000000
 H      32.18500000      47.59700000      23.50600000
 H      31.59700000      48.88900000      23.96400000
 O      31.02900000      46.99700000      37.37000000
 H      30.49300000      46.87000000      36.53700000
 H      30.30800000      47.37700000      37.88600000
 O      36.41000000      48.90100000       1.42600000
 H      36.38600000      48.32800000       0.68600000
 H      35.59800000      48.66200000       1.93500000
 O      29.85500000      45.84600000       5.07900000
 H      29.51400000      45.29600000       4.28900000
 H      30.78200000      45.95700000       4.75700000
 O      38.76900000      46.13500000      28.80800000
 H      38.94900000      46.94000000      29.33200000
 H      38.59100000      45.48600000      29.55300000
 O      27.62600000      47.81000000       8.89700000
 H      28.24000000      47.25500000       9.32800000
 H      28.02300000      47.84900000       7.99500000
 O      30.22400000      43.16400000      13.62500000
 H      30.57800000      43.81600000      14.23900000
 H      29.70400000      43.65900000      13.00100000
 O      29.52500000      43.81300000      30.05300000
 H      30.04000000      42.98600000      29.79600000
 H      29.88400000      43.83300000      30.98700000
 O      34.54700000      48.22800000       7.96200000
 H      35.02200000      49.05200000       8.09700000
 H      34.79600000      47.70000000       8.79200000
 O      32.43600000      46.29000000       7.29200000
 H      31.85500000      45.92500000       7.98500000
 H      32.58800000      47.18600000       7.58700000
 O      35.54900000      46.36500000      31.22500000
 H      34.87200000      46.76100000      31.80900000
 H      35.60500000      47.01400000      30.51100000
 O      30.55100000      43.25100000      36.39300000
 H      29.93500000      42.70100000      35.86200000
 H      30.28300000      44.15000000      36.16000000
 O      33.44900000      42.55700000       8.42500000
 H      33.55600000      43.07500000       9.25800000
 H      32.63000000      42.12000000       8.58500000
 O      40.63400000      43.10700000      29.57000000
 H      41.53000000      43.31900000      29.76900000
 H      40.41900000      42.52700000      30.34300000
 O      30.45500000      43.24100000      32.56900000
 H      30.06200000      42.35100000      32.43800000
 H      31.21400000      42.99500000      33.10900000
 O      28.97400000      47.95500000      38.74200000
 H      28.12700000      47.47100000      38.49200000
 H      28.69300000      48.16200000      39.62900000
 O      36.79700000      44.41800000      39.96100000
 H      37.06200000      44.83400000      40.80300000
 H      36.13200000      43.79600000      40.34700000
 O      32.46000000      47.50100000      17.62500000
 H      33.26800000      47.21700000      18.08600000
 H      31.79900000      47.28400000      18.29900000
 O      30.77200000      48.25800000      15.62000000
 H      31.29100000      48.02600000      16.46600000
 H      30.06100000      48.80300000      16.02200000
 O      39.68200000      48.59500000      16.89000000
 H      39.88000000      48.47200000      15.95300000
 H      40.45300000      48.10200000      17.32800000
 O      34.63600000      42.58900000      29.80700000
 H      34.27300000      43.53200000      29.58600000
 H      34.46000000      42.12200000      28.98300000
 O      29.27200000      48.04100000       6.75300000
 H      30.19300000      48.37000000       6.85700000
 H      29.50500000      47.21300000       6.26000000
 O      39.73000000      44.32600000      27.03500000
 H      40.18600000      43.94300000      27.80600000
 H      39.40500000      45.17300000      27.53600000
 O      36.63000000      46.09900000      15.76500000
 H      37.51200000      45.74500000      15.98400000
 H      36.77500000      47.04800000      16.16600000
 O      29.92100000      43.42900000      26.68300000
 H      29.33100000      42.80500000      26.16400000
 H      29.14600000      43.90900000      27.17400000
 O      31.34500000      45.81200000      33.40700000
 H      31.23200000      46.13000000      32.49400000
 H      31.18500000      44.83800000      33.28400000
 O      35.09400000      42.78600000       1.26000000
 H      34.83400000      42.63600000       2.20400000
 H      34.19000000      43.15600000       0.96600000
 O      35.95600000      45.05400000      34.72800000
 H      36.00100000      46.03100000      34.79500000
 H      35.00500000      44.90100000      34.88300000
 O      28.94000000      42.78800000      10.98700000
 H      28.27800000      43.50400000      10.95800000
 H      28.42900000      42.05800000      10.62600000
 O      33.50400000      43.83700000      11.15800000
 H      33.18000000      44.63900000      11.63800000
 H      32.76800000      43.17600000      11.38400000
 O      40.66200000      47.54700000      24.45600000
 H      39.92000000      47.07700000      24.04300000
 H      40.26900000      47.71100000      25.36400000
 O      37.55100000      47.16400000      20.13100000
 H      38.17500000      46.44700000      19.97800000
 H      37.77100000      47.43800000      21.05700000
 O      33.35600000      45.56500000      35.40300000
 H      32.97900000      45.67100000      34.54700000
 H      32.80100000      44.90000000      35.85900000
 O      28.67100000      44.64800000       2.64900000
 H      27.81100000      44.25800000       2.56600000
 H      29.22200000      43.89700000       2.45300000
 O      36.18600000      45.61600000      27.49600000
 H      35.80600000      46.33800000      28.05600000
 H      37.02400000      45.44800000      28.05600000
 O      39.37200000      45.26500000      19.58000000
 H      39.33200000      44.76000000      20.38000000
 H      40.20800000      45.76500000      19.76600000
 O      28.60100000      49.17200000      17.77400000
 H      28.07100000      48.87100000      18.55300000
 H      28.33500000      48.41700000      17.19300000
 O      38.23600000      47.36400000       6.81800000
 H      37.59500000      47.97700000       7.15600000
 H      38.26900000      47.58500000       5.85100000
 O      37.98800000      45.28200000      31.25200000
 H      37.16800000      45.75900000      31.44700000
 H      37.68400000      44.37700000      31.05200000
 O      33.95200000      47.47700000      33.18600000
 H      34.38500000      48.22800000      33.64400000
 H      33.02000000      47.61400000      33.52000000
 O      37.22800000      42.52100000      30.73200000
 H      37.61400000      41.64700000      30.66300000
 H      36.37200000      42.40400000      30.33200000
 O      28.99800000      43.97400000      39.06900000
 H      29.08500000      42.96400000      39.18600000
 H      29.23000000      43.94700000      38.10300000
 O      35.52800000      44.57000000       4.66600000
 H      36.50100000      44.43500000       4.92500000
 H      35.31300000      43.72300000       4.27100000
 O      39.08100000      43.39300000      24.58700000
 H      39.63200000      43.70500000      25.29700000
 H      38.25100000      43.86700000      24.85800000
 O      34.90000000      48.95300000      26.15200000
 H      34.40400000      48.17100000      26.54800000
 H      34.24300000      49.66300000      26.26200000
 O      27.81500000      47.18800000      16.22000000
 H      28.14900000      46.60700000      15.47900000
 H      27.09200000      46.67300000      16.52700000
 O      27.92700000      48.42400000      20.21700000
 H      28.70700000      48.50800000      20.76400000
 H      27.32300000      47.96200000      20.84800000
 O      37.42600000      47.97800000       4.16500000
 H      36.61300000      47.96900000       4.66400000
 H      37.16300000      48.46400000       3.34100000
 O      34.02600000      48.39500000       2.87800000
 H      33.90700000      48.01300000       3.78200000
 H      33.28700000      47.99300000       2.42500000
 O      34.44000000      46.37600000      24.26200000
 H      34.50900000      47.31100000      24.31400000
 H      33.49500000      46.24800000      24.26500000
 O      28.26200000      45.59400000      13.70500000
 H      28.19900000      46.30400000      13.03700000
 H      27.43100000      45.14300000      13.64900000
 O      36.68600000      43.49500000      14.03900000
 H      37.05900000      44.32200000      13.66400000
 H      36.27800000      43.89600000      14.87000000
 O      30.30700000      44.54600000      23.17900000
 H      29.30800000      44.48500000      23.21200000
 H      30.43500000      44.02600000      22.34200000
 O      27.52800000      45.18600000      10.64600000
 H      27.95400000      45.88800000      11.15600000
 H      26.58200000      45.53700000      10.79100000
 O      35.15600000      43.26000000      18.98700000
 H      35.98400000      43.22100000      19.52400000
 H      34.46700000      43.37700000      19.71400000
 O      31.03100000      48.19500000      12.85400000
 H      31.78000000      48.87900000      12.78700000
 H      30.85000000      48.27500000      13.82800000
 O      28.48600000      44.35500000       7.34400000
 H      29.02400000      44.49500000       8.12100000
 H      28.86200000      44.94400000       6.70600000
 O      28.32900000      42.87700000      16.41800000
 H      28.79400000      43.01000000      15.57400000
 H      27.73900000      42.14200000      16.15800000
 O      38.92000000      43.21700000       2.78000000
 H      39.52700000      43.21900000       2.00300000
 H      38.31300000      43.95200000       2.48200000
 O      37.28200000      47.59100000      35.05100000
 H      37.07700000      48.49500000      34.72500000
 H      38.19000000      47.73400000      35.40700000
 O      40.70500000      45.78200000       4.29700000
 H      40.88800000      44.86200000       4.07200000
 H      40.59100000      46.20300000       3.43400000
 O      30.52500000      46.33000000      29.60400000
 H      29.99600000      45.52400000      29.78000000
 H      31.41900000      45.93000000      29.46800000
 O      32.60200000      46.19200000      12.14800000
 H      31.88700000      46.86200000      12.40300000
 H      33.26100000      46.40100000      12.87600000
 O      32.37800000      43.13100000      25.88700000
 H      31.99500000      42.76000000      25.07400000
 H      31.52300000      43.43500000      26.35100000
 O      39.36900000      43.36100000      38.86000000
 H      38.38500000      43.58400000      38.83100000
 H      39.31600000      42.42000000      38.54200000
 O      37.78200000      45.50600000       2.39800000
 H      38.47700000      46.07500000       2.11100000
 H      37.33100000      46.09000000       3.02300000
 O      37.60800000      42.90700000       5.24300000
 H      38.28300000      42.68100000       4.52500000
 H      37.73700000      42.05800000       5.76400000
 O      31.45300000      47.85400000      31.47600000
 H      32.24500000      48.30800000      31.10400000
 H      31.07800000      47.47300000      30.65800000
 O      36.92100000      47.75000000      11.79800000
 H      36.81200000      48.16100000      12.69700000
 H      37.54500000      47.02300000      11.96900000
 O      39.14700000      43.50700000      21.65900000
 H      39.13300000      43.27000000      22.57900000
 H      40.10700000      43.25700000      21.43600000
 O      35.91000000      42.75200000      33.57500000
 H      36.40400000      42.94500000      32.69100000
 H      35.98500000      43.62400000      33.98400000
 O      40.67700000      44.76500000      32.42700000
 H      40.26500000      45.16000000      33.19900000
 H      39.98100000      44.99300000      31.75000000
 O      34.94100000      42.95000000      27.07800000
 H      35.22000000      43.84100000      26.91700000
 H      34.05600000      42.95600000      26.62000000
 O      40.18400000      46.80100000       1.53500000
 H      39.95100000      46.77800000       0.60700000
 H      40.36800000      47.73600000       1.70000000
 O      38.38100000      46.91500000      22.82600000
 H      37.97500000      46.06200000      23.17600000
 H      37.75000000      47.54400000      23.24600000
 O      38.54900000      44.07900000      10.06800000
 H      38.59800000      44.51700000       9.19700000
 H      38.35100000      43.16900000       9.78900000
 O      35.05500000      47.43500000       5.46100000
 H      34.64800000      47.46400000       6.36500000
 H      34.99100000      46.45500000       5.40300000
 O      33.86900000      46.82400000      14.73400000
 H      34.72800000      46.64900000      15.17000000
 H      33.29200000      46.93300000      15.51800000
 O      37.09100000      48.00600000      17.39000000
 H      38.00400000      48.19600000      17.10000000
 H      37.29600000      47.61200000      18.26100000
 O      37.24400000      45.62100000      37.46500000
 H      36.88200000      45.29600000      38.28800000
 H      37.54500000      44.86100000      37.02700000
 O      27.81400000      44.63300000      28.07900000
 H      28.14900000      44.31300000      28.93400000
 H      27.45500000      45.49000000      28.27300000
 O      38.48900000      45.75100000      12.35800000
 H      38.71000000      45.11500000      11.59700000
 H      39.33000000      45.59000000      12.86400000
 O      31.20000000      47.86400000       2.07800000
 H      31.00800000      46.99000000       1.76600000
 H      30.39100000      48.36300000       1.92400000
 O      31.79800000      46.20900000      24.70300000
 H      31.34400000      46.54900000      25.43900000
 H      31.18800000      45.65700000      24.21000000
 O      36.96700000      45.33600000      24.94200000
 H      36.20700000      45.56100000      24.35500000
 H      36.51900000      45.49300000      25.82700000
 O      35.30600000      46.79800000      10.00600000
 H      35.16600000      45.93400000      10.42800000
 H      36.04000000      47.15100000      10.48800000
 O      37.04400000      48.34500000      38.39200000
 H      36.88300000      47.59300000      37.76700000
 H      37.75700000      48.84700000      37.94200000
 O      34.63700000      42.99900000      36.60300000
 H      35.43700000      42.49700000      36.89900000
 H      35.05900000      43.76600000      36.14700000
 O      37.87700000      42.57600000      17.07200000
 H      38.09100000      43.53000000      17.05900000
 H      37.66800000      42.48100000      18.01600000
 O      33.77800000      46.27800000      21.20800000
 H      34.61000000      46.06900000      21.62900000
 H      33.35500000      45.37400000      21.17900000
 O      31.02900000      42.75400000      18.19600000
 H      30.22200000      42.82700000      17.70000000
 H      31.67600000      43.22800000      17.59600000
 O      30.55700000      47.12800000      19.49500000
 H      29.68300000      46.76700000      19.22800000
 H      30.35100000      47.51100000      20.33600000
 O      31.59900000      43.32200000       3.44900000
 H      30.88000000      42.93500000       4.07200000
 H      32.01500000      43.94500000       4.15500000
 O      38.14500000      43.16300000      36.19100000
 H      37.62100000      42.50100000      36.77900000
 H      39.06600000      42.70300000      36.31000000
 O      39.01400000      45.46800000      34.63500000
 H      38.50800000      44.65400000      34.92800000
 H      38.19100000      46.06400000      34.49100000
 O      30.89600000      45.48900000      40.47000000
 H      30.10200000      44.95200000      40.14100000
 H      31.16400000      45.85900000      39.63200000
 O      32.57500000      44.58600000      28.86900000
 H      31.82900000      44.19400000      28.34900000
 H      33.07400000      44.99200000      28.15600000
 O      31.45300000      45.45900000       9.60500000
 H      31.14400000      45.97300000      10.37200000
 H      32.31900000      45.10200000       9.99700000
 O      33.55100000      47.29600000      27.74800000
 H      32.65700000      47.39200000      27.29900000
 H      33.34400000      47.71000000      28.59100000
 O      30.59300000      42.99700000      20.91200000
 H      30.47200000      42.78300000      19.97400000
 H      29.77800000      42.57000000      21.28600000
