675
XYZ file of cluster: frame_16000_fc5.c5c62.9ac9f - created by MolEdiTo
 O      34.80100000      38.34900000      34.50200000
 H      35.42000000      39.09500000      34.42700000
 H      34.24200000      38.46700000      33.69400000
 O      32.89600000      37.78100000      29.88200000
 H      32.15500000      37.20900000      29.62600000
 H      32.99500000      38.25000000      29.00600000
 O      12.83800000      39.64400000      32.94600000
 H      13.76200000      39.27500000      32.63400000
 H      12.59300000      39.98700000      32.04500000
 O      35.92200000      39.06500000      40.10700000
 H      35.77800000      39.89600000      40.60800000
 H      35.00100000      38.64000000      40.28000000
 O      11.70400000      34.66100000      28.66100000
 H      11.42200000      33.80000000      29.01000000
 H      11.03800000      34.86600000      28.02400000
 O      14.94200000      40.11400000      27.29200000
 H      15.37600000      40.27500000      28.15000000
 H      15.46300000      39.33500000      26.97000000
 O       3.84600000      35.87600000      38.21300000
 H       4.46400000      36.29900000      38.79500000
 H       4.52000000      35.49900000      37.55700000
 O      20.09500000      35.71100000      28.92400000
 H      20.20800000      36.00000000      28.00500000
 H      19.86800000      34.76600000      28.77300000
 O      10.22100000      34.37700000      32.54300000
 H      10.71700000      35.14700000      32.77100000
 H       9.85200000      34.08600000      33.39300000
 O      30.91900000      37.16900000      33.03100000
 H      31.77700000      37.29000000      32.59700000
 H      30.95100000      36.24700000      33.25600000
 O      33.30200000      37.46500000      36.61200000
 H      33.83500000      37.91700000      35.87900000
 H      33.09400000      38.28500000      37.10800000
 O       3.87700000      39.93700000      34.65300000
 H       3.02000000      39.55300000      34.86400000
 H       4.28700000      39.78000000      35.57500000
 O      25.26800000      40.17100000      31.92200000
 H      24.45000000      40.04400000      32.50800000
 H      25.20700000      39.33000000      31.44600000
 O       7.65500000      34.86300000      29.22800000
 H       7.97700000      35.67700000      29.72700000
 H       7.64300000      35.24800000      28.33600000
 O       1.77800000      33.87000000      38.48900000
 H       2.31000000      34.69200000      38.48100000
 H       1.78300000      33.71800000      37.49700000
 O       6.29400000      35.43800000      36.57100000
 H       6.40700000      36.37400000      36.71200000
 H       7.15800000      35.16200000      36.28200000
 O      16.30900000      40.77300000      35.10400000
 H      15.43300000      40.31400000      34.98300000
 H      16.08400000      41.33000000      35.88900000
 O      32.53200000      34.23000000      28.64400000
 H      32.02000000      35.07600000      28.85900000
 H      32.42800000      33.69700000      29.43400000
 O       4.39400000      38.96000000      37.17500000
 H       4.26100000      38.26500000      37.87100000
 H       4.73000000      39.72100000      37.70200000
 O      23.07500000      39.68800000      33.49200000
 H      22.56500000      40.25400000      34.12300000
 H      22.32100000      39.39000000      32.93800000
 O      10.80400000      39.21200000      38.49100000
 H      10.59600000      39.54300000      39.39000000
 H      11.12500000      38.30800000      38.69700000
 O      23.69300000      35.82000000      36.67100000
 H      24.11400000      35.56400000      37.53300000
 H      23.93100000      35.04900000      36.10300000
 O      32.43600000      39.90200000      37.72900000
 H      33.15400000      40.50900000      37.41700000
 H      31.69000000      40.46600000      37.35400000
 O       1.78300000      39.45400000      39.88100000
 H       2.31500000      38.90200000      40.41600000
 H       1.39300000      38.83000000      39.21800000
 O      28.43300000      37.70500000      28.64400000
 H      27.54100000      37.29900000      28.92100000
 H      28.11600000      38.01200000      27.75600000
 O      34.90600000      35.61700000      37.80600000
 H      35.10500000      34.98700000      37.11600000
 H      34.58100000      36.38300000      37.34000000
 O      22.23500000      36.57100000      40.01100000
 H      22.21200000      35.61300000      39.96800000
 H      23.07000000      36.84400000      39.63400000
 O      13.54000000      38.40800000      40.66100000
 H      13.56300000      37.65900000      40.04700000
 H      12.72400000      38.13500000      41.17400000
 O      15.47400000      40.12100000      39.40900000
 H      14.84100000      39.65500000      40.03700000
 H      15.19200000      39.76500000      38.54200000
 O      26.07500000      36.18200000      29.07600000
 H      26.48000000      35.49500000      28.54800000
 H      25.52700000      35.64000000      29.68300000
 O       8.96100000      39.50800000      28.37900000
 H       9.70300000      39.09300000      28.89900000
 H       9.33100000      39.36100000      27.45600000
 O      30.63000000      36.08500000      29.51400000
 H      29.77900000      36.46000000      29.21900000
 H      30.28800000      35.38700000      30.09700000
 O       9.49700000      40.25500000      36.46800000
 H       9.82700000      41.16500000      36.70000000
 H       9.90100000      39.81800000      37.33400000
 O      22.72100000      35.23900000      27.69600000
 H      22.87300000      34.40200000      27.15800000
 H      22.15600000      34.80900000      28.41800000
 O      27.25200000      35.68500000      33.60100000
 H      28.12500000      35.71000000      33.18200000
 H      27.44300000      35.26300000      34.50300000
 O      24.80600000      39.85100000      38.09300000
 H      25.12400000      39.07300000      38.66900000
 H      24.55300000      39.29500000      37.30500000
 O      33.87800000      39.22100000      32.14800000
 H      33.30000000      38.87000000      31.38200000
 H      34.31700000      39.96000000      31.66400000
 O      34.69400000      35.91900000      31.14900000
 H      34.96600000      36.38700000      31.97200000
 H      34.26900000      36.71800000      30.70500000
 O      12.68600000      35.03900000      34.91500000
 H      12.96400000      35.80600000      35.47200000
 H      12.34500000      35.54200000      34.14300000
 O      24.75600000      35.21100000      39.00400000
 H      25.64000000      34.78400000      38.93200000
 H      24.30100000      34.56000000      39.59800000
 O      37.54700000      35.59100000      39.85200000
 H      37.71000000      36.38200000      39.29400000
 H      38.04600000      34.91400000      39.41400000
 O       7.40100000      35.77700000      33.80800000
 H       6.92700000      36.62100000      33.53200000
 H       8.32800000      36.01800000      33.62600000
 O       1.63600000      38.26700000      35.03800000
 H       1.51900000      37.81600000      34.19200000
 H       1.89600000      37.51700000      35.64100000
 O      38.40500000      39.90900000      33.78800000
 H      37.45600000      40.14900000      33.53000000
 H      38.52400000      40.48200000      34.53500000
 O      40.26300000      39.62700000      27.52100000
 H      40.88000000      38.99700000      27.89000000
 H      40.16200000      40.26400000      28.22900000
 O      17.44200000      37.49300000      35.81700000
 H      17.26600000      37.63900000      36.78300000
 H      17.75700000      38.37500000      35.59000000
 O      31.48300000      37.62900000      39.09700000
 H      32.24200000      37.45000000      39.73400000
 H      31.79900000      38.47700000      38.71400000
 O       1.92400000      37.04300000      28.20600000
 H       2.45400000      37.45000000      28.90300000
 H       2.55000000      37.20600000      27.44400000
 O      21.11400000      35.88000000      36.38900000
 H      21.01700000      36.86700000      36.26400000
 H      22.13600000      35.88000000      36.50400000
 O      22.11800000      39.48300000      27.99400000
 H      22.73900000      38.97000000      27.40300000
 H      21.30000000      38.92200000      27.93800000
 O      17.51600000      40.56700000      32.33300000
 H      17.04900000      40.77800000      33.13100000
 H      18.13200000      41.31600000      32.23500000
 O      40.53200000      34.74700000      29.44800000
 H      40.96700000      35.55600000      29.06900000
 H      40.20800000      34.38500000      28.55700000
 O      14.20300000      36.76600000      36.18500000
 H      14.08100000      37.67800000      36.55200000
 H      14.49800000      36.34200000      37.03600000
 O      17.48800000      34.44100000      36.13400000
 H      17.74000000      35.37600000      36.15800000
 H      17.25400000      34.25500000      35.20700000
 O      28.90500000      39.87300000      39.15700000
 H      29.78000000      39.54700000      39.49100000
 H      28.55900000      39.01000000      38.83800000
 O      31.63200000      35.00400000      37.27100000
 H      32.37500000      34.44900000      36.97700000
 H      31.93900000      35.89500000      37.01300000
 O       6.47000000      38.66000000      30.95800000
 H       6.29700000      38.57900000      31.85400000
 H       7.05800000      37.88100000      30.70900000
 O      31.85100000      34.80000000      33.71300000
 H      31.94500000      33.86500000      33.40900000
 H      32.36900000      34.87600000      34.48300000
 O      35.02200000      34.51300000      40.28900000
 H      36.00200000      34.57400000      40.47400000
 H      34.98400000      35.10300000      39.52700000
 O      21.42200000      34.25800000      32.85800000
 H      20.89700000      34.90900000      33.33600000
 H      22.08800000      34.69600000      32.33600000
 O       4.13600000      35.85000000      34.98600000
 H       4.98400000      35.58400000      35.36200000
 H       3.55700000      35.06400000      35.25400000
 O       9.42900000      38.20800000      32.86700000
 H      10.22200000      38.17500000      33.40500000
 H       8.88400000      38.94400000      33.21900000
 O      39.86200000      35.65000000      35.88600000
 H      39.83200000      36.07100000      34.98500000
 H      39.75000000      34.70600000      35.58400000
 O      11.00500000      38.14700000      29.85000000
 H      11.39400000      38.97800000      30.15700000
 H      11.79500000      37.61500000      29.71100000
 O       8.77200000      40.76200000      33.93600000
 H       9.30900000      41.59700000      33.74900000
 H       9.05000000      40.66600000      34.87500000
 O      18.15800000      37.66300000      29.83100000
 H      18.76500000      37.00600000      29.41100000
 H      18.52300000      38.45300000      29.45600000
 O      37.60800000      37.85400000      31.34300000
 H      38.07100000      37.02700000      30.99800000
 H      37.83200000      37.73400000      32.32500000
 O      15.90900000      39.85600000      29.93200000
 H      15.61800000      38.99000000      30.23600000
 H      16.56900000      40.13200000      30.60100000
 O      21.17500000      38.46400000      31.88300000
 H      20.22500000      38.29700000      31.75900000
 H      21.14200000      39.40000000      31.57000000
 O      28.73400000      40.20200000      34.96900000
 H      28.22800000      39.30200000      35.02200000
 H      29.02700000      40.06700000      34.00300000
 O      30.36400000      39.76100000      29.34300000
 H      29.79300000      38.95000000      29.27900000
 H      31.22900000      39.47700000      29.35700000
 O      11.93200000      36.54600000      32.58200000
 H      11.64400000      37.44400000      32.44800000
 H      12.44700000      36.38700000      31.75200000
 O      16.15100000      36.45100000      33.55600000
 H      15.60100000      36.62600000      34.32700000
 H      16.94500000      36.95400000      33.77600000
 O      29.73900000      35.66400000      38.93700000
 H      30.31500000      35.32600000      38.18100000
 H      30.33500000      36.42200000      39.20700000
 O       6.12700000      40.69700000      38.37000000
 H       6.92400000      41.35600000      38.38100000
 H       5.42500000      41.39600000      38.33900000
 O      24.35600000      37.78500000      30.45400000
 H      24.94400000      37.22500000      29.99200000
 H      23.62700000      37.13200000      30.73000000
 O      40.21100000      39.91200000      36.75500000
 H      40.80100000      39.62600000      36.00500000
 H      40.16800000      38.98200000      37.16300000
 O      28.91700000      38.95000000      32.32400000
 H      28.35200000      38.58500000      31.59400000
 H      29.49700000      38.22400000      32.55800000
 O      19.29900000      35.64300000      33.85800000
 H      19.47500000      35.97700000      34.75900000
 H      19.09400000      36.47700000      33.43300000
 O      24.50900000      38.25500000      35.80100000
 H      24.25600000      38.85700000      35.04600000
 H      23.87800000      37.49500000      35.60000000
 O       8.70300000      36.74300000      30.79200000
 H       9.51800000      36.74900000      30.26300000
 H       8.91700000      37.22100000      31.59800000
 O       2.81400000      38.41200000      30.36900000
 H       2.99700000      37.67500000      31.03000000
 H       2.03200000      38.80300000      30.79700000
 O      37.65500000      36.97700000      37.01700000
 H      36.95200000      36.20700000      37.00400000
 H      38.32500000      36.51400000      36.44400000
 O      18.58000000      37.95300000      32.53400000
 H      18.12700000      37.61200000      31.69700000
 H      18.19100000      38.87100000      32.52500000
 O       7.31100000      38.32900000      36.63500000
 H       8.11000000      38.89300000      36.44400000
 H       6.83700000      38.83800000      37.29300000
 O      18.12500000      40.25900000      39.88800000
 H      18.37900000      39.98400000      40.75300000
 H      17.21800000      40.49900000      40.05100000
 O       6.42700000      38.38000000      33.82700000
 H       5.55400000      38.85700000      34.00200000
 H       6.78700000      38.35100000      34.72000000
 O      27.28700000      37.62800000      35.36700000
 H      27.13600000      37.00600000      34.63900000
 H      26.42300000      37.70900000      35.82600000
 O       5.36700000      37.82200000      39.75000000
 H       5.52500000      37.57000000      40.67600000
 H       5.70600000      38.76600000      39.81000000
 O      36.95400000      39.83500000      37.74300000
 H      36.31400000      39.53600000      38.41400000
 H      37.22800000      38.97300000      37.34100000
 O      14.83900000      37.82100000      31.69200000
 H      14.46700000      37.02200000      31.25800000
 H      15.43400000      37.34100000      32.37700000
 O      19.79100000      36.17500000      38.98000000
 H      20.58200000      36.54400000      39.38000000
 H      20.14200000      35.91400000      38.09300000
 O       8.38900000      36.54700000      39.88300000
 H       8.10300000      36.27500000      38.98700000
 H       7.85800000      35.94200000      40.42600000
 O      20.55700000      38.73600000      36.61800000
 H      20.13500000      39.52500000      36.14400000
 H      21.17400000      39.21100000      37.16300000
 O      40.44200000      37.31700000      37.96800000
 H      40.52300000      36.65200000      38.68700000
 H      40.12900000      36.82000000      37.21200000
 O      17.50100000      37.64200000      38.92000000
 H      18.39600000      37.17800000      38.91500000
 H      17.81800000      38.53300000      39.26600000
 O      40.37200000      40.03100000      31.63500000
 H      40.57100000      40.88000000      32.13400000
 H      39.67100000      39.70700000      32.17100000
 O      39.80400000      36.27700000      33.21500000
 H      39.13000000      35.81600000      32.67600000
 H      40.50000000      36.52500000      32.54200000
 O      22.30900000      36.25100000      31.06100000
 H      21.49400000      36.13000000      30.54800000
 H      22.12800000      37.09300000      31.52300000
 O       4.17300000      40.44700000      28.87300000
 H       4.09000000      39.65700000      29.39900000
 H       4.91500000      40.86100000      29.28500000
 O      11.34400000      36.59500000      39.24000000
 H      11.58200000      35.70900000      39.49400000
 H      10.37100000      36.53800000      39.53100000
 O      27.67100000      37.40400000      38.21700000
 H      28.45400000      36.95700000      38.46500000
 H      27.80100000      37.64400000      37.27900000
 O      13.42300000      35.87100000      30.25700000
 H      12.79700000      35.42600000      29.62100000
 H      14.11500000      36.07200000      29.60800000
 O      25.60900000      37.54900000      39.74200000
 H      26.43400000      37.22600000      39.22600000
 H      25.04500000      36.71500000      39.68400000
 O      15.05300000      36.38900000      39.21700000
 H      15.87100000      36.91600000      39.09000000
 H      15.36300000      35.47200000      39.12700000
 O      15.45400000      36.31000000      28.62800000
 H      15.64300000      36.21800000      27.68800000
 H      16.30800000      36.65800000      28.95700000
 O      13.54300000      39.33800000      37.43300000
 H      13.22600000      40.04800000      36.74600000
 H      12.83800000      39.56700000      38.08500000
 O      24.62700000      34.91400000      33.05900000
 H      24.46500000      34.43800000      33.90500000
 H      25.56000000      35.13100000      33.14100000
 O       3.01700000      36.57100000      32.25000000
 H       3.30500000      35.71500000      31.78900000
 H       3.35600000      36.41200000      33.13900000
 O       0.78800000      36.31800000      40.41000000
 H       0.63100000      36.86800000      41.23300000
 H       0.47500000      35.46800000      40.77800000
 O      14.82800000      43.82300000      30.88600000
 H      15.63800000      44.29300000      30.48400000
 H      14.81100000      43.04400000      30.34600000
 O      21.80700000      42.63700000      30.87400000
 H      21.77900000      43.61000000      31.08700000
 H      22.70100000      42.64000000      30.46900000
 O       7.64000000      45.31700000      35.41100000
 H       7.00700000      45.85500000      35.90700000
 H       7.07700000      45.09500000      34.61500000
 O       7.75700000      44.89200000      31.00000000
 H       7.37800000      45.68900000      30.67400000
 H       7.34400000      44.21900000      30.37200000
 O       3.96300000      43.73000000      32.95100000
 H       4.96600000      43.75900000      33.06500000
 H       3.82600000      42.88700000      33.42000000
 O      23.85700000      43.71300000      39.84900000
 H      23.82200000      42.87800000      40.35500000
 H      24.80500000      43.72000000      39.57100000
 O      12.87800000      45.02600000      39.04700000
 H      13.47800000      45.59100000      39.63400000
 H      13.29000000      45.22300000      38.19400000
 O      32.48400000      43.23800000      40.80100000
 H      32.10900000      43.13000000      41.72300000
 H      32.07100000      44.12300000      40.59600000
 O      32.80300000      42.52400000      34.33100000
 H      33.49100000      42.85800000      34.93700000
 H      33.36500000      42.06000000      33.68800000
 O       3.80500000      45.08800000      27.59000000
 H       4.27100000      44.26000000      27.95700000
 H       3.09500000      45.22500000      28.29500000
 O      23.97200000      45.69500000      29.85400000
 H      23.23900000      45.64100000      30.50400000
 H      24.05600000      44.71400000      29.67000000
 O      29.47600000      45.54800000      35.21300000
 H      30.14900000      45.79800000      34.57300000
 H      28.67200000      45.48700000      34.71300000
 O      20.84500000      47.23200000      39.30200000
 H      20.45300000      46.72700000      40.05400000
 H      21.67900000      46.74300000      39.12900000
 O       3.31500000      47.67600000      33.60500000
 H       3.12100000      47.34500000      32.75800000
 H       3.07600000      46.97100000      34.20300000
 O       0.88100000      46.31400000      36.49900000
 H       0.16800000      46.17100000      35.83000000
 H       1.60300000      45.81600000      36.14100000
 O       9.95500000      44.96700000      34.00400000
 H       9.23000000      44.86400000      34.66800000
 H      10.46300000      45.66900000      34.52300000
 O      39.55000000      46.55300000      38.93400000
 H      39.99000000      46.45700000      38.00900000
 H      38.75000000      46.07500000      38.61000000
 O       9.00400000      47.54700000      33.63300000
 H       8.00400000      47.73900000      33.67400000
 H       8.89600000      46.56800000      33.74200000
 O      33.55800000      47.91400000      36.78400000
 H      32.64100000      47.76200000      37.20700000
 H      33.79200000      47.00900000      36.54300000
 O      22.53200000      48.31700000      28.94600000
 H      22.72200000      47.37000000      29.07800000
 H      22.30800000      48.60700000      29.87100000
 O      26.62500000      46.53300000      29.41300000
 H      26.38300000      47.36100000      28.96800000
 H      25.75500000      46.14400000      29.57800000
 O      30.65700000      47.37500000      26.91400000
 H      30.37900000      47.06000000      27.82000000
 H      29.76000000      47.27300000      26.45300000
 O      27.30100000      48.07900000      31.52400000
 H      27.12600000      47.42700000      30.82100000
 H      26.75200000      48.82700000      31.24300000
 O      16.29100000      45.90100000      33.55700000
 H      16.13300000      46.74300000      33.13100000
 H      15.45800000      45.43400000      33.51500000
 O      17.51000000      49.09800000      37.18400000
 H      18.26700000      48.45400000      37.09200000
 H      16.85700000      48.63800000      36.66900000
 O      23.57600000      48.64400000      37.38800000
 H      23.88200000      47.91700000      36.82600000
 H      22.90800000      48.21500000      37.95300000
 O      25.16300000      47.04600000      35.87100000
 H      24.64400000      46.18800000      35.74900000
 H      25.80900000      46.87600000      35.15400000
 O       2.64600000      45.13200000      34.89300000
 H       2.69600000      44.31800000      35.47300000
 H       3.15000000      44.69000000      34.14300000
 O      31.02900000      46.99700000      37.37000000
 H      30.49300000      46.87000000      36.53700000
 H      30.30800000      47.37700000      37.88600000
 O      22.81400000      45.60500000      38.31000000
 H      23.34800000      45.35000000      37.51400000
 H      23.22900000      45.04200000      38.98900000
 O      38.76900000      46.13500000      28.80800000
 H      38.94900000      46.94000000      29.33200000
 H      38.59100000      45.48600000      29.55300000
 O      29.52500000      43.81300000      30.05300000
 H      30.04000000      42.98600000      29.79600000
 H      29.88400000      43.83300000      30.98700000
 O      35.54900000      46.36500000      31.22500000
 H      34.87200000      46.76100000      31.80900000
 H      35.60500000      47.01400000      30.51100000
 O      30.55100000      43.25100000      36.39300000
 H      29.93500000      42.70100000      35.86200000
 H      30.28300000      44.15000000      36.16000000
 O      12.90500000      48.24100000      29.05100000
 H      13.15700000      48.42400000      28.14300000
 H      12.11000000      47.77700000      28.93900000
 O      40.63400000      43.10700000      29.57000000
 H      41.53000000      43.31900000      29.76900000
 H      40.41900000      42.52700000      30.34300000
 O      19.85100000      47.04400000      32.33200000
 H      19.11700000      47.38700000      31.68800000
 H      19.92500000      47.90400000      32.77900000
 O      30.45500000      43.24100000      32.56900000
 H      30.06200000      42.35100000      32.43800000
 H      31.21400000      42.99500000      33.10900000
 O      25.84600000      43.02000000      34.62300000
 H      25.90600000      42.49800000      33.80400000
 H      26.69500000      43.14200000      34.95500000
 O      28.97400000      47.95500000      38.74200000
 H      28.12700000      47.47100000      38.49200000
 H      28.69300000      48.16200000      39.62900000
 O      36.79700000      44.41800000      39.96100000
 H      37.06200000      44.83400000      40.80300000
 H      36.13200000      43.79600000      40.34700000
 O      16.59100000      43.73700000      37.70600000
 H      16.53900000      42.96700000      38.27900000
 H      16.34800000      44.46300000      38.33900000
 O       7.70600000      47.83100000      37.05100000
 H       7.58000000      48.76900000      37.20600000
 H       6.94400000      47.40300000      37.52000000
 O       5.68200000      46.32700000      37.83900000
 H       4.94200000      46.85000000      37.42000000
 H       5.12400000      45.49500000      37.95900000
 O       3.16500000      47.61000000      37.23300000
 H       2.27500000      47.22800000      36.98100000
 H       2.88000000      47.95200000      38.10200000
 O      34.63600000      42.58900000      29.80700000
 H      34.27300000      43.53200000      29.58600000
 H      34.46000000      42.12200000      28.98300000
 O      13.85400000      44.56800000      33.17600000
 H      13.28500000      45.29800000      32.81500000
 H      14.29600000      44.29000000      32.37800000
 O      17.84900000      47.94100000      30.40700000
 H      17.65000000      47.65300000      29.47800000
 H      17.96400000      48.94100000      30.16700000
 O      31.34500000      45.81200000      33.40700000
 H      31.23200000      46.13000000      32.49400000
 H      31.18500000      44.83800000      33.28400000
 O      10.51400000      44.60500000      31.36200000
 H      10.52300000      44.70800000      32.33400000
 H       9.53500000      44.74500000      31.24500000
 O      17.74100000      45.87800000      35.81000000
 H      17.00100000      45.93600000      36.48600000
 H      17.19300000      45.87900000      34.99900000
 O       1.81100000      43.59800000      37.15900000
 H       1.52400000      42.67000000      37.24100000
 H       1.13500000      44.15100000      37.56300000
 O      35.95600000      45.05400000      34.72800000
 H      36.00100000      46.03100000      34.79500000
 H      35.00500000      44.90100000      34.88300000
 O       7.89800000      44.09900000      39.01800000
 H       8.83400000      44.27700000      39.24000000
 H       7.65900000      44.84300000      38.47700000
 O      20.57900000      43.46000000      40.61300000
 H      19.80600000      42.84300000      40.72300000
 H      20.55900000      43.58300000      39.65700000
 O       3.94500000      44.20300000      38.65900000
 H       3.70300000      44.33900000      39.63400000
 H       3.04200000      44.06200000      38.32600000
 O      33.35600000      45.56500000      35.40300000
 H      32.97900000      45.67100000      34.54700000
 H      32.80100000      44.90000000      35.85900000
 O      36.18600000      45.61600000      27.49600000
 H      35.80600000      46.33800000      28.05600000
 H      37.02400000      45.44800000      28.05600000
 O      37.98800000      45.28200000      31.25200000
 H      37.16800000      45.75900000      31.44700000
 H      37.68400000      44.37700000      31.05200000
 O      33.95200000      47.47700000      33.18600000
 H      34.38500000      48.22800000      33.64400000
 H      33.02000000      47.61400000      33.52000000
 O      37.22800000      42.52100000      30.73200000
 H      37.61400000      41.64700000      30.66300000
 H      36.37200000      42.40400000      30.33200000
 O      28.99800000      43.97400000      39.06900000
 H      29.08500000      42.96400000      39.18600000
 H      29.23000000      43.94700000      38.10300000
 O      26.22600000      43.79300000      38.17700000
 H      25.85500000      42.85900000      38.04300000
 H      27.15200000      43.57900000      38.43600000
 O      26.71300000      46.64600000      38.30800000
 H      26.19400000      46.94100000      37.56900000
 H      26.58100000      45.70700000      38.30700000
 O      12.12000000      46.99400000      34.78100000
 H      12.49600000      47.13200000      33.90200000
 H      12.28300000      47.83700000      35.21000000
 O      18.81300000      42.49400000      35.93500000
 H      18.05200000      42.50600000      35.30600000
 H      18.48700000      43.02600000      36.65000000
 O      10.62100000      46.51400000      29.46700000
 H      10.74400000      45.77600000      30.18400000
 H      10.42100000      47.28300000      30.08600000
 O      15.93300000      46.09000000      39.13100000
 H      16.37000000      46.68000000      39.80600000
 H      15.85100000      46.63100000      38.36200000
 O      12.14600000      42.46400000      30.75400000
 H      11.39900000      43.04900000      30.94300000
 H      12.78900000      43.10200000      30.42900000
 O      37.28200000      47.59100000      35.05100000
 H      37.07700000      48.49500000      34.72500000
 H      38.19000000      47.73400000      35.40700000
 O      19.72900000      47.47900000      36.30200000
 H      19.06400000      46.78700000      35.99300000
 H      19.99000000      47.06800000      37.12800000
 O       6.86600000      42.75400000      29.51700000
 H       6.58900000      41.91600000      30.02900000
 H       7.67100000      42.36900000      29.15300000
 O      30.52500000      46.33000000      29.60400000
 H      29.99600000      45.52400000      29.78000000
 H      31.41900000      45.93000000      29.46800000
 O      10.28500000      44.17400000      37.60000000
 H       9.94000000      45.13200000      37.48400000
 H      11.15800000      44.43800000      37.97600000
 O      26.74600000      46.26000000      33.88500000
 H      26.88600000      47.00300000      33.27000000
 H      26.98400000      45.51200000      33.35300000
 O       3.18800000      47.80700000      40.23400000
 H       2.37600000      48.08200000      40.71100000
 H       3.21300000      46.84000000      40.42500000
 O      21.52200000      42.98500000      34.94600000
 H      21.02500000      43.79800000      34.75800000
 H      20.83500000      42.51200000      35.51900000
 O      39.36900000      43.36100000      38.86000000
 H      38.38500000      43.58400000      38.83100000
 H      39.31600000      42.42000000      38.54200000
 O       6.35900000      47.65400000      33.20500000
 H       5.93300000      47.53500000      32.28700000
 H       5.55700000      47.76700000      33.75500000
 O       9.36800000      48.28500000      31.00100000
 H       8.81500000      47.88200000      31.66500000
 H       8.66200000      48.56900000      30.31900000
 O      31.45300000      47.85400000      31.47600000
 H      32.24500000      48.30800000      31.10400000
 H      31.07800000      47.47300000      30.65800000
 O      15.61400000      48.11800000      32.01200000
 H      16.42800000      48.01800000      31.47600000
 H      15.68200000      49.02400000      32.34700000
 O      35.91000000      42.75200000      33.57500000
 H      36.40400000      42.94500000      32.69100000
 H      35.98500000      43.62400000      33.98400000
 O      40.67700000      44.76500000      32.42700000
 H      40.26500000      45.16000000      33.19900000
 H      39.98100000      44.99300000      31.75000000
 O      10.11600000      46.83300000      37.80300000
 H      10.66300000      47.12500000      37.07500000
 H       9.33400000      47.42700000      37.70400000
 O      12.74000000      47.04700000      32.05900000
 H      13.62800000      47.31000000      31.71400000
 H      12.09400000      47.56700000      31.58900000
 O      21.99400000      45.26200000      31.62000000
 H      22.67200000      45.06200000      32.34400000
 H      21.38400000      45.81300000      32.14200000
 O       2.03700000      49.05400000      29.61200000
 H       2.19300000      48.72000000      28.66300000
 H       1.41500000      48.38400000      29.91300000
 O      19.65900000      44.75500000      33.68000000
 H      19.72000000      45.60600000      33.15900000
 H      18.88500000      44.91700000      34.20900000
 O       7.59800000      48.44300000      28.88400000
 H       7.08200000      49.13800000      28.48500000
 H       8.16000000      48.11700000      28.10700000
 O      10.68900000      47.18700000      40.49200000
 H      10.02700000      46.47800000      40.73000000
 H      10.69300000      47.20200000      39.53200000
 O      23.80700000      44.59200000      36.05800000
 H      23.09000000      43.93400000      35.86800000
 H      24.59400000      44.00200000      36.00300000
 O      37.24400000      45.62100000      37.46500000
 H      36.88200000      45.29600000      38.28800000
 H      37.54500000      44.86100000      37.02700000
 O       6.58400000      43.85500000      33.27800000
 H       6.86000000      44.21500000      32.40300000
 H       7.26900000      43.21500000      33.41200000
 O      27.81400000      44.63300000      28.07900000
 H      28.14900000      44.31300000      28.93400000
 H      27.45500000      45.49000000      28.27300000
 O      27.00300000      44.19300000      32.25900000
 H      26.47100000      43.39400000      32.21400000
 H      27.44900000      44.22200000      31.40700000
 O      24.30000000      45.23700000      33.14200000
 H      24.47100000      44.37600000      33.67700000
 H      25.08300000      45.72900000      33.47200000
 O      37.04400000      48.34500000      38.39200000
 H      36.88300000      47.59300000      37.76700000
 H      37.75700000      48.84700000      37.94200000
 O      18.26700000      46.62700000      27.90800000
 H      18.09700000      47.51100000      27.46900000
 H      17.97500000      46.07400000      27.17300000
 O      33.55100000      47.29600000      27.74800000
 H      32.65700000      47.39200000      27.29900000
 H      33.34400000      47.71000000      28.59100000
 O      34.63700000      42.99900000      36.60300000
 H      35.43700000      42.49700000      36.89900000
 H      35.05900000      43.76600000      36.14700000
 O      17.35400000      44.56300000      29.71700000
 H      18.02800000      43.85200000      29.52500000
 H      17.86300000      45.37900000      29.46600000
 O      19.31700000      42.80800000      29.44400000
 H      19.66600000      42.39000000      28.69800000
 H      20.12100000      42.72900000      30.09100000
 O       2.87800000      45.15900000      30.53300000
 H       2.27000000      45.22800000      31.28800000
 H       3.61300000      44.66800000      30.96000000
 O      15.33500000      47.28700000      36.85800000
 H      14.69500000      46.53300000      36.69100000
 H      14.83900000      48.02800000      36.45200000
 O      24.30900000      42.73200000      29.27400000
 H      25.02800000      42.45300000      29.93800000
 H      23.79500000      41.92600000      29.29100000
 O      10.96200000      45.09200000      27.30900000
 H      11.55300000      44.27600000      27.43900000
 H      11.10300000      45.49100000      28.21000000
 O      13.72100000      45.22100000      36.62400000
 H      13.09800000      45.60100000      35.98100000
 H      13.67500000      44.30700000      36.38400000
 O       5.50000000      47.84600000      30.63700000
 H       6.16300000      48.12100000      29.98000000
 H       4.79800000      48.41500000      30.35200000
 O      39.01400000      45.46800000      34.63500000
 H      38.50800000      44.65400000      34.92800000
 H      38.19100000      46.06400000      34.49100000
 O      38.14500000      43.16300000      36.19100000
 H      37.62100000      42.50100000      36.77900000
 H      39.06600000      42.70300000      36.31000000
 O      30.89600000      45.48900000      40.47000000
 H      30.10200000      44.95200000      40.14100000
 H      31.16400000      45.85900000      39.63200000
 O      32.57500000      44.58600000      28.86900000
 H      31.82900000      44.19400000      28.34900000
 H      33.07400000      44.99200000      28.15600000
 O      22.05800000      42.40500000      38.19000000
 H      22.88800000      42.21200000      37.74300000
 H      22.30800000      43.03500000      38.83900000
 O      13.37500000      42.60700000      35.04200000
 H      12.93600000      42.23200000      34.23600000
 H      13.81500000      43.36600000      34.60800000
