123
XYZ file of cluster: frame_5500_ca10c.2940.70bb9 - created by MolEdiTo
 O      27.74300000       7.78800000      20.34600000
 H      26.80500000       7.89100000      20.44600000
 H      28.08700000       8.51500000      21.03500000
 O      28.08200000       5.18500000      15.34500000
 H      28.68600000       5.31100000      16.16100000
 H      28.39000000       5.82300000      14.59600000
 O      29.21700000       8.25000000      16.48100000
 H      30.10000000       7.87100000      16.78800000
 H      28.51500000       7.97600000      17.02800000
 O      26.46100000       2.22600000      23.87900000
 H      27.39800000       2.02100000      24.17500000
 H      26.32900000       3.20000000      24.12000000
 O      29.73800000       6.90100000      26.45900000
 H      30.64400000       6.53900000      26.72500000
 H      29.80000000       6.60300000      25.55200000
 O      26.14000000       4.31800000      21.58600000
 H      26.47800000       3.43700000      21.89700000
 H      26.16700000       4.93600000      22.35100000
 O      26.33200000       2.49900000      27.00700000
 H      26.27800000       2.46800000      25.97500000
 H      26.91200000       3.31700000      27.08500000
 O      29.02500000       7.95500000      22.75800000
 H      29.91100000       7.55100000      22.48300000
 H      29.12800000       8.94000000      22.51200000
 O      30.73400000       0.93800000      19.28500000
 H      30.81800000       0.68700000      20.19400000
 H      31.14100000       1.78800000      19.37200000
 O      26.73600000       6.72400000      23.14800000
 H      26.59200000       7.38100000      23.87100000
 H      27.56300000       7.09000000      22.80000000
 O      28.56600000      10.36200000      21.58600000
 H      29.21400000      10.97800000      21.20100000
 H      27.82400000      10.83400000      21.30300000
 O      29.11800000       5.76500000      17.76000000
 H      28.60800000       5.32000000      18.48200000
 H      29.97400000       6.04800000      18.14800000
 O      28.95000000      10.39200000      25.02400000
 H      29.53800000       9.67400000      24.80400000
 H      29.07500000      10.60400000      25.94800000
 O      30.40900000       7.81400000      19.53800000
 H      30.87200000       8.44000000      18.90200000
 H      29.45400000       8.14200000      19.69500000
 O      28.90800000       3.04700000      25.47900000
 H      29.20600000       3.96100000      25.68400000
 H      29.64800000       2.41300000      25.74200000
 O      26.44900000       8.36300000      25.28800000
 H      26.63100000       7.69400000      25.97900000
 H      26.65200000       9.17200000      25.70300000
 O      26.95500000       5.32800000      19.30000000
 H      26.74100000       4.89900000      20.21200000
 H      27.34200000       6.20900000      19.54900000
 O      26.64600000      11.03600000      23.87200000
 H      27.44500000      10.48700000      24.09000000
 H      26.76300000      11.24700000      22.91600000
 O      29.22800000       0.86300000      23.25100000
 H      28.34000000       0.53700000      23.01700000
 H      29.30400000       0.44900000      24.11600000
 O      34.77800000       6.18600000      19.32200000
 H      34.07500000       6.81200000      19.58500000
 H      35.52200000       6.76500000      19.01200000
 O      35.33300000       2.23200000      23.49400000
 H      34.59900000       1.81800000      23.02100000
 H      35.99200000       2.42500000      22.82600000
 O      33.41500000       8.98700000      24.33000000
 H      33.37400000       8.03800000      24.58900000
 H      33.94200000       8.83900000      23.51800000
 O      33.93800000      11.45900000      22.76500000
 H      32.92400000      11.59400000      22.67100000
 H      33.96900000      10.50800000      22.84600000
 O      36.27400000       3.79300000      21.15600000
 H      36.66800000       3.27800000      20.46000000
 H      36.60800000       4.76000000      21.00600000
 O      33.93100000      10.27800000      17.06500000
 H      34.82400000      10.46900000      17.29500000
 H      33.41600000      10.28700000      17.95300000
 O      36.61600000       8.90900000      24.25200000
 H      36.76200000       9.43100000      25.08300000
 H      37.40300000       9.27600000      23.76800000
 O      33.37800000       6.15500000      24.29000000
 H      33.38200000       6.25600000      23.30600000
 H      33.42500000       5.24700000      24.52100000
 O      34.00100000       7.95700000      15.27400000
 H      33.73800000       8.86300000      15.50900000
 H      33.79600000       7.64300000      16.15800000
 O      35.91000000       4.43000000      16.38600000
 H      35.55600000       5.31900000      16.15200000
 H      35.12700000       4.16700000      16.87500000
 O      37.00600000      10.87800000      18.01600000
 H      37.43500000      10.45600000      18.72100000
 H      36.39300000      11.50400000      18.45100000
 O      37.39200000       4.64700000      19.15700000
 H      36.55400000       4.94200000      19.52100000
 H      36.99700000       4.32200000      18.34800000
 O      33.57700000       4.12800000      18.31900000
 H      33.86400000       3.75400000      19.16300000
 H      32.76500000       3.56700000      18.19100000
 O      32.59500000      10.20000000      18.48100000
 H      32.12400000      10.99600000      18.17300000
 H      33.44600000      10.64800000      18.80800000
 O      33.58100000       7.04100000      17.94700000
 H      34.28500000       7.55800000      18.21300000
 H      33.64700000       6.16200000      18.32000000
 O      32.97400000       6.18000000      21.59000000
 H      33.23200000       5.30700000      21.12100000
 H      32.34200000       6.63300000      20.99900000
 O      35.98900000       1.82900000      18.93000000
 H      36.29900000       1.01200000      19.25600000
 H      35.65900000       1.64900000      18.06000000
 O      36.55500000       5.63800000      23.97100000
 H      35.71500000       5.27800000      23.87100000
 H      36.42800000       6.61700000      24.11400000
 O      33.27300000       1.30400000      21.88500000
 H      33.31200000       0.33400000      22.09000000
 H      32.44400000       1.57800000      22.35400000
 O      33.61600000       3.74300000      20.42000000
 H      34.60100000       4.00000000      20.37500000
 H      33.63500000       3.00000000      21.11000000
 O      36.05100000       8.10400000      18.29100000
 H      37.02000000       7.82400000      18.10100000
 H      36.09700000       8.91500000      17.81100000
 O      34.27600000       3.22600000      25.81800000
 H      34.62800000       2.87600000      24.98100000
 H      34.22400000       2.42700000      26.23800000
