166
XYZ file of cluster: frame_5500_6e6ec.4783f.6992a - created by MolEdiTo
 O      18.51600000      19.24100000      15.82600000
 H      19.15600000      19.45900000      16.58200000
 H      18.29300000      18.27500000      16.00900000
 O      21.03500000      15.81000000      20.57600000
 H      21.34100000      14.86300000      20.50200000
 H      20.03300000      15.76900000      20.55600000
 O      16.47200000      15.58900000      19.68500000
 H      15.71300000      14.95000000      19.76500000
 H      17.20700000      15.09600000      19.32700000
 O      25.69800000      16.36900000      19.47900000
 H      26.70300000      16.78700000      19.40200000
 H      25.20500000      17.21700000      19.54800000
 O      15.98700000       9.90600000      22.53500000
 H      15.39500000       9.26500000      22.94900000
 H      15.56200000      10.73100000      22.82500000
 O      16.22100000      18.19900000      22.91200000
 H      16.23600000      18.79200000      23.67500000
 H      16.84600000      17.41800000      23.06200000
 O      24.35300000      21.75500000      16.16500000
 H      23.66000000      21.06100000      16.45900000
 H      24.93600000      21.34900000      15.38900000
 O      21.58100000      13.54500000      18.32600000
 H      21.87000000      12.65000000      18.22400000
 H      22.41200000      13.84700000      18.76400000
 O      20.21100000      10.46300000      18.94600000
 H      20.50900000      10.99700000      18.20300000
 H      20.94700000      10.66300000      19.58800000
 O      23.15900000      11.50000000      18.90600000
 H      23.72300000      11.55900000      19.68300000
 H      23.80400000      11.30300000      18.20200000
 O      15.29700000      10.93100000      19.84500000
 H      15.29600000      10.23100000      20.47100000
 H      15.85400000      11.54800000      20.38500000
 O      24.88000000      17.91900000      21.98700000
 H      24.29000000      18.62200000      22.21400000
 H      25.78500000      18.32600000      22.11500000
 O      23.20000000      18.17400000      19.00000000
 H      22.56900000      18.62100000      19.45300000
 H      23.00000000      17.25100000      19.38400000
 O      16.78400000      11.80400000      21.83000000
 H      16.59300000      11.92200000      22.80400000
 H      17.79400000      11.67800000      21.67300000
 O      22.23700000      14.42700000      25.38100000
 H      23.07600000      14.78800000      24.98900000
 H      22.18500000      13.44800000      24.92200000
 O      23.06600000      12.41600000      23.53800000
 H      22.46200000      12.10400000      22.80800000
 H      23.64600000      11.65900000      23.88400000
 O      25.73700000      12.59700000      18.25900000
 H      25.55100000      11.80600000      17.70200000
 H      25.66000000      12.36000000      19.18400000
 O      22.78300000      19.29400000      17.16600000
 H      23.11500000      18.81700000      17.91000000
 H      21.94300000      19.59300000      17.65700000
 O      18.61200000      14.27400000      18.88700000
 H      18.03800000      14.18000000      18.06800000
 H      19.49300000      13.90000000      18.60200000
 O      19.81400000      19.08400000      23.62700000
 H      20.34400000      19.66200000      22.99400000
 H      20.45000000      18.29300000      23.53300000
 O      16.50300000      17.79100000      17.94000000
 H      15.80500000      18.28600000      18.39800000
 H      16.39600000      16.94600000      18.44000000
 O      19.92900000      13.52700000      16.39200000
 H      20.84300000      13.26000000      16.68600000
 H      19.45000000      13.95100000      17.15600000
 O      24.04200000      14.09500000      19.93900000
 H      24.34100000      13.93600000      20.85600000
 H      24.61200000      14.91200000      19.71700000
 O      18.59900000      18.64700000      20.53000000
 H      18.31900000      17.92800000      21.13800000
 H      17.80800000      18.72100000      19.95100000
 O      26.22300000      20.68800000      21.00500000
 H      26.46400000      21.32900000      20.30500000
 H      25.29700000      20.81800000      20.88100000
 O      24.20800000      15.13200000      17.76400000
 H      24.14300000      15.44200000      18.69400000
 H      24.75000000      14.33900000      17.90700000
 O      21.35800000      10.95000000      26.38900000
 H      20.66900000      10.46700000      25.86900000
 H      20.84600000      11.24200000      27.15500000
 O      24.95300000      10.81100000      16.31900000
 H      24.11100000      10.84100000      15.69600000
 H      25.70600000      10.97400000      15.68100000
 O      25.56100000      13.05100000      22.11300000
 H      25.27100000      12.36900000      21.50000000
 H      24.96600000      13.07600000      22.91300000
 O      15.71400000      19.61400000      20.40500000
 H      16.26300000      20.36300000      20.15800000
 H      16.08000000      19.39100000      21.31400000
 O      26.26800000      15.53200000      23.81300000
 H      26.41500000      16.37400000      23.28800000
 H      26.07700000      14.93000000      23.04600000
 O      20.27100000      11.48800000      16.28000000
 H      19.66500000      12.29600000      16.47700000
 H      19.72000000      10.77000000      16.03300000
 O      21.80900000      17.27100000      24.34000000
 H      21.49500000      16.72700000      25.16800000
 H      22.74400000      17.39900000      24.55800000
 O      16.97200000      19.72800000      25.74600000
 H      17.37000000      20.07800000      24.95000000
 H      16.56200000      20.50800000      26.14500000
 O      25.91000000      11.80700000      20.19700000
 H      25.55200000      10.85100000      20.14200000
 H      26.77300000      11.71100000      19.74700000
 O      23.56600000      16.85800000      26.46800000
 H      24.50500000      16.76400000      26.22900000
 H      23.58900000      17.60300000      27.15500000
 O      21.88300000      16.44100000      16.81000000
 H      22.39100000      17.16000000      16.45000000
 H      22.61600000      15.79500000      16.93900000
 O      16.78400000      12.09000000      25.18800000
 H      16.22300000      11.34300000      25.44800000
 H      17.68900000      11.79300000      25.36300000
 O      24.86300000      19.29900000      25.90400000
 H      25.45000000      19.46500000      26.71100000
 H      24.61700000      20.23100000      25.59100000
 C      15.71000000      17.26900000      14.43300000
 C      16.03000000      16.45600000      15.73300000
 C      15.98400000      14.33100000      17.01300000
 H      16.94700000      14.61300000      14.97800000
 H      17.46800000      17.06600000      14.21800000
 O      14.88200000      14.56200000      14.85400000
 O      14.59500000      17.54800000      14.07500000
 O      16.77900000      17.43500000      13.66900000
 C      16.04100000      14.91600000      15.61800000
 O      17.31600000      16.89700000      16.22200000
 H      15.33100000      16.73200000      16.56200000
 O      16.86600000      14.28100000      17.74900000
 O      14.76900000      14.47800000      17.53600000
 H      14.28600000      14.81400000      16.74600000
 H      17.10600000      17.24600000      17.18600000
 H      14.80200000      13.55300000      14.70800000
 O      19.39100000      21.54600000      25.53100000
 H      18.50400000      21.86400000      25.43700000
 H      19.55800000      20.78200000      24.84400000
 O      16.53000000      20.75500000      18.53300000
 H      15.57700000      20.54000000      18.18600000
 H      16.87600000      19.83300000      18.77500000
 O      25.79800000      12.81900000      26.00700000
 H      25.06600000      13.43900000      25.93400000
 H      25.56300000      12.06400000      25.55300000
 O      19.04500000      16.24300000      25.81800000
 H      18.67300000      17.08800000      26.10300000
 H      18.19700000      15.78500000      25.51100000
 O      20.85100000      11.63700000      21.01700000
 H      20.81300000      10.71600000      20.82600000
 H      20.21600000      11.98000000      20.29100000
 O      20.12000000      14.89100000      23.23400000
 H      20.17000000      15.11400000      24.21700000
 H      20.94100000      15.38000000      22.79200000
 O      20.33200000      18.64000000      18.02800000
 H      20.73000000      17.67800000      17.89500000
 H      19.70500000      18.69200000      18.78200000
 O      16.68700000      15.05600000      25.49600000
 H      16.39800000      14.39200000      26.18300000
 H      16.78900000      14.64800000      24.59700000
 O      18.29800000      11.72900000      19.39200000
 H      17.72100000      10.95600000      19.44300000
 H      18.98000000      11.36200000      18.68000000
 O      17.75500000      15.89000000      22.42000000
 H      17.67400000      15.35900000      21.63600000
 H      18.67300000      15.78300000      22.73900000
 O      26.33100000      20.14800000      17.86900000
 H      25.90700000      19.66900000      17.12600000
 H      25.69300000      20.87000000      18.06000000
