36
XYZ file of cluster: frame_11000_4b921.c4441.7eebc - created by MolEdiTo
 O       7.09000000      17.45700000      16.79000000
 H       6.47800000      18.00100000      16.28000000
 H       6.51400000      17.29200000      17.52400000
 O       8.66600000      20.49000000      17.34500000
 H       9.50300000      20.48600000      17.87900000
 H       8.03600000      20.26800000      18.05700000
 O       8.08600000      18.69600000      12.86400000
 H       8.47600000      18.68700000      13.74000000
 H       8.73700000      19.09400000      12.24700000
 O      10.41700000      19.91300000      11.94600000
 H      11.31600000      19.52100000      11.92800000
 H      10.48800000      20.82200000      11.64700000
 O      10.09800000      18.77400000      15.16800000
 H       9.59000000      18.42600000      15.92400000
 H      10.36800000      19.65700000      15.47000000
 O      13.20900000      18.31400000      12.78300000
 H      13.29600000      18.64000000      13.67700000
 H      12.51000000      17.61500000      12.79100000
 O      13.00000000      22.39700000      17.31000000
 H      12.92700000      22.50400000      16.35700000
 H      12.56400000      21.51300000      17.37900000
 O      12.78100000      23.23500000      14.65800000
 H      13.10000000      23.14300000      13.78300000
 H      13.06400000      24.11200000      14.82700000
 O       7.97200000      23.42900000      11.94400000
 H       8.59300000      22.99500000      12.54200000
 H       7.12200000      22.96200000      11.93500000
 O      11.01600000      24.79500000      11.91100000
 H      11.90700000      24.89300000      11.53600000
 H      10.28600000      24.71000000      11.19900000
 O       8.97100000      23.79600000      15.27800000
 H       8.81100000      23.17300000      16.04000000
 H       8.04400000      24.02100000      15.08900000
 O      14.24600000      24.92900000      13.17000000
 H      14.32800000      25.86300000      13.43400000
 H      13.77500000      25.02300000      12.28000000
