36
XYZ file of cluster: frame_11000_d825.4c2ba.748ff - created by MolEdiTo
 O       3.27800000      10.96200000      12.66100000
 H       2.32200000      10.83200000      12.40900000
 H       3.79300000      10.16900000      12.92200000
 O       3.69000000       8.15300000      13.72400000
 H       3.38700000       7.22900000      14.14500000
 H       4.54900000       7.78200000      13.25700000
 O       2.07600000       8.03000000      16.99600000
 H       1.31300000       7.56000000      17.37600000
 H       2.33100000       8.61900000      17.70800000
 O       2.71500000       8.05900000      10.83700000
 H       2.15400000       8.69100000      10.28500000
 H       2.65300000       8.43200000      11.75200000
 O       5.49700000      12.01400000      17.25600000
 H       4.66200000      12.22800000      17.76600000
 H       5.05700000      11.44600000      16.51600000
 O       4.82600000      14.63000000      16.44400000
 H       5.08200000      13.73600000      16.67800000
 H       5.68400000      15.08200000      16.43300000
 O       1.71200000      13.52300000      13.41600000
 H       1.84900000      14.28600000      12.85300000
 H       2.54600000      13.01000000      13.21500000
 O       6.24200000       7.43000000      12.48200000
 H       6.67000000       6.71100000      12.04100000
 H       6.84100000       8.19700000      12.28100000
 O       5.64800000      12.76700000      12.11900000
 H       5.01900000      12.07600000      12.41100000
 H       6.52200000      12.41100000      12.32500000
 O       3.90900000      10.10100000      16.03400000
 H       3.07900000      10.64600000      16.18100000
 H       3.70300000       9.28500000      15.53900000
 O       1.72700000      11.87400000      16.51400000
 H       1.15800000      12.15700000      17.27400000
 H       1.18500000      12.38200000      15.79300000
 O       5.98900000       7.83500000      16.28200000
 H       5.89100000       7.27300000      15.47900000
 H       5.75100000       8.75700000      16.07200000
