33
XYZ file of cluster: frame_11000_a61ec.e076.95994 - created by MolEdiTo
 O      17.53900000       4.83300000      19.09200000
 H      17.26400000       4.86200000      19.98900000
 H      18.34100000       5.35900000      19.13000000
 O      14.57100000       6.18600000      13.88700000
 H      14.65900000       6.82600000      13.20000000
 H      14.95500000       6.69600000      14.71100000
 O      14.94200000       5.32400000      19.50800000
 H      15.82200000       5.06400000      19.11800000
 H      14.24000000       4.68000000      19.24400000
 O      15.53700000       3.81900000      16.01100000
 H      15.11700000       4.36300000      15.24400000
 H      14.80000000       3.76700000      16.67500000
 O      20.28900000       2.36500000      18.79400000
 H      20.07300000       2.16700000      19.75100000
 H      19.84800000       1.56400000      18.36900000
 O      16.50000000       1.33100000      15.26900000
 H      15.95900000       2.17700000      15.46700000
 H      17.02300000       1.23600000      16.04800000
 O      19.51900000       7.05300000      19.26800000
 H      19.59800000       7.05200000      20.28200000
 H      19.38400000       7.98100000      19.00000000
 O      17.15000000       2.15000000      18.00900000
 H      17.90300000       2.23900000      17.39200000
 H      17.15100000       2.94100000      18.54800000
 O      19.22400000       1.95800000      16.12400000
 H      19.98900000       2.48900000      16.33100000
 H      19.11500000       2.03300000      15.16600000
 O      15.32200000       7.38400000      17.80300000
 H      15.15300000       6.70400000      18.51300000
 H      14.48000000       7.94200000      17.70400000
 O      18.20300000       5.54400000      15.64100000
 H      17.88400000       4.81800000      15.07200000
 H      17.72400000       5.53300000      16.47800000
