48
XYZ file of cluster: frame_11000_77fe7.c57de.4737d - created by MolEdiTo
 O      17.37900000      19.34800000      13.46600000
 H      16.53400000      19.34500000      13.01900000
 H      17.23400000      20.02800000      14.16200000
 O      11.18800000      17.44300000       9.86200000
 H      10.34700000      17.95100000       9.96800000
 H      11.28900000      17.40000000       8.85700000
 O      14.19000000      20.74800000       7.27600000
 H      14.70000000      20.54800000       6.45500000
 H      13.86500000      19.82100000       7.40800000
 O      12.91300000      20.18400000      10.03100000
 H      13.73900000      19.84900000       9.53600000
 H      12.17700000      19.75600000       9.53400000
 O      10.41700000      19.91300000      11.94600000
 H      11.31600000      19.52100000      11.92800000
 H      10.48800000      20.82200000      11.64700000
 O      11.39900000      20.14500000       7.32900000
 H      10.84600000      21.01700000       7.17600000
 H      11.93900000      20.12700000       6.53800000
 O      14.57000000      18.05100000       9.57500000
 H      15.52200000      18.27900000       9.56300000
 H      14.16000000      18.47300000      10.35300000
 O      17.57000000      19.49300000      10.26800000
 H      18.52500000      19.77000000      10.20800000
 H      17.15700000      20.24100000      10.78300000
 O      13.20900000      18.31400000      12.78300000
 H      13.29600000      18.64000000      13.67700000
 H      12.51000000      17.61500000      12.79100000
 O      16.42700000      23.79200000       6.97100000
 H      16.43100000      24.55100000       6.28400000
 H      15.52600000      23.70100000       7.28000000
 O      15.83700000      22.85400000      11.82200000
 H      15.34000000      23.36200000      12.51900000
 H      15.87900000      23.34900000      10.96900000
 O      12.78100000      23.23500000      14.65800000
 H      13.10000000      23.14300000      13.78300000
 H      13.06400000      24.11200000      14.82700000
 O      13.42000000      24.51800000      10.39200000
 H      13.54000000      24.93000000       9.55700000
 H      13.32000000      23.54600000      10.23400000
 O      17.93900000      24.85300000      13.36800000
 H      17.21800000      24.33800000      13.78400000
 H      18.06400000      24.47400000      12.46800000
 O      11.01600000      24.79500000      11.91100000
 H      11.90700000      24.89300000      11.53600000
 H      10.28600000      24.71000000      11.19900000
 O      14.24600000      24.92900000      13.17000000
 H      14.32800000      25.86300000      13.43400000
 H      13.77500000      25.02300000      12.28000000
