48
XYZ file of cluster: frame_11000_74906.9a454.4927f - created by MolEdiTo
 O      13.01900000      16.02400000       7.61600000
 H      12.73500000      15.42000000       8.28200000
 H      13.64700000      16.55000000       8.19300000
 O      15.92100000      14.30400000       7.40200000
 H      16.21200000      14.71200000       6.51100000
 H      16.48900000      14.55400000       8.15200000
 O      17.37900000      19.34800000      13.46600000
 H      16.53400000      19.34500000      13.01900000
 H      17.23400000      20.02800000      14.16200000
 O      11.18800000      17.44300000       9.86200000
 H      10.34700000      17.95100000       9.96800000
 H      11.28900000      17.40000000       8.85700000
 O      14.19000000      20.74800000       7.27600000
 H      14.70000000      20.54800000       6.45500000
 H      13.86500000      19.82100000       7.40800000
 O      12.91300000      20.18400000      10.03100000
 H      13.73900000      19.84900000       9.53600000
 H      12.17700000      19.75600000       9.53400000
 O      10.41700000      19.91300000      11.94600000
 H      11.31600000      19.52100000      11.92800000
 H      10.48800000      20.82200000      11.64700000
 O      11.39900000      20.14500000       7.32900000
 H      10.84600000      21.01700000       7.17600000
 H      11.93900000      20.12700000       6.53800000
 O      10.78100000      17.01200000      12.66800000
 H      10.81700000      17.13700000      11.70100000
 H       9.99200000      17.49100000      12.89700000
 O      11.11400000      14.37000000      10.42000000
 H      10.50600000      14.81700000       9.77000000
 H      11.76200000      15.09800000      10.49700000
 O      16.72700000      15.02200000      10.06500000
 H      15.81300000      15.24600000      10.41400000
 H      16.66700000      14.08600000       9.84100000
 O      11.96000000      14.17900000      14.07500000
 H      11.21600000      13.59200000      13.79400000
 H      11.49600000      15.01600000      14.04700000
 O      14.91900000      15.91900000      12.37000000
 H      14.45100000      16.77300000      12.35000000
 H      14.51700000      15.41500000      13.18100000
 O      14.57000000      18.05100000       9.57500000
 H      15.52200000      18.27900000       9.56300000
 H      14.16000000      18.47300000      10.35300000
 O      17.57000000      19.49300000      10.26800000
 H      18.52500000      19.77000000      10.20800000
 H      17.15700000      20.24100000      10.78300000
 O      13.20900000      18.31400000      12.78300000
 H      13.29600000      18.64000000      13.67700000
 H      12.51000000      17.61500000      12.79100000
