36
XYZ file of cluster: frame_11000_0.1e30f.a0ceb - created by MolEdiTo
 O       1.26400000       4.91100000      19.28000000
 H       0.75700000       5.72600000      19.21500000
 H       0.85500000       4.45200000      18.56300000
 O       3.17000000       3.68500000      20.65100000
 H       3.90500000       4.27600000      20.37100000
 H       2.36700000       3.98600000      20.14900000
 O       4.51300000       5.37100000      15.37800000
 H       5.46200000       5.14400000      15.01300000
 H       3.93000000       4.59300000      15.09800000
 O       0.61100000       4.31900000      15.17500000
 H       0.81700000       4.46400000      14.18900000
 H       0.00000000       5.02200000      15.46400000
 O       2.07600000       8.03000000      16.99600000
 H       1.31300000       7.56000000      17.37600000
 H       2.33100000       8.61900000      17.70800000
 O       3.45500000       9.31900000      18.87600000
 H       3.80000000       9.33700000      19.81900000
 H       3.75600000      10.23700000      18.58300000
 O       7.07600000       9.86400000      18.51000000
 H       6.65100000       9.12200000      18.14100000
 H       6.61800000      10.65400000      18.24800000
 O       5.88800000       6.54100000      20.13200000
 H       6.65800000       6.47100000      19.48600000
 H       5.13900000       6.56000000      19.46100000
 O       3.90900000      10.10100000      16.03400000
 H       3.07900000      10.64600000      16.18100000
 H       3.70300000       9.28500000      15.53900000
 O       5.73900000       3.48600000      17.13400000
 H       5.13600000       4.20000000      16.80700000
 H       5.27800000       2.66000000      17.02400000
 O       4.18900000       6.45000000      18.11500000
 H       4.43900000       6.28200000      17.11200000
 H       3.26100000       6.74400000      18.00000000
 O       5.98900000       7.83500000      16.28200000
 H       5.89100000       7.27300000      15.47900000
 H       5.75100000       8.75700000      16.07200000
