33
XYZ file of cluster: frame_11000_73f52.f1e5.c51b9 - created by MolEdiTo
 O      10.46700000       3.09900000      20.34800000
 H       9.94000000       2.77000000      19.62300000
 H      11.38600000       2.93100000      20.02700000
 O      17.53900000       4.83300000      19.09200000
 H      17.26400000       4.86200000      19.98900000
 H      18.34100000       5.35900000      19.13000000
 O      13.25900000       2.48000000      19.44100000
 H      13.37100000       1.78700000      18.68700000
 H      13.89800000       2.16800000      20.13800000
 O      14.94200000       5.32400000      19.50800000
 H      15.82200000       5.06400000      19.11800000
 H      14.24000000       4.68000000      19.24400000
 O      17.15000000       2.15000000      18.00900000
 H      17.90300000       2.23900000      17.39200000
 H      17.15100000       2.94100000      18.54800000
 O      15.32200000       7.38400000      17.80300000
 H      15.15300000       6.70400000      18.51300000
 H      14.48000000       7.94200000      17.70400000
 O      13.20400000       7.15700000      22.80100000
 H      13.38100000       8.05800000      22.54900000
 H      13.32500000       6.51100000      22.10600000
 O      16.90700000       5.26900000      23.75800000
 H      17.55100000       5.99300000      24.04700000
 H      17.30100000       4.44000000      24.03700000
 O      10.41800000       1.33200000      24.35700000
 H      11.24700000       1.74800000      24.64000000
 H      10.24500000       1.86400000      23.59800000
 O      14.72800000       2.45600000      23.95300000
 H      15.46300000       2.16900000      23.35700000
 H      14.92900000       2.08500000      24.83100000
 O      12.25700000       3.34400000      25.56800000
 H      13.02700000       3.67800000      24.97800000
 H      12.52600000       3.54400000      26.44400000
