    0.043265802   -0.000934033    0.029667081
    0.013764953    0.011978095   -0.021387300
   -0.051973481   -0.011132588   -0.008982685
   -0.046324914    0.010502734    0.023217224
    0.053113414   -0.009706237   -0.027193140
   -0.005458118    0.000746545    0.002852018
    0.018835967    0.020881764    0.017828541
    0.000959242   -0.013226829   -0.014973235
   -0.020783850   -0.007748664    0.002629035
   -0.028221548   -0.035238652    0.004922851
   -0.004809371   -0.000651145    0.000626591
    0.033319018    0.035280902   -0.009842054
    0.009860548    0.017112026    0.014238664
    0.005533075   -0.005291305   -0.002348531
   -0.016191468   -0.013629961   -0.010282597
   -0.005422669    0.029272963   -0.002849630
    0.011136194   -0.018681729   -0.002676877
   -0.003097797   -0.009944782    0.002149614
   -0.003958611   -0.006076295    0.013399453
    0.004167559   -0.000172711   -0.003067658
    0.002646245    0.006540515   -0.009268490
    0.019393469    0.004052061   -0.016102227
   -0.009011596   -0.000178409    0.005236140
   -0.012904366   -0.003886601    0.009805895
   -0.036597344    0.007689076    0.003665697
    0.028209555   -0.025836382   -0.010926769
    0.006899628    0.018859277    0.007337899
    0.001617412    0.031416488   -0.036475753
   -0.003522817   -0.028766823    0.039927045
    0.001535328   -0.001473314   -0.005433386
    0.006005762   -0.002457913   -0.009559236
   -0.002053563   -0.000543723    0.001730080
   -0.006980280    0.003081808    0.006164545
    0.089098499   -0.028225261    0.030427741
   -0.088519493    0.015688519   -0.024685129
   -0.000009367    0.012188930   -0.002984927
    0.005364378    0.023915134    0.002554850
    0.004925233   -0.017453035   -0.005044242
   -0.011296950   -0.008048283    0.004784054
   -0.012407616   -0.018571300   -0.000007942
   -0.005721900    0.002332761    0.015407604
    0.015615839    0.016336376   -0.014480813
