114
XYZ file of cluster: frame_14500_9be59.99e52.99b30 - created by MolEdiTo
 O      22.97200000      21.22400000      26.48900000
 H      22.96900000      20.24500000      26.57000000
 H      22.03300000      21.53300000      26.48900000
 O      21.29500000      25.42300000      27.29800000
 H      22.19400000      25.68400000      26.93600000
 H      21.19100000      24.50000000      27.03600000
 O      21.58500000      28.58400000      23.08400000
 H      21.21100000      29.40800000      22.72100000
 H      20.86200000      27.92500000      23.17700000
 O      29.73500000      23.92500000      23.03100000
 H      29.53900000      23.65500000      23.93100000
 H      30.04500000      23.10000000      22.64700000
 O      22.00700000      29.01400000      25.68600000
 H      22.07000000      28.93300000      24.63500000
 H      21.12700000      28.52600000      25.79300000
 O      23.94300000      25.80500000      29.85900000
 H      23.87900000      26.58400000      29.22300000
 H      22.95700000      25.69500000      30.06900000
 O      27.92600000      20.39800000      21.71300000
 H      28.56500000      20.88700000      22.27300000
 H      27.68900000      19.61600000      22.32200000
 O      21.29000000      26.21900000      30.07700000
 H      21.25100000      25.79200000      29.20900000
 H      20.30800000      26.44400000      30.29000000
 O      30.00100000      24.37700000      28.76700000
 H      30.79600000      24.61800000      28.29000000
 H      30.41600000      23.65900000      29.30000000
 O      25.89900000      21.81100000      25.81300000
 H      26.29100000      21.95100000      26.77300000
 H      24.92100000      21.96200000      25.99800000
 O      25.17700000      23.24700000      28.42400000
 H      24.52900000      23.56100000      29.07000000
 H      25.03700000      23.76700000      27.58000000
 O      21.98300000      29.27000000      30.04600000
 H      21.60600000      30.12800000      30.38900000
 H      21.67900000      28.63600000      30.72800000
 O      22.41200000      25.59500000      23.54200000
 H      21.51000000      25.72600000      23.17900000
 H      23.04300000      25.28700000      22.83400000
 O      23.13800000      27.12600000      20.71200000
 H      23.33000000      26.35900000      21.30600000
 H      22.15000000      26.97300000      20.49100000
 O      22.68000000      23.06900000      30.57400000
 H      21.85000000      22.98400000      30.01800000
 H      22.99500000      24.02000000      30.48600000
 O      24.35000000      24.98400000      21.84900000
 H      24.84500000      24.29400000      22.35200000
 H      25.08500000      25.40500000      21.37300000
 O      28.17800000      25.76600000      25.75900000
 H      28.94400000      25.78400000      26.39900000
 H      27.34100000      25.85800000      26.33400000
 O      29.84500000      22.67900000      25.61300000
 H      29.82300000      21.92700000      26.28900000
 H      29.86200000      23.44700000      26.21900000
 O      26.64300000      29.09400000      26.13800000
 H      25.97100000      28.76100000      25.48800000
 H      26.51700000      30.04500000      26.17000000
 O      25.72000000      22.78700000      23.12000000
 H      26.00000000      22.70300000      24.11400000
 H      26.07700000      22.00300000      22.73900000
 O      23.17500000      27.87300000      27.70500000
 H      22.89800000      28.48600000      26.97600000
 H      22.41700000      27.96800000      28.29800000
 O      26.62800000      28.22700000      22.66200000
 H      26.56800000      27.25400000      22.73900000
 H      27.14200000      28.41600000      21.85200000
 O      24.49200000      20.42900000      29.77200000
 H      23.67500000      20.93700000      30.07600000
 H      23.99500000      19.81500000      29.22300000
 O      27.32600000      22.26500000      29.75200000
 H      26.49800000      22.19900000      29.16900000
 H      27.97500000      22.81300000      29.26600000
 O      21.17900000      22.69600000      21.06300000
 H      20.12400000      22.57400000      20.96700000
 H      21.48400000      22.15600000      21.85500000
 O      24.09800000      29.42700000      22.66400000
 H      24.94600000      28.87500000      22.66100000
 H      23.28200000      28.85200000      22.58100000
 O      24.21200000      27.09900000      25.05900000
 H      23.51200000      27.41600000      25.73800000
 H      23.63000000      26.51200000      24.43200000
 O      28.30700000      26.03600000      30.30200000
 H      28.83600000      25.49100000      29.77100000
 H      28.25400000      26.87300000      29.75000000
 O      28.96600000      26.74000000      22.81900000
 H      28.77700000      26.23900000      23.61900000
 H      29.37500000      26.10000000      22.28000000
 O      23.90100000      24.47600000      25.68600000
 H      24.51100000      25.25500000      25.44300000
 H      23.27900000      24.64000000      24.98700000
 O      22.43500000      21.93200000      23.71600000
 H      21.55000000      22.05400000      24.17400000
 H      23.01400000      22.08900000      24.46600000
 O      30.37500000      20.65300000      23.34200000
 H      29.91800000      21.08500000      24.16600000
 H      29.98300000      19.74900000      23.36500000
 O      25.25400000      28.91800000      29.41000000
 H      24.48200000      28.55100000      28.83500000
 H      25.03300000      29.87300000      29.33300000
 O      28.68700000      28.35400000      28.22800000
 H      28.04600000      28.49200000      27.44700000
 H      28.37100000      29.17700000      28.78800000
 O      26.03900000      25.78900000      27.44800000
 H      25.70600000      25.84100000      28.35600000
 H      25.37000000      26.24100000      26.93800000
 O      28.85600000      29.02200000      24.46800000
 H      29.12200000      28.21300000      23.97800000
 H      27.92100000      28.84300000      24.73400000
 O      23.75900000      20.71000000      21.76600000
 H      23.53300000      21.49800000      22.41100000
 H      24.15800000      21.03300000      20.93700000
 O      27.35000000      24.68900000      20.68300000
 H      27.77000000      24.36900000      19.81200000
 H      27.37500000      23.90800000      21.37000000
