166
XYZ file of cluster: frame_16500_222ef.6b0eb.1f32b - created by MolEdiTo
 O       6.09800000      25.64000000       8.94500000
 H       5.67600000      26.52200000       8.78800000
 H       5.29100000      25.08600000       8.81900000
 O       6.69700000      26.41200000      12.53700000
 H       7.48300000      26.87200000      13.07100000
 H       6.80000000      25.57200000      13.00000000
 O       8.26600000      23.03200000      12.80800000
 H       8.10300000      22.84200000      11.86100000
 H       8.72200000      22.28600000      13.23900000
 O      15.85100000      21.47400000      13.57600000
 H      16.22400000      21.90300000      14.37800000
 H      15.43900000      22.26500000      12.99000000
 O      12.96000000      16.46500000      10.01200000
 H      13.07900000      16.34100000       8.99400000
 H      13.76800000      16.02800000      10.39800000
 O       7.80300000      16.36600000      12.10600000
 H       7.72100000      15.43500000      11.94000000
 H       8.75300000      16.46000000      12.31400000
 O      14.24000000      24.45600000       9.29000000
 H      14.51900000      25.09300000       8.65600000
 H      14.27800000      23.65300000       8.68600000
 O      14.81700000      17.92100000       4.47300000
 H      14.98400000      17.98300000       5.42300000
 H      15.45500000      18.47800000       3.97800000
 O       4.96500000      22.07200000      10.53300000
 H       5.36300000      22.96100000      10.76400000
 H       4.53200000      21.89600000      11.41600000
 O       5.57800000      20.79800000      14.34000000
 H       6.09500000      19.99600000      14.66100000
 H       6.27200000      21.22000000      13.75100000
 O      10.19200000      21.88000000       5.28800000
 H       9.44900000      21.85500000       4.68300000
 H      10.26700000      20.93700000       5.56200000
 O      14.43200000      19.04600000      15.10000000
 H      14.62200000      19.15800000      14.15100000
 H      13.45400000      19.17700000      15.04800000
 O       6.80400000      24.19600000       6.60500000
 H       6.54900000      24.70400000       7.41400000
 H       7.72700000      24.58100000       6.57300000
 O       6.33100000      16.01000000       7.60900000
 H       5.46500000      16.05800000       7.96600000
 H       6.80300000      16.40800000       8.43200000
 O      15.16800000      23.63500000      12.10900000
 H      15.34000000      23.67100000      11.15500000
 H      15.90900000      24.11200000      12.44000000
 O      12.84500000      20.41900000       8.70000000
 H      12.24300000      21.19700000       8.60700000
 H      12.73600000      19.95200000       9.57000000
 O      13.64400000      26.30300000      11.21100000
 H      13.78400000      25.67300000      10.50600000
 H      13.99200000      27.15900000      10.90600000
 O       4.47900000      24.88900000      11.63100000
 H       4.56800000      24.21800000      12.37700000
 H       5.27300000      25.48800000      11.78600000
 C      14.68600000      14.64700000      16.56300000
 C      14.78100000      15.59100000      15.31600000
 C      17.00800000      16.67300000      16.06200000
 H      16.87800000      15.10600000      14.69900000
 H      13.34000000      14.00900000      15.61400000
 O      16.27400000      16.91700000      13.82100000
 O      15.25900000      14.76800000      17.57600000
 O      13.64300000      13.82700000      16.49900000
 C      16.26800000      16.03800000      14.93600000
 O      14.03700000      15.03000000      14.09800000
 H      14.12800000      16.37900000      15.64000000
 O      17.82800000      16.11700000      16.74600000
 O      16.89200000      17.99600000      16.23900000
 H      16.15600000      18.12700000      15.60100000
 H      13.84000000      15.86800000      13.55300000
 H      17.23500000      17.02800000      13.61600000
 O       9.07200000      24.72600000       9.65200000
 H       8.46800000      25.09600000       9.03300000
 H       9.47900000      24.01200000       9.12000000
 O      11.87600000      16.20400000       7.30600000
 H      12.23600000      16.37200000       6.37700000
 H      11.06400000      15.70900000       7.02700000
 O      13.38800000      17.19200000      12.69300000
 H      14.09200000      17.90100000      12.66100000
 H      13.58300000      16.69700000      11.87300000
 O      12.75500000      23.38300000      13.57400000
 H      11.96700000      23.40400000      13.03500000
 H      13.55700000      23.40200000      12.98700000
 O      12.81100000      21.53100000       5.54500000
 H      13.12700000      21.46300000       6.51200000
 H      11.81200000      21.85300000       5.68400000
 O       9.22800000      16.41700000       5.90900000
 H       9.23900000      16.74800000       5.03100000
 H       8.35500000      16.50000000       6.30800000
 O      10.79400000      22.95200000      11.57000000
 H      11.10500000      22.53700000      10.73800000
 H       9.96300000      23.36400000      11.18200000
 O      12.40100000      24.92600000       6.66900000
 H      12.03200000      25.41500000       5.86600000
 H      13.26400000      24.67600000       6.33200000
 O      14.67500000      18.45900000       7.26900000
 H      14.79500000      19.36100000       6.87600000
 H      13.71300000      18.54400000       7.52200000
 O       7.54900000      18.54400000      15.32000000
 H       6.90800000      17.90600000      14.97800000
 H       7.81500000      18.06100000      16.14700000
 O      11.23100000      22.76400000       7.97100000
 H      11.83400000      23.43900000       7.73800000
 H      10.59800000      23.04400000       7.29900000
 O      11.21500000      15.62700000      14.99300000
 H      11.72300000      16.00600000      15.74800000
 H      10.70900000      16.38500000      14.66500000
 O      10.54100000      19.24900000       6.21700000
 H       9.96800000      18.47800000       6.28000000
 H      11.15800000      19.13000000       6.95000000
 O      16.33300000      23.82200000      15.21200000
 H      15.87900000      23.16600000      15.77500000
 H      15.64400000      24.52600000      15.09000000
 O       7.40400000      20.41100000       7.14100000
 H       7.69900000      19.61700000       6.68700000
 H       8.16100000      20.62500000       7.71600000
 O      12.21600000      19.02200000      10.95500000
 H      12.86400000      18.87500000      11.64900000
 H      12.10300000      18.14800000      10.44300000
 O      14.72800000      19.32900000      12.19200000
 H      15.17200000      19.23000000      11.29600000
 H      15.28900000      20.00300000      12.61400000
 O      14.97000000      23.16400000       6.84300000
 H      15.63900000      22.68100000       7.40900000
 H      15.53200000      23.53000000       6.13400000
 O       5.26500000      21.97400000       6.16300000
 H       5.54800000      22.92900000       6.13700000
 H       5.93000000      21.55000000       6.72700000
 O       9.84500000      24.50900000      14.60600000
 H      10.72800000      24.55500000      14.22200000
 H       9.38200000      23.80900000      14.11300000
 O      14.15500000      25.50200000      15.34400000
 H      13.52800000      25.49400000      16.12100000
 H      13.54500000      25.69300000      14.59600000
 O      10.32200000      17.87900000       8.95100000
 H       9.33300000      18.03400000       8.80500000
 H      10.65600000      17.07000000       8.55500000
 O       8.97100000      20.93900000      14.63800000
 H       9.12100000      21.04600000      15.63500000
 H       8.73600000      19.93400000      14.56100000
 O       5.16000000      18.56700000       5.84300000
 H       5.62300000      19.03200000       5.13600000
 H       5.40100000      17.60200000       5.74600000
 O       7.43700000      17.40900000       9.52600000
 H       6.75600000      18.12300000       9.74300000
 H       7.38600000      16.90100000      10.39000000
 O       8.17600000      21.73300000       9.94800000
 H       8.52000000      20.98300000      10.48700000
 H       7.18600000      21.60100000       9.99100000
 O       5.24800000      16.56800000      14.56900000
 H       4.39800000      16.99600000      14.77600000
 H       4.96600000      15.82300000      14.03000000
 O      10.50300000      17.46800000      12.78400000
 H      10.49700000      17.91900000      11.92100000
 H      11.47200000      17.39200000      12.90400000
 O       7.30200000      19.42600000      12.01300000
 H       7.18700000      18.47100000      12.24700000
 H       7.87600000      19.85500000      12.55900000
 O      11.83300000      20.38200000      14.05800000
 H      12.00200000      21.10700000      13.43500000
 H      10.82100000      20.38900000      14.09400000
 O       9.37900000      25.55600000       6.62500000
 H       9.94800000      25.76500000       5.79400000
 H       9.14400000      26.45500000       6.82800000
 O       5.33300000      19.28400000      10.19600000
 H       5.33400000      20.02500000       9.57200000
 H       5.83400000      19.48900000      10.98600000
