114
XYZ file of cluster: frame_16500_98591.24c11.4a89 - created by MolEdiTo
 O      25.63100000       9.03700000       4.13200000
 H      24.79400000       9.54700000       4.07000000
 H      26.13300000       9.50800000       3.43900000
 O      24.17400000      11.20300000       5.44400000
 H      23.67000000      12.07700000       5.47400000
 H      23.58600000      10.63500000       6.03200000
 O      27.05300000      15.49700000       7.66600000
 H      26.80200000      14.51700000       7.73900000
 H      27.09500000      15.63500000       6.67800000
 O      29.91400000       9.37600000       2.37800000
 H      29.09800000       9.40600000       1.91900000
 H      29.89400000       8.47600000       2.83800000
 O      24.54500000      11.86100000       9.99800000
 H      24.31600000      11.08300000      10.45800000
 H      24.84800000      12.48100000      10.72200000
 O      27.53800000      10.19900000       7.45200000
 H      28.22600000      10.32000000       6.76600000
 H      28.08400000       9.91000000       8.22000000
 O      22.06100000      16.47800000       7.73800000
 H      22.16500000      17.11200000       7.01200000
 H      22.36100000      15.65800000       7.31300000
 O      24.52700000      13.03700000       1.86800000
 H      24.88400000      13.59300000       1.16600000
 H      25.28100000      12.55900000       2.29200000
 O      22.08200000      12.79800000       3.59500000
 H      22.07000000      13.07900000       2.61300000
 H      21.35400000      12.16200000       3.79500000
 O      21.99700000      11.09100000       7.86600000
 H      22.58900000      10.29000000       7.80100000
 H      22.51500000      11.78200000       8.31200000
 O      29.50500000       6.34800000       8.39500000
 H      29.61100000       5.92400000       9.32000000
 H      29.82800000       7.24800000       8.44200000
 O      20.18000000      10.38900000       3.68200000
 H      19.60100000       9.57800000       3.56800000
 H      20.98900000       9.98100000       3.44200000
 O      22.71000000       8.82200000       3.34100000
 H      23.15500000       8.42800000       2.56800000
 H      22.71900000       8.23300000       4.13000000
 O      30.19200000       9.06900000       9.02100000
 H      30.57500000       9.58700000       9.66400000
 H      30.67400000       9.16600000       8.12500000
 O      26.58700000      12.21700000       4.61700000
 H      27.19200000      12.05300000       5.41000000
 H      25.67700000      11.85800000       4.99900000
 O      26.12400000      10.74400000       1.28900000
 H      26.08100000       9.89900000       0.80500000
 H      27.07000000      11.00000000       1.19700000
 O      30.26000000       6.56900000       3.11600000
 H      30.09400000       5.97200000       3.81000000
 H      31.22700000       6.65100000       2.97900000
 O      26.63300000       7.71600000       1.62000000
 H      26.98400000       6.96800000       2.19500000
 H      25.68400000       7.74500000       1.85200000
 O      29.40400000       9.68300000       5.18300000
 H      30.14200000       9.00000000       5.34900000
 H      29.29900000       9.82700000       4.22800000
 O      23.01400000      14.76100000       5.78800000
 H      22.62300000      14.08300000       5.07100000
 H      23.68600000      15.12100000       5.14100000
 O      26.13500000       8.74300000       9.39400000
 H      26.40500000       9.39500000       8.72000000
 H      25.21900000       8.40600000       9.06600000
 O      22.83700000      10.84900000       1.05900000
 H      22.61800000      10.32300000       1.86300000
 H      23.57200000      11.46000000       1.36200000
 O      27.46100000       5.60300000       3.16600000
 H      27.50400000       5.56800000       4.14200000
 H      27.79600000       4.74700000       2.87700000
 O      30.46900000      15.07900000       6.38100000
 H      30.27100000      14.68900000       7.29700000
 H      30.71700000      14.38800000       5.77300000
 O      29.36800000      12.55700000       7.97700000
 H      29.69100000      12.64300000       8.93600000
 H      28.60200000      11.92700000       8.08200000
 O      28.24100000       6.64200000       5.71100000
 H      28.72700000       6.48000000       6.54700000
 H      28.41500000       7.58700000       5.59100000
 O      30.57500000      12.49400000       4.21600000
 H      30.63000000      12.89300000       3.29600000
 H      30.08900000      11.68300000       4.09300000
 O      20.43000000      15.67700000       4.70800000
 H      19.85600000      16.35100000       5.25000000
 H      21.24500000      15.60700000       5.25200000
 O      25.25500000       6.72100000       5.84400000
 H      25.30000000       7.22800000       5.03300000
 H      26.15100000       6.69400000       6.26800000
 O      23.90600000       8.71100000       7.25100000
 H      24.46300000       8.51100000       6.46500000
 H      23.74000000       7.82700000       7.63600000
 O      22.78400000       6.28800000       7.78700000
 H      21.93700000       6.24700000       8.28200000
 H      23.49500000       5.95000000       8.40400000
 O      23.87100000       7.53400000       1.30500000
 H      23.98200000       8.15100000       0.59400000
 H      23.47700000       6.81500000       0.74300000
 O      22.10600000       6.53300000       5.11200000
 H      22.38200000       6.50300000       6.00700000
 H      21.45900000       5.74800000       4.93700000
 O      27.80000000      14.20700000       3.16400000
 H      28.24800000      14.84200000       3.74300000
 H      27.43700000      13.50500000       3.73400000
 O      22.18600000      13.63100000       9.98400000
 H      23.15400000      13.63500000       9.87600000
 H      22.09600000      13.44800000      10.95900000
 O      26.39200000      12.96800000       8.27100000
 H      26.67300000      12.00200000       8.28200000
 H      25.56700000      12.87400000       8.73300000
 O      30.14900000      14.07100000       1.84400000
 H      30.36500000      14.94700000       1.41500000
 H      29.13600000      14.10100000       2.07800000
 O      20.97400000       6.61200000       1.55400000
 H      21.75200000       6.37500000       2.03500000
 H      20.14100000       6.23000000       1.98700000
