126
XYZ file of cluster: frame_16500_c1155.4d7b0.9b86e - created by MolEdiTo
 O      29.29900000      13.96700000      28.67700000
 H      29.18700000      14.56100000      29.41800000
 H      29.43800000      13.15900000      29.14900000
 O      28.54800000      15.06600000      26.36500000
 H      27.70300000      15.45800000      26.47600000
 H      28.75300000      14.40800000      27.14200000
 O      26.60300000      19.65000000      25.13800000
 H      25.95000000      18.88700000      24.99500000
 H      26.18400000      20.37300000      24.60700000
 O      28.22400000      15.76000000      30.51700000
 H      27.52400000      15.38700000      31.11800000
 H      27.79500000      16.59200000      30.13600000
 O      27.61700000      20.81300000      20.37300000
 H      26.64400000      20.76500000      20.66000000
 H      27.94800000      21.29000000      21.16600000
 O      29.04400000      11.63600000      26.83700000
 H      29.64400000      12.11000000      27.43100000
 H      28.78600000      10.82600000      27.27800000
 O      25.64100000      20.00000000      28.16700000
 H      24.84200000      20.26000000      27.67500000
 H      26.24300000      20.69700000      27.99800000
 O      29.74900000      11.03700000      20.92800000
 H      29.74300000      10.51200000      21.80300000
 H      29.62900000      11.95400000      21.21800000
 O      28.99200000      18.85100000      26.84800000
 H      29.33300000      17.95100000      26.56600000
 H      28.13500000      18.58700000      27.25400000
 O      28.95400000      13.74000000      21.46900000
 H      28.51100000      14.50400000      21.07600000
 H      29.43700000      14.18600000      22.13400000
 O      27.11500000      15.74400000      23.40100000
 H      26.60800000      16.47800000      22.94600000
 H      26.89900000      14.88000000      22.91600000
 O      28.50600000      12.03500000      30.73700000
 H      28.04300000      12.82600000      31.06300000
 H      29.48500000      12.25600000      30.92000000
 O      27.09800000      10.00700000      20.12400000
 H      27.36800000      10.88600000      19.83100000
 H      26.92600000      10.11300000      21.04700000
 O      26.12000000      13.19500000      22.02300000
 H      27.02800000      13.08700000      21.71800000
 H      25.71700000      12.90500000      21.16400000
 O      28.31500000      11.71000000      23.85200000
 H      28.08400000      12.62500000      23.54600000
 H      28.23400000      11.75900000      24.82300000
 O      30.14100000      14.18800000      24.09300000
 H      29.76500000      15.07100000      23.84300000
 H      29.56300000      13.88800000      24.82900000
 O      26.79900000      10.22500000      28.09500000
 H      26.15300000      10.41100000      28.78900000
 H      26.92500000      11.15000000      27.75800000
 O      26.27000000      16.23100000      27.23500000
 H      25.62000000      15.44200000      27.27100000
 H      26.32800000      16.49800000      28.19400000
 O      26.42600000      14.08300000      29.39600000
 H      25.96900000      13.51300000      28.66800000
 H      27.37000000      14.07500000      29.16700000
 O      29.65700000      16.96700000      23.13100000
 H      28.77600000      16.83800000      23.38400000
 H      30.07600000      17.68200000      23.64100000
 O      29.57800000      21.14700000      23.91400000
 H      29.77200000      20.70800000      24.75000000
 H      28.74500000      20.60500000      23.67300000
 O      29.67400000      20.37400000      29.81700000
 H      30.10600000      21.23700000      29.61900000
 H      30.41300000      19.72400000      29.80200000
 O      30.01200000      21.72100000      26.94200000
 H      29.16900000      22.18600000      26.87000000
 H      29.74000000      20.82500000      26.93900000
 O      36.52400000      15.81000000      24.19200000
 H      37.22400000      16.09500000      23.59100000
 H      35.74900000      15.63900000      23.57100000
 O      32.07600000      16.90200000      27.53600000
 H      32.05300000      15.93800000      27.30400000
 H      31.48900000      17.02500000      28.36800000
 O      35.99200000      13.16800000      21.87300000
 H      35.61500000      13.93800000      21.41300000
 H      35.40600000      12.47300000      21.59700000
 O      32.90800000      18.47000000      24.92200000
 H      33.14800000      18.54800000      25.93100000
 H      33.47800000      19.10900000      24.40300000
 O      35.78600000      18.75200000      27.40300000
 H      35.94200000      17.77700000      27.35700000
 H      35.76100000      19.13000000      26.54800000
 O      32.38400000      20.96200000      21.21000000
 H      31.76700000      21.37000000      21.82100000
 H      33.07900000      20.70200000      21.88000000
 O      34.93600000      17.83600000      22.05300000
 H      34.53800000      18.61000000      22.51900000
 H      34.48100000      17.10400000      22.42100000
 O      33.11200000      11.64200000      24.18700000
 H      32.46700000      12.38000000      24.06900000
 H      32.86300000      11.04400000      24.85700000
 O      33.97400000      12.30100000      27.39100000
 H      33.99300000      12.44800000      28.39300000
 H      33.59500000      13.14200000      27.08500000
 O      34.28000000      12.36100000      30.24000000
 H      35.11300000      11.91100000      30.56700000
 H      34.47600000      13.30900000      30.53400000
 O      33.34900000      18.52900000      30.52800000
 H      33.36400000      17.58900000      30.18400000
 H      34.21800000      18.45500000      31.02900000
 O      34.57800000      20.46800000      23.10300000
 H      34.38000000      20.70500000      23.99800000
 H      35.32700000      21.08900000      23.07300000
 O      34.03600000      15.33400000      22.87400000
 H      34.59900000      14.57000000      22.75700000
 H      33.17700000      14.83700000      22.98600000
 O      33.49800000      15.09400000      25.91400000
 H      34.02900000      15.95700000      26.01600000
 H      33.27600000      14.90700000      24.92700000
 O      32.85600000      16.88700000      20.38300000
 H      32.16700000      17.58800000      20.17100000
 H      33.21400000      17.07100000      21.31100000
 O      35.75000000      12.22700000      25.31100000
 H      35.04500000      12.38300000      25.95600000
 H      35.18600000      11.62700000      24.77100000
 O      35.72000000      20.15200000      30.02400000
 H      34.79900000      19.94700000      30.34800000
 H      35.65100000      19.60200000      29.21200000
 O      36.28000000      15.97500000      27.17700000
 H      36.67100000      15.03200000      27.24100000
 H      36.50200000      16.19900000      26.22700000
 O      33.65400000      15.89100000      29.79500000
 H      34.30500000      15.79200000      30.48600000
 H      34.24600000      15.83700000      28.94800000
