154
XYZ file of cluster: frame_13500_7076a.67017.48886 - created by MolEdiTo
 O      25.35500000      21.59400000      20.09700000
 H      26.23500000      21.33100000      19.76600000
 H      25.01100000      22.12200000      19.32800000
 O      17.21800000      26.15600000      13.67100000
 H      16.50900000      26.65900000      13.33600000
 H      17.39000000      25.39000000      13.13000000
 O      22.19000000      23.26700000      15.49900000
 H      21.37000000      23.44900000      14.95800000
 H      22.58800000      22.47700000      15.04500000
 O      24.57600000      23.76000000      18.32700000
 H      24.32200000      24.54700000      18.86100000
 H      23.89800000      23.63400000      17.68900000
 O      22.52100000      18.63800000      19.66200000
 H      23.35100000      18.95300000      19.31500000
 H      21.97200000      19.40000000      19.45700000
 O      19.34200000      23.85100000      15.05800000
 H      19.21900000      24.76000000      15.34700000
 H      18.68600000      23.65600000      14.35600000
 O      24.44400000      21.62500000      13.88000000
 H      24.92300000      22.43800000      14.38700000
 H      23.87000000      22.06500000      13.22000000
 O      18.73800000      17.03500000      10.70400000
 H      18.50400000      16.11400000      10.95200000
 H      17.85800000      17.50200000      10.71500000
 O      18.68900000      21.45700000      16.25600000
 H      18.93100000      22.38300000      15.95800000
 H      17.84200000      21.54500000      16.67000000
 O      15.41400000      19.47400000      18.54200000
 H      16.35400000      19.15500000      18.47700000
 H      14.93700000      18.67900000      18.22700000
 O      23.14400000      21.13700000      17.63600000
 H      23.31300000      21.84600000      18.20500000
 H      22.26700000      21.23400000      17.19400000
 O      24.66700000      18.30400000      11.83500000
 H      24.54200000      17.54200000      11.28400000
 H      24.83000000      17.93500000      12.69100000
 O      19.90700000      22.49200000      20.72200000
 H      19.01000000      22.70300000      20.57400000
 H      20.18700000      22.52000000      19.79900000
 C      14.76000000      16.13600000      17.01000000
 C      15.49000000      14.93700000      16.32300000
 C      16.07200000      15.96000000      13.97800000
 H      17.02300000      16.39500000      15.84300000
 H      15.31900000      15.29400000      18.45800000
 O      17.48800000      14.43300000      15.22800000
 O      14.59800000      17.24400000      16.47500000
 O      14.81500000      16.08700000      18.32700000
 C      16.55200000      15.51800000      15.38500000
 O      16.10700000      14.01300000      17.30200000
 H      14.79200000      14.40100000      15.80400000
 O      14.99700000      15.66100000      13.40500000
 O      16.80500000      16.94500000      13.42000000
 H      17.30400000      17.33100000      14.18600000
 H      16.38200000      13.21300000      16.81000000
 H      18.38600000      14.73000000      15.09800000
 O      20.39500000      15.85500000      20.80500000
 H      20.76700000      16.74600000      20.91700000
 H      20.83000000      15.55400000      20.00400000
 O      21.42700000      23.38800000       9.58700000
 H      21.39800000      23.47200000      10.59200000
 H      21.10700000      22.42500000       9.45100000
 O      16.84600000      22.79000000      13.93800000
 H      16.49400000      22.22500000      14.63600000
 H      16.11500000      23.19200000      13.47000000
 O      19.43700000      19.63800000      12.96800000
 H      18.59600000      19.11900000      13.24200000
 H      20.17300000      19.06400000      13.28200000
 O      23.60400000      25.77800000      15.54800000
 H      23.21400000      24.89400000      15.32400000
 H      24.37200000      25.98800000      15.01000000
 O      25.26900000      17.86000000      14.60400000
 H      24.83400000      18.44000000      15.25500000
 H      26.19400000      18.30900000      14.50100000
 O      20.86900000      22.24300000      11.79200000
 H      20.94600000      23.08900000      12.34800000
 H      20.52200000      21.47400000      12.35100000
 O      26.11800000      15.29000000      13.78400000
 H      25.85800000      16.07400000      14.35300000
 H      26.50000000      15.76000000      12.99800000
 O      21.99100000      18.06300000      13.42800000
 H      22.61400000      18.64800000      12.96200000
 H      22.35000000      18.22400000      14.40800000
 O      24.43100000      23.25900000      10.85200000
 H      24.87300000      23.82100000      10.17500000
 H      24.48000000      22.37600000      10.48900000
 O      25.18800000      25.85100000      20.15100000
 H      25.57600000      25.38300000      20.94000000
 H      24.54300000      26.51700000      20.58300000
 O      25.90600000      23.67200000      14.97900000
 H      26.36300000      24.04000000      14.18100000
 H      26.50000000      23.92100000      15.73600000
 O      17.77300000      18.01600000      18.86400000
 H      17.57100000      17.81700000      19.83200000
 H      18.39800000      17.33900000      18.56100000
 O      22.73800000      15.87000000      10.64900000
 H      22.90600000      15.20900000      11.40400000
 H      22.07200000      16.51500000      10.96900000
 O      18.82800000      25.98300000      16.72800000
 H      18.22800000      26.49500000      17.39300000
 H      19.59000000      25.65200000      17.24000000
 O      24.34300000      16.25600000      19.80000000
 H      23.70700000      16.80500000      20.27200000
 H      25.20600000      16.37800000      20.30800000
 O      17.95600000      18.69800000      15.21300000
 H      18.01700000      19.64200000      15.51100000
 H      18.47600000      18.17700000      15.83600000
 O      25.77100000      18.49100000      18.88100000
 H      26.25800000      17.86900000      18.31600000
 H      25.56600000      19.22200000      18.31500000
 O      17.89100000      24.06500000      19.32200000
 H      18.58300000      24.75100000      19.50400000
 H      17.45800000      23.98900000      20.21500000
 O      26.37000000      21.31600000      17.08500000
 H      27.00700000      21.27600000      16.35300000
 H      25.97700000      22.20900000      16.94300000
 O      23.79200000      20.45000000       9.82300000
 H      24.13700000      19.90900000      10.53800000
 H      23.08600000      19.93100000       9.37600000
 O      20.17700000      20.29900000      18.44000000
 H      19.34100000      19.99800000      18.87900000
 H      19.81500000      20.88000000      17.75000000
 O      26.36200000      20.76600000      11.44800000
 H      25.46700000      20.91500000      11.71300000
 H      26.53200000      19.92300000      11.95900000
 O      21.71300000      25.17500000      12.53700000
 H      21.68900000      26.10500000      12.90200000
 H      22.38700000      25.22000000      11.79900000
 O      17.34800000      22.30200000      11.00200000
 H      17.43900000      21.92400000      11.94700000
 H      16.43900000      21.98500000      10.75100000
 O      20.13800000      15.65400000      13.34900000
 H      20.92900000      15.29200000      13.76300000
 H      20.38700000      16.61300000      13.09500000
 O      22.24800000      25.03300000      19.42200000
 H      22.18200000      25.20400000      20.40800000
 H      22.44500000      24.12500000      19.33900000
 O      20.56700000      19.36400000      10.27000000
 H      20.04600000      19.73800000      11.02700000
 H      20.20200000      18.48600000      10.15500000
 O      20.03100000      16.91200000      16.22400000
 H      20.62700000      16.45100000      15.70200000
 H      19.98500000      16.36800000      17.06700000
 O      17.50800000      21.38000000      19.39900000
 H      16.72800000      20.73100000      19.35600000
 H      17.06900000      22.16700000      19.00100000
 O      21.68100000      15.53100000      18.24100000
 H      21.95100000      16.41000000      18.70700000
 H      22.39400000      14.87800000      18.45700000
 O      18.92800000      24.87600000      11.46200000
 H      18.58200000      23.94400000      11.66400000
 H      19.87200000      24.99500000      11.84300000
 O      23.30200000      18.82400000      16.60300000
 H      23.04500000      19.76100000      16.71400000
 H      23.37400000      18.48700000      17.50800000
