142
XYZ file of cluster: frame_13500_49c61.4a951.4e2e2 - created by MolEdiTo
 O      11.81100000      17.00400000      13.75800000
 H      10.93900000      17.51100000      13.62200000
 H      12.27400000      16.97500000      12.92900000
 O      11.64800000      20.33800000      10.56800000
 H      10.99200000      20.33200000      11.35100000
 H      11.54600000      19.44800000      10.10600000
 O      13.29700000      17.52800000      11.47100000
 H      13.65500000      16.93000000      10.73900000
 H      13.84700000      17.31500000      12.20700000
 O      13.62100000      21.50100000      21.12300000
 H      14.15000000      21.03500000      20.48800000
 H      13.22100000      20.78000000      21.56700000
 O      12.04200000      10.20800000      14.54600000
 H      11.49900000      11.01700000      14.59300000
 H      11.61400000       9.56700000      13.90800000
 O      19.88500000      12.80400000      17.04300000
 H      20.54400000      12.56800000      16.29900000
 H      19.13600000      12.23900000      16.64200000
 O      12.45400000      14.33600000      14.65100000
 H      12.16600000      15.14300000      14.07300000
 H      13.01900000      13.98900000      14.03200000
 O      12.07700000      16.49000000      19.58000000
 H      12.88300000      16.66600000      20.02000000
 H      12.31400000      15.72300000      19.02400000
 O      18.73800000      17.03500000      10.70400000
 H      18.50400000      16.11400000      10.95200000
 H      17.85800000      17.50200000      10.71500000
 O      18.68400000      15.08700000      18.59100000
 H      18.19900000      14.68900000      19.35400000
 H      19.01100000      14.20200000      18.22900000
 O      18.56400000      14.37700000      11.72000000
 H      19.34100000      14.22200000      12.31600000
 H      17.82700000      14.59900000      12.28600000
 O      15.41400000      19.47400000      18.54200000
 H      16.35400000      19.15500000      18.47700000
 H      14.93700000      18.67900000      18.22700000
 C      14.76000000      16.13600000      17.01000000
 C      15.49000000      14.93700000      16.32300000
 C      16.07200000      15.96000000      13.97800000
 H      17.02300000      16.39500000      15.84300000
 H      15.31900000      15.29400000      18.45800000
 O      17.48800000      14.43300000      15.22800000
 O      14.59800000      17.24400000      16.47500000
 O      14.81500000      16.08700000      18.32700000
 C      16.55200000      15.51800000      15.38500000
 O      16.10700000      14.01300000      17.30200000
 H      14.79200000      14.40100000      15.80400000
 O      14.99700000      15.66100000      13.40500000
 O      16.80500000      16.94500000      13.42000000
 H      17.30400000      17.33100000      14.18600000
 H      16.38200000      13.21300000      16.81000000
 H      18.38600000      14.73000000      15.09800000
 O      10.39500000      18.68800000      20.87700000
 H       9.57600000      18.22500000      20.58300000
 H      10.98900000      17.91000000      20.97800000
 O      20.39500000      15.85500000      20.80500000
 H      20.76700000      16.74600000      20.91700000
 H      20.83000000      15.55400000      20.00400000
 O      14.17400000      12.22700000      18.85200000
 H      14.51500000      11.37600000      19.21300000
 H      13.87400000      12.73500000      19.64500000
 O      20.98900000      11.60500000      19.55700000
 H      20.56800000      12.05100000      18.75100000
 H      21.84100000      11.27600000      19.26300000
 O      15.43500000      14.52800000      20.75100000
 H      15.16800000      15.52800000      20.68700000
 H      15.91200000      14.43700000      21.60300000
 O      19.43700000      19.63800000      12.96800000
 H      18.59600000      19.11900000      13.24200000
 H      20.17300000      19.06400000      13.28200000
 O      10.60200000      15.86000000      10.89800000
 H      11.36600000      15.32200000      11.12200000
 H       9.87200000      15.38600000      11.39500000
 O      12.87400000      19.14900000      15.68600000
 H      12.00800000      18.74600000      15.88200000
 H      13.50700000      18.66300000      16.25000000
 O      14.34500000      11.73100000      15.75200000
 H      14.68300000      11.32700000      16.61500000
 H      13.60100000      11.15900000      15.45000000
 O      18.26400000      11.49500000      14.83900000
 H      17.45700000      11.89100000      14.40000000
 H      17.76800000      10.77700000      15.22200000
 O      17.96900000      10.17000000      11.84200000
 H      18.68000000       9.92700000      12.36500000
 H      17.60900000      10.86600000      12.37700000
 O      10.12700000      12.19700000      16.86300000
 H       9.95400000      11.66500000      17.64800000
 H      10.63200000      12.97300000      17.19000000
 O      17.77300000      18.01600000      18.86400000
 H      17.57100000      17.81700000      19.83200000
 H      18.39800000      17.33900000      18.56100000
 O      13.06500000      21.37100000      17.80500000
 H      12.54900000      21.83600000      17.15700000
 H      12.99200000      20.41100000      17.65500000
 O      14.78200000      19.66100000      13.81500000
 H      14.14100000      19.58700000      14.46000000
 H      15.35600000      18.96300000      14.18900000
 O      16.56200000      12.66100000      12.68400000
 H      16.26000000      13.50700000      12.99100000
 H      15.72700000      12.16000000      12.68500000
 O      17.95600000      18.69800000      15.21300000
 H      18.01700000      19.64200000      15.51100000
 H      18.47600000      18.17700000      15.83600000
 O      20.17700000      20.29900000      18.44000000
 H      19.34100000      19.99800000      18.87900000
 H      19.81500000      20.88000000      17.75000000
 O      18.28100000      12.58800000      20.51400000
 H      19.28800000      12.53900000      20.48400000
 H      18.01700000      12.07700000      21.32000000
 O      10.41100000      20.77700000      16.56900000
 H      10.56400000      19.76800000      16.73100000
 H      11.31800000      21.08300000      16.23700000
 O      14.17300000      11.09800000      12.53400000
 H      13.48400000      10.66400000      12.98100000
 H      14.74500000      10.38600000      12.11700000
 O      20.13800000      15.65400000      13.34900000
 H      20.92900000      15.29200000      13.76300000
 H      20.38700000      16.61300000      13.09500000
 O      20.56700000      19.36400000      10.27000000
 H      20.04600000      19.73800000      11.02700000
 H      20.20200000      18.48600000      10.15500000
 O      20.03100000      16.91200000      16.22400000
 H      20.62700000      16.45100000      15.70200000
 H      19.98500000      16.36800000      17.06700000
 O      12.10100000      14.09300000      17.42800000
 H      12.24600000      14.32100000      16.48800000
 H      12.78600000      13.38900000      17.65900000
 O      17.50800000      21.38000000      19.39900000
 H      16.72800000      20.73100000      19.35600000
 H      17.06900000      22.16700000      19.00100000
 O      14.76900000      20.54800000      11.14600000
 H      13.85600000      20.28500000      10.93000000
 H      14.90200000      20.26400000      12.12900000
 O      10.81500000      18.32900000      17.64500000
 H      10.86000000      18.38400000      18.64400000
 H      10.70100000      17.42900000      17.49200000
 O      17.19500000      11.31400000      17.70800000
 H      16.55600000      11.42200000      18.46700000
 H      17.94600000      10.72100000      17.97800000
 O      12.72500000      13.35800000      12.00400000
 H      11.80500000      13.02300000      12.23000000
 H      13.27400000      12.50700000      12.18900000
