108
XYZ file of cluster: frame_13500_9edb6.5fcb.9a17f - created by MolEdiTo
 O      28.07800000       5.55500000      29.73500000
 H      27.31700000       5.60700000      29.19300000
 H      28.29700000       4.55000000      29.60500000
 O      21.21000000       9.51700000      26.45700000
 H      20.72100000       9.84000000      25.65600000
 H      20.76100000       9.81400000      27.30800000
 O      25.03100000       4.41700000      21.96400000
 H      24.30400000       4.14700000      21.32400000
 H      25.83300000       4.58200000      21.42400000
 O      30.15300000       9.78000000      24.44800000
 H      30.38500000      10.76600000      24.57800000
 H      29.17000000       9.83200000      24.31700000
 O      30.64300000       7.06000000      25.33000000
 H      30.86200000       6.79300000      24.39700000
 H      30.88300000       7.99900000      25.32400000
 O      26.33600000       4.88500000      26.62700000
 H      27.24500000       4.97500000      26.95900000
 H      26.09700000       3.99100000      26.98000000
 O      24.86600000       8.88100000      25.08200000
 H      24.12900000       9.55800000      25.20800000
 H      24.91400000       8.61400000      24.15900000
 O      23.66300000      10.19400000      27.65400000
 H      24.39900000      10.50100000      28.23200000
 H      23.07400000      11.01400000      27.66500000
 O      21.11300000       1.34800000      25.50900000
 H      20.72900000       1.65500000      26.31000000
 H      21.67300000       2.07500000      25.18500000
 O      29.82000000       8.08500000      28.40700000
 H      30.05100000       7.18500000      28.10300000
 H      29.68900000       8.45500000      27.60300000
 O      28.65700000       7.45700000      22.00500000
 H      28.51700000       6.83500000      22.75700000
 H      29.22300000       8.12400000      22.41400000
 O      25.14600000       1.36400000      23.40000000
 H      25.22800000       2.25900000      23.10600000
 H      24.72800000       0.76800000      22.73400000
 O      30.19900000       2.03600000      28.74200000
 H      29.71400000       2.16100000      29.55200000
 H      29.89400000       2.67900000      28.03300000
 O      26.71900000       9.97600000      23.22600000
 H      27.13500000      10.82200000      23.26100000
 H      26.43200000       9.77500000      24.07600000
 O      22.14200000       7.59800000      28.48500000
 H      22.03500000       8.43000000      28.03900000
 H      22.95700000       7.40000000      28.07200000
 O      21.35900000       7.62000000      24.18900000
 H      20.62000000       7.35300000      24.78500000
 H      22.25200000       7.43700000      24.57300000
 O      23.22500000       5.66200000      25.29100000
 H      23.82900000       5.72000000      26.07500000
 H      22.40200000       5.22900000      25.56400000
 O      22.55100000      10.61100000      23.65100000
 H      21.56000000      10.39200000      23.63800000
 H      22.98200000      10.42500000      22.77400000
 O      24.92700000       6.12200000      29.80800000
 H      24.62900000       6.73100000      29.06700000
 H      24.96700000       6.75600000      30.58700000
 O      30.03400000       2.45900000      25.55900000
 H      30.59200000       2.11500000      24.85300000
 H      29.18700000       1.92000000      25.36300000
 O      27.17400000       2.80100000      28.38000000
 H      26.27900000       2.51400000      28.70800000
 H      27.70200000       1.99700000      28.06000000
 O      22.67700000       3.35100000      20.82000000
 H      22.42800000       3.48200000      19.91900000
 H      21.84200000       3.08300000      21.35100000
 O      22.60900000       3.38100000      23.76800000
 H      22.92400000       3.56000000      22.81100000
 H      22.89300000       4.20600000      24.15800000
 O      27.69000000       8.75900000      26.38400000
 H      27.11100000       9.50200000      26.49100000
 H      27.18900000       8.06800000      25.93000000
 O      26.75100000       8.85900000      20.43600000
 H      26.34400000       9.70800000      20.69500000
 H      27.40300000       8.55600000      21.13800000
 O      24.80400000       7.11400000      27.20300000
 H      25.46900000       6.40100000      26.87900000
 H      24.89600000       7.80100000      26.52600000
 O      24.13500000      10.25600000      21.31800000
 H      24.61700000      10.84200000      20.68700000
 H      24.78800000       9.98100000      22.08100000
 O      29.31200000       5.04900000      26.72100000
 H      30.00000000       4.48700000      26.23200000
 H      29.61600000       5.93600000      26.52700000
 O      27.26400000       9.06100000      29.62300000
 H      26.55200000       8.84800000      29.04900000
 H      28.08900000       8.70200000      29.16000000
 O      24.13300000       7.20800000      22.73800000
 H      24.49300000       6.52500000      23.33700000
 H      23.14100000       7.05600000      22.89000000
 O      24.19900000       1.89800000      27.49300000
 H      24.30900000       1.24500000      28.21300000
 H      24.49100000       1.39500000      26.70700000
 O      22.39400000       4.02400000      28.19700000
 H      22.08600000       4.15800000      29.10400000
 H      22.74600000       3.10200000      28.04800000
 O      28.76500000       2.60300000      22.13900000
 H      27.89000000       2.66400000      21.86300000
 H      28.85300000       1.64000000      21.89900000
 O      27.04200000       5.60400000      23.94500000
 H      26.80400000       5.35700000      24.88000000
 H      26.23600000       5.46800000      23.43400000
 O      24.77500000       3.41600000      30.32300000
 H      23.87200000       3.10200000      30.38700000
 H      24.77000000       4.40500000      30.31100000
 O      30.15400000       4.55900000      23.47100000
 H      29.92600000       3.68100000      23.05100000
 H      29.31200000       5.07000000      23.73600000
