108
XYZ file of cluster: frame_13500_1bfb.9a236.1f902 - created by MolEdiTo
 O       9.15500000      25.68200000      10.17800000
 H       9.91900000      25.59400000       9.54500000
 H       9.40400000      26.27900000      10.92000000
 O       1.78700000      22.64200000       9.99400000
 H       1.79900000      22.73800000       8.98600000
 H       2.67800000      22.56000000      10.32300000
 O       8.19900000      22.50100000       7.59500000
 H       8.23600000      21.84900000       8.32000000
 H       9.09700000      22.79800000       7.45900000
 O       9.60100000      30.00000000       9.66700000
 H       9.18600000      29.21300000       9.94100000
 H      10.02900000      30.24800000      10.48000000
 O       5.56200000      21.92300000       8.01100000
 H       6.50900000      21.91000000       7.58700000
 H       5.24800000      20.99500000       8.06500000
 O      10.39700000      25.82800000      15.73400000
 H       9.63900000      25.56400000      15.20200000
 H      10.03400000      26.63600000      16.18700000
 O       4.66300000      27.45100000       8.46200000
 H       4.46800000      28.22500000       9.01800000
 H       5.56900000      27.54700000       7.99300000
 O       9.94300000      26.64800000       5.89300000
 H      10.89800000      26.91500000       5.97200000
 H       9.86300000      25.80200000       6.39300000
 O       2.05200000      23.24900000      14.14100000
 H       1.58900000      22.52500000      13.73700000
 H       1.97000000      24.04600000      13.59900000
 O       3.11000000      26.62800000      14.44700000
 H       3.18800000      26.33500000      13.52300000
 H       3.88000000      26.25900000      14.83800000
 O       3.93800000      29.23600000      10.36100000
 H       4.03800000      29.24100000      11.29200000
 H       3.63600000      30.20100000      10.16500000
 O       7.76600000      28.25300000      11.05400000
 H       7.97000000      27.27200000      10.92600000
 H       6.96200000      28.11500000      11.53500000
 O      10.55300000      24.07100000       4.86700000
 H      11.05500000      24.47400000       5.55500000
 H      10.49100000      24.67900000       4.08000000
 O      10.18400000      27.69500000      12.01700000
 H       9.26000000      27.90300000      12.43300000
 H      10.68000000      28.51800000      12.19400000
 O       1.94100000      27.00800000       5.67900000
 H       2.68300000      27.09100000       6.27300000
 H       2.29100000      26.98300000       4.75700000
 O       2.93100000      29.43300000      15.03800000
 H       2.68500000      29.49000000      15.99600000
 H       2.83600000      28.43700000      14.82000000
 O       4.44600000      23.20800000      10.15800000
 H       5.20200000      22.98900000      10.73500000
 H       4.83100000      22.88800000       9.31000000
 O       7.44900000      22.97600000      15.06800000
 H       7.24900000      23.13900000      15.96700000
 H       6.57400000      22.89700000      14.58700000
 O       0.91300000      21.18200000      12.35100000
 H       0.22700000      20.60400000      11.79700000
 H       1.05600000      21.82500000      11.60700000
 O      10.26000000      20.72900000      13.40600000
 H       9.37000000      20.96100000      13.81800000
 H      10.21100000      19.77200000      13.54700000
 O       7.86100000      28.03400000       7.40900000
 H       7.98700000      27.11400000       7.61900000
 H       8.65700000      28.36800000       6.98200000
 O       6.88200000      23.32700000      11.50500000
 H       7.28100000      23.89700000      10.80000000
 H       7.64200000      22.70500000      11.83600000
 O       4.04800000      23.51200000       6.45600000
 H       4.62600000      22.95400000       7.02900000
 H       4.37400000      24.41600000       6.47800000
 O       5.58000000      25.96400000      10.93900000
 H       5.17100000      26.63800000      10.34600000
 H       4.97200000      25.17900000      10.70700000
 O       9.74400000      23.79300000      13.53700000
 H       9.47100000      24.62500000      13.19600000
 H       8.89700000      23.40800000      13.96300000
 O       2.18400000      25.79100000       8.80800000
 H       3.15000000      25.69100000       8.76800000
 H       1.95100000      26.73600000       8.78200000
 O       2.44000000      25.00400000      11.82700000
 H       2.10200000      25.38600000      10.98300000
 H       2.65500000      24.10000000      11.59700000
 O       5.09500000      24.10300000      13.40500000
 H       5.52100000      23.55700000      12.65200000
 H       4.75900000      24.93500000      12.98000000
 O       0.97700000      28.30400000      10.78200000
 H       0.94500000      29.09300000      11.30300000
 H       2.01500000      28.27100000      10.51500000
 O       7.50100000      25.16200000       7.99100000
 H       8.02600000      25.24100000       8.82400000
 H       7.43800000      24.13900000       7.83200000
 O       6.32500000      29.46600000      13.82700000
 H       7.08300000      30.02900000      13.92600000
 H       6.40100000      28.57900000      14.25600000
 O       9.28900000      28.62500000      14.46400000
 H      10.12600000      28.69400000      14.92300000
 H       9.19800000      29.49700000      14.05100000
 O       8.02000000      26.14100000      13.95100000
 H       7.13000000      25.98300000      14.37600000
 H       8.25200000      27.08800000      14.14800000
 O       6.59500000      30.19600000       9.07600000
 H       6.90500000      29.36700000       8.76100000
 H       7.19000000      30.33500000       9.86000000
 O       3.83000000      20.84200000      12.92800000
 H       4.79500000      21.09900000      13.05600000
 H       3.40800000      21.36700000      13.65000000
 O       1.55900000      22.82100000       7.18000000
 H       0.96400000      23.55200000       6.91500000
 H       2.51100000      22.96000000       6.78600000
