117
XYZ file of cluster: frame_13500_72b29.9c5a3.3fbf - created by MolEdiTo
 O      21.42800000      29.28000000       3.14300000
 H      21.22900000      28.94000000       4.05200000
 H      20.79400000      29.92900000       2.96300000
 O      20.59700000      21.79700000       3.71900000
 H      21.31400000      22.24800000       4.17800000
 H      20.78300000      22.26400000       2.91100000
 O      20.27400000      26.19200000       2.85200000
 H      20.70200000      27.00400000       3.26200000
 H      19.35000000      26.41300000       2.67900000
 O      24.31300000      26.93300000       6.76500000
 H      25.18400000      27.48800000       6.69000000
 H      24.45400000      26.10400000       6.28600000
 O      23.23600000      25.53400000      10.06600000
 H      22.67400000      24.89400000       9.52400000
 H      24.10300000      25.22400000       9.95500000
 O      24.30500000      24.25600000       6.00200000
 H      24.19100000      23.23600000       6.20900000
 H      24.89600000      24.22400000       5.25500000
 O      26.22900000      25.55300000       4.01800000
 H      27.16300000      25.18200000       4.15300000
 H      25.72500000      24.81400000       3.50200000
 O      19.22100000      29.46800000       7.29000000
 H      19.97100000      30.16900000       7.32500000
 H      18.85300000      29.21300000       8.14000000
 O      18.41600000      20.90900000       8.54700000
 H      17.87100000      21.32000000       9.23200000
 H      19.17400000      20.51900000       9.04900000
 O      17.53500000      24.93400000       8.61900000
 H      18.16400000      24.24700000       8.91400000
 H      18.17500000      25.67900000       8.80400000
 O      17.88100000      22.39300000       6.11400000
 H      17.98000000      22.12600000       7.00600000
 H      18.69600000      22.86100000       5.89600000
 O      25.99700000      28.06500000       2.75100000
 H      26.91000000      28.33500000       2.55000000
 H      26.18500000      27.14800000       3.20500000
 O      23.64800000      28.58400000       1.32100000
 H      24.51700000      28.19700000       1.63700000
 H      22.97400000      28.38800000       2.05800000
 O      16.78600000      29.51100000       9.19400000
 H      16.50800000      28.88900000       9.87200000
 H      17.38200000      30.17300000       9.63400000
 O      26.72700000      28.47800000       5.74200000
 H      27.57800000      28.78700000       5.23500000
 H      25.97700000      29.11700000       5.66200000
 O      17.63100000      24.86100000       2.28200000
 H      17.17000000      25.68700000       2.18300000
 H      17.45700000      24.52100000       3.21300000
 O      21.42700000      23.38800000       9.58700000
 H      21.39800000      23.47200000      10.59200000
 H      21.10700000      22.42500000       9.45100000
 O      25.16600000      22.85800000       3.45500000
 H      25.69100000      22.12800000       3.94100000
 H      25.10700000      22.53300000       2.50100000
 O      26.77800000      23.93300000       1.19700000
 H      26.09200000      23.93300000       0.51500000
 H      27.16500000      23.02200000       1.13200000
 O      24.11600000      29.48400000       4.75300000
 H      23.69500000      29.92500000       3.99600000
 H      24.75600000      28.94900000       4.30700000
 O      21.24700000      23.11100000       6.09700000
 H      21.98700000      22.73200000       6.63900000
 H      21.13600000      24.04000000       6.34300000
 O      18.89400000      27.21200000       9.67000000
 H      19.84300000      27.20000000       9.87900000
 H      18.52600000      26.83800000      10.48500000
 O      16.09100000      27.34800000       6.95900000
 H      16.75000000      27.85100000       6.49100000
 H      16.49400000      27.23500000       7.78000000
 O      16.36000000      20.69300000       2.11800000
 H      15.66800000      20.05600000       2.41900000
 H      15.92500000      21.46700000       1.72600000
 O      24.83100000      30.66500000       8.56000000
 H      25.12800000      29.89900000       9.12600000
 H      23.94100000      30.40300000       8.19800000
 O      22.25100000      24.28800000       2.83100000
 H      21.43500000      24.80000000       3.14800000
 H      22.95000000      24.41400000       3.47900000
 O      19.61100000      22.76800000       1.11600000
 H      19.25500000      22.06400000       1.73400000
 H      19.11400000      23.53100000       1.34100000
 O      22.93900000      28.85600000       7.88500000
 H      23.44600000      28.12900000       7.39000000
 H      22.53800000      28.38300000       8.66800000
 O      24.43100000      23.25900000      10.85200000
 H      24.87300000      23.82100000      10.17500000
 H      24.48000000      22.37600000      10.48900000
 O      18.60200000      29.23700000       0.82500000
 H      18.67300000      30.19900000       0.96500000
 H      18.63000000      28.91200000       1.77500000
 O      21.71100000      26.08500000       6.96700000
 H      22.46600000      26.64400000       6.59400000
 H      22.08600000      25.81500000       7.84800000
 O      25.34200000      28.13400000       9.85500000
 H      25.40600000      27.33500000       9.31300000
 H      25.60600000      27.86300000      10.77300000
 O      19.99400000      27.89700000       5.24800000
 H      19.61800000      28.26100000       6.12200000
 H      20.75900000      27.36100000       5.55300000
 O      16.61100000      29.76200000       5.78900000
 H      17.12800000      30.18600000       6.52900000
 H      16.43500000      30.33200000       5.00200000
 O      16.46500000      25.16000000       5.24000000
 H      17.29300000      24.74800000       5.58800000
 H      16.29900000      25.85100000       5.80700000
 O      25.52100000      24.86000000       8.71000000
 H      25.27700000      24.73700000       7.78300000
 H      26.28000000      24.23600000       8.85500000
 O      17.97800000      28.08600000       3.09500000
 H      18.47200000      27.84100000       3.95300000
 H      17.21500000      28.62400000       3.50100000
 O      23.63200000      21.85600000       7.17500000
 H      23.94400000      21.45100000       7.98900000
 H      23.38300000      21.03300000       6.79200000
 O      15.07500000      22.36600000       6.34600000
 H      16.07300000      22.05200000       6.33400000
 H      14.88800000      22.39000000       5.38900000
