126
XYZ file of cluster: frame_5000_9ee9a.47411.25e31 - created by MolEdiTo
 O      22.88200000      10.49200000       7.19100000
 H      23.02700000       9.50300000       7.25700000
 H      22.15300000      10.70500000       6.54100000
 O      21.92300000      20.84400000       8.39800000
 H      21.38100000      21.15900000       7.60500000
 H      21.94700000      19.91600000       8.26700000
 O      21.41200000      18.11800000      16.08900000
 H      21.24400000      18.83900000      15.40300000
 H      21.39900000      17.24400000      15.64600000
 O      24.20900000      17.88200000      10.10400000
 H      23.55100000      18.18500000       9.36700000
 H      24.12400000      18.73200000      10.61700000
 O      21.36000000      17.31100000      11.13100000
 H      20.66300000      17.99100000      10.83600000
 H      21.82900000      16.92800000      10.34100000
 O      24.11500000      20.37200000      10.94000000
 H      25.05600000      20.64200000      10.70900000
 H      23.88900000      21.22100000      11.47900000
 O      30.33800000      20.15100000      11.89400000
 H      29.42200000      20.40000000      11.93600000
 H      30.55500000      20.87800000      11.25400000
 O      25.92400000      15.77400000       7.21100000
 H      25.36200000      15.08000000       6.88200000
 H      25.56100000      16.53600000       6.69300000
 O      26.42300000      20.43800000       9.17800000
 H      26.23600000      19.60300000       8.80800000
 H      27.40900000      20.42200000       9.30200000
 O      30.52600000      21.94200000      14.48600000
 H      31.38600000      22.34100000      14.48700000
 H      30.54000000      21.08900000      13.93300000
 O      27.00500000       9.72700000      12.51500000
 H      27.03300000      10.59700000      12.11100000
 H      27.64700000       9.25800000      11.89700000
 O      23.67000000      18.63200000       6.13900000
 H      23.52700000      19.54500000       5.69000000
 H      23.73700000      18.04700000       5.34300000
 O      26.94300000      19.28000000       6.36500000
 H      26.93200000      18.30200000       6.04800000
 H      27.89600000      19.58700000       6.41800000
 O      23.87800000      12.45200000      11.96300000
 H      24.23200000      11.68000000      11.39300000
 H      24.54300000      13.16700000      11.76200000
 O      30.02100000      16.94200000      14.18900000
 H      29.47500000      17.19800000      14.97200000
 H      29.99300000      17.78500000      13.72300000
 O      29.22200000      18.75900000       9.07300000
 H      29.81100000      19.47900000       9.32500000
 H      28.88200000      18.37100000       9.88400000
 O      26.97400000      13.16000000      11.44100000
 H      27.12300000      13.64900000      12.33900000
 H      26.59900000      13.83600000      10.85100000
 O      23.43700000      15.44700000      11.93000000
 H      23.28600000      16.35400000      11.57300000
 H      22.66000000      14.96400000      11.60200000
 O      30.49600000      12.78600000       4.89500000
 H      29.84300000      12.90800000       5.62900000
 H      30.80500000      11.89000000       4.97900000
 O      27.28200000      10.33700000       5.81300000
 H      28.19000000      10.03300000       5.48200000
 H      27.34700000      10.86900000       6.62700000
 O      30.53400000      10.41600000      13.62300000
 H      30.44600000      10.79800000      14.55000000
 H      29.64100000      10.45300000      13.24200000
 O      21.51000000      11.50600000      13.98700000
 H      21.98500000      11.55700000      13.11200000
 H      21.59500000      10.50800000      14.10800000
 O      23.83000000      13.54500000      15.19300000
 H      23.36000000      13.71500000      16.01200000
 H      23.23900000      13.80100000      14.43700000
 O      24.42600000      10.82600000      15.34200000
 H      24.43200000      10.22400000      14.53300000
 H      24.21000000      11.74900000      15.01100000
 O      28.17000000      17.37500000      11.37600000
 H      28.67200000      16.65000000      11.80800000
 H      27.58200000      16.86200000      10.78000000
 O      24.81600000      17.54000000      13.92500000
 H      24.31500000      17.72300000      13.09200000
 H      25.85600000      17.60700000      13.86100000
 O      27.37600000      20.36800000      12.33200000
 H      27.38500000      20.54400000      13.31800000
 H      27.16300000      19.44400000      12.34700000
 O      27.79800000      12.05500000       8.13800000
 H      28.08000000      12.92800000       8.58700000
 H      26.83100000      11.98900000       8.27600000
 O      26.49600000      15.20600000      13.39100000
 H      25.72800000      15.69300000      13.20000000
 H      26.77100000      15.44100000      14.32300000
 O      27.17000000      18.72500000      15.09400000
 H      28.02500000      18.40800000      15.59200000
 H      26.69700000      19.32900000      15.73000000
 O      21.67800000      19.45700000      13.77300000
 H      21.29700000      20.15800000      13.30700000
 H      21.78000000      18.87000000      12.99600000
 O      21.94500000      18.00500000       8.13400000
 H      21.55700000      17.13600000       7.77100000
 H      22.81000000      18.05000000       7.68500000
 O      25.97400000      15.37100000      10.25500000
 H      25.31000000      16.08400000      10.51300000
 H      25.82800000      15.32000000       9.25400000
 O      23.56400000      14.47000000       6.07600000
 H      22.68200000      14.79000000       5.89400000
 H      23.91500000      14.80900000       5.20900000
 O      21.50800000      13.68200000      10.39000000
 H      22.17000000      13.67900000      11.11100000
 H      22.03000000      13.40600000       9.57900000
 O      24.90400000      12.27600000       7.22200000
 H      24.17200000      11.56300000       7.20300000
 H      24.42500000      13.11800000       6.92800000
 O      24.37100000      19.95900000      15.40600000
 H      24.20800000      19.31200000      14.70600000
 H      23.42200000      20.26800000      15.50900000
 O      27.91100000      11.91000000      15.19100000
 H      27.52700000      12.22300000      14.31000000
 H      27.14000000      11.64600000      15.66500000
 O      28.73900000      14.68300000       6.43000000
 H      28.65100000      15.40800000       5.71200000
 H      27.92600000      14.80500000       6.95200000
 O      23.99300000      10.68800000       9.93600000
 H      23.72900000      10.95500000       9.04600000
 H      24.36600000       9.77100000       9.74500000
 O      21.42900000      15.55500000      14.92800000
 H      21.32500000      14.65600000      15.39400000
 H      21.05900000      15.52200000      14.02100000
 O      28.85500000      11.07800000      10.88200000
 H      28.40100000      10.58400000      10.15300000
 H      28.41500000      11.99500000      10.99100000
