117
XYZ file of cluster: frame_5000_75b0c.c57ff.99b12 - created by MolEdiTo
 O      22.92800000      29.74000000      27.26200000
 H      23.66300000      29.80300000      26.67300000
 H      23.01000000      30.44800000      27.96000000
 O      19.66400000      27.76100000      24.30100000
 H      19.54800000      26.83500000      23.95200000
 H      20.38100000      28.15100000      23.79100000
 O      19.16100000      29.05100000      20.18100000
 H      18.33300000      28.60500000      19.85700000
 H      18.81300000      29.27500000      21.05500000
 O      16.34600000      30.76900000      29.25100000
 H      17.30900000      30.54000000      29.18800000
 H      16.00400000      30.97400000      28.32600000
 O      22.53900000      27.43500000      30.48000000
 H      23.50500000      27.47900000      30.71100000
 H      22.10800000      28.32200000      30.91800000
 O      26.38900000      27.04400000      21.74300000
 H      26.23200000      27.81000000      21.22200000
 H      25.75400000      26.37000000      21.40500000
 O      19.64100000      26.41200000      27.52900000
 H      19.26100000      26.51200000      28.45900000
 H      20.61300000      26.49600000      27.64500000
 O      18.25000000      30.59600000      22.53700000
 H      17.82800000      29.98300000      23.25500000
 H      18.24800000      31.49400000      22.94000000
 O      19.84800000      29.52000000      26.64900000
 H      19.99700000      28.57700000      26.27500000
 H      19.25900000      29.88100000      25.97300000
 O      24.66000000      28.13800000      24.71200000
 H      24.74000000      29.06700000      24.41200000
 H      25.11700000      28.05500000      25.66700000
 O      16.18800000      27.33900000      30.32000000
 H      16.28300000      26.99500000      31.21800000
 H      16.78200000      28.08800000      30.39700000
 O      21.28600000      30.68000000      22.73700000
 H      21.72000000      29.83500000      22.51900000
 H      20.29600000      30.68800000      22.49400000
 O      26.35900000      28.38100000      26.98300000
 H      26.40900000      27.82200000      27.78300000
 H      27.27800000      28.59300000      26.78300000
 O      22.97100000      28.43100000      20.41600000
 H      22.39500000      27.94600000      21.03300000
 H      23.45500000      29.12100000      20.93400000
 O      25.02400000      29.73000000      30.17700000
 H      24.13800000      30.10100000      30.45400000
 H      25.52000000      29.99900000      30.97200000
 O      24.24500000      30.30700000      22.24400000
 H      24.90200000      30.99300000      21.89400000
 H      24.37100000      30.47700000      23.26300000
 O      22.11000000      27.83200000      22.92400000
 H      21.94100000      26.82700000      23.17900000
 H      23.03000000      27.92500000      23.25600000
 O      19.10400000      26.70400000      30.27600000
 H      19.07000000      27.63200000      30.64600000
 H      18.73600000      26.17500000      31.08200000
 O      19.08300000      30.49800000      29.09700000
 H      19.83900000      31.10700000      28.94000000
 H      19.38000000      29.88900000      28.34500000
 O      16.05600000      28.45600000      25.39800000
 H      16.04900000      28.17300000      26.30900000
 H      16.18600000      27.65700000      24.83100000
 O      22.25200000      27.05600000      27.61000000
 H      22.60200000      27.23400000      28.52700000
 H      22.24500000      28.02500000      27.34500000
 O      16.80600000      26.55300000      21.36600000
 H      16.82000000      27.22700000      20.63200000
 H      16.82500000      25.66100000      20.96600000
 O      21.35400000      33.29700000      25.33700000
 H      21.71000000      32.93500000      24.53500000
 H      21.07900000      32.47100000      25.74900000
 O      20.82300000      35.19600000      28.50600000
 H      20.73000000      35.82000000      27.67500000
 H      19.89400000      35.18600000      28.80300000
 O      24.23600000      35.33800000      23.99400000
 H      23.49300000      35.21000000      23.34900000
 H      24.05400000      36.13600000      24.49400000
 O      25.27200000      32.99700000      27.04400000
 H      24.57400000      33.68600000      27.36200000
 H      25.23400000      32.26800000      27.72000000
 O      23.28500000      34.43300000      28.10500000
 H      24.04300000      35.01800000      28.33300000
 H      22.46000000      34.91900000      28.30700000
 O      26.11700000      33.84700000      21.58300000
 H      26.29200000      34.79100000      21.44700000
 H      26.92400000      33.63000000      22.12700000
 O      18.20900000      34.90900000      29.58200000
 H      17.45200000      35.55700000      29.48500000
 H      17.68200000      34.11000000      29.34700000
 O      15.60900000      34.00700000      22.00200000
 H      16.27200000      34.13900000      22.81000000
 H      15.96400000      34.71900000      21.45000000
 O      21.03800000      37.02900000      23.09500000
 H      20.45400000      36.26900000      23.11800000
 H      21.77100000      36.62000000      22.60400000
 O      22.50700000      34.84700000      21.80300000
 H      22.76700000      34.64100000      20.81500000
 H      22.28000000      33.95900000      22.19100000
 O      25.72500000      35.94000000      27.47700000
 H      26.34500000      36.66300000      27.73900000
 H      26.28700000      35.13500000      27.34100000
 O      21.36900000      36.34900000      26.05200000
 H      21.90800000      35.54500000      25.92800000
 H      20.90800000      36.46500000      25.23900000
 O      18.60700000      33.43800000      24.93300000
 H      19.43100000      33.61800000      25.30000000
 H      17.94800000      34.18600000      25.08000000
 O      24.28200000      37.52000000      30.57200000
 H      23.99800000      36.63600000      30.93200000
 H      23.72500000      37.65400000      29.78100000
 O      17.60400000      36.63600000      22.41600000
 H      16.90900000      37.04500000      21.91900000
 H      18.25200000      36.26600000      21.74400000
 O      25.78700000      32.89800000      24.32100000
 H      25.35100000      33.73700000      24.17400000
 H      25.72600000      32.50200000      25.29600000
 O      15.87900000      35.31100000      24.35600000
 H      16.49500000      35.68900000      23.71700000
 H      15.30300000      36.11500000      24.57100000
