132
XYZ file of cluster: frame_500_3647.9e365.1c946 - created by MolEdiTo
 O       3.88400000      26.26500000       9.71500000
 H       3.04100000      26.69700000       9.93100000
 H       4.60900000      26.90500000       9.78700000
 O       8.88300000      24.48300000      12.51800000
 H       8.33000000      24.47700000      11.67600000
 H       8.52500000      25.27800000      13.02800000
 O       1.83200000      25.61600000      12.56400000
 H       1.64800000      25.94200000      11.64800000
 H       1.82000000      26.36200000      13.17400000
 O       9.40900000      22.61300000       9.70100000
 H       9.76100000      22.76200000      10.60600000
 H       8.44800000      22.57600000       9.92100000
 O       6.31100000      28.44300000      15.16100000
 H       5.45400000      27.84500000      15.16400000
 H       5.87900000      29.34800000      15.01600000
 O       9.67300000      20.58500000       8.04200000
 H      10.55700000      20.33800000       8.16700000
 H       9.42900000      21.29900000       8.71300000
 O       2.44300000      22.46400000       8.85000000
 H       2.98100000      23.18400000       8.45800000
 H       2.82300000      21.58500000       8.54400000
 O       7.69400000      30.36300000       8.22400000
 H       7.80200000      30.86700000       7.39700000
 H       8.38300000      30.80500000       8.76100000
 O      10.81700000      26.47800000      10.95800000
 H      10.16400000      26.27200000      11.67600000
 H      10.15100000      26.59800000      10.22400000
 O       2.15700000      27.50600000       4.79700000
 H       3.04400000      27.29900000       5.25500000
 H       2.26500000      28.36200000       4.28800000
 O       5.76500000      21.76100000      15.05300000
 H       6.17000000      22.18300000      15.86700000
 H       6.51300000      21.82500000      14.37900000
 O       6.84600000      26.63300000       7.11600000
 H       6.31100000      25.79000000       7.15100000
 H       7.73800000      26.29800000       6.98300000
 O       5.10100000      30.32200000      11.50500000
 H       4.97600000      29.95100000      10.60600000
 H       6.01200000      30.17000000      11.82400000
 O       7.00000000      21.75700000      10.80400000
 H       6.12200000      21.66400000      11.25600000
 H       7.34500000      20.84300000      10.57100000
 O       4.40200000      30.03500000       6.85500000
 H       4.69100000      30.41100000       5.98800000
 H       4.05100000      30.80900000       7.24000000
 O       5.66600000      28.72400000       9.03000000
 H       6.57300000      29.22100000       9.15300000
 H       5.38000000      29.09100000       8.16400000
 O       3.37400000      25.27800000      15.39000000
 H       4.26000000      25.63300000      15.78700000
 H       3.39900000      25.86300000      14.60400000
 O       2.20200000      25.19800000       7.73100000
 H       1.31500000      24.75000000       7.72300000
 H       2.18500000      25.73900000       8.58000000
 O       1.39800000      22.66000000       5.61600000
 H       0.43900000      22.51000000       5.85800000
 H       1.53900000      21.95100000       5.00000000
 O       4.33200000      22.81300000      12.57500000
 H       3.38400000      22.66600000      12.74600000
 H       4.72000000      22.84400000      13.46900000
 O      10.52700000      30.07700000      12.01500000
 H      11.21200000      30.69200000      11.98600000
 H      10.95700000      29.18400000      12.13700000
 O       4.20600000      23.91400000       5.86000000
 H       4.09800000      22.96800000       5.84300000
 H       3.30000000      24.17300000       6.12300000
 O       2.51000000      28.74700000       9.15000000
 H       2.51900000      29.57600000       9.63900000
 H       3.00500000      28.97800000       8.32300000
 O       8.56200000      26.34400000       4.42100000
 H       9.08600000      25.99400000       3.68300000
 H       9.11100000      26.06600000       5.28700000
 O       1.56600000      29.51800000      12.58100000
 H       0.68800000      29.33100000      13.03900000
 H       1.39200000      29.87500000      11.67500000
 O       8.24400000      27.18400000      13.40300000
 H       7.65700000      27.63700000      12.72100000
 H       7.75800000      27.62500000      14.17400000
 O       8.32400000      24.14300000      16.04200000
 H       8.80600000      24.17000000      15.24200000
 H       8.51300000      23.19900000      16.38800000
 O       4.26100000      26.93900000       6.42400000
 H       5.11700000      27.22700000       6.78000000
 H       3.72700000      26.54500000       7.16300000
 O       8.05700000      29.09500000       5.66100000
 H       8.00500000      28.18800000       5.26400000
 H       7.65400000      28.99800000       6.57100000
 O       9.86700000      25.35900000       6.69100000
 H      10.56900000      24.83100000       7.12800000
 H       9.20300000      24.67400000       6.50600000
 O       8.94600000      27.75500000       9.18000000
 H       9.00800000      28.50900000       8.57100000
 H       8.06700000      27.43700000       8.93500000
 O       8.02800000      21.69800000      13.38100000
 H       7.72200000      22.39200000      12.68000000
 H       8.71800000      21.14400000      12.92700000
 O       5.69400000      21.22900000       6.30400000
 H       6.28100000      20.68100000       5.80400000
 H       5.46200000      20.54600000       6.99600000
 O      11.18100000      26.54000000      14.47300000
 H      11.79300000      26.61400000      13.72600000
 H      10.40000000      27.07100000      14.14800000
 O       4.49300000      30.71600000      14.40700000
 H       5.22400000      31.38400000      14.21100000
 H       4.33600000      30.30200000      13.42700000
 O      11.07100000      30.15200000       4.99100000
 H      10.29100000      29.74300000       5.25900000
 H      11.70900000      29.40900000       4.87300000
 O      11.20600000      22.72400000      13.16600000
 H      10.41500000      23.25900000      12.85500000
 H      11.45800000      23.16400000      13.99900000
 O       1.75300000      22.91100000      13.81400000
 H       1.91400000      23.35400000      14.68200000
 H       1.67400000      23.70600000      13.27000000
 O      10.22400000      20.38800000      14.57600000
 H      10.28900000      20.66800000      15.48600000
 H      10.46800000      21.23600000      14.13200000
 O       8.44300000      22.76800000       5.69600000
 H       8.86200000      22.20600000       6.40300000
 H       7.43700000      22.70400000       5.95800000
 O       6.72800000      25.61800000      10.30100000
 H       6.02800000      25.56200000      11.01000000
 H       6.30500000      25.36300000       9.45300000
 O       6.34400000      23.66100000       8.02500000
 H       5.89900000      23.72000000       7.14800000
 H       5.81900000      22.94500000       8.48400000
 O       7.84700000      29.90500000      12.39600000
 H       8.73500000      29.72000000      11.95400000
 H       8.15200000      30.12400000      13.28100000
 O       3.55900000      27.88500000      14.01900000
 H       3.33200000      28.20300000      14.97900000
 H       3.06200000      28.44100000      13.42300000
