132
XYZ file of cluster: frame_500_71f9e.49fad.9d46e - created by MolEdiTo
 O      18.15900000      14.14700000      29.79000000
 H      17.31700000      14.65500000      29.57700000
 H      17.78700000      13.18200000      29.79100000
 O      26.60100000      20.09600000      28.09100000
 H      25.66800000      20.46300000      28.13700000
 H      26.92500000      20.02500000      28.96100000
 O      19.63100000      11.97500000      21.80800000
 H      20.38800000      11.36400000      21.86000000
 H      20.01300000      12.84100000      22.00800000
 O      26.58700000      15.63700000      29.42400000
 H      26.19200000      15.56900000      30.33800000
 H      27.28100000      16.31400000      29.51600000
 O      17.01800000      11.61400000      28.54300000
 H      16.76100000      10.82200000      28.04800000
 H      17.46100000      12.13700000      27.84900000
 O      21.59000000      11.08300000      26.92700000
 H      22.41700000      11.15300000      27.54800000
 H      21.27900000      10.15700000      27.12800000
 O      25.24600000      11.36900000      25.60700000
 H      25.21700000      11.96100000      24.85300000
 H      26.10100000      10.96600000      25.60500000
 O      22.20800000      15.93800000      23.16600000
 H      21.77200000      15.33400000      23.76900000
 H      22.22200000      16.82300000      23.65300000
 O      22.27100000      15.04300000      29.13700000
 H      22.93500000      15.48400000      28.64100000
 H      21.52100000      15.49700000      28.73000000
 O      26.85500000      14.70200000      20.35800000
 H      27.38700000      14.84300000      21.19400000
 H      26.27000000      13.91200000      20.49700000
 O      18.64100000      15.28700000      25.47200000
 H      19.58000000      15.61000000      25.34200000
 H      18.70700000      14.33700000      25.75600000
 O      25.11100000      19.27200000      25.59100000
 H      24.40000000      19.47000000      24.89000000
 H      24.59200000      19.16300000      26.41600000
 O      19.77800000      16.19700000      28.10900000
 H      19.66300000      16.43500000      27.11000000
 H      19.02100000      15.68700000      28.35600000
 O      18.40600000      20.90700000      21.08000000
 H      18.30000000      19.97700000      21.11500000
 H      18.93100000      21.16000000      20.26800000
 O      20.99600000      17.95600000      25.20200000
 H      21.63900000      18.58300000      24.67200000
 H      20.21900000      18.50300000      24.91800000
 O      15.41900000      19.57600000      30.02100000
 H      15.82500000      18.67900000      30.01500000
 H      16.08100000      20.12900000      30.47100000
 O      25.60500000      12.09200000      21.12200000
 H      25.40700000      11.16300000      21.39200000
 H      25.18100000      12.67700000      21.79600000
 O      15.55800000      14.18400000      23.45700000
 H      15.92400000      14.23300000      24.38700000
 H      14.75000000      13.68200000      23.43500000
 O      22.42500000      20.21100000      21.45100000
 H      22.72200000      19.76400000      22.29100000
 H      21.74200000      19.63200000      21.09100000
 O      15.98400000      16.38100000      25.24900000
 H      16.09800000      17.21000000      24.84700000
 H      16.97300000      16.11900000      25.27700000
 O      19.10300000      20.19600000      24.70200000
 H      19.03800000      20.22900000      25.69500000
 H      19.03100000      21.13800000      24.43500000
 O      16.36800000      19.54700000      27.50800000
 H      15.95800000      19.20200000      28.38500000
 H      15.62500000      19.60100000      26.88800000
 O      25.29300000      13.56700000      23.54900000
 H      25.38800000      14.48600000      23.50600000
 H      24.33900000      13.33400000      23.52700000
 O      20.52200000      17.79100000      21.32800000
 H      20.58100000      17.09400000      20.58400000
 H      20.69800000      17.47000000      22.22300000
 O      26.10900000      10.36600000      29.70900000
 H      25.83700000       9.51000000      30.18300000
 H      25.71600000      11.04500000      30.29300000
 O      27.13100000      19.45700000      30.60500000
 H      27.56000000      20.07400000      31.23900000
 H      26.29500000      19.34000000      31.07400000
 O      26.03900000      16.51000000      24.31700000
 H      25.49200000      17.22300000      24.79000000
 H      25.86000000      16.70100000      23.38400000
 O      19.17700000      15.00500000      21.97000000
 H      20.13300000      15.30100000      21.99200000
 H      19.08200000      14.72600000      21.03700000
 O      21.90800000      20.70800000      30.27600000
 H      22.85300000      20.74200000      29.91100000
 H      21.35400000      20.87700000      29.45600000
 O      21.90900000      13.97300000      25.11800000
 H      22.10400000      13.43100000      24.28900000
 H      21.81500000      13.47200000      25.90500000
 O      24.40200000      17.45600000      22.44600000
 H      23.80400000      16.93000000      21.86200000
 H      24.54700000      18.26400000      21.89100000
 O      15.58600000      16.29100000      21.45400000
 H      16.16900000      15.81700000      22.14100000
 H      14.88200000      16.68500000      21.97200000
 O      23.65200000      14.16400000      21.36700000
 H      23.05300000      14.84200000      21.81500000
 H      23.25600000      14.07500000      20.43100000
 O      22.96500000      18.53400000      27.37900000
 H      23.36500000      17.74000000      27.03600000
 H      22.06600000      18.19100000      27.58800000
 O      22.53800000      20.40700000      24.52600000
 H      22.43300000      21.09400000      25.22700000
 H      22.25300000      21.01900000      23.77400000
 O      23.98800000      11.70600000      28.36600000
 H      24.88700000      11.54700000      28.65200000
 H      24.14100000      11.72200000      27.39800000
 O      20.77100000      11.08300000      30.71400000
 H      20.92800000      11.27400000      29.70400000
 H      20.23400000      10.26700000      30.68900000
 O      19.00400000      12.57100000      26.77200000
 H      18.42900000      11.80600000      26.62000000
 H      19.94300000      12.29100000      26.71900000
 O      18.91900000      20.69000000      27.41900000
 H      18.66700000      21.58600000      27.70200000
 H      18.08900000      20.19700000      27.73300000
 O      16.55200000      16.08800000      28.51600000
 H      15.57300000      15.91700000      28.35300000
 H      16.79700000      16.30500000      27.59000000
 O      16.83700000      11.33900000      22.75500000
 H      17.13700000      12.20000000      23.11900000
 H      17.69400000      11.08300000      22.27700000
 O      16.58000000      18.64400000      23.22800000
 H      15.92000000      18.72900000      22.50500000
 H      17.24100000      19.31100000      23.00200000
 O      15.93100000      21.53900000      25.21000000
 H      16.65200000      22.18300000      25.48100000
 H      16.36100000      20.76300000      24.80300000
 O      24.75400000      16.06000000      27.14800000
 H      24.65300000      15.40600000      26.40900000
 H      25.63200000      15.93000000      27.62700000
