96
XYZ file of cluster: frame_500_c3876.9745f.9b89e - created by MolEdiTo
 O      29.13500000      27.92600000      21.50900000
 H      29.30900000      28.19900000      22.40800000
 H      28.31400000      27.37400000      21.54500000
 O      27.10700000      28.00500000      24.37900000
 H      26.73600000      28.75600000      24.90600000
 H      28.07400000      28.07800000      24.20600000
 O      28.15500000      29.41400000      28.14000000
 H      28.02300000      30.37400000      27.87100000
 H      27.95100000      29.31000000      29.14500000
 O      25.67100000      28.87900000      26.81600000
 H      25.30400000      29.79100000      26.81200000
 H      26.54400000      29.10000000      27.21200000
 O      29.13700000      24.87900000      23.55200000
 H      29.73000000      24.26700000      24.06100000
 H      29.67200000      25.63500000      23.81400000
 O      30.57100000      23.50900000      20.26500000
 H      30.58300000      23.31700000      21.26300000
 H      31.47500000      23.44800000      20.04400000
 O      27.42000000      30.32300000      21.43100000
 H      26.59900000      30.27500000      21.87900000
 H      27.28000000      29.89900000      20.56800000
 O      27.16100000      23.02600000      22.43000000
 H      26.81600000      22.68500000      23.31400000
 H      27.87500000      23.54400000      22.77000000
 O      27.82500000      23.14100000      26.48400000
 H      28.09600000      22.85900000      27.36400000
 H      28.57900000      22.90700000      25.91900000
 O      29.49800000      22.09000000      24.54300000
 H      29.34100000      21.13700000      24.51000000
 H      30.28200000      22.35500000      24.00900000
 O      26.45600000      20.13200000      22.55800000
 H      26.64300000      19.44600000      21.86000000
 H      26.69100000      21.00800000      22.17600000
 O      29.72400000      26.42100000      30.13000000
 H      30.54900000      26.72900000      29.63300000
 H      29.63500000      27.06600000      30.81400000
 O      28.25500000      27.01800000      26.94000000
 H      28.41000000      27.17900000      25.97800000
 H      28.24900000      28.00900000      27.30200000
 O      30.01600000      27.63000000      24.38900000
 H      30.50100000      28.35200000      24.89000000
 H      30.75800000      26.97900000      24.18200000
 O      29.14600000      22.92200000      29.04900000
 H      29.12900000      23.95100000      29.05600000
 H      30.05800000      22.61200000      29.13600000
 O      26.16900000      25.26200000      26.23900000
 H      26.45900000      26.16000000      25.99700000
 H      27.02600000      24.75800000      26.28800000
 O      33.26300000      21.69000000      28.76700000
 H      33.10400000      21.47600000      27.83200000
 H      34.26500000      21.77700000      28.73900000
 O      37.49900000      29.92900000      28.55000000
 H      36.59000000      29.54200000      28.40400000
 H      38.04700000      29.64500000      27.73000000
 O      35.19800000      28.65000000      27.50300000
 H      34.42000000      28.76900000      26.94600000
 H      34.83600000      28.23600000      28.31800000
 O      35.86500000      26.25400000      24.39500000
 H      35.71700000      25.57900000      25.06100000
 H      34.95800000      26.11800000      23.96400000
 O      34.94700000      29.35200000      22.86300000
 H      35.68100000      28.87900000      22.43400000
 H      34.28600000      28.66700000      22.86800000
 O      33.51100000      26.82600000      22.06600000
 H      33.22800000      25.95000000      22.45700000
 H      32.75200000      26.99000000      21.41700000
 O      34.64600000      25.42700000      29.62300000
 H      34.56600000      25.31700000      30.63600000
 H      35.58100000      25.15100000      29.61800000
 O      33.22300000      25.80700000      27.34200000
 H      32.28000000      25.96700000      27.71200000
 H      33.80400000      25.72100000      28.21400000
 O      33.28300000      23.02800000      22.85800000
 H      34.08800000      23.45700000      22.54800000
 H      33.51700000      22.10000000      23.08900000
 O      35.36300000      21.41900000      23.40600000
 H      36.00500000      21.87000000      22.83000000
 H      35.98700000      20.74200000      23.82500000
 O      36.01000000      21.93300000      28.09300000
 H      36.58700000      21.59800000      27.38500000
 H      36.32700000      22.87500000      28.11500000
 O      33.45200000      30.34300000      29.46800000
 H      32.72100000      29.94500000      29.94900000
 H      33.24600000      31.20600000      29.73800000
 O      36.77400000      27.44800000      21.53800000
 H      36.52000000      27.04900000      22.41100000
 H      35.98500000      27.08900000      21.00500000
 O      35.52700000      23.56500000      24.99300000
 H      36.09000000      23.38100000      25.73900000
 H      35.61000000      22.81500000      24.34900000
 O      33.24700000      25.59600000      24.56800000
 H      33.18900000      25.82900000      25.56500000
 H      33.62600000      24.70600000      24.62300000
 O      33.23000000      29.32300000      25.73600000
 H      33.56800000      30.14400000      25.32300000
 H      32.59300000      29.52700000      26.41600000
