132
XYZ file of cluster: frame_500_99213.22c9d.9ce19 - created by MolEdiTo
 O      24.29400000       5.89200000      28.61400000
 H      25.09800000       5.71800000      28.10700000
 H      24.20100000       5.18000000      29.23000000
 O      23.42800000       9.41700000      30.04800000
 H      23.48600000      10.35300000      29.60300000
 H      22.65800000       9.41600000      30.63300000
 O      26.58700000      15.63700000      29.42400000
 H      26.19200000      15.56900000      30.33800000
 H      27.28100000      16.31400000      29.51600000
 O      27.62800000      13.19800000      28.58000000
 H      27.24600000      13.95500000      29.13000000
 H      27.27600000      13.42700000      27.68400000
 O      22.81000000       6.04100000      26.25800000
 H      22.87700000       7.05600000      26.23100000
 H      23.54200000       5.86200000      26.87400000
 O      22.27100000      15.04300000      29.13700000
 H      22.93500000      15.48400000      28.64100000
 H      21.52100000      15.49700000      28.73000000
 O      21.59000000      11.08300000      26.92700000
 H      22.41700000      11.15300000      27.54800000
 H      21.27900000      10.15700000      27.12800000
 O      25.24600000      11.36900000      25.60700000
 H      25.21700000      11.96100000      24.85300000
 H      26.10100000      10.96600000      25.60500000
 O      22.20800000      15.93800000      23.16600000
 H      21.77200000      15.33400000      23.76900000
 H      22.22200000      16.82300000      23.65300000
 O      28.78900000      11.96500000      20.73400000
 H      29.03100000      12.73100000      20.21700000
 H      29.54000000      11.84600000      21.33900000
 O      26.85500000      14.70200000      20.35800000
 H      27.38700000      14.84300000      21.19400000
 H      26.27000000      13.91200000      20.49700000
 O      27.02900000       7.45300000      30.65700000
 H      26.30700000       7.71200000      30.04100000
 H      26.52000000       7.18400000      31.46200000
 O      25.72400000       7.51900000      24.08600000
 H      24.85600000       8.02600000      24.11600000
 H      25.69400000       6.72400000      24.64200000
 O      21.10300000       5.41000000      28.27800000
 H      21.85700000       4.87400000      27.96700000
 H      20.81100000       5.84900000      27.49500000
 O      26.56200000       6.90100000      20.85400000
 H      27.19800000       6.79100000      21.56800000
 H      25.65700000       6.59400000      21.18200000
 O      30.22600000       8.64700000      28.79800000
 H      29.96500000       8.64300000      29.76300000
 H      31.05600000       9.18600000      28.79800000
 O      28.46700000       4.79600000      25.35600000
 H      28.96400000       5.41400000      24.71100000
 H      28.93200000       4.98400000      26.23800000
 O      25.60500000      12.09200000      21.12200000
 H      25.40700000      11.16300000      21.39200000
 H      25.18100000      12.67700000      21.79600000
 O      30.38700000      13.04700000      23.66400000
 H      30.66300000      13.30200000      24.55500000
 H      31.19400000      12.87500000      23.17000000
 O      20.50800000       8.92100000      24.76600000
 H      19.81700000       9.16000000      24.11400000
 H      21.36100000       9.35200000      24.49300000
 O      27.71800000       9.54500000      26.94600000
 H      28.62400000       9.30200000      27.21600000
 H      27.35800000      10.20800000      27.60000000
 O      29.63200000      12.48000000      26.83900000
 H      28.92800000      13.17600000      26.58700000
 H      29.50700000      12.27100000      27.77700000
 O      23.91900000       5.96600000      20.85100000
 H      23.58600000       6.85800000      20.75100000
 H      23.64400000       5.78100000      21.77800000
 O      23.37400000       8.53500000      27.09200000
 H      23.16100000       8.19200000      27.99800000
 H      24.29900000       8.88600000      27.28300000
 O      25.29300000      13.56700000      23.54900000
 H      25.38800000      14.48600000      23.50600000
 H      24.33900000      13.33400000      23.52700000
 O      28.14700000       7.56000000      22.93600000
 H      28.75200000       8.00300000      23.51300000
 H      27.29700000       7.58400000      23.38000000
 O      23.10500000       5.59500000      23.52000000
 H      22.66400000       4.72100000      23.55600000
 H      23.14100000       5.75700000      24.47800000
 O      27.22500000      14.46000000      26.20300000
 H      27.66300000      15.26500000      26.25400000
 H      27.15300000      14.22700000      25.27200000
 O      29.01500000       9.62500000      24.54400000
 H      28.90500000      10.58400000      24.54700000
 H      28.31800000       9.33000000      25.15700000
 O      26.10900000      10.36600000      29.70900000
 H      25.83700000       9.51000000      30.18300000
 H      25.71600000      11.04500000      30.29300000
 O      28.22500000       5.20200000      30.21900000
 H      27.79300000       6.04700000      30.41400000
 H      27.63100000       4.47200000      30.52200000
 O      21.90900000      13.97300000      25.11800000
 H      22.10400000      13.43100000      24.28900000
 H      21.81500000      13.47200000      25.90500000
 O      21.25600000       7.50100000      20.86600000
 H      21.44600000       6.54300000      21.05100000
 H      20.40100000       7.74000000      21.29500000
 O      23.65200000      14.16400000      21.36700000
 H      23.05300000      14.84200000      21.81500000
 H      23.25600000      14.07500000      20.43100000
 O      28.89400000      14.95100000      22.12500000
 H      29.70700000      14.50300000      21.75600000
 H      28.96600000      14.94300000      23.13500000
 O      23.98800000      11.70600000      28.36600000
 H      24.88700000      11.54700000      28.65200000
 H      24.14100000      11.72200000      27.39800000
 O      25.85200000       9.48700000      21.38700000
 H      26.15700000       8.57700000      21.15300000
 H      26.13500000       9.44400000      22.30400000
 O      30.75900000      14.31800000      29.18700000
 H      30.02500000      13.73900000      29.46100000
 H      30.27500000      15.17800000      29.28800000
 O      26.72500000       7.08600000      27.03000000
 H      27.13900000       7.98500000      26.93200000
 H      27.30900000       6.38200000      26.59000000
 O      27.85500000      11.89400000      23.68600000
 H      27.38000000      11.86000000      22.79800000
 H      28.73100000      12.24500000      23.59600000
 O      22.71600000       9.19600000      22.71700000
 H      23.45500000       9.16300000      22.07000000
 H      22.06200000       8.74100000      22.17500000
 O      29.64300000       6.22400000      27.58000000
 H      29.13600000       5.80100000      28.27000000
 H      29.91100000       7.05100000      28.09400000
 O      24.75400000      16.06000000      27.14800000
 H      24.65300000      15.40600000      26.40900000
 H      25.63200000      15.93000000      27.62700000
 O      30.37700000       6.12700000      23.57400000
 H      29.89400000       6.85700000      23.05900000
 H      30.86100000       5.64000000      22.85400000
