%chk=cluster_424.chk
%mem=6GB
%nproc=4
#b3lyp/6-31G** scrf=(cpcm,Solvent=Water) nosymm force
iop(2/11=1) 
 Geom=(NoDistance,NoAngle)

cluster_424

0 1
 O      16.98400000      13.84600000      14.37900000
 H      17.36500000      14.66200000      14.00300000
 H      16.88500000      14.06600000      15.33300000
 O      18.52300000       6.94600000      13.79200000
 H      18.12400000       6.50300000      14.58800000
 H      19.52000000       7.11700000      14.02900000
 O      18.65300000      11.74600000      14.62000000
 H      18.12100000      11.01400000      14.20500000
 H      18.04100000      12.52400000      14.57500000
 O      18.14800000      10.44000000      18.53900000
 H      18.24000000      11.08000000      19.29300000
 H      18.66700000      10.79100000      17.76200000
 O      15.18500000       8.82500000      18.33700000
 H      14.42900000       9.27400000      18.75000000
 H      15.71700000       9.62300000      18.11500000
 O      17.59700000      13.31900000      19.49000000
 H      16.58000000      13.17800000      19.60800000
 H      17.99900000      13.38400000      20.34500000
 O      14.87300000      12.43700000      15.75800000
 H      14.84900000      11.50600000      15.44700000
 H      14.51700000      12.87900000      14.92700000
 O      15.40000000       8.61500000      15.51700000
 H      15.11100000       8.78700000      16.45600000
 H      14.88900000       7.80800000      15.27600000
 O      14.88000000      12.28400000      18.79200000
 H      14.00100000      11.87200000      18.55600000
 H      15.15700000      12.70800000      18.00100000
 O      17.59100000       7.65200000      17.90400000
 H      17.88400000       8.59600000      17.97800000
 H      16.71900000       7.53100000      18.37700000

