129
XYZ file of cluster: frame_14000_4c13d.c321e.72447 - created by MolEdiTo
 O      10.09100000      30.51400000      25.85500000
 H      10.81700000      30.52000000      25.17600000
 H      10.42500000      30.52100000      26.84600000
 O      13.74700000      26.54400000      18.09900000
 H      13.15800000      26.69700000      17.32200000
 H      13.83400000      25.60800000      18.14000000
 O      16.63400000      28.27800000      20.14800000
 H      17.19200000      27.71200000      19.52100000
 H      16.07100000      28.77400000      19.49500000
 O      18.98700000      29.66500000      20.87200000
 H      18.06000000      29.29500000      20.61000000
 H      19.53000000      28.84500000      20.93100000
 O      10.79300000      26.77100000      26.10700000
 H      11.73200000      26.73900000      25.85800000
 H      10.48300000      25.82300000      26.12400000
 O      13.87000000      29.17300000      25.14000000
 H      13.23800000      29.68500000      24.56800000
 H      14.60600000      29.84700000      25.14600000
 O      19.88400000      27.79100000      24.57800000
 H      18.89900000      27.85400000      24.37400000
 H      19.84900000      28.09400000      25.47800000
 O      20.66700000      27.46900000      20.09800000
 H      20.93900000      28.13900000      19.40900000
 H      20.78200000      26.57800000      19.62500000
 O      20.09400000      26.39600000      16.73900000
 H      19.34700000      26.70300000      17.31200000
 H      20.91100000      26.65600000      17.23300000
 O      13.26100000      25.98400000      21.09500000
 H      12.70500000      26.12800000      20.36200000
 H      13.93600000      26.66800000      20.87600000
 O      10.04800000      28.58900000      19.49900000
 H      10.87200000      28.13700000      19.58400000
 H       9.78900000      28.74700000      20.49900000
 O      13.38800000      26.58500000      25.37700000
 H      13.58300000      27.58400000      25.22600000
 H      14.09100000      26.18900000      24.83900000
 O      10.65000000      27.19600000      16.78600000
 H      10.64200000      27.89100000      17.57200000
 H      11.01400000      27.78500000      16.11800000
 O      15.73200000      28.58300000      17.65600000
 H      15.03200000      27.92400000      17.64900000
 H      16.04900000      28.30600000      16.76700000
 O      16.70300000      25.71900000      27.00000000
 H      16.34800000      24.92100000      26.56000000
 H      16.67000000      26.37400000      26.29800000
 O      19.35300000      29.08700000      17.74000000
 H      20.19900000      29.55500000      17.77700000
 H      18.70900000      29.81800000      17.69500000
 O      12.41700000      30.14500000      17.74800000
 H      12.54200000      29.71600000      16.90300000
 H      11.62300000      30.62400000      17.56000000
 O      15.39900000      28.99200000      22.52200000
 H      14.64800000      29.33000000      21.95100000
 H      15.98100000      28.59500000      21.79600000
 O      17.13400000      28.44300000      24.70000000
 H      16.38900000      28.58100000      24.03900000
 H      17.06600000      29.12700000      25.34700000
 O      12.91800000      28.82500000      20.39100000
 H      12.82300000      29.00600000      19.36600000
 H      12.53900000      29.65100000      20.82200000
 O      18.99600000      30.66800000      23.45300000
 H      18.99600000      30.14300000      22.57700000
 H      18.80400000      29.94000000      24.12400000
 O      17.14700000      32.10000000      17.62000000
 H      16.47600000      31.35800000      17.64500000
 H      16.57100000      32.97400000      17.50500000
 O      11.61200000      33.10600000      20.83000000
 H      10.97000000      33.62000000      20.20200000
 H      11.11600000      32.48300000      21.38900000
 O      17.10400000      32.57400000      15.05600000
 H      17.16700000      32.62200000      15.97000000
 H      17.57300000      33.34000000      14.80500000
 O      20.53500000      34.27100000      22.67300000
 H      21.10300000      33.48300000      22.78700000
 H      20.13700000      34.06300000      21.78300000
 O      14.57100000      33.68900000      16.32000000
 H      15.36100000      34.06300000      15.87800000
 H      13.90800000      33.73000000      15.53000000
 O      15.40300000      33.05200000      25.70600000
 H      15.91800000      33.26300000      26.43800000
 H      15.15200000      33.97400000      25.37200000
 O      11.74400000      34.27800000      26.34500000
 H      12.42500000      33.79100000      26.86000000
 H      11.19200000      34.76000000      26.98700000
 O      13.79800000      35.26800000      23.72500000
 H      14.47500000      36.04000000      23.72900000
 H      14.15200000      34.58100000      23.06400000
 O      16.95100000      34.58300000      19.25800000
 H      16.26000000      33.84000000      19.02200000
 H      16.44600000      35.28400000      19.76700000
 O      16.32800000      36.44600000      23.70500000
 H      16.57100000      35.51400000      23.62200000
 H      16.56200000      36.56800000      24.65700000
 O      20.38000000      33.29400000      25.58000000
 H      19.45700000      33.55500000      25.60800000
 H      20.54700000      33.21300000      24.63400000
 O      13.73100000      36.41200000      26.45700000
 H      12.89800000      36.80200000      26.82400000
 H      13.37200000      35.63600000      25.99400000
 O      12.74100000      35.46400000      19.41200000
 H      13.52700000      34.90100000      19.15900000
 H      11.93600000      34.93500000      19.31400000
 O      12.17700000      32.96500000      23.85700000
 H      12.20900000      33.21500000      24.87300000
 H      12.35500000      33.85500000      23.53300000
 O      16.69200000      33.65400000      23.36000000
 H      16.75200000      33.22300000      24.21900000
 H      17.55200000      33.34000000      22.99800000
 O      19.19000000      36.65900000      21.89100000
 H      19.80600000      36.08800000      22.39000000
 H      18.51600000      35.99100000      21.90700000
 O      19.58100000      33.63400000      20.14600000
 H      19.03900000      33.95600000      19.43900000
 H      19.12000000      32.76200000      20.24600000
 O      20.82700000      36.41700000      25.21200000
 H      20.68900000      37.28200000      25.35900000
 H      19.93000000      36.04100000      25.19600000
 O      14.24300000      33.66600000      21.50400000
 H      13.25200000      33.67900000      21.47700000
 H      14.50400000      33.30400000      20.64800000
 O      11.32800000      36.41800000      23.99200000
 H      12.23400000      36.16000000      23.64900000
 H      11.09600000      35.86300000      24.73100000
 O      18.06000000      36.18800000      25.80400000
 H      17.75800000      37.06800000      26.20300000
 H      17.78900000      35.51400000      26.45600000
 O      14.58700000      32.61700000      18.91400000
 H      14.01000000      31.75400000      18.88900000
 H      14.38900000      32.99800000      17.98600000
