135
XYZ file of cluster: frame_14000_70177.784.4f06b - created by MolEdiTo
 O      19.60900000       6.13400000      18.90000000
 H      19.32000000       5.81800000      19.79400000
 H      20.51800000       6.33600000      19.02300000
 O      17.14700000       0.92000000      17.62000000
 H      16.47600000       0.17800000      17.64500000
 H      16.57100000       1.79400000      17.50500000
 O      25.17900000       4.42700000      15.75500000
 H      24.45800000       4.92500000      15.36400000
 H      25.03100000       4.61300000      16.67600000
 O      26.03100000      10.30000000      20.34600000
 H      26.98100000      10.15800000      20.01700000
 H      25.49500000      10.19500000      19.55900000
 O      17.10400000       1.39400000      15.05600000
 H      17.16700000       1.44200000      15.97000000
 H      17.57300000       2.16000000      14.80500000
 O      17.79100000      11.13700000      17.81000000
 H      17.44800000      10.23400000      17.59300000
 H      18.71000000      11.06200000      18.04200000
 O      19.34700000       8.42400000      10.95800000
 H      18.63700000       8.21300000      11.58400000
 H      19.00000000       7.87600000      10.23900000
 O      15.80100000       0.93700000      12.38100000
 H      16.02300000       0.96800000      13.40600000
 H      15.43500000       0.06000000      12.41000000
 O      23.34400000       1.26300000      12.40500000
 H      22.72800000       1.73300000      12.93700000
 H      23.06400000       1.34200000      11.46200000
 O      18.50300000       1.16800000      10.98000000
 H      17.62000000       1.16800000      11.53800000
 H      18.81300000       0.28900000      11.34400000
 O      25.25400000      10.88100000      13.15600000
 H      25.97900000      10.42400000      13.55900000
 H      24.63900000      10.16000000      13.12200000
 O      16.36700000       4.34400000      15.52300000
 H      17.33100000       4.59600000      15.71100000
 H      15.92200000       5.20400000      15.31900000
 O      20.91700000       1.41900000      15.72900000
 H      20.29900000       0.91700000      15.18200000
 H      21.77800000       0.93000000      15.56500000
 O      17.28300000       8.63300000      19.56900000
 H      17.91800000       8.03100000      19.10000000
 H      16.41100000       8.30200000      19.26200000
 O      24.66700000       8.61000000      18.30500000
 H      24.19200000       8.97200000      17.51500000
 H      24.81400000       7.64800000      18.14900000
 O      18.26000000       4.44300000      12.77800000
 H      17.40500000       4.32300000      13.30700000
 H      19.02000000       4.33300000      13.32800000
 O      20.69600000      10.07100000      16.59800000
 H      20.89100000      11.03500000      16.29500000
 H      20.69200000      10.10900000      17.56900000
 O      16.95100000       3.40300000      19.25800000
 H      16.26000000       2.66000000      19.02200000
 H      16.44600000       4.10400000      19.76700000
 O      23.34700000       7.65200000      11.33300000
 H      23.13600000       7.22600000      12.15900000
 H      22.58900000       8.16300000      11.08200000
 O      21.37800000      10.11300000      11.84200000
 H      20.65000000       9.41400000      11.62900000
 H      21.02900000      10.95100000      11.37600000
 O      16.06900000       5.79200000      20.80700000
 H      15.81500000       5.46500000      21.67700000
 H      15.16200000       6.06500000      20.54300000
 O      15.30900000       7.61700000      18.13600000
 H      14.42300000       7.48900000      17.97100000
 H      15.83500000       7.13600000      17.48600000
 O      19.13100000       5.73000000      16.04700000
 H      19.45000000       5.60000000      16.96500000
 H      19.00500000       6.69400000      16.03700000
 O      21.94600000       3.60800000      17.49000000
 H      21.45300000       3.52200000      18.33400000
 H      21.66800000       2.89300000      16.89000000
 O      18.38300000       8.36200000      16.23700000
 H      18.96100000       9.04700000      16.53000000
 H      18.06200000       8.67300000      15.35700000
 O      25.66400000       8.56400000      10.23900000
 H      24.79500000       8.26600000      10.55100000
 H      25.76200000       9.46900000      10.52700000
 O      25.40700000       2.10400000      14.17300000
 H      25.39700000       2.98100000      14.69000000
 H      24.84500000       2.16500000      13.36200000
 O      16.14700000      10.18100000      11.43300000
 H      16.08300000       9.54300000      10.70800000
 H      16.82800000      10.77700000      11.09200000
 O      24.94800000       5.03100000      12.55900000
 H      25.48600000       4.96500000      11.72000000
 H      24.11900000       4.99100000      12.10400000
 O      21.60800000       5.11900000      11.32000000
 H      21.24900000       4.96200000      12.23800000
 H      21.77000000       4.22400000      11.01700000
 O      24.56200000       2.09700000      18.03100000
 H      24.32100000       1.24100000      17.54500000
 H      25.53700000       2.18700000      18.13200000
 O      23.19300000       8.96200000      20.77500000
 H      23.67400000       8.41500000      20.16700000
 H      23.12500000       9.78700000      20.18100000
 O      19.58100000       2.45400000      20.14600000
 H      19.03900000       2.77600000      19.43900000
 H      19.12000000       1.58200000      20.24600000
 O      20.68200000       3.91500000      14.09000000
 H      20.90600000       3.16400000      14.68900000
 H      20.46000000       4.63300000      14.71800000
 O      15.58900000       9.67700000      14.06300000
 H      16.05600000      10.16700000      14.82100000
 H      15.82400000       9.97300000      13.18500000
 O      22.82700000       6.14500000      19.00200000
 H      22.89500000       5.68400000      19.88000000
 H      22.68600000       5.39100000      18.38500000
 O      25.19300000       8.33500000      14.77300000
 H      25.40000000       8.03900000      15.65600000
 H      24.21900000       8.22800000      14.71300000
 O      25.90600000       5.48600000      18.32400000
 H      26.45000000       4.71200000      18.14500000
 H      26.28000000       5.90500000      19.14700000
 O      23.77800000       2.33300000      20.75200000
 H      23.34800000       3.17100000      20.75900000
 H      24.02600000       2.29900000      19.82200000
 O      21.46400000       7.98900000      14.08300000
 H      21.06800000       8.14200000      14.93700000
 H      21.18500000       8.69100000      13.47800000
 O      22.90300000       5.76600000      14.98300000
 H      22.35500000       5.60700000      15.81100000
 H      22.44900000       6.44800000      14.48900000
 O      20.33300000       8.29400000      20.99400000
 H      21.12500000       8.41500000      21.61400000
 H      19.97400000       7.44500000      21.28200000
 O      17.03700000       6.84600000      12.59500000
 H      16.53100000       6.66000000      13.42600000
 H      17.60400000       6.01800000      12.56000000
 O      20.12000000      10.57600000      19.17400000
 H      20.05900000       9.80000000      19.81400000
 H      20.94500000      11.02200000      19.42400000
 O      16.31500000      10.62000000      21.32000000
 H      15.76100000      10.65000000      20.50500000
 H      16.84200000       9.75700000      21.25900000
