117
XYZ file of cluster: frame_14000_9adff.0.c259d - created by MolEdiTo
 O      28.11700000       4.17400000      25.84400000
 H      28.24400000       3.41100000      25.18100000
 H      27.34200000       3.90700000      26.36500000
 O      22.73800000       5.22800000      27.12300000
 H      22.46400000       4.31000000      26.81700000
 H      22.46100000       5.70000000      26.30300000
 O      22.63200000       2.41000000      26.95200000
 H      21.82700000       2.06300000      26.46700000
 H      22.97300000       1.49800000      27.17500000
 O      27.07600000       7.74500000      28.30500000
 H      27.31400000       8.60700000      27.90500000
 H      26.79000000       7.13200000      27.59500000
 O      30.33200000       1.49200000      29.61500000
 H      31.07100000       2.15500000      29.34600000
 H      30.56900000       1.25100000      30.61000000
 O      24.93800000       2.75400000      30.53200000
 H      25.50600000       2.11200000      30.09000000
 H      25.52300000       3.28800000      31.07400000
 O      26.01800000       5.46300000      29.83400000
 H      25.03600000       5.49400000      29.86600000
 H      26.18600000       6.38500000      29.47700000
 O      28.77400000       4.83500000      29.11100000
 H      28.58500000       4.73100000      28.09300000
 H      27.94400000       4.75300000      29.56100000
 O      25.59000000       6.26800000      26.20600000
 H      25.38900000       5.64100000      26.97000000
 H      24.85300000       6.15600000      25.53600000
 O      26.52100000      10.24600000      26.39300000
 H      26.57600000      10.20300000      25.38200000
 H      25.55000000      10.01700000      26.44100000
 O      25.87000000       0.93000000      26.23300000
 H      24.87000000       0.92100000      26.40600000
 H      26.12600000       0.00000000      26.05200000
 O      21.34900000       6.78000000      28.97000000
 H      21.83300000       6.14400000      28.38400000
 H      21.31800000       7.56500000      28.50600000
 O      23.73500000      10.27400000      26.28200000
 H      23.03800000       9.77400000      26.77000000
 H      23.27000000      10.60700000      25.44700000
 O      29.49100000       9.77000000      26.96500000
 H      29.62200000       9.39600000      26.13700000
 H      29.73200000      10.71200000      26.84200000
 O      25.87400000       3.32800000      27.69800000
 H      25.89400000       3.31600000      28.69700000
 H      25.95700000       2.38100000      27.38500000
 O      29.80100000       8.27500000      29.17300000
 H      29.70900000       8.92100000      28.42900000
 H      28.95200000       7.68800000      29.05100000
 O      26.72900000      10.05200000      30.36000000
 H      26.29100000       9.27200000      29.90300000
 H      26.67300000       9.76000000      31.22200000
 O      21.32100000      10.29100000      27.68300000
 H      20.96700000      10.11800000      28.58200000
 H      21.58900000      11.20300000      27.87500000
 O      23.87300000       9.36300000      30.36300000
 H      24.15800000       8.71500000      31.08800000
 H      23.23200000       8.82900000      29.87900000
 O      21.04100000       1.75400000      30.72200000
 H      21.19600000       1.97200000      31.63200000
 H      21.28100000       2.54900000      30.26200000
 O      22.65600000       4.08300000      29.94300000
 H      23.43100000       3.40500000      30.08800000
 H      22.84500000       4.36000000      29.01800000
 O      28.19200000       8.30700000      33.74200000
 H      28.94700000       7.86200000      33.29900000
 H      27.58000000       7.47900000      33.91700000
 O      29.58100000       5.27700000      35.43600000
 H      29.44900000       5.83400000      34.67100000
 H      28.71800000       5.34000000      35.98900000
 O      27.41400000      10.64200000      35.29700000
 H      27.95900000      10.01700000      34.80400000
 H      26.63300000      10.08800000      35.56800000
 O      23.88200000       4.92400000      34.18200000
 H      23.57000000       4.13300000      33.65700000
 H      23.84400000       4.60500000      35.09900000
 O      21.56500000       0.93000000      37.40300000
 H      21.41700000       1.69500000      36.67600000
 H      21.16100000       0.16400000      37.02400000
 O      25.04600000       8.61500000      36.61600000
 H      25.17800000       9.47100000      37.12400000
 H      24.33800000       8.16100000      37.07800000
 O      24.51600000       7.85100000      33.99100000
 H      24.29900000       6.94400000      34.29500000
 H      24.86900000       8.27200000      34.77500000
 O      27.17700000       2.91300000      35.72900000
 H      26.39500000       2.33000000      36.06900000
 H      27.49700000       3.58500000      36.49800000
 O      30.33300000       6.24700000      32.74500000
 H      30.46100000       7.01200000      32.08800000
 H      29.75700000       5.59900000      32.26200000
 O      26.68900000       5.62400000      34.51300000
 H      26.75100000       4.72100000      34.92000000
 H      25.89900000       5.53700000      33.85100000
 O      21.69000000       7.28700000      33.57200000
 H      21.92100000       6.34900000      33.80600000
 H      21.35700000       7.12500000      32.64100000
 O      20.47500000       2.56900000      35.28800000
 H      19.92800000       3.10800000      34.66900000
 H      21.03800000       3.32100000      35.79100000
 O      23.47300000       1.80800000      34.61500000
 H      23.94600000       1.84700000      35.45100000
 H      23.74900000       1.02500000      34.08500000
 O      27.96400000       2.50700000      32.74100000
 H      28.77300000       2.47300000      32.12900000
 H      28.29300000       2.53300000      33.61800000
 O      22.24300000       9.62300000      35.09400000
 H      23.19100000       9.82300000      35.23600000
 H      22.38900000       8.94200000      34.45600000
 O      24.40000000       2.98800000      36.87700000
 H      24.11900000       2.16200000      37.32400000
 H      24.63600000       3.73600000      37.49800000
 O      21.96100000       4.47700000      36.44600000
 H      22.03500000       5.35400000      36.97700000
 H      22.79500000       3.98100000      36.71500000
 O      30.35300000       2.30200000      34.60900000
 H      29.76100000       1.73000000      35.13700000
 H      30.33400000       3.21500000      34.97800000
