129
XYZ file of cluster: frame_14000_75c1d.0.c3d33 - created by MolEdiTo
 O      16.86300000       6.11500000      30.53800000
 H      17.56700000       6.58600000      31.07300000
 H      16.67200000       6.80400000      29.94100000
 O      15.40300000       1.87200000      25.70600000
 H      15.91800000       2.08300000      26.43800000
 H      15.15200000       2.79400000      25.37200000
 O      22.73800000       5.22800000      27.12300000
 H      22.46400000       4.31000000      26.81700000
 H      22.46100000       5.70000000      26.30300000
 O      22.63200000       2.41000000      26.95200000
 H      21.82700000       2.06300000      26.46700000
 H      22.97300000       1.49800000      27.17500000
 O      24.93800000       2.75400000      30.53200000
 H      25.50600000       2.11200000      30.09000000
 H      25.52300000       3.28800000      31.07400000
 O      16.30300000       6.75000000      26.91700000
 H      15.75500000       7.25500000      26.30100000
 H      15.68700000       6.68000000      27.65600000
 O      26.01800000       5.46300000      29.83400000
 H      25.03600000       5.49400000      29.86600000
 H      26.18600000       6.38500000      29.47700000
 O      25.59000000       6.26800000      26.20600000
 H      25.38900000       5.64100000      26.97000000
 H      24.85300000       6.15600000      25.53600000
 O      26.52100000      10.24600000      26.39300000
 H      26.57600000      10.20300000      25.38200000
 H      25.55000000      10.01700000      26.44100000
 O      25.87000000       0.93000000      26.23300000
 H      24.87000000       0.92100000      26.40600000
 H      26.12600000       0.00000000      26.05200000
 O      17.61800000       2.97700000      27.76100000
 H      18.42600000       3.34100000      28.11000000
 H      17.48900000       2.37600000      28.48300000
 O      20.08400000       4.00400000      28.31000000
 H      20.30500000       4.84900000      28.61700000
 H      20.88000000       3.60200000      27.93800000
 O      21.34900000       6.78000000      28.97000000
 H      21.83300000       6.14400000      28.38400000
 H      21.31800000       7.56500000      28.50600000
 O      23.73500000      10.27400000      26.28200000
 H      23.03800000       9.77400000      26.77000000
 H      23.27000000      10.60700000      25.44700000
 O      20.26100000       9.32700000      30.16300000
 H      19.29800000       9.51200000      30.35900000
 H      20.68600000       9.20500000      31.02700000
 O      17.24000000       8.64700000      29.81100000
 H      17.88400000       8.61800000      29.08900000
 H      16.38400000       8.85100000      29.36800000
 O      18.06300000       9.69700000      26.45400000
 H      17.38500000       9.05000000      26.11800000
 H      17.84900000      10.37100000      25.75100000
 O      16.70500000       0.79200000      29.59200000
 H      17.56200000       0.35600000      29.69400000
 H      16.82500000       1.43400000      30.31200000
 O      25.87400000       3.32800000      27.69800000
 H      25.89400000       3.31600000      28.69700000
 H      25.95700000       2.38100000      27.38500000
 O      18.06000000       5.00800000      25.80400000
 H      17.75800000       5.88800000      26.20300000
 H      17.78900000       4.33400000      26.45600000
 O      21.32100000      10.29100000      27.68300000
 H      20.96700000      10.11800000      28.58200000
 H      21.58900000      11.20300000      27.87500000
 O      23.87300000       9.36300000      30.36300000
 H      24.15800000       8.71500000      31.08800000
 H      23.23200000       8.82900000      29.87900000
 O      21.04100000       1.75400000      30.72200000
 H      21.19600000       1.97200000      31.63200000
 H      21.28100000       2.54900000      30.26200000
 O      22.65600000       4.08300000      29.94300000
 H      23.43100000       3.40500000      30.08800000
 H      22.84500000       4.36000000      29.01800000
 O      16.54000000       7.34300000      37.13400000
 H      17.30200000       6.79100000      37.51300000
 H      16.38900000       6.74600000      36.34300000
 O      22.24300000       9.62300000      35.09400000
 H      23.19100000       9.82300000      35.23600000
 H      22.38900000       8.94200000      34.45600000
 O      18.26200000       3.20800000      32.96300000
 H      18.35200000       3.90800000      32.35500000
 H      17.55700000       3.46600000      33.57100000
 O      24.40000000       2.98800000      36.87700000
 H      24.11900000       2.16200000      37.32400000
 H      24.63600000       3.73600000      37.49800000
 O      23.88200000       4.92400000      34.18200000
 H      23.57000000       4.13300000      33.65700000
 H      23.84400000       4.60500000      35.09900000
 O      24.51600000       7.85100000      33.99100000
 H      24.29900000       6.94400000      34.29500000
 H      24.86900000       8.27200000      34.77500000
 O      21.69000000       7.28700000      33.57200000
 H      21.92100000       6.34900000      33.80600000
 H      21.35700000       7.12500000      32.64100000
 O      23.47300000       1.80800000      34.61500000
 H      23.94600000       1.84700000      35.45100000
 H      23.74900000       1.02500000      34.08500000
 O      21.56500000       0.93000000      37.40300000
 H      21.41700000       1.69500000      36.67600000
 H      21.16100000       0.16400000      37.02400000
 O      19.12500000       5.01800000      36.57400000
 H      19.17200000       4.83400000      37.59400000
 H      20.00200000       5.29100000      36.34100000
 O      15.78700000       5.54900000      34.67800000
 H      15.91600000       4.73900000      35.07500000
 H      16.15400000       5.34700000      33.82000000
 O      26.68900000       5.62400000      34.51300000
 H      26.75100000       4.72100000      34.92000000
 H      25.89900000       5.53700000      33.85100000
 O      21.96100000       4.47700000      36.44600000
 H      22.03500000       5.35400000      36.97700000
 H      22.79500000       3.98100000      36.71500000
 O      16.39900000      10.23100000      34.27100000
 H      16.78600000       9.62200000      33.66800000
 H      17.11100000      10.47200000      34.92300000
 O      25.04600000       8.61500000      36.61600000
 H      25.17800000       9.47100000      37.12400000
 H      24.33800000       8.16100000      37.07800000
 O      18.77600000       7.73100000      34.11100000
 H      19.66400000       7.32900000      34.09400000
 H      18.67300000       8.28200000      34.92200000
 O      19.03000000       9.79900000      36.13700000
 H      18.68800000      10.31400000      36.86900000
 H      20.00700000       9.71300000      36.34800000
 O      20.47500000       2.56900000      35.28800000
 H      19.92800000       3.10800000      34.66900000
 H      21.03800000       3.32100000      35.79100000
 O      17.24500000       3.20000000      35.59100000
 H      17.85900000       3.75500000      36.03600000
 H      17.50200000       2.21400000      35.83600000
