114
XYZ file of cluster: frame_14000_1ec6a.1d11.c3d33 - created by MolEdiTo
 O       6.67400000       5.71500000      29.59500000
 H       6.87500000       6.61200000      29.45100000
 H       6.61100000       5.22800000      28.78300000
 O       5.25000000       5.72100000      26.75500000
 H       4.94700000       6.29600000      26.07400000
 H       4.82700000       4.85900000      26.67000000
 O      15.40300000       1.87200000      25.70600000
 H      15.91800000       2.08300000      26.43800000
 H      15.15200000       2.79400000      25.37200000
 O      14.76700000       3.73700000      28.40200000
 H      15.67800000       3.94600000      28.50400000
 H      14.38500000       4.31000000      27.73300000
 O       5.61600000       8.37200000      28.27700000
 H       4.71700000       8.13700000      28.59900000
 H       5.88300000       7.64200000      27.69800000
 O      11.74400000       3.09800000      26.34500000
 H      12.42500000       2.61100000      26.86000000
 H      11.19200000       3.58000000      26.98700000
 O       7.76900000       2.37100000      26.51800000
 H       7.02100000       2.87100000      26.35000000
 H       7.96100000       2.01900000      25.66700000
 O      16.30300000       6.75000000      26.91700000
 H      15.75500000       7.25500000      26.30100000
 H      15.68700000       6.68000000      27.65600000
 O      11.36300000       6.84700000      28.59500000
 H      11.18400000       7.60000000      27.95000000
 H      10.91600000       6.03900000      28.29000000
 O      13.73100000       5.23200000      26.45700000
 H      12.89800000       5.62200000      26.82400000
 H      13.37200000       4.45600000      25.99400000
 O      11.89700000       9.30000000      30.61600000
 H      11.47500000       8.49200000      30.29200000
 H      11.12300000       9.83700000      30.84800000
 O      14.55700000       7.15100000      29.03300000
 H      14.86600000       7.62500000      29.76800000
 H      13.59600000       7.37100000      29.12000000
 O      10.98200000       3.37400000      29.25400000
 H      10.45800000       4.21400000      29.48600000
 H      11.80700000       3.58300000      29.50600000
 O      14.58900000       9.93400000      30.21000000
 H      13.63500000       9.78100000      30.27700000
 H      14.86200000      10.09100000      31.16000000
 O       8.43700000       7.92200000      28.75600000
 H       7.69700000       8.36600000      29.29100000
 H       9.02900000       8.67000000      28.57900000
 O      13.70000000       0.75500000      30.09500000
 H      14.68800000       0.96100000      30.21300000
 H      13.36300000       0.83600000      31.01900000
 O       6.27000000      11.05800000      27.89700000
 H       6.38600000      10.09200000      28.12100000
 H       5.26500000      11.22200000      27.67000000
 O       9.42900000       5.15800000      26.97700000
 H       9.25600000       5.76400000      26.26400000
 H       8.70400000       4.46700000      26.87400000
 O      10.72900000       8.71600000      26.72000000
 H      10.33600000       8.24800000      26.01400000
 H      11.38700000       9.25400000      26.26700000
 O       4.48500000       6.06400000      36.82300000
 H       3.96000000       5.78000000      35.98700000
 H       5.40100000       5.83900000      36.48400000
 O       7.72800000       7.71900000      36.46800000
 H       8.18000000       8.49000000      36.86300000
 H       7.96200000       7.02700000      37.07700000
 O      13.34400000       8.05800000      34.61800000
 H      14.10700000       7.45500000      34.64300000
 H      12.64000000       7.60900000      34.14100000
 O       8.79300000       4.02900000      33.26600000
 H       8.78800000       4.40700000      32.39300000
 H       7.99100000       3.52200000      33.28300000
 O       7.12200000       8.38900000      33.03900000
 H       7.13200000       9.18500000      33.64500000
 H       7.96400000       8.02300000      33.34300000
 O       6.79700000       3.91500000      36.74900000
 H       7.25800000       4.54100000      37.25200000
 H       6.56400000       4.39500000      35.88600000
 O      13.76100000       2.34600000      35.09800000
 H      14.74200000       2.08200000      35.26400000
 H      13.22300000       1.58100000      35.37500000
 O       9.76800000       8.54500000      34.17700000
 H      10.12600000       7.68500000      34.54400000
 H       9.12100000       8.76700000      34.91400000
 O       9.28000000       9.93400000      37.36200000
 H      10.09800000       9.43200000      37.67100000
 H       9.58500000      10.38300000      36.59200000
 O       4.85100000       9.09100000      36.32900000
 H       5.54900000       8.38300000      36.12400000
 H       5.32900000       9.67200000      36.93500000
 O       7.12000000       1.55900000      33.72400000
 H       7.09400000       0.67400000      33.23600000
 H       7.25300000       1.23500000      34.66700000
 O      12.77900000       4.58000000      36.55900000
 H      12.87900000       4.10200000      35.70500000
 H      13.71200000       4.67200000      36.99900000
 O      11.01100000       1.48900000      33.77600000
 H      10.13900000       1.07400000      33.66200000
 H      11.23100000       1.84400000      32.86000000
 O      11.10200000       6.52800000      35.70100000
 H      10.45200000       5.92600000      36.09500000
 H      11.82600000       6.38600000      36.24500000
 O       6.40400000       5.67800000      34.73700000
 H       5.92600000       5.97000000      33.96200000
 H       7.08400000       6.27900000      35.05000000
 O      11.41000000       1.00400000      36.42000000
 H      10.82800000       0.23200000      36.54200000
 H      11.21700000       1.23800000      35.42500000
 O       9.50700000       3.87600000      35.97700000
 H       9.69600000       4.08500000      35.06300000
 H       8.74700000       3.32200000      35.86600000
 O      13.06500000       4.62500000      32.56800000
 H      13.49600000       4.94200000      33.39600000
 H      13.84000000       4.36300000      31.99600000
 O      11.99500000      10.46300000      35.18500000
 H      11.89100000      10.17000000      34.29200000
 H      12.58700000       9.66300000      35.51500000
