135
XYZ file of cluster: frame_2000_70ff.21dfb.4858f - created by MolEdiTo
 O      10.03700000       9.23900000      20.61900000
 H       9.15300000       8.82800000      20.80600000
 H      10.49900000       8.46200000      20.18100000
 O       4.95200000       5.33900000      11.22400000
 H       5.73500000       5.90300000      11.18200000
 H       5.08700000       4.99800000      12.14900000
 O       4.77900000      12.91200000      18.17100000
 H       5.48000000      12.29000000      18.45500000
 H       5.18900000      13.76900000      18.07900000
 O       1.69100000       7.88800000      13.84800000
 H       1.09100000       8.12200000      13.07500000
 H       1.33500000       8.41300000      14.56800000
 O       6.92500000      12.04700000      15.56800000
 H       6.27400000      12.73600000      15.74200000
 H       7.52800000      12.02600000      16.34200000
 O       1.60600000      10.48900000      10.34300000
 H       1.90100000      10.81400000       9.42600000
 H       2.34100000      10.78000000      10.93000000
 O       9.33500000      15.63300000      11.00100000
 H      10.11700000      16.26900000      10.87200000
 H       8.71300000      16.18600000      11.54100000
 O       8.09400000       5.80300000      15.03900000
 H       8.84000000       6.37500000      15.06200000
 H       8.33700000       4.96700000      14.57800000
 O       2.55300000      11.50500000      14.47400000
 H       2.47500000      12.29600000      15.14100000
 H       1.61700000      11.35100000      14.20300000
 O       5.15600000      10.43200000      14.08000000
 H       4.28600000      10.81800000      14.24000000
 H       5.89200000      11.12700000      14.28600000
 O       3.50600000       4.89900000      20.82100000
 H       3.79000000       5.80800000      20.58500000
 H       4.35900000       4.41200000      20.78300000
 O       2.12900000       7.90800000      17.06300000
 H       1.34900000       8.44000000      17.35600000
 H       1.69800000       7.02800000      16.95100000
 O       9.70200000       5.47000000      19.14500000
 H       9.79800000       4.49300000      19.02600000
 H       8.73400000       5.51100000      19.48300000
 O       6.84400000      12.03300000      11.27600000
 H       7.81000000      12.03700000      11.50300000
 H       6.74600000      12.28500000      10.33100000
 O       9.95900000       8.76000000      12.66900000
 H       9.59000000       9.50100000      13.21800000
 H       9.55300000       8.99500000      11.81400000
 O       2.76800000      16.14300000      13.27900000
 H       1.81000000      15.87100000      13.27900000
 H       3.08800000      15.74400000      12.42600000
 O       4.16100000       9.51400000      16.54900000
 H       3.38500000       8.85400000      16.52800000
 H       3.80700000      10.42800000      16.40100000
 O       5.97900000      15.11000000      17.27200000
 H       5.62100000      15.96000000      17.68100000
 H       5.94500000      15.40600000      16.36400000
 O       3.46200000      12.15900000      21.07100000
 H       3.76400000      11.55500000      20.31100000
 H       3.14700000      11.52600000      21.67500000
 O       7.29500000       6.61200000      10.92500000
 H       7.13900000       7.25900000      11.70700000
 H       8.29000000       6.43600000      11.00400000
 O       6.79100000       6.50400000      20.29700000
 H       7.23400000       6.80100000      19.47300000
 H       5.86800000       6.86800000      20.08600000
 O       1.52800000       8.27700000      20.29900000
 H       1.85600000       7.44500000      19.97100000
 H       1.58400000       8.16100000      21.26200000
 O       4.71000000       7.24700000      18.77900000
 H       4.30200000       8.12600000      18.65100000
 H       4.65400000       6.76100000      17.98200000
 O       8.18400000      10.64900000      13.34300000
 H       7.59500000      10.75300000      12.50700000
 H       7.86900000      11.32600000      13.98800000
 O      11.27000000       7.53500000      17.66400000
 H      10.56000000       7.07400000      18.09400000
 H      11.76700000       6.89900000      17.19800000
 O       2.00100000      14.15800000      19.48100000
 H       2.59200000      13.60600000      20.00000000
 H       2.02000000      15.03400000      19.90200000
 O       4.40900000       6.70200000      13.96500000
 H       4.17500000       6.58200000      14.91700000
 H       3.57500000       7.17200000      13.67500000
 O       3.59900000      11.86100000      11.90200000
 H       3.29300000      11.80800000      12.81000000
 H       4.53400000      11.63300000      11.90100000
 O       8.17800000      13.29000000      18.12200000
 H       7.51200000      13.95600000      17.83500000
 H       9.07200000      13.61300000      17.88700000
 O       8.63800000      13.97300000      21.27600000
 H       8.40700000      14.15400000      20.35800000
 H       9.00200000      13.04900000      21.31700000
 O       9.28800000      13.06600000      12.05900000
 H       9.68800000      12.51200000      11.36100000
 H       9.54200000      14.02500000      11.78800000
 O       7.79700000       8.18300000      18.40000000
 H       7.24800000       8.41400000      17.62100000
 H       8.60800000       8.72100000      18.26000000
 O       3.61900000       9.94800000      19.43300000
 H       3.17400000      10.41200000      18.62200000
 H       3.01800000       9.24500000      19.76300000
 O       2.47000000      13.74600000      16.21000000
 H       3.20900000      14.31900000      16.03500000
 H       2.74000000      13.52700000      17.16000000
 O       7.19100000       8.56500000      15.69400000
 H       6.49100000       9.03500000      15.18000000
 H       7.18700000       7.65600000      15.28600000
 O      10.01600000       9.89800000      15.32400000
 H       9.21300000       9.65200000      14.78900000
 H       9.75500000      10.05500000      16.21800000
 O       1.83400000      13.57300000      10.79700000
 H       2.51900000      12.91200000      11.19900000
 H       2.17900000      13.88200000       9.97800000
 O       9.51500000      10.70300000      18.24400000
 H       8.76300000      11.30200000      18.31300000
 H       9.60800000      10.41400000      19.14500000
 O       6.48500000      10.02600000      20.97700000
 H       7.07800000      10.17200000      20.20800000
 H       5.63300000      10.07500000      20.57700000
 O       6.48400000       8.24500000      13.09400000
 H       5.71100000       7.66000000      13.41300000
 H       6.15900000       9.16600000      13.34300000
 O       7.22400000      15.15800000      13.06000000
 H       6.27400000      14.91900000      12.81400000
 H       7.69200000      14.66100000      12.32800000
 O      10.37400000      11.20700000      10.19500000
 H      11.13000000      11.21800000      10.85000000
 H      10.87100000      11.26900000       9.33900000
 O       1.62800000      11.21400000      18.03900000
 H       1.46400000      11.67300000      18.86200000
 H       0.91900000      11.59900000      17.44400000
 O       6.44700000      10.74800000      18.02900000
 H       6.08800000      10.62300000      17.12500000
 H       6.12700000      10.00600000      18.59700000
 O      10.34200000      14.92900000      18.22000000
 H      10.05700000      15.67400000      17.62800000
 H      10.68000000      15.21200000      19.14700000
