138
XYZ file of cluster: frame_2000_9b136.2286c.2415b - created by MolEdiTo
 O      23.81100000       6.75200000      11.08700000
 H      24.53200000       6.63600000      11.81100000
 H      23.19200000       7.41300000      11.44000000
 O      24.84200000       6.93100000       6.23200000
 H      24.05600000       7.20600000       5.69700000
 H      24.94700000       7.77000000       6.66400000
 O      21.15800000      13.14900000       5.22100000
 H      20.18000000      13.12800000       5.34200000
 H      21.45000000      13.78700000       5.92500000
 O      23.88800000      14.06600000      12.33200000
 H      24.80700000      14.04700000      11.94800000
 H      23.56200000      14.72900000      11.61400000
 O      27.60900000       8.25900000      12.96800000
 H      28.42200000       8.39700000      12.43200000
 H      27.18200000       9.14600000      12.89000000
 O      27.17500000       7.86300000       7.65500000
 H      27.03500000       7.07600000       8.18500000
 H      27.38100000       8.53500000       8.33900000
 O      29.93900000       8.06700000      11.40600000
 H      29.55100000       7.49900000      10.64000000
 H      30.43200000       8.77800000      10.99300000
 O      22.24100000      14.25400000       8.16100000
 H      22.80200000      14.61700000       8.81800000
 H      22.61900000      13.28400000       8.06500000
 O      25.91900000      16.12800000      13.29600000
 H      25.59600000      16.03500000      12.31200000
 H      25.27600000      15.54400000      13.75400000
 O      26.65000000      11.62000000       6.63500000
 H      27.45400000      11.80400000       6.15800000
 H      26.11200000      11.02800000       6.13400000
 O      23.47100000       9.59200000      15.54100000
 H      22.51300000       9.49100000      15.21700000
 H      23.81200000      10.48900000      15.26100000
 O      26.00700000       6.00000000      12.37300000
 H      26.65800000       6.72400000      12.46300000
 H      25.66600000       5.90700000      13.26600000
 O      30.79900000       4.94300000      14.41400000
 H      31.12600000       4.89400000      13.52700000
 H      30.60100000       5.83800000      14.66900000
 O      21.30900000       7.68400000      14.60100000
 H      20.57400000       7.98500000      15.17300000
 H      21.09000000       6.75900000      14.53300000
 O      22.43800000      15.93800000      10.88200000
 H      21.76800000      15.76400000      11.58900000
 H      21.91200000      16.63000000      10.44200000
 O      24.13100000       7.25600000      13.90000000
 H      24.41600000       7.95600000      14.61700000
 H      23.11700000       7.27600000      14.04600000
 O      30.23800000      15.50200000      11.99100000
 H      29.42800000      15.68600000      11.46200000
 H      30.43600000      14.65400000      11.52500000
 O      30.14000000       6.06300000       5.30500000
 H      30.90100000       5.81000000       4.75600000
 H      30.46200000       6.96200000       5.49700000
 O      22.36700000       5.07900000      13.06000000
 H      23.17200000       4.57000000      13.41600000
 H      22.79700000       5.91100000      12.75800000
 O      25.88800000       6.13100000       9.41900000
 H      25.18400000       5.97000000       8.79000000
 H      25.37000000       6.49800000      10.20300000
 O      21.82700000       8.34700000      12.05900000
 H      21.41400000       8.29700000      12.93800000
 H      21.86100000       9.31500000      11.75500000
 O      26.54300000       9.44100000      15.58100000
 H      27.02900000       8.89700000      14.89800000
 H      26.21400000      10.03300000      14.88300000
 O      29.04900000       6.19800000       9.66900000
 H      29.49300000       5.47600000       9.16300000
 H      28.09000000       6.09200000       9.40600000
 O      26.86700000      10.46700000      10.60500000
 H      27.76100000      10.91600000      10.50700000
 H      26.21600000      11.19300000      10.42000000
 O      23.00900000      12.27500000      14.73100000
 H      23.36200000      12.87100000      13.96300000
 H      22.08100000      12.30800000      14.60000000
 O      27.64900000      16.40900000       6.24800000
 H      27.34300000      15.50200000       6.42200000
 H      27.35800000      16.66900000       5.33500000
 O      25.71700000      10.70500000      13.29400000
 H      24.70500000      10.71500000      13.27000000
 H      25.94100000      10.84200000      12.32100000
 O      21.14500000      16.65200000       8.44800000
 H      20.43000000      16.59200000       7.79100000
 H      21.49300000      15.69700000       8.37700000
 O      23.38200000      11.13500000      11.36100000
 H      22.73600000      11.35400000      10.60600000
 H      23.62100000      12.08300000      11.38200000
 O      28.21300000      14.86800000      10.13600000
 H      27.65100000      14.70000000       9.34600000
 H      29.05800000      14.51900000       9.84200000
 O      21.65000000       7.69000000       9.06900000
 H      22.42200000       7.63100000       9.67400000
 H      20.85600000       7.28800000       9.54800000
 O      24.56600000      10.29400000       5.51100000
 H      23.86300000       9.85300000       6.02100000
 H      24.25700000      10.61700000       4.65800000
 O      29.71100000      13.00000000      13.47800000
 H      29.22200000      13.76300000      13.89300000
 H      30.59800000      13.36700000      13.29300000
 O      23.32000000       5.01400000       8.18300000
 H      23.02100000       5.86600000       7.84100000
 H      23.79400000       4.49700000       7.47600000
 O      24.86900000      11.93900000       8.75100000
 H      25.51700000      11.68600000       8.03800000
 H      23.92600000      11.55700000       8.54400000
 O      29.60800000      11.01500000       6.83500000
 H      30.09400000      10.42700000       7.52900000
 H      28.74100000      11.26700000       7.09000000
 O      26.63500000      14.27500000       8.04200000
 H      26.62400000      13.36100000       7.62700000
 H      25.78900000      14.69900000       7.79900000
 O      26.33900000       6.12300000      15.64600000
 H      25.78500000       6.55500000      14.99800000
 H      25.88900000       5.25800000      15.85100000
 O      28.24300000      15.79500000      14.63300000
 H      27.32800000      15.82500000      14.23600000
 H      28.63700000      16.67000000      14.43200000
 O      30.45900000      13.65200000       5.17800000
 H      31.08800000      13.93100000       5.88200000
 H      30.88400000      12.74400000       4.97200000
 O      22.95000000       8.97300000       7.02300000
 H      22.46800000       8.48300000       7.69700000
 H      22.58800000       8.51100000       6.23000000
 O      26.92600000       8.45000000       4.84200000
 H      26.22900000       9.20200000       4.93100000
 H      26.58100000       7.74400000       5.55400000
 O      22.14300000      11.57600000       8.45400000
 H      21.32700000      11.12200000       8.91000000
 H      22.02100000      11.33000000       7.51500000
 O      26.64100000      13.58200000      12.00300000
 H      27.19000000      14.21700000      11.42800000
 H      27.29700000      12.90400000      12.28200000
 O      26.80100000      13.06900000      15.21300000
 H      26.37100000      12.92400000      14.28600000
 H      27.15200000      13.99900000      15.02100000
 O      29.30000000      12.03600000      10.86300000
 H      29.53800000      12.53500000      11.69400000
 H      30.18800000      11.55400000      10.73100000
