169
XYZ file of cluster: frame_2000_6630b.6534d.24f1d - created by MolEdiTo
 O      23.19500000      20.94400000      13.98700000
 H      22.99200000      21.69400000      14.57400000
 H      22.53700000      21.02300000      13.23400000
 O      20.13100000      16.86200000      12.64600000
 H      19.64600000      17.62200000      12.24200000
 H      20.80100000      17.09800000      13.38500000
 O      19.18700000      16.33300000       6.35600000
 H      18.45900000      16.28700000       7.00500000
 H      18.76300000      16.57600000       5.51100000
 O      23.10500000      18.27100000      14.13900000
 H      23.13000000      19.27300000      13.98300000
 H      24.09000000      18.11600000      14.28800000
 O      16.01400000      23.00100000      12.27100000
 H      16.22000000      23.77800000      11.73700000
 H      16.60000000      23.03500000      13.09000000
 O      15.15300000      21.32500000       9.33700000
 H      15.31700000      21.85100000       8.54000000
 H      16.00700000      21.32500000       9.84800000
 O      24.09600000      19.43400000       5.95400000
 H      23.61800000      18.56400000       5.83000000
 H      23.66200000      20.02700000       5.26100000
 O      25.91900000      16.12800000      13.29600000
 H      25.59600000      16.03500000      12.31200000
 H      25.27600000      15.54400000      13.75400000
 O      22.22000000      26.52800000      11.49900000
 H      22.00900000      27.49200000      11.39200000
 H      21.49600000      25.98800000      11.15100000
 O      18.02500000      22.67400000      14.96300000
 H      18.59100000      23.46900000      14.73600000
 H      18.59200000      21.85500000      14.69500000
 O      21.78800000      22.96000000      12.41700000
 H      22.19500000      23.64900000      12.94800000
 H      22.56100000      22.79400000      11.80600000
 O      25.15100000      25.35000000       7.73500000
 H      25.89700000      24.70200000       7.91600000
 H      24.58800000      24.88600000       7.07700000
 O      20.45600000      25.39300000       9.19800000
 H      19.52400000      25.63600000       9.06500000
 H      20.55400000      24.39700000       9.03900000
 O      15.27100000      26.29700000       5.37800000
 H      15.49800000      26.98500000       6.02300000
 H      16.08300000      25.75100000       5.36900000
 O      22.43800000      15.93800000      10.88200000
 H      21.76800000      15.76400000      11.58900000
 H      21.91200000      16.63000000      10.44200000
 C      16.97600000      14.82800000      15.13200000
 C      15.79000000      15.03700000      16.05600000
 C      15.98800000      17.55500000      15.90500000
 H      15.01300000      16.34500000      14.62400000
 H      16.17700000      13.18200000      14.89800000
 O      13.87800000      16.45400000      16.38800000
 O      17.80900000      15.64900000      14.90300000
 O      16.99500000      13.59600000      14.58500000
 C      15.12300000      16.35300000      15.69600000
 O      14.72100000      14.09000000      15.79900000
 H      16.14400000      14.96000000      17.13200000
 O      16.31700000      18.31500000      14.99400000
 O      16.08500000      17.83700000      17.23000000
 H      15.53700000      17.11300000      17.58800000
 H      14.09200000      14.17600000      16.58100000
 H      13.29800000      17.24400000      16.04500000
 O      19.22500000      20.32800000      14.43700000
 H      19.43500000      20.35900000      13.48300000
 H      19.00900000      19.40000000      14.68800000
 O      25.35000000      16.18200000      10.55300000
 H      26.33300000      16.21800000      10.67700000
 H      25.16400000      16.10400000       9.58500000
 O      26.05900000      20.04000000      12.25000000
 H      26.20800000      20.80700000      12.87100000
 H      26.42700000      20.21000000      11.38300000
 O      25.37200000      20.23300000       9.50700000
 H      25.84800000      19.54700000       8.98400000
 H      24.51300000      19.77200000       9.70600000
 O      17.92100000      20.98700000      10.04700000
 H      18.19200000      20.21300000       9.55800000
 H      18.51300000      21.70500000       9.70800000
 O      17.88000000      18.75900000      12.20000000
 H      17.56500000      19.50500000      11.69700000
 H      17.18600000      18.07600000      12.19200000
 O      26.23400000      18.49800000      14.60800000
 H      26.47200000      19.30100000      14.00300000
 H      26.24500000      17.65900000      14.02300000
 O      15.83100000      24.32200000       8.17000000
 H      15.78100000      25.07700000       8.73400000
 H      16.76500000      24.34400000       7.87400000
 O      26.51000000      18.51800000       7.51800000
 H      26.46200000      18.66800000       6.55300000
 H      27.03700000      17.65700000       7.47500000
 O      22.22600000      16.82300000       5.60100000
 H      21.81600000      17.09700000       4.76900000
 H      21.48300000      16.40400000       6.08800000
 O      20.03800000      22.64000000       9.83100000
 H      20.46100000      21.84100000       9.49700000
 H      20.45700000      22.82800000      10.68100000
 O      21.14500000      16.65200000       8.44800000
 H      20.43000000      16.59200000       7.79100000
 H      21.49300000      15.69700000       8.37700000
 O      18.42700000      16.15600000      10.05900000
 H      18.89000000      15.66800000      10.73100000
 H      17.78600000      16.74500000      10.60000000
 O      21.27600000      20.40800000       8.84900000
 H      21.80600000      19.64700000       9.20100000
 H      21.92400000      21.13100000       8.48800000
 O      24.50300000      15.92600000       7.50300000
 H      23.71800000      15.90800000       6.85000000
 H      24.31000000      16.85800000       7.86000000
 O      23.82500000      24.77400000      12.89600000
 H      24.47000000      25.45600000      12.91500000
 H      23.11700000      25.31300000      12.42500000
 O      18.83100000      26.40700000       5.71700000
 H      18.22800000      26.64500000       6.43800000
 H      19.04400000      25.41300000       5.84800000
 O      15.19500000      22.17400000      15.61900000
 H      16.14400000      22.17100000      15.28000000
 H      15.11700000      21.34700000      16.14500000
 O      16.63500000      15.33600000       7.71400000
 H      16.49700000      15.98200000       8.44900000
 H      16.83500000      14.45400000       8.13400000
 O      17.78700000      24.93100000      10.68100000
 H      18.68400000      24.69300000      10.94900000
 H      17.67100000      25.82600000      11.05600000
 O      19.55300000      24.33900000      13.49900000
 H      20.23400000      24.78600000      14.09700000
 H      20.13400000      23.65900000      13.08600000
 O      21.69200000      25.09900000      15.01100000
 H      22.59800000      24.69400000      15.17500000
 H      21.47600000      25.38000000      15.92000000
 O      22.88600000      19.43300000      11.23000000
 H      22.40900000      18.60300000      11.42200000
 H      23.69700000      19.33200000      11.69000000
 O      23.22300000      21.98700000       7.80800000
 H      23.95200000      22.57900000       7.75800000
 H      23.53300000      21.18200000       7.39100000
 O      24.23700000      22.44500000      10.87100000
 H      24.22300000      21.47700000      10.61700000
 H      24.74500000      22.86900000      10.14700000
 O      26.82200000      21.47400000       5.99900000
 H      26.37500000      20.66300000       5.75000000
 H      27.70200000      21.30200000       5.58600000
 O      16.72000000      26.03000000      14.00000000
 H      17.22600000      25.39400000      13.49800000
 H      16.07000000      26.32500000      13.35300000
 O      22.92900000      24.59600000       6.23900000
 H      22.18900000      24.10400000       5.93500000
 H      22.57400000      25.51500000       6.01500000
 O      18.85300000      19.18200000       8.12500000
 H      19.08600000      18.34200000       7.71600000
 H      19.74000000      19.45000000       8.39100000
 O      23.56300000      18.42500000       8.42700000
 H      22.60200000      18.29300000       8.17400000
 H      23.98800000      18.64200000       7.56900000
 O      26.13200000      22.90800000       8.58400000
 H      26.07300000      22.00900000       9.02700000
 H      26.66400000      22.82000000       7.81900000
 O      18.03000000      23.75800000       6.67100000
 H      17.37400000      23.99300000       6.02500000
 H      17.92900000      22.79900000       6.77300000
 O      25.58000000      22.57000000      13.33900000
 H      24.92600000      23.24600000      13.69900000
 H      25.35200000      22.65000000      12.37000000
 O      16.99300000      20.92700000       6.89000000
 H      16.44100000      20.40400000       6.26000000
 H      17.58300000      20.22600000       7.35100000
 O      21.70700000      19.34100000      16.54400000
 H      21.03300000      18.68000000      16.74700000
 H      21.91800000      19.19900000      15.62900000
 O      15.97600000      17.09200000      11.43900000
 H      15.29800000      17.72400000      11.27400000
 H      15.58200000      16.22700000      11.25400000
