148
XYZ file of cluster: frame_2000_4f171.4bb97.28012 - created by MolEdiTo
 O      12.17800000      18.52500000      16.17500000
 H      11.26600000      18.20800000      16.52200000
 H      11.92000000      19.26400000      15.57400000
 O      14.07200000      15.00900000       6.11600000
 H      14.08000000      15.08100000       5.16400000
 H      15.05600000      15.01000000       6.27200000
 O      12.73000000      11.33300000      11.89700000
 H      12.29200000      11.57600000      12.75600000
 H      13.68000000      11.55600000      12.01600000
 O      14.12400000      19.00300000      11.00400000
 H      13.76600000      19.60100000      10.33600000
 H      14.49300000      19.63900000      11.62600000
 O      12.32500000      13.42500000       7.49900000
 H      12.39900000      12.44600000       7.30000000
 H      12.85800000      13.82300000       6.81000000
 O      21.15800000      13.14900000       5.22100000
 H      20.18000000      13.12800000       5.34200000
 H      21.45000000      13.78700000       5.92500000
 O      20.13100000      16.86200000      12.64600000
 H      19.64600000      17.62200000      12.24200000
 H      20.80100000      17.09800000      13.38500000
 O      19.18700000      16.33300000       6.35600000
 H      18.45900000      16.28700000       7.00500000
 H      18.76300000      16.57600000       5.51100000
 O      13.55600000      15.41900000       9.55000000
 H      12.73100000      15.78500000       9.99900000
 H      13.26400000      14.79100000       8.84900000
 O      13.14700000      14.63900000      13.38100000
 H      13.75600000      14.41400000      12.65100000
 H      13.76400000      14.38600000      14.15700000
 O      19.63600000      13.47600000       8.39800000
 H      20.49900000      13.85200000       8.15500000
 H      19.96000000      13.04100000       9.24700000
 O      17.95900000      12.78100000       5.72000000
 H      18.09900000      13.49500000       6.39800000
 H      18.33900000      11.99100000       6.13300000
 O      11.02800000      16.30800000       8.05100000
 H      11.02500000      15.52900000       7.52600000
 H      10.72900000      17.12400000       7.52800000
 O      14.62400000      11.63800000      14.23300000
 H      13.93500000      12.07000000      14.85800000
 H      14.30300000      10.69800000      14.00300000
 O      13.33700000      17.56900000       5.87100000
 H      13.18400000      16.65000000       6.25200000
 H      13.63700000      18.06500000       6.62100000
 O      11.15100000      19.78200000       8.40100000
 H      10.32500000      19.46300000       8.86700000
 H      11.02900000      19.32100000       7.45700000
 C      16.97600000      14.82800000      15.13200000
 C      15.79000000      15.03700000      16.05600000
 C      15.98800000      17.55500000      15.90500000
 H      15.01300000      16.34500000      14.62400000
 H      16.17700000      13.18200000      14.89800000
 O      13.87800000      16.45400000      16.38800000
 O      17.80900000      15.64900000      14.90300000
 O      16.99500000      13.59600000      14.58500000
 C      15.12300000      16.35300000      15.69600000
 O      14.72100000      14.09000000      15.79900000
 H      16.14400000      14.96000000      17.13200000
 O      16.31700000      18.31500000      14.99400000
 O      16.08500000      17.83700000      17.23000000
 H      15.53700000      17.11300000      17.58800000
 H      14.09200000      14.17600000      16.58100000
 H      13.29800000      17.24400000      16.04500000
 O      15.20900000      20.38000000      13.27100000
 H      15.73200000      19.62100000      13.66800000
 H      15.82100000      21.10900000      12.96800000
 O      11.65100000      10.76500000       7.46800000
 H      11.47700000      10.33900000       6.62400000
 H      12.60800000      10.54600000       7.67900000
 O      15.42100000      14.27500000      11.19200000
 H      14.78100000      14.67500000      10.55800000
 H      16.28800000      14.02500000      10.72200000
 O      19.22500000      20.32800000      14.43700000
 H      19.43500000      20.35900000      13.48300000
 H      19.00900000      19.40000000      14.68800000
 O      20.30600000      11.45700000      13.88700000
 H      20.16400000      12.20900000      14.55500000
 H      20.31900000      10.70400000      14.47800000
 O      11.18700000      17.72300000      10.73400000
 H      11.87600000      18.26100000      11.20500000
 H      11.68900000      17.41200000       9.92700000
 O      10.49800000      18.63900000       6.21700000
 H      10.29200000      19.39000000       5.48700000
 H      11.15500000      18.04000000       5.72300000
 O      18.77700000      14.28600000      12.34100000
 H      18.55100000      15.17400000      12.73700000
 H      18.80200000      13.69800000      13.13100000
 O      17.92100000      20.98700000      10.04700000
 H      18.19200000      20.21300000       9.55800000
 H      18.51300000      21.70500000       9.70800000
 O      17.88000000      18.75900000      12.20000000
 H      17.56500000      19.50500000      11.69700000
 H      17.18600000      18.07600000      12.19200000
 O      13.38400000      20.35500000       7.20800000
 H      13.94300000      20.89700000       7.81400000
 H      12.59300000      20.32300000       7.84500000
 O      19.33000000      10.76800000       7.17000000
 H      19.48700000       9.86300000       6.74700000
 H      19.38900000      10.58900000       8.13800000
 O      14.39400000      11.90400000       5.63700000
 H      15.16900000      12.49700000       5.83900000
 H      14.47500000      11.17100000       6.22600000
 O      21.14500000      16.65200000       8.44800000
 H      20.43000000      16.59200000       7.79100000
 H      21.49300000      15.69700000       8.37700000
 O      18.42700000      16.15600000      10.05900000
 H      18.89000000      15.66800000      10.73100000
 H      17.78600000      16.74500000      10.60000000
 O      11.31600000      11.94100000      13.93800000
 H      10.78800000      11.31200000      14.53800000
 H      10.63600000      12.36700000      13.41100000
 O      17.16400000      12.85000000       8.95000000
 H      16.91400000      11.86600000       8.90300000
 H      18.10900000      12.91700000       8.86000000
 O      16.63500000      15.33600000       7.71400000
 H      16.49700000      15.98200000       8.44900000
 H      16.83500000      14.45400000       8.13400000
 O      10.73700000      14.86300000      15.02600000
 H      11.23200000      14.99100000      14.19300000
 H      11.40900000      14.37900000      15.53400000
 O      20.45100000      12.54100000      10.98000000
 H      19.76900000      13.23600000      11.34600000
 H      20.46800000      11.97300000      11.74100000
 O      20.23900000      13.66400000      15.30600000
 H      19.90300000      13.88800000      16.20400000
 H      20.36200000      14.64800000      15.08200000
 O      21.70700000      19.34100000      16.54400000
 H      21.03300000      18.68000000      16.74700000
 H      21.91800000      19.19900000      15.62900000
 O      18.85300000      19.18200000       8.12500000
 H      19.08600000      18.34200000       7.71600000
 H      19.74000000      19.45000000       8.39100000
 O      10.37400000      11.20700000      10.19500000
 H      11.13000000      11.21800000      10.85000000
 H      10.87100000      11.26900000       9.33900000
 O      17.93900000      10.78600000      12.27900000
 H      17.30400000      11.25800000      12.79200000
 H      18.76500000      10.84500000      12.86800000
 O      16.99300000      20.92700000       6.89000000
 H      16.44100000      20.40400000       6.26000000
 H      17.58300000      20.22600000       7.35100000
 O      12.22200000      20.77700000      14.30600000
 H      11.84400000      21.63100000      14.06800000
 H      12.94500000      20.64100000      13.66700000
 O      15.97600000      17.09200000      11.43900000
 H      15.29800000      17.72400000      11.27400000
 H      15.58200000      16.22700000      11.25400000
