114
XYZ file of cluster: frame_2000_48c40.2966.1dff - created by MolEdiTo
 O      20.59300000       4.99300000       5.00000000
 H      20.64300000       4.07400000       5.25800000
 H      20.94600000       4.92500000       4.04300000
 O      19.09900000       6.86200000      10.36900000
 H      18.18400000       7.20400000      10.11500000
 H      19.18900000       5.90200000      10.54600000
 O      18.36000000       8.55300000       1.07900000
 H      17.39700000       8.39300000       1.24600000
 H      18.29400000       9.54300000       1.20100000
 O      20.01100000       1.17600000       8.05700000
 H      20.88600000       0.89100000       7.66100000
 H      20.05500000       2.18300000       7.99700000
 O      11.44400000       6.22100000       3.29300000
 H      12.05100000       5.97100000       3.99400000
 H      11.05100000       7.05800000       3.57500000
 O      11.97400000       1.69700000       6.04600000
 H      12.90100000       1.88300000       6.31000000
 H      11.40000000       1.89700000       6.89000000
 O      10.59200000       1.75800000       8.84600000
 H       9.72200000       1.90300000       9.35900000
 H      11.14900000       2.33700000       9.38700000
 O      14.35900000       6.25400000       8.24200000
 H      15.03800000       6.96700000       8.03600000
 H      14.29300000       6.46100000       9.14000000
 O      15.59500000       2.02000000       1.38700000
 H      16.23200000       2.71200000       1.50200000
 H      15.25700000       1.85100000       2.25000000
 O      20.17400000       6.87600000       2.23400000
 H      19.95000000       5.97700000       2.01000000
 H      19.30200000       7.23700000       2.03400000
 O      12.69700000       3.48900000       9.65200000
 H      13.44300000       3.26400000      10.24800000
 H      12.85600000       4.35700000       9.27700000
 O      11.65100000      10.76500000       7.46800000
 H      11.47700000      10.33900000       6.62400000
 H      12.60800000      10.54600000       7.67900000
 O      14.45800000       2.04900000       7.19700000
 H      14.72200000       2.61600000       7.92400000
 H      15.27200000       1.57900000       6.96500000
 O      19.57500000       4.10700000       1.06600000
 H      19.90600000       3.68400000       0.24200000
 H      18.65500000       3.93000000       0.93600000
 O      15.62600000       7.84200000       1.71200000
 H      14.84300000       7.39600000       2.03500000
 H      16.13000000       7.08200000       1.37900000
 O      13.82300000       5.25700000       5.45500000
 H      13.98000000       5.72700000       6.37200000
 H      14.26200000       4.45600000       5.53300000
 O      19.33000000      10.76800000       7.17000000
 H      19.48700000       9.86300000       6.74700000
 H      19.38900000      10.58900000       8.13800000
 O      10.05100000       2.93400000       1.12500000
 H       9.46900000       3.29600000       0.44900000
 H      10.80000000       2.55400000       0.57500000
 O      21.65000000       7.69000000       9.06900000
 H      22.42200000       7.63100000       9.67400000
 H      20.85600000       7.28800000       9.54800000
 O      10.82800000       7.42900000       9.70000000
 H      10.48700000       6.56500000       9.88500000
 H      11.11700000       7.49000000       8.74400000
 O      21.41000000      10.38800000       4.39000000
 H      22.19900000      10.45400000       3.85200000
 H      21.09500000      11.27100000       4.34000000
 O      16.59100000       2.57200000       9.91500000
 H      16.86500000       3.48200000       9.63600000
 H      17.47400000       2.15700000      10.10100000
 O      17.14600000       4.75300000       8.02500000
 H      16.88800000       5.10600000       7.16900000
 H      17.88000000       5.40300000       8.22400000
 O      14.65800000       1.28200000       3.92100000
 H      14.60100000       1.76200000       4.79200000
 H      14.76100000       0.33700000       4.24800000
 O      16.81800000      10.22000000       9.68400000
 H      16.64700000       9.27900000       9.85000000
 H      17.33400000      10.52500000      10.46900000
 O      16.17800000       7.95400000       6.60300000
 H      17.11100000       8.34900000       6.67100000
 H      15.91600000       8.04800000       5.64700000
 O      11.18300000       2.94200000       3.61900000
 H      10.33900000       2.46200000       3.75300000
 H      11.73300000       2.88300000       4.41100000
 O      14.86700000       9.39800000       4.46400000
 H      14.85200000      10.35100000       4.32200000
 H      14.66100000       8.95000000       3.63400000
 O      12.77500000       4.42400000       1.32000000
 H      11.85200000       4.46000000       1.74900000
 H      12.87300000       3.51900000       1.01600000
 O      10.87100000       6.39100000       6.70400000
 H      10.70800000       5.38300000       6.83500000
 H      10.00700000       6.54800000       6.18400000
 O      14.27200000      10.14500000       7.67100000
 H      14.44900000       9.17200000       7.55800000
 H      15.05900000      10.37200000       8.22000000
 O      19.73300000       2.19900000       5.33400000
 H      19.35700000       1.85800000       4.51400000
 H      20.53900000       1.65400000       5.55900000
 O      17.18800000       3.58400000       4.45500000
 H      16.81500000       2.73300000       4.23600000
 H      18.05300000       3.39900000       4.90400000
 O      19.65400000       5.96200000       7.42800000
 H      20.10500000       5.57100000       6.62800000
 H      20.10900000       6.77000000       7.45900000
 O      20.22500000       9.74900000       9.75100000
 H      19.86900000       8.94800000      10.15200000
 H      21.05900000       9.43700000       9.33800000
 O      14.42800000       5.67800000       2.99400000
 H      13.76600000       5.40200000       2.33900000
 H      14.16400000       5.41500000       3.95200000
 O      19.38500000       8.62600000       5.49500000
 H      20.09600000       9.05000000       4.92600000
 H      18.76700000       8.06700000       4.98000000
 O      17.37200000       6.47000000       4.08400000
 H      17.89400000       5.62100000       4.34900000
 H      16.41500000       6.22900000       3.81400000
