163
XYZ file of cluster: frame_2000_2032d.4b438.4858f - created by MolEdiTo
 O       4.77900000      12.91200000      18.17100000
 H       5.48000000      12.29000000      18.45500000
 H       5.18900000      13.76900000      18.07900000
 O      12.17800000      18.52500000      16.17500000
 H      11.26600000      18.20800000      16.52200000
 H      11.92000000      19.26400000      15.57400000
 O      12.69100000      10.26800000      17.85700000
 H      12.01200000       9.80300000      17.31500000
 H      12.47000000      11.14800000      18.18300000
 O       5.43800000      20.86200000      15.37300000
 H       6.17000000      21.45400000      15.67500000
 H       5.96200000      20.24100000      14.75100000
 O       6.92500000      12.04700000      15.56800000
 H       6.27400000      12.73600000      15.74200000
 H       7.52800000      12.02600000      16.34200000
 O      12.73000000      11.33300000      11.89700000
 H      12.29200000      11.57600000      12.75600000
 H      13.68000000      11.55600000      12.01600000
 O       9.33500000      15.63300000      11.00100000
 H      10.11700000      16.26900000      10.87200000
 H       8.71300000      16.18600000      11.54100000
 O      14.12400000      19.00300000      11.00400000
 H      13.76600000      19.60100000      10.33600000
 H      14.49300000      19.63900000      11.62600000
 O      15.73800000      11.06500000      21.05100000
 H      14.75800000      11.00800000      21.00700000
 H      15.93000000      11.85700000      21.59900000
 O       5.15600000      10.43200000      14.08000000
 H       4.28600000      10.81800000      14.24000000
 H       5.89200000      11.12700000      14.28600000
 O       8.93500000      16.59200000      14.49600000
 H       9.66400000      15.93900000      14.82700000
 H       8.31200000      15.98500000      13.99900000
 O      13.14700000      14.63900000      13.38100000
 H      13.75600000      14.41400000      12.65100000
 H      13.76400000      14.38600000      14.15700000
 O       6.84400000      12.03300000      11.27600000
 H       7.81000000      12.03700000      11.50300000
 H       6.74600000      12.28500000      10.33100000
 O       9.76400000      17.72400000      16.97300000
 H       9.26700000      17.53200000      16.10700000
 H       9.01500000      18.17300000      17.41400000
 O      14.62400000      11.63800000      14.23300000
 H      13.93500000      12.07000000      14.85800000
 H      14.30300000      10.69800000      14.00300000
 O       5.97900000      15.11000000      17.27200000
 H       5.62100000      15.96000000      17.68100000
 H       5.94500000      15.40600000      16.36400000
 O      12.89400000      13.96200000      17.83900000
 H      13.03000000      13.39200000      18.62400000
 H      11.87700000      14.22400000      17.93800000
 C      16.97600000      14.82800000      15.13200000
 C      15.79000000      15.03700000      16.05600000
 C      15.98800000      17.55500000      15.90500000
 H      15.01300000      16.34500000      14.62400000
 H      16.17700000      13.18200000      14.89800000
 O      13.87800000      16.45400000      16.38800000
 O      17.80900000      15.64900000      14.90300000
 O      16.99500000      13.59600000      14.58500000
 C      15.12300000      16.35300000      15.69600000
 O      14.72100000      14.09000000      15.79900000
 H      16.14400000      14.96000000      17.13200000
 O      16.31700000      18.31500000      14.99400000
 O      16.08500000      17.83700000      17.23000000
 H      15.53700000      17.11300000      17.58800000
 H      14.09200000      14.17600000      16.58100000
 H      13.29800000      17.24400000      16.04500000
 O      15.20900000      20.38000000      13.27100000
 H      15.73200000      19.62100000      13.66800000
 H      15.82100000      21.10900000      12.96800000
 O      15.42100000      14.27500000      11.19200000
 H      14.78100000      14.67500000      10.55800000
 H      16.28800000      14.02500000      10.72200000
 O      16.31700000      17.72100000      20.72800000
 H      15.80400000      17.23100000      20.02200000
 H      16.76300000      18.48700000      20.31800000
 O       7.84700000      21.16500000      13.65700000
 H       8.43100000      20.61200000      13.11400000
 H       7.89300000      22.08400000      13.27400000
 O      11.18700000      17.72300000      10.73400000
 H      11.87600000      18.26100000      11.20500000
 H      11.68900000      17.41200000       9.92700000
 O      14.60400000      16.58400000      19.05500000
 H      14.16500000      16.13900000      19.79400000
 H      13.86000000      16.53800000      18.35900000
 O      11.66500000      12.75900000      20.29800000
 H      11.97700000      13.20700000      21.11900000
 H      10.83700000      13.19700000      20.20900000
 O       8.18400000      10.64900000      13.34300000
 H       7.59500000      10.75300000      12.50700000
 H       7.86900000      11.32600000      13.98800000
 O      11.97800000      18.69400000      19.79300000
 H      12.24600000      19.36800000      20.36400000
 H      11.52800000      19.35400000      19.19300000
 O       5.12900000      16.26500000      14.96300000
 H       5.56000000      16.96300000      14.37200000
 H       4.19000000      16.27600000      14.77100000
 O      11.69800000      15.96300000      20.29100000
 H      11.95900000      16.92900000      20.34700000
 H      11.21600000      15.84000000      21.16400000
 O       8.17800000      13.29000000      18.12200000
 H       7.51200000      13.95600000      17.83500000
 H       9.07200000      13.61300000      17.88700000
 O       8.63800000      13.97300000      21.27600000
 H       8.40700000      14.15400000      20.35800000
 H       9.00200000      13.04900000      21.31700000
 O      16.17100000      11.02300000      17.29200000
 H      16.44100000      10.19700000      16.78300000
 H      15.44600000      10.94800000      17.92200000
 O       5.06200000      19.79300000      11.29300000
 H       4.98600000      19.49600000      10.36800000
 H       5.34000000      20.74200000      11.23600000
 O      11.31600000      11.94100000      13.93800000
 H      10.78800000      11.31200000      14.53800000
 H      10.63600000      12.36700000      13.41100000
 O       8.87600000      18.56700000      20.52500000
 H       9.30700000      18.06100000      21.16900000
 H       9.53200000      19.18400000      20.17700000
 O       9.28800000      13.06600000      12.05900000
 H       9.68800000      12.51200000      11.36100000
 H       9.54200000      14.02500000      11.78800000
 O       4.57400000      16.25600000      10.97300000
 H       5.42000000      16.62000000      11.33500000
 H       4.60800000      16.52900000      10.05400000
 O      10.73700000      14.86300000      15.02600000
 H      11.23200000      14.99100000      14.19300000
 H      11.40900000      14.37900000      15.53400000
 O       9.11000000      18.61100000      12.41300000
 H       9.20500000      17.95500000      13.12200000
 H       9.84400000      18.48600000      11.88800000
 O       9.51500000      10.70300000      18.24400000
 H       8.76300000      11.30200000      18.31300000
 H       9.60800000      10.41400000      19.14500000
 O       5.96900000      18.09800000      13.24700000
 H       5.72100000      18.57400000      12.36200000
 H       6.90700000      18.46800000      13.47600000
 O       7.22400000      15.15800000      13.06000000
 H       6.27400000      14.91900000      12.81400000
 H       7.69200000      14.66100000      12.32800000
 O      10.37400000      11.20700000      10.19500000
 H      11.13000000      11.21800000      10.85000000
 H      10.87100000      11.26900000       9.33900000
 O      10.51300000      21.03300000      19.75900000
 H      10.50500000      21.73700000      20.46300000
 H      10.52100000      21.49200000      18.86100000
 O       6.77400000      16.73900000      21.06200000
 H       7.55900000      16.71800000      20.54400000
 H       6.17000000      17.25400000      20.46300000
 O       6.44700000      10.74800000      18.02900000
 H       6.08800000      10.62300000      17.12500000
 H       6.12700000      10.00600000      18.59700000
 O      14.32300000      20.41800000      18.14100000
 H      13.54300000      19.85900000      18.02100000
 H      14.94600000      19.90700000      18.63500000
 O      12.22200000      20.77700000      14.30600000
 H      11.84400000      21.63100000      14.06800000
 H      12.94500000      20.64100000      13.66700000
 O      15.97600000      17.09200000      11.43900000
 H      15.29800000      17.72400000      11.27400000
 H      15.58200000      16.22700000      11.25400000
 O      10.34200000      14.92900000      18.22000000
 H      10.05700000      15.67400000      17.62800000
 H      10.68000000      15.21200000      19.14700000
