163
XYZ file of cluster: frame_2000_20efb.22362.23b48 - created by MolEdiTo
 O       4.95200000       5.33900000      11.22400000
 H       5.73500000       5.90300000      11.18200000
 H       5.08700000       4.99800000      12.14900000
 O      14.07200000      15.00900000       6.11600000
 H      14.08000000      15.08100000       5.16400000
 H      15.05600000      15.01000000       6.27200000
 O       7.05900000      14.44200000       9.16500000
 H       7.33500000      15.38900000       9.11100000
 H       7.84800000      14.03500000       8.83300000
 O       6.92500000      12.04700000      15.56800000
 H       6.27400000      12.73600000      15.74200000
 H       7.52800000      12.02600000      16.34200000
 O       8.49900000       7.22200000       4.92800000
 H       8.47100000       6.29900000       4.60900000
 H       7.78600000       7.45500000       5.57800000
 O      12.73000000      11.33300000      11.89700000
 H      12.29200000      11.57600000      12.75600000
 H      13.68000000      11.55600000      12.01600000
 O       9.33500000      15.63300000      11.00100000
 H      10.11700000      16.26900000      10.87200000
 H       8.71300000      16.18600000      11.54100000
 O      12.32500000      13.42500000       7.49900000
 H      12.39900000      12.44600000       7.30000000
 H      12.85800000      13.82300000       6.81000000
 O       8.09400000       5.80300000      15.03900000
 H       8.84000000       6.37500000      15.06200000
 H       8.33700000       4.96700000      14.57800000
 O       5.15600000      10.43200000      14.08000000
 H       4.28600000      10.81800000      14.24000000
 H       5.89200000      11.12700000      14.28600000
 O      13.55600000      15.41900000       9.55000000
 H      12.73100000      15.78500000       9.99900000
 H      13.26400000      14.79100000       8.84900000
 O      15.31800000       8.22200000      13.52300000
 H      14.36000000       7.94500000      13.41700000
 H      15.45100000       8.23400000      14.47200000
 O      13.14700000      14.63900000      13.38100000
 H      13.75600000      14.41400000      12.65100000
 H      13.76400000      14.38600000      14.15700000
 O       6.84400000      12.03300000      11.27600000
 H       7.81000000      12.03700000      11.50300000
 H       6.74600000      12.28500000      10.33100000
 O      14.35900000       6.25400000       8.24200000
 H      15.03800000       6.96700000       8.03600000
 H      14.29300000       6.46100000       9.14000000
 O       9.95900000       8.76000000      12.66900000
 H       9.59000000       9.50100000      13.21800000
 H       9.55300000       8.99500000      11.81400000
 O      11.02800000      16.30800000       8.05100000
 H      11.02500000      15.52900000       7.52600000
 H      10.72900000      17.12400000       7.52800000
 O      14.62400000      11.63800000      14.23300000
 H      13.93500000      12.07000000      14.85800000
 H      14.30300000      10.69800000      14.00300000
 O       8.70700000       9.29000000       9.72100000
 H       9.24100000      10.02500000      10.08800000
 H       9.38900000       8.60800000       9.57800000
 C      16.97600000      14.82800000      15.13200000
 C      15.79000000      15.03700000      16.05600000
 C      15.98800000      17.55500000      15.90500000
 H      15.01300000      16.34500000      14.62400000
 H      16.17700000      13.18200000      14.89800000
 O      13.87800000      16.45400000      16.38800000
 O      17.80900000      15.64900000      14.90300000
 O      16.99500000      13.59600000      14.58500000
 C      15.12300000      16.35300000      15.69600000
 O      14.72100000      14.09000000      15.79900000
 H      16.14400000      14.96000000      17.13200000
 O      16.31700000      18.31500000      14.99400000
 O      16.08500000      17.83700000      17.23000000
 H      15.53700000      17.11300000      17.58800000
 H      14.09200000      14.17600000      16.58100000
 H      13.29800000      17.24400000      16.04500000
 O      11.65100000      10.76500000       7.46800000
 H      11.47700000      10.33900000       6.62400000
 H      12.60800000      10.54600000       7.67900000
 O      15.42100000      14.27500000      11.19200000
 H      14.78100000      14.67500000      10.55800000
 H      16.28800000      14.02500000      10.72200000
 O      11.28500000       6.83900000      14.24200000
 H      11.85200000       7.54600000      14.54300000
 H      10.79300000       7.44400000      13.65900000
 O      13.01200000       8.46700000      11.68700000
 H      12.27000000       8.31500000      11.14400000
 H      12.67700000       9.27000000      12.16900000
 O       7.29500000       6.61200000      10.92500000
 H       7.13900000       7.25900000      11.70700000
 H       8.29000000       6.43600000      11.00400000
 O      12.65400000       9.31300000      15.21800000
 H      11.67700000       9.39700000      15.22800000
 H      13.06600000       9.51300000      16.10500000
 O      13.45600000       5.82100000      11.11500000
 H      13.36900000       5.61500000      12.05400000
 H      13.13700000       6.75000000      11.15100000
 O       8.18400000      10.64900000      13.34300000
 H       7.59500000      10.75300000      12.50700000
 H       7.86900000      11.32600000      13.98800000
 O       9.93800000      14.45000000       6.19800000
 H       9.36100000      15.07000000       5.82400000
 H      10.46800000      14.17900000       5.44700000
 O      13.82300000       5.25700000       5.45500000
 H      13.98000000       5.72700000       6.37200000
 H      14.26200000       4.45600000       5.53300000
 O       4.47300000      13.98700000       8.64900000
 H       5.34900000      14.27700000       9.02800000
 H       4.59700000      12.97400000       8.67100000
 O       8.86600000      12.55600000       8.26900000
 H       9.55400000      13.02100000       7.68900000
 H       9.38300000      11.91100000       8.78700000
 O      14.39400000      11.90400000       5.63700000
 H      15.16900000      12.49700000       5.83900000
 H      14.47500000      11.17100000       6.22600000
 O      10.82800000       7.42900000       9.70000000
 H      10.48700000       6.56500000       9.88500000
 H      11.11700000       7.49000000       8.74400000
 O       6.35900000       8.49600000       6.42500000
 H       6.64700000       8.23800000       7.34200000
 H       6.26300000       9.53700000       6.49000000
 O       5.75400000       9.13200000       9.53300000
 H       5.78300000      10.08100000       9.21400000
 H       6.74000000       8.84400000       9.76000000
 O      11.31600000      11.94100000      13.93800000
 H      10.78800000      11.31200000      14.53800000
 H      10.63600000      12.36700000      13.41100000
 O       9.28800000      13.06600000      12.05900000
 H       9.68800000      12.51200000      11.36100000
 H       9.54200000      14.02500000      11.78800000
 O      10.73700000      14.86300000      15.02600000
 H      11.23200000      14.99100000      14.19300000
 H      11.40900000      14.37900000      15.53400000
 O      10.87100000       6.39100000       6.70400000
 H      10.70800000       5.38300000       6.83500000
 H      10.00700000       6.54800000       6.18400000
 O      14.27200000      10.14500000       7.67100000
 H      14.44900000       9.17200000       7.55800000
 H      15.05900000      10.37200000       8.22000000
 O       7.19100000       8.56500000      15.69400000
 H       6.49100000       9.03500000      15.18000000
 H       7.18700000       7.65600000      15.28600000
 O       7.84100000       6.29800000       7.95000000
 H       8.32400000       5.49800000       7.78800000
 H       7.53900000       6.30400000       8.94400000
 O       5.47500000       4.91500000       6.67300000
 H       4.92400000       5.18900000       5.98000000
 H       6.32800000       5.36400000       6.50500000
 O      10.01600000       9.89800000      15.32400000
 H       9.21300000       9.65200000      14.78900000
 H       9.75500000      10.05500000      16.21800000
 O       6.15800000      11.65300000       8.09600000
 H       7.08600000      11.75300000       8.01900000
 H       5.83000000      12.23000000       7.32800000
 O       6.48400000       8.24500000      13.09400000
 H       5.71100000       7.66000000      13.41300000
 H       6.15900000       9.16600000      13.34300000
 O       7.22400000      15.15800000      13.06000000
 H       6.27400000      14.91900000      12.81400000
 H       7.69200000      14.66100000      12.32800000
 O      16.33000000       7.68300000      10.96500000
 H      16.62000000       6.74700000      11.25600000
 H      15.77800000       8.05900000      11.68400000
 O      10.37400000      11.20700000      10.19500000
 H      11.13000000      11.21800000      10.85000000
 H      10.87100000      11.26900000       9.33900000
