102
XYZ file of cluster: frame_2000_c9916.4c15d.9ab03 - created by MolEdiTo
 O      29.60900000      19.55400000      24.23200000
 H      30.44800000      19.81700000      24.61800000
 H      29.76100000      18.67400000      23.86500000
 O      30.37300000      13.83300000      22.81200000
 H      31.18300000      13.55000000      23.29400000
 H      30.12400000      14.62100000      23.28100000
 O      27.06500000      18.02200000      29.27500000
 H      26.42500000      18.76600000      29.23600000
 H      26.75200000      17.27800000      28.62200000
 O      30.80200000      17.70900000      21.85100000
 H      30.77900000      18.35400000      21.08500000
 H      30.22000000      16.95700000      21.49000000
 O      29.52500000      15.27900000      28.54100000
 H      29.25200000      15.96800000      27.80000000
 H      29.38000000      14.51100000      28.01500000
 O      26.45700000      11.40700000      24.43500000
 H      27.43900000      11.50400000      24.41100000
 H      26.23000000      11.40600000      23.49100000
 O      28.88300000      21.02900000      22.00100000
 H      29.28900000      20.39100000      22.65100000
 H      29.04400000      20.60300000      21.13400000
 O      26.73800000      19.24600000      21.43600000
 H      26.58500000      18.71800000      22.21100000
 H      27.36800000      19.90600000      21.75200000
 O      27.41700000      16.75300000      22.95500000
 H      26.62200000      16.60500000      22.41100000
 H      28.11200000      16.36000000      22.36600000
 O      28.83600000      11.31500000      27.77000000
 H      29.77200000      11.30300000      28.25400000
 H      28.98100000      12.03800000      27.14300000
 O      30.13100000      12.41100000      20.60800000
 H      30.16600000      13.21700000      19.96800000
 H      30.38100000      12.87200000      21.45300000
 O      30.10800000      18.56800000      30.01300000
 H      30.59300000      19.45000000      29.56800000
 H      29.48300000      18.19800000      29.38200000
 O      27.06000000      11.53700000      21.72500000
 H      26.39900000      11.53300000      21.02400000
 H      27.46800000      12.41800000      21.55100000
 O      26.89100000      15.11400000      25.41100000
 H      26.48000000      15.04600000      24.52000000
 H      27.48600000      15.87800000      25.15800000
 O      29.05700000      17.52800000      26.81900000
 H      29.62300000      18.23400000      27.07600000
 H      28.14400000      17.87600000      26.53300000
 O      28.21100000      21.18200000      25.62500000
 H      28.82700000      20.68500000      25.09100000
 H      27.38800000      21.23000000      25.07600000
 O      29.68500000      13.61000000      26.35600000
 H      30.55400000      13.69000000      25.92200000
 H      29.24700000      14.30300000      25.83700000
 O      30.57800000      16.45300000      24.33900000
 H      31.17400000      16.96300000      23.70800000
 H      30.30200000      17.00600000      25.11300000
 O      28.05400000      11.50500000      30.46800000
 H      28.36600000      11.10900000      29.59600000
 H      28.66500000      10.98600000      31.00500000
 O      34.10100000      13.47200000      25.49100000
 H      34.74500000      14.09700000      25.18300000
 H      34.65700000      12.82900000      25.95700000
 O      34.69200000      17.93100000      25.62500000
 H      35.65500000      18.21400000      25.69500000
 H      34.82700000      16.99500000      25.64900000
 O      36.72100000      12.98100000      23.80100000
 H      36.99200000      12.14800000      24.28900000
 H      36.49200000      12.64700000      22.83700000
 O      34.05100000      14.73000000      29.29100000
 H      33.22300000      14.78000000      29.78600000
 H      33.75100000      14.87900000      28.37100000
 O      37.36500000      13.25300000      29.82000000
 H      38.03400000      12.85700000      29.19700000
 H      36.62100000      13.45700000      29.17000000
 O      35.23200000      12.15900000      21.07100000
 H      35.53400000      11.55500000      20.31100000
 H      34.91700000      11.52600000      21.67500000
 O      33.14700000      11.12700000      29.58200000
 H      33.15300000      10.25000000      30.06800000
 H      32.81200000      11.82500000      30.20300000
 O      34.03800000      20.83600000      24.75500000
 H      34.07100000      21.71600000      25.20900000
 H      34.96700000      20.41900000      24.84100000
 O      34.62600000      10.64000000      26.89900000
 H      34.19400000       9.91000000      26.42700000
 H      34.28800000      10.55200000      27.79200000
 O      33.02700000      19.63400000      27.45200000
 H      33.49000000      19.01400000      26.80000000
 H      33.79400000      19.96800000      28.04300000
 O      36.57900000      13.50300000      27.07100000
 H      37.47600000      13.01500000      27.02700000
 H      36.68700000      14.28900000      26.44400000
 O      34.74600000      16.31300000      21.17100000
 H      33.85600000      16.53900000      21.57600000
 H      34.99400000      15.41700000      21.47900000
 O      36.44200000      18.57800000      28.52400000
 H      35.56500000      18.36700000      28.89300000
 H      36.78800000      17.69400000      28.10000000
 O      34.56900000      20.92000000      29.59700000
 H      35.53100000      20.90100000      29.48300000
 H      34.60500000      20.97500000      30.59100000
 O      34.33100000      10.68900000      23.36900000
 H      33.75500000      11.38300000      23.87300000
 H      35.08500000      10.49700000      23.96500000
