114
XYZ file of cluster: frame_2000_9a179.20296.9ab03 - created by MolEdiTo
 O      28.67000000       6.50900000      27.59800000
 H      28.79400000       7.05900000      28.40500000
 H      28.21700000       5.74400000      28.08700000
 O      24.84100000      10.83700000      29.61600000
 H      24.51400000      10.11400000      29.01100000
 H      25.34800000      11.30500000      28.92300000
 O      22.12900000      12.11200000      26.36000000
 H      22.12200000      12.49800000      27.21000000
 H      22.35300000      12.90700000      25.77400000
 O      30.37300000      13.83300000      22.81200000
 H      31.18300000      13.55000000      23.29400000
 H      30.12400000      14.62100000      23.28100000
 O      23.32500000      11.96500000      23.20600000
 H      23.20400000      11.55000000      24.10400000
 H      23.48200000      11.28500000      22.53800000
 O      22.70400000      14.19000000      24.75600000
 H      22.91000000      13.52500000      24.03800000
 H      21.72300000      14.27500000      24.82700000
 O      24.56800000       5.68300000      22.21800000
 H      23.89800000       4.95800000      22.49300000
 H      25.16700000       5.67900000      22.99500000
 O      29.52500000      15.27900000      28.54100000
 H      29.25200000      15.96800000      27.80000000
 H      29.38000000      14.51100000      28.01500000
 O      21.35600000       8.92900000      30.60400000
 H      21.52400000       8.29700000      31.41600000
 H      20.47400000       8.66100000      30.25200000
 O      27.62300000       7.54000000      30.12700000
 H      28.04200000       6.76500000      30.60200000
 H      27.82700000       8.38500000      30.58900000
 O      30.57900000       4.49600000      27.17300000
 H      30.07700000       5.36100000      27.24100000
 H      30.44100000       4.18900000      26.23000000
 O      23.88500000       9.82700000      21.65800000
 H      23.65900000      10.25500000      20.76600000
 H      24.56700000       9.16800000      21.48300000
 O      25.38600000       5.87900000      28.44500000
 H      25.47000000       6.61500000      27.71600000
 H      25.83600000       6.31400000      29.19000000
 O      26.45700000      11.40700000      24.43500000
 H      27.43900000      11.50400000      24.41100000
 H      26.23000000      11.40600000      23.49100000
 O      22.66100000       5.03900000      27.03000000
 H      22.51200000       5.95700000      27.49900000
 H      23.47400000       4.87200000      27.52100000
 O      21.11900000       9.39100000      23.86600000
 H      20.77800000      10.34800000      23.88800000
 H      21.48800000       9.17500000      23.00000000
 O      23.83900000       9.43700000      27.35300000
 H      24.25600000      10.29600000      27.02900000
 H      23.80000000       8.91600000      26.48500000
 O      22.46100000      12.34500000      29.23900000
 H      22.66200000      13.30100000      28.94400000
 H      23.12300000      12.19500000      29.97000000
 O      28.83600000      11.31500000      27.77000000
 H      29.77200000      11.30300000      28.25400000
 H      28.98100000      12.03800000      27.14300000
 O      30.13100000      12.41100000      20.60800000
 H      30.16600000      13.21700000      19.96800000
 H      30.38100000      12.87200000      21.45300000
 O      25.79700000      11.77500000      27.03700000
 H      26.42300000      11.01200000      26.98400000
 H      26.01100000      12.07700000      26.04800000
 O      23.05000000      14.80500000      28.66600000
 H      23.12900000      15.25900000      29.54500000
 H      23.40300000      15.57200000      28.16800000
 O      27.06000000      11.53700000      21.72500000
 H      26.39900000      11.53300000      21.02400000
 H      27.46800000      12.41800000      21.55100000
 O      26.89100000      15.11400000      25.41100000
 H      26.48000000      15.04600000      24.52000000
 H      27.48600000      15.87800000      25.15800000
 O      22.46700000      15.54400000      21.52500000
 H      22.27300000      16.38600000      22.07900000
 H      21.56800000      15.09300000      21.59400000
 O      26.01400000       5.79700000      24.60800000
 H      25.94700000       5.32400000      25.47100000
 H      26.38400000       6.65900000      24.86900000
 O      28.72600000       9.09400000      21.60200000
 H      28.35200000       9.99900000      21.49100000
 H      29.69900000       9.21900000      21.81400000
 O      23.41300000       7.97800000      24.96600000
 H      22.90000000       7.38200000      25.59300000
 H      22.59300000       8.29100000      24.43200000
 O      28.82900000       9.82900000      25.24500000
 H      29.08400000      10.27700000      26.09000000
 H      28.32900000       9.08300000      25.59600000
 O      20.67600000      14.61100000      27.00800000
 H      21.50400000      14.85200000      27.50400000
 H      20.05200000      14.40500000      27.73200000
 O      22.44300000       7.36800000      28.48300000
 H      23.01300000       8.12100000      28.26100000
 H      21.89600000       7.84900000      29.15400000
 O      27.71100000       6.17700000      22.12700000
 H      28.19500000       6.99800000      21.99000000
 H      27.16700000       6.49000000      22.81900000
 O      26.27100000      15.23600000      27.89000000
 H      26.45900000      15.22600000      26.93200000
 H      26.43800000      14.29500000      28.21300000
 O      24.97200000      14.19200000      23.29700000
 H      24.68900000      14.75900000      22.53900000
 H      24.40500000      13.39400000      23.23900000
 O      29.68500000      13.61000000      26.35600000
 H      30.55400000      13.69000000      25.92200000
 H      29.24700000      14.30300000      25.83700000
 O      26.24500000       8.48100000      24.90900000
 H      25.31700000       8.28600000      24.68200000
 H      26.41000000       9.31100000      24.40800000
 O      20.71500000      10.02900000      27.34300000
 H      21.36400000       9.92300000      26.53200000
 H      21.27500000      10.73500000      27.74600000
 O      28.05400000      11.50500000      30.46800000
 H      28.36600000      11.10900000      29.59600000
 H      28.66500000      10.98600000      31.00500000
