151
XYZ file of cluster: frame_10000_25403.4c496.20904 - created by MolEdiTo
 O       5.05800000      19.74200000      11.69600000
 H       5.29300000      18.86000000      11.98300000
 H       5.95400000      20.25700000      11.54300000
 O      15.22300000      10.52900000       7.67300000
 H      14.62000000      11.11100000       8.19100000
 H      15.94900000      10.45400000       8.35700000
 O       6.34600000      20.96400000      11.78300000
 H       7.22200000      20.75800000      11.44600000
 H       6.38300000      21.90000000      12.00400000
 O      10.12500000      10.69700000       8.88000000
 H       9.44900000      10.00900000       9.07000000
 H       9.52200000      11.46600000       8.62100000
 O       6.02100000      20.54000000      14.93500000
 H       6.33200000      20.56500000      13.95500000
 H       5.54300000      21.32500000      14.96800000
 O       9.38300000      19.95100000       8.41300000
 H       9.98100000      19.26900000       8.82000000
 H       9.04800000      19.42500000       7.74100000
 O      14.67500000      18.42600000       5.62000000
 H      14.10400000      17.76700000       6.11800000
 H      15.64500000      18.29000000       5.79900000
 O       7.43400000      15.01000000       7.17000000
 H       7.14400000      15.97100000       7.25700000
 H       8.19300000      14.94900000       6.54500000
 O      10.42700000      10.82400000       5.12800000
 H      10.41500000      10.69400000       4.15800000
 H       9.58900000      10.33700000       5.40900000
 O      13.45700000      19.35100000      12.58500000
 H      13.87900000      19.09300000      13.40100000
 H      13.99500000      18.94600000      11.84300000
 O       5.29400000      13.68600000       5.46100000
 H       6.08600000      13.97700000       5.89500000
 H       5.48300000      13.00600000       4.80000000
 O      11.67300000      14.05100000       7.97300000
 H      10.88500000      13.88200000       7.43700000
 H      12.07400000      14.65000000       7.27800000
 O       9.63200000      13.36700000       6.00100000
 H       9.82900000      13.80100000       5.09600000
 H      10.03400000      12.53400000       5.96200000
 O       6.86300000      10.65500000      11.22000000
 H       6.87200000       9.80500000      10.66700000
 H       7.56400000      11.21200000      10.79200000
 O      11.24800000      19.45600000       5.55500000
 H      11.28700000      20.04500000       6.33200000
 H      11.96700000      19.78600000       4.99000000
 O      11.46400000      12.19200000      11.49800000
 H      11.08700000      13.08800000      11.26800000
 H      11.88000000      11.82800000      10.63000000
 O       7.16400000      15.51400000      13.50600000
 H       7.68700000      14.68600000      13.67200000
 H       6.63000000      15.57300000      14.37900000
 O       7.97600000      12.59100000       8.81400000
 H       7.95700000      13.55200000       8.44600000
 H       7.57500000      12.11400000       8.05900000
 O       9.93700000      11.98800000      13.94500000
 H      10.17700000      12.09500000      13.02100000
 H      10.51000000      11.23500000      14.24300000
 O      15.26100000      13.55400000      12.17400000
 H      14.67300000      12.77200000      12.45400000
 H      15.40800000      14.00500000      12.98400000
 O       8.12600000      19.03500000      13.56800000
 H       7.37800000      19.17300000      13.02300000
 H       7.65500000      18.93100000      14.48200000
 O      11.34600000      18.08600000       8.95300000
 H      11.74100000      17.82100000       9.84700000
 H      12.19900000      18.28200000       8.51100000
 O       5.77700000      20.47400000       7.79800000
 H       6.13800000      21.38100000       7.88300000
 H       4.79600000      20.74700000       7.86900000
 O      10.32600000      17.50600000      14.59200000
 H      10.99600000      17.35500000      13.91800000
 H       9.74500000      18.15100000      14.09700000
 O      14.18200000      16.18400000      11.28900000
 H      14.83900000      16.66100000      11.82300000
 H      14.76200000      15.39200000      11.19300000
 O      13.61000000      11.45300000      13.24600000
 H      12.74400000      11.81900000      12.83100000
 H      13.43200000      10.58000000      13.79000000
 O       6.89600000      17.76300000       7.73800000
 H       6.55900000      18.69400000       7.78400000
 H       7.40100000      17.69900000       8.60200000
 O       8.79400000      17.27600000       9.71900000
 H       9.72600000      17.15900000       9.48700000
 H       8.70100000      16.59700000      10.38900000
 O       6.28100000      17.62800000      11.74300000
 H       6.37400000      16.74200000      12.25200000
 H       6.98100000      17.73000000      11.06600000
 C      17.29800000      15.83300000      15.55900000
 C      16.09600000      15.96600000      16.53800000
 C      14.06600000      16.48200000      15.01200000
 H      14.21700000      15.16500000      16.66200000
 H      17.77800000      14.39300000      16.71500000
 O      15.26400000      14.10800000      15.04200000
 O      17.56200000      16.68400000      14.70400000
 O      18.12400000      14.78200000      15.91300000
 C      14.88600000      15.36900000      15.81900000
 O      16.34800000      15.25200000      17.74000000
 H      15.96900000      16.98200000      16.81100000
 O      14.12300000      17.67000000      15.16600000
 O      13.25800000      15.99600000      14.05200000
 H      13.31000000      15.03400000      14.13200000
 H      15.67900000      15.34400000      18.51400000
 H      15.42400000      13.34700000      15.60500000
 O      14.08700000      15.28300000       5.56000000
 H      14.22800000      14.28300000       5.64900000
 H      14.20500000      15.76300000       6.40700000
 O      11.16500000      16.54800000       6.47200000
 H      11.20400000      16.99000000       7.35500000
 H      11.12100000      17.31800000       5.87700000
 O       9.92800000      14.44400000      10.54500000
 H       9.18300000      13.79700000      10.42700000
 H      10.02600000      14.83700000       9.67200000
 O      11.64200000      17.47700000      11.99300000
 H      12.18500000      16.72900000      11.98600000
 H      12.19300000      18.29400000      12.26200000
 O      15.48000000      19.79000000      10.44600000
 H      16.20100000      20.34300000      10.28100000
 H      15.04600000      19.67500000       9.61400000
 O      11.62700000      21.54400000      13.73200000
 H      11.76400000      20.70700000      13.19000000
 H      12.37900000      21.60000000      14.46100000
 O       5.73600000      11.38600000       7.39000000
 H       5.41100000      12.12800000       7.92700000
 H       5.47400000      10.58300000       7.95200000
 O       9.07600000      20.76500000      11.06600000
 H       9.31500000      20.60400000      10.15600000
 H       9.37500000      20.05300000      11.60800000
 O      14.91900000      14.01200000       9.21000000
 H      15.89000000      13.96900000       9.01800000
 H      14.77100000      13.59000000      10.13600000
 O       5.59300000      12.72300000      15.92500000
 H       5.04500000      11.91800000      15.91300000
 H       6.32100000      12.59000000      15.28000000
 O       5.23100000      16.63300000       7.14700000
 H       6.03100000      17.18600000       7.22600000
 H       5.53000000      15.72200000       6.90100000
 O      13.77100000      19.26900000       8.22600000
 H      14.12900000      19.26100000       7.29500000
 H      13.10700000      20.04300000       8.13500000
 O      13.78100000      16.22500000       8.01600000
 H      14.48200000      15.61100000       8.44200000
 H      13.55100000      16.62000000       8.83500000
 O      13.09800000      11.72600000       9.01200000
 H      12.35000000      11.61400000       8.44800000
 H      13.25100000      12.69500000       8.86400000
 O       6.59900000      20.80300000       5.10800000
 H       6.44400000      20.43500000       6.02700000
 H       7.31000000      21.45000000       5.22100000
 O       5.96200000      11.85800000      13.46800000
 H       5.16500000      12.14200000      13.14200000
 H       6.27400000      11.24200000      12.73200000
