114
XYZ file of cluster: frame_10000_c7c68.4ce0c.6f233 - created by MolEdiTo
 O      29.18800000      18.81400000      22.36200000
 H      28.67500000      18.53300000      23.15300000
 H      29.40900000      17.99900000      21.95000000
 O      26.86500000      18.47600000      16.94800000
 H      27.03300000      19.05200000      16.19300000
 H      25.87500000      18.60200000      17.09000000
 O      29.52800000      13.69200000      18.55500000
 H      29.05300000      14.34800000      17.97800000
 H      30.05300000      14.30300000      19.12700000
 O      29.92000000      15.29800000      23.14600000
 H      29.54700000      15.86500000      23.90600000
 H      29.85700000      14.32300000      23.30400000
 O      27.46700000      12.44100000      23.41200000
 H      27.15400000      11.52000000      23.66000000
 H      28.40300000      12.54400000      23.58300000
 O      30.26000000      12.53100000      23.93100000
 H      31.15300000      12.88300000      24.00800000
 H      30.42200000      11.72100000      23.41100000
 O      30.17900000      20.25300000      15.39700000
 H      31.08900000      19.80700000      15.16200000
 H      30.12200000      20.18700000      16.39900000
 O      27.93400000      15.17100000      25.55700000
 H      27.25200000      14.55400000      25.74200000
 H      27.83800000      15.81200000      26.33000000
 O      26.21300000      14.05400000      21.16400000
 H      25.72100000      13.26400000      20.75700000
 H      26.58200000      13.51800000      21.95500000
 O      26.40600000      15.99800000      23.03000000
 H      26.06200000      15.63800000      22.16100000
 H      27.36400000      15.80100000      22.99900000
 O      26.75500000      19.26600000      26.43000000
 H      25.94400000      18.92900000      25.95700000
 H      26.29500000      19.71100000      27.18200000
 O      30.54800000      10.66200000      15.41000000
 H      30.44300000      11.61500000      15.66100000
 H      31.43300000      10.65900000      14.98400000
 O      28.94700000      15.97500000      17.22400000
 H      28.03500000      16.35100000      17.06200000
 H      29.25800000      15.88300000      16.26800000
 O      26.30000000      19.45000000      22.74500000
 H      25.76300000      18.82800000      23.27200000
 H      26.22900000      18.99800000      21.87500000
 O      30.61600000      15.34600000      25.97700000
 H      29.71100000      15.54100000      25.73900000
 H      31.20800000      16.16200000      25.87300000
 O      27.97800000      20.17900000      20.19100000
 H      28.57300000      20.06000000      19.39200000
 H      28.30300000      19.43600000      20.78400000
 O      29.08600000      17.94900000      25.24900000
 H      29.84700000      18.39500000      25.66100000
 H      28.30900000      18.37300000      25.70800000
 O      30.53800000      20.31900000      18.26300000
 H      31.01800000      19.86500000      19.03200000
 H      30.85100000      21.27400000      18.28400000
 O      28.99400000      10.61200000      18.73600000
 H      29.12300000      11.50500000      19.01200000
 H      29.75400000      10.51500000      18.16700000
 O      32.78100000      20.36300000      20.86900000
 H      32.07800000      20.03400000      21.47000000
 H      33.07000000      21.20200000      21.27200000
 O      33.35400000      13.19200000      16.80500000
 H      32.65800000      13.62800000      17.31100000
 H      34.05400000      12.93100000      17.44500000
 O      34.31800000      16.56400000      18.98600000
 H      34.13400000      17.41400000      18.57400000
 H      35.17400000      16.49800000      18.65000000
 O      34.76900000      12.40500000      21.29800000
 H      35.09500000      12.31900000      20.34000000
 H      34.18700000      13.21900000      21.35400000
 O      33.46800000      18.20100000      15.89800000
 H      34.15400000      18.66600000      16.44400000
 H      33.69100000      17.19700000      15.97600000
 O      35.80500000      16.79200000      22.17900000
 H      36.08200000      16.29800000      21.36900000
 H      35.54700000      17.69600000      21.81000000
 O      36.08500000      14.99700000      24.33400000
 H      36.79700000      15.60800000      24.64800000
 H      35.79900000      15.51700000      23.52100000
 O      35.19800000      19.20900000      20.30300000
 H      35.17700000      18.98000000      19.34900000
 H      34.36300000      19.56300000      20.64900000
 O      33.84800000      10.77700000      25.21600000
 H      33.69900000      11.44200000      25.91500000
 H      34.40600000      11.29000000      24.59900000
 O      35.85400000      12.86200000      18.70800000
 H      36.61100000      13.30600000      19.22400000
 H      36.26000000      12.86800000      17.75100000
 O      36.46800000       9.88100000      20.92600000
 H      35.54900000      10.21600000      20.76300000
 H      36.93100000      10.74100000      21.17600000
 O      37.04000000      11.31600000      25.19700000
 H      36.32500000      10.89700000      24.76700000
 H      37.76000000      11.17400000      24.56500000
 O      36.49900000      12.43200000      23.32600000
 H      36.38400000      13.25800000      23.76300000
 H      35.92900000      12.44900000      22.51400000
 O      33.90900000      13.51300000      24.88600000
 H      34.78600000      13.81700000      24.71000000
 H      33.59600000      14.32700000      25.27400000
 O      35.32000000      20.13300000      17.16400000
 H      36.15300000      20.66500000      17.43000000
 H      34.96700000      20.64200000      16.42400000
 O      33.16400000      20.34100000      24.52600000
 H      33.03400000      19.42600000      24.19600000
 H      33.76600000      20.79300000      23.86200000
 O      37.02600000      12.72300000      15.92500000
 H      36.47800000      11.91800000      15.91300000
 H      37.75400000      12.59000000      15.28000000
 O      33.26500000      14.81100000      21.10800000
 H      33.49500000      15.48900000      20.41200000
 H      33.14500000      15.29600000      21.93600000
 O      33.80700000      15.59000000      15.11300000
 H      34.27400000      15.41000000      14.19100000
 H      34.30100000      14.98000000      15.69700000
