132
XYZ file of cluster: frame_10000_47c86.99df6.c3b5e - created by MolEdiTo
 O      16.99200000      24.95000000      30.12400000
 H      17.57100000      25.50200000      29.55000000
 H      16.37400000      24.44000000      29.59500000
 O      16.08900000      30.17300000      27.36200000
 H      15.22400000      30.40100000      26.85000000
 H      16.21300000      29.21800000      27.38500000
 O      14.22300000      24.67800000      27.82800000
 H      14.90600000      24.20200000      27.29000000
 H      14.16000000      24.11400000      28.66000000
 O      14.16000000      26.88600000      30.10000000
 H      14.27900000      25.93600000      29.94000000
 H      13.47900000      27.04600000      30.82400000
 O      10.61300000      25.19400000      28.42400000
 H       9.81300000      24.66700000      28.20300000
 H      11.27500000      24.46100000      28.43800000
 O      15.83100000      22.95800000      26.36300000
 H      15.22500000      22.14000000      26.22400000
 H      16.21400000      23.26200000      25.48100000
 O      10.22500000      29.94000000      28.79500000
 H      10.08600000      28.99700000      29.29600000
 H      10.87700000      30.51700000      29.29100000
 O      15.58200000      20.98100000      28.27000000
 H      15.48500000      21.66100000      28.86000000
 H      15.25700000      20.20300000      28.78800000
 O      10.16400000      20.94400000      26.73000000
 H      10.62100000      21.69200000      27.24000000
 H       9.24200000      21.04700000      26.81200000
 O      13.75400000      20.99200000      26.47700000
 H      13.01700000      20.35800000      26.52400000
 H      13.94000000      21.31400000      27.43200000
 O      13.73900000      30.26700000      25.81600000
 H      13.00100000      29.67300000      26.18300000
 H      13.22000000      30.68300000      25.12400000
 O      12.05700000      24.00300000      25.39400000
 H      11.85500000      23.52700000      26.21400000
 H      12.83000000      23.54900000      25.06400000
 O      11.81200000      22.84500000      28.11500000
 H      12.25200000      23.35000000      28.90900000
 H      11.33600000      22.14800000      28.58400000
 O      17.88800000      27.19200000      28.63300000
 H      18.25000000      28.15400000      28.74400000
 H      17.25800000      27.10800000      27.90300000
 O      19.85800000      25.13800000      28.53900000
 H      19.16700000      25.76100000      28.17100000
 H      20.47400000      25.71600000      29.01600000
 O      20.39500000      22.73200000      29.55000000
 H      20.71300000      22.11600000      28.86300000
 H      20.24900000      23.64200000      29.09100000
 O      20.91000000      27.37900000      29.75700000
 H      21.76200000      27.24700000      30.33200000
 H      21.41100000      27.59600000      28.96000000
 O      12.61200000      27.04600000      27.79600000
 H      13.13400000      26.21900000      27.65300000
 H      11.73000000      26.79200000      28.14000000
 O      18.66200000      24.80700000      26.04700000
 H      18.24400000      24.33500000      26.77400000
 H      19.61100000      24.75200000      26.13400000
 O      15.44900000      27.33400000      27.06200000
 H      14.87400000      26.97800000      27.79800000
 H      15.14000000      26.75800000      26.37600000
 O      13.61000000      29.52900000      28.18900000
 H      14.21100000      29.09500000      28.87900000
 H      12.93300000      28.79900000      27.99200000
 O      14.31200000      23.83500000      29.82200000
 H      13.42500000      23.70800000      30.23300000
 H      15.01200000      23.94000000      30.54400000
 O      11.15500000      30.44700000      27.07700000
 H      10.59000000      30.36300000      27.88800000
 H      11.87600000      30.97800000      27.35600000
 O      19.40600000      29.71300000      27.26900000
 H      19.65800000      30.33700000      26.56700000
 H      18.92000000      29.01400000      26.81100000
 O      11.44100000      26.75200000      25.18300000
 H      11.76100000      25.84500000      24.99000000
 H      11.78800000      26.99400000      26.05900000
 O      11.80800000      24.15800000      35.18100000
 H      12.02800000      23.37600000      35.68200000
 H      10.98200000      24.45700000      35.54300000
 O      14.13500000      27.67400000      35.19700000
 H      13.94100000      27.66200000      34.19000000
 H      14.54100000      26.77300000      35.31600000
 O      13.22100000      30.27700000      32.35700000
 H      13.26300000      30.87900000      31.54900000
 H      13.51100000      30.90200000      33.10200000
 O      18.37200000      29.44900000      32.16100000
 H      18.44700000      30.07100000      31.43700000
 H      17.57000000      28.96000000      31.99100000
 O      18.10300000      24.24800000      35.05400000
 H      17.63700000      25.13500000      34.97600000
 H      18.40100000      24.52400000      35.97500000
 O      21.45500000      30.54100000      36.52500000
 H      20.83400000      30.79300000      35.81700000
 H      22.36900000      30.76200000      36.26800000
 O      14.34700000      25.18800000      33.68800000
 H      14.36900000      24.33100000      34.21900000
 H      13.39400000      25.33200000      33.82100000
 O      20.75400000      24.35200000      32.76100000
 H      20.83600000      23.56000000      32.11400000
 H      19.97500000      24.92600000      32.41400000
 O      19.55700000      21.73800000      35.80900000
 H      20.31700000      21.34600000      35.29600000
 H      19.11600000      22.44600000      35.32500000
 O      17.57300000      22.05000000      32.89800000
 H      17.89300000      22.61700000      33.66200000
 H      17.20300000      22.82000000      32.35600000
 O      20.55200000      28.30200000      33.64300000
 H      20.45200000      27.62800000      33.01900000
 H      19.81300000      28.81400000      33.27600000
 O      11.60100000      20.34000000      32.47800000
 H      11.66200000      19.77700000      33.29800000
 H      12.27900000      21.00400000      32.62300000
 O      11.73100000      23.83500000      32.35600000
 H      11.61300000      24.16500000      33.29600000
 H      10.73000000      23.81700000      32.17100000
 O      19.46000000      28.12700000      36.65100000
 H      20.28700000      28.68900000      36.72000000
 H      19.30100000      28.19400000      35.68800000
 O      11.93200000      27.79700000      32.94300000
 H      11.04300000      27.80300000      33.30100000
 H      12.22600000      28.69000000      33.04100000
 O      15.86100000      28.90000000      31.75500000
 H      15.24300000      28.08500000      31.58400000
 H      15.17000000      29.55000000      31.98500000
 O      12.53900000      30.68800000      36.26100000
 H      13.00800000      30.57800000      35.41000000
 H      11.78700000      31.37900000      36.23600000
 O      14.63200000      21.97100000      35.23000000
 H      14.25700000      21.18600000      34.81100000
 H      15.40900000      21.69600000      35.81000000
 O      17.18400000      27.70900000      34.74300000
 H      16.67800000      27.74700000      33.91700000
 H      16.91300000      28.39700000      35.36700000
