126
XYZ file of cluster: frame_10000_c6052.9c290.c0d41 - created by MolEdiTo
 O      27.93400000      30.08300000      28.52000000
 H      28.37800000      29.26100000      28.21400000
 H      27.02600000      29.79200000      28.40700000
 O      27.79000000      21.10700000      30.21000000
 H      27.36600000      20.23500000      30.40800000
 H      28.42400000      21.00500000      29.50900000
 O      27.31100000      27.91200000      27.66500000
 H      26.88300000      27.06100000      27.29400000
 H      28.14200000      28.00000000      27.18200000
 O      30.51700000      28.68900000      28.59400000
 H      30.83200000      28.85100000      29.52200000
 H      31.12100000      29.25700000      28.07900000
 O      30.16800000      20.90500000      29.47100000
 H      30.10200000      21.35300000      28.63000000
 H      31.11300000      20.44000000      29.37800000
 O      30.33100000      21.97100000      26.88200000
 H      30.71500000      21.58800000      26.08100000
 H      29.55200000      22.42600000      26.53800000
 O      26.49100000      25.09000000      26.98400000
 H      25.78200000      24.94300000      26.35700000
 H      27.27700000      25.15300000      26.39100000
 O      27.33500000      26.02500000      29.47200000
 H      27.26500000      24.99400000      29.44300000
 H      26.68200000      26.07600000      28.77000000
 O      29.51700000      26.23500000      28.68100000
 H      29.82400000      27.08800000      28.97100000
 H      28.94300000      25.72500000      29.31500000
 O      29.94400000      28.45100000      25.78000000
 H      30.37100000      29.19200000      25.29500000
 H      30.66800000      28.18900000      26.36500000
 O      26.32600000      23.50900000      29.42100000
 H      25.87300000      22.70600000      28.92900000
 H      27.18000000      23.49000000      28.99600000
 O      28.83200000      28.70000000      32.62500000
 H      29.72400000      28.70500000      32.18200000
 H      29.22000000      28.52200000      33.51100000
 O      28.54700000      24.37400000      32.80600000
 H      28.04700000      25.10100000      32.37400000
 H      29.32700000      24.41400000      32.26300000
 O      30.59300000      29.52400000      35.43300000
 H      30.83400000      30.14100000      36.20100000
 H      30.36700000      28.62700000      35.84400000
 O      25.66200000      28.63900000      31.79100000
 H      25.53500000      29.48600000      32.26400000
 H      26.51000000      28.34800000      32.17100000
 O      26.50300000      28.84800000      35.74300000
 H      26.89800000      29.52700000      35.20500000
 H      26.50500000      29.28100000      36.71200000
 O      29.62400000      26.98700000      36.13100000
 H      30.34900000      26.57900000      35.47400000
 H      30.08500000      26.93400000      37.01200000
 O      25.53900000      22.38200000      32.21700000
 H      25.49500000      23.28500000      31.76800000
 H      26.46000000      22.07400000      32.15600000
 O      26.81500000      25.81800000      36.18100000
 H      26.08700000      26.27300000      35.69600000
 H      27.34500000      26.61100000      36.36100000
 O      29.04000000      22.15700000      34.66700000
 H      28.87600000      23.05800000      34.44200000
 H      29.54600000      21.81500000      33.90400000
 O      34.42200000      29.86500000      25.66200000
 H      35.24500000      29.76600000      26.16200000
 H      34.52900000      29.96700000      24.62200000
 O      34.40700000      26.83500000      29.43000000
 H      34.69900000      27.65100000      29.86200000
 H      35.27500000      26.35200000      29.24300000
 O      34.84900000      30.11400000      28.38900000
 H      34.87600000      30.81900000      27.73200000
 H      34.60200000      30.55700000      29.21600000
 O      36.21400000      22.52700000      27.41700000
 H      37.06900000      22.19300000      27.83400000
 H      36.38300000      22.46800000      26.41900000
 O      33.64300000      27.52600000      27.62400000
 H      33.57200000      27.24300000      28.59800000
 H      34.19700000      28.32000000      27.45500000
 O      36.57600000      28.42300000      27.52200000
 H      36.56000000      29.15500000      28.09600000
 H      36.80800000      27.62900000      28.15800000
 O      32.37800000      25.37400000      26.03500000
 H      32.28000000      24.43200000      26.34600000
 H      32.20100000      25.84800000      26.89100000
 O      33.67500000      22.85300000      28.38400000
 H      33.00800000      22.39600000      27.76100000
 H      34.47000000      22.93000000      27.81800000
 O      35.54900000      25.35900000      26.36700000
 H      35.92300000      25.76100000      27.20600000
 H      34.84700000      25.99900000      26.20700000
 O      32.41200000      23.92600000      29.69300000
 H      32.54200000      23.24300000      29.02900000
 H      32.90500000      24.66900000      29.31700000
 O      35.71200000      24.29700000      28.79200000
 H      36.13500000      23.81100000      28.03400000
 H      34.89300000      23.78400000      28.63500000
 O      32.61500000      25.40600000      34.11400000
 H      33.15200000      25.78900000      33.34300000
 H      32.23900000      24.60400000      33.68400000
 O      33.55600000      20.07600000      34.67400000
 H      33.71100000      21.05100000      34.85600000
 H      32.77900000      20.07100000      34.06700000
 O      35.03600000      28.69000000      35.90900000
 H      34.36000000      28.35700000      36.54600000
 H      35.90700000      28.47600000      36.36700000
 O      33.39200000      30.01400000      32.28900000
 H      33.78200000      29.36200000      32.87200000
 H      33.60700000      30.85400000      32.73400000
 O      34.56000000      21.67700000      32.31200000
 H      35.01400000      20.89500000      32.66200000
 H      33.62200000      21.29100000      32.19100000
 O      36.46300000      21.25100000      34.71000000
 H      37.16100000      21.33500000      35.35100000
 H      36.81100000      21.60600000      33.93000000
 O      35.02000000      23.88000000      35.84800000
 H      35.13500000      23.15500000      35.20500000
 H      34.16600000      24.24400000      35.60100000
 O      37.13300000      30.36500000      33.70200000
 H      36.69100000      31.14900000      34.09800000
 H      36.34400000      29.91900000      33.37600000
 O      36.62800000      25.99200000      35.25200000
 H      36.61000000      25.39800000      34.53500000
 H      35.97200000      25.56800000      35.87000000
 O      35.10900000      27.73500000      33.31300000
 H      35.28800000      26.85200000      33.63500000
 H      34.91600000      28.12700000      34.17600000
 O      35.14400000      24.27000000      33.05200000
 H      35.03800000      23.35100000      32.64800000
 H      35.36000000      24.76200000      32.18000000
