123
XYZ file of cluster: frame_10000_75d36.9dc74.c222e - created by MolEdiTo
 O      21.47200000      24.14100000      27.20100000
 H      21.12800000      25.03900000      27.43200000
 H      21.60600000      23.72700000      28.09600000
 O      16.99200000      24.95000000      30.12400000
 H      17.57100000      25.50200000      29.55000000
 H      16.37400000      24.44000000      29.59500000
 O      16.08900000      30.17300000      27.36200000
 H      15.22400000      30.40100000      26.85000000
 H      16.21300000      29.21800000      27.38500000
 O      26.49100000      25.09000000      26.98400000
 H      25.78200000      24.94300000      26.35700000
 H      27.27700000      25.15300000      26.39100000
 O      24.13200000      24.90600000      25.44000000
 H      23.57800000      24.41900000      26.09900000
 H      23.54100000      25.19800000      24.78900000
 O      23.97000000      26.34700000      28.63600000
 H      23.31400000      25.84500000      29.10000000
 H      24.54400000      25.74400000      28.24900000
 O      24.76800000      21.25900000      28.71500000
 H      24.41400000      20.35500000      29.08900000
 H      24.02600000      21.56300000      28.08400000
 O      15.83100000      22.95800000      26.36300000
 H      15.22500000      22.14000000      26.22400000
 H      16.21400000      23.26200000      25.48100000
 O      22.85200000      21.76800000      26.72600000
 H      22.98100000      21.38700000      25.85400000
 H      22.32300000      22.55400000      26.47600000
 O      21.37800000      26.95300000      27.78900000
 H      22.37600000      26.96300000      27.71700000
 H      21.27600000      27.83900000      27.38000000
 O      26.32600000      23.50900000      29.42100000
 H      25.87300000      22.70600000      28.92900000
 H      27.18000000      23.49000000      28.99600000
 O      17.88800000      27.19200000      28.63300000
 H      18.25000000      28.15400000      28.74400000
 H      17.25800000      27.10800000      27.90300000
 O      19.85800000      25.13800000      28.53900000
 H      19.16700000      25.76100000      28.17100000
 H      20.47400000      25.71600000      29.01600000
 O      20.39500000      22.73200000      29.55000000
 H      20.71300000      22.11600000      28.86300000
 H      20.24900000      23.64200000      29.09100000
 O      23.71100000      29.73200000      28.94300000
 H      24.30800000      28.98800000      28.58900000
 H      23.46500000      29.33200000      29.78400000
 O      20.91000000      27.37900000      29.75700000
 H      21.76200000      27.24700000      30.33200000
 H      21.41100000      27.59600000      28.96000000
 O      23.13700000      24.14300000      29.06800000
 H      22.75000000      24.29400000      29.95900000
 H      23.94100000      23.68200000      29.29600000
 O      18.66200000      24.80700000      26.04700000
 H      18.24400000      24.33500000      26.77400000
 H      19.61100000      24.75200000      26.13400000
 O      19.40600000      29.71300000      27.26900000
 H      19.65800000      30.33700000      26.56700000
 H      18.92000000      29.01400000      26.81100000
 O      22.86500000      29.31600000      25.99300000
 H      23.01400000      30.12000000      25.49700000
 H      23.70400000      28.84400000      26.02500000
 O      21.00300000      25.85900000      35.68400000
 H      21.07800000      25.31200000      34.81900000
 H      21.36400000      26.78300000      35.53700000
 O      18.37200000      29.44900000      32.16100000
 H      18.44700000      30.07100000      31.43700000
 H      17.57000000      28.96000000      31.99100000
 O      18.10300000      24.24800000      35.05400000
 H      17.63700000      25.13500000      34.97600000
 H      18.40100000      24.52400000      35.97500000
 O      22.90800000      21.45800000      32.07300000
 H      23.82000000      21.77100000      31.97700000
 H      22.98700000      20.52300000      31.72700000
 O      24.15300000      27.48000000      35.99500000
 H      24.91100000      27.98100000      35.75800000
 H      24.06700000      27.65300000      36.97100000
 O      21.45500000      30.54100000      36.52500000
 H      20.83400000      30.79300000      35.81700000
 H      22.36900000      30.76200000      36.26800000
 O      20.75400000      24.35200000      32.76100000
 H      20.83600000      23.56000000      32.11400000
 H      19.97500000      24.92600000      32.41400000
 O      19.55700000      21.73800000      35.80900000
 H      20.31700000      21.34600000      35.29600000
 H      19.11600000      22.44600000      35.32500000
 O      17.57300000      22.05000000      32.89800000
 H      17.89300000      22.61700000      33.66200000
 H      17.20300000      22.82000000      32.35600000
 O      25.47000000      23.29600000      36.89600000
 H      25.91000000      23.70100000      37.73000000
 H      26.02600000      23.84600000      36.21400000
 O      20.55200000      28.30200000      33.64300000
 H      20.45200000      27.62800000      33.01900000
 H      19.81300000      28.81400000      33.27600000
 O      23.48000000      26.90200000      31.90400000
 H      24.34700000      27.46500000      31.82200000
 H      23.79100000      26.07700000      32.19100000
 O      23.69500000      24.59700000      33.51100000
 H      22.80000000      24.22600000      33.47600000
 H      24.08900000      24.27000000      34.39800000
 O      25.69100000      20.27900000      34.99600000
 H      25.17400000      20.62900000      34.22600000
 H      26.18300000      21.00800000      35.32000000
 O      19.46000000      28.12700000      36.65100000
 H      20.28700000      28.68900000      36.72000000
 H      19.30100000      28.19400000      35.68800000
 O      26.81500000      25.81800000      36.18100000
 H      26.08700000      26.27300000      35.69600000
 H      27.34500000      26.61100000      36.36100000
 O      21.85700000      20.74700000      34.76600000
 H      22.44700000      21.08300000      35.51700000
 H      22.33900000      21.12300000      33.99900000
 O      25.66200000      28.63900000      31.79100000
 H      25.53500000      29.48600000      32.26400000
 H      26.51000000      28.34800000      32.17100000
 O      15.86100000      28.90000000      31.75500000
 H      15.24300000      28.08500000      31.58400000
 H      15.17000000      29.55000000      31.98500000
 O      25.53900000      22.38200000      32.21700000
 H      25.49500000      23.28500000      31.76800000
 H      26.46000000      22.07400000      32.15600000
 O      17.18400000      27.70900000      34.74300000
 H      16.67800000      27.74700000      33.91700000
 H      16.91300000      28.39700000      35.36700000
