117
XYZ file of cluster: frame_10000_7100a.db2.c4141 - created by MolEdiTo
 O      18.69000000       5.41500000      28.31600000
 H      17.84900000       5.66700000      27.86500000
 H      18.74100000       4.38700000      28.26200000
 O      23.18800000       4.57600000      29.76100000
 H      23.46600000       5.07700000      28.96100000
 H      23.49600000       3.68100000      29.37900000
 O      24.22100000       2.41300000      29.27900000
 H      25.07300000       2.45700000      28.73300000
 H      23.98300000       1.46500000      29.19900000
 O      17.38100000       3.51800000      27.19600000
 H      17.57600000       3.70900000      26.24300000
 H      18.25700000       3.39400000      27.61800000
 O      22.12500000       8.57800000      30.49100000
 H      21.79400000       8.75600000      29.61700000
 H      22.15900000       9.42800000      30.91300000
 O      26.03500000       4.87900000      25.07800000
 H      26.86800000       4.39300000      25.03700000
 H      25.99900000       5.12400000      26.02000000
 O      18.06500000       8.28400000      27.31100000
 H      18.36200000       7.57600000      27.88900000
 H      17.87700000       9.03300000      27.96200000
 O      22.29500000       2.80500000      26.86200000
 H      22.91400000       2.11300000      27.18100000
 H      22.79700000       3.63100000      26.92600000
 O      20.08500000       3.55100000      28.01700000
 H      20.89200000       4.01500000      28.36200000
 H      20.59300000       3.01000000      27.41400000
 O      19.39800000       6.36500000      30.03600000
 H      19.14500000       6.29300000      29.09400000
 H      19.82000000       7.26800000      30.19600000
 O      21.91800000       9.85400000      26.73300000
 H      21.30300000       9.43400000      26.08200000
 H      21.46500000      10.68800000      26.98900000
 O      23.40600000       4.99800000      28.15100000
 H      22.60600000       5.12300000      27.67700000
 H      23.90400000       5.79100000      27.93100000
 O      18.40800000       8.99300000      29.34200000
 H      18.12800000       9.90500000      29.48100000
 H      18.05500000       8.44700000      30.05500000
 O      15.46900000       2.63900000      28.75700000
 H      16.12000000       3.13700000      28.22600000
 H      15.58500000       1.71000000      28.33800000
 O      15.87500000       6.87900000      30.29600000
 H      15.88900000       7.35500000      31.16800000
 H      16.56400000       6.23000000      30.28700000
 O      24.40600000       9.04100000      28.45500000
 H      24.81800000       9.88800000      28.66800000
 H      23.54300000       9.26300000      27.96700000
 O      27.03200000       7.36700000      30.02100000
 H      27.10700000       8.30900000      29.67100000
 H      26.16900000       7.35900000      30.50700000
 O      18.84400000       1.28100000      28.80000000
 H      17.90700000       1.25500000      28.52000000
 H      19.29600000       0.84700000      27.99300000
 O      16.05300000       5.07700000      26.59900000
 H      16.40200000       4.20500000      26.99200000
 H      15.08900000       5.11400000      26.89700000
 O      23.22600000       5.49900000      33.83100000
 H      23.63100000       6.14100000      33.22000000
 H      24.00300000       5.15500000      34.36700000
 O      16.91300000       2.17300000      33.54000000
 H      17.16700000       2.03300000      34.44800000
 H      17.41100000       1.57600000      32.86300000
 O      17.72500000       1.57700000      36.37400000
 H      18.45400000       2.00700000      35.98300000
 H      17.41800000       2.03000000      37.17100000
 O      20.56700000       4.43300000      36.45300000
 H      20.91600000       4.71000000      35.60400000
 H      20.86100000       5.20500000      36.94200000
 O      16.25000000      10.18600000      33.08100000
 H      16.47400000      10.54700000      33.97000000
 H      15.61400000       9.50900000      33.36600000
 O      25.40100000       0.91600000      33.31600000
 H      25.43500000       1.76200000      32.87800000
 H      24.45100000       0.89700000      33.64400000
 O      20.54600000       8.80500000      35.14600000
 H      20.20300000       9.28400000      34.35000000
 H      20.10900000       9.23400000      35.87900000
 O      25.46600000       3.63300000      32.84200000
 H      24.62000000       3.93700000      32.55500000
 H      25.83100000       4.44500000      33.35300000
 O      15.97600000      10.35000000      35.95800000
 H      15.18400000      10.31000000      36.47200000
 H      16.24200000       9.46000000      35.90700000
 O      21.89800000       6.97500000      37.10800000
 H      22.82800000       7.26200000      36.96000000
 H      21.43400000       7.24800000      36.29600000
 O      20.54600000       1.91600000      31.88800000
 H      20.65500000       2.75800000      31.48300000
 H      20.03600000       1.40300000      31.20700000
 O      15.32000000       7.55100000      34.38200000
 H      14.54900000       7.31400000      34.86800000
 H      15.89200000       6.74100000      34.39900000
 O      22.58900000       0.89100000      33.59200000
 H      22.02500000       0.11000000      33.55200000
 H      22.25300000       1.33300000      32.77800000
 O      20.63200000       4.55700000      33.21500000
 H      20.64400000       4.60700000      32.27400000
 H      21.49800000       4.99400000      33.34400000
 O      24.57200000       7.84700000      32.71100000
 H      24.79900000       8.68100000      33.13200000
 H      23.83100000       7.98100000      32.07600000
 O      19.95400000       2.89400000      34.93800000
 H      20.09600000       3.74400000      35.49600000
 H      20.25900000       3.28400000      34.11500000
 O      17.14200000       4.70100000      32.52700000
 H      17.96400000       5.32000000      32.30300000
 H      17.56600000       3.84700000      32.95700000
 O      24.21000000       1.10700000      36.03400000
 H      24.11500000       1.69000000      35.23900000
 H      25.02000000       0.48500000      35.91900000
 O      17.44800000       5.91400000      35.72400000
 H      18.37300000       5.62400000      35.57600000
 H      17.48700000       6.85500000      35.91800000
 O      25.05800000      10.83100000      32.35600000
 H      25.61500000      11.63900000      32.15100000
 H      25.29300000      10.27400000      31.60500000
