36
XYZ file of cluster: frame_500_4ebd7.96a22.b140 - created by MolEdiTo
 O      10.71600000      18.89500000       5.43700000
 H       9.85800000      18.48800000       5.14200000
 H      10.44500000      19.67300000       6.00200000
 O      13.85500000      17.44100000       3.91000000
 H      14.34500000      16.95100000       3.25500000
 H      13.97000000      18.33500000       3.46000000
 O       9.45900000      15.67700000       3.02800000
 H       9.69400000      14.84100000       3.46500000
 H       8.92800000      16.04400000       3.70800000
 O      11.17300000      17.93800000       2.26000000
 H      11.31700000      17.41000000       1.44100000
 H      10.50100000      17.40800000       2.73700000
 O       8.45000000      17.22800000       5.68900000
 H       8.13100000      17.77600000       6.41100000
 H       8.51900000      16.31500000       6.08600000
 O      13.46600000      19.50600000       1.77800000
 H      13.39100000      20.08900000       2.55800000
 H      12.62000000      18.97900000       1.96100000
 O      13.10400000      19.12500000       6.63600000
 H      13.80100000      18.53400000       7.00100000
 H      12.32400000      18.59000000       6.37000000
 O      12.03700000      16.47800000       5.86700000
 H      11.36700000      17.14900000       5.52200000
 H      12.81300000      16.80100000       5.39600000
 O      10.65100000      13.40500000       5.14500000
 H      11.00300000      14.28600000       5.41700000
 H      10.37900000      12.86000000       5.94400000
 O       6.94900000      15.76700000       1.13100000
 H       6.99600000      15.90600000       2.08300000
 H       7.52800000      14.96100000       0.97600000
 O      12.60100000      14.47900000       2.76200000
 H      12.24400000      15.24900000       2.27500000
 H      13.60000000      14.59100000       2.82600000
 O       7.35400000      20.09200000       2.36200000
 H       6.87900000      20.84300000       2.00100000
 H       7.88400000      20.03600000       1.53900000
