36
XYZ file of cluster: frame_500_7b9f.a5b85.c229f - created by MolEdiTo
 O       3.01300000      18.51400000      20.89100000
 H       2.65000000      17.69700000      21.16800000
 H       2.70800000      18.68800000      19.97300000
 O       5.39800000      18.22900000      19.63800000
 H       4.54000000      18.27900000      20.13500000
 H       5.25900000      17.57400000      18.89600000
 O       7.46900000      20.08500000      19.45500000
 H       6.89700000      19.40700000      19.78600000
 H       7.01900000      20.39900000      18.59700000
 O       5.81800000      19.77100000      17.35800000
 H       5.37100000      20.59600000      17.10600000
 H       5.28800000      19.50200000      18.09300000
 O       6.04800000      15.81600000      18.23000000
 H       6.42400000      15.66500000      19.12600000
 H       6.70700000      15.43100000      17.62000000
 O       3.28200000      15.15700000      19.05900000
 H       3.33400000      14.14800000      19.22400000
 H       4.21800000      15.36800000      19.18800000
 O       2.38000000      19.12500000      18.25200000
 H       2.99700000      19.05600000      17.55000000
 H       1.65200000      19.70100000      17.97800000
 O       4.10200000      18.26400000      25.13900000
 H       4.50600000      17.41200000      24.83500000
 H       3.93900000      18.75800000      24.31900000
 O       4.33100000      15.76600000      23.52600000
 H       4.35300000      14.86100000      23.14000000
 H       5.21200000      16.03000000      23.20300000
 O       6.94900000      15.76700000      22.64000000
 H       6.99600000      15.90600000      23.59200000
 H       7.52800000      14.96100000      22.48500000
 O       1.30100000      16.87800000      23.45300000
 H       0.67500000      16.64700000      24.18500000
 H       1.80300000      16.04600000      23.32400000
 O       7.35400000      20.09200000      23.87100000
 H       6.87900000      20.84300000      23.51000000
 H       7.88400000      20.03600000      23.04800000
