36
XYZ file of cluster: frame_500_6ea42.994ad.a18ad - created by MolEdiTo
 O      11.92900000      16.72400000      18.43700000
 H      11.36200000      16.59100000      17.64700000
 H      11.25400000      16.86800000      19.21300000
 O      13.12900000      16.48400000      15.54000000
 H      12.67700000      15.74600000      16.08200000
 H      12.85300000      17.33300000      15.90300000
 O      12.19100000      13.76300000      19.09400000
 H      12.93800000      14.29600000      19.55100000
 H      11.98400000      13.08700000      19.76200000
 O      16.27200000      17.01700000      18.93500000
 H      16.61100000      17.07900000      17.97400000
 H      15.40100000      17.44900000      18.86600000
 O      10.45300000      15.72900000      20.48000000
 H      11.04100000      15.02600000      20.05700000
 H       9.66600000      15.31000000      20.99400000
 O      17.93300000      15.08600000      16.81800000
 H      17.13000000      15.52700000      16.42500000
 H      18.49700000      15.64000000      17.38600000
 O      13.94000000      18.65700000      18.94700000
 H      13.28100000      17.95500000      19.01100000
 H      13.82000000      19.06500000      19.82600000
 O      15.95100000      16.57200000      15.88500000
 H      14.99900000      16.58100000      15.92100000
 H      16.10500000      16.81300000      14.94200000
 O      18.21800000      15.86000000      20.52500000
 H      18.21500000      16.50200000      21.23400000
 H      17.45800000      16.07600000      20.04300000
 O      14.81400000      14.55400000      19.95100000
 H      15.12700000      13.84600000      19.33700000
 H      14.99300000      15.43100000      19.52700000
 O      13.04100000      19.25200000      16.08800000
 H      12.11400000      19.63400000      15.80600000
 H      13.14100000      19.42300000      17.08600000
 O      10.70400000      15.73200000      14.32700000
 H      10.49900000      16.68300000      14.23200000
 H      11.62900000      15.61300000      14.50900000
