58
XYZ file of cluster: frame_500_46c30.21411.6a4f6 - created by MolEdiTo
 O      13.91500000       8.22400000      17.97800000
 H      13.90700000       7.36200000      17.53900000
 H      14.65700000       8.15100000      18.64500000
 O       6.36400000       6.23000000      11.94500000
 H       6.18200000       5.89100000      12.87800000
 H       7.30100000       6.08200000      11.84000000
 O      14.16600000       7.19100000      12.30200000
 H      14.95400000       7.26000000      11.68200000
 H      13.51300000       7.68700000      11.70400000
 O       9.97100000       8.94800000      14.39300000
 H      10.37400000       8.30500000      14.97500000
 H       9.11700000       8.95100000      14.80400000
 O       8.99000000       6.22600000      12.36400000
 H       9.61200000       6.61300000      11.60600000
 H       9.65400000       5.97100000      13.05400000
 O       7.16500000       3.00700000      16.12400000
 H       7.43600000       3.91200000      16.00900000
 H       7.01300000       2.83900000      17.09500000
 O      10.64300000       6.44600000      15.58100000
 H      11.46100000       6.00200000      15.16600000
 H      10.84700000       6.26100000      16.47200000
 O      11.25800000       3.51500000      11.43500000
 H      11.98000000       2.93200000      11.09300000
 H      11.62500000       3.51100000      12.29100000
 C      12.39400000      10.29000000      10.80000000
 C      11.15000000       9.49200000      11.28400000
 C       9.60000000      11.57600000      10.80100000
 H      10.11300000       9.86700000       9.51900000
 H      13.74500000      10.26500000       9.36600000
 O       8.69500000       9.27900000      10.87300000
 O      13.50100000      10.07500000      11.71200000
 O      12.80100000       9.97400000       9.46000000
 C       9.91600000      10.02300000      10.58100000
 O      11.19400000       8.03900000      11.19900000
 H      11.00200000       9.88100000      12.28100000
 O       9.45700000      11.79700000      12.22700000
 O       8.46500000      12.03400000      10.08400000
 H       7.71900000      11.52900000      10.51300000
 H      11.77100000       7.81100000      10.41500000
 H       8.63500000       9.18400000      11.85700000
 O       8.05700000       5.52400000      16.77900000
 H       8.16900000       5.75800000      17.74900000
 H       8.85900000       5.91800000      16.42800000
 O      12.14600000      10.36100000      15.10400000
 H      12.30800000      10.96700000      14.31700000
 H      11.47400000       9.73100000      14.70000000
 O      12.75700000       5.49700000      14.47100000
 H      13.33900000       4.77700000      14.30100000
 H      13.06800000       5.93500000      13.63200000
 O      11.14700000       8.04300000      17.92200000
 H      11.36100000       7.12800000      18.14400000
 H      11.93600000       8.62100000      17.90800000
 O       8.00700000       3.26800000      12.86700000
 H       8.34900000       2.97400000      13.72800000
 H       8.23000000       4.26300000      12.81300000
 O      10.98500000       5.05600000      17.81200000
 H      11.28600000       4.21600000      17.44500000
 H      10.36400000       4.72000000      18.46500000
