39
XYZ file of cluster: frame_500_4b255.6edad.b140 - created by MolEdiTo
 O      12.30700000      11.98700000       1.42700000
 H      12.10900000      12.89800000       1.87800000
 H      11.41600000      11.79400000       1.03400000
 O      13.85500000      17.44100000       3.91000000
 H      14.34500000      16.95100000       3.25500000
 H      13.97000000      18.33500000       3.46000000
 O       9.84800000      12.41300000       2.92900000
 H       9.97000000      11.53500000       3.49300000
 H      10.38500000      12.96000000       3.48300000
 O       9.45900000      15.67700000       3.02800000
 H       9.69400000      14.84100000       3.46500000
 H       8.92800000      16.04400000       3.70800000
 O       8.45000000      17.22800000       5.68900000
 H       8.13100000      17.77600000       6.41100000
 H       8.51900000      16.31500000       6.08600000
 O      12.84900000      10.36500000       4.01100000
 H      12.70800000       9.46400000       3.67000000
 H      12.90000000      10.91900000       3.20100000
 O       6.56500000      12.93900000       3.42700000
 H       7.14300000      13.17300000       2.71900000
 H       6.98900000      12.16600000       3.93300000
 O      12.03700000      16.47800000       5.86700000
 H      11.36700000      17.14900000       5.52200000
 H      12.81300000      16.80100000       5.39600000
 O      10.65100000      13.40500000       5.14500000
 H      11.00300000      14.28600000       5.41700000
 H      10.37900000      12.86000000       5.94400000
 O       6.94900000      15.76700000       1.13100000
 H       6.99600000      15.90600000       2.08300000
 H       7.52800000      14.96100000       0.97600000
 O      12.60100000      14.47900000       2.76200000
 H      12.24400000      15.24900000       2.27500000
 H      13.60000000      14.59100000       2.82600000
 O       9.40800000      11.32800000       6.72000000
 H       9.10700000      10.68200000       7.43300000
 H       9.50200000      10.75500000       5.94700000
 O      14.15400000      12.26800000       5.86200000
 H      13.24900000      12.62800000       5.74400000
 H      14.24100000      11.74100000       5.09800000
