45
XYZ file of cluster: frame_500_520f3.23fbc.7780 - created by MolEdiTo
 O       7.96200000       7.36300000       5.86100000
 H       8.70100000       6.73300000       6.03500000
 H       7.16900000       6.90700000       6.13500000
 O      14.17900000       4.04900000       5.62600000
 H      13.77600000       3.23200000       5.92700000
 H      14.29700000       3.90000000       4.72000000
 O      13.46300000       8.74700000       1.33400000
 H      13.23300000       8.12200000       0.65800000
 H      14.12800000       9.37100000       0.93700000
 O       7.55000000       7.67200000       2.52700000
 H       7.81800000       8.57400000       2.39700000
 H       7.24100000       7.57700000       1.57300000
 O      14.92500000       3.39800000       2.92000000
 H      14.75400000       3.07200000       1.97900000
 H      14.21500000       4.07900000       3.18200000
 O      12.45900000       7.02800000       4.74100000
 H      12.79900000       7.73900000       5.26600000
 H      11.53900000       6.96200000       5.03000000
 O      12.84900000      10.36500000       4.01100000
 H      12.70800000       9.46400000       3.67000000
 H      12.90000000      10.91900000       3.20100000
 O      10.31500000       6.22300000       6.92100000
 H      10.65700000       7.14000000       6.92200000
 H      11.14900000       5.69200000       7.07300000
 O      10.51200000       8.76700000       1.63500000
 H      10.59100000       7.91300000       1.12300000
 H      11.41300000       9.08100000       1.59300000
 O       9.24200000       5.68200000       3.17700000
 H       8.45700000       6.32900000       3.28100000
 H       8.85300000       4.80200000       3.53200000
 O      13.13400000       5.55800000       2.60600000
 H      12.35200000       5.94900000       2.23300000
 H      13.01100000       5.91100000       3.50300000
 O      11.40700000       8.79000000       6.54400000
 H      12.34000000       8.63100000       6.76800000
 H      11.35200000       9.56300000       5.94500000
 O      10.94500000       3.80300000       4.90700000
 H      11.10300000       4.11100000       3.98400000
 H      10.30300000       4.42200000       5.35000000
 O      14.33700000       8.96700000       6.20200000
 H      13.93600000       9.59200000       5.58400000
 H      15.16100000       9.34700000       6.55100000
 O       9.54900000       9.83100000       4.17600000
 H       9.79200000       9.14100000       3.53300000
 H       8.73400000       9.45300000       4.58000000
