105
XYZ file of cluster: frame_15000_c40c2.5188c.c1cfb - created by MolEdiTo
 O      27.31000000      16.07900000      26.83900000
 H      27.38500000      16.79500000      27.52600000
 H      27.73800000      15.36600000      27.37700000
 O      28.15400000      17.31700000      29.42200000
 H      27.21900000      17.68100000      29.42000000
 H      28.37200000      17.14200000      30.36700000
 O      25.76100000      14.22700000      29.28700000
 H      25.50200000      14.82600000      28.53300000
 H      26.56800000      13.70200000      28.99900000
 O      26.16100000      21.34500000      29.38000000
 H      26.23500000      20.66400000      30.08900000
 H      26.79400000      20.91000000      28.65500000
 O      30.53300000      19.46800000      29.12000000
 H      30.33300000      20.26700000      28.71900000
 H      29.65300000      19.11500000      29.31300000
 O      28.48500000      14.05200000      28.30800000
 H      28.84300000      13.26200000      27.91500000
 H      29.20200000      14.59700000      28.66100000
 O      30.48400000      12.13000000      27.50400000
 H      30.62500000      12.52000000      26.57400000
 H      30.92600000      11.21700000      27.41700000
 O      28.14000000      21.32700000      26.98600000
 H      28.06500000      20.84000000      26.18300000
 H      27.49800000      22.01200000      26.94500000
 O      27.06100000      11.36600000      33.21300000
 H      26.30500000      11.96100000      33.49700000
 H      27.81900000      12.00000000      33.36300000
 O      29.03400000      10.59100000      35.41500000
 H      29.89200000      10.90800000      35.02900000
 H      28.31000000      10.99500000      34.88800000
 O      26.32000000      20.37700000      36.02100000
 H      26.61900000      19.43300000      35.85800000
 H      25.66800000      20.39100000      36.77700000
 O      27.61000000      17.36100000      37.26600000
 H      27.46500000      16.65200000      36.55300000
 H      27.14100000      17.11700000      38.13600000
 O      29.22000000      18.60600000      33.89700000
 H      29.97900000      19.17600000      33.71000000
 H      29.56000000      17.84300000      34.36600000
 O      28.02900000      21.44700000      33.59700000
 H      27.54400000      20.91400000      34.16300000
 H      28.91500000      21.25400000      33.92600000
 O      29.23900000      15.28900000      36.31400000
 H      29.50400000      15.68300000      35.43600000
 H      30.02500000      14.81000000      36.57500000
 O      29.06800000      13.15200000      33.82000000
 H      29.70600000      12.50100000      33.60100000
 H      29.34500000      13.40700000      34.67700000
 O      30.81800000      21.20400000      33.36200000
 H      31.26100000      20.65100000      34.00100000
 H      31.05400000      20.89400000      32.45600000
 O      29.89700000      19.04500000      37.21600000
 H      29.10000000      18.63300000      36.88400000
 H      29.78700000      18.89600000      38.21300000
 O      35.66300000      20.71200000      30.40700000
 H      36.24700000      20.86100000      31.23400000
 H      35.88200000      19.85900000      29.92400000
 O      35.35300000      11.40400000      30.03800000
 H      35.42900000      11.97300000      29.22000000
 H      34.37700000      11.16000000      30.05500000
 O      36.11100000      18.92100000      27.79400000
 H      35.34700000      18.29700000      27.57100000
 H      36.82600000      18.35300000      27.36300000
 O      34.27900000      20.49600000      25.73500000
 H      34.69500000      20.55700000      26.63500000
 H      34.86800000      21.17600000      25.20000000
 O      33.97500000      16.74400000      29.12800000
 H      33.40600000      17.55700000      29.00700000
 H      33.32400000      16.01400000      29.25900000
 O      35.98500000      13.68500000      27.94300000
 H      36.49600000      14.47000000      28.32800000
 H      36.50000000      13.45600000      27.10500000
 O      36.92300000      16.30200000      29.27100000
 H      36.51100000      15.78800000      30.01100000
 H      36.18200000      16.82600000      28.87500000
 O      33.12900000      13.89500000      29.32700000
 H      32.66400000      13.30800000      28.69000000
 H      33.95300000      13.97800000      28.85700000
 O      33.44000000      15.22700000      26.52800000
 H      33.73900000      15.09800000      25.60500000
 H      34.24400000      15.59900000      26.96600000
 O      33.13400000      11.87200000      34.84000000
 H      33.83500000      12.36300000      35.38500000
 H      33.58100000      11.14600000      34.32800000
 O      35.25800000      14.26600000      33.03900000
 H      34.50700000      14.68000000      32.52600000
 H      35.44700000      13.37000000      32.64200000
 O      35.89000000      11.78800000      36.38400000
 H      36.78000000      11.82700000      36.79400000
 H      36.08700000      11.08600000      35.72100000
 O      34.88700000      14.12100000      35.69600000
 H      35.03500000      14.07900000      34.72000000
 H      35.22700000      13.21800000      35.94200000
 O      33.68500000      19.52800000      35.38400000
 H      33.55200000      18.67400000      35.80300000
 H      32.93100000      19.93100000      35.95400000
 O      34.75700000      17.24100000      36.77000000
 H      35.20600000      16.38500000      37.01800000
 H      35.56200000      17.68500000      36.52100000
 O      36.86400000      18.88200000      35.65100000
 H      37.03000000      19.45200000      34.96900000
 H      37.66100000      18.36900000      35.63100000
 O      32.97400000      16.53300000      34.29700000
 H      33.42800000      16.86100000      33.50600000
 H      33.59200000      16.31000000      35.09900000
