141
XYZ file of cluster: frame_15000_45fac.a0be5.482de - created by MolEdiTo
 O      16.13600000      25.17000000      14.22000000
 H      15.40800000      25.47300000      14.87200000
 H      15.61400000      25.09300000      13.34700000
 O      10.74900000      25.55400000      11.95600000
 H      11.12900000      25.21300000      12.80300000
 H       9.95900000      24.88200000      11.86000000
 O      17.60500000      28.86200000      19.16600000
 H      18.14500000      28.34000000      18.51600000
 H      18.24900000      29.43700000      19.71100000
 O      14.91400000      26.09500000      11.37900000
 H      14.18700000      26.19700000      10.71500000
 H      15.63100000      25.72000000      10.81400000
 O      18.82200000      24.57400000      21.45300000
 H      19.38000000      24.51800000      20.62800000
 H      18.02800000      25.00700000      21.06300000
 O      12.29100000      24.63800000      20.88500000
 H      11.91900000      24.40800000      19.97200000
 H      12.22500000      25.62400000      21.06600000
 O      18.63200000      21.05300000      11.83800000
 H      18.23300000      21.34500000      12.70200000
 H      18.89600000      21.87500000      11.29900000
 O      13.67600000      29.27000000      17.93400000
 H      14.63700000      29.45800000      18.13800000
 H      13.19600000      29.59200000      18.72500000
 O      18.90100000      29.59600000      15.78100000
 H      19.85100000      29.78100000      15.69800000
 H      18.88200000      28.74800000      16.23200000
 O      13.44600000      23.40000000      12.96700000
 H      14.00800000      23.57200000      12.18200000
 H      13.36800000      24.24100000      13.51500000
 O      11.97600000      25.60200000      14.43800000
 H      11.13800000      25.73100000      14.96700000
 H      12.62500000      25.16500000      15.12500000
 O      11.12600000      23.95200000      16.67200000
 H      11.70300000      23.29200000      17.08900000
 H      10.70500000      23.38900000      15.93800000
 O      15.75100000      22.87900000      11.04000000
 H      15.70100000      23.27000000      10.09600000
 H      15.59300000      21.99800000      10.61600000
 O      13.74200000      30.66300000      11.41800000
 H      13.47400000      29.69400000      11.71300000
 H      13.02300000      30.75000000      10.71100000
 O      12.89800000      21.58600000      17.49800000
 H      13.76500000      21.17700000      17.42900000
 H      12.48400000      21.02200000      16.79800000
 O      18.70400000      29.43200000      12.80700000
 H      19.21300000      29.58900000      11.87400000
 H      19.29900000      29.84100000      13.38100000
 O      16.90400000      23.82200000      18.36200000
 H      17.13200000      22.88000000      18.20300000
 H      17.72600000      24.36000000      18.27600000
 O      18.09100000      26.92500000      11.33400000
 H      18.83100000      27.55700000      11.34500000
 H      17.79500000      26.89400000      10.43800000
 O      16.53400000      28.17100000      13.97600000
 H      17.17300000      28.37900000      13.23400000
 H      17.11400000      27.68900000      14.56900000
 O      18.25100000      26.97700000      16.81300000
 H      18.36400000      26.15300000      16.23800000
 H      17.28700000      27.02600000      16.69500000
 O      18.99900000      25.37200000      14.43000000
 H      18.32300000      25.41500000      13.70600000
 H      19.89300000      25.59000000      14.03800000
 O      11.55700000      30.25000000      21.37100000
 H      11.60400000      30.35500000      20.46600000
 H      11.66600000      31.19000000      21.67400000
 O      15.20300000      24.33000000      20.72100000
 H      15.47400000      24.06200000      19.79400000
 H      14.36000000      24.90500000      20.69400000
 O      11.08500000      28.33000000      14.18800000
 H      11.97400000      27.96600000      13.93600000
 H      10.88900000      27.71400000      14.92100000
 O      13.83700000      27.96000000      13.16500000
 H      14.44200000      28.61000000      13.56600000
 H      14.47800000      27.34300000      12.73400000
 O      21.07200000      27.81200000      20.98400000
 H      21.15900000      27.96900000      19.99100000
 H      21.90900000      27.91700000      21.37400000
 O      12.71500000      26.10700000       9.75500000
 H      12.31600000      26.92600000       9.38500000
 H      12.33500000      26.02100000      10.71200000
 O      21.16400000      26.32800000      12.42500000
 H      22.04000000      26.12600000      11.92500000
 H      21.05000000      27.22300000      12.11200000
 O      11.32300000      29.18600000      11.10900000
 H      11.26000000      28.20900000      11.27500000
 H      10.87400000      29.73700000      11.82700000
 O      18.49300000      24.10800000      10.97600000
 H      17.55500000      23.76300000      10.89200000
 H      18.45400000      25.08400000      10.67600000
 O      10.22200000      26.71600000      16.39300000
 H      10.79200000      27.19500000      17.03300000
 H      10.40300000      25.75300000      16.60700000
 O      10.82900000      21.47600000      11.58000000
 H      10.23300000      22.20700000      11.27300000
 H      11.61400000      21.41900000      11.01100000
 O      20.01200000      23.08900000      15.84100000
 H      19.61800000      23.93200000      15.48100000
 H      19.46400000      22.39100000      15.48000000
 O       9.88700000      30.80500000      13.44600000
 H       9.10300000      30.24400000      13.45600000
 H      10.64900000      30.18000000      13.75000000
 O      11.50200000      21.87600000      14.23900000
 H      12.40400000      22.34800000      13.98200000
 H      11.03500000      21.64100000      13.33400000
 O      19.79400000      24.56000000      18.77400000
 H      20.67600000      24.80300000      19.05100000
 H      19.77800000      23.84300000      18.19900000
 O      15.45700000      30.55800000      20.15300000
 H      15.88700000      29.64300000      20.23100000
 H      15.69000000      31.00200000      20.97200000
 O      20.59700000      28.22500000      18.20300000
 H      21.43600000      27.80800000      17.81000000
 H      19.86100000      27.59200000      18.06900000
 O      18.36200000      27.44500000      21.96100000
 H      17.95900000      27.78300000      21.15000000
 H      19.25700000      27.24600000      21.63300000
 O      18.91900000      21.14600000      19.75900000
 H      19.21300000      20.92600000      18.79300000
 H      19.77800000      21.21400000      20.31500000
 O      12.19400000      26.67800000      18.51800000
 H      12.75200000      27.49800000      18.37500000
 H      12.65600000      26.02200000      18.01400000
 O      14.47300000      27.64700000      20.47500000
 H      14.35300000      27.83900000      21.46900000
 H      13.55000000      27.65600000      20.11000000
 O      15.12900000      26.11700000      18.13000000
 H      15.71000000      25.45200000      18.62900000
 H      15.15300000      26.95800000      18.58500000
 O      17.18700000      21.14700000      17.38200000
 H      16.54700000      20.92600000      16.67500000
 H      18.10600000      20.88000000      16.97700000
 O      17.58100000      22.74400000      14.46500000
 H      17.90000000      23.62200000      14.11200000
 H      16.71100000      22.83000000      14.86800000
 O      14.10200000      24.49500000      16.29900000
 H      14.12100000      23.58300000      16.57800000
 H      14.43700000      24.92600000      17.17700000
 O      21.93300000      23.63100000      10.77100000
 H      21.96900000      23.14000000      11.67400000
 H      20.94300000      23.67600000      10.76600000
