99
XYZ file of cluster: frame_15000_89c.1c35.193a - created by MolEdiTo
 O       5.62200000       5.41400000       9.38500000
 H       5.58400000       4.96500000      10.25100000
 H       4.67300000       5.74800000       9.24500000
 O       9.77600000       3.81700000       2.22900000
 H       9.19900000       4.13500000       2.96000000
 H       9.01500000       3.83900000       1.67500000
 O       3.15400000       7.05700000       9.28800000
 H       2.41600000       6.79300000       8.62200000
 H       3.62000000       7.78900000       8.89800000
 O       4.99400000       5.65500000       2.24100000
 H       5.53600000       5.93000000       3.03800000
 H       4.57600000       6.45000000       1.79700000
 O       6.50600000      10.70700000       3.98900000
 H       6.87900000      10.79600000       4.85500000
 H       6.97400000       9.95100000       3.56300000
 O       1.26000000       1.24800000       8.01000000
 H       1.60300000       0.38000000       7.87800000
 H       2.04600000       1.76600000       7.84900000
 O       9.21600000       3.23000000       9.96400000
 H       8.92100000       2.34900000       9.69800000
 H       9.23300000       3.78800000       9.11400000
 O       4.46200000       3.82500000       4.93600000
 H       4.20800000       2.91700000       4.64500000
 H       4.28200000       4.50300000       4.25900000
 O       8.43800000       6.90500000       9.12300000
 H       7.74800000       6.20000000       8.97600000
 H       8.18000000       7.53700000       8.41800000
 O       3.58500000       7.62400000       1.06500000
 H       3.13300000       7.44500000       0.20500000
 H       2.88500000       7.57500000       1.77500000
 O      11.28000000       5.92300000       3.14700000
 H      11.07000000       5.17900000       2.49600000
 H      10.50900000       5.98600000       3.77300000
 O       2.99800000       7.68400000       5.51400000
 H       2.61500000       8.48800000       5.16400000
 H       3.79300000       7.95100000       6.00200000
 O       0.93900000       7.99300000       3.27600000
 H       0.74600000       7.13400000       3.76000000
 H       0.45600000       8.61300000       3.85900000
 O       8.85300000       9.18200000       3.52300000
 H       8.92600000       8.70100000       2.65000000
 H       9.69400000       9.63500000       3.80300000
 O      10.86900000       7.63000000       6.34300000
 H      11.35500000       7.62700000       7.21200000
 H      10.33600000       6.82700000       6.53100000
 O       9.86100000       6.87700000      11.45400000
 H      10.42600000       7.68400000      11.42000000
 H       9.38000000       6.90800000      10.56100000
 O       4.46700000      10.07800000       9.24400000
 H       4.66700000       9.22900000       9.73900000
 H       4.98200000      10.76900000       9.74000000
 O       8.68900000       5.85000000       4.66500000
 H       8.89500000       6.66700000       5.15400000
 H       7.67800000       5.79500000       4.51200000
 O       5.83500000       7.48900000       4.04800000
 H       5.83800000       8.16700000       4.78500000
 H       5.83800000       8.13000000       3.34000000
 O       4.21000000       1.55600000       7.26200000
 H       3.96900000       0.81600000       6.63700000
 H       5.04900000       1.88500000       7.04700000
 O       1.95800000       5.13000000       2.47200000
 H       1.52000000       5.86000000       2.85700000
 H       1.42100000       4.84600000       1.69700000
 O       5.09800000       9.53600000       6.76300000
 H       4.20700000       9.84000000       6.74400000
 H       5.23700000       9.91300000       7.65600000
 O       7.49600000       8.50700000       6.37800000
 H       6.78700000       8.90700000       6.88600000
 H       7.88800000       9.30200000       5.99100000
 O       3.34200000       1.16300000       4.13200000
 H       2.37600000       1.48600000       4.10700000
 H       3.22400000       0.22900000       4.43700000
 O       6.95600000       3.35300000       3.16700000
 H       7.48900000       2.66400000       2.71600000
 H       6.64100000       4.11500000       2.65400000
 O       4.16200000       9.81300000       2.29800000
 H       4.18500000       8.93200000       1.81800000
 H       4.08400000      10.52800000       1.53800000
 O       1.81600000      10.35300000       5.96500000
 H       1.03600000      10.50200000       6.56700000
 H       2.33600000      11.23400000       5.94200000
 O       5.23500000       1.03500000       1.11700000
 H       5.14000000       0.38900000       0.48400000
 H       4.47100000       1.58300000       1.16500000
 O      10.10900000       7.78500000       1.18900000
 H      10.49500000       7.10200000       1.73200000
 H      10.85600000       8.44200000       1.22800000
 O       1.01600000       9.95500000       1.29700000
 H       0.07000000       9.67300000       0.98100000
 H       1.15200000       9.42400000       2.11500000
 O       3.11100000       4.79000000       7.19900000
 H       3.20300000       4.34200000       6.31500000
 H       3.87900000       4.32600000       7.68400000
 O      10.32900000       4.60600000       7.78800000
 H      10.96000000       4.94000000       8.58100000
 H      10.99500000       4.11000000       7.26300000
 O       6.64500000       2.32400000       5.93200000
 H       7.28600000       3.00900000       6.26400000
 H       6.20500000       2.85000000       5.30500000
