99
XYZ file of cluster: frame_15000_98fd5.4e843.9db1d - created by MolEdiTo
 O      27.31000000      16.07900000      26.83900000
 H      27.38500000      16.79500000      27.52600000
 H      27.73800000      15.36600000      27.37700000
 O      25.59400000      13.47700000      21.29100000
 H      24.70100000      13.23500000      20.94900000
 H      25.90700000      14.13200000      20.62600000
 O      28.15400000      17.31700000      29.42200000
 H      27.21900000      17.68100000      29.42000000
 H      28.37200000      17.14200000      30.36700000
 O      25.76100000      14.22700000      29.28700000
 H      25.50200000      14.82600000      28.53300000
 H      26.56800000      13.70200000      28.99900000
 O      28.48500000      14.05200000      28.30800000
 H      28.84300000      13.26200000      27.91500000
 H      29.20200000      14.59700000      28.66100000
 O      24.79600000      12.59400000      23.77800000
 H      23.98500000      12.10000000      23.71400000
 H      25.19000000      12.83700000      22.84700000
 O      28.29700000      19.24800000      25.18300000
 H      27.93400000      18.42200000      24.75900000
 H      29.26700000      18.97200000      25.29200000
 O      22.24900000      13.95300000      21.45200000
 H      22.26100000      14.19500000      20.50400000
 H      22.07100000      12.96500000      21.33700000
 O      21.53400000      16.95700000      25.81500000
 H      21.99500000      17.11900000      24.99900000
 H      22.15500000      16.23000000      26.21500000
 O      24.11100000      11.00500000      28.55700000
 H      23.94300000      11.57500000      29.39200000
 H      24.11400000      11.75200000      27.83800000
 O      25.58400000      18.31700000      29.07100000
 H      24.95600000      18.27800000      28.34600000
 H      25.08500000      18.91000000      29.70400000
 O      27.35600000      11.07200000      25.09500000
 H      26.56900000      11.61800000      24.87700000
 H      27.19300000      10.19900000      24.69300000
 O      22.42000000      20.17300000      23.98700000
 H      22.38100000      20.64700000      24.82500000
 H      22.39800000      19.22000000      24.22800000
 O      30.48400000      12.13000000      27.50400000
 H      30.62500000      12.52000000      26.57400000
 H      30.92600000      11.21700000      27.41700000
 O      22.95900000      18.94300000      27.73200000
 H      23.65300000      19.47500000      27.21900000
 H      22.16800000      18.86400000      27.14700000
 O      28.14000000      21.32700000      26.98600000
 H      28.06500000      20.84000000      26.18300000
 H      27.49800000      22.01200000      26.94500000
 O      28.71900000      12.94500000      21.01200000
 H      27.82000000      13.12100000      21.33700000
 H      28.91400000      12.04100000      21.36200000
 O      24.48000000      17.68500000      24.98200000
 H      24.61400000      17.38000000      25.95500000
 H      24.46500000      16.77100000      24.60200000
 O      23.77500000      16.11100000      27.98900000
 H      23.94300000      15.77600000      28.92600000
 H      23.17100000      16.87900000      27.96300000
 O      26.16100000      21.34500000      29.38000000
 H      26.23500000      20.66400000      30.08900000
 H      26.79400000      20.91000000      28.65500000
 O      23.12200000      12.42800000      26.46900000
 H      22.67000000      13.22800000      26.18400000
 H      22.40000000      11.79900000      26.22200000
 O      22.31800000      17.24400000      21.79000000
 H      21.87500000      16.63200000      21.18400000
 H      23.09700000      17.56000000      21.27900000
 O      29.82200000      12.70400000      24.88000000
 H      28.90700000      12.39300000      24.70300000
 H      29.83700000      13.68700000      24.61400000
 O      21.84300000      20.08600000      29.97300000
 H      22.37400000      19.92000000      29.16700000
 H      22.45700000      19.98500000      30.64900000
 O      25.40800000      18.57500000      22.13700000
 H      24.83200000      18.34100000      22.96300000
 H      25.02800000      19.49700000      21.97700000
 O      21.14200000      21.15700000      21.49900000
 H      21.76400000      20.80000000      22.22200000
 H      21.47000000      22.02900000      21.42900000
 O      20.44000000      10.84900000      24.20700000
 H      19.90100000      10.31600000      23.58400000
 H      21.41100000      10.50800000      24.10700000
 O      22.21500000      14.60800000      24.16700000
 H      22.24400000      14.51700000      23.20500000
 H      23.11900000      14.92700000      24.42400000
 O      27.98900000      17.42700000      22.42600000
 H      28.31700000      17.99600000      21.70300000
 H      27.02400000      17.60500000      22.37300000
 O      30.53300000      19.46800000      29.12000000
 H      30.33300000      20.26700000      28.71900000
 H      29.65300000      19.11500000      29.31300000
 O      27.51300000      21.85000000      23.05000000
 H      27.05300000      21.10900000      22.78000000
 H      26.74000000      22.42100000      23.32100000
 O      28.49900000      15.25200000      24.16200000
 H      28.48400000      15.94700000      24.75700000
 H      28.63300000      15.80600000      23.36400000
 O      24.98300000      15.00300000      25.31300000
 H      25.87600000      15.07200000      25.74200000
 H      25.07400000      14.11500000      24.88200000
