120
XYZ file of cluster: frame_15000_2395f.9d650.307c - created by MolEdiTo
 O       5.16600000      27.99200000       9.08700000
 H       5.61100000      27.82600000       9.94100000
 H       5.86600000      27.89200000       8.36500000
 O       9.15500000      27.31900000      10.19700000
 H       8.24800000      26.81200000      10.11500000
 H       9.72700000      26.61600000      10.51800000
 O       7.08400000      24.24500000       1.59600000
 H       7.31400000      25.20500000       1.67900000
 H       7.80200000      23.85500000       2.18000000
 O      15.58400000      23.84600000       8.56400000
 H      14.74500000      23.66300000       7.98900000
 H      16.32500000      24.09900000       7.86600000
 O      11.02300000      27.80900000       8.16100000
 H      11.51100000      28.67200000       7.91700000
 H      10.27900000      28.04200000       8.83100000
 O       7.49900000      30.15800000       7.65500000
 H       7.45300000      29.49800000       6.90600000
 H       7.47500000      31.04100000       7.23700000
 O       5.90500000      21.47000000       7.17400000
 H       6.03300000      22.32500000       6.68400000
 H       6.17100000      20.83900000       6.53000000
 O       8.72200000      22.40300000       3.99400000
 H       8.45700000      21.38300000       3.93200000
 H       8.25400000      22.86300000       4.68900000
 O       7.75600000      30.17800000      10.31200000
 H       7.96900000      29.25700000      10.62700000
 H       7.81800000      30.12900000       9.35500000
 O      11.21200000      30.52500000       1.13900000
 H      10.32900000      30.73500000       1.41900000
 H      11.72700000      30.21400000       1.85700000
 O      14.50000000      22.24600000       3.53800000
 H      14.68300000      22.10700000       2.54400000
 H      14.27300000      21.33900000       3.90600000
 O      12.17500000      26.76300000       6.02400000
 H      11.58200000      27.23100000       6.71600000
 H      13.02500000      26.94000000       6.47000000
 O      12.65300000      29.96800000       7.75300000
 H      12.90500000      30.71800000       8.33300000
 H      13.39600000      29.39200000       7.74400000
 O      15.75100000      22.87900000      11.04000000
 H      15.70100000      23.27000000      10.09600000
 H      15.59300000      21.99800000      10.61600000
 O       6.97000000      27.31300000       6.69400000
 H       7.40200000      26.82100000       7.42700000
 H       7.44800000      26.94100000       5.95200000
 O      14.01900000      22.66000000       6.53800000
 H      13.56600000      21.86400000       6.76100000
 H      14.05600000      22.61000000       5.53800000
 O      14.39000000      26.56300000       7.49100000
 H      14.91100000      27.23100000       7.94800000
 H      13.91800000      26.09900000       8.19200000
 O       8.20100000      25.44600000       4.58100000
 H       9.06400000      25.11600000       4.22300000
 H       7.65000000      25.88400000       3.82500000
 O      16.30200000      27.95600000       2.79700000
 H      15.49200000      28.39900000       2.57500000
 H      16.03100000      27.72100000       3.76400000
 O       9.54400000      20.97700000       8.19600000
 H      10.08200000      21.62500000       8.78400000
 H      10.17900000      21.03900000       7.55000000
 O      15.73700000      24.70200000       4.79500000
 H      15.16700000      24.75400000       5.58800000
 H      16.00200000      23.75000000       4.66100000
 O      14.80700000      29.51700000       5.39800000
 H      14.94600000      30.15700000       4.64200000
 H      15.66500000      29.19200000       5.81900000
 O       4.62900000      28.62200000       6.17500000
 H       4.64600000      28.28300000       5.30400000
 H       5.50100000      28.40000000       6.57200000
 O       7.37900000      21.87500000       9.84900000
 H       6.52600000      21.36200000       9.73600000
 H       7.93600000      21.41500000       9.14700000
 O      14.09100000      26.42800000       3.55600000
 H      14.63000000      25.55600000       3.63100000
 H      13.31600000      26.37500000       4.19100000
 O       6.02100000      21.57800000       2.29200000
 H       6.50100000      21.55600000       1.40800000
 H       6.09900000      22.51100000       2.57900000
 O      11.74700000      23.37000000       8.62000000
 H      11.78400000      24.35200000       8.58100000
 H      12.44500000      23.10900000       7.92500000
 O      12.71500000      26.10700000       9.75500000
 H      12.31600000      26.92600000       9.38500000
 H      12.33500000      26.02100000      10.71200000
 O      11.11000000      21.44900000       4.83700000
 H      10.13400000      21.71100000       4.60500000
 H      11.51800000      20.86300000       4.14900000
 O       9.34100000      29.02600000       3.35300000
 H       8.62800000      29.35400000       4.00300000
 H       9.86600000      29.86600000       3.49500000
 O      12.98600000      21.08300000       1.36500000
 H      12.73000000      20.44500000       2.03200000
 H      12.17700000      21.50500000       1.02200000
 O       9.92800000      24.03000000       2.06100000
 H      10.11400000      23.15800000       2.47000000
 H      10.29800000      24.66000000       2.76900000
 O      10.72500000      26.23200000       3.72800000
 H      10.62900000      27.22000000       3.67300000
 H      11.18300000      26.13100000       4.56100000
 O      12.07900000      29.93100000       4.66900000
 H      12.99200000      29.82800000       4.53900000
 H      11.95800000      30.75300000       5.22500000
 O       7.85900000      25.20800000       8.40800000
 H       6.92100000      25.08700000       8.51000000
 H       8.22900000      24.32300000       8.59900000
 O      12.90900000      28.32100000       1.81900000
 H      13.00000000      27.94000000       2.70400000
 H      12.41200000      27.60700000       1.43700000
 O      15.21800000      23.54800000       0.87700000
 H      15.98400000      23.02600000       0.39400000
 H      15.26100000      24.53600000       0.77900000
 O       6.94500000      29.57200000       4.34300000
 H       6.60100000      30.39400000       3.97300000
 H       6.59000000      29.03100000       3.68400000
 O       6.53100000      23.86200000       5.98800000
 H       7.23200000      24.39700000       5.58200000
 H       5.66300000      24.39100000       6.05900000
 O       7.77600000      26.80100000       1.88800000
 H       7.14400000      27.50400000       1.58800000
 H       8.49600000      27.37400000       2.31800000
