157
XYZ file of cluster: frame_15000_6b479.6a1f8.6ce16 - created by MolEdiTo
 O      17.79000000      23.36500000      23.40700000
 H      17.07100000      23.92100000      23.69000000
 H      18.31100000      23.84900000      22.68300000
 O      22.42800000      24.48700000      19.55000000
 H      22.87800000      25.33900000      19.50500000
 H      23.11000000      23.93000000      20.02300000
 O      19.11200000      19.78500000      25.34300000
 H      19.02100000      18.86100000      25.10400000
 H      19.09600000      20.46200000      24.64700000
 O      21.19200000      24.80300000      22.95800000
 H      20.40400000      24.46100000      22.47700000
 H      20.90800000      25.71400000      23.29100000
 O      15.15800000      21.61300000      22.21600000
 H      15.94900000      21.19900000      21.82800000
 H      15.23800000      22.51900000      21.78300000
 O      22.65800000      19.76100000      19.27700000
 H      23.30400000      20.04800000      19.93800000
 H      22.36400000      20.56700000      18.77700000
 O      18.82200000      24.57400000      21.45300000
 H      19.38000000      24.51800000      20.62800000
 H      18.02800000      25.00700000      21.06300000
 O      25.59400000      17.81300000      19.00800000
 H      26.53400000      18.14500000      19.02200000
 H      25.23600000      18.13900000      19.83000000
 O      19.62300000      18.31000000      21.02000000
 H      20.39600000      18.02200000      21.62300000
 H      19.13000000      18.91500000      21.60800000
 O      24.49200000      16.67200000      16.55100000
 H      24.36300000      15.73100000      16.86300000
 H      24.83000000      17.15500000      17.38000000
 O      21.53400000      16.95700000      25.81500000
 H      21.99500000      17.11900000      24.99900000
 H      22.15500000      16.23000000      26.21500000
 O      16.37300000      25.30200000      25.44500000
 H      16.65500000      25.59700000      24.53000000
 H      15.74900000      24.55700000      25.20100000
 C      15.68400000      14.39200000      15.44900000
 C      15.29700000      15.33700000      16.57300000
 C      16.78600000      17.16600000      15.35900000
 H      14.63700000      17.12200000      15.54600000
 H      14.03100000      13.95200000      15.72800000
 O      15.52500000      17.58300000      17.37300000
 O      16.82200000      14.13100000      15.17600000
 O      14.64400000      13.78500000      14.94700000
 C      15.45200000      16.84200000      16.13800000
 O      13.95500000      15.08400000      17.06700000
 H      15.94100000      15.12300000      17.40300000
 O      16.90500000      17.19200000      14.15700000
 O      17.92200000      17.02600000      16.02500000
 H      17.62200000      16.74700000      16.88400000
 H      14.13600000      15.07000000      18.06800000
 H      14.90900000      17.19700000      18.08900000
 O      16.16600000      15.16400000      24.67900000
 H      16.37000000      16.11800000      24.67300000
 H      16.59400000      14.90700000      25.51700000
 O      17.37800000      18.16200000      23.82000000
 H      16.40700000      18.18300000      23.72100000
 H      17.68300000      19.07300000      23.80500000
 O      22.08900000      21.99400000      17.72100000
 H      21.72400000      22.09300000      16.80900000
 H      22.16500000      22.95100000      17.88500000
 O      16.10100000      25.91500000      22.90100000
 H      15.33100000      26.48200000      22.67500000
 H      16.83900000      26.59700000      22.85200000
 O      16.45600000      19.82700000      19.77000000
 H      16.28900000      20.34900000      18.98000000
 H      17.32200000      20.12000000      20.00900000
 O      24.40400000      21.17200000      16.22800000
 H      23.96200000      21.44900000      17.10800000
 H      23.64200000      20.73300000      15.80200000
 O      18.15600000      17.76200000      18.64600000
 H      17.32000000      18.32800000      18.55000000
 H      18.45000000      17.96400000      19.57400000
 O      22.42000000      20.17300000      23.98700000
 H      22.38100000      20.64700000      24.82500000
 H      22.39800000      19.22000000      24.22800000
 O      22.27500000      19.47900000      15.69200000
 H      22.56200000      18.64900000      16.03600000
 H      21.26900000      19.46400000      15.63400000
 O      18.74700000      16.06500000      26.07100000
 H      18.79900000      15.07500000      25.95400000
 H      19.77500000      16.30500000      25.92200000
 O      18.98400000      14.92300000      18.91500000
 H      18.97200000      15.91500000      18.73800000
 H      19.88800000      14.78900000      19.27800000
 O      24.48000000      17.68500000      24.98200000
 H      24.61400000      17.38000000      25.95500000
 H      24.46500000      16.77100000      24.60200000
 O      16.90400000      23.82200000      18.36200000
 H      17.13200000      22.88000000      18.20300000
 H      17.72600000      24.36000000      18.27600000
 O      22.25200000      21.31100000      26.60100000
 H      21.90200000      21.43900000      27.48800000
 H      22.29200000      22.23700000      26.28400000
 O      21.99000000      24.44400000      26.00000000
 H      21.73300000      24.45200000      25.01300000
 H      21.20700000      24.05100000      26.29700000
 O      18.25100000      26.97700000      16.81300000
 H      18.36400000      26.15300000      16.23800000
 H      17.28700000      27.02600000      16.69500000
 O      24.11500000      25.31500000      22.22700000
 H      24.44600000      26.05400000      22.76400000
 H      23.15700000      25.35400000      22.39900000
 O      24.60000000      23.61600000      26.54500000
 H      24.15500000      22.91600000      27.19400000
 H      23.81600000      24.25100000      26.28200000
 O      19.03500000      19.64600000      16.00600000
 H      18.83400000      19.61600000      15.05500000
 H      18.51300000      18.89100000      16.33600000
 O      18.32000000      20.84600000      22.59000000
 H      18.03200000      21.71500000      23.01200000
 H      19.11100000      21.11600000      22.03300000
 O      21.03500000      17.69100000      18.12200000
 H      21.51200000      18.43100000      18.68700000
 H      20.10400000      17.78500000      18.34800000
 O      19.71900000      22.88900000      25.79500000
 H      19.76300000      22.21000000      26.53700000
 H      18.82800000      23.02500000      25.43600000
 O      22.31800000      17.24400000      21.79000000
 H      21.87500000      16.63200000      21.18400000
 H      23.09700000      17.56000000      21.27900000
 O      25.57200000      23.33300000      23.91600000
 H      25.19900000      24.21300000      23.89400000
 H      25.71000000      23.19600000      24.88000000
 O      25.40800000      18.57500000      22.13700000
 H      24.83200000      18.34100000      22.96300000
 H      25.02800000      19.49700000      21.97700000
 O      21.14200000      21.15700000      21.49900000
 H      21.76400000      20.80000000      22.22200000
 H      21.47000000      22.02900000      21.42900000
 O      25.60900000      23.47300000      19.70800000
 H      26.28000000      23.37100000      18.93700000
 H      26.12800000      23.85300000      20.41200000
 O      19.79400000      24.56000000      18.77400000
 H      20.67600000      24.80300000      19.05100000
 H      19.77800000      23.84300000      18.19900000
 O      26.74800000      25.49000000      21.45400000
 H      25.88800000      25.24000000      21.83800000
 H      26.47200000      26.25000000      20.90100000
 O      18.91900000      21.14600000      19.75900000
 H      19.21300000      20.92600000      18.79300000
 H      19.77800000      21.21400000      20.31500000
 O      25.80700000      26.87300000      17.46000000
 H      26.63800000      27.36900000      17.69900000
 H      26.16400000      25.94700000      17.37800000
 O      24.68300000      21.31900000      21.21200000
 H      25.07900000      21.85900000      20.48900000
 H      24.59600000      22.00900000      21.88800000
 O      17.18700000      21.14700000      17.38200000
 H      16.54700000      20.92600000      16.67500000
 H      18.10600000      20.88000000      16.97700000
 O      22.73200000      26.63200000      17.06600000
 H      23.53000000      26.34500000      17.63700000
 H      23.25700000      27.03400000      16.28200000
 O      16.46300000      16.38600000      21.19400000
 H      17.43100000      16.54300000      21.20300000
 H      16.14200000      17.15300000      21.67100000
