39
XYZ file of cluster: frame_3000_c17bf.7604a.9f81f - created by MolEdiTo
 O      17.89300000      16.72900000      14.56400000
 H      16.91600000      16.55600000      14.50100000
 H      18.12000000      15.74100000      14.40400000
 O      17.81000000      17.93000000      16.88000000
 H      17.01000000      18.45100000      16.61600000
 H      17.89600000      17.39700000      16.11000000
 O      17.92800000      10.44100000      14.07300000
 H      18.78500000      10.54700000      14.58000000
 H      17.41600000      11.23000000      14.34900000
 O      17.31900000      10.96800000      20.92400000
 H      16.46600000      11.43500000      20.72600000
 H      17.71800000      11.57400000      21.54000000
 O      18.51600000      16.55100000      20.48600000
 H      17.79000000      16.92100000      20.94800000
 H      19.00000000      17.44200000      20.34800000
 O      20.30800000      12.08400000      19.35800000
 H      20.70800000      12.48300000      20.12800000
 H      19.45100000      12.63000000      19.24500000
 O      18.70600000      14.48500000      18.63800000
 H      17.85500000      14.55900000      18.09600000
 H      18.65000000      15.32500000      19.14600000
 O      21.78800000      17.00200000      15.48800000
 H      22.57500000      17.38800000      15.88300000
 H      21.03900000      17.53300000      15.87700000
 O      24.10600000      13.47700000      19.69900000
 H      24.71500000      13.96700000      19.07500000
 H      23.59200000      14.22000000      20.11300000
 O      23.58400000      13.93100000      16.12000000
 H      23.89600000      13.16200000      16.69500000
 H      23.25700000      14.54600000      16.80600000
 O      21.57900000      14.78700000      14.30900000
 H      22.13600000      14.32200000      14.93900000
 H      21.61800000      15.69500000      14.69500000
 O      22.20200000      15.33000000      18.13400000
 H      21.96200000      16.21300000      17.85900000
 H      21.33800000      14.94600000      18.25200000
 O      21.29800000      11.59600000      15.24300000
 H      21.07100000      10.98400000      16.01500000
 H      22.21600000      11.82500000      15.39500000
