33
XYZ file of cluster: frame_3000_28cc.7a78c.7ec3 - created by MolEdiTo
 O       2.02300000      14.18300000       4.23600000
 H       1.62600000      15.05000000       4.03600000
 H       2.35200000      14.36900000       5.14600000
 O       3.24800000      10.84700000       1.22500000
 H       2.52700000      10.83500000       1.88100000
 H       3.07300000      11.63500000       0.69900000
 O       1.17800000      12.16600000       7.16300000
 H       2.01500000      12.66700000       7.06100000
 H       1.45600000      11.54300000       7.90700000
 O       2.88200000      15.93000000       1.54000000
 H       2.25600000      16.65900000       1.54500000
 H       3.01000000      15.79200000       2.50600000
 O       4.00000000      13.49800000       6.03200000
 H       4.50100000      14.13500000       5.47500000
 H       3.92700000      13.87500000       6.98000000
 O       5.75800000      15.99200000       4.61700000
 H       5.54600000      16.94300000       4.32400000
 H       6.32400000      15.63600000       3.86400000
 O       2.03000000      16.24600000       6.86000000
 H       2.18600000      16.31100000       7.84900000
 H       1.70700000      17.06500000       6.54500000
 O       4.05800000      12.96300000       2.94900000
 H       3.45300000      12.55300000       2.36200000
 H       3.31100000      13.17300000       3.66500000
 O       1.15200000      12.29900000       2.29400000
 H       1.43500000      13.21700000       2.54400000
 H       0.21700000      12.25600000       2.66700000
 O       6.39900000      13.28900000       1.65000000
 H       5.43400000      13.15300000       1.86600000
 H       6.84100000      12.89000000       2.48000000
 O       6.14300000      11.54400000       5.29900000
 H       5.75900000      11.15700000       4.42900000
 H       5.35700000      12.05600000       5.60100000
