36
XYZ file of cluster: frame_3000_2113e.81722.c5403 - created by MolEdiTo
 O       3.32900000      13.47700000      19.69900000
 H       3.93800000      13.96700000      19.07500000
 H       2.81500000      14.22000000      20.11300000
 O       6.31000000      14.48900000      19.12900000
 H       6.43400000      15.22300000      19.81400000
 H       6.50200000      13.64600000      19.72600000
 O       8.75100000      12.12600000      19.02300000
 H       9.48400000      11.45200000      19.14900000
 H       7.94200000      11.60900000      19.20500000
 O       3.65700000      17.70900000      19.08200000
 H       4.04000000      16.92500000      19.58100000
 H       3.54200000      18.34800000      19.83200000
 O       6.51900000      17.27100000      20.28100000
 H       5.94600000      17.53700000      21.03000000
 H       7.39700000      17.13000000      20.54600000
 O       9.70600000      15.30000000      19.74400000
 H       9.70700000      14.74400000      18.91300000
 H      10.33700000      14.85600000      20.34500000
 O      10.29100000      17.53000000      17.90200000
 H      10.88000000      16.88200000      17.40300000
 H      10.34800000      17.10900000      18.79400000
 O       8.96100000      15.38000000      25.77300000
 H       8.48500000      16.22900000      25.44100000
 H       9.62900000      15.26400000      25.05900000
 O       8.51900000      12.66200000      25.05600000
 H       9.43600000      12.69900000      24.75900000
 H       8.41200000      13.50600000      25.48400000
 O       8.73400000      17.89300000      24.68200000
 H       9.48400000      18.02100000      24.02200000
 H       8.55400000      18.78400000      25.04600000
 O       4.05800000      12.96300000      24.48900000
 H       3.45300000      12.55300000      23.90200000
 H       3.31100000      13.17300000      25.20500000
 O       6.39900000      13.28900000      23.19000000
 H       5.43400000      13.15300000      23.40600000
 H       6.84100000      12.89000000      24.02000000
