1221
XYZ file of cluster: frame_13000_4a4cb.c3ab8.20bb1 - created by MolEdiTo
 O      35.79300000      35.10800000      13.97800000
 H      36.43200000      34.54700000      14.42900000
 H      35.03700000      34.52900000      13.82300000
 O      40.49100000      38.81000000      34.84100000
 H      40.50800000      39.53200000      34.17400000
 H      39.94500000      39.15900000      35.54500000
 O      32.34900000      39.42100000      17.11700000
 H      32.99100000      38.74300000      16.86600000
 H      32.36800000      40.06100000      16.36900000
 O      36.37900000      37.18000000      12.05300000
 H      36.37600000      36.43100000      12.66800000
 H      35.51900000      37.60600000      12.39600000
 O      19.28500000      37.70200000      12.31500000
 H      18.40900000      37.79400000      11.99200000
 H      19.87700000      37.84800000      11.57500000
 O      32.58100000      37.04900000      37.51400000
 H      32.48800000      37.91900000      37.15700000
 H      33.03200000      37.16800000      38.36100000
 O      40.68300000      40.73800000      22.50800000
 H      40.20500000      39.91200000      22.76300000
 H      41.55000000      40.58100000      22.96800000
 O      20.68600000      39.66600000      25.84900000
 H      20.82500000      40.61200000      25.82100000
 H      21.63400000      39.32600000      25.77500000
 O      29.13400000      37.92500000      35.39900000
 H      29.79500000      37.30400000      34.99900000
 H      29.41100000      37.83600000      36.33600000
 O      34.24500000      36.29400000      22.76800000
 H      33.92100000      36.67200000      23.60800000
 H      33.40500000      36.39200000      22.23800000
 O      18.26400000      33.66600000      32.95600000
 H      17.33100000      33.68900000      33.13000000
 H      18.47800000      34.62400000      32.78700000
 O      40.30300000      39.88500000      40.12400000
 H      39.58400000      39.22200000      40.28200000
 H      39.88500000      40.37100000      39.35400000
 O      33.51300000      35.08500000      30.84500000
 H      33.96200000      34.66400000      31.62900000
 H      32.80200000      35.58300000      31.28100000
 O      13.86200000      37.26300000      36.42200000
 H      13.25900000      37.40200000      35.63400000
 H      13.38700000      37.98800000      36.97000000
 O      29.95100000      37.20600000      37.85900000
 H      30.93300000      37.27900000      37.94300000
 H      29.76300000      37.66000000      38.69300000
 O      28.55000000      39.67100000      13.80600000
 H      28.09600000      39.77100000      14.68800000
 H      28.15700000      40.44000000      13.34100000
 O      18.89500000      35.23300000      18.15500000
 H      19.28000000      36.08800000      17.85800000
 H      17.95500000      35.41300000      18.15000000
 O      38.17000000      35.31400000       9.65100000
 H      37.28200000      35.67100000       9.49800000
 H      38.08100000      34.88000000      10.51200000
 O      21.94100000      35.20100000      17.15600000
 H      22.18100000      35.51900000      18.07900000
 H      20.98700000      35.30800000      17.21600000
 O      20.63400000      40.40000000       9.39000000
 H      20.39400000      40.60400000       8.49300000
 H      21.02700000      41.26700000       9.68500000
 O      23.34100000      36.90400000      15.69500000
 H      22.94800000      36.82700000      14.77100000
 H      22.88100000      36.04400000      15.97600000
 O      15.03300000      40.10400000      37.81400000
 H      14.36700000      40.67200000      38.25900000
 H      14.79100000      40.24600000      36.88300000
 O      20.98700000      40.73600000      16.93000000
 H      21.91400000      40.71800000      16.93100000
 H      20.75400000      40.96600000      17.87500000
 O      14.53400000      40.70300000      19.78600000
 H      14.63400000      41.21600000      18.98400000
 H      14.21100000      39.85700000      19.39200000
 O      29.15200000      40.23800000      22.06600000
 H      29.80600000      40.81700000      21.58800000
 H      28.32500000      40.76200000      22.01300000
 O      38.06000000      37.41100000      17.03500000
 H      37.78800000      36.55000000      17.39500000
 H      37.21000000      37.64800000      16.53500000
 O      39.96300000      40.42900000       6.88300000
 H      39.92200000      39.46400000       6.82300000
 H      39.62700000      40.53800000       7.81000000
 O      14.59500000      37.76800000      23.04100000
 H      13.97600000      37.04000000      23.38100000
 H      14.01800000      38.54800000      23.05500000
 O      19.07200000      36.24600000      15.29000000
 H      19.42600000      36.92900000      15.85000000
 H      19.05300000      36.71500000      14.41700000
 O      21.56800000      40.38300000      12.24500000
 H      21.47700000      39.68400000      11.57300000
 H      21.51600000      41.17100000      11.73500000
 O      25.57100000      37.40000000      17.11400000
 H      25.59800000      36.79400000      17.88000000
 H      24.69600000      37.13800000      16.70400000
 O      22.64400000      38.86000000      21.70800000
 H      23.39400000      39.39900000      21.39100000
 H      21.96400000      39.52200000      21.88100000
 O      38.09800000      39.54000000      14.24900000
 H      37.72900000      40.46300000      14.44400000
 H      37.37700000      39.01500000      14.63900000
 O      17.67600000      38.43600000      32.11000000
 H      17.46300000      38.70400000      33.01900000
 H      16.85000000      37.94600000      31.96900000
 O      36.25300000      39.62300000      33.28200000
 H      35.59200000      39.66500000      33.97700000
 H      36.95700000      39.03900000      33.58800000
 O      15.50500000      37.00800000      20.54000000
 H      15.19200000      37.37300000      21.40000000
 H      14.82100000      36.35300000      20.33300000
 O      16.22900000      36.51500000      17.98400000
 H      16.30900000      37.38600000      17.45600000
 H      16.05400000      36.89900000      18.85800000
 O      28.21000000      36.84700000      16.39700000
 H      28.45200000      37.46000000      17.12600000
 H      27.21600000      36.98900000      16.42200000
 O      26.92000000      39.53700000      38.93300000
 H      27.57900000      38.88600000      39.21200000
 H      26.10300000      39.15200000      39.28500000
 O      35.31600000      34.83900000      35.39300000
 H      34.73200000      34.18900000      35.75500000
 H      35.78100000      35.10400000      36.20600000
 O      39.76400000      39.35200000      17.95500000
 H      40.55500000      38.85900000      18.23100000
 H      39.36800000      38.64500000      17.33300000
 O      35.24500000      34.75000000      27.01000000
 H      35.03900000      35.36000000      27.72800000
 H      34.49000000      34.96300000      26.37600000
 O      24.36600000      35.59800000      23.17500000
 H      24.86600000      36.30300000      22.74600000
 H      24.04100000      35.13000000      22.38900000
 O      16.14300000      36.85300000      10.60800000
 H      15.89100000      37.37900000      11.43900000
 H      16.03300000      35.97400000      11.03900000
 O      17.38300000      34.84300000      28.68000000
 H      17.71300000      35.58000000      29.18700000
 H      17.93100000      34.87500000      27.88200000
 O      40.53400000      40.74600000      33.04800000
 H      39.63800000      41.12400000      32.71400000
 H      40.78700000      40.26800000      32.24800000
 O      25.23200000      36.30300000      30.02600000
 H      25.05700000      35.62200000      29.37600000
 H      24.96000000      37.15600000      29.58400000
 O      18.02600000      39.45700000      20.07000000
 H      17.41300000      38.73400000      19.99300000
 H      18.66000000      39.23100000      20.79800000
 O      18.67000000      38.73600000       6.74200000
 H      17.79500000      38.85400000       6.23100000
 H      18.20700000      38.80900000       7.63400000
 O      29.45900000      34.53100000      17.72200000
 H      29.61200000      35.06000000      16.92900000
 H      28.86800000      33.84700000      17.28800000
 O      38.88900000      35.88400000      21.12900000
 H      38.36600000      36.07000000      21.92100000
 H      38.83000000      36.74600000      20.65700000
 O      15.19600000      34.36500000      26.53500000
 H      16.08000000      33.89400000      26.44100000
 H      15.33300000      34.82100000      27.43000000
 O      28.95400000      38.14600000      40.29300000
 H      29.38200000      38.95800000      40.59700000
 H      29.62800000      37.45800000      40.45700000
 O      16.85500000      38.76800000      39.09600000
 H      16.87900000      38.39200000      38.18500000
 H      16.17900000      39.45000000      38.95200000
 O      20.83200000      34.25300000       9.04300000
 H      20.11500000      34.92000000       8.98100000
 H      21.33600000      34.34100000       8.31500000
 O      23.78300000      39.84600000      16.69700000
 H      23.66800000      40.05300000      15.73400000
 H      24.26500000      38.98300000      16.53900000
 O      28.29300000      34.25700000      11.25000000
 H      27.62800000      34.78800000      10.76300000
 H      27.71900000      33.65300000      11.75300000
 O      30.74700000      35.17400000      11.55200000
 H      29.97000000      34.72800000      11.21000000
 H      30.51000000      35.41200000      12.48400000
 O      14.15800000      34.00100000      29.85700000
 H      14.52600000      34.81000000      30.18500000
 H      14.39900000      33.28800000      30.50300000
 O      19.50400000      38.04200000      27.73600000
 H      19.73300000      38.54200000      26.89700000
 H      20.40700000      38.03300000      28.08700000
 O      31.05200000      36.82400000      14.01700000
 H      30.96500000      37.77400000      13.80500000
 H      30.31700000      36.75300000      14.66500000
 O      23.81100000      40.62400000      13.80700000
 H      22.93700000      40.32900000      13.43600000
 H      24.40900000      40.33600000      13.11600000
 O      22.67400000      36.52200000      33.13200000
 H      23.34800000      35.84400000      33.06300000
 H      21.90100000      36.03300000      33.34100000
 O      36.07700000      37.72500000      15.34400000
 H      35.87000000      36.83100000      15.08600000
 H      35.20300000      38.01900000      15.61600000
 O      38.45600000      36.45500000      27.45300000
 H      38.24700000      35.83700000      28.19300000
 H      38.50100000      37.30300000      27.92800000
 O      17.54000000      38.81900000       9.00500000
 H      17.01600000      39.60400000       9.30200000
 H      17.08900000      38.10600000       9.53000000
 O      26.36600000      38.27700000      32.33300000
 H      25.67000000      38.26600000      32.97700000
 H      25.94500000      38.08700000      31.49600000
 O      33.03600000      37.56700000      25.05200000
 H      32.24100000      38.15800000      25.33700000
 H      33.71300000      38.35400000      24.96300000
 O      39.84900000      38.20800000       9.60400000
 H      40.62100000      38.78400000       9.64500000
 H      39.63100000      38.17200000      10.57900000
 O      18.75100000      40.45500000      30.66200000
 H      18.33300000      40.28700000      29.79200000
 H      18.44700000      39.76500000      31.23900000
 O      28.58800000      35.06300000      14.13100000
 H      28.04500000      35.46800000      13.43400000
 H      28.35500000      35.71400000      14.86300000
 O      28.41400000      39.79000000      24.82100000
 H      29.11000000      39.52000000      25.40100000
 H      28.90100000      39.91800000      23.95100000
 O      33.96800000      38.15100000      12.14300000
 H      33.25700000      38.38900000      12.77800000
 H      33.98500000      38.92100000      11.56300000
 O      38.47600000      40.03600000      36.46000000
 H      38.78100000      40.51800000      37.25700000
 H      38.00900000      40.77600000      36.04500000
 O      38.15500000      38.01200000      40.35000000
 H      37.95700000      37.09200000      40.49700000
 H      37.69300000      38.43800000      41.10700000
 O      26.14700000      35.46100000      10.00500000
 H      25.54600000      34.81700000       9.62100000
 H      25.47800000      36.20200000      10.03000000
 O      27.31000000      37.54200000      27.18600000
 H      27.80700000      37.30600000      26.40300000
 H      27.66400000      36.97600000      27.84900000
 O      32.98000000      34.99600000      25.43700000
 H      33.17300000      35.90500000      25.23300000
 H      32.04100000      34.93500000      25.16800000
 O      29.59400000      38.62400000      10.44400000
 H      30.27400000      39.30100000      10.41600000
 H      29.43100000      38.47700000       9.50300000
 O      33.43300000      37.47900000      15.59200000
 H      32.52400000      37.40700000      15.20000000
 H      33.65600000      36.56600000      15.69800000
 O      16.42200000      39.56900000      25.84500000
 H      15.86600000      40.34800000      26.26000000
 H      16.92800000      39.40500000      26.67300000
 O      23.27500000      38.87200000      26.09600000
 H      23.98600000      38.91900000      25.44000000
 H      23.80400000      38.78800000      26.92300000
 O      18.25900000      35.70700000       8.89600000
 H      17.91600000      35.04500000       8.28900000
 H      17.40900000      36.07000000       9.27200000
 O      24.85100000      35.36300000      37.29800000
 H      25.83500000      35.48000000      37.26500000
 H      24.54400000      36.24800000      36.98600000
 O      14.10700000      40.15400000      35.08900000
 H      13.39100000      40.77500000      35.05300000
 H      13.87100000      39.45900000      34.44500000
 O      37.05500000      38.81500000      24.94500000
 H      37.70400000      39.19300000      25.62000000
 H      36.31300000      38.64500000      25.53700000
 O      33.96200000      39.90400000      23.97000000
 H      34.42900000      39.40700000      23.30100000
 H      34.58300000      40.63300000      24.22600000
 O      30.57900000      37.91600000      22.33500000
 H      31.49100000      38.25000000      22.04000000
 H      30.12800000      38.78200000      22.39000000
 O      25.62000000      38.39900000      24.78700000
 H      25.56100000      38.27200000      23.85900000
 H      26.41700000      37.90000000      25.01400000
 O      19.05100000      35.91500000      31.65400000
 H      19.69500000      36.01500000      30.99100000
 H      18.56400000      36.81600000      31.58200000
 O      23.46700000      38.99500000      34.07700000
 H      24.05200000      38.57300000      34.73600000
 H      22.93600000      38.20600000      33.85100000
 O      21.92100000      36.73500000      39.56800000
 H      21.68800000      37.54800000      40.08100000
 H      22.15800000      36.11200000      40.20900000
 O      32.64500000      33.91100000       7.95100000
 H      31.90600000      33.90100000       7.26500000
 H      32.42900000      34.74300000       8.41000000
 O      37.77100000      38.23600000       7.80400000
 H      37.16300000      38.41500000       8.59100000
 H      38.56100000      38.05700000       8.32000000
 O      37.35000000      35.36100000      40.39900000
 H      37.66600000      34.59300000      40.90400000
 H      36.41800000      35.12400000      40.22400000
 O      31.06300000      34.70400000      23.63900000
 H      31.11300000      35.60000000      23.22000000
 H      30.33300000      34.29400000      23.09000000
 O      16.25400000      38.71700000      12.46700000
 H      15.51200000      39.32600000      12.31700000
 H      16.79000000      39.19000000      13.09700000
 O      21.24400000      40.45500000      37.88700000
 H      20.85800000      39.95600000      37.14300000
 H      20.46200000      41.06100000      38.05000000
 O      35.27600000      35.05200000      19.11400000
 H      35.69700000      34.40000000      19.68100000
 H      35.14800000      34.51500000      18.30800000
 O      29.36900000      37.63000000      32.46800000
 H      28.58700000      38.00000000      32.03400000
 H      29.09300000      37.75700000      33.39800000
 O      14.06900000      40.75700000      11.57500000
 H      13.88400000      40.05200000      10.87600000
 H      14.10600000      41.53400000      11.03600000
 O      23.75300000      37.51600000      10.58400000
 H      23.46200000      37.07800000      11.43700000
 H      22.84800000      37.67800000      10.21200000
 O      27.89600000      37.34500000      12.25800000
 H      28.24700000      37.82000000      12.97000000
 H      28.50700000      37.45600000      11.55700000
 O      24.11500000      34.32900000       9.00900000
 H      23.96700000      33.31300000       9.00700000
 H      23.54100000      34.61800000       8.31400000
 O      22.08500000      38.84800000      28.55700000
 H      23.00400000      38.76600000      28.23300000
 H      22.03600000      39.82700000      28.66700000
 O      33.58200000      35.55700000      11.44000000
 H      33.69900000      36.38500000      11.96000000
 H      32.56100000      35.62700000      11.35400000
 O      32.26600000      37.64300000      29.20400000
 H      31.75700000      37.11000000      29.92100000
 H      31.95900000      38.52600000      29.57600000
 O      21.24800000      36.60800000      30.15500000
 H      21.37200000      36.84900000      29.25500000
 H      21.77500000      35.82200000      30.27900000
 O      36.03200000      39.10400000       9.41900000
 H      35.06700000      39.00400000       9.36600000
 H      36.11400000      40.00100000       9.78100000
 O      16.99200000      37.51200000      24.24300000
 H      16.27500000      37.23500000      23.64900000
 H      16.57100000      38.22800000      24.75800000
 O      28.37300000      36.16600000      21.74500000
 H      29.18300000      36.44200000      21.32100000
 H      28.54100000      35.21800000      21.82100000
 O      13.68200000      38.68400000      18.18000000
 H      14.40500000      38.95400000      17.59700000
 H      13.41500000      37.91700000      17.54500000
 O      23.93000000      40.52300000      38.42300000
 H      23.80500000      41.43300000      38.64800000
 H      23.04100000      40.28800000      38.15200000
 O      20.36700000      40.67300000      21.75400000
 H      21.02400000      41.29800000      22.10800000
 H      19.68100000      40.65700000      22.45700000
 O      30.55400000      38.72400000      25.90300000
 H      30.96400000      39.60100000      26.17200000
 H      30.32000000      38.41400000      26.77900000
 O      27.55500000      34.86800000      38.08400000
 H      27.52000000      34.34000000      38.94200000
 H      28.48400000      35.28600000      38.26100000
 O      20.15900000      38.42700000      33.90700000
 H      19.31700000      38.60500000      33.46200000
 H      20.74800000      38.42800000      33.11100000
 O      18.68400000      40.59300000      40.49900000
 H      18.73700000      40.98300000      39.59400000
 H      18.31700000      39.70000000      40.32800000
 O      35.60400000      39.09600000      21.73000000
 H      34.67200000      39.04900000      21.40100000
 H      35.96100000      38.38900000      21.04000000
 O      16.60700000      37.37100000      36.68500000
 H      15.66300000      37.33900000      36.48100000
 H      16.86300000      38.02900000      36.02400000
 O      16.96600000      38.86000000      17.13200000
 H      17.17700000      39.74300000      17.54300000
 H      17.61600000      38.83000000      16.41000000
 O      28.29100000      39.92900000      31.06400000
 H      28.83600000      40.55100000      31.66800000
 H      27.57900000      39.64900000      31.68500000
 O      33.32600000      38.30000000       8.36000000
 H      32.44700000      37.90900000       8.46900000
 H      33.45900000      38.15600000       7.38600000
 O      37.69500000      35.61300000      32.36700000
 H      37.10800000      35.48300000      31.60200000
 H      37.92300000      34.64500000      32.51400000
 O      23.14500000      35.67300000      25.58200000
 H      23.66900000      35.82900000      24.70100000
 H      23.05400000      36.60600000      25.87300000
 O      31.82800000      39.50900000      33.93700000
 H      31.78600000      39.64300000      34.88700000
 H      32.08600000      38.53400000      33.89800000
 O      31.71600000      39.15900000      39.74600000
 H      31.69900000      40.01200000      39.28400000
 H      32.61500000      39.07700000      40.06300000
 O      40.06900000      36.24700000      33.44400000
 H      39.21600000      36.23100000      33.03100000
 H      40.00400000      36.95100000      34.07800000
 O      37.81200000      33.81400000      23.43600000
 H      38.75500000      33.96700000      23.80000000
 H      37.53600000      34.74900000      23.39300000
 O      19.80000000      37.92000000      23.44000000
 H      18.88000000      37.69600000      23.70400000
 H      20.05900000      38.46300000      24.17900000
 O      27.66800000      35.10900000       7.85300000
 H      26.93000000      35.48500000       7.28200000
 H      27.25900000      35.35300000       8.72800000
 O      36.84200000      36.36500000      23.04500000
 H      36.97000000      36.88400000      23.91300000
 H      35.91600000      36.54100000      22.82500000
 O      23.86800000      38.28800000      36.78600000
 H      24.18800000      39.16300000      36.96200000
 H      22.97900000      38.48500000      36.50500000
 O      13.98400000      38.64100000      10.12700000
 H      14.26300000      37.71900000      10.36300000
 H      13.40600000      38.40000000       9.34800000
 O      32.15900000      36.84300000      34.75800000
 H      32.16500000      35.88600000      34.54900000
 H      32.33800000      36.76900000      35.74800000
 O      33.55000000      40.58300000      28.81000000
 H      34.27800000      40.67800000      29.49300000
 H      32.95100000      39.96000000      29.20500000
 O      39.06400000      35.59900000      13.68600000
 H      38.86400000      35.14800000      12.83300000
 H      38.35100000      35.20800000      14.19800000
 O      18.58500000      35.20300000      38.02500000
 H      19.49700000      35.37700000      37.67700000
 H      18.13700000      35.94400000      37.55500000
 O      30.67800000      34.37500000      37.53200000
 H      30.83000000      35.36400000      37.68900000
 H      30.13300000      34.45700000      36.73200000
 O      19.32000000      39.10700000      14.62900000
 H      20.03600000      39.73900000      14.63400000
 H      19.40400000      38.75100000      13.73600000
 O      36.42600000      38.12900000      37.12100000
 H      37.19700000      38.77300000      37.10200000
 H      36.53800000      37.73400000      36.22200000
 O      31.39000000      36.41000000       9.14500000
 H      31.07400000      36.06000000      10.02500000
 H      30.56700000      36.71300000       8.72100000
 O      39.35600000      38.57500000      23.37600000
 H      38.42100000      38.68600000      23.59500000
 H      39.70000000      38.42000000      24.29800000
 O      37.64800000      38.24300000      20.01200000
 H      38.01700000      38.24300000      19.12400000
 H      38.07700000      38.97600000      20.47000000
 O      21.04500000      37.93600000      10.10900000
 H      20.72100000      37.39400000       9.35400000
 H      20.81300000      38.83900000       9.78100000
 O      38.80500000      39.16600000      29.01500000
 H      38.02500000      39.33400000      29.53800000
 H      38.61700000      39.50600000      28.16800000
 O      24.79300000      38.54800000      28.37200000
 H      25.04500000      39.34100000      28.90500000
 H      25.60200000      38.33900000      27.86000000
 O      13.50200000      35.22300000      19.73100000
 H      13.41600000      34.75400000      20.61600000
 H      13.89900000      34.46700000      19.26300000
 O      29.07000000      34.42800000      35.51300000
 H      28.36100000      34.63300000      36.11800000
 H      28.55200000      34.11100000      34.72500000
 O      24.70900000      34.25800000      32.31200000
 H      25.02100000      34.96200000      31.70000000
 H      24.67400000      33.49800000      31.71300000
 O      22.34000000      37.78400000      19.20500000
 H      22.21300000      38.30300000      20.01500000
 H      23.23700000      37.42600000      19.35300000
 O      19.77500000      38.36200000      36.63000000
 H      20.12000000      37.45700000      36.94200000
 H      19.89600000      38.23400000      35.64000000
 O      21.50900000      38.83600000      31.50100000
 H      21.41300000      39.44400000      30.75000000
 H      21.36700000      37.98600000      31.04600000
 O      30.33200000      35.77900000      20.12600000
 H      31.24700000      35.53200000      20.00200000
 H      29.89000000      35.38200000      19.36500000
 O      21.07300000      39.30100000      40.65700000
 H      21.33100000      39.57100000      39.73900000
 H      20.16300000      39.74500000      40.64900000
 O      15.39800000      35.16100000      15.75700000
 H      15.82200000      35.63600000      16.44400000
 H      14.45700000      35.34800000      15.86200000
 O      24.69800000      38.13400000      39.65700000
 H      23.88400000      37.64600000      39.40300000
 H      24.47400000      39.04100000      39.57300000
 O      31.13500000      39.37400000      30.86100000
 H      30.33400000      39.93400000      30.72700000
 H      30.88500000      38.99000000      31.71900000
 O      17.43400000      34.67200000      21.42300000
 H      18.03800000      34.25800000      20.80200000
 H      17.66500000      35.61200000      21.35300000
 O      35.82200000      38.64200000      29.32900000
 H      35.38400000      37.78100000      29.40500000
 H      36.14700000      38.57300000      28.40900000
 O      21.98700000      35.67400000      13.40200000
 H      22.25500000      34.97000000      12.76800000
 H      21.01700000      35.53500000      13.37900000
 O      39.37900000      36.09300000      38.40900000
 H      38.70300000      35.91300000      39.07200000
 H      39.15300000      37.00800000      38.11300000
 O      13.42300000      36.11400000      25.67700000
 H      12.65500000      35.51100000      25.54300000
 H      14.13400000      35.41500000      25.70000000
 O      34.55700000      36.46600000      28.72800000
 H      34.27900000      35.89300000      29.49700000
 H      33.64000000      36.93400000      28.64200000
 O      20.32500000      36.92400000       7.62400000
 H      20.08500000      37.86300000       7.45600000
 H      19.51300000      36.48700000       7.91900000
 O      13.94600000      38.73700000       6.34600000
 H      13.47700000      38.51000000       7.24200000
 H      13.22300000      38.34800000       5.79600000
 O      35.42100000      34.35600000       7.30500000
 H      35.37800000      35.09800000       7.96900000
 H      34.49500000      34.08300000       7.36500000
 O      27.90100000      40.08600000      28.48500000
 H      27.71700000      39.15100000      28.11800000
 H      28.03800000      39.89900000      29.40900000
 O      36.96400000      37.16900000      34.45400000
 H      37.36300000      36.64600000      33.72900000
 H      36.15800000      36.63300000      34.64500000
 O      26.26900000      37.65200000      22.31400000
 H      27.16800000      37.26100000      22.05900000
 H      26.12700000      38.23600000      21.56500000
 O      15.51600000      35.14700000      12.52000000
 H      15.83400000      35.21600000      13.46500000
 H      14.98500000      34.32700000      12.56000000
 O      25.61800000      40.43800000      36.47600000
 H      24.89600000      40.86000000      37.03600000
 H      26.18900000      40.18300000      37.22500000
 O      33.46200000      40.36400000      10.11600000
 H      33.24200000      39.82000000       9.36500000
 H      32.65300000      40.86800000      10.22600000
 O      28.49900000      36.85700000      24.78600000
 H      29.46400000      36.97700000      24.87200000
 H      28.33300000      37.44300000      24.02000000
 O      33.11500000      36.51200000      19.02400000
 H      32.63600000      35.91100000      18.36400000
 H      34.03600000      36.08600000      18.99200000
 O      32.48400000      39.65700000      36.51800000
 H      32.17900000      40.27400000      37.18500000
 H      33.21900000      40.08300000      36.06900000
 O      26.99300000      40.04400000      16.36000000
 H      26.42000000      40.57000000      16.99500000
 H      26.87600000      39.19600000      16.73000000
 O      24.87300000      40.66700000      20.73300000
 H      25.61600000      41.09400000      21.15500000
 H      25.15000000      40.74300000      19.80500000
 O      29.36900000      36.42200000      28.85200000
 H      28.92200000      35.57100000      28.62300000
 H      30.06800000      36.16000000      29.46400000
 O      31.41200000      39.50400000      13.39900000
 H      30.41500000      39.61200000      13.30900000
 H      31.63000000      40.36400000      13.76300000
 O      25.49100000      39.15300000      12.10000000
 H      25.01200000      38.75300000      11.34000000
 H      26.06600000      38.45900000      12.32400000
 O      29.36500000      39.08100000      17.90500000
 H      30.32800000      39.03300000      17.79200000
 H      29.13500000      39.88600000      17.36400000
 O      17.52700000      36.32300000      40.36500000
 H      17.99500000      35.84000000      39.62600000
 H      17.34800000      37.16700000      39.87200000
 O      14.88800000      37.13600000      32.27400000
 H      14.41100000      36.45500000      32.74900000
 H      14.20400000      37.50800000      31.69400000
 O      33.43800000      34.62100000      16.87700000
 H      32.78000000      34.06600000      16.46700000
 H      33.98300000      34.08500000      17.34900000
 O      35.00300000      39.61100000      26.58300000
 H      34.74100000      40.47300000      26.29700000
 H      34.55600000      39.60500000      27.46600000
 O      20.83100000      36.15100000      37.29600000
 H      21.50000000      35.49100000      37.06600000
 H      21.26700000      36.45800000      38.17600000
 O      27.56500000      39.04500000      20.12100000
 H      27.92300000      38.87100000      19.24100000
 H      28.36600000      39.16000000      20.65900000
 O      40.69700000      38.99700000      30.97200000
 H      39.94600000      38.91000000      30.25000000
 H      41.42500000      38.54700000      30.42500000
 O      30.89100000      36.00300000      31.00500000
 H      30.25100000      36.52000000      31.63200000
 H      30.71800000      35.10200000      31.51000000
 O      20.53100000      34.22400000      27.84100000
 H      20.11300000      34.72000000      27.09600000
 H      20.53300000      33.28900000      27.42700000
 O      13.34000000      36.59400000      40.48600000
 H      13.84500000      35.73400000      40.43200000
 H      14.00500000      37.05900000      41.06400000
 O      32.84700000      38.83700000      20.84200000
 H      32.68700000      39.59400000      20.24500000
 H      32.97100000      38.08600000      20.21700000
 O      25.15000000      36.14900000      19.50800000
 H      25.28400000      35.22800000      19.34900000
 H      25.76300000      36.35700000      20.21200000
 O      35.43700000      36.14300000       9.17700000
 H      35.24400000      37.09800000       9.18400000
 H      34.94100000      35.91100000      10.02200000
 O      20.96600000      36.29000000      21.93600000
 H      20.47700000      36.91100000      22.52300000
 H      21.51000000      36.84200000      21.46800000
 O      39.93600000      35.23700000      24.85200000
 H      39.31300000      35.87500000      25.27100000
 H      40.41300000      34.88100000      25.63800000
 O      18.59700000      33.95900000      12.52200000
 H      18.29800000      33.63100000      13.38200000
 H      17.90700000      34.66300000      12.30500000
 O      38.83000000      38.40100000      11.94000000
 H      38.91500000      38.88200000      12.76500000
 H      37.92000000      38.01300000      11.95300000
 O      34.21700000      40.21700000      40.39600000
 H      34.79000000      40.87700000      39.93000000
 H      34.20400000      40.57200000      41.26300000
 O      34.58100000      37.63600000      39.27800000
 H      35.36500000      37.84500000      38.70900000
 H      34.44600000      38.52300000      39.72400000
 O      20.23100000      37.57200000      17.58700000
 H      21.05800000      37.52100000      18.12800000
 H      20.23100000      38.39900000      17.17000000
 O      18.83000000      35.91100000      26.40200000
 H      18.96500000      36.71400000      26.97100000
 H      18.41300000      36.39800000      25.60200000
 O      38.82800000      40.09300000      26.43100000
 H      39.81600000      40.05400000      26.33700000
 H      38.71000000      40.99400000      26.06500000
 O      29.16400000      40.65700000      36.26000000
 H      28.22700000      40.84900000      36.21600000
 H      29.18900000      39.75900000      35.83000000
 O      29.31000000      38.56600000       7.73500000
 H      29.09200000      39.40200000       7.26700000
 H      29.25100000      37.92900000       6.98200000
 O      16.72900000      39.35700000      34.50700000
 H      15.79900000      39.44400000      34.84100000
 H      17.23200000      39.96200000      35.00200000
 O      35.77900000      42.47100000      30.88900000
 H      35.70900000      42.26500000      31.83800000
 H      35.88300000      41.53400000      30.51200000
 O      16.28900000      45.72900000       7.73200000
 H      15.58400000      45.84200000       7.11900000
 H      16.54400000      44.80000000       7.45000000
 O      37.97800000      46.24800000      30.47900000
 H      37.62500000      47.14200000      30.31800000
 H      37.35600000      45.64100000      30.00500000
 O      39.36400000      48.52000000      10.50200000
 H      39.70000000      49.32500000      10.04400000
 H      39.01400000      48.07000000       9.68600000
 O      29.14200000      43.38800000      16.38400000
 H      28.72800000      43.93900000      17.04900000
 H      28.42600000      43.02300000      15.86800000
 O      19.24200000      46.10800000      32.51100000
 H      19.50000000      45.15100000      32.64100000
 H      19.31300000      46.36500000      33.46300000
 O      31.62700000      48.33800000      40.40100000
 H      31.55200000      48.65800000      41.29500000
 H      32.40800000      47.70300000      40.53100000
 O      19.74700000      43.36900000      32.91500000
 H      19.55700000      42.89500000      32.05300000
 H      20.74300000      43.27900000      32.89300000
 O      29.32600000      46.40200000      31.62600000
 H      28.85500000      45.54000000      31.66400000
 H      29.16700000      46.77600000      32.50700000
 O      28.07100000      42.66100000      10.64800000
 H      27.91000000      43.11200000      11.49200000
 H      28.26200000      41.77400000      10.83700000
 O      23.85900000      45.83000000      15.70500000
 H      22.94900000      46.11500000      15.79700000
 H      23.78900000      45.32200000      14.86000000
 O      29.78500000      42.94100000      33.00100000
 H      30.61200000      42.52700000      33.32100000
 H      29.74500000      43.72400000      33.61300000
 O      34.68400000      45.12000000      32.61900000
 H      35.02600000      44.74100000      33.43000000
 H      34.02300000      44.50700000      32.35700000
 O      26.84900000      46.47500000      27.48700000
 H      27.11500000      45.76300000      28.09100000
 H      26.37700000      47.06000000      28.14600000
 O      21.37200000      45.80400000      19.96000000
 H      20.56200000      45.98300000      20.53300000
 H      21.49900000      46.75900000      19.65100000
 O      20.77100000      46.97100000      23.33200000
 H      20.27500000      46.32500000      22.74500000
 H      21.60300000      46.54400000      23.36700000
 O      28.83500000      44.14500000      25.98700000
 H      29.48100000      44.46800000      25.37800000
 H      29.13500000      43.25600000      26.26900000
 O      20.74300000      46.87500000       9.43000000
 H      20.81700000      47.67000000       8.85000000
 H      21.33800000      46.26600000       9.00700000
 O      13.16700000      46.64700000      24.56600000
 H      14.07400000      46.34500000      24.50100000
 H      13.07500000      47.24000000      25.30900000
 O      39.11200000      44.27600000      21.77300000
 H      38.36000000      43.84900000      22.22800000
 H      39.86100000      43.63700000      21.91400000
 O      18.24400000      47.87100000      37.75100000
 H      18.54000000      48.25800000      38.59600000
 H      17.27000000      48.02400000      37.74100000
 O      20.75900000      46.66200000      30.16500000
 H      21.09600000      47.55100000      30.08400000
 H      20.36200000      46.74200000      31.07200000
 O      22.34200000      44.38100000      27.03000000
 H      22.45900000      45.36700000      27.15400000
 H      22.84400000      44.20600000      26.22900000
 O      38.14800000      43.99300000      25.19600000
 H      38.78600000      44.70900000      24.87200000
 H      37.75800000      44.47200000      25.92300000
 O      33.81200000      47.22400000       8.35900000
 H      34.48100000      47.88900000       8.73500000
 H      34.51200000      46.61100000       7.94500000
 O      32.18300000      48.47200000      31.29600000
 H      31.46600000      48.31400000      30.65300000
 H      32.49800000      49.34300000      30.94300000
 O      25.78500000      44.87900000      38.39300000
 H      24.79600000      45.14800000      38.49600000
 H      25.86600000      44.96100000      37.41100000
 O      14.67600000      45.10600000      14.68000000
 H      14.24800000      44.33400000      14.35000000
 H      15.47600000      45.08400000      14.11000000
 O      29.84400000      47.35600000      23.59700000
 H      29.79300000      46.42700000      23.78800000
 H      29.24000000      47.69600000      24.30500000
 O      26.42400000      44.13000000      35.30700000
 H      26.15600000      43.24300000      35.52900000
 H      25.76300000      44.42000000      34.66600000
 O      18.73300000      48.21500000      19.75200000
 H      18.44700000      47.79300000      18.92000000
 H      19.70200000      48.18300000      19.70300000
 O      27.10900000      47.25200000      38.59400000
 H      26.57900000      47.43800000      37.83400000
 H      26.78200000      46.40700000      38.87700000
 O      16.86900000      44.76500000      12.85800000
 H      17.34700000      45.34200000      12.24400000
 H      17.43300000      43.95300000      12.68500000
 O      35.71900000      43.46900000      10.09700000
 H      35.66300000      44.13900000      10.85200000
 H      34.84400000      43.08400000      10.03800000
 O      34.96700000      46.85400000      15.25400000
 H      34.30500000      46.61700000      14.55300000
 H      34.85000000      46.14900000      15.94100000
 O      17.15600000      46.77400000      26.62000000
 H      16.71500000      45.85200000      26.52500000
 H      17.89500000      46.43600000      27.23900000
 O      17.66100000      46.17200000      17.43500000
 H      18.31000000      45.42800000      17.45600000
 H      17.36100000      46.20700000      16.53400000
 O      32.07100000      46.86000000      33.97500000
 H      31.45900000      47.52700000      34.35500000
 H      31.86200000      46.95200000      33.02700000
 O      31.86800000      43.31600000      15.40300000
 H      30.94300000      43.13300000      15.59500000
 H      31.91400000      44.30800000      15.45600000
 O      17.93200000      42.86300000      17.94200000
 H      18.81900000      43.20100000      17.87700000
 H      17.97000000      42.74900000      18.99300000
 O      33.87800000      45.04500000      38.63500000
 H      33.49500000      45.47600000      39.43500000
 H      33.12400000      44.49700000      38.34900000
 O      13.96500000      42.82800000       7.92500000
 H      14.12700000      41.94700000       7.50700000
 H      13.07900000      42.67100000       8.36100000
 O      28.40200000      43.95700000      13.15200000
 H      29.22800000      44.40900000      12.93500000
 H      27.87600000      44.68500000      13.48000000
 O      23.89200000      43.76700000      24.97800000
 H      24.65500000      43.18900000      25.17700000
 H      24.29200000      44.64700000      25.15400000
 O      24.01800000      44.70800000      12.91100000
 H      24.73000000      44.87500000      12.29700000
 H      24.04100000      43.79900000      13.12600000
 O      18.68200000      42.72100000      27.67100000
 H      19.15500000      43.37000000      27.12200000
 H      19.41900000      42.55100000      28.31000000
 O      37.14600000      47.23300000      22.90000000
 H      36.87700000      46.99700000      21.98200000
 H      37.58500000      46.42000000      23.18600000
 O      26.13400000      47.85900000      14.47000000
 H      25.51900000      47.63700000      13.69500000
 H      25.41900000      47.80700000      15.17400000
 O      17.16800000      48.82900000      24.90100000
 H      17.49200000      49.52500000      25.57800000
 H      17.11900000      48.10100000      25.63200000
 O      29.99800000      45.76400000      28.30400000
 H      30.26400000      45.28300000      27.46200000
 H      29.28500000      45.16000000      28.65200000
 O      15.39000000      44.12000000      26.59800000
 H      15.40400000      44.22900000      25.61200000
 H      14.42400000      43.94100000      26.70700000
 O      36.36600000      43.38500000      36.13200000
 H      35.53900000      43.25300000      35.64200000
 H      36.51300000      44.34800000      36.00200000
 O      33.28700000      46.55400000      29.45900000
 H      33.27500000      47.39400000      28.91500000
 H      32.82100000      46.87400000      30.25600000
 O      34.12100000      45.30600000      17.35600000
 H      33.83200000      45.80300000      18.13300000
 H      34.60100000      44.56300000      17.77900000
 O      31.11000000      43.08500000      38.13900000
 H      30.37900000      43.21300000      37.50900000
 H      30.68200000      43.54500000      38.89300000
 O      27.37500000      48.17200000      33.97900000
 H      26.86400000      49.01500000      34.02000000
 H      28.28800000      48.44900000      34.07500000
 O      32.78500000      43.74600000      23.27000000
 H      33.12300000      42.82500000      23.44700000
 H      33.53300000      44.03000000      22.67400000
 O      35.79200000      45.63900000      11.97900000
 H      36.08300000      46.53600000      11.82300000
 H      36.39800000      45.29400000      12.62600000
 O      31.14400000      46.25300000      15.65900000
 H      31.30100000      46.57400000      16.52800000
 H      30.15600000      46.40700000      15.56800000
 O      24.97000000      47.62700000       8.02000000
 H      24.31000000      46.91300000       7.87100000
 H      24.42600000      48.34000000       8.30000000
 O      14.14900000      42.53200000      30.03400000
 H      14.98300000      42.93900000      29.88500000
 H      13.98400000      42.10000000      29.14100000
 O      31.38700000      44.34900000      30.49100000
 H      32.04800000      44.58300000      29.77400000
 H      30.63000000      44.89100000      30.24300000
 O      16.57400000      47.04900000      21.85000000
 H      16.15200000      46.74900000      20.99300000
 H      16.89800000      47.91700000      21.56300000
 O      20.64800000      46.20100000      37.52900000
 H      20.31000000      45.34300000      37.49600000
 H      19.86400000      46.80800000      37.66900000
 O      17.77500000      48.35800000      15.11200000
 H      17.83100000      49.28900000      15.30000000
 H      17.96000000      47.95600000      15.98600000
 O      28.14700000      44.29500000      29.33200000
 H      27.66800000      44.28900000      30.19400000
 H      28.25500000      43.35200000      29.21000000
 O      14.21200000      46.67900000      11.59900000
 H      14.66300000      46.03400000      12.16400000
 H      14.01100000      46.16400000      10.79800000
 O      34.02300000      42.72400000      34.90500000
 H      33.63000000      42.60400000      34.04600000
 H      33.51100000      43.50800000      35.23000000
 O      27.52900000      44.48800000      18.37000000
 H      26.81100000      43.95000000      18.19000000
 H      27.84500000      44.20600000      19.25800000
 O      36.46900000      46.04400000      35.51800000
 H      37.29600000      46.42200000      35.95700000
 H      36.66300000      46.22400000      34.56900000
 O      15.93100000      45.27000000      35.44900000
 H      16.40400000      46.06100000      35.01800000
 H      15.10100000      45.42800000      34.98200000
 O      31.44000000      48.27200000       8.14600000
 H      31.74100000      49.08400000       7.73000000
 H      32.31000000      47.74400000       8.03800000
 O      30.77600000      48.87400000      14.14600000
 H      31.28800000      48.05100000      14.37400000
 H      30.00200000      48.50300000      13.68900000
 O      22.58200000      47.07300000      27.12000000
 H      22.95200000      47.48000000      27.94300000
 H      21.75100000      47.62300000      26.98500000
 O      32.87800000      43.08000000      32.20900000
 H      32.70500000      42.11700000      31.98100000
 H      32.16500000      43.51600000      31.69000000
 O      40.46400000      44.60600000      13.85300000
 H      40.26500000      45.49300000      13.51300000
 H      41.23500000      44.86400000      14.42600000
 O      16.37600000      46.02700000      30.65700000
 H      16.93100000      45.62200000      31.30900000
 H      16.50800000      45.37300000      29.93100000
 O      28.13800000      43.28800000      39.29000000
 H      27.74300000      42.42700000      39.08800000
 H      27.39300000      43.86800000      39.08300000
 O      18.35400000      46.32800000      10.58500000
 H      18.27300000      47.26700000      10.84300000
 H      19.17200000      46.38700000      10.05600000
 O      34.99300000      47.74200000      32.27200000
 H      34.17900000      47.90500000      31.73800000
 H      34.81500000      46.81300000      32.50100000
 O      38.18900000      43.22900000      32.26800000
 H      37.60300000      42.70600000      32.82600000
 H      37.59900000      43.69300000      31.71400000
 O      32.47600000      45.60100000      10.28000000
 H      32.06700000      45.02100000       9.62100000
 H      32.79500000      46.33100000       9.74800000
 O      28.31500000      46.92200000      15.58300000
 H      27.51200000      47.28600000      15.17800000
 H      28.19400000      47.25000000      16.48400000
 O      20.23000000      43.38000000      19.20600000
 H      20.11200000      43.33800000      20.14500000
 H      20.49200000      44.27000000      19.02700000
 O      26.20800000      42.82100000      25.55200000
 H      26.48200000      41.91900000      25.23000000
 H      27.08500000      43.16800000      25.82900000
 O      35.24300000      42.72600000      15.84800000
 H      35.77400000      43.29400000      15.17400000
 H      34.44800000      42.68600000      15.28900000
 O      33.54500000      46.73700000      19.47000000
 H      33.13700000      46.64200000      20.34500000
 H      34.47500000      46.74200000      19.64700000
 O      27.52900000      48.27100000      17.67600000
 H      27.59800000      49.26900000      17.89100000
 H      26.59300000      48.26400000      17.48100000
 O      30.00600000      48.51400000      34.74400000
 H      29.47500000      48.03700000      35.36400000
 H      30.07700000      49.40400000      35.04500000
 O      39.12600000      42.55800000       9.58800000
 H      40.04200000      42.64100000       9.99900000
 H      38.67900000      41.96200000      10.17500000
 O      26.11600000      47.06400000      20.82600000
 H      26.40700000      46.15600000      20.78100000
 H      26.64500000      47.45900000      21.51800000
 O      37.75200000      42.52600000      18.60100000
 H      38.42700000      41.75100000      18.69800000
 H      38.13600000      42.84800000      17.76100000
 O      36.32800000      47.47600000      37.92000000
 H      35.68400000      46.89900000      37.47300000
 H      36.88400000      47.67500000      37.09500000
 O      35.87600000      44.85100000      29.34100000
 H      35.77600000      44.25000000      30.10000000
 H      34.96900000      45.26600000      29.39100000
 O      34.87600000      43.93200000      21.37100000
 H      34.89200000      43.50300000      20.49500000
 H      35.73100000      43.57100000      21.77200000
 O      38.79400000      46.26400000      38.83500000
 H      39.46100000      46.93700000      38.54900000
 H      37.97300000      46.56700000      38.44200000
 O      29.36700000      46.99600000      37.07400000
 H      29.87000000      47.41600000      37.79400000
 H      28.42100000      47.03200000      37.50300000
 O      39.49300000      46.08800000      24.02100000
 H      39.90700000      45.74700000      23.16300000
 H      40.32300000      46.37600000      24.44600000
 O      21.83900000      44.14700000      23.37700000
 H      22.49600000      43.61700000      23.93000000
 H      22.51200000      44.74500000      22.96900000
 O      24.37900000      48.77700000      19.82700000
 H      25.10100000      48.23200000      20.25300000
 H      24.46500000      48.47900000      18.90600000
 O      37.83900000      44.44600000       8.04000000
 H      38.46200000      43.81900000       8.48500000
 H      36.99600000      44.22100000       8.51400000
 O      16.31800000      43.92000000      29.02700000
 H      15.95000000      44.07100000      28.11900000
 H      17.09700000      43.41500000      28.73200000
 O      37.85800000      46.14400000      33.12200000
 H      37.71300000      46.20400000      32.13400000
 H      38.46100000      45.40200000      33.10800000
 O      20.10700000      48.20100000      26.53200000
 H      20.23800000      49.07100000      26.89100000
 H      20.25500000      48.39200000      25.58100000
 O      29.82400000      44.80000000      35.40000000
 H      29.47800000      45.55100000      35.93600000
 H      29.24300000      44.05900000      35.72400000
 O      29.29800000      46.45600000       8.06000000
 H      30.06900000      46.98500000       7.86700000
 H      29.12100000      46.67000000       8.97600000
 O      22.44800000      42.60300000      32.72500000
 H      22.04900000      41.72100000      32.37600000
 H      23.04200000      42.10400000      33.46400000
 O      19.44100000      45.93100000      27.98300000
 H      19.75500000      46.74200000      27.50700000
 H      19.65800000      46.15600000      28.90400000
 O      39.99600000      46.85200000      12.54900000
 H      40.00900000      47.62000000      11.90800000
 H      39.11600000      46.99200000      12.95200000
 O      17.91200000      47.39900000      35.01000000
 H      17.89200000      48.32000000      34.67500000
 H      18.19300000      47.50800000      35.96100000
 O      22.73700000      45.71500000       7.93400000
 H      23.38900000      45.29000000       8.58400000
 H      22.70100000      44.91200000       7.30300000
 O      13.66600000      47.60400000      21.94100000
 H      14.28700000      46.89100000      22.24100000
 H      12.87300000      47.40100000      22.50900000
 O      35.10800000      42.94600000      18.58400000
 H      36.03100000      42.64100000      18.85600000
 H      35.28700000      42.87500000      17.56400000
 O      31.66900000      44.45500000       7.40400000
 H      31.66500000      45.30100000       6.88700000
 H      31.48200000      43.82800000       6.69300000
 O      17.24800000      45.04500000      40.88600000
 H      17.17800000      45.10900000      39.95100000
 H      17.10700000      46.00500000      41.11800000
 O      30.21800000      44.76000000      23.58500000
 H      29.97500000      44.56600000      22.64900000
 H      31.17700000      44.41300000      23.53400000
 O      28.51400000      44.71100000       6.03800000
 H      28.52800000      45.02000000       6.96900000
 H      28.49600000      45.57900000       5.59800000
 O      23.91900000      48.26400000      29.60700000
 H      24.82600000      47.94200000      29.65400000
 H      23.74100000      48.36400000      30.58100000
 O      39.13600000      46.75700000       8.18100000
 H      38.54500000      45.98900000       7.99600000
 H      39.45900000      46.96200000       7.26800000
 O      25.01200000      46.00300000      25.57900000
 H      24.19000000      46.30700000      26.04500000
 H      25.67500000      46.18000000      26.28700000
 O      22.33100000      48.83900000      16.47200000
 H      22.38100000      49.76400000      16.12000000
 H      21.95100000      48.37100000      15.69500000
 O      37.26800000      42.64000000      22.86000000
 H      37.74700000      42.45700000      23.70800000
 H      36.82300000      41.74800000      22.77600000
 O      31.44400000      42.59400000      26.92900000
 H      31.93700000      43.32600000      26.54900000
 H      32.07500000      42.28500000      27.62200000
 O      34.63600000      48.57000000      23.56200000
 H      34.66800000      48.78100000      22.57200000
 H      35.44500000      48.04200000      23.65800000
 O      24.70000000      44.66000000       9.44600000
 H      25.29000000      45.23300000      10.05100000
 H      25.37300000      44.07000000       9.13100000
 O      29.10700000      46.57700000      18.99900000
 H      28.54500000      45.91500000      18.55500000
 H      28.62000000      47.38800000      18.71800000
 O      30.61000000      45.42800000      12.56400000
 H      31.17300000      45.25700000      11.75300000
 H      31.34100000      45.69700000      13.19900000
 O      21.33200000      48.38800000      19.01300000
 H      21.68800000      48.53700000      18.10200000
 H      21.83100000      49.03800000      19.52000000
 O      36.41900000      48.09100000      40.55500000
 H      35.52900000      47.75000000      40.85500000
 H      36.29400000      48.16700000      39.60900000
 O      18.02000000      43.62200000       9.96000000
 H      17.95900000      44.60400000      10.04200000
 H      18.12400000      43.56700000       8.97100000
 O      18.51800000      42.74200000      12.34100000
 H      18.23700000      43.00000000      11.43800000
 H      19.41500000      42.44800000      12.04600000
 O      38.46300000      47.83900000      36.23600000
 H      38.32300000      48.62300000      35.67400000
 H      39.42700000      47.93200000      36.40300000
 O      30.14500000      47.97900000      29.68400000
 H      30.12500000      47.19100000      29.12400000
 H      29.90000000      47.57200000      30.54800000
 O      14.65700000      48.93200000      13.81300000
 H      14.08300000      48.24600000      14.12300000
 H      15.51900000      48.53000000      13.81200000
 O      37.60100000      43.80500000      13.92800000
 H      38.00200000      44.15600000      14.69500000
 H      38.46200000      43.67400000      13.36800000
 O      19.04300000      45.39600000      21.71200000
 H      18.24900000      46.00500000      21.92400000
 H      18.60200000      44.57900000      21.59700000
 O      31.25300000      46.68500000      21.24700000
 H      30.86800000      47.01400000      22.11200000
 H      30.76200000      47.28700000      20.63400000
 O      23.67500000      46.38100000      22.51900000
 H      24.55300000      46.00300000      22.48000000
 H      23.83100000      47.29500000      22.82000000
 O      24.65600000      47.84600000      17.18700000
 H      24.51700000      46.99300000      16.82000000
 H      23.79200000      48.31800000      16.93500000
 O      33.17500000      46.47100000      12.78100000
 H      32.72100000      46.38900000      11.85000000
 H      34.04900000      46.34200000      12.49700000
 O      39.51900000      43.23600000      38.09700000
 H      39.11300000      44.10100000      38.17200000
 H      40.44100000      43.53300000      37.90900000
 O      13.79800000      44.99300000      18.02000000
 H      13.91800000      44.06700000      17.86500000
 H      12.79600000      45.01100000      18.17700000
 O      36.82700000      48.10200000      10.87200000
 H      37.75600000      48.42200000      10.82300000
 H      36.35800000      48.97900000      10.93600000
 O      21.23400000      46.91100000      14.60700000
 H      21.42300000      46.75900000      13.59700000
 H      20.35500000      46.50700000      14.58000000
 O      38.27200000      44.32500000      40.84100000
 H      37.71500000      43.72300000      40.31800000
 H      38.58200000      44.97300000      40.16200000
 O      37.76500000      47.28500000      14.11300000
 H      38.25300000      47.33100000      14.95200000
 H      36.87000000      47.14500000      14.43400000
 O      36.02100000      43.43800000      38.87100000
 H      36.07900000      43.29400000      37.89000000
 H      35.21700000      44.09400000      38.81500000
 O      26.79600000      43.52900000       8.25300000
 H      27.37800000      43.12600000       8.90700000
 H      27.28200000      43.26500000       7.47000000
 O      19.64400000      44.34800000      25.72800000
 H      19.99000000      44.95600000      26.45300000
 H      20.28800000      44.46700000      25.04700000
 O      25.13100000      43.15000000      31.72200000
 H      25.00300000      43.16200000      30.75800000
 H      24.16800000      42.87800000      31.89500000
 O      32.47300000      44.59200000      35.41800000
 H      31.45900000      44.63000000      35.48400000
 H      32.56300000      45.35600000      34.79600000
 O      26.95100000      45.96800000      23.48800000
 H      26.19600000      45.69400000      24.17900000
 H      27.40700000      46.55600000      24.15700000
 O      18.95600000      43.38100000      37.73500000
 H      18.77800000      43.47600000      36.77800000
 H      18.06700000      43.58800000      38.09300000
 O      21.95800000      44.21400000      10.59100000
 H      22.93400000      44.26300000      10.49500000
 H      21.78200000      44.96900000      11.18000000
 O      35.15200000      43.55200000      25.31200000
 H      35.85900000      43.95100000      24.75900000
 H      35.28800000      44.10400000      26.15300000
 O      26.05800000      46.00900000      11.47200000
 H      26.95000000      46.42100000      11.53500000
 H      25.51900000      46.80800000      11.36600000
 O      18.42900000      42.63400000      23.65600000
 H      18.52600000      43.32900000      24.32600000
 H      17.91800000      41.96700000      24.14200000
 O      28.10400000      47.85500000      25.45400000
 H      27.78400000      47.22800000      26.07800000
 H      28.79000000      48.35700000      26.00300000
 O      31.97100000      42.49500000      19.34200000
 H      31.65500000      42.24700000      18.44500000
 H      32.91800000      42.59100000      19.15500000
 O      30.80700000      43.00400000       9.84200000
 H      29.85200000      43.05300000       9.92400000
 H      30.94700000      43.26300000       8.89800000
 O      15.68700000      45.89100000      19.47200000
 H      16.30000000      45.73500000      18.68200000
 H      14.86100000      45.54400000      19.00200000
 O      36.33800000      47.39000000      20.29800000
 H      36.05700000      48.31300000      20.52800000
 H      37.03200000      47.60700000      19.66200000
 O      23.97800000      44.89600000      19.17800000
 H      24.36800000      45.51900000      19.79600000
 H      23.02800000      45.07000000      19.27400000
 O      25.57700000      42.88000000      18.02400000
 H      24.81200000      42.42900000      17.55800000
 H      25.09100000      43.69800000      18.25900000
 O      14.51300000      42.81600000      16.92300000
 H      15.30000000      43.36300000      16.59900000
 H      14.12100000      42.71100000      16.02000000
 O      39.85500000      43.30000000      16.82400000
 H      40.31500000      42.67000000      17.42400000
 H      40.49000000      44.04400000      16.76600000
 O      19.58500000      44.46400000      15.65500000
 H      19.06700000      43.97700000      15.03100000
 H      20.23700000      43.85100000      15.98100000
 O      13.80900000      44.88800000      31.88600000
 H      13.97500000      44.01500000      31.44800000
 H      14.37100000      45.45900000      31.40400000
 O      14.14800000      45.08900000       9.37900000
 H      15.00200000      45.28300000       8.87700000
 H      14.03000000      44.24100000       8.83700000
 O      37.29600000      49.05400000      32.02700000
 H      36.35300000      48.68200000      31.98400000
 H      37.70000000      48.33800000      32.55000000
 O      38.61600000      47.09300000      17.02000000
 H      38.23800000      47.84600000      17.51300000
 H      38.54200000      46.35700000      17.60300000
 O      14.92100000      48.12800000      28.13200000
 H      15.59100000      48.68400000      28.48100000
 H      15.34700000      47.49600000      27.53100000
 O      21.16700000      42.97000000      28.95200000
 H      20.65800000      43.50600000      29.57900000
 H      21.55400000      43.63500000      28.38800000
 O      39.40600000      48.95700000      23.17900000
 H      40.15400000      48.31500000      22.89700000
 H      38.68600000      48.24500000      23.14500000
 O      26.29900000      47.37500000      30.04500000
 H      27.02300000      48.01000000      30.17400000
 H      26.33200000      46.74700000      30.79600000
 O      26.75200000      45.22300000      31.89000000
 H      26.60500000      45.56700000      32.80400000
 H      26.14100000      44.42300000      31.90000000
 O      35.71500000      45.69200000       7.03100000
 H      36.53400000      45.17900000       6.91600000
 H      35.19900000      45.28700000       6.23100000
 O      27.52900000      44.27400000      21.65500000
 H      28.36100000      44.62400000      21.32800000
 H      27.48200000      44.76200000      22.51700000
 O      38.40500000      47.17400000      26.60600000
 H      39.30200000      47.05500000      26.94200000
 H      38.60700000      47.57600000      25.71400000
 O      21.75800000      46.82500000      11.89500000
 H      22.59200000      47.26700000      11.94400000
 H      21.58200000      46.83500000      10.93300000
 O      36.63400000      48.10500000      28.84700000
 H      36.94000000      48.15700000      27.93500000
 H      35.77600000      47.76500000      28.79900000
 O      25.95500000      46.94500000      36.20100000
 H      26.06600000      47.56200000      35.48300000
 H      25.68900000      46.17200000      35.71400000
 O      24.12800000      45.02800000      33.87400000
 H      23.47800000      44.60500000      33.21800000
 H      23.47600000      45.51200000      34.39800000
 O      31.42200000      47.80000000      18.00100000
 H      30.56100000      47.58200000      18.45100000
 H      32.01600000      47.38500000      18.66600000
 O      32.63800000      44.79300000      26.10300000
 H      33.03200000      44.51300000      25.23400000
 H      32.64400000      45.78300000      25.91500000
 O      22.18500000      46.73000000      34.89100000
 H      21.61500000      47.27800000      34.27000000
 H      21.84600000      46.91200000      35.78700000
 O      30.30100000      44.01000000      20.91400000
 H      30.89400000      44.77300000      20.89700000
 H      30.94600000      43.40300000      20.40100000
 O      25.32200000      42.80000000      28.98800000
 H      24.96300000      43.30900000      28.30200000
 H      26.27000000      42.71700000      28.64900000
 O      22.97400000      44.88700000      38.49300000
 H      22.69600000      44.98000000      39.43700000
 H      22.26000000      45.41100000      38.10200000
 O      38.63000000      45.19600000      19.26400000
 H      38.05300000      44.42400000      19.12000000
 H      38.88800000      45.07400000      20.21800000
 O      28.43700000      46.94000000      11.83900000
 H      28.92100000      47.63100000      11.35800000
 H      29.10000000      46.54200000      12.38900000
 O      34.03000000      47.51600000      36.32700000
 H      33.86100000      46.60600000      36.53400000
 H      34.33700000      47.57300000      35.43100000
 O      19.56100000      49.32600000      23.70400000
 H      19.98400000      48.44900000      23.31700000
 H      18.74900000      48.86000000      24.13900000
 O      32.80700000      47.42900000      25.15400000
 H      32.05700000      47.37200000      24.55400000
 H      33.45900000      47.95800000      24.63100000
 O      36.34800000      45.44000000      26.87200000
 H      37.05500000      46.23000000      26.91800000
 H      36.33000000      45.27800000      27.82400000
 O      18.11700000      43.37100000      35.27900000
 H      17.43300000      44.07700000      35.01100000
 H      18.71700000      43.50100000      34.49000000
 O      15.59700000      45.14000000      24.12000000
 H      15.86200000      44.49400000      23.38600000
 H      16.03500000      45.92200000      23.78700000
 O      17.35300000      48.78800000      30.36700000
 H      17.04000000      47.87500000      30.29000000
 H      18.33000000      48.65200000      30.47700000
 O      16.07300000      44.88700000      38.08500000
 H      15.14100000      44.96700000      38.13700000
 H      16.26900000      44.86700000      37.11600000
 O      16.14600000      44.00100000      21.45500000
 H      16.12100000      43.15800000      20.94000000
 H      15.92600000      44.59800000      20.65600000
