300
XYZ file of cluster: frame_13000_5eb.20a72.75452 - created by MolEdiTo
 O       9.61000000      19.51600000      33.55400000
 H       9.76100000      20.23400000      32.93700000
 H      10.17700000      19.68200000      34.26900000
 O       2.96400000      11.22200000      22.42200000
 H       3.87800000      10.96100000      22.09100000
 H       3.24300000      11.52800000      23.31100000
 O      12.93900000      11.34300000      30.01100000
 H      13.14800000      10.49200000      30.53200000
 H      13.78000000      11.44800000      29.48900000
 O       7.34200000       8.79500000      21.94500000
 H       8.13600000       8.69200000      21.36400000
 H       7.66300000       9.42900000      22.59800000
 O       7.48100000      12.01500000      31.66000000
 H       8.21900000      12.70300000      31.74500000
 H       7.25200000      12.29100000      30.72900000
 O      11.74100000      13.79100000      32.47500000
 H      12.17200000      13.08900000      32.92100000
 H      11.87300000      13.56400000      31.53600000
 O      12.35900000      16.88300000      23.90000000
 H      13.11600000      17.32900000      23.46300000
 H      12.46700000      15.97800000      23.63900000
 O       7.38400000       9.36900000      32.00900000
 H       7.08900000      10.32800000      32.01300000
 H       8.34900000       9.54000000      31.90000000
 O       0.81000000       9.75900000      31.91200000
 H       0.06300000      10.17100000      32.46900000
 H       1.09000000       9.02400000      32.50600000
 O       8.63600000       6.17600000      35.25400000
 H       7.91700000       6.37000000      34.62100000
 H       8.95100000       7.09100000      35.46100000
 O      11.08200000      18.97500000      21.11600000
 H      10.80600000      19.73700000      20.52200000
 H      10.59100000      19.23300000      21.91300000
 O       9.86400000      11.85600000      25.60400000
 H       9.82600000      12.15500000      26.54500000
 H      10.82900000      11.84700000      25.45700000
 O       9.71500000      14.11400000      21.52300000
 H       8.97600000      14.67300000      21.86100000
 H       9.19500000      13.28700000      21.31100000
 O       5.62900000       6.71600000      22.34300000
 H       5.39200000       6.39800000      21.45100000
 H       6.14400000       7.52700000      22.13800000
 O       7.60200000      11.36900000      23.74600000
 H       6.88400000      11.76800000      24.24200000
 H       8.38300000      11.61400000      24.26300000
 O      13.81200000      20.45400000      22.33700000
 H      13.39700000      20.45200000      21.45400000
 H      13.11200000      20.06700000      22.89300000
 O       5.74900000      15.16500000      34.08100000
 H       6.11900000      15.91900000      34.60000000
 H       4.98200000      15.67700000      33.70400000
 O       3.26100000      14.56200000      28.95600000
 H       2.66300000      15.28300000      29.00900000
 H       2.61200000      13.82100000      29.05400000
 O       6.07800000       7.98800000      24.96400000
 H       6.96500000       8.00300000      25.32700000
 H       6.19200000       7.40700000      24.20600000
 O       7.56400000      16.12700000      26.01600000
 H       7.47200000      15.62100000      26.80900000
 H       7.01800000      16.95200000      26.17800000
 O      10.61800000       8.38600000      22.95500000
 H      10.60200000       9.17900000      22.31000000
 H      11.30200000       8.75400000      23.56600000
 O      12.97800000       9.34300000      24.57100000
 H      12.86400000       8.60000000      25.20400000
 H      13.69800000       8.95000000      23.99300000
 O       9.23300000      14.22900000      33.18500000
 H       9.19800000      15.18300000      33.42100000
 H      10.17200000      14.17900000      32.93300000
 O       1.97600000      16.39100000      26.29300000
 H       2.90200000      16.13300000      26.12700000
 H       1.62600000      15.46300000      26.15300000
 O       6.10500000      17.76700000      27.52900000
 H       6.28900000      17.10600000      28.22500000
 H       5.40300000      18.29000000      27.92000000
 O       6.89300000      12.23900000      28.72300000
 H       6.20800000      12.10400000      28.08800000
 H       7.28300000      11.36600000      28.85100000
 O       6.99600000      20.83100000      26.96500000
 H       7.36200000      19.95000000      27.36700000
 H       6.56300000      20.46500000      26.18500000
 O       5.32000000      11.12500000      26.76800000
 H       5.37300000      11.72600000      26.03900000
 H       4.49000000      10.66400000      26.59600000
 O      13.85400000      15.34000000      33.97900000
 H      13.31900000      14.63400000      33.52200000
 H      13.22900000      16.07900000      33.84800000
 O       4.35100000      12.90600000      31.15600000
 H       4.34500000      13.30600000      30.25200000
 H       3.52300000      13.30200000      31.52800000
 O       4.52500000      14.38500000      26.59400000
 H       5.39300000      14.68300000      27.02800000
 H       4.02600000      14.44700000      27.45400000
 O      12.90900000       7.28200000      26.25800000
 H      13.62800000       7.20000000      26.94000000
 H      12.15800000       7.38200000      26.83700000
 O       8.67500000      17.02900000      32.98600000
 H       9.07300000      17.90800000      33.20100000
 H       7.75000000      17.21600000      33.33800000
 O       1.20800000      13.88300000      25.97300000
 H       1.85300000      13.15900000      26.03600000
 H       0.37200000      13.45900000      26.30600000
 O      10.97000000       9.97800000      34.48000000
 H      10.42500000       9.54900000      35.12000000
 H      10.88300000      10.91900000      34.77400000
 O      11.72000000      12.29400000      22.70500000
 H      11.02500000      12.99600000      22.57700000
 H      11.34500000      11.65300000      21.96200000
 O       8.99700000      21.05000000      22.95400000
 H       8.20400000      20.61600000      22.97900000
 H       8.91100000      21.88500000      22.40400000
 O       1.83100000      12.23400000      29.20900000
 H       2.26200000      11.89100000      28.41500000
 H       1.08100000      11.63300000      29.30700000
 O       5.01500000      11.25700000      33.50700000
 H       5.22200000      11.89100000      32.79700000
 H       4.50600000      10.58400000      33.00900000
 O      13.26400000      14.46400000      22.59700000
 H      13.06600000      13.51900000      22.69600000
 H      13.14400000      14.51500000      21.60500000
 O       5.09700000      19.61400000      32.16000000
 H       5.82600000      19.62700000      31.56300000
 H       5.50400000      18.96300000      32.80100000
 O      12.55600000      12.06000000      25.12000000
 H      12.92600000      11.13800000      24.94800000
 H      12.15700000      12.16100000      24.17700000
 O       3.14400000       8.36800000      35.41100000
 H       2.83500000       8.43200000      34.47200000
 H       2.93000000       7.44600000      35.61400000
 O       8.84200000      15.61200000      30.34500000
 H       8.50800000      15.77000000      31.29400000
 H       8.90200000      16.55900000      30.12200000
 O      11.95200000      16.49300000      28.79100000
 H      11.57400000      16.58500000      27.87600000
 H      12.28800000      17.41300000      28.87600000
 O       6.64400000       7.23200000      33.62600000
 H       6.16800000       7.88800000      34.14000000
 H       7.06300000       7.74300000      32.99500000
 O      13.52800000      16.95300000      26.44500000
 H      12.83500000      17.26900000      25.87400000
 H      14.26400000      17.48300000      26.01400000
 O      13.11000000      19.29500000      34.08300000
 H      12.88800000      18.79500000      33.32000000
 H      13.01500000      18.72100000      34.85300000
 O       8.66900000      12.93800000      35.43900000
 H       7.74400000      12.69900000      35.26400000
 H       8.87200000      13.43500000      34.56700000
 O       7.00500000      19.88600000      30.14400000
 H       6.97900000      18.91100000      29.84500000
 H       7.94300000      19.90200000      30.39900000
 O       1.68800000      20.49100000      28.58100000
 H       2.24600000      19.71400000      28.68600000
 H       0.80200000      20.12600000      28.87200000
 O      13.50600000       8.82300000      31.24100000
 H      13.46700000       8.35100000      32.11900000
 H      14.26600000       8.45800000      30.83200000
 O       4.26600000      14.20300000      22.63100000
 H       3.50300000      14.83200000      22.67900000
 H       3.85900000      13.45000000      22.20000000
 O      10.69300000      10.45200000      21.06600000
 H      10.07400000      11.08000000      20.67500000
 H      11.16400000      10.15700000      20.20200000
 O       6.11600000      17.32900000      30.33500000
 H       5.26700000      17.73900000      30.59200000
 H       6.00900000      16.44000000      30.74300000
 O       3.52800000      10.26800000      31.37500000
 H       2.57700000      10.15700000      31.40300000
 H       3.60100000      11.11800000      30.90700000
 O      10.73000000      11.64600000      28.51100000
 H      10.49500000      12.51700000      28.97700000
 H      11.50800000      11.46100000      29.13800000
 O       3.90900000      19.47400000      22.13800000
 H       3.63400000      19.08700000      21.27800000
 H       4.28900000      20.35300000      21.74600000
 O      10.64300000      10.20900000      31.82100000
 H      11.44500000       9.74000000      31.58300000
 H      10.72300000      10.18800000      32.81100000
 O       9.10600000       7.39300000      25.07600000
 H       9.44300000       7.80200000      24.23800000
 H       9.55700000       7.90600000      25.74100000
 O       5.43100000       8.64500000      30.42500000
 H       4.74700000       9.23700000      30.85500000
 H       6.21700000       9.17000000      30.77600000
 O       4.40900000       8.43900000      27.76600000
 H       4.99700000       9.13600000      27.76400000
 H       4.87000000       7.69000000      28.17300000
 O       1.97000000       7.65500000      32.90500000
 H       1.59900000       6.71800000      32.85100000
 H       2.58300000       7.63700000      32.18100000
 O       3.56500000      19.24300000      29.91100000
 H       3.00200000      18.63900000      30.40100000
 H       4.07000000      19.69400000      30.62500000
 O       4.23000000       6.14200000      25.74200000
 H       4.90300000       5.55500000      25.44500000
 H       4.70800000       7.02400000      25.65500000
 O       9.83400000      18.04000000      23.83300000
 H      10.34500000      18.84800000      24.08400000
 H      10.59000000      17.58200000      23.33800000
 O      12.54500000      19.25800000      29.90300000
 H      12.25400000      20.16100000      29.88100000
 H      13.49600000      19.36700000      30.00100000
 O       6.71700000      14.94400000      28.24700000
 H       6.64000000      15.16700000      29.21800000
 H       6.82700000      13.95700000      28.36000000
 O       3.68200000      16.55500000      33.39200000
 H       3.02400000      16.10500000      33.90900000
 H       3.07100000      17.08400000      32.84000000
 O       4.68400000      17.50400000      24.15100000
 H       4.01500000      17.81800000      23.45600000
 H       5.17800000      16.91700000      23.56100000
 O       1.30600000      16.51800000      28.85100000
 H       1.52900000      16.51800000      27.85700000
 H       0.30100000      16.38100000      28.68100000
 O       6.04300000      17.91300000      34.16700000
 H       5.72200000      18.42200000      34.91200000
 H       5.27100000      17.30100000      33.97200000
 O       2.31900000      20.10600000      24.04600000
 H       2.85000000      19.68000000      23.30300000
 H       2.67800000      21.03300000      24.07000000
 O       8.32900000      16.01000000      23.42500000
 H       7.90600000      15.79100000      24.27500000
 H       8.91900000      16.75100000      23.73500000
 O      11.62200000      20.24300000      23.92500000
 H      11.82900000      20.61700000      24.82500000
 H      11.25000000      21.02000000      23.46600000
 O       3.29800000       8.79500000      20.34400000
 H       3.47400000       8.91200000      21.27500000
 H       4.15500000       8.32200000      20.05700000
 O       5.75600000       9.66400000      35.50300000
 H       5.47100000      10.26800000      34.76200000
 H       4.91400000       9.13600000      35.65900000
 O       9.10700000       9.94300000      29.56300000
 H       9.68800000      10.54200000      29.05900000
 H       9.50700000      10.05800000      30.47600000
 O      10.74300000      14.13100000      29.42200000
 H      11.51000000      14.72900000      29.39300000
 H      10.04700000      14.80300000      29.77900000
 O       5.52000000      12.97600000      24.66700000
 H       5.02000000      13.53100000      25.34800000
 H       5.56500000      13.64300000      23.98200000
 O       6.29600000      19.80900000      24.11800000
 H       5.99200000      19.13400000      24.80900000
 H       5.83300000      19.35100000      23.38900000
 O       2.03300000      13.74200000      32.28900000
 H       1.32600000      13.70500000      31.61200000
 H       1.57800000      13.30900000      33.05600000
 O       5.52400000      10.92700000      21.72000000
 H       6.16300000      11.41500000      22.24000000
 H       6.09500000      10.12200000      21.49100000
 O       2.22000000      11.30100000      26.63100000
 H       2.65900000      11.02000000      25.80200000
 H       1.51800000      10.64200000      26.63600000
 O      10.26500000       9.43200000      26.73600000
 H      10.11300000       9.73600000      27.62000000
 H       9.98200000      10.17900000      26.21900000
 O       3.80800000       9.75600000      24.91700000
 H       3.27100000       9.10800000      24.43800000
 H       4.63300000       9.24700000      24.95300000
 O       8.62200000       7.49600000      28.71300000
 H       8.60500000       8.47500000      28.99300000
 H       9.39300000       7.16600000      29.22200000
 O       9.46600000      18.00600000      29.16400000
 H      10.23600000      18.36000000      29.58400000
 H       9.74600000      17.88600000      28.20400000
 O      12.64600000       7.99500000      34.00800000
 H      11.89000000       7.34300000      34.06000000
 H      12.14200000       8.82100000      34.11900000
 O      12.42800000      17.49900000      31.96700000
 H      12.41800000      18.26500000      31.33100000
 H      11.79300000      16.89600000      31.55100000
 O      12.91100000      13.24700000      27.58400000
 H      12.11500000      12.91200000      28.00300000
 H      12.76900000      13.15900000      26.70200000
 O      13.17200000      12.04400000      33.92200000
 H      14.01700000      11.51900000      33.89700000
 H      13.04300000      12.11800000      34.89900000
 O       6.11200000      16.41700000      21.99800000
 H       5.52000000      15.72800000      21.80800000
 H       6.83000000      16.01100000      22.47900000
 O       6.44300000      14.93100000      31.53100000
 H       6.45100000      15.00400000      32.53000000
 H       6.24500000      14.01600000      31.44400000
 O      10.04600000      17.37400000      26.64600000
 H       9.39200000      16.62300000      26.40000000
 H      10.19300000      17.68000000      25.75300000
 O       2.18500000      17.30300000      31.19300000
 H       1.90200000      17.03900000      30.29000000
 H       1.35300000      17.68800000      31.48400000
 O       1.91700000      15.45300000      22.05500000
 H       1.37800000      16.19000000      22.47000000
 H       1.52200000      15.49900000      21.17100000
 O       3.00200000       7.90300000      23.15300000
 H       2.43700000       7.53300000      22.44400000
 H       3.72000000       7.23000000      23.06500000
 O       1.60000000       7.83100000      27.61900000
 H       2.58400000       8.10800000      27.50200000
 H       1.22100000       8.41400000      26.96400000
 O       6.11400000       6.46100000      28.81200000
 H       7.04300000       6.87100000      28.70000000
 H       5.95900000       6.96300000      29.68400000
