313
XYZ file of cluster: frame_13000_4b5b4.4cac8.6ced3 - created by MolEdiTo
 O      26.17200000      16.28400000      31.78400000
 H      26.39400000      17.16800000      31.95800000
 H      26.78200000      16.12700000      30.98000000
 O      16.54200000      21.24600000      25.86800000
 H      15.82200000      21.68300000      25.34400000
 H      16.29500000      21.61200000      26.75500000
 O      21.72900000      19.11900000      29.72200000
 H      21.53300000      19.09400000      30.66900000
 H      21.11600000      18.40900000      29.41600000
 O      21.53100000      14.63600000      33.59400000
 H      21.58700000      14.98700000      32.71600000
 H      21.28700000      15.37300000      34.16600000
 O      23.31300000      18.27600000      33.46400000
 H      23.83300000      17.69900000      34.02600000
 H      23.95200000      18.85700000      33.04600000
 O      17.52100000      25.84800000      26.60100000
 H      18.13300000      25.57400000      25.89100000
 H      16.76300000      26.14000000      26.11900000
 O      21.67000000      15.01000000      30.81500000
 H      20.99000000      15.70900000      30.74300000
 H      21.39500000      14.40100000      30.02600000
 O      18.34200000      16.15600000      32.32300000
 H      17.49500000      16.65400000      32.21900000
 H      18.87800000      16.88200000      32.74500000
 O      18.34300000      27.71700000      28.32800000
 H      17.84900000      26.97500000      27.84600000
 H      18.57700000      28.30900000      27.61800000
 O      18.42000000      24.48700000      31.58600000
 H      18.12500000      24.15300000      30.69300000
 H      19.04800000      25.16700000      31.34100000
 O      23.92600000      17.56000000      20.00600000
 H      24.81700000      17.78400000      19.74900000
 H      24.06100000      17.07800000      20.88600000
 O      14.22300000      26.01700000      21.09800000
 H      14.05300000      25.57400000      20.29600000
 H      14.57100000      26.87000000      20.83700000
 O      13.49000000      21.98500000      34.66400000
 H      13.90000000      21.98200000      35.55200000
 H      13.41300000      21.03500000      34.49300000
 O      18.55100000      24.97800000      20.99500000
 H      19.30500000      24.83700000      21.63400000
 H      18.37800000      25.88400000      21.13600000
 O      21.63700000      22.27900000      32.79500000
 H      20.89200000      21.81300000      32.29000000
 H      22.04700000      22.84400000      32.06000000
 O      18.75900000      19.46800000      30.54500000
 H      18.92700000      20.36500000      30.90000000
 H      19.50700000      19.00100000      30.95200000
 O      15.79200000      21.95600000      28.53800000
 H      15.96900000      21.25300000      29.23700000
 H      14.80800000      21.91000000      28.53400000
 O      20.18600000      25.92200000      30.11200000
 H      20.87700000      25.44200000      29.65300000
 H      19.85700000      26.41800000      29.29100000
 O      20.74600000      28.40000000      31.00400000
 H      20.56300000      27.43700000      30.77400000
 H      19.75700000      28.62000000      30.99600000
 O      27.23600000      25.26600000      24.34500000
 H      27.21100000      26.20900000      23.96900000
 H      27.45800000      25.52500000      25.32500000
 O      17.38700000      27.61800000      21.90200000
 H      16.73100000      27.51500000      22.60700000
 H      17.77900000      28.49400000      22.11100000
 O      20.43400000      16.04700000      26.54100000
 H      19.56200000      15.64600000      26.24300000
 H      20.60000000      16.72800000      25.85900000
 O      19.83100000      16.85100000      29.60100000
 H      20.01100000      16.24600000      28.86500000
 H      18.98000000      16.56100000      29.94500000
 O      25.09000000      16.12900000      28.08600000
 H      24.97700000      15.27600000      28.62400000
 H      25.85500000      16.52000000      28.59400000
 O      14.92400000      22.40700000      32.02400000
 H      15.18500000      21.47400000      31.91400000
 H      14.32200000      22.36200000      32.78100000
 O      21.82100000      22.80200000      24.96500000
 H      21.04000000      22.66100000      25.56900000
 H      21.49100000      23.46300000      24.38000000
 O      21.20300000      18.81600000      32.19500000
 H      20.70700000      18.54900000      33.00600000
 H      22.12200000      18.60100000      32.58800000
 O      23.69500000      24.73100000      22.43300000
 H      23.30000000      25.22900000      21.67600000
 H      24.53100000      24.43700000      22.00100000
 O      27.36000000      16.64700000      29.38600000
 H      27.97200000      17.33200000      29.19100000
 H      27.98300000      15.89100000      29.60000000
 O      14.90200000      19.11200000      25.39300000
 H      15.68800000      19.77400000      25.45300000
 H      14.18100000      19.70500000      25.55800000
 O      25.64000000      27.39600000      26.10400000
 H      25.04200000      27.92300000      25.52700000
 H      25.42300000      27.69900000      27.01100000
 O      23.97200000      23.11800000      27.11900000
 H      23.43700000      22.44300000      26.66100000
 H      24.45800000      23.55500000      26.40600000
 O      14.96800000      15.08900000      28.01000000
 H      14.58700000      15.80600000      27.51100000
 H      14.23400000      14.40400000      28.00900000
 O      24.10500000      14.44800000      30.08200000
 H      23.19900000      14.71600000      30.38700000
 H      24.60300000      14.84000000      30.82700000
 O      28.44100000      15.55800000      23.62400000
 H      28.97800000      14.70300000      23.76100000
 H      27.54700000      15.11500000      23.57600000
 O      25.65200000      22.09500000      34.63300000
 H      25.16500000      21.28100000      34.50700000
 H      26.55000000      21.67200000      34.55400000
 O      24.88900000      22.34800000      29.67200000
 H      24.95100000      21.33700000      29.73500000
 H      24.58600000      22.37300000      28.69900000
 O      26.45300000      26.91500000      32.32600000
 H      26.49600000      26.42100000      31.43200000
 H      25.69100000      26.50900000      32.65800000
 O      26.23600000      18.67600000      34.61500000
 H      26.62100000      19.54900000      34.79600000
 H      26.07800000      18.82700000      33.63000000
 O      19.38200000      17.97000000      34.02300000
 H      19.84700000      17.41600000      34.70700000
 H      18.46200000      17.91600000      34.32900000
 C      22.40400000      21.51900000      19.98000000
 C      21.50500000      20.56400000      20.80500000
 C      19.18800000      20.15800000      21.65400000
 H      19.88500000      22.00000000      21.03100000
 H      23.51000000      22.27500000      20.69400000
 O      19.40300000      20.90500000      19.32200000
 O      23.76000000      21.43100000      20.50700000
 O      22.57900000      22.74700000      20.55200000
 C      19.99400000      21.00400000      20.66900000
 O      21.58500000      19.19600000      20.42500000
 H      21.70200000      20.67400000      21.87200000
 O      19.60800000      20.26000000      23.01100000
 O      17.99400000      20.76400000      22.04000000
 H      18.34000000      20.88000000      22.87200000
 H      22.45000000      18.81400000      20.62100000
 H      19.67900000      21.54300000      18.63000000
 O      14.91200000      26.79800000      29.22500000
 H      14.15000000      26.46100000      28.82300000
 H      15.59900000      26.17400000      28.91600000
 O      16.47700000      17.24300000      20.63000000
 H      15.91000000      17.48500000      21.40800000
 H      15.93100000      17.77100000      19.92800000
 O      13.91700000      26.89600000      33.40400000
 H      14.32100000      26.19400000      32.91000000
 H      13.51000000      26.46700000      34.16000000
 O      24.80100000      24.58500000      33.28700000
 H      25.01600000      23.71800000      33.80000000
 H      24.09700000      24.90300000      33.84900000
 O      25.40200000      19.12100000      31.89900000
 H      25.11200000      18.78500000      31.01900000
 H      26.28400000      19.50500000      31.67600000
 O      13.52800000      16.95300000      26.44500000
 H      12.83500000      17.26900000      25.87400000
 H      14.26400000      17.48300000      26.01400000
 O      25.49100000      15.39200000      24.55400000
 H      25.74300000      14.48500000      24.81200000
 H      24.62100000      15.44900000      25.03200000
 O      21.03300000      13.75900000      28.44500000
 H      20.77300000      14.51900000      27.90400000
 H      21.07400000      13.04400000      27.76100000
 O      17.20300000      24.22800000      29.13300000
 H      16.85200000      23.35300000      28.89700000
 H      17.67400000      24.47900000      28.33900000
 O      13.99400000      26.47400000      25.16500000
 H      13.57700000      26.97500000      25.88300000
 H      14.73900000      27.06100000      24.90400000
 O      20.82100000      24.36400000      22.55100000
 H      21.15700000      25.21100000      22.90900000
 H      21.55600000      23.96400000      22.12300000
 O      13.91100000      24.01400000      26.23600000
 H      14.02200000      24.93000000      25.95200000
 H      14.37600000      23.56400000      25.50400000
 O      18.06000000      13.68000000      33.63600000
 H      18.30800000      14.60800000      33.46000000
 H      18.20100000      13.32600000      32.73300000
 O      15.20400000      16.93100000      31.14300000
 H      15.24300000      16.11500000      30.59100000
 H      14.30400000      16.85900000      31.45000000
 O      20.99100000      23.79700000      35.16600000
 H      20.05900000      23.92100000      34.87200000
 H      21.35000000      23.34600000      34.38400000
 O      24.49500000      18.49100000      29.58300000
 H      24.78800000      18.21800000      28.70200000
 H      23.56100000      18.71800000      29.43800000
 O      18.96300000      21.73600000      31.77400000
 H      18.71100000      21.44800000      32.66200000
 H      18.58600000      22.60500000      31.74200000
 O      19.46700000      22.45500000      26.02300000
 H      19.89500000      21.90800000      26.68200000
 H      18.60500000      22.05200000      25.84100000
 O      14.60800000      22.37200000      24.22300000
 H      14.12000000      21.77400000      23.59500000
 H      15.00800000      23.00300000      23.53700000
 O      15.49400000      19.64900000      30.42500000
 H      15.40600000      18.76400000      30.84200000
 H      16.47300000      19.71200000      30.34200000
 O      23.12500000      15.53100000      26.00800000
 H      22.21200000      15.65600000      26.18200000
 H      23.52000000      15.75900000      26.92100000
 O      18.85800000      16.00200000      23.73500000
 H      18.39000000      15.55000000      24.46200000
 H      19.29600000      15.19900000      23.26500000
 O      18.14300000      20.90900000      34.14100000
 H      17.26300000      20.48500000      34.32900000
 H      18.53200000      20.68500000      35.00100000
 O      23.19600000      20.53000000      25.17800000
 H      22.75700000      20.25500000      25.99800000
 H      22.86900000      21.40800000      25.04000000
 O      27.93200000      21.99600000      28.23000000
 H      27.72100000      21.46600000      27.39400000
 H      28.86200000      22.16500000      27.98900000
 O      23.16900000      26.71400000      20.64400000
 H      22.55200000      27.46100000      20.40900000
 H      23.81500000      27.31100000      21.18300000
 O      18.23100000      24.73100000      34.34000000
 H      18.60900000      25.58000000      34.37400000
 H      18.34100000      24.48300000      33.39600000
 O      21.83700000      20.80500000      27.66300000
 H      22.01400000      20.39300000      28.55100000
 H      20.97200000      20.47200000      27.52900000
 O      22.79000000      18.61700000      23.08400000
 H      22.00800000      18.12800000      23.44600000
 H      22.90800000      19.27200000      23.75100000
 O      25.88300000      18.06300000      26.06400000
 H      25.30700000      17.47600000      26.66000000
 H      25.96300000      17.40500000      25.31100000
 O      28.58600000      21.17400000      23.45300000
 H      27.62600000      21.28400000      23.67900000
 H      29.05000000      21.31500000      24.23800000
 O      25.41400000      14.50300000      33.85900000
 H      25.93900000      13.74800000      34.05700000
 H      25.92500000      14.92300000      33.11200000
 O      25.64700000      18.50200000      22.81400000
 H      25.83400000      19.24300000      23.46300000
 H      24.64700000      18.51300000      22.86400000
 O      19.69200000      14.34500000      21.81700000
 H      20.51900000      14.04400000      22.26300000
 H      20.14700000      14.83400000      21.09300000
 O      27.23000000      20.42800000      26.14200000
 H      26.70400000      20.58400000      25.30500000
 H      26.88600000      19.51400000      26.29900000
 O      25.61400000      21.20500000      24.06200000
 H      24.78100000      20.81000000      24.31300000
 H      25.35900000      22.16500000      24.29200000
 O      18.12400000      14.77400000      26.04200000
 H      17.16800000      14.64400000      25.86800000
 H      18.51600000      14.00900000      25.58300000
 O      24.92100000      27.91600000      22.32200000
 H      25.77600000      27.57100000      22.45800000
 H      24.74300000      28.21400000      23.25700000
 O      21.94900000      24.69500000      28.77500000
 H      22.49300000      24.49400000      29.52600000
 H      22.54400000      24.37800000      28.01500000
 O      20.48000000      17.91100000      24.40500000
 H      20.01100000      18.73700000      24.00300000
 H      19.78700000      17.25200000      24.16600000
 O      27.44200000      21.78900000      31.01900000
 H      27.51900000      21.99300000      30.06200000
 H      26.90000000      22.54500000      31.29900000
 O      27.39300000      17.04100000      21.32900000
 H      26.82300000      17.66100000      21.83300000
 H      28.03700000      16.77500000      22.03200000
 O      19.20600000      19.76800000      27.35100000
 H      18.63000000      19.00800000      27.16100000
 H      18.84100000      20.07500000      28.19000000
 O      15.08800000      25.00900000      32.21500000
 H      15.13600000      24.03500000      32.12500000
 H      15.99600000      25.26800000      32.22700000
 O      27.62000000      27.59000000      22.86600000
 H      28.44700000      28.14300000      22.77900000
 H      27.55600000      27.33200000      21.94100000
 O      25.85700000      25.61000000      30.17000000
 H      26.70600000      25.38100000      29.71800000
 H      25.25600000      25.07900000      29.63100000
 O      19.03600000      27.37200000      34.59700000
 H      19.85200000      27.89400000      34.27300000
 H      18.35400000      27.84100000      34.04500000
 O      23.46500000      13.41900000      35.37000000
 H      24.10100000      13.87400000      34.77400000
 H      22.62000000      13.67500000      34.89200000
 O      24.38200000      15.95600000      22.11700000
 H      24.04300000      15.11900000      22.44700000
 H      25.13400000      16.04500000      22.72300000
 O      15.73100000      24.00200000      22.52400000
 H      15.20900000      24.38000000      21.79800000
 H      16.57100000      24.40600000      22.40800000
 O      21.63100000      14.09900000      23.79800000
 H      22.32800000      13.45300000      23.48500000
 H      22.17000000      14.85100000      24.07400000
 O      23.19600000      23.77500000      31.22700000
 H      23.81400000      24.18600000      31.80700000
 H      23.80700000      23.26500000      30.67700000
 O      22.13200000      26.11200000      24.31100000
 H      22.12400000      27.06200000      23.93400000
 H      22.77600000      25.72200000      23.65100000
 O      20.85200000      26.19900000      26.70300000
 H      21.34500000      26.08400000      25.83500000
 H      20.92600000      25.37700000      27.17400000
 O      23.09600000      20.73900000      34.91800000
 H      22.76800000      19.81600000      34.75500000
 H      22.72400000      21.16100000      34.12200000
 O      25.20100000      23.75500000      24.81500000
 H      24.56400000      24.38400000      24.42300000
 H      26.02400000      24.13500000      24.44700000
 O      17.73300000      14.57700000      28.79100000
 H      18.18200000      14.68000000      27.93800000
 H      16.78200000      14.79300000      28.47700000
 O      15.10100000      18.05400000      22.88800000
 H      15.16400000      19.02700000      22.72600000
 H      15.39700000      17.99200000      23.82100000
 O      15.76200000      15.11900000      23.89900000
 H      15.99300000      15.99100000      23.41500000
 H      14.91500000      14.97500000      23.45800000
