1479
XYZ file of cluster: frame_13000_c3f94.49514.1644 - created by MolEdiTo
 O      37.35900000      15.15600000       6.45700000
 H      37.25000000      14.48900000       5.71700000
 H      36.81300000      15.89300000       6.12300000
 O      38.17500000      29.48100000      27.07100000
 H      37.88200000      29.55900000      26.13500000
 H      39.09900000      29.12300000      26.96500000
 O      35.32400000      23.94500000      26.82200000
 H      36.05800000      24.39900000      27.34200000
 H      35.87600000      23.23000000      26.38600000
 O      39.35300000      20.15600000       6.87200000
 H      39.40300000      19.20300000       6.63600000
 H      39.29300000      20.55300000       5.97300000
 O      35.79300000      35.10800000      13.97800000
 H      36.43200000      34.54700000      14.42900000
 H      35.03700000      34.52900000      13.82300000
 O      35.08100000      25.07500000       1.71500000
 H      34.53500000      25.68500000       1.09900000
 H      35.94700000      25.46100000       1.49900000
 O      40.49100000      38.81000000      34.84100000
 H      40.50800000      39.53200000      34.17400000
 H      39.94500000      39.15900000      35.54500000
 O      40.54100000      28.28900000      29.46500000
 H      40.96800000      28.52400000      28.65100000
 H      41.23000000      27.92300000      30.00900000
 O      36.37900000      37.18000000      12.05300000
 H      36.37600000      36.43100000      12.66800000
 H      35.51900000      37.60600000      12.39600000
 O      37.41500000      21.83200000      20.94100000
 H      37.05300000      21.72500000      21.85300000
 H      36.71400000      21.32400000      20.44600000
 O      33.98700000      33.12300000       3.73200000
 H      34.81700000      32.59100000       3.60100000
 H      33.37900000      32.50300000       4.18100000
 O      36.12000000      13.78300000      15.43900000
 H      35.33500000      14.17000000      15.97500000
 H      35.55400000      13.35500000      14.77100000
 O      40.68300000      40.73800000      22.50800000
 H      40.20500000      39.91200000      22.76300000
 H      41.55000000      40.58100000      22.96800000
 O      37.48700000      17.77400000      40.40500000
 H      36.86100000      17.43000000      39.74000000
 H      37.78400000      18.56400000      40.02600000
 O      33.98300000      22.09300000      36.04400000
 H      34.66600000      22.81100000      35.90900000
 H      33.96600000      22.06600000      37.04800000
 O      35.02300000      33.90200000      32.76500000
 H      34.84400000      34.25000000      33.65700000
 H      34.75100000      32.94300000      32.95800000
 O      37.55400000      16.87300000      34.46800000
 H      38.31500000      16.85100000      35.09200000
 H      37.22000000      15.95300000      34.50000000
 O      39.59300000      24.14600000      30.28300000
 H      40.42400000      24.34200000      29.84700000
 H      39.94100000      24.29300000      31.23100000
 O      39.31600000      19.72900000      29.60900000
 H      38.89300000      20.35200000      30.23400000
 H      38.68200000      18.98900000      29.64900000
 O      37.05400000      35.90200000       5.37200000
 H      36.37500000      35.91000000       4.67300000
 H      36.70800000      35.23800000       5.98800000
 O      35.15300000      22.67000000      32.03200000
 H      34.31200000      22.24100000      31.74100000
 H      35.06100000      23.52400000      31.54900000
 O      40.66500000      27.85300000      26.28600000
 H      41.27200000      27.09800000      26.37300000
 H      41.33600000      28.44300000      25.87400000
 O      39.24500000      27.08100000      11.06800000
 H      38.44000000      26.49600000      10.99200000
 H      38.78900000      27.79800000      11.55900000
 O      40.30300000      39.88500000      40.12400000
 H      39.58400000      39.22200000      40.28200000
 H      39.88500000      40.37100000      39.35400000
 O      37.63800000      26.80600000      14.38700000
 H      37.27900000      26.90100000      13.45000000
 H      38.13500000      27.63800000      14.44700000
 O      37.57300000      26.86000000      18.60300000
 H      37.28400000      26.04700000      19.17300000
 H      38.33100000      27.12700000      19.10600000
 O      39.52300000      20.52400000      19.84300000
 H      39.42700000      19.58000000      20.23200000
 H      38.70100000      20.86500000      20.28400000
 O      38.17000000      35.31400000       9.65100000
 H      37.28200000      35.67100000       9.49800000
 H      38.08100000      34.88000000      10.51200000
 O      37.88000000      33.18500000       8.13300000
 H      37.04800000      33.42900000       7.67700000
 H      38.11500000      34.06500000       8.53100000
 O      38.21800000      15.26500000      13.88600000
 H      37.67300000      15.89500000      13.38700000
 H      37.54800000      14.80200000      14.38100000
 O      38.87500000      33.80300000       4.62000000
 H      38.78000000      33.11300000       5.26900000
 H      38.00100000      34.20600000       4.59400000
 O      39.16200000      34.09400000      29.00100000
 H      39.90400000      34.00900000      29.68400000
 H      38.56600000      33.38500000      29.26200000
 O      35.60900000      27.65600000      33.69800000
 H      34.65100000      27.36900000      33.68700000
 H      36.05000000      26.82100000      33.54200000
 O      38.27100000      21.16000000      36.79900000
 H      38.40200000      21.02600000      35.81400000
 H      37.84400000      22.05000000      36.80800000
 O      35.47500000      32.46300000      17.52200000
 H      36.36400000      32.39700000      17.94800000
 H      35.60100000      32.10100000      16.64200000
 O      40.44300000      33.60500000      37.87400000
 H      40.05900000      34.31200000      38.40300000
 H      40.45100000      34.06300000      36.95500000
 O      38.06000000      37.41100000      17.03500000
 H      37.78800000      36.55000000      17.39500000
 H      37.21000000      37.64800000      16.53500000
 O      39.96300000      40.42900000       6.88300000
 H      39.92200000      39.46400000       6.82300000
 H      39.62700000      40.53800000       7.81000000
 O      39.48500000      27.37600000      23.81300000
 H      39.92400000      27.39200000      24.70200000
 H      39.80400000      26.56400000      23.37900000
 O      35.86200000      16.44600000      37.01300000
 H      35.61500000      17.27600000      36.68900000
 H      36.77800000      16.30700000      36.66400000
 O      35.83400000      18.81000000      13.47400000
 H      35.93300000      17.83600000      13.15200000
 H      35.70100000      18.60900000      14.46900000
 O      38.38200000      30.75000000       9.29900000
 H      37.94700000      31.60400000       9.00700000
 H      37.55600000      30.31900000       9.64900000
 O      38.09800000      39.54000000      14.24900000
 H      37.72900000      40.46300000      14.44400000
 H      37.37700000      39.01500000      14.63900000
 O      37.10100000      22.36300000      28.73800000
 H      37.51500000      22.11800000      29.57900000
 H      37.03800000      23.32600000      28.87300000
 O      35.33500000      18.48000000      19.73600000
 H      34.43800000      18.14200000      19.76200000
 H      35.65900000      18.07300000      18.95300000
 O      39.04200000      37.47500000       5.41300000
 H      38.36100000      36.73900000       5.26200000
 H      38.65900000      37.95000000       6.15800000
 O      36.82600000      39.22300000       5.58000000
 H      37.41100000      40.00300000       5.80900000
 H      36.95400000      38.68800000       6.36200000
 O      37.77500000      15.96400000      31.27200000
 H      38.31400000      15.30400000      30.80700000
 H      38.45100000      16.42500000      31.82300000
 O      36.25300000      39.62300000      33.28200000
 H      35.59200000      39.66500000      33.97700000
 H      36.95700000      39.03900000      33.58800000
 O      40.37000000      17.25500000      23.37900000
 H      39.71400000      16.80900000      23.98000000
 H      40.70800000      17.91100000      23.98600000
 O      39.46200000      21.24900000      24.31100000
 H      40.40600000      21.29000000      23.96200000
 H      39.49100000      20.39200000      24.78700000
 O      34.15300000      19.74200000      32.48600000
 H      34.65200000      19.65600000      31.66200000
 H      34.89700000      19.68600000      33.10700000
 O      39.19200000      17.13000000      36.76800000
 H      39.59900000      16.81200000      37.59400000
 H      38.90900000      18.02800000      37.12700000
 O      37.28100000      29.87100000      24.60700000
 H      37.44100000      29.55100000      23.68500000
 H      38.02300000      30.55200000      24.64200000
 O      35.70200000      30.82100000      14.79100000
 H      35.05200000      30.27600000      15.30000000
 H      35.12400000      31.40800000      14.34800000
 O      35.31600000      34.83900000      35.39300000
 H      34.73200000      34.18900000      35.75500000
 H      35.78100000      35.10400000      36.20600000
 O      39.76400000      39.35200000      17.95500000
 H      40.55500000      38.85900000      18.23100000
 H      39.36800000      38.64500000      17.33300000
 O      39.36800000      24.29000000       1.84700000
 H      38.44500000      24.26300000       1.45000000
 H      39.64100000      25.19300000       1.65400000
 O      34.86800000      22.34900000       1.67400000
 H      35.28200000      22.26000000       2.56000000
 H      34.67200000      23.31200000       1.68200000
 O      35.53500000      14.90000000      25.65700000
 H      34.61000000      15.14800000      25.46200000
 H      35.62600000      15.44200000      26.48400000
 O      35.24500000      34.75000000      27.01000000
 H      35.03900000      35.36000000      27.72800000
 H      34.49000000      34.96300000      26.37600000
 O      36.48000000      26.52800000       7.00000000
 H      37.24500000      25.78700000       7.02900000
 H      37.06200000      27.29500000       7.16900000
 O      37.54300000      19.50600000       2.56000000
 H      37.27900000      20.14300000       1.87900000
 H      37.50400000      18.69600000       2.03900000
 O      34.96000000      28.98200000       2.04100000
 H      34.14100000      28.55800000       1.75200000
 H      35.29600000      28.42400000       2.78000000
 O      38.09000000      23.18000000      39.19800000
 H      37.75900000      23.41600000      38.34500000
 H      38.76200000      23.91600000      39.36300000
 O      40.53400000      40.74600000      33.04800000
 H      39.63800000      41.12400000      32.71400000
 H      40.78700000      40.26800000      32.24800000
 O      40.80600000      24.65300000      23.91900000
 H      40.30100000      23.94500000      23.43700000
 H      41.58300000      24.06200000      24.15000000
 O      38.88900000      35.88400000      21.12900000
 H      38.36600000      36.07000000      21.92100000
 H      38.83000000      36.74600000      20.65700000
 O      40.21000000      26.82700000      35.25400000
 H      40.01200000      27.53900000      35.84400000
 H      39.35100000      26.61100000      34.78800000
 O      40.41600000      22.79000000       7.21000000
 H      41.38200000      22.68900000       6.91900000
 H      40.23400000      21.84300000       7.05200000
 O      34.68200000      23.15900000       9.67200000
 H      34.06600000      23.61600000       9.07600000
 H      34.14200000      22.53100000      10.11100000
 O      35.61300000      33.05400000      11.85000000
 H      35.02200000      32.82500000      12.57600000
 H      35.13600000      33.54700000      11.21900000
 O      36.07700000      37.72500000      15.34400000
 H      35.87000000      36.83100000      15.08600000
 H      35.20300000      38.01900000      15.61600000
 O      38.45600000      36.45500000      27.45300000
 H      38.24700000      35.83700000      28.19300000
 H      38.50100000      37.30300000      27.92800000
 O      35.98900000      17.65900000      24.42100000
 H      36.87800000      18.05200000      24.52100000
 H      35.97300000      17.54400000      23.43200000
 O      38.95300000      19.04900000      14.01400000
 H      39.12300000      19.20000000      14.95500000
 H      37.98200000      19.02800000      13.95300000
 O      34.88800000      28.45400000      24.98600000
 H      35.22700000      27.71200000      24.45200000
 H      35.62800000      29.04300000      24.88900000
 O      39.84900000      38.20800000       9.60400000
 H      40.62100000      38.78400000       9.64500000
 H      39.63100000      38.17200000      10.57900000
 O      36.89600000      31.21300000      21.75700000
 H      36.44300000      31.51600000      22.55700000
 H      36.32000000      30.51100000      21.39800000
 O      37.93100000      30.40100000      13.53200000
 H      36.98000000      30.49700000      13.98900000
 H      38.42500000      30.57400000      14.37500000
 O      38.81000000      20.49200000      34.28900000
 H      38.48300000      20.59700000      33.37700000
 H      39.61500000      21.02200000      34.20000000
 O      36.52700000      27.09900000      11.75500000
 H      35.68000000      26.79400000      12.17100000
 H      36.73700000      26.19700000      11.30100000
 O      38.12700000      27.53500000      29.15500000
 H      37.97900000      28.09200000      28.33400000
 H      39.05200000      27.83600000      29.35300000
 O      38.71700000      25.21800000       6.97000000
 H      39.09700000      26.05400000       6.90000000
 H      39.46000000      24.57700000       6.85500000
 O      39.39600000      13.83000000      23.71600000
 H      40.18800000      14.05000000      24.29600000
 H      38.92200000      14.64900000      23.76200000
 O      36.76200000      17.73400000      21.84900000
 H      37.61200000      17.91000000      21.37300000
 H      36.20300000      17.89600000      21.02700000
 O      40.74200000      24.67000000      32.89100000
 H      39.97100000      25.28700000      33.18000000
 H      41.48600000      25.26000000      33.28600000
 O      38.15500000      38.01200000      40.35000000
 H      37.95700000      37.09200000      40.49700000
 H      37.69300000      38.43800000      41.10700000
 O      35.65000000      32.32300000      24.12000000
 H      35.80600000      32.26900000      25.12800000
 H      36.36500000      32.90000000      23.90300000
 O      35.00400000      34.02300000      40.13300000
 H      35.77000000      33.55000000      40.28700000
 H      34.32700000      33.34700000      39.90900000
 O      37.46600000      33.17100000      26.78200000
 H      37.68000000      33.14300000      27.67700000
 H      36.83900000      33.91300000      26.72100000
 O      39.50000000      31.22200000      38.54500000
 H      39.80600000      31.02800000      39.44100000
 H      39.87000000      32.18600000      38.46500000
 O      38.47600000      40.03600000      36.46000000
 H      38.78100000      40.51800000      37.25700000
 H      38.00900000      40.77600000      36.04500000
 O      40.44100000      30.77900000       1.11900000
 H      41.32200000      30.33400000       1.24800000
 H      40.46600000      31.39300000       1.91800000
 O      36.70300000      26.84200000      37.38400000
 H      36.22500000      27.66100000      37.42300000
 H      37.64500000      27.08600000      37.60800000
 O      35.34800000      29.53000000      35.92100000
 H      35.54500000      28.79900000      35.29400000
 H      36.20700000      30.07100000      35.80300000
 O      38.02300000      14.23700000      35.68600000
 H      37.11900000      13.96700000      35.46900000
 H      38.05400000      14.00400000      36.64400000
 O      40.46400000      33.66600000      31.15000000
 H      39.86200000      33.24200000      31.79100000
 H      41.28000000      33.71600000      31.70800000
 O      37.05500000      38.81500000      24.94500000
 H      37.70400000      39.19300000      25.62000000
 H      36.31300000      38.64500000      25.53700000
 O      38.47400000      25.92400000      33.51600000
 H      37.98000000      26.39100000      32.87300000
 H      37.91600000      25.21100000      33.79900000
 O      35.72400000      17.71500000      17.02600000
 H      35.03800000      18.27000000      16.57300000
 H      35.39600000      16.81800000      16.86000000
 O      36.61300000      33.17800000      30.39000000
 H      37.34300000      32.59400000      30.64500000
 H      36.13200000      33.37100000      31.18400000
 O      35.83400000      14.77900000       8.90300000
 H      36.38300000      14.21900000       8.39700000
 H      36.49500000      15.45800000       9.21700000
 O      39.95200000      32.20000000      19.46200000
 H      40.67000000      31.55100000      19.70000000
 H      39.78300000      32.63200000      20.29200000
 O      34.86300000      32.43800000      28.48400000
 H      35.57700000      32.61200000      29.21000000
 H      35.01300000      33.23500000      27.94600000
 O      35.55100000      27.37600000       4.50000000
 H      34.70100000      26.94200000       4.61900000
 H      35.90600000      27.28900000       5.41500000
 O      39.39800000      24.27000000      26.43900000
 H      39.78500000      24.62700000      25.63200000
 H      40.17100000      23.85500000      26.86500000
 O      39.18800000      28.38800000      32.18200000
 H      38.57400000      29.16900000      32.26300000
 H      39.19400000      28.31600000      31.22100000
 O      37.14100000      25.80400000      30.82100000
 H      37.95800000      25.26700000      30.58800000
 H      37.32500000      26.57900000      30.25300000
 O      35.62200000      19.57400000       4.69300000
 H      36.42400000      19.46800000       4.09600000
 H      35.47400000      20.56900000       4.54400000
 O      37.77100000      38.23600000       7.80400000
 H      37.16300000      38.41500000       8.59100000
 H      38.56100000      38.05700000       8.32000000
 O      37.35000000      35.36100000      40.39900000
 H      37.66600000      34.59300000      40.90400000
 H      36.41800000      35.12400000      40.22400000
 O      39.61600000      32.16600000      34.95000000
 H      40.28900000      31.47400000      35.28000000
 H      40.17300000      32.97700000      35.20700000
 O      36.08100000      31.39700000       3.63400000
 H      36.39100000      30.82800000       4.39100000
 H      35.55300000      30.70600000       3.20000000
 O      36.06200000      22.21800000       4.12700000
 H      37.04000000      22.20800000       4.28300000
 H      35.84400000      22.93500000       4.81700000
 O      35.27600000      35.05200000      19.11400000
 H      35.69700000      34.40000000      19.68100000
 H      35.14800000      34.51500000      18.30800000
 O      37.62100000      39.15600000       2.96600000
 H      36.99400000      39.16800000       3.78200000
 H      38.28200000      38.53000000       3.38300000
 O      38.84900000      13.68800000      40.51900000
 H      39.09400000      13.15700000      41.26400000
 H      38.29600000      14.36500000      40.89400000
 O      34.38000000      40.16600000       5.01800000
 H      35.23800000      39.87100000       5.35700000
 H      33.83100000      39.41300000       5.24300000
 O      36.15600000      18.47900000       8.81400000
 H      36.59900000      19.35700000       8.92500000
 H      35.28300000      18.67200000       9.22300000
 O      37.56600000      16.47800000      10.01900000
 H      36.84700000      17.14000000       9.82900000
 H      38.27400000      16.94000000       9.47900000
 O      36.10700000      24.13900000      34.14700000
 H      35.32400000      24.40700000      34.72800000
 H      35.61900000      23.81000000      33.36700000
 O      37.62600000      21.13600000      31.81800000
 H      36.98000000      20.62200000      31.27900000
 H      37.02400000      21.88100000      32.07100000
 O      35.09400000      16.45700000      28.04000000
 H      34.26700000      16.68000000      27.53500000
 H      34.71700000      16.00600000      28.82100000
 O      38.80700000      16.11700000      27.61900000
 H      38.43200000      15.45500000      28.27300000
 H      38.33800000      16.92100000      27.90100000
 O      36.31800000      15.10800000      21.95900000
 H      36.71300000      16.04100000      22.11900000
 H      36.59900000      15.04300000      21.01300000
 O      37.29400000      23.58800000      13.19100000
 H      36.58400000      22.86200000      13.19100000
 H      36.67400000      24.35200000      12.94800000
 O      36.79300000      25.15800000       9.93800000
 H      37.45600000      24.46400000       9.67300000
 H      36.01100000      24.63800000       9.59400000
 O      37.06100000      27.89000000      22.34200000
 H      37.95900000      27.61900000      22.50900000
 H      36.60800000      27.02000000      22.38800000
 O      38.27600000      33.66700000      11.81600000
 H      38.74000000      32.80800000      11.98000000
 H      37.36800000      33.39000000      11.98800000
 O      36.34500000      31.20900000      40.14000000
 H      36.38500000      30.30200000      40.52500000
 H      35.30900000      31.20400000      40.24200000
 O      36.01500000      32.75300000      37.53800000
 H      36.74000000      32.29600000      36.99300000
 H      36.19500000      32.24400000      38.38800000
 O      35.13100000      15.47600000      39.39100000
 H      35.31300000      15.95200000      38.56100000
 H      35.68500000      14.65500000      39.21200000
 O      40.07300000      25.24200000      39.05600000
 H      40.40100000      25.70500000      39.85600000
 H      39.74900000      26.03100000      38.55300000
 O      38.50700000      13.41100000       8.25100000
 H      38.16900000      13.90500000       7.49900000
 H      39.31700000      13.93200000       8.40100000
 O      36.03200000      39.10400000       9.41900000
 H      35.06700000      39.00400000       9.36600000
 H      36.11400000      40.00100000       9.78100000
 O      39.80700000      27.90000000       4.43400000
 H      40.47800000      27.28000000       4.18000000
 H      40.30800000      28.48700000       5.08100000
 O      35.82400000      25.30000000      22.11400000
 H      34.99600000      25.42400000      22.68900000
 H      36.12100000      24.44500000      22.40200000
 O      40.61200000      37.63400000       3.14700000
 H      41.09400000      36.78900000       3.02500000
 H      40.27000000      37.49300000       4.04000000
 O      35.60400000      39.09600000      21.73000000
 H      34.67200000      39.04900000      21.40100000
 H      35.96100000      38.38900000      21.04000000
 O      35.98800000      22.58400000      23.13400000
 H      36.53400000      22.34200000      23.92100000
 H      35.13700000      22.16800000      23.44800000
 O      37.69500000      35.61300000      32.36700000
 H      37.10800000      35.48300000      31.60200000
 H      37.92300000      34.64500000      32.51400000
 O      34.99000000      35.86400000       3.57400000
 H      34.70500000      34.91200000       3.64300000
 H      34.47000000      36.07800000       2.71400000
 O      35.11800000      21.91600000      13.34000000
 H      34.29200000      22.26900000      12.93200000
 H      35.01700000      20.93500000      13.17600000
 O      40.06900000      36.24700000      33.44400000
 H      39.21600000      36.23100000      33.03100000
 H      40.00400000      36.95100000      34.07800000
 O      39.95700000      17.47700000       5.77700000
 H      40.12100000      16.63200000       5.28700000
 H      40.75700000      17.96800000       5.49100000
 O      37.81200000      33.81400000      23.43600000
 H      38.75500000      33.96700000      23.80000000
 H      37.53600000      34.74900000      23.39300000
 O      35.09900000      20.85100000      28.13300000
 H      35.80200000      21.51100000      28.05400000
 H      34.93000000      20.66500000      27.19400000
 O      36.84200000      36.36500000      23.04500000
 H      36.97000000      36.88400000      23.91300000
 H      35.91600000      36.54100000      22.82500000
 O      37.11000000      30.24100000      32.81800000
 H      36.92800000      29.32500000      33.21100000
 H      36.22100000      30.53900000      32.66700000
 O      40.56500000      13.71600000      13.45600000
 H      40.47900000      12.91500000      13.99500000
 H      39.70500000      14.14300000      13.63800000
 O      39.06400000      35.59900000      13.68600000
 H      38.86400000      35.14800000      12.83300000
 H      38.35100000      35.20800000      14.19800000
 O      39.41300000      31.70400000      25.43100000
 H      38.71600000      32.23400000      25.85100000
 H      40.14300000      31.89000000      26.04100000
 O      36.87600000      13.55400000       4.34100000
 H      36.56100000      14.10200000       3.60000000
 H      37.23000000      12.77700000       3.84900000
 O      40.65000000      26.11500000      13.64600000
 H      40.20900000      26.49700000      12.82000000
 H      40.69700000      25.17900000      13.27800000
 O      34.51700000      25.20900000      30.84400000
 H      34.18700000      26.08900000      30.56300000
 H      35.47800000      25.46600000      30.80300000
 O      39.18000000      19.25300000      38.40900000
 H      40.10600000      19.39600000      38.65300000
 H      38.95900000      20.09100000      37.95000000
 O      36.42600000      38.12900000      37.12100000
 H      37.19700000      38.77300000      37.10200000
 H      36.53800000      37.73400000      36.22200000
 O      38.82600000      22.67000000      15.71000000
 H      38.36200000      22.86800000      14.91900000
 H      38.71200000      23.55300000      16.16200000
 O      34.56100000      27.70300000      28.64700000
 H      33.72200000      27.64100000      28.11100000
 H      35.16000000      28.06400000      28.01700000
 O      39.35600000      38.57500000      23.37600000
 H      38.42100000      38.68600000      23.59500000
 H      39.70000000      38.42000000      24.29800000
 O      37.64800000      38.24300000      20.01200000
 H      38.01700000      38.24300000      19.12400000
 H      38.07700000      38.97600000      20.47000000
 O      39.60400000      17.18300000       8.47400000
 H      40.14600000      16.36700000       8.42500000
 H      39.66400000      17.50100000       7.51400000
 O      38.80500000      39.16600000      29.01500000
 H      38.02500000      39.33400000      29.53800000
 H      38.61700000      39.50600000      28.16800000
 O      39.47500000      30.52400000      15.90600000
 H      39.97800000      31.24600000      16.39300000
 H      40.26900000      29.90800000      15.80800000
 O      36.12800000      19.36900000      38.14400000
 H      36.22100000      19.94500000      38.93800000
 H      36.98800000      19.62000000      37.70900000
 O      36.59600000      30.38500000       5.98400000
 H      35.97300000      30.59500000       6.68400000
 H      37.18600000      29.74000000       6.39300000
 O      39.88100000      31.36400000      11.94000000
 H      40.02600000      30.87700000      11.13000000
 H      39.07100000      30.93100000      12.32200000
 O      38.61900000      31.24500000      29.00400000
 H      39.55700000      31.17200000      29.15400000
 H      38.48700000      30.69600000      28.21100000
 O      40.58100000      16.48300000      19.15700000
 H      40.35600000      16.56900000      18.24300000
 H      40.69900000      15.50700000      19.22800000
 O      39.19800000      17.97500000      20.96700000
 H      39.58800000      17.21500000      20.48000000
 H      39.61000000      17.77500000      21.86700000
 O      36.73400000      21.02100000      40.24900000
 H      35.95300000      21.55200000      40.42200000
 H      37.36700000      21.72000000      39.91500000
 O      40.30500000      16.42800000      16.11300000
 H      39.41300000      16.68700000      16.49100000
 H      39.97600000      16.04300000      15.25200000
 O      36.21500000      19.10900000      34.58300000
 H      36.75700000      18.29300000      34.60700000
 H      36.96600000      19.73100000      34.41500000
 O      40.21900000      26.65600000      21.08200000
 H      41.03100000      26.28700000      20.64500000
 H      39.64300000      25.85300000      21.09700000
 O      33.85800000      26.79200000       8.23100000
 H      34.76300000      26.60800000       7.79400000
 H      34.16600000      27.46200000       8.89300000
 O      35.47100000      23.88400000       5.82600000
 H      34.90200000      24.64100000       5.60000000
 H      36.04300000      24.29100000       6.53700000
 O      36.76500000      21.03700000       8.25500000
 H      36.87700000      21.89600000       8.72000000
 H      37.71300000      20.84200000       7.98700000
 O      39.07500000      24.08800000      21.03900000
 H      39.94700000      23.63400000      21.02400000
 H      38.46600000      23.30000000      21.02500000
 O      40.30000000      24.00800000       4.37000000
 H      40.06500000      23.89100000       3.43500000
 H      39.53900000      24.38100000       4.77200000
 O      37.11500000      23.80700000      36.66100000
 H      36.84500000      23.83900000      35.67800000
 H      36.95900000      24.79600000      36.86000000
 O      38.27400000      34.09800000      17.87000000
 H      39.23900000      33.85300000      18.03000000
 H      38.00700000      34.15900000      18.79900000
 O      34.49100000      25.06600000      35.85900000
 H      34.02600000      25.91500000      35.63500000
 H      34.86600000      25.32400000      36.78500000
 O      38.54200000      25.09200000      16.33000000
 H      37.89600000      25.38100000      16.99900000
 H      38.25700000      25.79200000      15.63300000
 O      35.82200000      38.64200000      29.32900000
 H      35.38400000      37.78100000      29.40500000
 H      36.14700000      38.57300000      28.40900000
 O      38.27200000      28.68900000      40.58000000
 H      38.95000000      29.29400000      41.05100000
 H      37.73700000      28.44400000      41.38200000
 O      39.37900000      36.09300000      38.40900000
 H      38.70300000      35.91300000      39.07200000
 H      39.15300000      37.00800000      38.11300000
 O      35.82300000      28.86900000      19.93800000
 H      36.71000000      29.11100000      19.56400000
 H      36.12900000      28.15800000      20.61000000
 O      40.20000000      15.65100000      38.93200000
 H      40.81800000      15.72000000      39.75000000
 H      39.60100000      14.90700000      39.30100000
 O      37.63000000      28.01700000       2.96100000
 H      36.96600000      27.57600000       3.49800000
 H      38.43000000      28.03700000       3.51300000
 O      37.38900000      25.88300000      40.70200000
 H      37.75700000      26.54200000      41.27800000
 H      37.57300000      26.27600000      39.81700000
 O      37.27800000      15.57300000      19.28500000
 H      37.61400000      14.93200000      18.58500000
 H      37.34200000      16.40600000      18.82700000
 O      35.94300000      16.20000000      12.73000000
 H      36.17800000      15.93700000      11.85600000
 H      35.21000000      15.59400000      12.97400000
 O      36.16200000      24.51100000      19.30300000
 H      35.83700000      24.65600000      20.23100000
 H      36.77500000      23.74500000      19.44800000
 O      36.90400000      33.45800000      20.39800000
 H      37.03700000      34.13600000      21.03900000
 H      36.92000000      32.62500000      20.95300000
 O      38.22700000      16.23000000      24.78500000
 H      38.29200000      16.25000000      25.77200000
 H      37.25000000      16.26400000      24.63500000
 O      35.42100000      34.35600000       7.30500000
 H      35.37800000      35.09800000       7.96900000
 H      34.49500000      34.08300000       7.36500000
 O      38.83800000      16.05600000       2.21000000
 H      38.60200000      16.71400000       1.55700000
 H      37.90900000      15.84000000       2.52400000
 O      36.96400000      37.16900000      34.45400000
 H      37.36300000      36.64600000      33.72900000
 H      36.15800000      36.63300000      34.64500000
 O      37.64600000      30.91000000      36.44400000
 H      38.35800000      31.15200000      35.84700000
 H      38.13000000      30.88300000      37.30900000
 O      35.07700000      20.23500000      25.42200000
 H      34.52400000      19.42700000      25.33400000
 H      35.90200000      19.80000000      25.04200000
 O      35.56700000      27.61400000      16.48700000
 H      36.26700000      27.46200000      17.13000000
 H      35.99200000      27.40700000      15.63000000
 O      37.35900000      17.96500000      28.71500000
 H      37.54500000      18.38800000      27.86800000
 H      36.47700000      17.57700000      28.47200000
 O      39.85600000      17.71900000      32.38200000
 H      39.01500000      17.92200000      32.92900000
 H      40.33500000      17.29400000      33.14800000
 O      36.35700000      29.96100000      10.86700000
 H      36.30800000      29.13700000      11.41600000
 H      36.62500000      30.60000000      11.55500000
 O      37.59700000      32.83600000       1.48200000
 H      37.42400000      32.08900000       0.84000000
 H      37.09900000      32.49100000       2.25700000
 O      35.64900000      17.35400000       6.33000000
 H      35.70600000      18.18300000       5.76700000
 H      35.78200000      17.78500000       7.21800000
 O      34.99700000      21.94700000      16.57400000
 H      35.14300000      21.83800000      15.59500000
 H      34.88400000      22.90500000      16.60400000
 O      37.86800000      33.62100000      15.37600000
 H      38.37500000      32.76600000      15.39000000
 H      37.85600000      33.79800000      16.36500000
 O      38.79400000      21.51700000       4.16900000
 H      38.35100000      20.74800000       3.70200000
 H      39.59300000      21.58000000       3.64700000
 O      37.75100000      19.27300000      26.37100000
 H      37.79000000      20.18900000      26.60400000
 H      38.67800000      19.04600000      26.21900000
 O      38.37500000      23.08200000       8.93300000
 H      39.06000000      23.13400000       8.18700000
 H      38.93100000      22.47100000       9.52500000
 O      37.42000000      24.92800000      28.03900000
 H      37.67200000      25.91600000      28.09500000
 H      38.25300000      24.58200000      27.70400000
 O      40.62300000      18.76200000      25.90100000
 H      41.38200000      19.20900000      25.52400000
 H      40.97400000      17.91700000      26.21200000
 O      39.94000000      33.76600000       2.09000000
 H      39.62900000      33.70600000       3.00900000
 H      39.12600000      33.42800000       1.60900000
 O      35.00300000      39.61100000      26.58300000
 H      34.74100000      40.47300000      26.29700000
 H      34.55600000      39.60500000      27.46600000
 O      35.94300000      19.68300000      30.44900000
 H      36.30000000      18.91600000      29.91700000
 H      35.57100000      20.25400000      29.73400000
 O      39.85600000      23.87700000      12.08100000
 H      39.80300000      22.94300000      11.67100000
 H      38.89700000      24.00200000      12.23400000
 O      39.66200000      31.24200000      22.42800000
 H      39.47800000      31.39500000      23.37800000
 H      38.78700000      31.09800000      22.06100000
 O      35.48200000      21.32100000      19.31400000
 H      34.84900000      20.64700000      19.50000000
 H      35.61300000      21.24400000      18.31300000
 O      40.69700000      38.99700000      30.97200000
 H      39.94600000      38.91000000      30.25000000
 H      41.42500000      38.54700000      30.42500000
 O      38.32100000      32.86800000      32.58300000
 H      37.71200000      32.11000000      32.61600000
 H      38.88300000      32.81700000      33.37600000
 O      39.40700000      27.61400000      38.15600000
 H      39.02800000      28.23900000      38.77400000
 H      40.33100000      27.93000000      38.10000000
 O      37.93700000      30.92500000      18.32200000
 H      38.65900000      31.41700000      18.63600000
 H      38.14300000      30.73600000      17.42300000
 O      34.31900000      16.78600000      33.64000000
 H      34.66300000      17.38300000      34.28300000
 H      33.38500000      16.88200000      33.71900000
 O      35.05100000      30.14500000       8.51400000
 H      34.14200000      30.48700000       8.55300000
 H      35.35600000      30.30800000       9.40200000
 O      35.78900000      14.67700000      34.02200000
 H      35.20800000      15.42700000      34.06900000
 H      35.55700000      14.25700000      33.21200000
 O      40.55900000      31.82900000       7.75100000
 H      39.81900000      32.42200000       7.76200000
 H      40.40200000      31.28100000       8.57400000
 O      34.40500000      21.25400000       7.38600000
 H      34.56400000      22.05800000       6.91600000
 H      35.26700000      21.05300000       7.77300000
 O      35.43700000      36.14300000       9.17700000
 H      35.24400000      37.09800000       9.18400000
 H      34.94100000      35.91100000      10.02200000
 O      40.05000000      21.53700000      10.06400000
 H      40.93500000      21.82000000       9.83300000
 H      40.05700000      20.59700000      10.14300000
 O      34.92400000      25.10600000      13.11200000
 H      34.25600000      25.82800000      12.85400000
 H      34.38300000      24.37500000      12.75800000
 O      39.93600000      35.23700000      24.85200000
 H      39.31300000      35.87500000      25.27100000
 H      40.41300000      34.88100000      25.63800000
 O      39.15500000      20.38000000      16.81800000
 H      39.17700000      21.35300000      16.43900000
 H      39.66900000      20.55600000      17.66600000
 O      37.44900000      22.72300000      25.28900000
 H      38.11300000      22.08500000      25.00000000
 H      37.95900000      23.27200000      25.89100000
 O      38.83000000      38.40100000      11.94000000
 H      38.91500000      38.88200000      12.76500000
 H      37.92000000      38.01300000      11.95300000
 O      34.90000000      16.48500000      30.82000000
 H      35.87200000      16.33700000      30.72800000
 H      34.86400000      16.86700000      31.69900000
 O      36.25100000      15.12800000       1.83900000
 H      35.58200000      15.48400000       2.44100000
 H      35.85500000      15.16700000       0.98800000
 O      34.21700000      40.21700000      40.39600000
 H      34.79000000      40.87700000      39.93000000
 H      34.20400000      40.57200000      41.26300000
 O      34.58100000      37.63600000      39.27800000
 H      35.36500000      37.84500000      38.70900000
 H      34.44600000      38.52300000      39.72400000
 O      38.41800000      17.91500000      17.47400000
 H      38.82000000      18.83200000      17.12700000
 H      37.52700000      18.04800000      17.09000000
 O      38.33700000      28.40400000       7.15600000
 H      39.19500000      28.80100000       6.91300000
 H      38.01500000      28.96600000       7.86200000
 O      34.61000000      29.33000000      38.63400000
 H      34.86800000      29.47600000      37.67400000
 H      34.03500000      30.12900000      38.75700000
 O      38.84500000      14.04300000      29.45500000
 H      39.55200000      13.53000000      29.09300000
 H      38.27800000      13.42800000      29.88700000
 O      38.82800000      40.09300000      26.43100000
 H      39.81600000      40.05400000      26.33700000
 H      38.71000000      40.99400000      26.06500000
 O      35.29300000      24.67000000      15.99900000
 H      35.28000000      24.80700000      15.04200000
 H      34.81100000      25.43700000      16.36500000
 O      43.49500000      20.80500000      18.73800000
 H      43.99500000      20.04600000      19.09000000
 H      42.66700000      20.73400000      19.29000000
 O      43.91600000      24.36300000      29.60000000
 H      44.12300000      25.09700000      30.26000000
 H      44.30600000      23.62500000      30.14000000
 O      46.77600000      26.41400000       9.43800000
 H      47.55800000      25.84900000       9.70700000
 H      46.25400000      25.60100000       9.09400000
 O      43.23800000      25.24100000      10.61900000
 H      42.31700000      25.32600000      10.93100000
 H      43.43100000      24.25300000      10.83300000
 O      45.96800000      15.90300000       6.17700000
 H      46.02300000      16.85500000       5.94600000
 H      46.16000000      15.97600000       7.14900000
 O      44.71300000      16.11600000       9.10200000
 H      44.05600000      15.77700000       8.45300000
 H      44.45500000      15.64400000       9.92500000
 O      44.67400000      26.51700000      24.27100000
 H      44.52500000      26.60700000      25.22400000
 H      43.91400000      25.95200000      24.06800000
 O      48.63700000      33.08900000      37.56800000
 H      48.34900000      33.06500000      36.62200000
 H      49.57800000      33.24300000      37.43900000
 O      45.52900000      19.50900000      16.79400000
 H      45.04800000      20.23900000      17.16800000
 H      45.05700000      19.49500000      15.89700000
 O      43.16800000      30.16700000       9.98700000
 H      43.97500000      30.06800000       9.46700000
 H      43.44700000      29.76900000      10.86000000
 O      46.52000000      20.88000000      10.30500000
 H      46.59000000      19.87400000      10.22800000
 H      47.08100000      20.95900000      11.17000000
 O      47.84900000      36.23800000       1.28300000
 H      47.45300000      35.54100000       0.69000000
 H      48.72600000      36.29700000       0.84400000
 O      43.38400000      28.63500000      33.33500000
 H      42.45300000      28.66000000      33.20600000
 H      43.41900000      28.93500000      34.30000000
 O      45.00200000      28.52100000      28.32200000
 H      45.86100000      28.13800000      28.14700000
 H      45.01200000      29.20900000      27.59400000
 O      43.96700000      21.12900000      36.47100000
 H      44.51300000      21.93200000      36.22900000
 H      43.35000000      21.11400000      35.73100000
 O      48.49500000      31.24600000      39.86600000
 H      47.94800000      31.39500000      40.63800000
 H      48.23200000      32.04200000      39.30800000
 O      43.66100000      14.15200000       5.52100000
 H      44.41700000      14.73300000       5.71600000
 H      43.28700000      14.73600000       4.79400000
 O      48.40400000      23.45500000       6.93300000
 H      48.08400000      23.52000000       7.85300000
 H      49.29500000      23.79700000       6.94000000
 O      46.51600000      27.25700000       6.61000000
 H      45.64500000      26.93400000       6.33600000
 H      47.06600000      26.63800000       6.15900000
 O      44.06700000      25.34200000      20.36500000
 H      43.89200000      24.35500000      20.52500000
 H      44.96400000      25.42900000      20.63400000
 O      43.65300000      18.90000000       5.45500000
 H      44.62200000      18.64200000       5.50200000
 H      43.69500000      19.66500000       4.86400000
 O      42.55300000      39.40700000      14.46900000
 H      42.32900000      38.52600000      14.07500000
 H      41.61600000      39.73700000      14.46200000
 O      45.64800000      32.95300000      15.77900000
 H      46.35000000      32.46400000      15.25200000
 H      45.57100000      32.27500000      16.47500000
 O      46.98100000      22.06700000      18.87700000
 H      47.33800000      21.34900000      18.35500000
 H      46.57400000      22.55800000      18.11300000
 O      43.73100000      15.68200000       1.18900000
 H      44.61900000      15.37000000       0.90100000
 H      43.70000000      16.61700000       0.98700000
 O      44.61700000      27.19900000      30.79400000
 H      44.34100000      27.79600000      31.49700000
 H      44.84100000      27.70900000      30.06000000
 O      48.21500000      40.48300000      36.81500000
 H      49.07900000      40.14600000      37.05200000
 H      48.07100000      40.98700000      37.62400000
 O      43.95200000      26.14500000       6.56200000
 H      43.33100000      26.46700000       7.23500000
 H      44.41300000      25.45000000       7.15800000
 O      42.55200000      38.36700000      25.68600000
 H      43.32600000      38.58900000      25.16900000
 H      42.82500000      37.48200000      25.99500000
 O      43.32700000      22.94500000      27.24800000
 H      43.16900000      22.04000000      27.67500000
 H      43.68800000      23.42100000      28.01300000
 O      44.49700000      38.07700000      29.36000000
 H      44.32500000      37.70800000      28.44900000
 H      45.49500000      38.25100000      29.20600000
 O      46.29200000      27.07600000      40.80300000
 H      45.97100000      26.55400000      39.99800000
 H      47.13100000      27.40900000      40.47200000
 O      45.73500000      14.92600000      13.79200000
 H      45.56800000      15.66600000      14.40800000
 H      44.82700000      14.91300000      13.34200000
 O      46.74400000      30.90900000      23.29300000
 H      46.55400000      31.73700000      23.80600000
 H      47.69500000      30.96200000      23.28100000
 O      48.49300000      24.73600000      14.81000000
 H      47.77600000      24.63100000      15.45200000
 H      48.13800000      24.30100000      13.99600000
 O      45.00900000      31.79800000      28.99200000
 H      45.56200000      32.55500000      29.38200000
 H      44.75900000      31.41800000      29.84700000
 O      49.13200000      40.24900000      39.64900000
 H      49.80400000      39.72200000      40.17900000
 H      48.34200000      39.93000000      40.11400000
 O      49.10900000      36.05100000       8.18600000
 H      48.47500000      36.77600000       8.01900000
 H      49.67800000      36.16600000       7.35300000
 O      47.81100000      16.42600000      36.70900000
 H      48.31800000      15.66900000      37.13600000
 H      48.49800000      17.13300000      36.82800000
 O      43.45400000      35.93300000      39.37500000
 H      42.58300000      36.02800000      38.96600000
 H      43.92700000      36.74300000      39.02600000
 O      42.65500000      17.99600000      12.42700000
 H      41.81600000      18.23600000      12.80700000
 H      42.50300000      18.36400000      11.50800000
 O      48.76200000      40.58000000      17.59500000
 H      49.46300000      40.23500000      17.03400000
 H      48.15400000      40.94800000      16.89100000
 O      46.69700000      29.53000000       4.65600000
 H      46.47900000      28.84700000       5.32100000
 H      45.86000000      30.01800000       4.53600000
 O      45.68500000      32.03400000      11.80500000
 H      45.52200000      31.11200000      11.69000000
 H      45.60400000      32.39700000      10.89500000
 O      47.14300000      29.30700000      26.46400000
 H      47.06000000      30.20200000      26.83600000
 H      48.06400000      29.37900000      26.07700000
 O      44.39300000      22.11500000      13.11600000
 H      44.57900000      21.19300000      13.02900000
 H      43.87600000      22.18600000      13.92700000
 O      47.45200000      29.36600000      19.53600000
 H      46.74300000      29.24200000      20.24500000
 H      47.26500000      30.35100000      19.36200000
 O      45.54400000      24.33700000       8.40400000
 H      44.96700000      24.00500000       9.17000000
 H      45.42100000      23.54900000       7.79300000
 O      44.82000000      24.16500000      39.09200000
 H      44.43800000      24.92500000      38.69700000
 H      44.06100000      23.65400000      39.38600000
 O      47.33200000      15.16500000      34.08100000
 H      47.70200000      15.91900000      34.60000000
 H      46.56500000      15.67700000      33.70400000
 O      46.67400000      36.06900000      31.45900000
 H      46.51000000      35.55900000      30.68200000
 H      45.79200000      36.36400000      31.72300000
 O      44.84400000      14.56200000      28.95600000
 H      44.24600000      15.28300000      29.00900000
 H      44.19500000      13.82100000      29.05400000
 O      49.13400000      26.39900000      37.51800000
 H      48.28700000      25.90300000      37.52300000
 H      49.60000000      25.91600000      38.22100000
 O      45.58100000      38.77600000      33.27900000
 H      45.09300000      39.44200000      33.79100000
 H      44.89800000      38.18800000      32.94600000
 O      43.73000000      40.12600000       9.97400000
 H      44.09000000      39.28700000      10.31900000
 H      43.54000000      40.54500000      10.80600000
 O      43.32700000      27.58900000      18.73400000
 H      42.72100000      27.30500000      18.06900000
 H      43.59800000      26.73500000      19.09100000
 O      48.55800000      25.98900000      26.57800000
 H      48.39500000      26.70500000      25.94300000
 H      49.50500000      26.07300000      26.69500000
 O      48.72100000      23.42400000      33.85400000
 H      47.74900000      23.27200000      33.61600000
 H      48.78800000      23.00400000      34.74100000
 O      47.08900000      26.45100000      23.16500000
 H      46.18200000      26.43300000      23.63700000
 H      46.90900000      27.24000000      22.59900000
 O      42.85600000      25.99500000      16.59200000
 H      42.58900000      26.28600000      15.67700000
 H      42.29600000      25.14400000      16.63400000
 O      44.20800000      23.42900000       3.06400000
 H      44.93400000      24.14200000       3.23000000
 H      43.51100000      23.84100000       3.55400000
 O      42.55600000      27.00200000       8.70800000
 H      42.07300000      27.58400000       9.28400000
 H      42.94700000      26.39300000       9.43800000
 O      45.94300000      15.14900000      39.51800000
 H      45.68600000      15.78500000      38.81200000
 H      46.15800000      14.37500000      38.99900000
 O      43.55900000      16.39100000      26.29300000
 H      44.48500000      16.13300000      26.12700000
 H      43.20900000      15.46300000      26.15300000
 O      47.68800000      17.76700000      27.52900000
 H      47.87200000      17.10600000      28.22500000
 H      46.98600000      18.29000000      27.92000000
 O      46.74100000      31.92800000       1.71900000
 H      46.42000000      32.59300000       1.09800000
 H      46.34000000      32.19700000       2.52600000
 O      46.36900000      14.06400000      18.42400000
 H      46.42500000      13.75600000      17.45900000
 H      46.05200000      13.14900000      18.77500000
 O      48.57900000      20.83100000      26.96500000
 H      48.94500000      19.95000000      27.36700000
 H      48.14600000      20.46500000      26.18500000
 O      47.01600000      19.33900000      36.37000000
 H      47.06200000      19.70000000      37.27400000
 H      46.57000000      20.06400000      35.91400000
 O      47.53800000      36.01500000      27.99500000
 H      47.91500000      35.62300000      27.21100000
 H      47.39200000      36.92300000      27.70900000
 O      43.74400000      36.04900000      13.10200000
 H      42.74700000      35.96000000      13.00000000
 H      43.94300000      35.10600000      13.26500000
 O      46.08200000      18.44800000       5.58000000
 H      46.54100000      19.22600000       5.91800000
 H      46.60900000      18.42600000       4.68200000
 O      46.21500000      18.63100000      12.75400000
 H      46.36800000      18.49600000      11.75600000
 H      46.86300000      18.00300000      13.09200000
 O      46.29600000      22.37600000      33.11600000
 H      45.91600000      22.53500000      32.25300000
 H      46.24100000      21.36800000      33.11800000
 O      46.10800000      14.38500000      26.59400000
 H      46.97600000      14.68300000      27.02800000
 H      45.60900000      14.44700000      27.45400000
 O      49.05900000      37.63200000       3.49000000
 H      48.33200000      37.52200000       4.14900000
 H      48.84100000      36.98400000       2.77700000
 O      44.02000000      39.24600000       2.11700000
 H      43.44100000      39.64900000       1.42200000
 H      43.45700000      38.65700000       2.59700000
 O      43.42000000      37.60100000      18.16200000
 H      43.10400000      36.83100000      17.62600000
 H      43.17000000      37.16900000      19.06500000
 O      48.51800000      14.32200000      20.05300000
 H      49.27500000      14.54900000      19.50600000
 H      47.76000000      14.25800000      19.42600000
 O      43.46200000      29.24700000      38.21000000
 H      44.23100000      28.78200000      38.49100000
 H      43.59800000      30.15300000      38.53100000
 O      42.79100000      13.88300000      25.97300000
 H      43.43600000      13.15900000      26.03600000
 H      41.95500000      13.45900000      26.30600000
 O      46.93400000      31.80800000      27.17200000
 H      47.72200000      31.88600000      27.74100000
 H      46.22400000      31.68900000      27.82400000
 O      45.19200000      29.60200000       8.38100000
 H      45.83400000      30.25200000       8.11500000
 H      45.60200000      28.77800000       7.91500000
 O      45.36400000      17.16300000      37.94200000
 H      45.03100000      17.70500000      37.18500000
 H      46.24700000      16.98300000      37.56700000
 O      47.30300000      38.25600000      20.61800000
 H      47.47900000      39.14700000      20.23700000
 H      46.36900000      38.39400000      20.93700000
 O      45.72900000      28.36300000      21.68000000
 H      44.88000000      28.19800000      22.08900000
 H      46.13600000      29.03000000      22.31200000
 O      46.26100000      13.51300000      11.66900000
 H      45.32600000      13.15300000      11.71100000
 H      46.26800000      14.06700000      12.49000000
 O      42.75600000      34.44400000      27.14000000
 H      42.80500000      33.47300000      27.30200000
 H      41.99800000      34.67500000      27.73300000
 O      44.41300000      28.98900000      12.53400000
 H      44.70000000      28.12800000      12.96100000
 H      43.86100000      29.31500000      13.30400000
 O      47.95600000      29.49300000      13.77000000
 H      47.74300000      30.45300000      13.94400000
 H      48.45200000      29.59000000      12.92500000
 O      45.54000000      40.36600000      39.03600000
 H      46.10300000      41.08500000      39.12600000
 H      45.57600000      39.88600000      39.93200000
 O      42.76400000      22.63900000      40.65800000
 H      41.99300000      23.24100000      40.88000000
 H      43.19700000      22.50100000      41.53400000
 O      46.48400000      34.68400000       7.20600000
 H      47.19100000      34.11100000       7.55700000
 H      45.69000000      34.25100000       7.62400000
 O      48.86800000      35.91900000      36.02000000
 H      48.92200000      35.10000000      35.44500000
 H      48.07900000      36.30600000      35.58700000
 O      47.98600000      31.00400000      31.89700000
 H      47.07800000      30.90200000      31.58400000
 H      48.41800000      30.34300000      31.31500000
 O      45.73500000      16.59400000      18.34400000
 H      45.47100000      16.60000000      17.45400000
 H      45.84200000      15.62300000      18.53200000
 O      46.68000000      19.61400000      32.16000000
 H      47.40900000      19.62700000      31.56300000
 H      47.08700000      18.96300000      32.80100000
 O      43.06100000      13.44700000      37.02800000
 H      43.57100000      12.90500000      37.64500000
 H      42.90500000      14.22600000      37.55200000
 O      43.50700000      15.42300000      11.94700000
 H      43.35800000      16.34700000      12.22900000
 H      43.04100000      14.93600000      12.62900000
 O      45.66900000      26.15600000      12.04700000
 H      45.98800000      26.70800000      11.29400000
 H      44.89600000      25.70400000      11.68900000
 O      47.20400000      35.67800000      16.00600000
 H      46.62700000      36.43200000      16.17500000
 H      46.55500000      35.01400000      15.65200000
 O      45.40700000      40.43200000      36.08300000
 H      46.35400000      40.34700000      35.80200000
 H      45.49100000      40.16900000      37.02200000
 O      48.08900000      17.39200000      19.06500000
 H      47.12700000      17.07500000      18.87100000
 H      48.24600000      16.95700000      19.90400000
 O      44.79600000      38.48600000      24.37100000
 H      45.33400000      37.70000000      24.59700000
 H      45.45400000      39.18400000      24.47600000
 O      42.64400000      26.67100000       1.33000000
 H      42.86100000      26.38900000       2.26600000
 H      43.06200000      27.58800000       1.35500000
 O      44.60800000      22.83900000      10.33800000
 H      45.15600000      22.04700000      10.08100000
 H      44.62900000      22.70600000      11.32900000
 O      46.03300000      21.79100000      21.31300000
 H      46.56900000      22.55100000      21.66400000
 H      46.23700000      21.89000000      20.38400000
 O      48.10100000      14.38700000       5.59500000
 H      48.60100000      15.00000000       4.98100000
 H      47.42300000      15.02900000       5.88700000
 O      45.99000000      27.37200000      14.32500000
 H      45.95500000      26.93000000      13.45000000
 H      46.65300000      28.09200000      14.19900000
 O      47.26800000      30.86700000       7.63000000
 H      47.73700000      31.69400000       7.90800000
 H      47.79900000      30.71100000       6.77100000
 O      46.94800000      35.60900000      20.47900000
 H      47.11000000      36.60000000      20.49900000
 H      47.59600000      35.33200000      21.16700000
 O      44.07200000      19.30100000      14.20400000
 H      44.81400000      19.06600000      13.60700000
 H      43.33400000      18.91200000      13.65600000
 O      45.35600000      39.72600000      13.58600000
 H      44.45200000      40.03300000      13.41000000
 H      45.19000000      39.19100000      14.39200000
 O      47.70200000      23.90500000      22.21300000
 H      47.80000000      24.77000000      22.53300000
 H      48.03900000      24.01700000      21.26700000
 O      45.69100000      40.11100000       8.10000000
 H      44.92800000      40.15400000       8.75900000
 H      45.94300000      41.10200000       8.11100000
 O      47.64200000      20.52500000       6.33700000
 H      47.50800000      21.33800000       6.75900000
 H      48.58700000      20.33900000       6.55500000
 O      43.27100000      20.49100000      28.58100000
 H      43.82900000      19.71400000      28.68600000
 H      42.38500000      20.12600000      28.87200000
 O      44.82700000      38.60500000      21.54800000
 H      44.30700000      37.79000000      21.43900000
 H      44.91900000      38.69900000      22.48600000
 O      46.74600000      23.75400000      12.95300000
 H      46.46100000      24.67500000      12.65800000
 H      45.86300000      23.36200000      13.01200000
 O      44.47500000      33.10700000       3.70800000
 H      43.75000000      33.30400000       3.06700000
 H      43.99500000      33.49600000       4.52900000
 O      42.90500000      16.18900000      34.88200000
 H      42.63500000      15.21600000      34.89500000
 H      42.25700000      16.50900000      35.54500000
 O      45.84900000      14.20300000      22.63100000
 H      45.08600000      14.83200000      22.67900000
 H      45.44200000      13.45000000      22.20000000
 O      48.30900000      26.32400000       4.57200000
 H      48.89300000      26.43100000       3.75500000
 H      48.85000000      26.87900000       5.23300000
 O      46.82800000      36.72500000      34.39300000
 H      46.28100000      37.52700000      34.18700000
 H      47.16100000      36.62100000      33.44300000
 O      46.90300000      31.97900000      19.50100000
 H      46.20400000      32.42700000      20.03200000
 H      47.47000000      32.80400000      19.33200000
 O      47.96000000      26.39600000      18.50700000
 H      47.15700000      26.11400000      18.00800000
 H      47.77900000      27.19800000      18.88700000
 O      43.66400000      28.95100000      15.69700000
 H      44.07300000      29.62800000      16.23800000
 H      44.01200000      28.15100000      16.15200000
 O      43.60600000      35.59000000       2.09600000
 H      43.55400000      35.79900000       1.10300000
 H      42.96600000      34.85800000       2.09400000
 O      47.69900000      17.32900000      30.33500000
 H      46.85000000      17.73900000      30.59200000
 H      47.59200000      16.44000000      30.74300000
 O      44.43700000      33.13600000       9.45400000
 H      44.05800000      33.98100000       9.75100000
 H      43.67900000      32.60700000       9.25400000
 O      43.02600000      32.85700000      15.98100000
 H      43.92100000      32.88300000      16.28400000
 H      43.16600000      32.95500000      15.03200000
 O      42.78200000      29.41300000       6.35400000
 H      42.61100000      30.14800000       6.96500000
 H      43.35000000      28.83300000       6.99400000
 O      44.18900000      40.16900000      16.87900000
 H      43.56700000      39.89700000      16.18700000
 H      44.47900000      39.30600000      17.25900000
 O      43.51600000      33.25500000      13.01100000
 H      44.28400000      32.70200000      12.74200000
 H      42.85300000      32.93000000      12.32000000
 O      48.64900000      28.50600000      30.23100000
 H      48.28100000      27.65700000      29.85100000
 H      49.25700000      28.65800000      29.41200000
 O      45.49200000      19.47400000      22.13800000
 H      45.21700000      19.08700000      21.27800000
 H      45.87200000      20.35300000      21.74600000
 O      48.60600000      24.04800000       1.62300000
 H      48.96900000      24.94400000       1.90500000
 H      48.31500000      23.72900000       2.49400000
 O      44.81800000      40.12100000       4.60000000
 H      44.51800000      39.97400000       3.65800000
 H      44.15600000      40.81800000       4.86400000
 O      44.02200000      34.78000000      23.27100000
 H      43.83600000      33.86500000      23.60600000
 H      43.15900000      35.13300000      23.12100000
 O      45.94800000      23.70000000      35.44900000
 H      45.28000000      24.37400000      35.20300000
 H      45.96900000      23.14300000      34.65800000
 O      45.54100000      27.04500000      37.97200000
 H      46.09900000      27.78000000      37.74900000
 H      45.52600000      26.53300000      37.15900000
 O      47.10400000      33.53100000       4.35000000
 H      46.19000000      33.51100000       3.92200000
 H      46.97800000      34.24500000       4.99100000
 O      46.73000000      39.43300000       1.30800000
 H      47.24200000      38.81400000       1.90800000
 H      45.89300000      39.48200000       1.81900000
 O      43.77000000      36.96100000      36.22400000
 H      43.50900000      37.85400000      35.83900000
 H      43.54500000      37.17100000      37.13800000
 O      46.42500000      33.96300000      29.47000000
 H      47.33100000      33.46000000      29.38600000
 H      46.70600000      34.73300000      28.97600000
 O      47.88400000      38.80500000      31.24200000
 H      47.10500000      39.19700000      31.59900000
 H      47.67100000      38.75200000      30.28400000
 O      47.89200000      16.68300000      14.25100000
 H      47.53200000      15.81800000      14.08700000
 H      48.57100000      16.47800000      14.94800000
 O      45.14800000      19.24300000      29.91100000
 H      44.58500000      18.63900000      30.40100000
 H      45.65300000      19.69400000      30.62500000
 O      47.99400000      34.30200000      18.32300000
 H      47.75800000      34.54300000      17.44200000
 H      47.51600000      34.96200000      18.91300000
 O      44.21800000      30.47400000       3.83500000
 H      44.54500000      31.37600000       3.99800000
 H      43.60800000      30.34800000       4.57300000
 O      48.58200000      28.22500000       8.69600000
 H      47.84900000      27.61500000       8.84400000
 H      48.11600000      29.02900000       8.36400000
 O      46.64400000      40.51000000      24.52900000
 H      47.16500000      40.71000000      23.78400000
 H      47.21100000      40.92100000      25.26700000
 O      46.65600000      26.30700000      32.48000000
 H      45.96300000      26.59300000      31.82000000
 H      47.11700000      25.62900000      31.98500000
 O      47.62000000      18.43400000       3.30700000
 H      47.91500000      19.35200000       3.38900000
 H      47.10800000      18.51400000       2.47300000
 O      44.53600000      18.46600000      20.03100000
 H      43.62200000      18.07000000      19.92500000
 H      45.07300000      17.80500000      19.63300000
 O      45.97000000      31.57000000      35.96800000
 H      45.88700000      32.47100000      35.49800000
 H      45.73200000      31.88200000      36.87800000
 O      43.08400000      28.89000000      22.18000000
 H      42.49800000      29.68700000      22.22700000
 H      42.40400000      28.20900000      21.87900000
 O      42.71700000      35.18100000       9.97300000
 H      41.81900000      35.25100000      10.36800000
 H      42.63600000      35.68800000       9.11200000
 O      45.01500000      21.31300000       4.35900000
 H      44.87500000      22.04300000       3.65600000
 H      45.90300000      21.08100000       4.13300000
 O      47.11500000      38.89400000      28.37800000
 H      46.79600000      39.85900000      28.33800000
 H      47.82900000      38.86000000      27.68400000
 O      44.25800000      36.67000000      27.09400000
 H      43.82200000      35.78500000      27.30700000
 H      44.94600000      36.39000000      26.48300000
 O      48.27600000      27.49300000      34.42700000
 H      47.65700000      27.82500000      35.07200000
 H      47.80100000      27.29100000      33.66800000
 O      44.67500000      16.66000000      15.66800000
 H      44.64900000      17.63300000      15.43700000
 H      43.73000000      16.60200000      15.90300000
 O      48.30000000      14.94400000      28.24700000
 H      48.22300000      15.16700000      29.21800000
 H      48.41000000      13.95700000      28.36000000
 O      45.26500000      16.55500000      33.39200000
 H      44.60700000      16.10500000      33.90900000
 H      44.65400000      17.08400000      32.84000000
 O      46.26700000      17.50400000      24.15100000
 H      45.59800000      17.81800000      23.45600000
 H      46.76100000      16.91700000      23.56100000
 O      43.35900000      33.80500000       6.00300000
 H      43.18200000      34.78700000       6.03200000
 H      43.00200000      33.60600000       6.88800000
 O      43.20900000      31.86100000      27.12300000
 H      43.91000000      31.74300000      27.90300000
 H      43.84800000      31.58900000      26.40700000
 O      48.75000000      31.25400000       5.31100000
 H      48.35000000      32.08500000       5.02000000
 H      47.99300000      30.63600000       4.98800000
 O      42.88900000      16.51800000      28.85100000
 H      43.11200000      16.51800000      27.85700000
 H      41.88400000      16.38100000      28.68100000
 O      46.01300000      25.66000000       3.13900000
 H      46.39100000      26.05200000       2.30500000
 H      46.79600000      25.71400000       3.72600000
 O      47.62600000      17.91300000      34.16700000
 H      47.30500000      18.42200000      34.91200000
 H      46.85400000      17.30100000      33.97200000
 O      45.10400000      31.16600000      17.79000000
 H      44.54300000      30.91200000      18.56500000
 H      45.84500000      31.49500000      18.42000000
 O      43.90200000      20.10600000      24.04600000
 H      44.43300000      19.68000000      23.30300000
 H      44.26100000      21.03300000      24.07000000
 O      42.60200000      24.25200000      36.57800000
 H      42.27300000      25.01800000      36.14500000
 H      42.19100000      24.35800000      37.51000000
 O      47.10800000      22.55700000      24.46400000
 H      47.60100000      23.03600000      23.74900000
 H      47.36300000      21.62300000      24.20000000
 O      42.59000000      18.98600000       9.95100000
 H      42.10200000      18.39800000       9.33200000
 H      43.38200000      19.25700000       9.38600000
 O      48.85200000      23.86200000      19.61900000
 H      48.39900000      24.64800000      19.27700000
 H      48.27200000      23.16300000      19.24200000
 O      45.74700000      23.17700000      16.85100000
 H      45.77800000      24.08500000      16.45200000
 H      44.89500000      22.84800000      16.45500000
 O      47.09600000      38.10000000      12.32600000
 H      46.36800000      38.43000000      12.93500000
 H      46.59000000      37.96000000      11.50300000
 O      48.12000000      20.10400000      17.36200000
 H      47.24700000      19.69900000      17.08800000
 H      48.49500000      19.31000000      17.75800000
 O      42.57500000      15.74900000       3.66100000
 H      41.78000000      16.10800000       3.04000000
 H      43.24000000      15.65500000       2.91100000
 O      44.75600000      26.03300000      34.52100000
 H      44.46100000      26.92800000      34.54400000
 H      45.50200000      26.01100000      33.85800000
 O      47.06200000      20.33600000      38.91000000
 H      46.73500000      20.94000000      39.65800000
 H      48.03900000      20.51500000      39.07900000
 O      43.04500000      36.17100000      20.44200000
 H      42.28300000      35.78100000      20.86800000
 H      43.69100000      35.45000000      20.41100000
 O      44.44500000      19.50700000       8.05700000
 H      44.47500000      19.19800000       7.14300000
 H      45.31100000      19.11300000       8.40900000
 O      44.21700000      32.25300000      37.88600000
 H      43.40700000      32.80400000      37.82800000
 H      44.67100000      32.68800000      38.61700000
 O      48.99100000      36.67100000      13.83100000
 H      48.50200000      37.50900000      13.76000000
 H      48.35800000      36.09300000      14.34400000
 O      47.61800000      32.18100000      13.68300000
 H      47.06200000      32.22000000      12.92200000
 H      48.37900000      32.83000000      13.32400000
 O      47.03700000      29.31000000      36.56200000
 H      46.49300000      30.10600000      36.32300000
 H      47.90400000      29.76800000      36.57900000
 O      47.87900000      19.80900000      24.11800000
 H      47.57500000      19.13400000      24.80900000
 H      47.41600000      19.35100000      23.38900000
 O      43.61900000      32.12900000      24.09600000
 H      44.09900000      31.28000000      24.16100000
 H      42.84900000      31.83500000      23.55700000
 O      42.62400000      36.07100000       7.07900000
 H      41.77000000      36.40100000       6.78800000
 H      43.24300000      36.74800000       6.79900000
 O      47.26800000      36.88400000       5.54900000
 H      46.85400000      36.21900000       6.15100000
 H      46.51000000      36.97200000       4.86800000
 O      44.63300000      37.58000000      10.88800000
 H      44.62300000      37.08400000      11.68600000
 H      43.95100000      37.03000000      10.38300000
 O      46.23100000      36.14200000      24.59000000
 H      46.90600000      35.43500000      24.66300000
 H      45.67900000      35.68600000      23.88900000
 O      43.64700000      26.57600000       3.96500000
 H      43.64900000      26.36700000       4.91800000
 H      44.49600000      26.08400000       3.73300000
 O      47.10900000      26.56300000      28.91900000
 H      47.40900000      25.71500000      29.44800000
 H      47.48700000      26.26300000      28.05500000
 O      48.19000000      23.63800000       4.31300000
 H      48.15000000      23.45100000       5.31300000
 H      48.15800000      24.60700000       4.37900000
 O      48.04200000      24.65600000      30.37500000
 H      49.02100000      24.75600000      30.48900000
 H      47.95100000      23.71400000      30.19600000
 O      43.15900000      30.48900000      35.79800000
 H      43.81400000      31.11700000      36.04600000
 H      43.15500000      29.87600000      36.56800000
 O      44.21200000      36.78000000      32.09100000
 H      43.35500000      36.63100000      32.53900000
 H      43.84400000      36.92000000      31.15700000
 O      44.18600000      33.62800000      32.78300000
 H      44.11300000      34.01300000      33.68800000
 H      45.05000000      34.06600000      32.53300000
 O      44.70600000      29.05200000      25.12000000
 H      45.45900000      28.76700000      25.68000000
 H      44.91400000      28.49900000      24.30000000
 O      46.39300000      13.19400000      15.95800000
 H      46.18200000      13.92800000      15.36200000
 H      46.59800000      12.47300000      15.25600000
 O      42.43800000      34.58200000      35.38100000
 H      41.90200000      34.95200000      34.64400000
 H      43.05400000      35.33800000      35.47200000
 O      44.89000000      33.98700000      20.60100000
 H      45.77300000      34.44500000      20.73900000
 H      44.58400000      34.08500000      21.52700000
 O      48.82000000      34.52200000      32.15600000
 H      49.28500000      34.58100000      31.30100000
 H      48.01200000      34.97600000      32.03400000
 O      43.65200000      18.64100000       1.02400000
 H      43.29500000      19.12800000       0.23800000
 H      44.60800000      18.84500000       0.87600000
 O      47.44300000      35.07300000      38.77800000
 H      47.60500000      35.85000000      38.32300000
 H      47.88100000      34.35600000      38.37000000
 O      45.67700000      25.97700000      16.83900000
 H      45.82900000      26.59900000      16.14100000
 H      44.67600000      25.89400000      16.82000000
 O      43.30700000      22.60600000      20.63000000
 H      43.95800000      21.97700000      20.96400000
 H      43.07000000      22.32000000      19.77500000
 O      43.17200000      20.48000000      39.02200000
 H      43.32300000      21.33700000      39.49900000
 H      43.34800000      20.74500000      38.10100000
 O      45.62200000      36.88500000       3.48200000
 H      44.81800000      36.41900000       3.12400000
 H      46.25300000      36.65800000       2.76300000
 O      47.39600000      24.34800000      37.76400000
 H      46.77900000      24.12800000      37.00600000
 H      46.63700000      24.22500000      38.49400000
 O      45.15200000      22.25700000      30.44300000
 H      45.97500000      22.49300000      30.01300000
 H      44.91800000      21.48900000      29.85000000
 O      47.61000000      22.19400000      29.44100000
 H      47.91100000      21.86100000      28.58300000
 H      47.64700000      21.27300000      29.88200000
 O      46.33600000      18.26200000      40.86600000
 H      46.53500000      18.74100000      40.06900000
 H      46.14200000      17.39100000      40.50700000
 O      45.09700000      37.27400000      15.71900000
 H      44.64200000      36.72900000      14.97600000
 H      44.36300000      37.14500000      16.36300000
 O      44.11500000      22.77800000      24.67600000
 H      43.91200000      22.85000000      25.63500000
 H      45.06700000      22.88900000      24.73300000
 O      46.45800000      22.27800000      40.71400000
 H      47.29300000      22.69300000      40.90500000
 H      45.99700000      23.05800000      40.33500000
 O      48.02600000      14.93100000      31.53100000
 H      48.03400000      15.00400000      32.53000000
 H      47.82800000      14.01600000      31.44400000
 O      45.35200000      33.77000000      39.98000000
 H      44.48000000      34.21600000      40.07400000
 H      45.90000000      34.42200000      39.51800000
 O      44.55800000      31.00100000      31.73900000
 H      44.05900000      30.55900000      32.43000000
 H      44.33700000      31.94900000      31.96100000
 O      47.69500000      16.41700000      21.99800000
 H      47.10300000      15.72800000      21.80800000
 H      48.41300000      16.01100000      22.47900000
 O      47.95500000      38.65100000       7.69600000
 H      47.02700000      39.06600000       7.92600000
 H      47.70000000      38.41400000       6.75700000
 O      45.37000000      40.67800000      19.63900000
 H      44.71600000      40.59300000      18.90600000
 H      45.01500000      39.92900000      20.18700000
 O      44.27900000      38.11500000       6.27000000
 H      44.59500000      38.50000000       5.33700000
 H      44.66600000      38.80000000       6.78900000
 O      45.83700000      34.18200000      35.25100000
 H      45.14900000      34.75700000      35.64300000
 H      46.59400000      34.81800000      35.20300000
 O      43.46600000      22.23700000      15.98900000
 H      43.35600000      21.56000000      16.75200000
 H      42.54900000      22.36000000      15.74600000
 O      42.55300000      14.67300000       7.84000000
 H      42.87300000      14.37000000       6.94900000
 H      42.87000000      13.86600000       8.37400000
 O      48.26700000      21.41300000      12.41500000
 H      48.59700000      21.19000000      13.28000000
 H      47.83300000      22.28200000      12.61000000
 O      43.98500000      25.87500000      26.77300000
 H      43.50600000      25.64800000      27.62100000
 H      44.71300000      25.19300000      26.81000000
 O      47.12600000      33.07900000      24.76700000
 H      46.78400000      32.69700000      25.66200000
 H      47.76000000      33.66800000      25.24400000
 O      46.42000000      24.34100000      26.48100000
 H      47.31400000      24.85600000      26.44500000
 H      46.69500000      23.67300000      25.75600000
 O      47.24600000      14.51300000       9.38600000
 H      47.59500000      15.33100000       9.68900000
 H      46.61200000      14.32900000      10.04200000
 O      43.49900000      38.47400000      38.54300000
 H      42.84100000      39.02800000      39.12200000
 H      44.14800000      39.17000000      38.40000000
 O      42.53800000      35.70200000      16.53900000
 H      42.60900000      34.74300000      16.49900000
 H      41.76900000      35.79400000      15.87100000
 O      43.65700000      30.44900000      19.88400000
 H      43.59000000      30.08500000      20.80900000
 H      43.59700000      29.59900000      19.33900000
 O      43.76800000      17.30300000      31.19300000
 H      43.48500000      17.03900000      30.29000000
 H      42.93600000      17.68800000      31.48400000
 O      43.50000000      15.45300000      22.05500000
 H      42.96100000      16.19000000      22.47000000
 H      43.10500000      15.49900000      21.17100000
 O      42.66900000      20.67200000       2.83100000
 H      43.57300000      20.61600000       2.51600000
 H      42.27100000      19.83400000       2.45700000
 O      48.59400000      34.90300000      22.73000000
 H      48.45800000      34.01800000      23.09800000
 H      49.54300000      34.76400000      22.44400000
 O      44.18100000      28.76700000       1.48100000
 H      44.39800000      29.13800000       2.34600000
 H      45.12800000      28.40300000       1.27600000
 O      42.55800000      22.49000000      34.58900000
 H      42.67000000      23.27100000      34.00500000
 H      42.43400000      22.99600000      35.41800000
 O      46.52400000      18.29900000       9.80200000
 H      46.04900000      17.49600000       9.64500000
 H      47.44100000      18.11600000       9.58600000
 O      44.73400000      22.23800000       7.02700000
 H      44.89000000      21.96000000       6.11400000
 H      44.82200000      21.37200000       7.50100000
