264
XYZ file of cluster: frame_13000_4d9f6.4c0b8.6747 - created by MolEdiTo
 O      26.35600000      13.49300000       9.45300000
 H      26.43000000      12.93700000       8.63600000
 H      26.97700000      14.22500000       9.18800000
 O      25.06100000      20.03800000       2.43400000
 H      25.50500000      19.81800000       1.59200000
 H      25.47200000      19.21400000       2.94800000
 O      14.90900000      27.21100000      13.24500000
 H      14.97800000      26.81200000      14.09500000
 H      14.28300000      26.60900000      12.80300000
 O      18.53100000      19.52800000       1.65500000
 H      19.46400000      19.57500000       1.38500000
 H      18.24900000      20.48600000       1.65900000
 O      20.61300000      16.05300000       6.67300000
 H      21.39200000      16.17100000       6.07500000
 H      20.17900000      15.35000000       6.20900000
 O      22.85100000      19.80100000      11.88500000
 H      23.39800000      20.46000000      11.52200000
 H      22.33900000      20.32300000      12.55300000
 O      20.87300000      22.96000000       3.87300000
 H      21.68200000      22.43700000       3.60300000
 H      21.25600000      23.85200000       3.86400000
 O      19.68400000      19.03500000       5.63600000
 H      19.74100000      19.97200000       5.95600000
 H      20.53800000      18.83300000       5.28200000
 O      17.67900000      17.73000000       3.84900000
 H      18.04000000      17.98800000       2.98100000
 H      18.47300000      17.97000000       4.40700000
 O      23.58800000      14.18000000      10.29700000
 H      24.38200000      14.14700000       9.72600000
 H      23.08200000      14.81000000       9.75000000
 O      25.12900000      23.03000000       7.84600000
 H      24.85400000      22.77200000       6.92900000
 H      26.10000000      22.79200000       7.84100000
 O      20.37400000      13.19100000       9.61600000
 H      20.79500000      12.98100000      10.42300000
 H      19.79900000      13.93200000       9.82900000
 O      22.53700000      26.74700000      13.68300000
 H      23.08000000      25.95500000      13.36200000
 H      21.88100000      26.76700000      12.96100000
 O      26.10300000      17.77200000       3.68900000
 H      27.05800000      17.97600000       3.69200000
 H      26.15700000      16.84600000       3.27100000
 O      24.00900000      20.44500000       5.13900000
 H      24.80200000      20.48400000       5.72700000
 H      24.43000000      20.62200000       4.28400000
 O      27.18900000      22.24800000      10.92200000
 H      27.79900000      22.15500000      11.73300000
 H      26.69400000      21.42200000      11.10100000
 O      15.37300000      27.43200000       6.70900000
 H      14.81500000      27.21200000       7.51500000
 H      16.23500000      27.59400000       7.13700000
 O      17.69900000      23.79700000       4.52500000
 H      18.51500000      24.04200000       5.04600000
 H      17.25200000      24.65400000       4.62300000
 O      16.43300000      16.97300000       9.24100000
 H      16.98300000      17.07400000       8.44900000
 H      15.95700000      17.79700000       9.33500000
 O      18.77800000      17.60800000       7.65000000
 H      19.54000000      17.02500000       7.42500000
 H      18.92000000      18.29600000       6.90600000
 O      22.35800000      21.39600000       2.07500000
 H      23.29200000      21.16500000       1.80000000
 H      21.97900000      21.83000000       1.33600000
 O      21.79400000      18.76600000       2.36200000
 H      21.73300000      19.71300000       2.11200000
 H      22.55100000      18.43300000       1.86100000
 O      26.42100000      19.45800000      11.41600000
 H      27.22300000      19.31700000      11.93200000
 H      25.87800000      18.65600000      11.62300000
 O      26.20600000      20.14900000       6.71100000
 H      26.30500000      19.16800000       6.53700000
 H      25.65500000      20.09300000       7.52600000
 O      15.73600000      25.85700000       4.40100000
 H      15.37600000      26.39100000       5.13800000
 H      16.11500000      26.59400000       3.84100000
 O      19.04300000      15.46000000      10.18500000
 H      18.71700000      15.13300000      11.07500000
 H      18.25000000      15.92500000       9.93300000
 O      24.31500000      26.80600000       9.44300000
 H      24.49400000      27.01400000      10.39900000
 H      24.54000000      25.86900000       9.30100000
 O      14.19200000      26.25800000       9.00800000
 H      15.01000000      26.52100000       9.52900000
 H      13.61800000      25.90800000       9.67700000
 O      20.42100000      18.36200000      11.19300000
 H      21.25900000      18.69000000      11.53000000
 H      20.65900000      17.70500000      10.53800000
 O      22.25500000      25.58000000       6.61500000
 H      21.52200000      25.08800000       6.23400000
 H      21.85600000      26.02000000       7.37500000
 O      28.04900000      27.08300000      12.92700000
 H      27.40200000      26.64100000      12.39600000
 H      27.43900000      27.70600000      13.39900000
 O      24.36500000      16.42600000       6.38300000
 H      23.92600000      16.92700000       5.67500000
 H      25.30700000      16.67400000       6.21300000
 O      14.92600000      23.06100000      11.00100000
 H      14.26400000      22.33900000      10.88800000
 H      15.41300000      22.98400000      10.20300000
 O      23.59300000      23.29400000      10.06500000
 H      24.18600000      23.16200000       9.31200000
 H      22.86900000      22.65100000       9.87200000
 O      23.90200000      17.03600000       9.24400000
 H      24.13700000      16.74300000       8.33500000
 H      22.96000000      16.85900000       9.25600000
 O      26.55900000      25.43700000      11.58600000
 H      26.33600000      24.50700000      11.30300000
 H      25.87000000      25.55500000      12.25700000
 O      22.27400000      25.02800000       2.26300000
 H      21.65900000      25.73800000       1.97900000
 H      22.16900000      24.42100000       1.48200000
 O      19.81700000      27.36100000      13.73700000
 H      19.65800000      28.33400000      13.93100000
 H      19.36900000      27.00000000      14.51400000
 O      19.69900000      26.33400000       4.97400000
 H      19.06100000      26.93200000       4.50700000
 H      20.26000000      27.00800000       5.37200000
 O      19.34800000      25.58300000       9.63300000
 H      19.54900000      25.22500000      10.55100000
 H      19.99400000      26.29300000       9.64600000
 O      15.15600000      22.63200000       5.61300000
 H      15.69800000      21.93800000       6.04800000
 H      15.93900000      23.05000000       5.10000000
 O      24.22700000      13.82600000       5.34800000
 H      25.22300000      13.68300000       5.22200000
 H      24.25500000      14.62300000       5.94100000
 O      18.20800000      14.86200000      13.14500000
 H      18.28500000      15.52800000      13.88300000
 H      17.23500000      14.56100000      13.34300000
 O      18.13800000      18.09200000      12.77600000
 H      18.01100000      19.05000000      12.73900000
 H      18.96000000      17.90700000      12.25600000
 O      21.35900000      21.64800000      13.64200000
 H      20.99800000      22.55500000      13.61500000
 H      20.75000000      21.30500000      14.36300000
 O      13.44300000      24.28400000       7.40500000
 H      13.88200000      24.96800000       7.96300000
 H      14.11200000      23.89000000       6.89100000
 O      22.18800000      18.53500000       4.94400000
 H      22.10500000      18.68900000       3.98400000
 H      22.80300000      19.26800000       5.23500000
 O      14.22700000      15.46700000       4.86900000
 H      13.22100000      15.57600000       4.76200000
 H      14.22200000      14.58200000       5.30600000
 O      15.07800000      17.40400000      12.09400000
 H      15.14800000      17.76400000      11.13200000
 H      16.00400000      17.31800000      12.29600000
 O      15.28300000      17.86900000       5.43800000
 H      16.03800000      17.76500000       4.79900000
 H      14.89000000      17.01400000       5.40300000
 O      26.85900000      22.17100000       2.33600000
 H      26.21300000      22.84300000       2.73000000
 H      26.14700000      21.52900000       1.96200000
 O      19.99200000      23.71400000       7.76400000
 H      19.64600000      24.47000000       8.29800000
 H      20.40700000      23.16600000       8.45800000
 O      24.78200000      17.38300000      11.86200000
 H      24.16900000      16.87700000      12.41400000
 H      24.44600000      17.22200000      10.94400000
 O      26.45300000      15.05400000      11.93200000
 H      25.95400000      15.88300000      11.81200000
 H      25.78900000      14.37800000      11.69500000
 O      14.62800000      14.69700000       9.58700000
 H      14.89000000      15.60200000       9.43100000
 H      15.50900000      14.29400000       9.86000000
 O      17.96300000      27.38800000       8.21900000
 H      18.13300000      26.49100000       8.53900000
 H      18.20600000      27.85300000       9.08600000
 O      20.99600000      22.16800000      10.02200000
 H      20.20000000      21.63000000       9.88400000
 H      20.82500000      22.62100000      10.80700000
 O      22.15000000      14.03400000      12.46200000
 H      22.72700000      14.02800000      11.68000000
 H      22.37500000      14.93300000      12.83900000
 O      21.29900000      16.21900000       9.42400000
 H      21.05100000      16.48100000       8.48000000
 H      20.40500000      15.84500000       9.66200000
 O      19.24800000      19.82600000       9.38300000
 H      18.96100000      19.13500000       8.80400000
 H      19.71900000      19.30500000      10.10900000
 O      23.84600000      27.36400000       3.11600000
 H      23.41100000      27.55500000       4.01300000
 H      23.50600000      26.51500000       2.98600000
 O      18.72500000      22.41600000       2.27600000
 H      19.59000000      22.65600000       2.56300000
 H      18.09600000      22.63800000       2.96900000
 O      27.85400000      25.82900000       2.73700000
 H      27.27800000      25.08500000       2.99100000
 H      27.15700000      26.54800000       2.75800000
 O      21.28500000      13.73200000       1.99100000
 H      20.87900000      14.60800000       2.23600000
 H      21.64200000      13.90500000       1.10400000
 O      21.71700000      27.18900000       8.94500000
 H      22.60900000      26.93300000       9.23700000
 H      21.59800000      28.00700000       9.38900000
 O      20.28300000      26.76700000       1.89800000
 H      20.02900000      27.64900000       1.57000000
 H      20.16400000      26.87400000       2.86500000
 O      16.44700000      20.40900000       6.55600000
 H      16.05400000      19.59400000       6.20700000
 H      17.35700000      20.42100000       6.23000000
 O      19.86900000      24.89100000      12.31300000
 H      19.81900000      25.56600000      13.00800000
 H      18.92700000      24.52800000      12.42400000
 O      19.40100000      21.66500000       5.95600000
 H      19.26600000      22.60000000       6.31300000
 H      19.95300000      21.95500000       5.14100000
 O      25.20000000      24.44300000       2.71900000
 H      24.94300000      24.43400000       3.63900000
 H      24.31900000      24.70200000       2.29700000
 O      16.84100000      21.20500000       9.11300000
 H      17.78700000      20.96100000       9.28300000
 H      16.84900000      21.26200000       8.14100000
 O      17.81200000      14.76300000       3.30000000
 H      18.19600000      14.56800000       4.18700000
 H      17.97200000      15.72700000       3.26100000
 O      15.35900000      13.80400000      13.79500000
 H      14.65600000      14.07300000      14.39600000
 H      14.84600000      13.00300000      13.35400000
 O      23.34700000      16.12400000      13.75400000
 H      22.94400000      16.67400000      14.41500000
 H      24.17900000      15.80100000      14.13700000
 O      16.86300000      24.24000000      12.74400000
 H      16.27600000      24.29700000      13.51700000
 H      16.17300000      23.89700000      12.09100000
 O      14.83100000      15.02200000       2.15900000
 H      14.54500000      15.28600000       3.08000000
 H      15.75900000      14.85000000       2.29400000
 O      24.81100000      19.28200000      13.94900000
 H      25.11400000      18.39500000      13.84300000
 H      24.37200000      19.33700000      13.03400000
 O      15.01100000      19.15300000       9.89200000
 H      15.59400000      19.90300000       9.56600000
 H      14.20300000      19.75600000      10.11000000
 O      16.07500000      20.50100000      12.45400000
 H      15.43100000      19.77200000      12.34000000
 H      15.61900000      21.25300000      12.06100000
 O      15.97700000      27.28000000      10.71800000
 H      15.72500000      27.00000000      11.60100000
 H      16.88200000      27.68200000      10.96100000
 O      26.26700000      15.44900000       1.89700000
 H      27.04100000      15.40500000       1.28700000
 H      26.29600000      14.53800000       2.28200000
 O      27.85400000      22.38600000       8.21500000
 H      27.65000000      22.53000000       9.17000000
 H      28.21700000      21.44400000       8.25300000
 O      14.12000000      25.03400000       2.34300000
 H      14.57000000      24.66600000       3.14400000
 H      13.78400000      25.87200000       2.71200000
 O      24.87600000      19.78300000       8.99100000
 H      25.57200000      19.87600000       9.64800000
 H      24.33700000      19.07900000       9.30100000
 O      24.52100000      24.84600000       5.48100000
 H      23.72800000      25.24700000       5.91900000
 H      25.16800000      25.06800000       6.17500000
 O      27.08700000      16.96100000       6.64300000
 H      27.43400000      16.51100000       7.40000000
 H      27.82100000      16.83200000       5.97500000
 O      23.94300000      24.62400000      12.47800000
 H      23.83700000      24.11700000      11.62500000
 H      24.01900000      23.86000000      13.10500000
 O      20.65700000      16.34800000       2.51100000
 H      21.13600000      17.23500000       2.45100000
 H      20.63100000      16.16100000       3.44500000
