319
XYZ file of cluster: frame_13000_69a55.6e972.21ffd - created by MolEdiTo
 O      32.66200000      31.37400000       8.97900000
 H      31.67500000      31.28100000       9.02200000
 H      32.66900000      32.29700000       8.57600000
 O      33.57700000      29.80400000      16.38600000
 H      34.12900000      29.14900000      16.84400000
 H      32.99800000      30.04800000      17.17700000
 O      21.41300000      31.26700000      17.01200000
 H      21.40600000      30.27300000      16.78900000
 H      20.86200000      31.61100000      16.29900000
 O      26.36700000      30.33400000      12.80900000
 H      26.00900000      31.22000000      12.66200000
 H      26.95300000      30.48300000      13.58900000
 O      32.05700000      23.93900000      16.70700000
 H      32.66800000      23.84600000      17.48100000
 H      32.37000000      23.25900000      16.07800000
 O      29.77600000      32.05800000      19.89400000
 H      29.64700000      32.66300000      19.16500000
 H      30.64600000      32.27600000      20.21200000
 O      25.12900000      23.03000000       7.84600000
 H      24.85400000      22.77200000       6.92900000
 H      26.10000000      22.79200000       7.84100000
 O      22.53700000      26.74700000      13.68300000
 H      23.08000000      25.95500000      13.36200000
 H      21.88100000      26.76700000      12.96100000
 O      33.99500000      31.25400000      19.64400000
 H      34.58500000      31.78300000      19.03900000
 H      34.38300000      30.39400000      19.56100000
 O      32.72400000      21.02700000       9.33900000
 H      33.26200000      21.27400000       8.55400000
 H      32.91300000      20.11500000       9.44200000
 O      31.36500000      26.65100000      16.00200000
 H      31.09100000      26.84600000      16.91200000
 H      31.58800000      25.73200000      16.05000000
 O      27.18900000      22.24800000      10.92200000
 H      27.79900000      22.15500000      11.73300000
 H      26.69400000      21.42200000      11.10100000
 O      29.23400000      25.33400000       9.78700000
 H      30.04300000      25.36900000      10.36300000
 H      28.51800000      25.59600000      10.31700000
 O      23.90700000      30.92700000      18.13900000
 H      23.96300000      30.27600000      17.36900000
 H      23.14600000      31.42100000      17.79900000
 O      21.54400000      28.71800000      19.80600000
 H      20.54400000      28.84100000      19.80300000
 H      21.62300000      28.14500000      18.97500000
 O      29.82800000      23.49500000      18.22900000
 H      30.42900000      23.83300000      17.50800000
 H      30.29700000      23.76900000      19.04400000
 O      24.31500000      26.80600000       9.44300000
 H      24.49400000      27.01400000      10.39900000
 H      24.54000000      25.86900000       9.30100000
 O      32.16100000      33.08300000      20.66100000
 H      32.72800000      33.27800000      21.41600000
 H      32.72800000      32.42700000      20.18800000
 O      24.81900000      27.96500000      12.06200000
 H      25.48300000      28.65300000      12.35500000
 H      24.34800000      27.78900000      12.89700000
 O      29.45900000      34.53100000      17.72200000
 H      29.61200000      35.06000000      16.92900000
 H      28.86800000      33.84700000      17.28800000
 O      25.80600000      25.95500000      15.39200000
 H      25.02000000      25.64300000      15.92400000
 H      26.27900000      25.11700000      15.32100000
 O      29.55900000      31.27600000      11.85400000
 H      29.77500000      30.34400000      11.57200000
 H      29.08600000      31.60800000      11.19400000
 O      22.25500000      25.58000000       6.61500000
 H      21.52200000      25.08800000       6.23400000
 H      21.85600000      26.02000000       7.37500000
 O      20.83200000      34.25300000       9.04300000
 H      20.11500000      34.92000000       8.98100000
 H      21.33600000      34.34100000       8.31500000
 O      28.29300000      34.25700000      11.25000000
 H      27.62800000      34.78800000      10.76300000
 H      27.71900000      33.65300000      11.75300000
 O      34.68200000      23.15900000       9.67200000
 H      34.06600000      23.61600000       9.07600000
 H      34.14200000      22.53100000      10.11100000
 O      23.61600000      33.70700000      11.71300000
 H      23.57400000      34.21800000      10.84700000
 H      22.82300000      33.14000000      11.69700000
 O      28.04900000      27.08300000      12.92700000
 H      27.40200000      26.64100000      12.39600000
 H      27.43900000      27.70600000      13.39900000
 O      20.78300000      32.91100000      11.43600000
 H      20.87500000      33.11700000      10.47100000
 H      19.85400000      33.27000000      11.57900000
 O      30.39000000      28.23600000      11.96500000
 H      30.77800000      28.63800000      12.79100000
 H      29.66900000      27.71200000      12.34600000
 O      23.59300000      23.29400000      10.06500000
 H      24.18600000      23.16200000       9.31200000
 H      22.86900000      22.65100000       9.87200000
 C      22.40400000      21.51900000      19.98000000
 C      21.50500000      20.56400000      20.80500000
 C      19.18800000      20.15800000      21.65400000
 H      19.88500000      22.00000000      21.03100000
 H      23.51000000      22.27500000      20.69400000
 O      19.40300000      20.90500000      19.32200000
 O      23.76000000      21.43100000      20.50700000
 O      22.57900000      22.74700000      20.55200000
 C      19.99400000      21.00400000      20.66900000
 O      21.58500000      19.19600000      20.42500000
 H      21.70200000      20.67400000      21.87200000
 O      19.60800000      20.26000000      23.01100000
 O      17.99400000      20.76400000      22.04000000
 H      18.34000000      20.88000000      22.87200000
 H      22.45000000      18.81400000      20.62100000
 H      19.67900000      21.54300000      18.63000000
 O      26.55900000      25.43700000      11.58600000
 H      26.33600000      24.50700000      11.30300000
 H      25.87000000      25.55500000      12.25700000
 O      24.50400000      30.45100000       6.48700000
 H      25.26600000      30.77900000       6.01900000
 H      24.90300000      29.74100000       7.01200000
 O      20.66300000      32.34100000      14.10600000
 H      20.59800000      32.88000000      13.25900000
 H      21.57200000      31.96300000      13.95000000
 O      33.52800000      23.34400000      18.96100000
 H      34.28000000      23.92600000      19.10300000
 H      34.00100000      22.46900000      19.04700000
 O      23.01000000      29.96200000      10.60700000
 H      23.70800000      29.29100000      10.80900000
 H      22.86800000      30.31100000      11.49500000
 O      32.13800000      21.71100000      14.52900000
 H      32.47600000      21.12800000      13.80700000
 H      31.62000000      20.96200000      15.03000000
 O      26.12000000      33.18400000      12.54300000
 H      25.17800000      33.51400000      12.38300000
 H      25.98300000      33.04800000      13.53800000
 O      33.35300000      29.95600000      11.40300000
 H      33.07300000      29.92200000      10.47500000
 H      33.11200000      30.86800000      11.65400000
 O      21.35900000      21.64800000      13.64200000
 H      20.99800000      22.55500000      13.61500000
 H      20.75000000      21.30500000      14.36300000
 O      28.21800000      30.28700000      15.34300000
 H      27.69400000      30.44600000      16.11400000
 H      28.87800000      31.00300000      15.36500000
 O      27.15900000      26.98300000      20.09400000
 H      27.57700000      26.76200000      19.21300000
 H      26.42800000      27.55400000      19.82000000
 O      27.11400000      31.51600000       9.66200000
 H      26.34000000      32.03100000      10.06200000
 H      26.65000000      30.85600000       9.08800000
 O      28.61500000      22.34000000      13.30300000
 H      28.74200000      22.21100000      14.28100000
 H      28.91100000      23.24500000      13.23700000
 O      32.64500000      33.91100000       7.95100000
 H      31.90600000      33.90100000       7.26500000
 H      32.42900000      34.74300000       8.41000000
 O      30.12100000      24.46100000       7.56000000
 H      29.41800000      23.91100000       7.22000000
 H      29.77300000      24.64200000       8.46300000
 O      20.55900000      22.76000000      17.51600000
 H      20.45600000      21.98800000      16.94300000
 H      21.02600000      23.40400000      16.91400000
 O      23.77000000      22.74800000      14.21800000
 H      24.25900000      22.13400000      14.85300000
 H      22.97500000      22.15300000      14.08900000
 O      22.90600000      30.71500000      13.49200000
 H      22.47700000      29.86800000      13.79300000
 H      23.59700000      30.84100000      14.13200000
 O      21.49000000      32.16800000      19.53800000
 H      21.28400000      32.03000000      18.57000000
 H      21.39600000      31.24600000      19.84000000
 O      30.56200000      26.29100000      18.68400000
 H      30.18700000      27.02400000      19.25500000
 H      31.29400000      25.99200000      19.24400000
 O      32.91600000      24.31600000       7.89500000
 H      31.94000000      24.14000000       7.82800000
 H      32.95500000      25.20300000       8.17800000
 O      24.11500000      34.32900000       9.00900000
 H      23.96700000      33.31300000       9.00700000
 H      23.54100000      34.61800000       8.31400000
 O      22.74600000      34.29600000      20.78100000
 H      22.49200000      33.58800000      20.17100000
 H      21.84700000      34.59200000      21.07800000
 O      30.25600000      20.44500000      10.15100000
 H      31.12300000      20.89500000       9.94200000
 H      29.97100000      20.25900000       9.20500000
 O      31.85400000      28.64300000      14.07600000
 H      32.33900000      29.24000000      14.70300000
 H      31.69900000      27.89800000      14.67500000
 O      25.86000000      32.62600000      15.36400000
 H      25.07900000      32.87900000      15.91400000
 H      26.57900000      32.87100000      15.98900000
 O      30.82700000      30.50500000      17.83300000
 H      30.06600000      30.13700000      17.34300000
 H      30.50800000      30.75800000      18.65700000
 O      25.18200000      29.41400000      19.91100000
 H      24.86700000      29.17700000      20.78100000
 H      24.47100000      29.77400000      19.43800000
 O      29.69000000      32.67800000      14.09200000
 H      29.12300000      33.45900000      13.99800000
 H      29.37700000      32.17800000      13.25000000
 O      20.99600000      22.16800000      10.02200000
 H      20.20000000      21.63000000       9.88400000
 H      20.82500000      22.62100000      10.80700000
 O      35.11800000      21.91600000      13.34000000
 H      34.29200000      22.26900000      12.93200000
 H      35.01700000      20.93500000      13.17600000
 O      21.71700000      27.18900000       8.94500000
 H      22.60900000      26.93300000       9.23700000
 H      21.59800000      28.00700000       9.38900000
 O      32.78600000      23.47600000      12.63500000
 H      32.04300000      23.73500000      12.05800000
 H      32.34000000      23.17400000      13.44700000
 O      32.79300000      27.51000000      20.59400000
 H      33.78200000      27.61900000      20.44200000
 H      32.75600000      27.93300000      21.50200000
 O      29.85500000      32.12500000       9.00800000
 H      29.62200000      33.02200000       9.14600000
 H      29.00900000      31.63700000       9.17800000
 O      33.76900000      32.53900000      13.94300000
 H      33.18000000      32.33500000      14.67300000
 H      33.12200000      32.81100000      13.22800000
 O      25.96900000      32.06600000      20.79300000
 H      26.30400000      32.11500000      21.66200000
 H      26.16000000      31.08700000      20.59300000
 O      27.55900000      27.02000000      17.22400000
 H      26.90100000      26.61200000      16.73700000
 H      28.39500000      26.50500000      17.14900000
 O      23.16900000      26.71400000      20.64400000
 H      22.55200000      27.46100000      20.40900000
 H      23.81500000      27.31100000      21.18300000
 O      25.53700000      23.42500000      17.53000000
 H      25.50100000      22.57400000      17.01000000
 H      26.22700000      23.24900000      18.17600000
 O      33.85800000      26.79200000       8.23100000
 H      34.76300000      26.60800000       7.79400000
 H      34.16600000      27.46200000       8.89300000
 O      25.64200000      21.07500000      15.92600000
 H      26.58600000      20.97100000      15.74300000
 H      25.30700000      20.37600000      15.30000000
 O      33.63100000      27.25800000      12.62500000
 H      33.04200000      27.53900000      13.40900000
 H      33.64600000      28.12200000      12.11600000
 O      25.91800000      24.34800000      20.77700000
 H      26.52100000      23.71400000      20.28600000
 H      26.49700000      25.11900000      20.82500000
 O      35.42100000      34.35600000       7.30500000
 H      35.37800000      35.09800000       7.96900000
 H      34.49500000      34.08300000       7.36500000
 O      28.50500000      27.35600000       7.66700000
 H      29.14700000      27.30800000       6.90800000
 H      28.93200000      26.72100000       8.28100000
 O      23.83300000      25.35800000      18.24400000
 H      23.59400000      25.33100000      19.17100000
 H      24.27400000      24.44800000      18.09000000
 O      31.09500000      23.70600000      20.62800000
 H      31.88200000      23.36600000      20.20900000
 H      31.45900000      24.17700000      21.43300000
 O      27.10400000      30.04500000      17.93200000
 H      26.29500000      29.83400000      18.36600000
 H      27.29600000      29.17200000      17.52700000
 O      29.93200000      24.98400000      13.70200000
 H      30.53000000      25.49700000      14.28300000
 H      29.24700000      25.63500000      13.41300000
 O      29.59900000      20.89800000      20.79800000
 H      29.24500000      21.08600000      21.70900000
 H      29.85700000      21.77000000      20.45500000
 O      33.43800000      34.62100000      16.87700000
 H      32.78000000      34.06600000      16.46700000
 H      33.98300000      34.08500000      17.34900000
 O      31.73900000      32.63100000      15.95900000
 H      31.43000000      31.92700000      16.55000000
 H      30.91300000      32.72200000      15.37300000
 O      30.44600000      33.18200000       6.51000000
 H      29.95500000      32.75600000       5.81500000
 H      30.14200000      32.84100000       7.32900000
 O      22.13500000      24.49500000      16.26000000
 H      22.77400000      25.02900000      16.77900000
 H      22.74800000      24.08100000      15.64300000
 O      27.85400000      22.38600000       8.21500000
 H      27.65000000      22.53000000       9.17000000
 H      28.21700000      21.44400000       8.25300000
 O      27.67800000      22.82200000      19.22100000
 H      27.87500000      22.04700000      19.76400000
 H      28.55400000      22.97600000      18.80200000
 O      24.94700000      33.39300000      18.47300000
 H      24.75100000      32.62800000      18.01600000
 H      25.04400000      33.06200000      19.40100000
 O      35.05100000      30.14500000       8.51400000
 H      34.14200000      30.48700000       8.55300000
 H      35.35600000      30.30800000       9.40200000
 O      24.24600000      28.69200000      15.85400000
 H      23.75300000      27.89000000      16.07500000
 H      25.06700000      28.30600000      15.49400000
 O      34.40500000      21.25400000       7.38600000
 H      34.56400000      22.05800000       6.91600000
 H      35.26700000      21.05300000       7.77300000
 O      31.65900000      25.92100000      11.08000000
 H      32.28900000      25.86500000      11.76100000
 H      31.33200000      26.79500000      11.13600000
 O      34.92400000      25.10600000      13.11200000
 H      34.25600000      25.82800000      12.85400000
 H      34.38300000      24.37500000      12.75800000
 O      31.96700000      32.72500000      12.05700000
 H      31.53500000      33.55400000      11.77200000
 H      31.11600000      32.19400000      12.32100000
 O      27.35800000      32.66300000      17.64100000
 H      26.73000000      33.02700000      18.30000000
 H      27.22500000      31.70300000      17.91400000
 O      21.42900000      27.80500000      16.56300000
 H      21.16600000      27.46200000      15.68200000
 H      21.02600000      27.17700000      17.18500000
 O      23.97000000      31.73300000       8.90300000
 H      24.06000000      31.20100000       8.12400000
 H      23.63000000      31.07500000       9.53300000
 O      23.94300000      24.62400000      12.47800000
 H      23.83700000      24.11700000      11.62500000
 H      24.01900000      23.86000000      13.10500000
 O      23.39000000      33.43200000      15.90500000
 H      22.79500000      33.91300000      16.54400000
 H      23.51600000      34.08900000      15.21700000
 O      25.98300000      28.57800000       8.22500000
 H      25.59100000      28.00900000       8.88500000
 H      26.89700000      28.25500000       8.17300000
