939
XYZ file of cluster: frame_13000_75937.24431.c6323 - created by MolEdiTo
 O      33.83600000      18.63400000      36.04400000
 H      33.70400000      18.77500000      36.97000000
 H      34.37800000      19.50800000      35.87600000
 O      22.48600000      28.12800000      36.21000000
 H      23.26900000      28.75100000      36.13700000
 H      21.91100000      28.51400000      35.54700000
 O      30.55700000       7.74300000      38.16700000
 H      31.32300000       8.34500000      38.02500000
 H      30.87400000       7.20800000      38.95300000
 O      40.49100000      38.81000000      34.84100000
 H      40.50800000      39.53200000      34.17400000
 H      39.94500000      39.15900000      35.54500000
 O      31.62700000       6.80400000      40.40100000
 H      31.55200000       7.12400000      41.29500000
 H      32.40800000       6.16900000      40.53100000
 O      23.51100000       7.83800000      40.16300000
 H      23.15700000       8.40200000      40.89400000
 H      23.89600000       8.54400000      39.58400000
 O      32.58100000      37.04900000      37.51400000
 H      32.48800000      37.91900000      37.15700000
 H      33.03200000      37.16800000      38.36100000
 O      33.98300000      22.09300000      36.04400000
 H      34.66600000      22.81100000      35.90900000
 H      33.96600000      22.06600000      37.04800000
 O      37.48700000      17.77400000      40.40500000
 H      36.86100000      17.43000000      39.74000000
 H      37.78400000      18.56400000      40.02600000
 O      29.13400000      37.92500000      35.39900000
 H      29.79500000      37.30400000      34.99900000
 H      29.41100000      37.83600000      36.33600000
 O      24.87900000      32.98500000      35.90200000
 H      25.77200000      32.59700000      36.06600000
 H      24.87600000      33.74300000      36.45800000
 O      37.55400000      16.87300000      34.46800000
 H      38.31500000      16.85100000      35.09200000
 H      37.22000000      15.95300000      34.50000000
 O      30.83900000      20.46800000      39.42800000
 H      31.17100000      20.79700000      40.30400000
 H      31.50100000      19.78200000      39.24700000
 O      28.08500000      18.16800000      39.58600000
 H      28.62000000      18.19600000      38.73000000
 H      28.52200000      18.85900000      40.09000000
 O      30.03700000      13.07500000      36.17100000
 H      30.27300000      12.54900000      36.99600000
 H      30.95200000      13.38300000      35.93300000
 O      40.30300000      39.88500000      40.12400000
 H      39.58400000      39.22200000      40.28200000
 H      39.88500000      40.37100000      39.35400000
 O      29.95100000      37.20600000      37.85900000
 H      30.93300000      37.27900000      37.94300000
 H      29.76300000      37.66000000      38.69300000
 O      32.94300000      30.46000000      34.57600000
 H      32.14000000      29.95600000      34.94200000
 H      33.65400000      30.16700000      35.22200000
 O      38.38300000       8.94700000      35.40700000
 H      38.55900000       9.75800000      34.87700000
 H      38.93600000       9.19700000      36.22000000
 O      24.24500000      13.35900000      38.38000000
 H      23.97000000      13.74500000      37.51800000
 H      23.62100000      13.80200000      39.00500000
 O      38.27100000      21.16000000      36.79900000
 H      38.40200000      21.02600000      35.81400000
 H      37.84400000      22.05000000      36.80800000
 O      24.20200000      30.43700000      35.79000000
 H      24.39400000      31.35400000      36.01000000
 H      24.80700000      30.29000000      35.06600000
 O      30.61600000      29.45400000      35.32800000
 H      30.28500000      29.27100000      36.18700000
 H      29.94300000      30.13100000      34.99000000
 O      31.60000000      16.38100000      38.56900000
 H      31.27200000      16.72400000      39.39400000
 H      31.09100000      16.92500000      37.92000000
 O      27.96600000      20.82400000      35.06400000
 H      28.54400000      20.95200000      35.84100000
 H      28.65700000      20.95000000      34.35500000
 O      40.44300000      33.60500000      37.87400000
 H      40.05900000      34.31200000      38.40300000
 H      40.45100000      34.06300000      36.95500000
 O      23.20800000      25.66400000      35.37900000
 H      22.87100000      26.40900000      35.86100000
 H      22.38400000      25.14300000      35.29700000
 O      35.86200000      16.44600000      37.01300000
 H      35.61500000      17.27600000      36.68900000
 H      36.77800000      16.30700000      36.66400000
 O      25.12800000      25.08200000      37.23000000
 H      25.06000000      24.11100000      37.45100000
 H      24.37200000      25.22000000      36.69400000
 O      40.34500000      13.32700000      34.54800000
 H      39.47600000      13.63000000      34.86300000
 H      40.80900000      13.35300000      35.50000000
 O      39.19200000      17.13000000      36.76800000
 H      39.59900000      16.81200000      37.59400000
 H      38.90900000      18.02800000      37.12700000
 O      29.46700000      28.80500000      38.24200000
 H      28.94800000      27.97800000      38.34100000
 H      28.93100000      29.42200000      38.72700000
 O      34.88100000      13.15900000      36.04000000
 H      34.24100000      13.68200000      36.47700000
 H      35.10700000      13.75700000      35.27900000
 O      26.92000000      39.53700000      38.93300000
 H      27.57900000      38.88600000      39.21200000
 H      26.10300000      39.15200000      39.28500000
 O      27.46700000      10.37000000      36.94100000
 H      27.64500000      10.96400000      37.71400000
 H      27.33000000       9.54800000      37.42200000
 O      35.31600000      34.83900000      35.39300000
 H      34.73200000      34.18900000      35.75500000
 H      35.78100000      35.10400000      36.20600000
 O      33.32300000      18.74000000      38.72400000
 H      32.98900000      17.84800000      38.94300000
 H      34.24500000      18.65400000      38.94900000
 O      38.09000000      23.18000000      39.19800000
 H      37.75900000      23.41600000      38.34500000
 H      38.76200000      23.91600000      39.36300000
 O      31.20900000      18.66900000      35.07300000
 H      30.94700000      19.35400000      34.43200000
 H      32.15400000      18.76500000      35.06800000
 O      24.51200000      26.67700000      39.60900000
 H      23.59800000      26.78300000      39.26500000
 H      24.95500000      26.22700000      38.87300000
 O      31.87000000      29.64100000      40.87500000
 H      31.53600000      29.38200000      41.75600000
 H      31.41000000      29.04500000      40.29200000
 O      40.21000000      26.82700000      35.25400000
 H      40.01200000      27.53900000      35.84400000
 H      39.35100000      26.61100000      34.78800000
 O      28.95400000      38.14600000      40.29300000
 H      29.38200000      38.95800000      40.59700000
 H      29.62800000      37.45800000      40.45700000
 O      25.73900000       9.54200000      39.69500000
 H      26.54400000       9.07700000      39.35100000
 H      25.87900000       9.38600000      40.65700000
 O      27.63600000      24.43700000      35.23900000
 H      26.95700000      24.93200000      35.71200000
 H      27.54800000      23.53200000      35.62000000
 O      30.86400000      12.17000000      38.65400000
 H      31.74200000      11.68200000      38.47300000
 H      30.65600000      11.78800000      39.50000000
 O      26.36200000       9.27200000      34.69100000
 H      26.82600000       9.70000000      35.40200000
 H      25.50400000       9.68900000      34.77400000
 O      30.17100000      25.23900000      34.96800000
 H      30.16300000      25.26500000      33.99500000
 H      29.23300000      25.21700000      35.25700000
 O      32.03900000      32.94000000      34.38600000
 H      32.36700000      33.32900000      35.24200000
 H      32.34900000      32.02500000      34.48000000
 O      33.60100000      31.52300000      40.11900000
 H      32.71700000      31.67500000      39.62500000
 H      33.18300000      30.99200000      40.87500000
 O      29.62600000      21.32100000      37.09300000
 H      30.24300000      22.06800000      36.76500000
 H      30.06800000      21.21800000      37.97600000
 O      21.98300000      33.66400000      36.96300000
 H      21.48600000      33.39300000      36.17600000
 H      22.90400000      33.48900000      36.65800000
 O      30.00600000       6.98000000      34.74400000
 H      29.47500000       6.50300000      35.36400000
 H      30.07700000       7.87000000      35.04500000
 O      38.47600000      40.03600000      36.46000000
 H      38.78100000      40.51800000      37.25700000
 H      38.00900000      40.77600000      36.04500000
 O      38.15500000      38.01200000      40.35000000
 H      37.95700000      37.09200000      40.49700000
 H      37.69300000      38.43800000      41.10700000
 O      35.00400000      34.02300000      40.13300000
 H      35.77000000      33.55000000      40.28700000
 H      34.32700000      33.34700000      39.90900000
 O      34.23000000       7.59100000      38.74800000
 H      35.04700000       7.20100000      38.36200000
 H      33.53600000       7.04300000      38.23600000
 O      39.50000000      31.22200000      38.54500000
 H      39.80600000      31.02800000      39.44100000
 H      39.87000000      32.18600000      38.46500000
 O      28.11800000      26.32900000      37.97600000
 H      27.38600000      26.91800000      37.64600000
 H      27.56100000      25.45900000      37.92500000
 O      24.73900000      33.53000000      39.22600000
 H      24.07800000      33.79100000      39.85100000
 H      24.84800000      34.27500000      38.62500000
 O      36.70300000      26.84200000      37.38400000
 H      36.22500000      27.66100000      37.42300000
 H      37.64500000      27.08600000      37.60800000
 O      35.34800000      29.53000000      35.92100000
 H      35.54500000      28.79900000      35.29400000
 H      36.20700000      30.07100000      35.80300000
 O      38.02300000      14.23700000      35.68600000
 H      37.11900000      13.96700000      35.46900000
 H      38.05400000      14.00400000      36.64400000
 O      24.85100000      35.36300000      37.29800000
 H      25.83500000      35.48000000      37.26500000
 H      24.54400000      36.24800000      36.98600000
 O      28.97700000      34.03000000      40.66100000
 H      29.76400000      34.61100000      40.44400000
 H      29.18200000      33.83100000      41.56600000
 O      24.51200000      29.14700000      40.70300000
 H      23.65000000      29.22800000      41.12300000
 H      24.42100000      28.18800000      40.44400000
 O      25.74000000      19.28100000      40.03800000
 H      26.57000000      18.79900000      39.98200000
 H      25.75600000      19.73100000      39.14700000
 O      31.21500000      23.36900000      36.67500000
 H      31.95000000      23.05200000      36.10400000
 H      30.80600000      24.03200000      36.08500000
 O      21.92100000      36.73500000      39.56800000
 H      21.68800000      37.54800000      40.08100000
 H      22.15800000      36.11200000      40.20900000
 O      27.98900000      15.38800000      39.57400000
 H      27.51000000      14.95900000      38.82500000
 H      27.95300000      16.32900000      39.33500000
 O      26.57000000      27.99300000      36.49500000
 H      26.35500000      27.96200000      35.54100000
 H      25.94100000      28.57800000      36.86100000
 O      32.33700000      14.41100000      36.72500000
 H      31.96800000      15.06000000      36.09100000
 H      32.13000000      14.83200000      37.58500000
 O      37.35000000      35.36100000      40.39900000
 H      37.66600000      34.59300000      40.90400000
 H      36.41800000      35.12400000      40.22400000
 O      39.61600000      32.16600000      34.95000000
 H      40.28900000      31.47400000      35.28000000
 H      40.17300000      32.97700000      35.20700000
 O      21.24400000      40.45500000      37.88700000
 H      20.85800000      39.95600000      37.14300000
 H      20.46200000      41.06100000      38.05000000
 O      35.96600000       9.84500000      36.34700000
 H      36.32300000      10.05300000      37.23700000
 H      36.65500000       9.24900000      36.06700000
 O      31.44000000      26.96900000      38.96700000
 H      31.69900000      27.08000000      38.05000000
 H      30.62000000      27.50700000      38.95800000
 O      33.02700000      14.32000000      40.63700000
 H      33.70000000      14.89200000      40.24400000
 H      32.19000000      14.67100000      40.43100000
 O      38.84900000      13.68800000      40.51900000
 H      39.09400000      13.15700000      41.26400000
 H      38.29600000      14.36500000      40.89400000
 O      27.29300000      31.79200000      36.70000000
 H      27.73900000      31.82700000      37.52800000
 H      28.04700000      31.51300000      36.10300000
 O      31.40200000      32.08900000      38.59400000
 H      30.62600000      31.55900000      38.79200000
 H      31.06600000      32.84100000      38.10500000
 O      20.63300000      16.33600000      35.73000000
 H      21.44600000      16.61600000      36.30600000
 H      20.28900000      15.70000000      36.38000000
 O      35.13100000      15.47600000      39.39100000
 H      35.31300000      15.95200000      38.56100000
 H      35.68500000      14.65500000      39.21200000
 O      36.34500000      31.20900000      40.14000000
 H      36.38500000      30.30200000      40.52500000
 H      35.30900000      31.20400000      40.24200000
 O      36.01500000      32.75300000      37.53800000
 H      36.74000000      32.29600000      36.99300000
 H      36.19500000      32.24400000      38.38800000
 O      20.99100000      23.79700000      35.16600000
 H      20.05900000      23.92100000      34.87200000
 H      21.35000000      23.34600000      34.38400000
 O      37.98000000       9.08900000      39.47500000
 H      37.81100000       9.07200000      40.46700000
 H      37.17300000       9.62400000      39.25800000
 O      27.43300000      23.05000000      38.20100000
 H      26.90100000      22.26000000      38.25100000
 H      28.27300000      22.64200000      37.92300000
 O      23.81300000      21.87300000      37.08600000
 H      23.62700000      21.55800000      36.16500000
 H      22.94300000      22.17800000      37.34900000
 O      34.66100000      10.89000000      34.47400000
 H      34.45300000      11.65700000      35.06900000
 H      35.07400000      10.31100000      35.23500000
 O      40.07300000      25.24200000      39.05600000
 H      40.40100000      25.70500000      39.85600000
 H      39.74900000      26.03100000      38.55300000
 O      39.69900000       9.76000000      37.40900000
 H      39.22300000       9.31600000      38.14200000
 H      40.60300000       9.69600000      37.86600000
 O      38.46300000       6.30500000      36.23600000
 H      38.32300000       7.08900000      35.67400000
 H      39.42700000       6.39800000      36.40300000
 O      23.12100000      19.27800000      38.49700000
 H      23.68600000      20.05100000      38.36600000
 H      22.37200000      19.69000000      39.05600000
 O      23.93000000      40.52300000      38.42300000
 H      23.80500000      41.43300000      38.64800000
 H      23.04100000      40.28800000      38.15200000
 O      27.55500000      34.86800000      38.08400000
 H      27.52000000      34.34000000      38.94200000
 H      28.48400000      35.28600000      38.26100000
 O      21.39100000       9.48500000      37.88300000
 H      22.25500000       9.91500000      37.93800000
 H      21.51600000       8.79800000      38.57400000
 O      22.75600000      16.88800000      37.34300000
 H      22.89800000      17.84500000      37.64100000
 H      23.41900000      16.78800000      36.60000000
 O      31.82800000      39.50900000      33.93700000
 H      31.78600000      39.64300000      34.88700000
 H      32.08600000      38.53400000      33.89800000
 O      31.71600000      39.15900000      39.74600000
 H      31.69900000      40.01200000      39.28400000
 H      32.61500000      39.07700000      40.06300000
 O      29.60300000      17.96800000      37.12400000
 H      30.06800000      18.59500000      36.54000000
 H      29.00900000      17.58600000      36.44600000
 O      28.61800000      31.58600000      39.00200000
 H      27.80400000      31.43400000      39.63500000
 H      28.93700000      32.36900000      39.52000000
 O      23.86800000      38.28800000      36.78600000
 H      24.18800000      39.16300000      36.96200000
 H      22.97900000      38.48500000      36.50500000
 O      32.15900000      36.84300000      34.75800000
 H      32.16500000      35.88600000      34.54900000
 H      32.33800000      36.76900000      35.74800000
 O      26.71500000      14.31900000      37.21900000
 H      27.21400000      13.54800000      36.77500000
 H      26.04100000      13.80400000      37.68600000
 O      33.33600000      10.91700000      38.07300000
 H      33.23300000       9.95600000      37.75000000
 H      33.48500000      11.39400000      37.25000000
 O      31.66100000      24.31700000      39.22900000
 H      31.34800000      25.22500000      39.16800000
 H      31.27900000      23.92000000      38.35800000
 O      30.67800000      34.37500000      37.53200000
 H      30.83000000      35.36400000      37.68900000
 H      30.13300000      34.45700000      36.73200000
 O      39.18000000      19.25300000      38.40900000
 H      40.10600000      19.39600000      38.65300000
 H      38.95900000      20.09100000      37.95000000
 O      36.42600000      38.12900000      37.12100000
 H      37.19700000      38.77300000      37.10200000
 H      36.53800000      37.73400000      36.22200000
 O      32.63900000       8.88900000      36.35600000
 H      33.06100000       8.24700000      35.75400000
 H      31.84400000       9.15500000      35.85700000
 O      36.12800000      19.36900000      38.14400000
 H      36.22100000      19.94500000      38.93800000
 H      36.98800000      19.62000000      37.70900000
 O      24.03100000      17.05000000      40.84700000
 H      24.93300000      16.53400000      40.88100000
 H      24.41800000      17.93400000      40.64800000
 O      29.07000000      34.42800000      35.51300000
 H      28.36100000      34.63300000      36.11800000
 H      28.55200000      34.11100000      34.72500000
 O      27.60200000      12.46300000      35.12600000
 H      27.48200000      11.70600000      35.74000000
 H      28.40900000      12.87200000      35.49400000
 O      23.83800000      10.75500000      38.04500000
 H      24.64400000      10.43300000      38.57200000
 H      23.92300000      11.73200000      38.23400000
 O      32.06500000      26.95000000      36.28300000
 H      31.85600000      27.80500000      35.76600000
 H      31.38600000      26.38600000      35.90900000
 O      36.73400000      21.02100000      40.24900000
 H      35.95300000      21.55200000      40.42200000
 H      37.36700000      21.72000000      39.91500000
 O      21.39200000      23.71600000      37.72800000
 H      21.16500000      23.59800000      36.76400000
 H      20.50700000      23.98000000      38.05200000
 O      37.11500000      23.80700000      36.66100000
 H      36.84500000      23.83900000      35.67800000
 H      36.95900000      24.79600000      36.86000000
 O      21.07300000      39.30100000      40.65700000
 H      21.33100000      39.57100000      39.73900000
 H      20.16300000      39.74500000      40.64900000
 O      34.49100000      25.06600000      35.85900000
 H      34.02600000      25.91500000      35.63500000
 H      34.86600000      25.32400000      36.78500000
 O      24.69800000      38.13400000      39.65700000
 H      23.88400000      37.64600000      39.40300000
 H      24.47400000      39.04100000      39.57300000
 O      38.27200000      28.68900000      40.58000000
 H      38.95000000      29.29400000      41.05100000
 H      37.73700000      28.44400000      41.38200000
 O      39.37900000      36.09300000      38.40900000
 H      38.70300000      35.91300000      39.07200000
 H      39.15300000      37.00800000      38.11300000
 O      20.82400000      20.28200000      39.42000000
 H      20.24200000      19.72500000      38.91000000
 H      20.37500000      21.11800000      39.58400000
 O      22.60400000      23.35600000      40.06600000
 H      23.53100000      23.55100000      39.95400000
 H      22.28200000      23.60200000      39.15400000
 O      37.53000000      12.97900000      38.25100000
 H      37.93800000      13.10700000      39.13800000
 H      37.02600000      12.14200000      38.44300000
 O      34.19000000      23.01300000      38.99200000
 H      33.21700000      23.30200000      38.97800000
 H      34.38000000      22.94200000      39.92300000
 O      40.20000000      15.65100000      38.93200000
 H      40.81800000      15.72000000      39.75000000
 H      39.60100000      14.90700000      39.30100000
 O      37.38900000      25.88300000      40.70200000
 H      37.75700000      26.54200000      41.27800000
 H      37.57300000      26.27600000      39.81700000
 O      35.78600000      10.49700000      39.08500000
 H      34.90500000      10.18200000      38.76700000
 H      35.53000000      10.92300000      39.91900000
 O      24.54400000      16.57500000      35.34700000
 H      25.25600000      17.20300000      35.22800000
 H      24.76000000      15.79100000      34.83700000
 O      37.64600000      30.91000000      36.44400000
 H      38.35800000      31.15200000      35.84700000
 H      38.13000000      30.88300000      37.30900000
 O      27.88800000       8.23700000      38.83800000
 H      27.66400000       7.28500000      38.86800000
 H      28.78400000       8.14600000      38.39200000
 O      25.61800000      40.43800000      36.47600000
 H      24.89600000      40.86000000      37.03600000
 H      26.18900000      40.18300000      37.22500000
 O      32.48400000      39.65700000      36.51800000
 H      32.17900000      40.27400000      37.18500000
 H      33.21900000      40.08300000      36.06900000
 O      29.99900000       9.67100000      35.41400000
 H      29.15500000       9.98300000      35.80400000
 H      29.93600000      10.10200000      34.52400000
 O      28.07900000      16.25200000      35.76000000
 H      27.55600000      15.59200000      36.23700000
 H      27.66800000      16.21800000      34.94500000
 O      23.76000000      10.81200000      35.26200000
 H      23.83300000      10.55500000      36.22100000
 H      23.53500000      11.80900000      35.42900000
 O      33.44400000      33.16500000      36.62300000
 H      32.91500000      32.59500000      37.16200000
 H      34.36400000      33.04100000      37.01900000
 O      26.01100000      20.53300000      37.64000000
 H      25.13100000      20.99300000      37.43300000
 H      26.51900000      20.74700000      36.84500000
 O      22.00700000      27.29700000      38.69300000
 H      21.09300000      27.58300000      38.71700000
 H      22.25100000      27.58300000      37.78700000
 O      22.57500000      15.03000000      39.73300000
 H      22.81300000      15.89400000      40.16500000
 H      22.23500000      15.36700000      38.89200000
 O      20.83100000      36.15100000      37.29600000
 H      21.50000000      35.49100000      37.06600000
 H      21.26700000      36.45800000      38.17600000
 O      30.17700000      14.16000000      40.44400000
 H      29.40400000      14.69600000      40.18500000
 H      30.34400000      13.70400000      39.55800000
 O      26.22400000      31.59500000      40.35900000
 H      25.67500000      32.39100000      40.05300000
 H      25.57300000      30.92500000      40.51600000
 O      23.46500000      13.41900000      35.37000000
 H      24.10100000      13.87400000      34.77400000
 H      22.62000000      13.67500000      34.89200000
 O      39.40700000      27.61400000      38.15600000
 H      39.02800000      28.23900000      38.77400000
 H      40.33100000      27.93000000      38.10000000
 O      33.74300000      26.90900000      40.44500000
 H      32.86900000      26.84900000      40.00800000
 H      34.09100000      27.67700000      39.95100000
 O      25.29700000      23.87100000      39.78000000
 H      26.00500000      23.52200000      39.19500000
 H      25.72200000      24.30300000      40.48900000
 O      21.66800000      32.83900000      39.59100000
 H      21.70600000      32.88300000      38.58700000
 H      22.23600000      33.55700000      39.83700000
 O      34.21700000      40.21700000      40.39600000
 H      34.79000000      40.87700000      39.93000000
 H      34.20400000      40.57200000      41.26300000
 O      34.58100000      37.63600000      39.27800000
 H      35.36500000      37.84500000      38.70900000
 H      34.44600000      38.52300000      39.72400000
 O      34.61000000      29.33000000      38.63400000
 H      34.86800000      29.47600000      37.67400000
 H      34.03500000      30.12900000      38.75700000
 O      23.09600000      20.73900000      34.91800000
 H      22.76800000      19.81600000      34.75500000
 H      22.72400000      21.16100000      34.12200000
 O      27.92500000      11.72300000      39.22600000
 H      27.30800000      11.88500000      40.01300000
 H      28.72900000      11.57400000      39.71400000
 O      29.16400000      40.65700000      36.26000000
 H      28.22700000      40.84900000      36.21600000
 H      29.18900000      39.75900000      35.83000000
 O      37.35900000      15.15600000      48.21300000
 H      37.25000000      14.48900000      47.47300000
 H      36.81300000      15.89300000      47.87900000
 O      21.59200000      32.88100000      47.56700000
 H      21.37300000      31.99900000      47.12700000
 H      22.59500000      32.80300000      47.61800000
 O      25.06100000      20.03800000      44.19000000
 H      25.50500000      19.81800000      43.34800000
 H      25.47200000      19.21400000      44.70400000
 O      39.35300000      20.15600000      48.62800000
 H      39.40300000      19.20300000      48.39200000
 H      39.29300000      20.55300000      47.72900000
 O      26.80900000      39.50700000      46.37300000
 H      26.66800000      39.83700000      45.47000000
 H      27.12600000      38.59900000      46.11900000
 O      35.08100000      25.07500000      43.47100000
 H      34.53500000      25.68500000      42.85500000
 H      35.94700000      25.46100000      43.25500000
 O      27.81200000      36.81600000      45.86400000
 H      27.54200000      36.08200000      45.27100000
 H      28.23200000      36.32400000      46.58600000
 O      33.98700000      33.12300000      45.48800000
 H      34.81700000      32.59100000      45.35700000
 H      33.37900000      32.50300000      45.93700000
 O      24.10600000      37.92400000      44.86400000
 H      24.01400000      37.24500000      44.16700000
 H      23.88800000      38.78800000      44.43000000
 O      29.60600000      35.99000000      48.09300000
 H      30.22700000      35.21400000      48.07500000
 H      28.87300000      35.50700000      48.61300000
 O      21.94100000       9.68300000      43.31400000
 H      21.00300000       9.91500000      43.18400000
 H      21.94400000       9.19400000      44.12300000
 O      20.61300000      16.05300000      48.42900000
 H      21.39200000      16.17100000      47.83100000
 H      20.17900000      15.35000000      47.96500000
 O      40.42900000      11.89200000      46.84400000
 H      40.88600000      12.72900000      46.96800000
 H      41.20500000      11.25900000      46.70400000
 O      37.05400000      35.90200000      47.12800000
 H      36.37500000      35.91000000      46.42900000
 H      36.70800000      35.23800000      47.74400000
 O      33.52800000      11.93400000      45.41400000
 H      33.68400000      11.72000000      44.48000000
 H      34.37200000      11.54000000      45.74700000
 O      20.87300000      22.96000000      45.62900000
 H      21.68200000      22.43700000      45.35900000
 H      21.25600000      23.85200000      45.62000000
 O      26.35700000      12.58100000      43.00000000
 H      25.33100000      12.49400000      43.15200000
 H      26.71200000      12.18500000      43.76900000
 O      23.90200000      11.19300000      47.74800000
 H      23.81400000      12.14400000      47.69800000
 H      24.56100000      11.02300000      46.97600000
 O      33.56900000      35.97300000      42.81400000
 H      33.94500000      36.64000000      42.19100000
 H      34.17600000      35.20400000      42.56900000
 O      25.12900000      23.03000000      49.60200000
 H      24.85400000      22.77200000      48.68500000
 H      26.10000000      22.79200000      49.59700000
 O      38.87500000      33.80300000      46.37600000
 H      38.78000000      33.11300000      47.02500000
 H      38.00100000      34.20600000      46.35000000
 O      29.51700000      21.97000000      44.97700000
 H      28.55700000      22.15600000      44.81500000
 H      29.91000000      22.47900000      44.28100000
 O      26.10300000      17.77200000      45.44500000
 H      27.05800000      17.97600000      45.44800000
 H      26.15700000      16.84600000      45.02700000
 O      24.00900000      20.44500000      46.89500000
 H      24.80200000      20.48400000      47.48300000
 H      24.43000000      20.62200000      46.04000000
 O      31.10800000      23.44700000      43.45400000
 H      31.64800000      22.64300000      43.66100000
 H      31.23800000      23.62500000      42.51800000
 O      26.66300000      31.20400000      47.08300000
 H      26.24300000      30.87600000      46.26400000
 H      27.46600000      31.65400000      46.79300000
 O      21.13200000      37.51100000      45.52000000
 H      20.95100000      36.56400000      45.55600000
 H      22.10500000      37.57300000      45.30900000
 O      33.99600000       8.11800000      43.54000000
 H      34.81200000       8.68000000      43.49100000
 H      33.76800000       8.13900000      42.52800000
 O      39.96300000      40.42900000      48.63900000
 H      39.92200000      39.46400000      48.57900000
 H      39.62700000      40.53800000      49.56600000
 O      29.46100000      13.79700000      46.41400000
 H      30.32000000      13.47500000      46.72400000
 H      29.74600000      14.18700000      45.58000000
 O      33.18000000      37.84400000      47.26700000
 H      32.35800000      37.55500000      46.82200000
 H      33.82900000      37.27300000      46.82500000
 O      22.35800000      21.39600000      43.83100000
 H      23.29200000      21.16500000      43.55600000
 H      21.97900000      21.83000000      43.09200000
 O      21.79400000      18.76600000      44.11800000
 H      21.73300000      19.71300000      43.86800000
 H      22.55100000      18.43300000      43.61700000
 O      26.20600000      20.14900000      48.46700000
 H      26.30500000      19.16800000      48.29300000
 H      25.65500000      20.09300000      49.28200000
 O      39.04200000      37.47500000      47.16900000
 H      38.36100000      36.73900000      47.01800000
 H      38.65900000      37.95000000      47.91400000
 O      36.82600000      39.22300000      47.33600000
 H      37.41100000      40.00300000      47.56500000
 H      36.95400000      38.68800000      48.11800000
 O      29.60400000      19.90400000      49.14600000
 H      29.93800000      20.57900000      48.44800000
 H      29.85600000      19.10900000      48.57900000
 O      30.78600000      14.10700000      49.38700000
 H      31.59300000      13.83000000      49.84500000
 H      31.13200000      13.92100000      48.47100000
 O      34.86300000      12.45900000      48.64800000
 H      35.45900000      12.72200000      47.95700000
 H      34.06500000      12.96300000      48.47200000
 O      39.36800000      24.29000000      43.60300000
 H      38.44500000      24.26300000      43.20600000
 H      39.64100000      25.19300000      43.41000000
 O      34.86800000      22.34900000      43.43000000
 H      35.28200000      22.26000000      44.31600000
 H      34.67200000      23.31200000      43.43800000
 O      37.54300000      19.50600000      44.31600000
 H      37.27900000      20.14300000      43.63500000
 H      37.50400000      18.69600000      43.79500000
 O      22.86400000      34.98700000      43.19700000
 H      23.48400000      34.35600000      43.63100000
 H      22.23200000      35.04900000      43.99000000
 O      25.55500000      29.91300000      44.88600000
 H      25.47300000      29.97200000      43.92500000
 H      24.95500000      29.14000000      45.01400000
 O      28.85500000      40.70000000      43.36700000
 H      27.93000000      40.47700000      43.53500000
 H      28.78600000      41.02100000      42.44500000
 O      34.96000000      28.98200000      43.79700000
 H      34.14100000      28.55800000      43.50800000
 H      35.29600000      28.42400000      44.53600000
 O      26.04700000      36.46900000      48.09600000
 H      26.01100000      36.32000000      47.15000000
 H      25.33300000      37.13500000      48.23200000
 O      25.96100000      10.25600000      46.46300000
 H      26.67400000      10.84300000      46.06900000
 H      25.62400000       9.86900000      45.65600000
 O      40.41600000      22.79000000      48.96600000
 H      41.38200000      22.68900000      48.67500000
 H      40.23400000      21.84300000      48.80800000
 O      22.25500000      25.58000000      48.37100000
 H      21.52200000      25.08800000      47.99000000
 H      21.85600000      26.02000000      49.13100000
 O      31.29600000      39.97800000      44.74300000
 H      31.39400000      39.02300000      44.73800000
 H      30.55100000      40.19600000      44.23000000
 O      26.91700000      13.61500000      47.45100000
 H      27.31000000      13.35500000      48.31000000
 H      27.78900000      13.81500000      46.97700000
 O      31.56000000       7.36000000      44.88900000
 H      31.69100000       6.66600000      45.48900000
 H      32.42400000       7.74200000      44.79000000
 O      24.36500000      16.42600000      48.13900000
 H      23.92600000      16.92700000      47.43100000
 H      25.30700000      16.67400000      47.96900000
 O      34.04800000      15.17900000      47.83100000
 H      33.86400000      15.13000000      46.85500000
 H      34.55300000      16.04300000      47.83900000
 O      30.55000000       9.71300000      47.72900000
 H      30.03000000       9.63700000      48.58500000
 H      31.45900000       9.66900000      48.13200000
 O      39.91600000       9.74700000      44.44800000
 H      39.42700000       9.30900000      45.13900000
 H      40.36200000       8.94200000      44.00400000
 O      22.27400000      25.02800000      44.01900000
 H      21.65900000      25.73800000      43.73500000
 H      22.16900000      24.42100000      43.23800000
 O      30.51900000      25.49700000      45.13600000
 H      30.64300000      24.82200000      44.39700000
 H      29.59600000      25.76700000      44.99400000
 O      21.31500000      10.44000000      47.10000000
 H      20.95700000      11.10100000      47.74400000
 H      22.25800000      10.67500000      47.25800000
 O      24.50400000      30.45100000      48.24300000
 H      25.26600000      30.77900000      47.77500000
 H      24.90300000      29.74100000      48.76800000
 O      28.37100000      40.65900000      48.18800000
 H      27.68100000      40.22500000      47.55600000
 H      28.46900000      41.52200000      47.82000000
 O      38.71700000      25.21800000      48.72600000
 H      39.09700000      26.05400000      48.65600000
 H      39.46000000      24.57700000      48.61100000
 O      32.66900000      28.82300000      47.53600000
 H      33.30100000      28.48900000      48.16600000
 H      31.95000000      28.12400000      47.58400000
 O      39.07000000      12.19800000      44.30100000
 H      39.39500000      12.46600000      45.18300000
 H      39.49200000      11.25000000      44.32500000
 O      40.44100000      30.77900000      42.87500000
 H      41.32200000      30.33400000      43.00400000
 H      40.46600000      31.39300000      43.67400000
 O      22.89300000      35.48300000      48.60000000
 H      21.93700000      35.54800000      48.59900000
 H      23.21300000      36.33700000      48.37200000
 O      38.47200000       8.33800000      46.28300000
 H      37.55600000       8.32500000      46.40900000
 H      38.90400000       7.81300000      46.97000000
 O      24.22700000      13.82600000      47.10400000
 H      25.22300000      13.68300000      46.97800000
 H      24.25500000      14.62300000      47.69700000
 O      23.81500000      38.04600000      47.72300000
 H      23.87800000      39.02400000      47.77600000
 H      23.90500000      37.92100000      46.73800000
 O      33.75100000      14.66000000      45.04000000
 H      33.77600000      13.68500000      45.00500000
 H      33.43600000      14.88700000      44.14200000
 O      26.10200000      35.85900000      42.79700000
 H      27.03300000      35.90700000      42.47500000
 H      25.73800000      36.65100000      42.39700000
 O      35.55100000      27.37600000      46.25600000
 H      34.70100000      26.94200000      46.37500000
 H      35.90600000      27.28900000      47.17100000
 O      22.18800000      18.53500000      46.70000000
 H      22.10500000      18.68900000      45.74000000
 H      22.80300000      19.26800000      46.99100000
 O      35.62200000      19.57400000      46.44900000
 H      36.42400000      19.46800000      45.85200000
 H      35.47400000      20.56900000      46.30000000
 O      32.54700000      19.60900000      47.42900000
 H      31.89300000      20.39500000      47.42700000
 H      33.31800000      20.13500000      47.77400000
 O      36.08100000      31.39700000      45.39000000
 H      36.39100000      30.82800000      46.14700000
 H      35.55300000      30.70600000      44.95600000
 O      28.79100000      17.46600000      45.96900000
 H      29.21900000      16.72200000      45.49500000
 H      29.54300000      17.74500000      46.52300000
 O      36.06200000      22.21800000      45.88300000
 H      37.04000000      22.20800000      46.03900000
 H      35.84400000      22.93500000      46.57300000
 O      32.36900000      21.08800000      43.37800000
 H      33.31900000      21.28700000      43.22000000
 H      32.48100000      20.27000000      43.97000000
 O      22.51300000       8.14600000      45.35900000
 H      23.46400000       7.80200000      45.40900000
 H      22.16600000       7.75900000      46.17400000
 O      23.83100000      11.88500000      43.74400000
 H      23.41300000      11.08600000      43.33500000
 H      23.16000000      12.58700000      43.66300000
 O      29.63500000      19.08500000      43.86500000
 H      29.85000000      19.90100000      44.34200000
 H      29.11100000      18.50300000      44.47500000
 O      32.35200000      31.71000000      46.94100000
 H      32.65900000      30.78200000      47.00000000
 H      31.91000000      31.83400000      47.85400000
 O      37.62100000      39.15600000      44.72200000
 H      36.99400000      39.16800000      45.53800000
 H      38.28200000      38.53000000      45.13900000
 O      34.38000000      40.16600000      46.77400000
 H      35.23800000      39.87100000      47.11300000
 H      33.83100000      39.41300000      46.99900000
 O      26.85900000      22.17100000      44.09200000
 H      26.21300000      22.84300000      44.48600000
 H      26.14700000      21.52900000      43.71800000
 O      28.66700000      30.68900000      43.81700000
 H      27.71900000      30.77000000      43.57100000
 H      28.85900000      29.77300000      43.56800000
 O      30.82700000      35.99500000      42.74300000
 H      31.76000000      36.27000000      42.54800000
 H      30.94100000      35.64300000      43.65800000
 O      33.34200000      25.66600000      45.60200000
 H      32.38600000      25.69900000      45.36300000
 H      33.73800000      25.44200000      44.74100000
 O      39.80700000      27.90000000      46.19000000
 H      40.47800000      27.28000000      45.93600000
 H      40.30800000      28.48700000      46.83700000
 O      24.05300000      32.88100000      44.60300000
 H      24.08000000      33.24700000      45.53900000
 H      23.93800000      31.95900000      44.74800000
 O      30.90400000      37.29000000      45.73700000
 H      30.19600000      37.18400000      46.37100000
 H      31.02700000      36.30800000      45.56900000
 O      40.61200000      37.63400000      44.90300000
 H      41.09400000      36.78900000      44.78100000
 H      40.27000000      37.49300000      45.79600000
 O      35.42600000       7.93800000      46.22600000
 H      34.74500000       7.44300000      45.78000000
 H      35.82500000       7.24800000      46.81000000
 O      34.99000000      35.86400000      45.33000000
 H      34.70500000      34.91200000      45.39900000
 H      34.47000000      36.07800000      44.47000000
 O      30.39400000      15.45600000      44.65600000
 H      31.04500000      16.13300000      44.31000000
 H      30.18800000      14.93900000      43.85100000
 O      22.72200000      28.35300000      47.13600000
 H      23.22900000      29.16200000      47.36200000
 H      22.64300000      27.92300000      48.01400000
 O      26.00300000      40.57400000      43.78900000
 H      25.84700000      41.51500000      43.64000000
 H      25.07300000      40.21500000      43.69000000
 O      23.84600000      27.36400000      44.87200000
 H      23.41100000      27.55500000      45.76900000
 H      23.50600000      26.51500000      44.74200000
 O      39.95700000      17.47700000      47.53300000
 H      40.12100000      16.63200000      47.04300000
 H      40.75700000      17.96800000      47.24700000
 O      30.61500000      21.46500000      47.32400000
 H      30.04100000      21.51600000      46.49600000
 H      31.24500000      22.26900000      47.15700000
 O      33.77400000      11.68500000      42.71000000
 H      33.68800000      11.48000000      41.75600000
 H      33.33300000      12.60000000      42.71800000
 O      27.85400000      25.82900000      44.49300000
 H      27.27800000      25.08500000      44.74700000
 H      27.15700000      26.54800000      44.51400000
 O      21.28500000      13.73200000      43.74700000
 H      20.87900000      14.60800000      43.99200000
 H      21.64200000      13.90500000      42.86000000
 O      21.05600000      34.84900000      45.57200000
 H      20.88000000      34.15000000      46.26000000
 H      20.20900000      34.77500000      45.02700000
 O      20.54600000      40.14900000      47.04700000
 H      20.02600000      39.59600000      47.60200000
 H      20.81200000      39.63100000      46.30700000
 O      30.69600000      17.70600000      47.97900000
 H      31.21700000      17.00700000      48.37500000
 H      31.40000000      18.38000000      47.82900000
 O      36.87600000      13.55400000      46.09700000
 H      36.56100000      14.10200000      45.35600000
 H      37.23000000      12.77700000      45.60500000
 O      29.71000000      32.73900000      44.80800000
 H      30.48100000      32.24200000      45.17800000
 H      29.29400000      31.93600000      44.36700000
 O      32.53000000      23.20600000      47.03200000
 H      32.74400000      23.34600000      47.90900000
 H      32.35000000      24.13000000      46.71100000
 O      30.14200000      11.00800000      42.85900000
 H      30.76600000      11.22400000      43.64600000
 H      29.95700000      10.10200000      43.12000000
 O      35.79800000      10.76800000      46.18000000
 H      35.37200000       9.87300000      46.36800000
 H      36.20500000      10.90100000      47.02500000
 O      31.87900000      17.23000000      43.15700000
 H      31.11300000      17.74800000      43.44200000
 H      32.58900000      17.68400000      43.67900000
 O      30.91800000      10.74200000      45.34700000
 H      31.65800000      11.37100000      45.44500000
 H      30.95000000      10.27500000      46.19100000
 O      36.59600000      30.38500000      47.74000000
 H      35.97300000      30.59500000      48.44000000
 H      37.18600000      29.74000000      48.14900000
 O      38.69500000      10.93000000      48.61300000
 H      39.30300000      11.05300000      47.85000000
 H      38.76200000      11.82000000      49.04100000
 O      28.74900000      27.69500000      42.72200000
 H      28.58800000      27.01900000      42.01100000
 H      28.79900000      27.06100000      43.51200000
 O      35.47100000      23.88400000      47.58200000
 H      34.90200000      24.64100000      47.35600000
 H      36.04300000      24.29100000      48.29300000
 O      23.43300000      40.34800000      43.65900000
 H      22.61600000      40.03600000      43.17000000
 H      22.94800000      41.09200000      44.11200000
 O      40.30000000      24.00800000      46.12600000
 H      40.06500000      23.89100000      45.19100000
 H      39.53900000      24.38100000      46.52800000
 O      26.20800000      34.86000000      45.31900000
 H      25.90900000      33.90700000      45.36800000
 H      26.11800000      35.04200000      44.36300000
 O      31.40600000      34.77000000      45.13400000
 H      32.26100000      34.21500000      45.06800000
 H      30.79200000      33.97300000      45.10800000
 O      26.79900000       8.77000000      48.46200000
 H      26.27200000       9.26200000      47.76400000
 H      26.73200000       7.83900000      48.10800000
 O      25.20000000      24.44300000      44.47500000
 H      24.94300000      24.43400000      45.39500000
 H      24.31900000      24.70200000      44.05300000
 O      33.25000000      18.93200000      44.86400000
 H      34.20600000      19.08800000      45.03600000
 H      32.98900000      18.94700000      45.87500000
 O      37.63000000      28.01700000      44.71700000
 H      36.96600000      27.57600000      45.25400000
 H      38.43000000      28.03700000      45.26900000
 O      21.35300000       7.08900000      47.35000000
 H      21.29800000       7.26100000      48.29100000
 H      20.52700000       6.55600000      47.21600000
 O      21.54700000      13.66600000      46.61300000
 H      21.53900000      13.36100000      45.67600000
 H      22.50600000      13.74700000      46.73300000
 O      38.83800000      16.05600000      43.96600000
 H      38.60200000      16.71400000      43.31300000
 H      37.90900000      15.84000000      44.28000000
 O      28.50500000      27.35600000      49.42300000
 H      29.14700000      27.30800000      48.66400000
 H      28.93200000      26.72100000      50.03700000
 O      30.61000000      26.93600000      47.79800000
 H      30.54000000      26.06500000      48.25800000
 H      30.56000000      26.74900000      46.88200000
 O      32.00600000      13.07600000      47.20300000
 H      31.64600000      12.28400000      47.60200000
 H      32.66500000      12.81900000      46.58100000
 O      36.44800000       9.38100000      43.73400000
 H      36.61100000       9.96300000      44.50600000
 H      36.45800000       8.50000000      44.17500000
 O      37.59700000      32.83600000      43.23800000
 H      37.42400000      32.08900000      42.59600000
 H      37.09900000      32.49100000      44.01300000
 O      35.64900000      17.35400000      48.08600000
 H      35.70600000      18.18300000      47.52300000
 H      35.78200000      17.78500000      48.97400000
 O      21.20300000      30.76000000      45.85100000
 H      21.63800000      29.97600000      46.29400000
 H      21.57400000      30.67300000      44.96900000
 O      38.79400000      21.51700000      45.92500000
 H      38.35100000      20.74800000      45.45800000
 H      39.59300000      21.58000000      45.40300000
 O      21.89100000      30.10800000      43.31900000
 H      21.15300000      29.81100000      42.75700000
 H      22.09400000      31.02400000      42.87100000
 O      39.94000000      33.76600000      43.84600000
 H      39.62900000      33.70600000      44.76500000
 H      39.12600000      33.42800000      43.36500000
 O      30.44600000      33.18200000      48.26600000
 H      29.95500000      32.75600000      47.57100000
 H      30.14200000      32.84100000      49.08500000
 O      26.26700000      15.44900000      43.65300000
 H      27.04100000      15.40500000      43.04300000
 H      26.29600000      14.53800000      44.03800000
 O      28.84900000       8.31200000      45.30300000
 H      29.15300000       8.97500000      45.93100000
 H      29.68400000       8.00800000      44.92000000
 O      31.09200000      28.70500000      45.14100000
 H      31.93000000      28.69400000      45.66300000
 H      30.42800000      29.02700000      45.79600000
 O      34.40500000      21.25400000      49.14200000
 H      34.56400000      22.05800000      48.67200000
 H      35.26700000      21.05300000      49.52900000
 O      29.37200000      29.85200000      47.23000000
 H      29.73400000      29.02200000      47.48900000
 H      28.47900000      29.76200000      47.61700000
 O      24.52100000      24.84600000      47.23700000
 H      23.72800000      25.24700000      47.67500000
 H      25.16800000      25.06800000      47.93100000
 O      27.87300000      11.65800000      45.31200000
 H      28.74100000      11.31200000      45.10600000
 H      28.17700000      12.48600000      45.75700000
 O      36.25100000      15.12800000      43.59500000
 H      35.58200000      15.48400000      44.19700000
 H      35.85500000      15.16700000      42.74400000
 O      27.08700000      16.96100000      48.39900000
 H      27.43400000      16.51100000      49.15600000
 H      27.82100000      16.83200000      47.73100000
 O      24.92600000       7.03100000      45.63500000
 H      25.39300000       6.47800000      46.35400000
 H      25.04600000       6.33100000      44.89700000
 O      38.33700000      28.40400000      48.91200000
 H      39.19500000      28.80100000      48.66900000
 H      38.01500000      28.96600000      49.61800000
 O      24.30500000      33.65400000      47.15900000
 H      25.09200000      33.52300000      47.70500000
 H      23.97600000      34.50400000      47.64300000
 O      26.19300000       8.81700000      44.02400000
 H      27.17300000       8.67300000      44.15900000
 H      25.85600000       8.14800000      44.65900000
 O      20.65700000      16.34800000      44.26700000
 H      21.13600000      17.23500000      44.20700000
 H      20.63100000      16.16100000      45.20100000
