297
XYZ file of cluster: frame_13000_15e3.49514.22c3f - created by MolEdiTo
 O       1.91200000      20.80500000      18.73800000
 H       2.41200000      20.04600000      19.09000000
 H       1.08400000      20.73400000      19.29000000
 O       5.19300000      26.41400000       9.43800000
 H       5.97500000      25.84900000       9.70700000
 H       4.67100000      25.60100000       9.09400000
 O       1.65500000      25.24100000      10.61900000
 H       0.73400000      25.32600000      10.93100000
 H       1.84800000      24.25300000      10.83300000
 O       4.38500000      15.90300000       6.17700000
 H       4.44000000      16.85500000       5.94600000
 H       4.57700000      15.97600000       7.14900000
 O       3.13000000      16.11600000       9.10200000
 H       2.47300000      15.77700000       8.45300000
 H       2.87200000      15.64400000       9.92500000
 O       9.40800000      15.29000000      19.03400000
 H       9.71500000      14.89600000      19.86400000
 H       9.94300000      14.82500000      18.37000000
 O       8.25200000      16.48800000      16.64900000
 H       7.84900000      16.75400000      17.47700000
 H       8.91400000      15.87900000      16.92400000
 O       3.94600000      19.50900000      16.79400000
 H       3.46500000      20.23900000      17.16800000
 H       3.47400000      19.49500000      15.89700000
 O       4.93700000      20.88000000      10.30500000
 H       5.00700000      19.87400000      10.22800000
 H       5.49800000      20.95900000      11.17000000
 O       6.82100000      23.45500000       6.93300000
 H       6.50100000      23.52000000       7.85300000
 H       7.71200000      23.79700000       6.94000000
 O       2.48400000      25.34200000      20.36500000
 H       2.30900000      24.35500000      20.52500000
 H       3.38100000      25.42900000      20.63400000
 O      13.34800000      24.89800000      15.23100000
 H      12.74200000      24.18400000      15.55100000
 H      12.71400000      25.66100000      15.19400000
 O      12.46900000      16.09900000       7.75600000
 H      12.01700000      16.13400000       8.64300000
 H      12.92400000      15.26100000       7.85700000
 O       5.39800000      22.06700000      18.87700000
 H       5.75500000      21.34900000      18.35500000
 H       4.99100000      22.55800000      18.11300000
 O      11.08200000      18.97500000      21.11600000
 H      10.80600000      19.73700000      20.52200000
 H      10.59100000      19.23300000      21.91300000
 O       8.37400000      27.34700000      14.85600000
 H       7.75500000      26.62500000      14.48900000
 H       7.79300000      28.10900000      14.52900000
 O       2.36900000      26.14500000       6.56200000
 H       1.74800000      26.46700000       7.23500000
 H       2.83000000      25.45000000       7.15800000
 O      11.51100000      26.77000000       7.17100000
 H      12.21200000      26.49400000       6.54200000
 H      10.93600000      26.01800000       7.18900000
 O       9.62100000      17.10700000      14.19100000
 H       9.68600000      18.08800000      14.41000000
 H       9.01200000      16.78900000      14.90300000
 O       4.15200000      14.92600000      13.79200000
 H       3.98500000      15.66600000      14.40800000
 H       3.24400000      14.91300000      13.34200000
 O       9.88900000      19.55600000      16.38600000
 H       9.42600000      18.92500000      17.02500000
 H      10.73600000      19.07500000      16.29400000
 O       1.07200000      17.99600000      12.42700000
 H       0.23300000      18.23600000      12.80700000
 H       0.92000000      18.36400000      11.50800000
 O       8.52500000      15.27100000       7.94600000
 H       9.15900000      14.57100000       8.23800000
 H       7.91400000      14.75300000       7.40200000
 O       2.81000000      22.11500000      13.11600000
 H       2.99600000      21.19300000      13.02900000
 H       2.29300000      22.18600000      13.92700000
 O       9.25700000      18.07700000      18.64000000
 H       9.29400000      17.07900000      18.71300000
 H       9.30000000      18.28600000      19.61800000
 O       3.96100000      24.33700000       8.40400000
 H       3.38400000      24.00500000       9.17000000
 H       3.83800000      23.54900000       7.79300000
 O      13.24600000      21.10300000      10.38100000
 H      12.67000000      20.93800000      11.15300000
 H      12.68100000      21.58400000       9.78200000
 O      11.11700000      26.36800000      13.74800000
 H      10.99200000      26.73300000      12.84000000
 H      10.25500000      26.55300000      14.17100000
 O       1.74400000      27.58900000      18.73400000
 H       1.13800000      27.30500000      18.06900000
 H       2.01500000      26.73500000      19.09100000
 O       9.29400000      19.70800000      11.57800000
 H       8.36300000      19.99400000      11.74800000
 H       9.23200000      19.52600000      10.61100000
 O       1.27300000      25.99500000      16.59200000
 H       1.00600000      26.28600000      15.67700000
 H       0.71300000      25.14400000      16.63400000
 O       7.30200000      17.20700000       9.59300000
 H       7.97800000      16.70400000       9.05500000
 H       7.70900000      17.07200000      10.47000000
 O       0.97300000      27.00200000       8.70800000
 H       0.49000000      27.58400000       9.28400000
 H       1.36400000      26.39300000       9.43800000
 O      14.19200000      26.25800000       9.00800000
 H      15.01000000      26.52100000       9.52900000
 H      13.61800000      25.90800000       9.67700000
 O       9.31200000      23.55700000      14.05100000
 H       8.88900000      22.71400000      14.30300000
 H       8.64700000      24.19300000      14.40900000
 O       4.78600000      14.06400000      18.42400000
 H       4.84200000      13.75600000      17.45900000
 H       4.46900000      13.14900000      18.77500000
 O       4.63200000      18.63100000      12.75400000
 H       4.78500000      18.49600000      11.75600000
 H       5.28000000      18.00300000      13.09200000
 O      10.92900000      23.71200000      11.85700000
 H      10.86200000      22.67500000      11.90900000
 H      10.34800000      23.81400000      12.69900000
 O       6.93500000      14.32200000      20.05300000
 H       7.69200000      14.54900000      19.50600000
 H       6.17700000      14.25800000      19.42600000
 O      11.32200000      15.98500000      10.37300000
 H      11.92500000      15.56000000      11.03600000
 H      10.43500000      15.69300000      10.69600000
 O       4.67800000      13.51300000      11.66900000
 H       3.74300000      13.15300000      11.71100000
 H       4.68500000      14.06700000      12.49000000
 O       4.15200000      16.59400000      18.34400000
 H       3.88800000      16.60000000      17.45400000
 H       4.25900000      15.62300000      18.53200000
 O       1.92400000      15.42300000      11.94700000
 H       1.77500000      16.34700000      12.22900000
 H       1.45800000      14.93600000      12.62900000
 O      12.80300000      18.62700000       6.97600000
 H      12.62200000      17.69700000       7.38500000
 H      13.74400000      18.50600000       6.75100000
 O       4.08600000      26.15600000      12.04700000
 H       4.40500000      26.70800000      11.29400000
 H       3.31300000      25.70400000      11.68900000
 O      13.76000000      20.71100000      19.20600000
 H      14.23500000      21.48900000      19.52900000
 H      14.47400000      20.04700000      19.27900000
 O       6.50600000      17.39200000      19.06500000
 H       5.54400000      17.07500000      18.87100000
 H       6.66300000      16.95700000      19.90400000
 O       3.02500000      22.83900000      10.33800000
 H       3.57300000      22.04700000      10.08100000
 H       3.04600000      22.70600000      11.32900000
 O       4.45000000      21.79100000      21.31300000
 H       4.98600000      22.55100000      21.66400000
 H       4.65400000      21.89000000      20.38400000
 O      11.45500000      15.22900000      14.06400000
 H      10.76200000      15.92500000      13.90500000
 H      11.82900000      15.20200000      13.14100000
 O       4.40700000      27.37200000      14.32500000
 H       4.37200000      26.93000000      13.45000000
 H       5.07000000      28.09200000      14.19900000
 O      12.98600000      20.64100000      16.59100000
 H      12.70600000      19.69100000      16.49000000
 H      13.02100000      20.75100000      17.56100000
 O      10.43100000      23.42600000      17.94600000
 H       9.80500000      24.17300000      17.88400000
 H      10.92600000      23.56600000      17.10800000
 O       2.48900000      19.30100000      14.20400000
 H       3.23100000      19.06600000      13.60700000
 H       1.75100000      18.91200000      13.65600000
 O      13.44300000      24.28400000       7.40500000
 H      13.88200000      24.96800000       7.96300000
 H      14.11200000      23.89000000       6.89100000
 O       5.16300000      23.75400000      12.95300000
 H       4.87800000      24.67500000      12.65800000
 H       4.28000000      23.36200000      13.01200000
 O       6.37700000      26.39600000      18.50700000
 H       5.57400000      26.11400000      18.00800000
 H       6.19600000      27.19800000      18.88700000
 O      13.28800000      25.24100000      11.57300000
 H      12.43300000      24.97000000      11.87600000
 H      13.84600000      24.44200000      11.66600000
 O      10.30600000      18.54500000       8.95000000
 H      10.58400000      17.62000000       9.03700000
 H      11.21900000      18.94300000       8.79500000
 O       9.31300000      24.97500000       7.21100000
 H       9.53300000      25.24300000       8.11700000
 H       8.80300000      25.76600000       6.90100000
 O      11.33400000      21.24600000      12.58200000
 H      12.12500000      20.93100000      13.04400000
 H      10.85700000      20.40600000      12.43800000
 O      12.37900000      18.11800000      16.60900000
 H      12.48600000      17.95000000      17.57000000
 H      12.98600000      17.39700000      16.21500000
 O       8.17400000      27.47000000       6.51100000
 H       8.55200000      28.36100000       6.47100000
 H       7.70700000      27.46000000       7.40400000
 O       7.19700000      24.39400000      10.22900000
 H       7.10600000      23.46000000      10.44900000
 H       8.17500000      24.42100000      10.00300000
 O       6.30900000      16.68300000      14.25100000
 H       5.94900000      15.81800000      14.08700000
 H       6.98800000      16.47800000      14.94800000
 O       6.99900000      28.22500000       8.69600000
 H       6.26600000      27.61500000       8.84400000
 H       6.53300000      29.02900000       8.36400000
 O       2.95300000      18.46600000      20.03100000
 H       2.03900000      18.07000000      19.92500000
 H       3.49000000      17.80500000      19.63300000
 O       3.09200000      16.66000000      15.66800000
 H       3.06600000      17.63300000      15.43700000
 H       2.14700000      16.60200000      15.90300000
 O      10.51000000      21.04600000      19.28900000
 H      10.60700000      21.83200000      18.72700000
 H      10.27700000      20.36900000      18.63700000
 O      13.23100000      14.28000000      19.83200000
 H      13.72500000      14.15000000      18.96300000
 H      12.52300000      13.62900000      19.64600000
 O      12.78200000      17.29300000      19.45700000
 H      12.80600000      16.41100000      19.91600000
 H      12.32400000      17.82600000      20.19200000
 O       1.00700000      18.98600000       9.95100000
 H       0.51900000      18.39800000       9.33200000
 H       1.79900000      19.25700000       9.38600000
 O       7.26900000      23.86200000      19.61900000
 H       6.81600000      24.64800000      19.27700000
 H       6.68900000      23.16300000      19.24200000
 O       4.16400000      23.17700000      16.85100000
 H       4.19500000      24.08500000      16.45200000
 H       3.31200000      22.84800000      16.45500000
 O       6.53700000      20.10400000      17.36200000
 H       5.66400000      19.69900000      17.08800000
 H       6.91200000      19.31000000      17.75800000
 O       2.86200000      19.50700000       8.05700000
 H       2.89200000      19.19800000       7.14300000
 H       3.72800000      19.11300000       8.40900000
 O      11.69000000      22.96400000      15.54800000
 H      11.71500000      22.02300000      15.77700000
 H      10.81500000      23.05200000      15.07500000
 O       8.57800000      16.45800000      11.76600000
 H       8.89900000      16.70400000      12.69400000
 H       8.74400000      15.49100000      11.84700000
 O      13.65400000      16.21800000      14.93100000
 H      14.06000000      16.35300000      14.09100000
 H      12.87300000      15.59400000      14.67200000
 O       4.81000000      13.19400000      15.95800000
 H       4.59900000      13.92800000      15.36200000
 H       5.01500000      12.47300000      15.25600000
 O      13.27500000      19.36400000      12.90800000
 H      13.22300000      19.34900000      13.87000000
 H      13.81300000      18.54000000      12.76900000
 O      11.56700000      22.72700000       9.00100000
 H      10.95000000      23.51300000       9.05800000
 H      12.19200000      23.08700000       8.32400000
 O       4.09400000      25.97700000      16.83900000
 H       4.24600000      26.59900000      16.14100000
 H       3.09300000      25.89400000      16.82000000
 O       1.72400000      22.60600000      20.63000000
 H       2.37500000      21.97700000      20.96400000
 H       1.48700000      22.32000000      19.77500000
 O       9.52600000      23.20200000      20.99200000
 H       8.74500000      23.34300000      20.39100000
 H      10.02400000      22.58900000      20.43000000
 O       8.07600000      21.36200000      15.39800000
 H       7.36000000      21.03900000      15.96200000
 H       8.74700000      20.62000000      15.65800000
 O      10.20600000      14.07900000      16.73100000
 H      10.75500000      14.35700000      15.97500000
 H       9.39800000      13.78500000      16.23600000
 O      13.12200000      14.70100000      11.96300000
 H      13.70500000      14.86900000      11.14800000
 H      13.38100000      13.74600000      12.11300000
 O       9.23400000      25.79100000      17.33300000
 H       9.23800000      26.22600000      16.48800000
 H       8.31400000      25.99300000      17.61200000
 O       8.79100000      19.87900000       7.28500000
 H       9.27000000      19.35800000       7.96600000
 H       9.31000000      20.72400000       7.26500000
 O       0.97000000      14.67300000       7.84000000
 H       1.29000000      14.37000000       6.94900000
 H       1.28700000      13.86600000       8.37400000
 O      10.27400000      25.21400000       9.85800000
 H      10.40900000      26.07000000      10.31000000
 H      10.75900000      24.65500000      10.57500000
 O       1.88300000      22.23700000      15.98900000
 H       1.77300000      21.56000000      16.75200000
 H       0.96600000      22.36000000      15.74600000
 O       6.68400000      21.41300000      12.41500000
 H       7.01400000      21.19000000      13.28000000
 H       6.25000000      22.28200000      12.61000000
 O      11.00000000      26.78300000      19.07800000
 H      10.48600000      26.42200000      18.30400000
 H      11.81000000      27.06400000      18.60600000
 O       5.66300000      14.51300000       9.38600000
 H       6.01200000      15.33100000       9.68900000
 H       5.02900000      14.32900000      10.04200000
 O       6.91000000      24.73600000      14.81000000
 H       6.19300000      24.63100000      15.45200000
 H       6.55500000      24.30100000      13.99600000
 O       4.94100000      18.29900000       9.80200000
 H       4.46600000      17.49600000       9.64500000
 H       5.85800000      18.11600000       9.58600000
 O       3.15100000      22.23800000       7.02700000
 H       3.30700000      21.96000000       6.11400000
 H       3.23900000      21.37200000       7.50100000
