    0.001895276    0.005162842    0.016840950
    0.000337143    0.002188685   -0.001031125
   -0.004319584   -0.007064628   -0.016272720
    0.021701179   -0.013069741    0.008194856
   -0.014994314    0.004916823    0.001335107
   -0.004911398    0.008521592   -0.011069608
    0.002647838   -0.027602251    0.043646279
   -0.004828926    0.027875703   -0.028513713
   -0.000129593   -0.001177519   -0.015534105
   -0.004265116   -0.020603390    0.005455378
   -0.002355948    0.005396080   -0.007846566
    0.007510480    0.017097879    0.003128789
   -0.014011133    0.023148183   -0.016845617
   -0.000090437   -0.025597343   -0.003609144
    0.017678942   -0.011123994    0.027604949
   -0.054205930    0.038231167    0.019661092
    0.035642748   -0.036910679   -0.036224228
    0.014004269    0.011857980    0.010715487
   -0.011725458   -0.044910912   -0.001550689
    0.003391089    0.011851589   -0.000463058
    0.010860604    0.035269574    0.001893032
    0.002640012    0.014820104    0.023586427
   -0.000460992   -0.016018109   -0.005692479
   -0.002087584    0.000673670   -0.017831468
    0.016243713    0.004125072   -0.035492084
   -0.006343417    0.014620114   -0.001085252
   -0.011750550   -0.026484393    0.028865408
   -0.028791277   -0.013012856    0.002118461
    0.013298153   -0.007374114   -0.001312749
    0.018867746    0.024959260   -0.001909598
   -0.000364970   -0.017698217    0.020334833
   -0.006785968    0.034137950   -0.016790163
    0.007559374   -0.017698706   -0.002472597
   -0.002209915   -0.042051873   -0.011851364
    0.000765970    0.035290277    0.017796699
    0.003621878    0.006672892   -0.004784803
    0.008733726   -0.041815585    0.002121340
   -0.016918252    0.017250143   -0.012174580
    0.004150623    0.026146728    0.017058624
