346
XYZ file of cluster: frame_15000_256b0.6f001.6d111 - created by MolEdiTo
 O      19.07400000      29.85200000      29.13900000
 H      18.88300000      30.61300000      29.68400000
 H      18.29200000      29.30100000      29.30000000
 O      15.62300000      27.56400000      23.02300000
 H      16.48600000      27.84300000      23.40100000
 H      15.41100000      28.40500000      22.56100000
 O       9.35100000      25.65600000      32.64200000
 H      10.06600000      25.26600000      33.22600000
 H       9.88000000      26.35500000      32.17700000
 O      14.90300000      22.09600000      21.46800000
 H      14.57500000      21.24000000      21.54400000
 H      15.57200000      22.23200000      22.12200000
 O       7.00000000      24.43800000      32.15000000
 H       7.95200000      24.73500000      32.10400000
 H       6.68000000      24.76700000      31.25300000
 O      15.60900000      21.16000000      29.01500000
 H      16.25000000      20.93800000      28.30400000
 H      14.84400000      20.64800000      28.77200000
 O      19.72100000      32.26200000      20.38200000
 H      18.82000000      32.41200000      19.97600000
 H      19.39200000      31.79900000      21.19200000
 O      19.46900000      32.24100000      35.61300000
 H      19.79000000      32.25200000      34.65800000
 H      20.00900000      31.50900000      35.97500000
 O      12.73700000      32.11400000      28.04500000
 H      12.45600000      31.42100000      28.69500000
 H      13.66500000      31.77500000      28.00200000
 O      20.85500000      20.84300000      29.10400000
 H      21.21600000      20.09900000      28.55300000
 H      21.60600000      21.15200000      29.58900000
 O      13.89100000      33.20300000      33.47400000
 H      13.54100000      32.93600000      32.55900000
 H      14.52900000      32.53000000      33.60200000
 O      10.30200000      25.95500000      26.98600000
 H       9.59500000      26.68400000      26.97800000
 H      10.22200000      25.67400000      26.07400000
 O       7.55100000      23.26400000      23.20900000
 H       6.79800000      22.78300000      23.61800000
 H       7.42700000      23.16400000      22.25600000
 O      14.19800000      33.19800000      23.50900000
 H      14.21600000      33.85700000      22.78600000
 H      13.19100000      33.06300000      23.52500000
 O      13.61300000      28.90000000      25.28300000
 H      14.13200000      28.09200000      25.43500000
 H      14.36000000      29.54500000      25.26000000
 O      21.59800000      29.05900000      26.09200000
 H      22.26300000      28.31700000      26.26700000
 H      20.81500000      28.49200000      26.06600000
 O      21.16900000      34.82800000      32.44200000
 H      20.77400000      33.92100000      32.61900000
 H      20.85500000      34.93600000      31.51900000
 O      20.45700000      27.26700000      30.37000000
 H      20.52700000      26.30700000      30.34200000
 H      19.64000000      27.28600000      29.76000000
 O      19.59900000      32.68500000      26.10600000
 H      18.71400000      33.06100000      25.85300000
 H      20.18000000      33.43400000      25.78300000
 O      19.22200000      32.94200000      28.75600000
 H      19.40500000      32.52200000      27.86100000
 H      19.31700000      33.90000000      28.57700000
 O       8.94800000      25.18700000      29.24400000
 H       9.38000000      25.34300000      28.36600000
 H       9.51000000      24.61500000      29.68600000
 O       9.72000000      22.08800000      30.37900000
 H      10.25300000      21.75400000      31.12500000
 H       8.82800000      21.72400000      30.60800000
 O      10.66000000      23.52200000      34.28600000
 H      11.40500000      23.34200000      34.92800000
 H       9.92900000      23.73500000      34.95500000
 O      17.25000000      34.02000000      26.41100000
 H      16.30600000      33.79400000      26.26600000
 H      17.16900000      34.84300000      26.88300000
 O      12.34600000      25.10200000      23.07100000
 H      12.01100000      24.72400000      22.26600000
 H      11.67800000      24.76600000      23.71300000
 O      16.88000000      22.57300000      23.56100000
 H      16.44300000      22.88200000      24.37800000
 H      17.53600000      23.25000000      23.41700000
 O      15.04300000      24.05700000      28.29800000
 H      15.29800000      23.18500000      28.65100000
 H      14.10600000      23.96500000      28.11300000
 O       7.48400000      31.96600000      28.71600000
 H       7.66700000      31.18300000      28.18200000
 H       6.46500000      32.01800000      28.61000000
 O      12.19400000      23.88600000      28.03500000
 H      12.03600000      23.15800000      27.40100000
 H      11.51000000      24.54800000      27.70900000
 O       8.98700000      26.73000000      21.00200000
 H       8.13500000      26.34300000      21.35100000
 H       9.35200000      25.96100000      20.55500000
 O      19.70100000      32.41600000      32.34900000
 H      18.79500000      32.72200000      32.46600000
 H      19.56400000      31.49100000      32.09400000
 O      20.86700000      22.46600000      31.99900000
 H      21.67700000      22.27300000      31.51200000
 H      20.44200000      21.54600000      31.96400000
 O      18.79200000      29.95300000      31.96700000
 H      17.81000000      29.85800000      32.19000000
 H      19.03900000      29.02800000      32.21500000
 O      18.28300000      21.21700000      33.56600000
 H      18.96500000      21.41800000      34.23800000
 H      18.83500000      20.74000000      32.86300000
 O      12.11700000      30.29800000      29.92900000
 H      11.91200000      29.38000000      29.79200000
 H      12.50200000      30.29500000      30.84200000
 O      18.06700000      28.06400000      23.85200000
 H      18.73400000      28.73400000      23.57300000
 H      18.41400000      27.78100000      24.70700000
 O      11.06800000      27.17600000      31.40700000
 H      11.91400000      26.86500000      31.64300000
 H      11.12000000      27.31900000      30.45000000
 O      16.80100000      34.75100000      31.40200000
 H      16.88800000      34.25300000      32.26700000
 H      16.71200000      35.64800000      31.72600000
 C      19.22600000      21.23700000      21.56100000
 C      20.46200000      20.39600000      21.19800000
 C      22.74200000      20.37900000      20.17500000
 H      21.10200000      21.25100000      19.41800000
 H      17.84700000      20.67300000      21.19100000
 O      21.67100000      22.45200000      21.03800000
 O      18.13800000      20.34900000      21.85100000
 O      18.24600000      21.41100000      20.64700000
 C      21.50500000      21.18100000      20.39800000
 O      21.00700000      19.76600000      22.33300000
 H      20.08000000      19.64800000      20.44700000
 O      22.46800000      19.59100000      18.99900000
 O      23.61600000      21.05300000      19.36600000
 H      23.55200000      20.44100000      18.59500000
 H      20.42400000      18.95100000      22.62800000
 H      22.49300000      22.84400000      20.56300000
 O      16.88700000      26.50800000      32.61100000
 H      17.00700000      25.50900000      32.36400000
 H      17.87100000      26.62200000      32.92800000
 O       9.87000000      35.29100000      29.19300000
 H       9.66000000      34.63700000      29.86200000
 H      10.85300000      35.10000000      29.17000000
 O      11.08200000      31.42400000      25.83500000
 H      11.58800000      31.72100000      26.62800000
 H      11.30400000      32.11100000      25.19700000
 O      15.54600000      30.66800000      24.78200000
 H      15.31600000      31.60000000      24.75200000
 H      16.49500000      30.67100000      25.03800000
 O      16.26500000      29.30400000      32.13400000
 H      15.77100000      29.41400000      31.23900000
 H      16.15700000      28.34700000      32.23000000
 O      19.68800000      23.76500000      25.02300000
 H      19.29800000      23.03500000      25.58000000
 H      20.48000000      23.24800000      24.64200000
 O      12.63500000      28.00400000      22.30700000
 H      12.98200000      28.24100000      23.19000000
 H      12.53300000      27.01300000      22.39800000
 O      19.65100000      30.67300000      23.11600000
 H      20.13500000      29.83800000      22.96400000
 H      20.36700000      31.14800000      23.68100000
 O      15.22900000      28.69600000      29.60300000
 H      15.16700000      29.46600000      29.01600000
 H      14.73600000      28.00200000      29.14400000
 O      17.42400000      23.80400000      34.12600000
 H      18.26200000      23.99100000      34.54100000
 H      17.57300000      22.87700000      33.78900000
 O      12.53900000      34.62300000      28.86700000
 H      13.34300000      35.05700000      28.49100000
 H      12.71700000      33.66900000      28.64000000
 O       8.55500000      28.98300000      23.71800000
 H       9.24900000      29.01600000      24.40700000
 H       8.95400000      29.44900000      22.99000000
 O      14.76100000      33.91900000      26.03100000
 H      14.61100000      33.56300000      25.10200000
 H      13.84100000      34.21500000      26.17500000
 O       9.71100000      32.40100000      30.27700000
 H      10.09700000      31.67600000      29.76300000
 H       8.85100000      32.48700000      29.79700000
 O      11.42400000      33.13500000      23.38700000
 H      11.09900000      33.43200000      22.50700000
 H      10.57700000      33.29000000      23.85000000
 O      17.24200000      32.14800000      30.05200000
 H      18.13600000      32.44900000      29.63000000
 H      16.95500000      33.08300000      30.34800000
 O      15.10000000      30.18900000      21.92100000
 H      14.49600000      30.44800000      22.62700000
 H      15.85100000      30.70500000      22.15000000
 O      15.38900000      31.28300000      28.00200000
 H      16.10600000      30.75600000      27.59800000
 H      15.91100000      31.87400000      28.58600000
 O      10.96300000      22.18400000      26.08300000
 H      10.06100000      22.48000000      25.99100000
 H      10.92500000      21.29400000      25.73300000
 O      17.97000000      34.96700000      21.16500000
 H      17.56300000      34.96600000      22.02300000
 H      17.79600000      34.06300000      20.82000000
 O       7.65800000      34.74800000      34.71800000
 H       8.23100000      34.08400000      34.33000000
 H       6.76700000      34.26900000      34.62700000
 O      15.80200000      31.22300000      34.01900000
 H      16.02100000      30.48500000      34.69200000
 H      15.91200000      30.67100000      33.23900000
 O      11.88100000      22.83300000      21.42800000
 H      11.83600000      22.04300000      22.02100000
 H      12.70500000      22.61400000      20.94400000
 O       9.29800000      29.12800000      32.52400000
 H       9.97100000      28.47200000      32.38400000
 H       9.85000000      29.87000000      32.89500000
 O      18.89200000      25.44500000      20.09400000
 H      17.98100000      25.70500000      20.15100000
 H      19.17900000      25.41200000      21.01900000
 O       9.44600000      21.09900000      23.54400000
 H       8.55200000      20.76000000      23.80900000
 H       9.19600000      21.97000000      23.17700000
 O      17.25900000      31.82100000      22.49700000
 H      17.40200000      32.69300000      22.93400000
 H      18.06000000      31.31000000      22.81800000
 O      11.02000000      28.77000000      25.22400000
 H      11.98500000      28.68600000      25.20400000
 H      10.88400000      29.71200000      25.41000000
 O      11.70700000      21.96900000      32.45800000
 H      11.28100000      22.48300000      33.18100000
 H      12.61800000      22.19000000      32.64200000
 O      20.17700000      24.68400000      29.93200000
 H      19.41400000      24.19300000      29.58600000
 H      20.59700000      24.03500000      30.54500000
 O      12.91600000      32.60800000      31.17700000
 H      12.58600000      31.76100000      30.83400000
 H      12.99700000      33.13600000      30.37400000
 O      14.24700000      26.08700000      25.17900000
 H      13.54200000      25.46800000      24.82600000
 H      14.73400000      26.19700000      24.36300000
 O      12.48300000      27.83600000      34.27700000
 H      13.36900000      27.89100000      34.71900000
 H      12.75700000      27.08600000      33.67400000
 O      17.87600000      27.04900000      29.52500000
 H      17.07600000      27.56000000      29.71900000
 H      17.53900000      26.43700000      28.87400000
 O      15.89600000      25.95900000      20.73100000
 H      15.13000000      26.43800000      20.34700000
 H      15.82100000      26.34500000      21.69200000
 O       7.48500000      28.34500000      29.47000000
 H       8.25300000      28.04200000      29.91600000
 H       7.06800000      28.94600000      30.04800000
 O       7.39500000      20.78000000      31.12400000
 H       6.49700000      20.48300000      30.74200000
 H       7.04600000      21.11700000      32.00500000
 O      12.85800000      23.57300000      30.65200000
 H      12.46000000      23.75600000      29.80200000
 H      12.11200000      23.02300000      31.04000000
 O      10.25700000      33.88100000      21.24200000
 H       9.81700000      34.32600000      20.49500000
 H      10.20300000      32.95400000      21.01700000
 O      10.37600000      30.88100000      34.68500000
 H      10.64400000      30.12300000      35.20100000
 H       9.45400000      30.98600000      35.05600000
 O      18.68200000      25.47100000      22.84300000
 H      19.08900000      25.18900000      23.70400000
 H      18.25300000      26.33000000      23.10300000
 O      14.31200000      22.25400000      33.04000000
 H      14.74200000      21.41900000      33.29300000
 H      14.42200000      22.72400000      33.88800000
 O       8.37700000      31.28200000      21.97100000
 H       9.03800000      30.63700000      21.63300000
 H       7.65200000      31.21400000      21.35200000
 O       7.31800000      26.93800000      24.54600000
 H       7.69600000      27.75200000      24.06000000
 H       7.27000000      27.30700000      25.45200000
 O       8.06500000      27.73000000      26.95300000
 H       7.83200000      27.88700000      27.88700000
 H       8.33000000      28.65600000      26.74400000
 O       6.52600000      29.39600000      33.60400000
 H       6.80000000      29.70500000      34.47500000
 H       7.39300000      29.16600000      33.21500000
 O      13.95300000      26.93700000      27.91100000
 H      13.95900000      26.82800000      26.95300000
 H      14.71100000      26.30200000      28.12700000
 O       7.21900000      22.23800000      27.93900000
 H       7.53300000      21.43400000      28.50400000
 H       8.00100000      22.83400000      28.04800000
 O       8.82600000      30.31300000      26.66500000
 H       8.30000000      30.74700000      25.92800000
 H       9.72600000      30.51300000      26.37800000
 O      20.49700000      27.93100000      22.69200000
 H      21.37900000      27.47700000      22.69900000
 H      20.21000000      27.67400000      21.80100000
 O      10.81900000      35.29900000      34.84200000
 H      11.65500000      34.93300000      35.16000000
 H      10.46300000      34.58700000      34.31800000
 O      17.08600000      33.41300000      33.65000000
 H      16.38300000      32.68900000      33.83100000
 H      17.37500000      33.46700000      34.58800000
 O      17.73200000      22.99500000      29.65600000
 H      17.06900000      22.31900000      29.48100000
 H      17.37600000      23.40100000      30.44900000
 O      21.79500000      30.87200000      29.07500000
 H      22.05800000      30.16200000      29.65300000
 H      20.85800000      30.70400000      28.95500000
 O      17.51000000      25.54800000      27.07700000
 H      18.07700000      24.76400000      27.34000000
 H      16.63600000      25.13900000      27.21100000
 O      19.07000000      21.97500000      27.13500000
 H      18.33800000      21.33600000      27.07000000
 H      19.64900000      21.61600000      27.82400000
 O       7.54500000      26.38500000      34.81100000
 H       6.83600000      26.93000000      34.37300000
 H       7.96700000      25.93100000      34.03900000
 O      17.81600000      30.53300000      26.82600000
 H      18.58700000      30.79600000      26.26100000
 H      18.32200000      30.28100000      27.63300000
 O      19.33000000      27.12400000      32.99200000
 H      19.75900000      27.35300000      32.11600000
 H      20.00300000      26.60000000      33.41200000
 O      17.75700000      34.17400000      23.80500000
 H      18.64800000      34.61800000      23.86900000
 H      17.56300000      34.13900000      24.78900000
 O       7.86600000      31.79600000      24.72800000
 H       8.18600000      31.46100000      23.89900000
 H       6.93400000      32.10600000      24.51500000
 O       6.40400000      25.64800000      29.70500000
 H       7.20100000      25.36500000      29.14300000
 H       6.71300000      26.58700000      29.81000000
 O      15.78200000      23.69100000      31.51200000
 H      15.55800000      23.02100000      32.15800000
 H      15.04600000      23.60100000      30.90300000
 O      19.58900000      27.14600000      26.01100000
 H      19.88000000      26.41800000      25.48000000
 H      18.95600000      26.62000000      26.64600000
 O      11.49400000      27.83300000      28.84300000
 H      12.33100000      27.53100000      28.42000000
 H      10.93300000      27.80600000      27.99500000
 O       7.62700000      34.72000000      27.88900000
 H       7.66700000      33.77400000      28.20600000
 H       8.56400000      34.96600000      28.16400000
 O      13.27000000      26.06800000      32.27200000
 H      13.16800000      25.21500000      31.68500000
 H      14.20700000      26.10000000      32.34000000
 O      13.06700000      29.81100000      32.40100000
 H      13.45300000      30.27600000      33.15400000
 H      12.77900000      28.98400000      32.87500000
 O       9.34500000      25.30700000      24.65800000
 H       8.56600000      25.91700000      24.76300000
 H       8.91000000      24.58900000      24.07700000
 O      10.18500000      29.11900000      21.57700000
 H      11.04700000      28.77400000      21.96300000
 H       9.72000000      28.28300000      21.34500000
 O       9.28800000      33.23100000      33.22400000
 H       9.21500000      32.75200000      32.44200000
 H       9.60800000      32.56800000      33.90100000
 O      14.88400000      27.10500000      35.09200000
 H      15.65600000      27.04300000      34.42400000
 H      14.93200000      26.16800000      35.37900000
