744
XYZ file of cluster: frame_15000_72035.4ab87.c451f - created by MolEdiTo
 O      37.15000000      22.08500000      35.60500000
 H      36.78200000      22.98100000      35.76300000
 H      38.08800000      22.22900000      35.82900000
 O      27.31300000      23.25200000      34.70700000
 H      27.11700000      24.14500000      34.40300000
 H      26.57100000      22.74500000      34.32000000
 O      40.89700000      39.55500000      39.29800000
 H      40.81300000      39.86100000      38.35700000
 H      40.16400000      39.99300000      39.71500000
 O      35.51300000      33.01100000      40.47100000
 H      34.88300000      32.39400000      40.98200000
 H      35.76900000      32.41700000      39.79700000
 O      38.26100000      34.66900000      34.46700000
 H      37.57800000      35.24800000      34.79400000
 H      38.98900000      35.28400000      34.29900000
 O      28.42100000      37.26300000      36.61000000
 H      28.97700000      37.83600000      35.98000000
 H      28.80800000      37.51000000      37.45300000
 O      36.95400000      31.83800000      35.89800000
 H      37.86400000      31.71700000      35.43800000
 H      36.83700000      32.79300000      35.62000000
 O      38.81900000      14.79600000      40.61500000
 H      39.20300000      14.06700000      40.07300000
 H      38.85600000      14.41900000      41.49900000
 O      37.65400000      36.72100000      40.04600000
 H      38.18500000      36.14800000      39.48400000
 H      37.87000000      36.40000000      40.95000000
 O      30.52200000      14.14100000      38.92300000
 H      29.59300000      14.18200000      38.68500000
 H      30.41400000      13.42100000      39.67400000
 O      32.91400000      29.31700000      34.95700000
 H      33.34600000      30.07700000      34.45800000
 H      33.00100000      29.69200000      35.87300000
 O      39.70500000      18.33600000      39.01200000
 H      40.64100000      18.72500000      39.07300000
 H      39.40000000      18.95300000      38.29700000
 O      28.82000000      36.79100000      39.91800000
 H      29.42100000      36.06400000      40.12000000
 H      28.61800000      37.18800000      40.72700000
 O      28.93600000      19.52400000      39.42800000
 H      28.14000000      19.24400000      38.92200000
 H      29.60200000      19.00200000      39.00000000
 O      28.84400000      22.55800000      36.72300000
 H      29.63000000      22.10900000      36.23800000
 H      28.33900000      22.80000000      35.86500000
 O      29.91200000      31.22600000      38.42100000
 H      29.76100000      32.14300000      38.76700000
 H      29.59300000      30.70700000      39.20900000
 O      32.27300000      15.93400000      36.31700000
 H      31.97500000      15.19200000      36.87500000
 H      33.22900000      15.73000000      36.28000000
 O      30.10900000      33.60900000      39.65700000
 H      30.18100000      33.99900000      40.50600000
 H      31.04700000      33.58400000      39.36600000
 O      22.15400000      38.36500000      35.43400000
 H      22.09400000      37.92100000      34.58800000
 H      22.26300000      37.56500000      36.00200000
 O      29.86200000      25.55200000      37.54200000
 H      29.33200000      24.66300000      37.45300000
 H      29.50800000      25.98500000      36.74900000
 O      34.61600000      38.09600000      34.28700000
 H      34.25500000      38.71400000      34.92900000
 H      34.38400000      38.51200000      33.47100000
 O      30.34100000      21.74200000      40.24800000
 H      30.41300000      21.23000000      41.09700000
 H      29.61500000      21.17600000      39.89400000
 O      34.71700000      39.87900000      37.20800000
 H      35.04700000      40.77400000      37.37000000
 H      35.56300000      39.40100000      37.19100000
 O      35.65800000      30.89700000      38.36000000
 H      34.70500000      30.68900000      38.05900000
 H      35.90400000      31.42000000      37.54500000
 O      37.94500000      25.34200000      35.75300000
 H      38.66900000      24.73700000      35.61300000
 H      38.29100000      26.20700000      35.44900000
 O      23.74500000      14.20000000      40.71400000
 H      22.78500000      14.15400000      40.93200000
 H      23.63200000      14.41100000      39.79300000
 O      23.09200000      18.23800000      39.28500000
 H      22.62400000      18.63700000      40.02500000
 H      22.80200000      18.89700000      38.57100000
 O      27.19500000      13.96700000      34.78900000
 H      28.03300000      13.56300000      34.73900000
 H      26.79300000      13.71000000      33.96300000
 O      39.35100000      26.43400000      38.93100000
 H      38.55600000      25.95700000      38.80300000
 H      39.19900000      27.27600000      38.46500000
 O      31.52100000      35.77500000      36.73300000
 H      30.55200000      35.99900000      36.75000000
 H      31.56300000      35.62300000      35.73100000
 O      26.29300000      39.76200000      39.09100000
 H      26.90700000      40.13500000      38.44300000
 H      25.65000000      40.48900000      39.17700000
 O      32.59000000      19.96200000      38.87600000
 H      32.06400000      20.62900000      39.35500000
 H      32.01000000      19.20300000      38.86400000
 O      25.41900000      20.55400000      37.63700000
 H      26.16700000      19.93800000      37.63000000
 H      24.77400000      20.16900000      37.02100000
 O      36.06900000      29.31600000      35.29800000
 H      35.35700000      29.33500000      34.60800000
 H      36.24000000      30.33000000      35.35000000
 O      39.81700000      13.44600000      38.53200000
 H      39.14800000      13.91000000      37.97700000
 H      40.19600000      12.75700000      37.92800000
 O      40.25000000      30.39400000      38.93600000
 H      39.70900000      29.85300000      38.35300000
 H      41.03200000      30.58100000      38.30800000
 O      25.10600000      31.42800000      35.91300000
 H      24.97600000      30.87900000      36.69900000
 H      26.05500000      31.57400000      35.91600000
 O      36.61900000      14.46000000      39.14700000
 H      37.21400000      14.69200000      39.84900000
 H      36.91400000      14.98200000      38.41200000
 O      29.95600000      28.72700000      35.50400000
 H      29.34100000      28.68900000      34.70800000
 H      30.81500000      28.78700000      35.13500000
 O      39.84400000      19.63200000      35.26800000
 H      39.39700000      20.34600000      35.69700000
 H      40.28700000      20.08000000      34.51700000
 O      27.88300000      31.35200000      36.03600000
 H      28.64100000      31.18200000      36.61700000
 H      28.22500000      32.08700000      35.46200000
 O      22.11700000      36.14400000      37.33200000
 H      22.61200000      35.98700000      38.15900000
 H      22.80700000      35.63500000      36.75500000
 O      37.06700000      22.74800000      39.57800000
 H      36.82200000      23.72400000      39.45200000
 H      36.50200000      22.33600000      38.91000000
 O      40.89200000      40.20400000      36.24900000
 H      40.88700000      40.42300000      35.31400000
 H      41.78000000      40.50600000      36.52500000
 O      34.47200000      35.98900000      37.72300000
 H      33.53800000      36.14200000      37.43900000
 H      34.49500000      36.59600000      38.44900000
 O      31.52200000      24.04400000      39.27400000
 H      30.88500000      24.30900000      38.62000000
 H      31.03400000      23.33200000      39.74300000
 O      25.14400000      26.84300000      36.21200000
 H      25.97200000      27.39500000      36.32600000
 H      25.50700000      26.02700000      35.84300000
 O      26.48400000      20.27700000      40.69400000
 H      27.16700000      19.57300000      40.54000000
 H      26.63100000      20.86200000      39.98000000
 O      37.02700000      28.98000000      40.14400000
 H      36.45900000      28.38100000      40.64600000
 H      36.24600000      29.56300000      39.80000000
 O      36.81200000      16.83200000      37.13700000
 H      36.34800000      17.02600000      37.95000000
 H      36.62200000      17.68100000      36.64000000
 O      39.70400000      37.36700000      36.76200000
 H      39.58100000      37.61400000      35.79800000
 H      40.36600000      38.06700000      36.98500000
 O      25.51200000      37.71900000      36.40900000
 H      26.50300000      37.50700000      36.49800000
 H      25.21200000      36.89300000      35.93900000
 O      29.95000000      13.59400000      34.45000000
 H      30.62200000      14.07600000      34.93300000
 H      30.30700000      13.51400000      33.56400000
 O      27.01700000      34.62900000      36.65500000
 H      27.38200000      33.86000000      36.17300000
 H      27.57700000      35.33800000      36.33100000
 O      28.70300000      33.87600000      34.90000000
 H      29.50500000      34.08800000      34.43100000
 H      28.04900000      34.30900000      34.32700000
 O      24.37400000      39.97800000      35.40000000
 H      23.54900000      39.46000000      35.44200000
 H      24.97600000      39.34800000      35.86000000
 O      34.65200000      27.02800000      37.84500000
 H      33.77000000      27.38000000      38.12900000
 H      34.81600000      27.59400000      37.05100000
 O      21.48500000      25.99100000      34.27000000
 H      22.02700000      25.18600000      34.40600000
 H      21.95800000      26.61800000      34.82000000
 O      38.17000000      28.71100000      37.75400000
 H      37.46800000      29.03400000      37.19200000
 H      37.74700000      28.72800000      38.66200000
 O      40.27600000      34.55900000      37.49500000
 H      39.96500000      35.50800000      37.40200000
 H      41.10600000      34.58900000      36.98200000
 O      40.85500000      14.54000000      35.26800000
 H      41.78400000      14.30700000      35.50700000
 H      40.61000000      15.09300000      36.03300000
 O      33.16000000      33.77800000      38.75700000
 H      33.82200000      33.54900000      39.39400000
 H      33.39300000      34.72300000      38.54200000
 O      35.74100000      17.33000000      39.40900000
 H      35.90800000      17.96400000      40.13000000
 H      35.42900000      16.58600000      39.95900000
 O      34.96700000      21.21800000      37.83200000
 H      34.16200000      20.95700000      38.33900000
 H      34.67700000      22.20600000      37.74300000
 O      32.25300000      28.01000000      38.57200000
 H      31.61100000      27.91700000      37.83800000
 H      31.66900000      27.78100000      39.32100000
 O      29.49200000      27.00400000      39.79500000
 H      29.44500000      26.50400000      38.97500000
 H      29.32100000      26.25300000      40.44500000
 O      27.74800000      14.10600000      38.42100000
 H      27.66900000      13.26200000      37.89100000
 H      27.20300000      14.70700000      37.87400000
 O      22.51000000      28.08300000      36.17500000
 H      23.43900000      27.77600000      36.04800000
 H      22.51000000      28.16600000      37.13400000
 O      24.94200000      27.40900000      40.55000000
 H      25.67500000      28.00400000      40.71400000
 H      25.42500000      26.51600000      40.45800000
 O      31.34100000      20.92400000      36.00600000
 H      32.00200000      20.95700000      36.73800000
 H      31.71400000      20.10000000      35.53500000
 O      27.05400000      18.21100000      37.68300000
 H      26.45300000      17.61300000      38.19400000
 H      27.39500000      17.72000000      37.00600000
 O      34.59900000      24.37700000      34.15400000
 H      33.96400000      25.03200000      33.89900000
 H      34.37800000      24.29300000      35.12700000
 O      39.41400000      16.08100000      37.31300000
 H      38.53600000      16.52700000      37.16100000
 H      39.65100000      16.55700000      38.13800000
 O      22.62600000      32.23900000      35.15200000
 H      22.71800000      33.03300000      34.64100000
 H      23.56100000      31.98800000      35.35200000
 O      39.38100000      32.15100000      34.61900000
 H      39.98800000      32.36900000      35.33900000
 H      38.98600000      33.03100000      34.51900000
 O      34.77800000      37.41000000      39.97500000
 H      34.88000000      36.72500000      40.63400000
 H      35.63800000      37.84500000      39.93900000
 O      28.93900000      19.69400000      33.94900000
 H      29.78700000      19.88600000      33.49200000
 H      29.15900000      20.11400000      34.81300000
 O      23.42600000      36.36600000      39.59300000
 H      23.23800000      35.46600000      40.04000000
 H      24.46100000      36.42000000      39.71200000
 O      36.60300000      25.87400000      39.33200000
 H      36.16400000      26.11500000      40.14900000
 H      36.04400000      26.36200000      38.65900000
 O      39.90100000      22.16500000      39.78900000
 H      40.09600000      21.87000000      40.66200000
 H      38.94600000      22.04000000      39.76400000
 O      39.91300000      32.95800000      39.80500000
 H      39.82500000      32.21900000      39.20300000
 H      40.13600000      33.66300000      39.15500000
 O      39.72100000      22.95200000      35.60400000
 H      40.12000000      23.37400000      34.79400000
 H      40.40500000      22.32000000      35.80800000
 O      33.99300000      24.11900000      37.65800000
 H      34.37300000      25.01500000      37.76300000
 H      33.13400000      24.24500000      38.02500000
 O      30.55500000      17.72800000      38.56300000
 H      31.04000000      17.07600000      39.15900000
 H      30.95800000      17.46400000      37.70900000
 O      21.15200000      14.83600000      35.84800000
 H      20.67900000      15.54700000      35.42000000
 H      21.66000000      14.44500000      35.07900000
 O      22.91000000      14.70100000      38.04700000
 H      23.41500000      14.13300000      37.40000000
 H      22.23300000      14.94700000      37.39400000
 O      24.08400000      33.66100000      40.11300000
 H      25.07300000      33.63000000      39.87200000
 H      23.68500000      33.14200000      39.39400000
 O      27.00100000      22.54400000      39.03100000
 H      26.36000000      22.24500000      38.34100000
 H      27.76900000      22.61600000      38.34600000
 O      20.84100000      30.08800000      36.94000000
 H      21.41500000      29.30000000      36.85000000
 H      20.23400000      29.72700000      37.64200000
 O      23.90800000      19.37000000      35.04400000
 H      23.58600000      19.87900000      34.26100000
 H      24.60700000      18.81400000      34.61300000
 O      33.07800000      39.45200000      39.81200000
 H      33.46200000      39.75300000      38.96000000
 H      33.55300000      38.62600000      39.93400000
 O      37.23100000      38.68800000      36.47400000
 H      38.03900000      38.27000000      36.83400000
 H      36.88800000      37.89700000      35.99600000
 O      31.93200000      18.25700000      35.00100000
 H      32.62100000      18.36300000      34.31300000
 H      32.02600000      17.32600000      35.27100000
 O      36.01600000      19.19300000      35.95000000
 H      36.10900000      20.15800000      35.90200000
 H      35.45900000      19.09200000      36.79200000
 O      32.97900000      30.62700000      37.95600000
 H      32.12500000      31.08000000      37.99200000
 H      32.73500000      29.78300000      38.41700000
 O      25.01900000      16.20000000      38.82000000
 H      24.23500000      15.62600000      38.47700000
 H      24.44100000      16.95000000      39.10100000
 O      26.66500000      33.82500000      39.67900000
 H      27.54400000      33.89500000      40.05700000
 H      26.81900000      34.09500000      38.77200000
 O      40.30500000      29.62900000      34.21900000
 H      41.04000000      29.82000000      34.88200000
 H      39.84500000      30.48100000      34.17500000
 O      23.34100000      21.71400000      39.45000000
 H      22.88000000      22.12600000      38.69800000
 H      24.10500000      21.31700000      39.03900000
 O      33.51700000      32.92200000      35.73900000
 H      33.35000000      33.27000000      36.66000000
 H      32.99700000      33.58900000      35.23100000
 O      28.45300000      16.41500000      35.50400000
 H      28.30300000      15.43200000      35.52200000
 H      29.39600000      16.46800000      35.33400000
 O      24.44100000      35.32100000      35.60200000
 H      25.18200000      34.88900000      36.06000000
 H      24.77200000      35.25400000      34.64800000
 O      20.48000000      40.60300000      35.06200000
 H      19.60100000      40.31900000      34.83700000
 H      20.93400000      39.78400000      35.31700000
 O      27.28500000      28.39500000      36.46800000
 H      27.14300000      29.34100000      36.33300000
 H      28.12300000      28.35300000      36.94000000
 O      36.20600000      36.19900000      35.33500000
 H      35.57700000      36.74700000      34.75900000
 H      35.59400000      35.96600000      36.06900000
 O      32.46800000      16.18100000      40.39600000
 H      32.22800000      15.38500000      39.83100000
 H      33.31300000      15.90100000      40.87300000
 O      20.27400000      24.87500000      37.41900000
 H      20.99000000      25.21400000      37.92400000
 H      19.51300000      25.16100000      37.99800000
 O      22.35000000      32.55400000      38.09800000
 H      22.14500000      32.39000000      37.12000000
 H      22.44400000      31.65100000      38.40500000
 O      21.81500000      20.20400000      36.35600000
 H      22.58000000      19.80500000      35.72300000
 H      22.20200000      21.06000000      36.46800000
 O      21.21300000      28.31800000      39.35100000
 H      20.21100000      28.44100000      39.55300000
 H      21.54700000      28.08700000      40.22700000
 O      22.89000000      25.71800000      38.35900000
 H      23.11200000      26.27000000      39.14600000
 H      23.51600000      26.15700000      37.72800000
 O      35.50000000      15.35900000      34.95000000
 H      36.22800000      15.43300000      34.26700000
 H      35.97200000      15.73700000      35.73400000
 O      29.78500000      39.03800000      35.22800000
 H      29.34700000      39.64700000      34.56700000
 H      30.67800000      39.41900000      35.26300000
 O      26.43400000      25.06200000      40.53900000
 H      27.27100000      25.18000000      41.05600000
 H      26.72100000      24.26500000      40.04800000
 O      22.05400000      38.68100000      39.64500000
 H      22.70900000      37.93200000      39.39000000
 H      22.30300000      38.70300000      40.61300000
 O      22.65100000      22.78200000      36.70200000
 H      22.75000000      23.69800000      36.93700000
 H      22.75400000      22.82200000      35.69700000
 O      23.18400000      30.22500000      39.25300000
 H      23.93800000      29.65100000      39.20900000
 H      22.39900000      29.70500000      39.39400000
 O      26.06500000      37.06600000      39.78800000
 H      25.95400000      37.77400000      39.15300000
 H      27.02600000      36.95700000      39.69100000
 O      38.21800000      27.90400000      34.35500000
 H      37.45500000      28.34800000      34.72400000
 H      38.87500000      28.61500000      34.33200000
 O      27.00900000      15.31900000      40.54500000
 H      26.50900000      15.57600000      39.72600000
 H      27.37800000      14.47100000      40.24900000
 O      21.26700000      39.38300000      47.67600000
 H      20.77600000      39.23500000      48.50700000
 H      21.34600000      40.38800000      47.72000000
 O      22.76600000      20.15700000      42.98400000
 H      23.62100000      20.26200000      43.47100000
 H      22.74600000      20.89000000      42.37000000
 O      38.58200000      32.81800000      43.87400000
 H      39.05400000      32.83800000      43.01400000
 H      37.74700000      32.40400000      43.57600000
 O      38.45800000      39.16900000      42.89600000
 H      38.23300000      38.37000000      42.41700000
 H      37.85300000      39.80600000      42.48400000
 O      32.49300000      18.64400000      49.12900000
 H      32.58500000      18.08400000      48.32600000
 H      32.08500000      19.45600000      48.81300000
 O      21.16400000      14.23200000      42.98600000
 H      20.52100000      14.46200000      42.30000000
 H      20.61900000      13.63100000      43.55400000
 O      33.10100000      37.11300000      46.07100000
 H      32.67500000      37.96400000      45.82300000
 H      33.20300000      37.20400000      47.00900000
 O      33.67100000      27.57500000      45.50700000
 H      33.35000000      26.60800000      45.53000000
 H      33.36500000      27.83400000      46.39600000
 O      22.47300000      27.61100000      43.09400000
 H      23.38100000      27.36400000      42.82200000
 H      22.44900000      27.01100000      43.93700000
 O      39.23100000      39.61300000      49.16100000
 H      38.62200000      39.29100000      48.48000000
 H      39.00300000      39.07000000      49.93500000
 O      36.58100000      30.74000000      44.10600000
 H      36.41500000      29.84600000      43.79500000
 H      36.28600000      30.64700000      45.07100000
 O      28.30200000      23.41100000      46.63500000
 H      27.74600000      22.54600000      46.61400000
 H      28.99900000      23.19600000      46.00200000
 O      23.42500000      21.85700000      48.63100000
 H      23.30300000      22.46000000      49.44100000
 H      22.73400000      22.34700000      48.06600000
 O      34.44500000      37.95300000      48.32800000
 H      34.13200000      37.46300000      49.07500000
 H      33.84300000      38.71400000      48.38400000
 O      31.53100000      21.13900000      46.68500000
 H      32.38900000      20.63400000      46.51500000
 H      31.85500000      21.96300000      47.07200000
 O      20.88200000      35.71100000      47.52100000
 H      21.06500000      34.81900000      47.07900000
 H      21.68500000      36.16800000      47.09100000
 O      33.98700000      20.04700000      43.22000000
 H      33.76900000      19.79700000      42.30200000
 H      34.82600000      19.55400000      43.29900000
 O      30.44400000      24.22900000      45.19900000
 H      31.27000000      23.67200000      45.09600000
 H      30.83000000      25.06400000      45.55200000
 O      21.52400000      16.28700000      44.81400000
 H      21.52400000      15.68400000      44.00300000
 H      20.76100000      16.01700000      45.31400000
 O      28.99500000      35.61000000      45.97200000
 H      28.78400000      36.47500000      46.32700000
 H      28.20500000      35.08300000      46.17000000
 O      20.28000000      18.67400000      43.53900000
 H      20.94100000      18.01200000      43.88000000
 H      20.97000000      19.32300000      43.14800000
 O      25.92000000      27.41900000      48.94600000
 H      26.79700000      27.10200000      49.38900000
 H      26.05500000      26.99900000      48.11100000
 O      35.59900000      37.44500000      45.24000000
 H      35.53200000      36.81100000      44.48300000
 H      34.75800000      37.19200000      45.67600000
 O      37.76100000      24.52100000      48.41900000
 H      36.79400000      24.43500000      48.45600000
 H      37.88400000      25.00500000      47.59700000
 O      24.79300000      15.56500000      44.61700000
 H      25.67700000      15.92000000      44.42800000
 H      24.55000000      15.26800000      43.70100000
 O      35.38800000      22.21200000      48.64800000
 H      34.94700000      22.19700000      49.46600000
 H      35.40700000      21.28100000      48.42500000
 O      37.32000000      32.33400000      46.29300000
 H      37.55000000      33.23300000      46.62100000
 H      37.63700000      32.39200000      45.37400000
 O      36.78700000      14.51800000      44.48200000
 H      37.41400000      15.26400000      44.71900000
 H      37.45500000      13.82200000      44.40100000
 O      21.04700000      28.74300000      46.10300000
 H      20.49100000      28.84200000      45.29100000
 H      21.77500000      29.36200000      45.90300000
 O      29.84000000      14.88900000      44.87400000
 H      29.57400000      15.69400000      44.39100000
 H      29.21800000      14.21800000      44.56700000
 O      32.71600000      14.16700000      45.95100000
 H      31.75400000      14.30500000      45.80100000
 H      32.92500000      13.84000000      45.02500000
 O      36.49500000      19.13300000      42.97600000
 H      37.00200000      19.90400000      43.30600000
 H      37.30200000      18.59400000      42.66400000
 O      30.51400000      40.54800000      42.94300000
 H      29.82300000      40.98000000      42.38900000
 H      31.13300000      40.28900000      42.24300000
 O      29.55400000      26.36500000      47.30600000
 H      30.00400000      26.01700000      48.08800000
 H      29.02300000      25.50600000      47.06600000
 O      22.11100000      26.20100000      45.08800000
 H      21.70500000      27.02600000      45.39800000
 H      22.23000000      25.69500000      45.89100000
 O      20.11100000      13.84400000      48.31100000
 H      20.18800000      13.33800000      49.18200000
 H      21.06300000      14.08700000      48.17100000
 O      34.17500000      25.33000000      42.46100000
 H      34.02500000      24.43300000      42.86300000
 H      33.55400000      25.23000000      41.69900000
 O      38.61900000      34.33500000      47.72900000
 H      38.79700000      35.30500000      48.00500000
 H      38.80700000      33.95800000      48.59400000
 O      26.11500000      34.03800000      44.99500000
 H      25.16100000      33.77800000      44.81100000
 H      26.55500000      33.28500000      44.58000000
 O      33.17400000      24.91400000      46.21200000
 H      32.64400000      24.51200000      47.00000000
 H      34.04200000      24.99500000      46.70500000
 O      30.50300000      20.31200000      44.08300000
 H      31.01100000      20.67400000      44.83300000
 H      29.77000000      19.88500000      44.59100000
 O      23.78400000      23.48000000      43.37000000
 H      23.78800000      22.90300000      42.59300000
 H      24.64300000      23.95900000      43.25600000
 O      23.72400000      38.12900000      47.89900000
 H      23.54600000      37.39400000      47.31000000
 H      22.95400000      38.67700000      47.77200000
 O      26.33500000      25.81300000      46.51100000
 H      25.72400000      25.07800000      46.39100000
 H      27.17800000      25.24400000      46.66400000
 O      28.96300000      24.19200000      42.96800000
 H      29.37300000      23.44400000      42.46200000
 H      29.43500000      24.05700000      43.79200000
 O      34.95400000      15.60200000      42.87900000
 H      35.08100000      14.88400000      42.20900000
 H      35.56000000      15.24800000      43.56800000
 O      32.59000000      34.84500000      44.47100000
 H      32.78100000      35.69600000      44.96800000
 H      31.72500000      35.08400000      44.09600000
 O      28.23000000      32.38700000      48.75900000
 H      27.50200000      33.01500000      48.44900000
 H      28.16600000      31.73300000      48.02700000
 O      35.75000000      14.12300000      47.01500000
 H      35.20100000      14.93500000      47.10500000
 H      36.00900000      14.16000000      46.06000000
 O      32.68600000      32.49900000      46.16900000
 H      32.19100000      32.69500000      47.01300000
 H      32.67600000      33.36500000      45.72900000
 O      37.83700000      30.28200000      47.82900000
 H      37.57000000      31.00100000      47.18900000
 H      37.28700000      29.53700000      47.55000000
 O      29.29800000      32.41500000      44.26800000
 H      30.04600000      31.85400000      44.29700000
 H      28.54100000      31.77400000      44.17400000
 O      40.79000000      37.86700000      47.18100000
 H      41.39600000      37.75000000      46.45300000
 H      39.95800000      38.00000000      46.65200000
 O      35.97800000      17.05500000      45.70200000
 H      35.15000000      16.92000000      46.18300000
 H      35.72900000      16.85000000      44.77900000
 O      35.59800000      19.52700000      48.31700000
 H      35.23600000      18.99500000      49.03500000
 H      36.33400000      19.03000000      48.03400000
 O      22.55300000      20.56600000      46.58700000
 H      23.14300000      20.82100000      47.33900000
 H      22.89000000      19.72700000      46.35100000
 O      26.89300000      29.06000000      42.90300000
 H      27.82400000      29.22400000      42.77800000
 H      26.88500000      28.55700000      43.67600000
 O      22.58000000      15.29400000      47.95900000
 H      22.14700000      15.45200000      48.84300000
 H      22.57200000      16.20200000      47.60800000
 O      20.59600000      23.40700000      44.71500000
 H      21.05800000      24.26800000      44.52000000
 H      20.89100000      22.88500000      43.97000000
 O      30.24400000      28.88300000      46.71400000
 H      30.63400000      29.39300000      47.40700000
 H      30.19900000      28.01000000      47.10700000
 O      37.55500000      14.91100000      48.75700000
 H      38.14800000      14.29500000      48.22100000
 H      36.72500000      14.71100000      48.23800000
 O      39.35500000      30.01400000      42.93900000
 H      39.67900000      30.31700000      42.06500000
 H      38.37500000      30.09300000      42.73400000
 O      23.23900000      32.72800000      44.61700000
 H      23.57100000      33.04100000      43.72900000
 H      23.14000000      31.77200000      44.43900000
 O      36.09700000      28.79200000      46.22800000
 H      35.13300000      28.55700000      46.29200000
 H      36.42500000      27.90100000      45.97200000
 O      40.49100000      33.98600000      45.71300000
 H      39.79400000      33.99100000      46.36700000
 H      40.09000000      33.41800000      45.01800000
 O      20.81000000      39.29300000      44.88300000
 H      20.97300000      39.45500000      45.79700000
 H      21.64400000      38.94800000      44.53100000
 O      29.68800000      35.02400000      43.53900000
 H      29.49400000      34.03700000      43.76900000
 H      29.58100000      35.39100000      44.47400000
 O      38.34700000      17.24400000      42.55500000
 H      38.81200000      17.58700000      41.76400000
 H      38.74900000      16.34800000      42.66600000
 O      26.40800000      21.62500000      46.57800000
 H      25.55200000      22.11500000      46.46300000
 H      26.18400000      20.83000000      46.03600000
 O      36.10000000      22.49100000      45.76800000
 H      35.89300000      23.47700000      45.76200000
 H      35.83800000      22.25500000      46.64700000
 O      29.34600000      20.11300000      48.81500000
 H      29.78200000      20.39400000      48.05900000
 H      28.57000000      20.66000000      48.93300000
 O      28.14300000      38.50600000      46.26600000
 H      27.30700000      38.92600000      46.44800000
 H      28.11600000      38.46200000      45.24100000
 O      28.55900000      15.09000000      47.59200000
 H      28.90500000      15.02100000      46.65200000
 H      28.44000000      16.08300000      47.61800000
 O      34.91200000      32.95100000      47.77000000
 H      35.66200000      32.67300000      47.23400000
 H      34.16800000      32.74100000      47.15500000
 O      31.00700000      32.80000000      48.50500000
 H      31.08200000      33.51500000      49.17600000
 H      30.13100000      32.46000000      48.69800000
 O      22.93000000      36.64800000      45.78300000
 H      23.69900000      36.49500000      45.17800000
 H      22.37000000      37.14500000      45.25900000
 O      24.38600000      28.12300000      45.99800000
 H      23.90500000      27.87400000      46.79800000
 H      25.21200000      27.61000000      46.12600000
 O      33.56300000      22.53000000      44.01900000
 H      34.32200000      22.30500000      44.67800000
 H      33.46700000      21.65100000      43.66100000
 O      29.76200000      40.64800000      47.22100000
 H      29.05500000      40.97200000      47.82900000
 H      29.32700000      40.00600000      46.69600000
 O      37.48600000      21.35800000      43.59000000
 H      37.18000000      21.95300000      44.39900000
 H      37.25000000      21.98800000      42.85600000
 O      23.31400000      38.76800000      43.53200000
 H      24.05900000      39.47300000      43.54200000
 H      23.93800000      38.02700000      43.56600000
 O      38.11400000      26.25100000      45.75800000
 H      38.73300000      26.98300000      45.96000000
 H      38.45900000      25.95100000      44.88500000
 O      24.26100000      23.42800000      46.15100000
 H      23.91300000      23.27000000      45.23700000
 H      23.42600000      23.30400000      46.68300000
 O      38.61800000      38.13000000      45.83400000
 H      38.41500000      37.76200000      44.96300000
 H      37.74500000      38.40400000      46.15800000
 O      32.62200000      39.96600000      48.70200000
 H      31.81900000      39.97800000      48.13900000
 H      32.54500000      40.86200000      49.16900000
 O      26.49100000      34.12800000      47.67900000
 H      26.23600000      34.01500000      46.73100000
 H      25.58700000      33.97000000      48.08800000
 O      22.69900000      27.04500000      48.04100000
 H      23.11300000      26.95200000      48.93900000
 H      21.90100000      26.50500000      48.15500000
 O      28.43500000      17.67000000      47.57200000
 H      27.53700000      17.89800000      47.91600000
 H      28.98200000      18.34100000      47.99300000
 O      38.93400000      36.03300000      44.00100000
 H      39.85900000      36.30200000      44.03900000
 H      39.02400000      35.05400000      44.15800000
 O      21.70300000      23.30700000      47.19200000
 H      21.17800000      23.98000000      47.73800000
 H      21.05400000      23.27200000      46.41500000
 O      38.78800000      17.18600000      49.45500000
 H      38.40000000      16.29700000      49.39500000
 H      38.65000000      17.50100000      48.51500000
 O      32.15800000      17.78800000      44.42800000
 H      32.17200000      17.37300000      43.52400000
 H      32.04900000      18.70800000      44.18000000
 O      25.48200000      30.11900000      48.18800000
 H      26.34200000      30.14100000      47.72400000
 H      25.38200000      29.14900000      48.21000000
 O      32.31500000      39.93000000      45.14200000
 H      31.77800000      39.96000000      44.29100000
 H      31.74100000      40.35600000      45.75200000
 O      32.99300000      16.93200000      46.75200000
 H      32.60500000      16.01400000      46.70100000
 H      32.53300000      17.27100000      45.89900000
 O      38.09400000      18.24800000      46.99100000
 H      38.68500000      18.38700000      46.17800000
 H      37.40400000      17.75300000      46.49800000
 O      32.03200000      23.17800000      48.24000000
 H      31.18700000      23.54500000      48.63000000
 H      32.58000000      23.29500000      49.03900000
 O      35.07400000      26.88900000      48.50800000
 H      34.16300000      26.64400000      48.85700000
 H      35.48200000      26.94500000      49.46600000
 O      23.06600000      29.97300000      44.77300000
 H      22.99100000      29.51200000      43.85400000
 H      23.64300000      29.19300000      45.19300000
 O      24.13300000      13.50300000      46.24900000
 H      23.58300000      14.14400000      46.83300000
 H      24.37000000      14.19100000      45.53000000
 O      33.32100000      29.59100000      47.68100000
 H      33.08400000      30.53200000      47.41400000
 H      33.70900000      29.73100000      48.53400000
 O      39.67700000      17.94500000      44.76100000
 H      40.56600000      17.75600000      44.46000000
 H      39.11800000      17.69500000      44.01200000
 O      32.03700000      29.76900000      44.45300000
 H      32.63100000      29.01700000      44.42800000
 H      31.52900000      29.60100000      45.25400000
 O      28.20100000      18.97100000      45.15600000
 H      28.33100000      18.30400000      44.45900000
 H      28.35800000      18.33600000      45.93300000
 O      29.53300000      29.59300000      42.44600000
 H      29.63100000      28.68500000      42.03800000
 H      30.39200000      29.70700000      42.81800000
 O      27.83200000      30.05100000      46.98700000
 H      28.78200000      29.83900000      47.19300000
 H      27.70700000      29.41400000      46.27400000
 O      25.11900000      36.91900000      44.21400000
 H      25.70800000      36.26600000      44.58700000
 H      25.49000000      37.00100000      43.29800000
 O      27.59200000      27.83300000      45.36600000
 H      28.43800000      27.51300000      45.63700000
 H      27.03000000      27.10200000      45.66700000
 O      40.17100000      21.38400000      43.97700000
 H      39.30400000      20.94900000      43.91900000
 H      40.23500000      21.58100000      44.90000000
 O      28.91500000      17.12100000      43.26100000
 H      29.36100000      17.35300000      42.41100000
 H      28.32300000      16.37500000      42.95700000
 O      23.41600000      17.89700000      46.05300000
 H      24.14600000      17.65400000      45.37600000
 H      22.70000000      17.38300000      45.71700000
 O      33.90700000      20.09900000      46.09300000
 H      34.51300000      19.58500000      46.62500000
 H      34.25700000      20.02700000      45.18100000
 O      28.01800000      38.70300000      43.35300000
 H      28.81500000      39.22900000      43.08900000
 H      27.41500000      38.98900000      42.66900000
 O      40.53000000      29.63100000      48.67300000
 H      39.72400000      29.95800000      48.25700000
 H      40.23100000      28.90300000      49.22500000
 O      35.26400000      35.39100000      43.36800000
 H      35.41800000      34.65900000      42.75700000
 H      34.38500000      35.14300000      43.77700000
 O      39.01800000      26.18900000      43.15900000
 H      38.40300000      26.89800000      43.22800000
 H      39.24300000      26.09800000      42.22500000
 O      39.44900000      28.41000000      45.41000000
 H      40.29200000      28.89400000      45.61300000
 H      39.31400000      28.76800000      44.50100000
 O      40.82600000      21.97500000      46.94900000
 H      40.26400000      21.77000000      47.65400000
 H      41.52300000      22.56000000      47.37000000
 O      33.58500000      31.78700000      43.47200000
 H      33.07000000      32.29900000      44.17200000
 H      32.95900000      31.01500000      43.51300000
 O      25.75800000      19.62600000      44.77600000
 H      26.64900000      19.48000000      45.06500000
 H      25.82400000      19.92200000      43.83600000
 O      35.47500000      27.47700000      43.49000000
 H      35.14700000      26.56400000      43.42300000
 H      34.87600000      27.87500000      44.07300000
 O      26.43000000      31.75800000      43.35000000
 H      26.37800000      30.83500000      43.26600000
 H      26.40200000      32.13200000      42.46400000
 O      35.06600000      40.23600000      44.78300000
 H      35.50400000      39.30800000      44.93000000
 H      34.13300000      39.87100000      44.69900000
 O      21.66100000      33.21700000      46.69600000
 H      22.16900000      32.70200000      47.35500000
 H      22.20300000      33.04600000      45.87400000
 O      35.86600000      25.36200000      46.47700000
 H      35.52800000      26.06400000      47.06600000
 H      36.68400000      25.81600000      46.15900000
 O      38.55000000      21.64000000      48.80300000
 H      37.69500000      21.18500000      48.81700000
 H      38.32600000      22.52400000      48.45100000
 O      37.03700000      38.47100000      48.02700000
 H      36.02900000      38.36500000      47.97900000
 H      37.23300000      37.79500000      48.69700000
 O      25.63500000      17.60900000      48.21400000
 H      25.30300000      17.95900000      49.08100000
 H      24.81500000      17.71900000      47.69300000
