570
XYZ file of cluster: frame_15000_c5d2e.2279c.9dece - created by MolEdiTo
 O      37.15000000      22.08500000      35.60500000
 H      36.78200000      22.98100000      35.76300000
 H      38.08800000      22.22900000      35.82900000
 O      35.64900000      10.17100000      30.57900000
 H      36.60100000      10.46600000      30.60100000
 H      35.23200000      11.02200000      30.19500000
 O      40.89700000      39.55500000      39.29800000
 H      40.81300000      39.86100000      38.35700000
 H      40.16400000      39.99300000      39.71500000
 O      35.51300000      33.01100000      40.47100000
 H      34.88300000      32.39400000      40.98200000
 H      35.76900000      32.41700000      39.79700000
 O      40.39100000      21.06800000      32.99000000
 H      39.45500000      21.16300000      32.64600000
 H      40.85800000      21.50600000      32.26200000
 O      38.26100000      34.66900000      34.46700000
 H      37.57800000      35.24800000      34.79400000
 H      38.98900000      35.28400000      34.29900000
 O      36.95400000      31.83800000      35.89800000
 H      37.86400000      31.71700000      35.43800000
 H      36.83700000      32.79300000      35.62000000
 O      38.81900000      14.79600000      40.61500000
 H      39.20300000      14.06700000      40.07300000
 H      38.85600000      14.41900000      41.49900000
 O      40.64400000      35.70900000      33.64600000
 H      40.35800000      36.62300000      33.78600000
 H      40.78500000      35.68600000      32.67400000
 O      37.65400000      36.72100000      40.04600000
 H      38.18500000      36.14800000      39.48400000
 H      37.87000000      36.40000000      40.95000000
 O      34.58700000      16.08800000      31.22600000
 H      33.94400000      16.69000000      31.66000000
 H      35.38100000      16.27200000      31.78400000
 O      39.70500000      18.33600000      39.01200000
 H      40.64100000      18.72500000      39.07300000
 H      39.40000000      18.95300000      38.29700000
 O      36.92900000      17.07100000      32.33400000
 H      36.77100000      18.01100000      32.21200000
 H      37.56100000      17.12700000      33.09900000
 O      34.71700000      39.87900000      37.20800000
 H      35.04700000      40.77400000      37.37000000
 H      35.56300000      39.40100000      37.19100000
 O      35.65800000      30.89700000      38.36000000
 H      34.70500000      30.68900000      38.05900000
 H      35.90400000      31.42000000      37.54500000
 O      38.12800000      13.67700000      32.52700000
 H      37.66700000      12.78900000      32.61200000
 H      37.66500000      14.03700000      31.79500000
 O      37.94500000      25.34200000      35.75300000
 H      38.66900000      24.73700000      35.61300000
 H      38.29100000      26.20700000      35.44900000
 O      34.39700000       8.48400000      39.32900000
 H      35.12900000       8.12700000      38.78500000
 H      34.52500000       7.88100000      40.12100000
 O      38.98900000      16.99200000      33.88600000
 H      39.17400000      17.76000000      34.50300000
 H      39.32000000      16.23500000      34.39800000
 O      36.34200000       9.00300000      28.05200000
 H      36.21100000       9.40500000      28.93200000
 H      36.14400000       8.06500000      28.26700000
 O      39.35100000      26.43400000      38.93100000
 H      38.55600000      25.95700000      38.80300000
 H      39.19900000      27.27600000      38.46500000
 O      35.62800000      19.44800000      31.85400000
 H      35.72400000      19.68400000      30.92300000
 H      36.23700000      20.11800000      32.21400000
 O      37.81200000      18.80400000      27.54200000
 H      37.01300000      18.51400000      28.01400000
 H      37.93800000      18.03100000      26.96500000
 O      38.50000000       7.16900000      31.30700000
 H      38.85500000       7.59000000      32.13100000
 H      38.54200000       7.91100000      30.67800000
 O      36.06900000      29.31600000      35.29800000
 H      35.35700000      29.33500000      34.60800000
 H      36.24000000      30.33000000      35.35000000
 O      40.37800000       8.23500000      38.49000000
 H      39.85700000       8.13400000      37.63200000
 H      39.69800000       8.75900000      38.95600000
 O      39.81700000      13.44600000      38.53200000
 H      39.14800000      13.91000000      37.97700000
 H      40.19600000      12.75700000      37.92800000
 O      36.48300000      23.37700000      32.40200000
 H      37.04400000      24.22100000      32.50400000
 H      35.89600000      23.47500000      33.15700000
 O      40.25000000      30.39400000      38.93600000
 H      39.70900000      29.85300000      38.35300000
 H      41.03200000      30.58100000      38.30800000
 O      40.68700000      24.60900000      33.30900000
 H      40.37300000      23.79000000      32.79200000
 H      40.67800000      25.28600000      32.58900000
 O      36.61900000      14.46000000      39.14700000
 H      37.21400000      14.69200000      39.84900000
 H      36.91400000      14.98200000      38.41200000
 O      39.84400000      19.63200000      35.26800000
 H      39.39700000      20.34600000      35.69700000
 H      40.28700000      20.08000000      34.51700000
 O      37.06700000      22.74800000      39.57800000
 H      36.82200000      23.72400000      39.45200000
 H      36.50200000      22.33600000      38.91000000
 O      38.25900000      34.55600000      28.73900000
 H      38.91400000      34.97600000      28.15800000
 H      38.51900000      33.60700000      28.60800000
 O      38.31300000      33.69300000      31.29500000
 H      39.25100000      33.96800000      31.49200000
 H      38.17600000      34.14200000      30.43600000
 O      35.71600000      24.91300000      29.83900000
 H      36.66900000      25.07900000      29.72000000
 H      35.70600000      24.10300000      30.32200000
 O      40.89200000      40.20400000      36.24900000
 H      40.88700000      40.42300000      35.31400000
 H      41.78000000      40.50600000      36.52500000
 O      34.90400000      10.89000000      40.21400000
 H      35.58000000      11.19400000      39.57000000
 H      34.92200000       9.95100000      39.96500000
 O      40.38300000      28.74500000      31.65900000
 H      40.53100000      29.14100000      32.57200000
 H      40.01000000      29.52900000      31.23400000
 O      38.53100000      20.02700000      29.77400000
 H      38.68300000      19.41800000      30.49400000
 H      38.41900000      19.42200000      29.02200000
 O      37.02700000      28.98000000      40.14400000
 H      36.45900000      28.38100000      40.64600000
 H      36.24600000      29.56300000      39.80000000
 O      36.81200000      16.83200000      37.13700000
 H      36.34800000      17.02600000      37.95000000
 H      36.62200000      17.68100000      36.64000000
 O      39.70400000      37.36700000      36.76200000
 H      39.58100000      37.61400000      35.79800000
 H      40.36600000      38.06700000      36.98500000
 O      40.27100000      26.14400000      31.25000000
 H      40.46700000      27.12000000      31.27100000
 H      40.67100000      25.95800000      30.38100000
 O      35.96600000      34.51900000      32.55000000
 H      36.42400000      34.45800000      33.42700000
 H      36.60000000      34.02700000      32.00000000
 O      34.41400000      28.83200000      29.82600000
 H      34.17600000      29.45000000      30.49600000
 H      35.39500000      28.89000000      29.90300000
 O      36.78000000      40.28700000      32.39600000
 H      35.86200000      40.24700000      32.09300000
 H      36.98900000      41.20600000      32.07100000
 O      34.59200000      12.46200000      29.72000000
 H      35.25500000      13.18400000      29.95600000
 H      33.85700000      12.64100000      30.38200000
 O      38.42500000      22.45400000      28.47200000
 H      37.84400000      22.22800000      27.63700000
 H      38.05800000      21.73900000      29.08100000
 O      38.17000000      28.71100000      37.75400000
 H      37.46800000      29.03400000      37.19200000
 H      37.74700000      28.72800000      38.66200000
 O      40.27600000      34.55900000      37.49500000
 H      39.96500000      35.50800000      37.40200000
 H      41.10600000      34.58900000      36.98200000
 O      38.00300000      11.73600000      35.67400000
 H      38.90900000      11.41100000      35.44800000
 H      37.62200000      11.92300000      34.77300000
 O      38.32400000      10.99300000      30.87600000
 H      38.79300000      10.23900000      30.42200000
 H      38.84300000      11.73300000      30.45500000
 O      36.81900000      30.42500000      28.63200000
 H      37.25600000      29.61600000      29.06000000
 H      36.96200000      30.08100000      27.68700000
 O      40.85500000      14.54000000      35.26800000
 H      41.78400000      14.30700000      35.50700000
 H      40.61000000      15.09300000      36.03300000
 O      39.02800000       8.88700000      29.22200000
 H      39.01600000       8.00300000      28.68200000
 H      38.79000000       9.51900000      28.50300000
 O      38.84400000       6.76500000      35.96400000
 H      38.63200000       5.88600000      36.10400000
 H      38.86300000       6.95700000      35.02400000
 O      35.74100000      17.33000000      39.40900000
 H      35.90800000      17.96400000      40.13000000
 H      35.42900000      16.58600000      39.95900000
 O      34.96700000      21.21800000      37.83200000
 H      34.16200000      20.95700000      38.33900000
 H      34.67700000      22.20600000      37.74300000
 O      40.61500000      11.00800000      35.17500000
 H      40.65700000      10.03900000      35.16500000
 H      41.35300000      11.19300000      34.57200000
 O      37.61200000      26.34500000      27.82300000
 H      37.09200000      25.54300000      27.54900000
 H      37.75700000      26.77800000      26.92500000
 O      39.29800000      38.23500000      34.08600000
 H      38.74400000      38.23100000      33.29600000
 H      39.99200000      38.90300000      33.80700000
 O      35.99700000      36.02600000      27.97700000
 H      35.85200000      36.24800000      28.92600000
 H      36.95000000      35.75700000      27.98900000
 O      38.16500000      25.78900000      32.59400000
 H      38.89800000      25.79000000      31.98100000
 H      38.54900000      26.36300000      33.27600000
 O      35.96300000      39.50100000      28.73500000
 H      35.84000000      40.48400000      28.71300000
 H      35.03700000      39.27700000      28.99800000
 O      39.11200000      32.24900000      27.93700000
 H      39.60400000      32.00700000      27.13700000
 H      38.48000000      31.53100000      28.00500000
 O      39.41400000      16.08100000      37.31300000
 H      38.53600000      16.52700000      37.16100000
 H      39.65100000      16.55700000      38.13800000
 O      40.20400000      22.53000000      30.63400000
 H      39.79500000      22.67400000      29.72900000
 H      41.06700000      22.98500000      30.44200000
 O      39.38100000      32.15100000      34.61900000
 H      39.98800000      32.36900000      35.33900000
 H      38.98600000      33.03100000      34.51900000
 O      34.77800000      37.41000000      39.97500000
 H      34.88000000      36.72500000      40.63400000
 H      35.63800000      37.84500000      39.93900000
 O      36.60300000      25.87400000      39.33200000
 H      36.16400000      26.11500000      40.14900000
 H      36.04400000      26.36200000      38.65900000
 O      39.17300000      12.91900000      29.27400000
 H      38.58800000      13.56200000      28.86100000
 H      39.38000000      12.31500000      28.44500000
 O      37.54600000      28.03800000      30.10800000
 H      37.55100000      27.31600000      29.41200000
 H      38.06900000      27.61900000      30.80400000
 O      39.90100000      22.16500000      39.78900000
 H      40.09600000      21.87000000      40.66200000
 H      38.94600000      22.04000000      39.76400000
 O      39.91300000      32.95800000      39.80500000
 H      39.82500000      32.21900000      39.20300000
 H      40.13600000      33.66300000      39.15500000
 O      39.72100000      22.95200000      35.60400000
 H      40.12000000      23.37400000      34.79400000
 H      40.40500000      22.32000000      35.80800000
 O      40.14700000      25.10200000      28.48900000
 H      39.92900000      24.21800000      27.95500000
 H      39.40000000      25.62300000      28.31600000
 O      37.23100000      38.68800000      36.47400000
 H      38.03900000      38.27000000      36.83400000
 H      36.88800000      37.89700000      35.99600000
 O      36.01600000      19.19300000      35.95000000
 H      36.10900000      20.15800000      35.90200000
 H      35.45900000      19.09200000      36.79200000
 O      35.77600000      17.94900000      29.30500000
 H      35.05600000      17.52400000      29.79400000
 H      35.37600000      18.79900000      29.10900000
 O      39.53600000      31.03900000      30.55600000
 H      39.68400000      31.99200000      30.47000000
 H      38.62800000      31.05600000      30.18300000
 O      40.19300000      17.26200000      31.43100000
 H      39.74000000      16.54200000      31.91000000
 H      40.01000000      17.97600000      32.05100000
 O      40.28600000      40.67400000      33.61700000
 H      40.07900000      41.36900000      32.91600000
 H      39.41600000      40.71900000      34.13300000
 O      40.30500000      29.62900000      34.21900000
 H      41.04000000      29.82000000      34.88200000
 H      39.84500000      30.48100000      34.17500000
 O      38.13600000      38.12300000      31.42500000
 H      37.37100000      37.61500000      31.11900000
 H      37.60400000      38.90400000      31.75700000
 O      36.75100000      14.34300000      29.92100000
 H      36.57200000      15.29900000      30.10100000
 H      36.95100000      14.31800000      28.95100000
 O      37.76200000       9.34700000      38.97100000
 H      37.41800000      10.23100000      38.68600000
 H      37.45800000       8.73800000      38.25800000
 O      39.12600000       8.63100000      33.48400000
 H      39.84500000       8.38700000      34.11700000
 H      39.52400000       9.38400000      32.98100000
 O      36.20600000      36.19900000      35.33500000
 H      35.57700000      36.74700000      34.75900000
 H      35.59400000      35.96600000      36.06900000
 O      38.80900000      38.57900000      28.68500000
 H      38.87400000      38.06300000      29.56100000
 H      37.88700000      38.87200000      28.84100000
 O      36.99100000       9.23100000      35.60300000
 H      37.10800000       8.97900000      34.72600000
 H      37.24900000      10.09300000      35.72100000
 O      35.50000000      15.35900000      34.95000000
 H      36.22800000      15.43300000      34.26700000
 H      35.97200000      15.73700000      35.73400000
 O      36.63700000      11.82400000      38.36700000
 H      36.63800000      12.68500000      38.84100000
 H      37.19300000      12.03900000      37.59200000
 O      35.73800000      36.67100000      30.70200000
 H      34.76900000      36.92200000      30.76900000
 H      35.76600000      35.85100000      31.23700000
 O      38.21800000      27.90400000      34.35500000
 H      37.45500000      28.34800000      34.72400000
 H      38.87500000      28.61500000      34.33200000
 O      35.68200000      27.16000000      33.04000000
 H      35.89800000      26.57800000      32.31100000
 H      36.54700000      27.54500000      33.25200000
 O      36.52900000      11.59600000      33.28600000
 H      36.83300000      11.07100000      32.51600000
 H      35.59600000      11.76500000      33.03300000
 O      37.41100000      20.94700000      33.20500000
 H      37.25900000      21.91700000      32.89200000
 H      37.40800000      21.23000000      34.17900000
 O      43.09500000      35.88100000      28.81500000
 H      42.28400000      36.06000000      28.25700000
 H      43.73100000      35.46100000      28.19200000
 O      46.49300000      28.45000000      31.95400000
 H      45.74600000      29.02700000      32.11000000
 H      47.15800000      28.93300000      32.54200000
 O      45.62500000      34.02800000      39.20000000
 H      45.54900000      34.85800000      38.71500000
 H      46.05600000      34.32500000      40.01100000
 O      48.78400000      24.43800000      32.15000000
 H      49.73600000      24.73500000      32.10400000
 H      48.46400000      24.76700000      31.25300000
 O      47.12900000      32.82800000      34.27000000
 H      46.89200000      32.57100000      33.39800000
 H      46.96600000      31.95800000      34.76000000
 O      44.84000000      36.02000000      35.88100000
 H      45.84600000      35.81600000      35.84400000
 H      44.84200000      36.83600000      35.36300000
 O      45.46000000      34.85600000      31.71300000
 H      45.85500000      33.98400000      31.73600000
 H      45.56700000      35.05600000      30.71400000
 O      43.02100000       8.38400000      35.19300000
 H      43.38000000       7.51100000      34.89900000
 H      43.55500000       8.49100000      36.01100000
 O      45.90600000      33.57100000      29.02100000
 H      45.32200000      33.96500000      28.36500000
 H      45.96400000      32.66100000      28.74800000
 O      44.81400000      25.22800000      35.11600000
 H      45.25200000      25.54300000      34.27000000
 H      43.89400000      25.16000000      34.80600000
 O      44.65800000      16.30500000      38.10500000
 H      45.01700000      15.78700000      37.37500000
 H      44.32000000      17.09300000      37.54400000
 O      44.02000000      31.10100000      30.30200000
 H      43.02900000      31.09100000      30.54100000
 H      43.97700000      30.66200000      29.47300000
 O      46.26300000       9.93300000      35.85400000
 H      47.04200000       9.75800000      35.34700000
 H      46.29600000       9.18000000      36.55500000
 O      48.25800000      13.30400000      29.72000000
 H      48.59900000      13.25600000      28.77400000
 H      49.20400000      13.47200000      30.12100000
 O      47.24800000      35.88500000      40.42900000
 H      48.02800000      36.25300000      39.94300000
 H      47.11800000      36.56900000      41.10100000
 O      44.87900000      36.87000000      38.71700000
 H      45.75800000      36.60100000      38.85200000
 H      44.67200000      36.69500000      37.78800000
 O      45.28000000      22.21000000      28.42700000
 H      44.92200000      21.31900000      28.64800000
 H      45.09400000      22.66400000      29.25300000
 O      44.27100000      33.38800000      34.73000000
 H      43.80100000      34.16300000      34.27800000
 H      45.15400000      33.63100000      34.42400000
 O      44.80800000      11.04900000      33.70100000
 H      45.37500000      10.60800000      34.31800000
 H      45.21300000      11.91700000      33.68500000
 O      45.44300000      10.11200000      29.69400000
 H      44.74500000      10.80600000      29.65800000
 H      45.81800000      10.26300000      28.77500000
 O      48.07700000      16.34400000      33.53700000
 H      48.07300000      17.33600000      33.76400000
 H      47.13800000      16.33300000      33.36600000
 O      45.43900000      22.27900000      33.04100000
 H      46.25100000      22.57100000      33.51600000
 H      45.63800000      21.35800000      32.92500000
 O      49.26800000      31.96600000      28.71600000
 H      49.45100000      31.18300000      28.18200000
 H      48.24900000      32.01800000      28.61000000
 O      44.29500000      29.62200000      27.95300000
 H      43.72100000      30.07100000      27.30100000
 H      44.01800000      28.70900000      27.96200000
 O      42.72400000      14.11900000      32.55600000
 H      41.78400000      13.80000000      32.51500000
 H      42.71400000      14.36000000      33.54600000
 O      44.88500000      15.53000000      27.98600000
 H      44.33400000      14.81700000      27.60500000
 H      45.49300000      15.70400000      27.23400000
 O      45.74400000      14.82800000      35.78800000
 H      46.60900000      14.66000000      36.25900000
 H      46.09900000      15.02000000      34.88800000
 O      44.80900000      23.52000000      30.82200000
 H      45.09600000      22.98000000      31.63600000
 H      44.47700000      24.30200000      31.25100000
 O      46.76000000      19.59800000      30.56400000
 H      46.16700000      19.28400000      31.24500000
 H      46.66300000      18.81800000      29.95400000
 O      47.57800000      35.97200000      36.31100000
 H      48.23400000      35.64500000      35.69000000
 H      48.06500000      36.36600000      37.04800000
 O      42.72900000      10.19000000      40.57200000
 H      43.34600000      10.91400000      40.89500000
 H      42.73700000      10.48700000      39.60900000
 O      48.71800000       7.80600000      34.66400000
 H      48.22900000       7.18300000      34.08900000
 H      48.51200000       8.65700000      34.21500000
 O      46.25600000      38.44100000      28.79400000
 H      45.89200000      38.56400000      29.71000000
 H      46.62300000      37.50200000      28.95600000
 O      46.39200000      13.14000000      33.12200000
 H      46.02900000      13.52100000      32.32700000
 H      47.31300000      12.85800000      32.82700000
 O      46.71000000      30.80600000      28.53500000
 H      46.84100000      30.35300000      27.63300000
 H      46.07700000      30.07800000      28.87500000
 O      45.59100000      20.02700000      35.24000000
 H      46.32300000      20.21800000      35.86400000
 H      46.07100000      19.50700000      34.56800000
 O      42.80800000      34.35200000      31.04800000
 H      42.86000000      34.68300000      30.13500000
 H      43.72600000      34.37800000      31.32600000
 O      44.84200000      19.08200000      32.50600000
 H      44.05800000      19.65300000      32.33800000
 H      44.44700000      18.20500000      32.43000000
 O      43.47300000      15.07800000      40.02300000
 H      43.78900000      15.62400000      39.23600000
 H      42.90400000      14.48800000      39.40600000
 O      46.43300000      17.34800000      40.11600000
 H      45.94700000      16.85500000      39.44800000
 H      46.21000000      18.28200000      39.79900000
 O      43.27700000      11.48600000      38.03700000
 H      44.20200000      11.53500000      37.82800000
 H      42.87900000      11.13700000      37.23300000
 O      47.54200000      35.88700000      29.31900000
 H      47.45400000      34.93500000      29.08600000
 H      48.47300000      36.02400000      29.01800000
 O      42.77000000      17.39000000      28.72000000
 H      43.52800000      16.79100000      28.82200000
 H      42.44200000      17.38400000      29.62800000
 O      45.89200000      25.52500000      38.18000000
 H      45.63500000      25.10800000      37.32200000
 H      44.98400000      25.56600000      38.55700000
 O      47.88000000      11.21600000      31.35500000
 H      47.18800000      10.69900000      30.88000000
 H      48.22200000      11.83800000      30.69300000
 O      47.17700000      32.12000000      38.38300000
 H      46.41100000      32.75100000      38.55500000
 H      47.90700000      32.71900000      38.46800000
 O      42.85700000      37.53400000      30.81800000
 H      42.80800000      36.91800000      30.07100000
 H      41.95900000      37.84400000      30.85800000
 O      43.22900000      12.01400000      30.49800000
 H      43.52400000      12.59200000      31.22800000
 H      42.62800000      12.61600000      29.99000000
 O      46.10700000      12.15800000      37.65500000
 H      46.75800000      12.74300000      37.30400000
 H      46.09500000      11.39900000      37.03100000
 O      43.28100000      20.14700000      38.92300000
 H      42.66700000      20.81700000      39.19600000
 H      43.52900000      20.48500000      38.01100000
 O      43.84100000      18.16700000      36.08000000
 H      44.63600000      18.64800000      35.78100000
 H      43.14900000      18.84100000      35.88200000
 O      48.97400000      29.49300000      37.86500000
 H      48.08900000      29.10700000      38.15100000
 H      49.38600000      29.51800000      38.73300000
 O      43.35700000      20.14600000      28.50100000
 H      43.24200000      19.14100000      28.39300000
 H      42.55800000      20.28500000      29.07100000
 O      45.84100000      12.47800000      40.40700000
 H      45.65900000      12.41200000      39.43900000
 H      45.93800000      11.50000000      40.69500000
 O      49.44200000      34.74800000      34.71800000
 H      50.01500000      34.08400000      34.33000000
 H      48.55100000      34.26900000      34.62700000
 O      46.18700000       7.49500000      37.92600000
 H      45.57900000       7.64300000      38.66500000
 H      46.05500000       6.55400000      37.82300000
 O      44.07200000       7.67100000      30.39900000
 H      43.86900000       8.22500000      31.20800000
 H      44.42800000       8.40800000      29.87100000
 O      45.74700000      19.78300000      39.69900000
 H      44.81600000      19.81300000      39.36800000
 H      46.03000000      20.68300000      39.70800000
 O      44.45500000       8.13500000      39.92300000
 H      44.36600000       8.83600000      40.67900000
 H      43.55700000       8.24400000      39.51900000
 O      44.81300000      39.34100000      31.02600000
 H      44.11600000      38.67000000      31.07200000
 H      45.44400000      38.98600000      31.71000000
 O      46.30900000      30.62000000      35.86600000
 H      46.48100000      29.73500000      36.19100000
 H      46.70900000      31.16600000      36.63300000
 O      46.09100000      37.46200000      32.48100000
 H      47.07500000      37.31000000      32.43400000
 H      45.79100000      36.55600000      32.31000000
 O      45.24400000      26.65200000      30.05400000
 H      45.94400000      25.95600000      30.02600000
 H      45.66600000      27.37100000      30.49400000
 O      43.23100000       9.70200000      32.00400000
 H      42.88400000      10.47900000      31.46900000
 H      43.75700000      10.17500000      32.65500000
 O      48.68400000      10.31300000      33.75600000
 H      49.19500000      11.14700000      33.73800000
 H      48.37900000      10.32400000      32.80100000
 O      44.90200000      16.07600000      32.51800000
 H      44.02500000      15.62800000      32.51900000
 H      45.33200000      15.77000000      31.70500000
 O      46.14000000      28.62500000      37.98300000
 H      45.56900000      28.92600000      38.73200000
 H      45.68800000      27.81600000      37.69900000
 O      48.32900000      21.82800000      33.70500000
 H      48.58000000      22.16700000      34.63700000
 H      48.42800000      22.72100000      33.24400000
 O      46.14200000      32.18600000      31.48800000
 H      47.00700000      31.96300000      31.16800000
 H      45.60100000      31.92900000      30.71500000
 O      49.17900000      20.78000000      31.12400000
 H      48.28100000      20.48300000      30.74200000
 H      48.83000000      21.11700000      32.00500000
 O      45.90800000       6.79400000      32.51600000
 H      46.70900000       6.31200000      32.14200000
 H      45.56300000       7.26400000      31.75100000
 O      45.02400000      38.75800000      34.52900000
 H      45.37300000      38.29500000      33.73300000
 H      45.00000000      39.67900000      34.21900000
 O      48.31000000      29.39600000      33.60400000
 H      48.58400000      29.70500000      34.47500000
 H      49.17700000      29.16600000      33.21500000
 O      43.84600000      26.83500000      27.70400000
 H      43.17600000      26.13500000      27.85900000
 H      44.29700000      26.78300000      28.58900000
 O      46.61500000      25.96300000      32.97700000
 H      46.68300000      26.91600000      32.69400000
 H      47.49600000      25.61800000      32.66800000
 O      48.47000000      26.33700000      38.81600000
 H      47.69100000      25.85800000      38.48300000
 H      48.10000000      26.72800000      39.61400000
 O      46.96200000       7.48900000      29.14800000
 H      47.00200000       8.46400000      29.30300000
 H      47.58500000       7.41600000      28.38600000
 O      45.94400000      14.55900000      30.30000000
 H      46.75200000      14.20200000      29.89600000
 H      45.44500000      14.69700000      29.45700000
 O      48.16500000      14.08100000      36.93000000
 H      49.01200000      14.24500000      36.40300000
 H      48.58700000      14.22000000      37.83100000
 O      48.31900000      39.78400000      38.24200000
 H      48.70000000      38.86000000      38.29100000
 H      47.82400000      39.73300000      39.16200000
 O      49.32900000      26.38500000      34.81100000
 H      48.62000000      26.93000000      34.37300000
 H      49.75100000      25.93100000      34.03900000
 O      48.17600000      18.99000000      34.35700000
 H      48.63300000      19.03300000      35.23900000
 H      48.20500000      19.95200000      34.13300000
 O      46.48000000      17.36400000      29.36800000
 H      46.77500000      16.75300000      30.05600000
 H      46.20300000      16.64900000      28.75100000
 O      48.64900000      18.48900000      39.73700000
 H      48.24200000      19.18100000      40.28900000
 H      47.89600000      17.82300000      39.76900000
 O      47.07400000      39.67700000      40.47500000
 H      46.16900000      40.00200000      40.64300000
 H      47.08400000      39.00800000      41.21700000
 O      48.18800000      25.64800000      29.70500000
 H      48.98500000      25.36500000      29.14300000
 H      48.49700000      26.58700000      29.81000000
 O      45.59200000      40.33200000      37.23300000
 H      45.91000000      39.75700000      37.93800000
 H      45.61900000      39.61900000      36.48700000
 O      43.50700000      31.04300000      35.94700000
 H      44.43500000      30.78600000      36.05600000
 H      43.64500000      31.91000000      35.47300000
 O      43.79800000      21.51000000      36.25900000
 H      44.18000000      22.38800000      36.38100000
 H      44.55900000      21.06000000      35.81600000
 O      47.32400000      21.55200000      37.51300000
 H      48.00900000      20.85700000      37.49200000
 H      47.89500000      22.35300000      37.45500000
 O      43.25200000      24.40100000      38.52200000
 H      42.53100000      25.04900000      38.29000000
 H      42.70900000      23.63000000      38.78900000
 O      42.70500000      40.22300000      28.22200000
 H      42.24900000      40.94200000      28.61600000
 H      42.13000000      39.44800000      28.38400000
