291
XYZ file of cluster: frame_15000_20be6.b0f.1415 - created by MolEdiTo
 O      16.68700000       1.34400000      13.50800000
 H      15.98800000       0.78200000      13.88500000
 H      16.17500000       1.95700000      12.94000000
 O      13.52600000      13.36100000       3.65400000
 H      14.21400000      13.85300000       3.12000000
 H      14.12000000      12.64800000       4.00300000
 O       8.01300000      13.31700000      11.42100000
 H       8.26200000      13.54000000      12.32000000
 H       8.14700000      14.24300000      11.03700000
 O      14.63600000      12.00400000      11.71300000
 H      15.15000000      11.33000000      12.15000000
 H      14.97100000      12.83300000      12.16400000
 O      11.57500000       5.20800000       0.96200000
 H      11.58200000       4.57000000       0.21400000
 H      10.64600000       5.17700000       1.26500000
 O       6.68700000       3.14600000      12.93800000
 H       7.20900000       3.90700000      13.29200000
 H       5.94000000       3.12300000      13.52700000
 O      17.55100000      11.69000000       2.10100000
 H      17.20100000      10.73400000       2.36700000
 H      18.23700000      11.41400000       1.46000000
 O      21.16400000      14.23200000       1.36200000
 H      20.52100000      14.46200000       0.67600000
 H      20.61900000      13.63100000       1.93000000
 O      10.40700000       2.99500000      13.90500000
 H      10.44700000       3.98900000      13.73900000
 H      10.83000000       2.67600000      13.09500000
 O      11.91800000       8.05400000      13.93800000
 H      12.85800000       8.04100000      14.11700000
 H      11.90000000       8.95900000      13.50800000
 O      12.22800000       1.90200000      12.00000000
 H      12.39700000       0.97500000      11.69500000
 H      13.14500000       2.17200000      12.18100000
 O       9.49800000       8.91300000       9.75900000
 H       9.32300000       9.48100000      10.45800000
 H       8.91800000       9.25300000       9.01200000
 O      12.80500000       6.57100000      10.46100000
 H      13.34500000       7.00000000      11.15800000
 H      11.94500000       6.59100000      10.79400000
 O      18.34500000       7.25800000       1.59400000
 H      18.03100000       6.91300000       0.72600000
 H      17.71900000       7.99100000       1.72200000
 O       7.84100000      10.28900000       7.60000000
 H       6.89700000      10.19300000       7.27600000
 H       8.17600000      11.04400000       7.01200000
 O      18.84100000       2.03600000       2.75300000
 H      18.44100000       2.94700000       2.68400000
 H      18.08600000       1.56700000       3.17900000
 O      16.96700000       6.22900000       8.12900000
 H      16.46800000       7.08500000       8.27100000
 H      16.14800000       5.62300000       8.13400000
 O      19.30700000       6.14200000       9.38200000
 H      19.62800000       5.26200000       9.10800000
 H      18.39900000       6.08800000       8.93400000
 O      20.58700000       6.63400000       5.34700000
 H      20.21500000       7.43800000       5.81700000
 H      20.67100000       7.09900000       4.45300000
 O      17.32000000       7.72600000      14.15100000
 H      17.62900000       7.54000000      13.28600000
 H      18.09800000       7.95800000      14.67800000
 O      20.55100000      13.22900000      14.01500000
 H      20.58100000      14.23500000      13.81600000
 H      19.71200000      13.19600000      14.44700000
 O      16.51100000      10.14400000      12.99100000
 H      16.80800000      10.53600000      13.83000000
 H      17.33800000       9.74500000      12.72400000
 O      18.90200000       9.83600000      11.46600000
 H      19.66700000      10.01000000      12.09400000
 H      19.29500000       9.30400000      10.76700000
 O      18.16500000       4.68900000       3.02200000
 H      18.13800000       5.58200000       2.69100000
 H      17.73700000       4.79200000       3.93900000
 O       8.33300000       4.25800000       4.43000000
 H       8.67400000       3.32600000       4.19700000
 H       9.17900000       4.59400000       4.78000000
 O      15.36100000       5.35800000      12.54000000
 H      15.54400000       6.30200000      12.49900000
 H      15.33800000       5.25900000      13.52600000
 O      15.11700000       8.16400000      11.72400000
 H      15.33800000       8.85100000      12.41000000
 H      15.67400000       8.39900000      10.97400000
 O      20.11100000      13.84400000       6.68700000
 H      20.18800000      13.33800000       7.55800000
 H      21.06300000      14.08700000       6.54700000
 O      14.46800000      10.97300000       9.27900000
 H      14.82500000      11.77200000       8.81800000
 H      14.48100000      11.31700000      10.22800000
 O       9.42200000       4.39700000       7.47500000
 H       9.35700000       3.47000000       7.17700000
 H       9.77300000       4.31400000       8.35900000
 O      12.48300000      10.26200000       1.28200000
 H      12.85900000       9.37000000       1.15200000
 H      12.68900000      10.64400000       0.34800000
 O      20.77600000       3.15200000      10.79100000
 H      20.77800000       2.26700000      11.11100000
 H      19.79300000       3.40300000      10.96100000
 O      21.42900000      12.25700000      11.38900000
 H      20.83600000      12.54300000      12.10800000
 H      22.33800000      12.37300000      11.72900000
 O      12.41100000       7.57700000       7.80700000
 H      12.61100000       7.08300000       8.63400000
 H      12.21200000       8.45200000       8.17300000
 O      15.62700000      11.99200000       4.44300000
 H      16.32800000      12.31700000       5.04000000
 H      16.10300000      11.37000000       3.93400000
 O      11.98300000      14.60500000      11.78700000
 H      11.96400000      13.71200000      11.34100000
 H      11.30600000      15.14300000      11.38600000
 O       7.08500000       6.18800000      10.66100000
 H       6.71400000       6.20400000      11.61400000
 H       6.53600000       6.81500000      10.19300000
 O      17.54500000      12.80200000       6.38700000
 H      17.25200000      13.34800000       7.15800000
 H      18.41400000      13.23700000       6.24900000
 O      10.50000000      11.79900000      10.80700000
 H      10.52600000      12.23400000       9.95500000
 H       9.87600000      12.34700000      11.28500000
 O       8.24600000       7.88100000       6.22200000
 H       9.18700000       7.80200000       5.82300000
 H       8.46700000       8.67500000       6.79400000
 O      14.01400000       3.82100000       1.63100000
 H      14.50000000       4.60600000       2.01500000
 H      13.33000000       4.33300000       1.08000000
 O      14.56100000       8.95400000       6.64300000
 H      14.09500000       9.73900000       6.94100000
 H      13.88200000       8.29700000       6.88000000
 O       6.32800000       5.44000000       5.33100000
 H       5.72100000       4.61100000       5.30800000
 H       7.17000000       4.99000000       5.00900000
 O      13.83700000       4.85200000       5.53000000
 H      13.06600000       4.82900000       6.21500000
 H      13.70400000       3.89100000       5.20400000
 O      20.95700000       9.25800000       9.29800000
 H      20.84800000      10.12400000       8.92800000
 H      21.92500000       9.12900000       8.93800000
 O      15.98200000       2.74300000       9.85200000
 H      15.41100000       3.25300000       9.28700000
 H      15.76700000       1.81300000       9.56200000
 O      14.32100000       2.20500000       4.54200000
 H      13.59500000       1.71100000       4.12200000
 H      15.07200000       1.92200000       3.94000000
 O      21.35000000       1.06900000      12.51200000
 H      21.78300000       1.03400000      13.39900000
 H      20.57100000       0.47200000      12.73200000
 O      12.44800000       3.88000000       7.73800000
 H      12.02700000       4.02200000       8.57700000
 H      12.22200000       2.98800000       7.47300000
 O      10.55500000      13.66300000       8.61100000
 H      11.39400000      14.07100000       8.18700000
 H      10.01400000      13.50500000       7.82000000
 O      17.07500000       4.95800000       5.42300000
 H      16.93400000       5.97400000       5.40800000
 H      16.16700000       4.70500000       5.56100000
 O      21.05100000       3.83100000       2.61600000
 H      20.74500000       2.91200000       2.83800000
 H      20.49800000       4.36600000       3.14300000
 O      19.90900000       6.39000000      13.57200000
 H      19.85400000       7.33100000      13.80400000
 H      19.21900000       6.33100000      12.85500000
 O      14.74000000       2.86200000      12.29800000
 H      14.84600000       3.79100000      12.54800000
 H      15.10800000       2.82900000      11.42700000
 O      14.29200000       6.23700000       3.33100000
 H      13.50400000       6.84900000       3.38500000
 H      14.08900000       5.67900000       4.11300000
 O       9.02300000       5.22800000       1.56500000
 H       8.30700000       5.48200000       0.96100000
 H       8.48500000       4.83900000       2.31300000
 O       6.40700000      10.90900000      11.87000000
 H       7.02900000      11.72200000      11.68700000
 H       5.60400000      11.34200000      11.45100000
 O       8.01200000      13.03100000       3.35100000
 H       8.05600000      12.01300000       3.27800000
 H       7.48600000      13.23100000       2.53700000
 O      15.68800000       9.12600000       1.60200000
 H      15.16800000       8.30600000       1.27800000
 H      15.73700000       9.53000000       0.70200000
 O       6.55400000      13.88200000       8.66200000
 H       5.68700000      13.45000000       8.71900000
 H       7.10800000      13.10200000       8.58900000
 O       8.65700000      10.51800000       3.30400000
 H       9.58800000      10.30100000       3.47700000
 H       8.24200000       9.62400000       3.24000000
 O       7.94700000       2.85100000      10.76200000
 H       7.34000000       3.01400000      11.54300000
 H       7.54200000       3.55100000      10.14200000
 O      19.90500000       4.31100000       6.27100000
 H      20.03700000       5.20700000       5.94000000
 H      18.89800000       4.26300000       6.24000000
 O      16.88600000       9.63100000       3.86500000
 H      16.38000000       9.24700000       3.05900000
 H      16.84300000       8.80400000       4.42100000
 O      19.63400000      13.01700000       3.18600000
 H      19.33100000      13.85900000       3.59200000
 H      18.77400000      12.67400000       2.80700000
 O       6.83700000       4.19200000       8.59700000
 H       6.45000000       5.07800000       8.69700000
 H       7.59100000       4.31500000       8.02400000
 O      14.32800000      12.72200000       6.78400000
 H      13.78600000      13.50300000       6.67300000
 H      14.67300000      12.59900000       5.85700000
 O       6.34400000       8.10700000       4.37200000
 H       6.18700000       7.13200000       4.51300000
 H       7.07900000       8.22700000       4.97500000
 O      10.20300000       0.83500000       7.17700000
 H      11.14000000       0.82100000       7.36200000
 H       9.88600000       0.89100000       8.14100000
 O       9.89600000       7.95600000       1.70700000
 H      10.78900000       8.03400000       2.12800000
 H       9.82700000       7.06100000       1.46500000
 O      16.15600000       7.39100000       5.17100000
 H      15.61900000       8.04000000       5.66300000
 H      15.43500000       6.95800000       4.61700000
 O      10.96600000       6.28500000       5.94800000
 H      11.36000000       6.91200000       6.61900000
 H      10.36700000       5.76500000       6.55100000
 O      12.25200000      10.64700000      12.73700000
 H      12.90600000      11.09300000      12.15000000
 H      11.41200000      10.80300000      12.12900000
 O      12.12200000       7.51300000       3.72500000
 H      12.45200000       8.35100000       4.06200000
 H      11.59800000       7.12000000       4.46200000
 O      10.85900000       3.35000000      10.09800000
 H      10.00800000       3.50800000      10.46800000
 H      11.38600000       2.85700000      10.76100000
 O      18.15600000       6.63000000      11.69000000
 H      18.68100000       6.62000000      10.84600000
 H      17.50900000       5.95000000      11.45000000
 O      20.88400000       7.74400000       2.70100000
 H      20.84200000       8.68700000       2.31400000
 H      19.96600000       7.50300000       2.45200000
 O      17.77900000      11.93700000      10.30600000
 H      17.10400000      12.24200000      10.87100000
 H      18.11800000      11.08800000      10.70100000
 O      12.04700000       1.82100000       2.60400000
 H      11.79700000       1.67800000       1.69800000
 H      12.77100000       2.47800000       2.53200000
 O       9.51800000       1.75600000       3.85700000
 H       9.67200000       1.18100000       4.63900000
 H      10.35600000       1.48200000       3.36300000
 O      10.04000000       6.29500000      10.62700000
 H       9.89100000       7.16300000      10.24800000
 H       9.11900000       6.02200000      10.79700000
 O      10.56300000       5.68800000      13.34100000
 H      11.24600000       6.31700000      13.66700000
 H      10.64300000       5.72300000      12.40100000
 O      12.96800000       1.01100000       7.77100000
 H      12.75900000       0.11800000       8.19500000
 H      13.91900000       0.90100000       7.56400000
 O      18.14300000       3.26900000      11.30400000
 H      17.47500000       3.22900000      12.02300000
 H      17.63400000       3.03200000      10.52100000
 O      19.45800000       8.34400000       6.88100000
 H      18.58300000       8.77900000       7.05200000
 H      19.80500000       8.42400000       7.74700000
 O      20.20000000      12.65900000       9.23800000
 H      20.76300000      12.56600000      10.06800000
 H      19.34900000      12.43800000       9.53400000
 O      20.67500000      10.59900000       3.89300000
 H      20.39500000      11.51100000       3.68200000
 H      20.19300000      10.45900000       4.75400000
 O      11.89000000      10.22100000       8.60800000
 H      11.44600000      10.40500000       9.45900000
 H      12.82400000      10.34000000       8.83000000
 O      17.19300000       9.79600000       6.89000000
 H      17.26800000      10.71700000       6.72700000
 H      16.28700000       9.59200000       6.50500000
 O      14.72800000       5.17900000       8.85800000
 H      14.13300000       4.90700000       8.11700000
 H      14.11100000       5.52100000       9.50700000
 O      10.86300000       9.30200000       5.81900000
 H      11.05100000       9.73200000       6.65500000
 H      11.29500000       9.91900000       5.13900000
 O      11.48100000      10.65900000       3.70300000
 H      11.70000000      11.59200000       3.78400000
 H      11.99900000      10.39500000       2.91200000
 O      16.19700000       8.69200000       9.22300000
 H      16.95400000       9.09200000       8.83400000
 H      15.52100000       9.36400000       9.03800000
 O      21.15800000       2.05500000       6.67200000
 H      20.68600000       2.96700000       6.68700000
 H      22.05700000       2.39800000       6.56100000
 O       9.97000000      11.29600000       0.91300000
 H      10.88100000      11.01600000       1.05200000
 H       9.78000000      11.72100000       1.78700000
 O       8.92900000      12.91300000       6.26700000
 H       9.43800000      13.03000000       5.43500000
 H       8.10000000      13.33400000       6.02300000
 O       7.41600000       0.78900000       2.33800000
 H       8.13900000       1.33200000       2.70400000
 H       6.66400000       0.98600000       3.02900000
