942
XYZ file of cluster: frame_15000_24d6f.72a4b.9cdd2 - created by MolEdiTo
 O      37.15000000      22.08500000      35.60500000
 H      36.78200000      22.98100000      35.76300000
 H      38.08800000      22.22900000      35.82900000
 O      27.31300000      23.25200000      34.70700000
 H      27.11700000      24.14500000      34.40300000
 H      26.57100000      22.74500000      34.32000000
 O      18.87200000      36.59600000      33.55800000
 H      17.91700000      36.46500000      33.64000000
 H      19.21000000      35.83400000      34.00300000
 O      16.18100000      29.64800000      36.07500000
 H      16.91600000      29.09200000      36.32900000
 H      15.47000000      28.92200000      36.21000000
 O      28.25100000      36.38900000      28.01400000
 H      28.78600000      37.06800000      28.38400000
 H      28.14900000      36.65900000      27.07900000
 O       9.29400000      36.04300000      37.70300000
 H       9.30800000      35.46600000      36.88600000
 H       9.71900000      36.86200000      37.29900000
 O      32.02300000      26.27000000      31.34300000
 H      32.34000000      26.65100000      32.20600000
 H      32.80300000      26.45400000      30.81400000
 O      28.42100000      37.26300000      36.61000000
 H      28.97700000      37.83600000      35.98000000
 H      28.80800000      37.51000000      37.45300000
 O      12.73700000      32.11400000      28.04500000
 H      12.45600000      31.42100000      28.69500000
 H      13.66500000      31.77500000      28.00200000
 O      29.91200000      31.22600000      38.42100000
 H      29.76100000      32.14300000      38.76700000
 H      29.59300000      30.70700000      39.20900000
 O      21.16900000      34.82800000      32.44200000
 H      20.77400000      33.92100000      32.61900000
 H      20.85500000      34.93600000      31.51900000
 O      30.10900000      33.60900000      39.65700000
 H      30.18100000      33.99900000      40.50600000
 H      31.04700000      33.58400000      39.36600000
 O      29.86200000      25.55200000      37.54200000
 H      29.33200000      24.66300000      37.45300000
 H      29.50800000      25.98500000      36.74900000
 O      34.71700000      39.87900000      37.20800000
 H      35.04700000      40.77400000      37.37000000
 H      35.56300000      39.40100000      37.19100000
 O      19.22200000      32.94200000      28.75600000
 H      19.40500000      32.52200000      27.86100000
 H      19.31700000      33.90000000      28.57700000
 O      23.84800000      34.44000000      32.80300000
 H      23.67800000      33.53200000      32.38500000
 H      22.96600000      34.77500000      32.78700000
 O      37.94500000      25.34200000      35.75300000
 H      38.66900000      24.73700000      35.61300000
 H      38.29100000      26.20700000      35.44900000
 O      18.67000000      22.69500000      40.22000000
 H      18.53400000      22.24100000      39.39800000
 H      18.34400000      22.04300000      40.85700000
 O      10.66000000      23.52200000      34.28600000
 H      11.40500000      23.34200000      34.92800000
 H       9.92900000      23.73500000      34.95500000
 O      26.29300000      39.76200000      39.09100000
 H      26.90700000      40.13500000      38.44300000
 H      25.65000000      40.48900000      39.17700000
 O      22.84100000      28.36300000      30.66900000
 H      22.79800000      28.86900000      31.43200000
 H      21.95100000      27.92000000      30.74400000
 O      31.97100000      35.14000000      34.13800000
 H      31.54000000      35.33100000      33.29000000
 H      32.78600000      34.71800000      33.72000000
 O      18.79200000      29.95300000      31.96700000
 H      17.81000000      29.85800000      32.19000000
 H      19.03900000      29.02800000      32.21500000
 O      15.44700000      29.55400000      39.72300000
 H      14.65400000      29.73000000      40.23400000
 H      15.46800000      30.25300000      39.05500000
 O      27.88300000      31.35200000      36.03600000
 H      28.64100000      31.18200000      36.61700000
 H      28.22500000      32.08700000      35.46200000
 O      26.73600000      30.39800000      31.95900000
 H      27.28700000      31.22400000      31.79700000
 H      26.04100000      30.55000000      31.25800000
 O      35.71600000      24.91300000      29.83900000
 H      36.66900000      25.07900000      29.72000000
 H      35.70600000      24.10300000      30.32200000
 O      11.06800000      27.17600000      31.40700000
 H      11.91400000      26.86500000      31.64300000
 H      11.12000000      27.31900000      30.45000000
 O       9.07400000      26.92600000      37.45800000
 H       8.43300000      26.63600000      38.13200000
 H       8.53000000      26.98700000      36.66300000
 O      12.57100000      22.79600000      36.83600000
 H      12.72400000      22.86300000      37.82100000
 H      13.08400000      23.52800000      36.52000000
 O      22.47900000      25.37000000      28.79200000
 H      22.43300000      24.73100000      28.07300000
 H      21.67700000      25.14300000      29.26900000
 O      31.52200000      24.04400000      39.27400000
 H      30.88500000      24.30900000      38.62000000
 H      31.03400000      23.33200000      39.74300000
 O      20.72600000      38.19800000      28.35500000
 H      21.74200000      38.32000000      28.38800000
 H      20.62600000      37.88400000      29.31300000
 O      15.14900000      31.90400000      37.52200000
 H      15.31500000      31.04000000      37.13600000
 H      15.84300000      32.48900000      37.13300000
 O       7.75600000      39.07300000      31.25900000
 H       7.43300000      38.54800000      32.02500000
 H       7.65500000      39.98400000      31.60500000
 O      15.22900000      28.69600000      29.60300000
 H      15.16700000      29.46600000      29.01600000
 H      14.73600000      28.00200000      29.14400000
 O       9.71100000      32.40100000      30.27700000
 H      10.09700000      31.67600000      29.76300000
 H       8.85100000      32.48700000      29.79700000
 O      38.42500000      22.45400000      28.47200000
 H      37.84400000      22.22800000      27.63700000
 H      38.05800000      21.73900000      29.08100000
 O      22.11600000      39.99900000      30.90100000
 H      21.41800000      40.70400000      30.77600000
 H      22.80400000      40.35200000      30.30700000
 O      18.06900000      39.58000000      34.44400000
 H      17.86400000      40.34700000      33.83000000
 H      18.21300000      38.90600000      33.79300000
 O      34.70800000      20.82400000      28.88900000
 H      34.70400000      20.84800000      27.93200000
 H      34.04700000      21.47600000      29.08100000
 O      33.16000000      33.77800000      38.75700000
 H      33.82200000      33.54900000      39.39400000
 H      33.39300000      34.72300000      38.54200000
 O      15.80200000      31.22300000      34.01900000
 H      16.02100000      30.48500000      34.69200000
 H      15.91200000      30.67100000      33.23900000
 O      37.61200000      26.34500000      27.82300000
 H      37.09200000      25.54300000      27.54900000
 H      37.75700000      26.77800000      26.92500000
 O      24.94200000      27.40900000      40.55000000
 H      25.67500000      28.00400000      40.71400000
 H      25.42500000      26.51600000      40.45800000
 O      19.76700000      37.16300000      31.04400000
 H      20.56400000      37.32300000      31.62200000
 H      19.18600000      36.84000000      31.81500000
 O      12.91600000      32.60800000      31.17700000
 H      12.58600000      31.76100000      30.83400000
 H      12.99700000      33.13600000      30.37400000
 O      31.34100000      20.92400000      36.00600000
 H      32.00200000      20.95700000      36.73800000
 H      31.71400000      20.10000000      35.53500000
 O      19.52500000      21.72800000      36.14700000
 H      20.40100000      21.37600000      36.28800000
 H      19.62200000      22.64600000      36.42800000
 O      35.96300000      39.50100000      28.73500000
 H      35.84000000      40.48400000      28.71300000
 H      35.03700000      39.27700000      28.99800000
 O      13.76400000      37.45900000      30.49500000
 H      12.75800000      37.48000000      30.39700000
 H      13.78300000      37.77900000      31.45700000
 O      20.20100000      34.62000000      39.93600000
 H      20.01200000      35.53200000      39.68900000
 H      20.70200000      34.34200000      39.17500000
 O      39.90100000      22.16500000      39.78900000
 H      40.09600000      21.87000000      40.66200000
 H      38.94600000      22.04000000      39.76400000
 O      25.92000000      35.85400000      30.39400000
 H      26.57700000      36.40000000      29.89100000
 H      25.83400000      35.05600000      29.88100000
 O       7.82500000      33.56100000      38.21000000
 H       8.14200000      34.40300000      38.24600000
 H       8.43500000      33.07500000      38.80800000
 O      28.12100000      37.75600000      31.47000000
 H      27.48700000      38.31700000      31.93800000
 H      28.76100000      38.44300000      31.14300000
 O       7.48500000      28.34500000      29.47000000
 H       8.25300000      28.04200000      29.91600000
 H       7.06800000      28.94600000      30.04800000
 O      14.31200000      22.25400000      33.04000000
 H      14.74200000      21.41900000      33.29300000
 H      14.42200000      22.72400000      33.88800000
 O      33.07800000      39.45200000      39.81200000
 H      33.46200000      39.75300000      38.96000000
 H      33.55300000      38.62600000      39.93400000
 O      37.23100000      38.68800000      36.47400000
 H      38.03900000      38.27000000      36.83400000
 H      36.88800000      37.89700000      35.99600000
 O       6.52600000      29.39600000      33.60400000
 H       6.80000000      29.70500000      34.47500000
 H       7.39300000      29.16600000      33.21500000
 O      10.97600000      37.14600000      31.22600000
 H      10.79800000      37.94400000      30.77000000
 H      10.41700000      36.49600000      30.77200000
 O      23.34100000      21.71400000      39.45000000
 H      22.88000000      22.12600000      38.69800000
 H      24.10500000      21.31700000      39.03900000
 O       7.54500000      26.38500000      34.81100000
 H       6.83600000      26.93000000      34.37300000
 H       7.96700000      25.93100000      34.03900000
 O      36.20600000      36.19900000      35.33500000
 H      35.57700000      36.74700000      34.75900000
 H      35.59400000      35.96600000      36.06900000
 O      33.01500000      22.82100000      29.50600000
 H      33.20200000      23.48900000      28.78300000
 H      32.05000000      22.69000000      29.24300000
 O      21.21300000      28.31800000      39.35100000
 H      20.21100000      28.44100000      39.55300000
 H      21.54700000      28.08700000      40.22700000
 O       6.40400000      25.64800000      29.70500000
 H       7.20100000      25.36500000      29.14300000
 H       6.71300000      26.58700000      29.81000000
 O      11.49400000      27.83300000      28.84300000
 H      12.33100000      27.53100000      28.42000000
 H      10.93300000      27.80600000      27.99500000
 O      26.06500000      37.06600000      39.78800000
 H      25.95400000      37.77400000      39.15300000
 H      27.02600000      36.95700000      39.69100000
 O      21.99400000      37.99300000      32.53600000
 H      21.93000000      38.77900000      31.93600000
 H      22.95700000      37.81600000      32.40000000
 O      38.21800000      27.90400000      34.35500000
 H      37.45500000      28.34800000      34.72400000
 H      38.87500000      28.61500000      34.33200000
 O       9.58600000      24.27900000      37.19700000
 H       9.82300000      23.77600000      38.02600000
 H       9.72100000      25.17800000      37.46600000
 O      23.23600000      37.88600000      28.73600000
 H      23.48200000      36.97700000      28.50500000
 H      24.12200000      38.30800000      28.66900000
 O      29.86600000      29.29000000      29.31000000
 H      29.37200000      29.18000000      28.40400000
 H      29.97900000      30.28400000      29.36500000
 O      40.89700000      39.55500000      39.29800000
 H      40.81300000      39.86100000      38.35700000
 H      40.16400000      39.99300000      39.71500000
 O       9.35100000      25.65600000      32.64200000
 H      10.06600000      25.26600000      33.22600000
 H       9.88000000      26.35500000      32.17700000
 O       7.00000000      24.43800000      32.15000000
 H       7.95200000      24.73500000      32.10400000
 H       6.68000000      24.76700000      31.25300000
 O      33.16300000      26.85800000      33.74500000
 H      34.05000000      27.04400000      33.40300000
 H      32.99800000      27.70400000      34.22800000
 O      40.64400000      35.70900000      33.64600000
 H      40.35800000      36.62300000      33.78600000
 H      40.78500000      35.68600000      32.67400000
 O      37.65400000      36.72100000      40.04600000
 H      38.18500000      36.14800000      39.48400000
 H      37.87000000      36.40000000      40.95000000
 O      28.82000000      36.79100000      39.91800000
 H      29.42100000      36.06400000      40.12000000
 H      28.61800000      37.18800000      40.72700000
 O      22.06000000      33.62400000      29.39200000
 H      21.26200000      34.18000000      29.07100000
 H      21.81900000      32.78300000      28.95700000
 O      12.73900000      28.09600000      40.48700000
 H      12.56400000      27.17400000      40.22800000
 H      12.19200000      28.56600000      39.73100000
 O      33.93200000      39.72500000      31.96200000
 H      33.53500000      40.23300000      32.62300000
 H      33.20200000      39.20900000      31.59100000
 O      34.61600000      38.09600000      34.28700000
 H      34.25500000      38.71400000      34.92900000
 H      34.38400000      38.51200000      33.47100000
 O      32.94000000      37.15200000      30.62400000
 H      32.19500000      37.12600000      31.30400000
 H      32.43100000      37.33000000      29.77200000
 O      16.89300000      35.54600000      37.53900000
 H      17.54300000      36.25200000      37.40300000
 H      16.21900000      35.99500000      38.11300000
 O       7.98100000      31.57500000      35.83400000
 H       7.95400000      32.40800000      36.30400000
 H       7.67900000      30.98500000      36.58100000
 O      26.65400000      26.16100000      29.96100000
 H      26.24800000      25.55400000      30.64200000
 H      27.31400000      26.61700000      30.53600000
 O      33.59800000      25.31500000      27.84800000
 H      34.34900000      25.32600000      28.46200000
 H      33.13700000      26.14900000      28.06900000
 O      15.04300000      24.05700000      28.29800000
 H      15.29800000      23.18500000      28.65100000
 H      14.10600000      23.96500000      28.11300000
 O       8.29600000      38.73700000      28.54700000
 H       8.15400000      38.93100000      29.50100000
 H       9.31300000      38.87400000      28.64400000
 O       7.48400000      31.96600000      28.71600000
 H       7.66700000      31.18300000      28.18200000
 H       6.46500000      32.01800000      28.61000000
 O      18.22300000      27.85900000      36.08600000
 H      18.98400000      28.24300000      36.60600000
 H      18.68300000      27.42400000      35.38600000
 O      33.33800000      33.64200000      32.42400000
 H      33.32400000      34.00600000      31.44400000
 H      34.33700000      33.78700000      32.51000000
 O      17.54800000      36.35000000      27.76500000
 H      17.31500000      37.25500000      27.46000000
 H      16.96900000      36.15000000      28.50800000
 O      31.75200000      40.72200000      33.28000000
 H      31.89500000      40.91100000      34.21100000
 H      31.59700000      41.68200000      32.94500000
 O      19.70100000      32.41600000      32.34900000
 H      18.79500000      32.72200000      32.46600000
 H      19.56400000      31.49100000      32.09400000
 O      36.48300000      23.37700000      32.40200000
 H      37.04400000      24.22100000      32.50400000
 H      35.89600000      23.47500000      33.15700000
 O      40.25000000      30.39400000      38.93600000
 H      39.70900000      29.85300000      38.35300000
 H      41.03200000      30.58100000      38.30800000
 O      25.84900000      39.68100000      33.12700000
 H      25.24800000      39.35400000      32.49700000
 H      25.24700000      39.81400000      33.88600000
 O      25.10600000      31.42800000      35.91300000
 H      24.97600000      30.87900000      36.69900000
 H      26.05500000      31.57400000      35.91600000
 O      29.95600000      28.72700000      35.50400000
 H      29.34100000      28.68900000      34.70800000
 H      30.81500000      28.78700000      35.13500000
 O      37.06700000      22.74800000      39.57800000
 H      36.82200000      23.72400000      39.45200000
 H      36.50200000      22.33600000      38.91000000
 O      38.25900000      34.55600000      28.73900000
 H      38.91400000      34.97600000      28.15800000
 H      38.51900000      33.60700000      28.60800000
 O      40.89200000      40.20400000      36.24900000
 H      40.88700000      40.42300000      35.31400000
 H      41.78000000      40.50600000      36.52500000
 O      29.52500000      31.89400000      28.54000000
 H      30.18000000      31.94500000      27.78200000
 H      28.83800000      32.43800000      28.12600000
 O      16.26500000      29.30400000      32.13400000
 H      15.77100000      29.41400000      31.23900000
 H      16.15700000      28.34700000      32.23000000
 O      28.69700000      23.39300000      31.78400000
 H      27.98300000      23.75200000      32.40500000
 H      29.40800000      23.32400000      32.42400000
 O      26.48400000      20.27700000      40.69400000
 H      27.16700000      19.57300000      40.54000000
 H      26.63100000      20.86200000      39.98000000
 O      11.25000000      34.82300000      39.51000000
 H      10.67600000      35.31100000      38.83800000
 H      11.48200000      35.66700000      40.10000000
 O      40.27100000      26.14400000      31.25000000
 H      40.46700000      27.12000000      31.27100000
 H      40.67100000      25.95800000      30.38100000
 O      35.96600000      34.51900000      32.55000000
 H      36.42400000      34.45800000      33.42700000
 H      36.60000000      34.02700000      32.00000000
 O      11.21200000      29.84400000      38.91900000
 H      11.33200000      29.50200000      37.93500000
 H      11.61300000      30.74100000      38.79700000
 O      26.54100000      26.13300000      33.80300000
 H      27.31600000      26.64600000      34.23500000
 H      25.96100000      26.93000000      33.51600000
 O      23.77000000      25.92600000      31.16800000
 H      23.60500000      26.84800000      30.85700000
 H      23.43000000      25.42100000      30.40200000
 O      36.78000000      40.28700000      32.39600000
 H      35.86200000      40.24700000      32.09300000
 H      36.98900000      41.20600000      32.07100000
 O      34.65200000      27.02800000      37.84500000
 H      33.77000000      27.38000000      38.12900000
 H      34.81600000      27.59400000      37.05100000
 O      38.17000000      28.71100000      37.75400000
 H      37.46800000      29.03400000      37.19200000
 H      37.74700000      28.72800000      38.66200000
 O      40.27600000      34.55900000      37.49500000
 H      39.96500000      35.50800000      37.40200000
 H      41.10600000      34.58900000      36.98200000
 O      17.78300000      32.89400000      38.00600000
 H      18.47500000      32.85000000      37.34500000
 H      17.50300000      33.80300000      38.00400000
 O       7.19000000      29.49300000      37.86500000
 H       6.30500000      29.10700000      38.15100000
 H       7.60200000      29.51800000      38.73300000
 O       7.67400000      39.19100000      35.33200000
 H       7.13000000      39.43900000      36.15700000
 H       7.46300000      40.01300000      34.81400000
 O      32.25300000      28.01000000      38.57200000
 H      31.61100000      27.91700000      37.83800000
 H      31.66900000      27.78100000      39.32100000
 O       9.29800000      29.12800000      32.52400000
 H       9.97100000      28.47200000      32.38400000
 H       9.85000000      29.87000000      32.89500000
 O      28.81400000      27.26000000      31.24100000
 H      29.49500000      26.52200000      31.27500000
 H      29.24700000      27.84000000      30.56400000
 O      13.77000000      34.67400000      37.80900000
 H      13.27400000      33.97900000      38.22300000
 H      14.12600000      35.13100000      38.56300000
 O      20.17700000      24.68400000      29.93200000
 H      19.41400000      24.19300000      29.58600000
 H      20.59700000      24.03500000      30.54500000
 O      34.59900000      24.37700000      34.15400000
 H      33.96400000      25.03200000      33.89900000
 H      34.37800000      24.29300000      35.12700000
 O      14.53500000      39.22700000      28.45000000
 H      14.85200000      39.88100000      29.04400000
 H      14.38600000      38.44100000      29.02900000
 O      12.01300000      39.96800000      37.57000000
 H      11.22200000      39.38400000      37.31900000
 H      12.71300000      39.40100000      37.17800000
 O      12.48300000      27.83600000      34.27700000
 H      13.36900000      27.89100000      34.71900000
 H      12.75700000      27.08600000      33.67400000
 O      39.91300000      32.95800000      39.80500000
 H      39.82500000      32.21900000      39.20300000
 H      40.13600000      33.66300000      39.15500000
 O      12.85800000      23.57300000      30.65200000
 H      12.46000000      23.75600000      29.80200000
 H      12.11200000      23.02300000      31.04000000
 O      20.84100000      30.08800000      36.94000000
 H      21.41500000      29.30000000      36.85000000
 H      20.23400000      29.72700000      37.64200000
 O      40.14700000      25.10200000      28.48900000
 H      39.92900000      24.21800000      27.95500000
 H      39.40000000      25.62300000      28.31600000
 O      32.97900000      30.62700000      37.95600000
 H      32.12500000      31.08000000      37.99200000
 H      32.73500000      29.78300000      38.41700000
 O      10.81900000      35.29900000      34.84200000
 H      11.65500000      34.93300000      35.16000000
 H      10.46300000      34.58700000      34.31800000
 O      39.53600000      31.03900000      30.55600000
 H      39.68400000      31.99200000      30.47000000
 H      38.62800000      31.05600000      30.18300000
 O      17.08600000      33.41300000      33.65000000
 H      16.38300000      32.68900000      33.83100000
 H      17.37500000      33.46700000      34.58800000
 O      40.28600000      40.67400000      33.61700000
 H      40.07900000      41.36900000      32.91600000
 H      39.41600000      40.71900000      34.13300000
 O      40.30500000      29.62900000      34.21900000
 H      41.04000000      29.82000000      34.88200000
 H      39.84500000      30.48100000      34.17500000
 O      21.79500000      30.87200000      29.07500000
 H      22.05800000      30.16200000      29.65300000
 H      20.85800000      30.70400000      28.95500000
 O      11.87000000      32.88700000      35.50500000
 H      12.54800000      32.84500000      34.78100000
 H      11.23300000      32.26200000      35.16000000
 O      33.51700000      32.92200000      35.73900000
 H      33.35000000      33.27000000      36.66000000
 H      32.99700000      33.58900000      35.23100000
 O      24.44100000      35.32100000      35.60200000
 H      25.18200000      34.88900000      36.06000000
 H      24.77200000      35.25400000      34.64800000
 O      27.28500000      28.39500000      36.46800000
 H      27.14300000      29.34100000      36.33300000
 H      28.12300000      28.35300000      36.94000000
 O      38.80900000      38.57900000      28.68500000
 H      38.87400000      38.06300000      29.56100000
 H      37.88700000      38.87200000      28.84100000
 O      22.35000000      32.55400000      38.09800000
 H      22.14500000      32.39000000      37.12000000
 H      22.44400000      31.65100000      38.40500000
 O      16.87600000      38.81300000      27.23500000
 H      17.40300000      39.12500000      28.04000000
 H      15.96500000      39.10200000      27.51800000
 O      30.37200000      36.08100000      32.03400000
 H      29.51300000      36.57800000      31.95700000
 H      30.17700000      35.42200000      31.32600000
 O      15.78200000      23.69100000      31.51200000
 H      15.55800000      23.02100000      32.15800000
 H      15.04600000      23.60100000      30.90300000
 O       7.62700000      34.72000000      27.88900000
 H       7.66700000      33.77400000      28.20600000
 H       8.56400000      34.96600000      28.16400000
 O      22.72600000      23.21800000      34.13600000
 H      22.08700000      22.71300000      33.59700000
 H      23.42200000      23.37700000      33.47200000
 O      35.68200000      27.16000000      33.04000000
 H      35.89800000      26.57800000      32.31100000
 H      36.54700000      27.54500000      33.25200000
 O      13.27000000      26.06800000      32.27200000
 H      13.16800000      25.21500000      31.68500000
 H      14.20700000      26.10000000      32.34000000
 O      15.46400000      35.74600000      29.29100000
 H      14.76900000      36.36300000      29.71200000
 H      15.78200000      35.28400000      30.11600000
 O      18.94100000      32.24000000      40.34000000
 H      18.32300000      32.56300000      39.62200000
 H      19.66000000      32.83000000      40.31200000
 O       9.28800000      33.23100000      33.22400000
 H       9.21500000      32.75200000      32.44200000
 H       9.60800000      32.56800000      33.90100000
 O      14.88400000      27.10500000      35.09200000
 H      15.65600000      27.04300000      34.42400000
 H      14.93200000      26.16800000      35.37900000
 O      40.39100000      21.06800000      32.99000000
 H      39.45500000      21.16300000      32.64600000
 H      40.85800000      21.50600000      32.26200000
 O      33.79200000      33.83600000      29.75800000
 H      33.66500000      34.41300000      28.97500000
 H      34.65900000      33.43700000      29.48500000
 O      19.46900000      32.24100000      35.61300000
 H      19.79000000      32.25200000      34.65800000
 H      20.00900000      31.50900000      35.97500000
 O      14.18900000      35.72500000      35.11500000
 H      13.99300000      35.30300000      36.02000000
 H      14.48700000      34.90100000      34.65800000
 O      25.89100000      28.38900000      28.29200000
 H      26.08100000      27.52700000      28.71300000
 H      26.80000000      28.51100000      27.86600000
 O      29.50100000      34.60000000      29.91400000
 H      29.33100000      35.19600000      29.09700000
 H      29.89700000      33.84700000      29.52800000
 O      13.89100000      33.20300000      33.47400000
 H      13.54100000      32.93600000      32.55900000
 H      14.52900000      32.53000000      33.60200000
 O      32.91400000      29.31700000      34.95700000
 H      33.34600000      30.07700000      34.45800000
 H      33.00100000      29.69200000      35.87300000
 O       7.34300000      37.24100000      38.81500000
 H       7.80600000      37.45000000      39.65500000
 H       8.11800000      36.77900000      38.40700000
 O      15.45400000      22.52800000      37.83400000
 H      15.14700000      21.65900000      38.05300000
 H      16.39400000      22.42100000      37.86600000
 O      30.34100000      21.74200000      40.24800000
 H      30.41300000      21.23000000      41.09700000
 H      29.61500000      21.17600000      39.89400000
 O      35.65800000      30.89700000      38.36000000
 H      34.70500000      30.68900000      38.05900000
 H      35.90400000      31.42000000      37.54500000
 O      11.09700000      37.85900000      33.94600000
 H      11.29300000      36.98200000      34.31100000
 H      10.82900000      37.63700000      33.02300000
 O       8.94800000      25.18700000      29.24400000
 H       9.38000000      25.34300000      28.36600000
 H       9.51000000      24.61500000      29.68600000
 O       9.72000000      22.08800000      30.37900000
 H      10.25300000      21.75400000      31.12500000
 H       8.82800000      21.72400000      30.60800000
 O      12.19400000      23.88600000      28.03500000
 H      12.03600000      23.15800000      27.40100000
 H      11.51000000      24.54800000      27.70900000
 O      36.06900000      29.31600000      35.29800000
 H      35.35700000      29.33500000      34.60800000
 H      36.24000000      30.33000000      35.35000000
 O      14.75000000      32.68700000      40.10200000
 H      14.67900000      32.45900000      39.14600000
 H      14.37300000      31.85500000      40.54800000
 O      18.28300000      21.21700000      33.56600000
 H      18.96500000      21.41800000      34.23800000
 H      18.83500000      20.74000000      32.86300000
 O      22.11700000      36.14400000      37.33200000
 H      22.61200000      35.98700000      38.15900000
 H      22.80700000      35.63500000      36.75500000
 O      12.11700000      30.29800000      29.92900000
 H      11.91200000      29.38000000      29.79200000
 H      12.50200000      30.29500000      30.84200000
 O      17.86600000      38.99500000      29.74400000
 H      18.69100000      39.48400000      29.51600000
 H      18.29000000      38.19000000      30.14300000
 O      16.88700000      26.50800000      32.61100000
 H      17.00700000      25.50900000      32.36400000
 H      17.87100000      26.62200000      32.92800000
 O      40.38300000      28.74500000      31.65900000
 H      40.53100000      29.14100000      32.57200000
 H      40.01000000      29.52900000      31.23400000
 O      25.14400000      26.84300000      36.21200000
 H      25.97200000      27.39500000      36.32600000
 H      25.50700000      26.02700000      35.84300000
 O      39.70400000      37.36700000      36.76200000
 H      39.58100000      37.61400000      35.79800000
 H      40.36600000      38.06700000      36.98500000
 O      17.42400000      23.80400000      34.12600000
 H      18.26200000      23.99100000      34.54100000
 H      17.57300000      22.87700000      33.78900000
 O      25.51200000      37.71900000      36.40900000
 H      26.50300000      37.50700000      36.49800000
 H      25.21200000      36.89300000      35.93900000
 O      34.41400000      28.83200000      29.82600000
 H      34.17600000      29.45000000      30.49600000
 H      35.39500000      28.89000000      29.90300000
 O      12.13100000      32.27200000      38.47600000
 H      11.94100000      32.66600000      37.61300000
 H      11.28900000      32.57800000      38.94000000
 O      19.92200000      35.12100000      35.73100000
 H      19.94000000      34.15500000      35.85200000
 H      20.88300000      35.32700000      35.84700000
 O      31.53100000      37.14500000      28.32200000
 H      32.20400000      37.60400000      27.81200000
 H      31.54200000      36.24400000      27.83600000
 O      17.24200000      32.14800000      30.05200000
 H      18.13600000      32.44900000      29.63000000
 H      16.95500000      33.08300000      30.34800000
 O      25.82000000      38.91200000      27.96400000
 H      26.72100000      39.29300000      28.15300000
 H      25.84600000      38.92500000      27.00900000
 O      36.81900000      30.42500000      28.63200000
 H      37.25600000      29.61600000      29.06000000
 H      36.96200000      30.08100000      27.68700000
 O       7.65800000      34.74800000      34.71800000
 H       8.23100000      34.08400000      34.33000000
 H       6.76700000      34.26900000      34.62700000
 O      34.96700000      21.21800000      37.83200000
 H      34.16200000      20.95700000      38.33900000
 H      34.67700000      22.20600000      37.74300000
 O      19.99400000      35.35300000      27.88500000
 H      19.14600000      35.84900000      27.98200000
 H      20.47900000      36.08700000      27.41200000
 O      29.49200000      27.00400000      39.79500000
 H      29.44500000      26.50400000      38.97500000
 H      29.32100000      26.25300000      40.44500000
 O      22.51000000      28.08300000      36.17500000
 H      23.43900000      27.77600000      36.04800000
 H      22.51000000      28.16600000      37.13400000
 O      35.99700000      36.02600000      27.97700000
 H      35.85200000      36.24800000      28.92600000
 H      36.95000000      35.75700000      27.98900000
 O      11.70700000      21.96900000      32.45800000
 H      11.28100000      22.48300000      33.18100000
 H      12.61800000      22.19000000      32.64200000
 O      16.24000000      36.82200000      33.30100000
 H      15.65900000      37.60000000      33.10500000
 H      15.63900000      36.33800000      33.90700000
 O      26.59600000      34.65400000      33.32800000
 H      25.70600000      34.49100000      32.88500000
 H      26.84000000      35.46900000      32.85200000
 O      17.60500000      26.33400000      38.47200000
 H      16.58800000      26.40400000      38.36700000
 H      17.75100000      26.91200000      37.69100000
 O      11.28900000      40.45300000      33.32600000
 H      11.25100000      39.51600000      33.74600000
 H      11.22100000      40.93500000      34.19300000
 O      16.31700000      40.44600000      36.35500000
 H      16.92300000      40.28200000      35.57600000
 H      16.76900000      39.80300000      37.02400000
 O      22.62600000      32.23900000      35.15200000
 H      22.71800000      33.03300000      34.64100000
 H      23.56100000      31.98800000      35.35200000
 O      34.77800000      37.41000000      39.97500000
 H      34.88000000      36.72500000      40.63400000
 H      35.63800000      37.84500000      39.93900000
 O      25.04100000      24.26600000      32.79700000
 H      24.40200000      24.76400000      32.22900000
 H      25.61200000      25.04100000      33.03800000
 O      39.72100000      22.95200000      35.60400000
 H      40.12000000      23.37400000      34.79400000
 H      40.40500000      22.32000000      35.80800000
 O      33.99300000      24.11900000      37.65800000
 H      34.37300000      25.01500000      37.76300000
 H      33.13400000      24.24500000      38.02500000
 O       7.39500000      20.78000000      31.12400000
 H       6.49700000      20.48300000      30.74200000
 H       7.04600000      21.11700000      32.00500000
 O      24.08400000      33.66100000      40.11300000
 H      25.07300000      33.63000000      39.87200000
 H      23.68500000      33.14200000      39.39400000
 O      27.00100000      22.54400000      39.03100000
 H      26.36000000      22.24500000      38.34100000
 H      27.76900000      22.61600000      38.34600000
 O      28.55000000      28.75900000      33.38800000
 H      28.39200000      28.09400000      32.69000000
 H      27.93000000      29.43600000      33.01500000
 O       8.06500000      27.73000000      26.95300000
 H       7.83200000      27.88700000      27.88700000
 H       8.33000000      28.65600000      26.74400000
 O      13.95300000      26.93700000      27.91100000
 H      13.95900000      26.82800000      26.95300000
 H      14.71100000      26.30200000      28.12700000
 O       7.21300000      23.36700000      35.86000000
 H       8.13200000      23.54800000      36.17200000
 H       7.00100000      24.26200000      35.51600000
 O      30.74200000      22.73000000      33.84100000
 H      31.22000000      22.42600000      34.60200000
 H      31.30700000      22.33900000      33.11900000
 O      10.25200000      22.61800000      39.57200000
 H      10.93400000      21.88900000      39.50700000
 H       9.85200000      22.26800000      40.47500000
 O      38.13600000      38.12300000      31.42500000
 H      37.37100000      37.61500000      31.11900000
 H      37.60400000      38.90400000      31.75700000
 O      17.73200000      22.99500000      29.65600000
 H      17.06900000      22.31900000      29.48100000
 H      17.37600000      23.40100000      30.44900000
 O      15.03800000      27.32200000      38.45500000
 H      15.25300000      28.25700000      38.73400000
 H      14.52300000      26.97000000      39.15700000
 O      33.01400000      30.97900000      28.30800000
 H      32.83800000      31.53900000      29.12900000
 H      33.45700000      30.23300000      28.76300000
 O      13.36200000      38.02100000      36.10300000
 H      14.15100000      38.22000000      36.56700000
 H      13.48600000      37.12400000      35.79200000
 O      11.06100000      28.93100000      36.26200000
 H      10.30700000      28.30500000      36.55900000
 H      11.40600000      28.36700000      35.50400000
 O      20.48000000      40.60300000      35.06200000
 H      19.60100000      40.31900000      34.83700000
 H      20.93400000      39.78400000      35.31700000
 O      19.33000000      27.12400000      32.99200000
 H      19.75900000      27.35300000      32.11600000
 H      20.00300000      26.60000000      33.41200000
 O      20.27400000      24.87500000      37.41900000
 H      20.99000000      25.21400000      37.92400000
 H      19.51300000      25.16100000      37.99800000
 O      29.98700000      24.17700000      29.50500000
 H      30.30700000      25.01300000      29.92500000
 H      29.37100000      23.86500000      30.25200000
 O      21.81500000      20.20400000      36.35600000
 H      22.58000000      19.80500000      35.72300000
 H      22.20200000      21.06000000      36.46800000
 O      29.78500000      39.03800000      35.22800000
 H      29.34700000      39.64700000      34.56700000
 H      30.67800000      39.41900000      35.26300000
 O      22.47100000      30.21900000      32.84500000
 H      21.93600000      30.39500000      33.64000000
 H      22.47400000      31.05900000      32.34700000
 O      35.73800000      36.67100000      30.70200000
 H      34.76900000      36.92200000      30.76900000
 H      35.76600000      35.85100000      31.23700000
 O      22.05400000      38.68100000      39.64500000
 H      22.70900000      37.93200000      39.39000000
 H      22.30300000      38.70300000      40.61300000
 O      22.65100000      22.78200000      36.70200000
 H      22.75000000      23.69800000      36.93700000
 H      22.75400000      22.82200000      35.69700000
 O      23.18400000      30.22500000      39.25300000
 H      23.93800000      29.65100000      39.20900000
 H      22.39900000      29.70500000      39.39400000
 O      33.41100000      39.04200000      27.69100000
 H      33.35200000      39.59400000      26.87000000
 H      32.96900000      39.69100000      28.29900000
 O       9.00900000      29.38500000      40.49400000
 H       9.14500000      28.81300000      41.31200000
 H       9.86400000      29.40700000      40.09600000
 O      14.86000000      23.79500000      35.21200000
 H      15.00700000      23.45300000      36.12800000
 H      15.72700000      23.92100000      34.91100000
 O      34.28700000      31.24600000      33.81200000
 H      34.28300000      31.84900000      34.63300000
 H      33.90000000      31.95200000      33.20300000
 O      19.07400000      29.85200000      29.13900000
 H      18.88300000      30.61300000      29.68400000
 H      18.29200000      29.30100000      29.30000000
 O      19.18600000      37.44400000      36.72200000
 H      19.13700000      38.03200000      35.97400000
 H      19.58700000      36.64600000      36.41400000
 O      35.51300000      33.01100000      40.47100000
 H      34.88300000      32.39400000      40.98200000
 H      35.76900000      32.41700000      39.79700000
 O      32.79900000      31.18900000      30.96100000
 H      33.01000000      32.08900000      31.28600000
 H      32.11900000      30.96200000      31.67700000
 O      32.26600000      27.81700000      28.26300000
 H      33.09600000      28.18300000      28.66400000
 H      31.61800000      28.42900000      28.73100000
 O      38.26100000      34.66900000      34.46700000
 H      37.57800000      35.24800000      34.79400000
 H      38.98900000      35.28400000      34.29900000
 O      15.60900000      21.16000000      29.01500000
 H      16.25000000      20.93800000      28.30400000
 H      14.84400000      20.64800000      28.77200000
 O      36.95400000      31.83800000      35.89800000
 H      37.86400000      31.71700000      35.43800000
 H      36.83700000      32.79300000      35.62000000
 O      20.85500000      20.84300000      29.10400000
 H      21.21600000      20.09900000      28.55300000
 H      21.60600000      21.15200000      29.58900000
 O      28.84400000      22.55800000      36.72300000
 H      29.63000000      22.10900000      36.23800000
 H      28.33900000      22.80000000      35.86500000
 O      22.15400000      38.36500000      35.43400000
 H      22.09400000      37.92100000      34.58800000
 H      22.26300000      37.56500000      36.00200000
 O      20.45700000      27.26700000      30.37000000
 H      20.52700000      26.30700000      30.34200000
 H      19.64000000      27.28600000      29.76000000
 O      10.71400000      20.82900000      35.81200000
 H      10.02000000      21.44100000      36.05100000
 H      11.52200000      21.17100000      36.13800000
 O      33.06200000      22.05300000      32.15800000
 H      33.05500000      22.43800000      31.22800000
 H      33.88400000      22.33900000      32.51600000
 O       6.96700000      37.53100000      33.16100000
 H       7.02000000      37.82600000      34.08300000
 H       7.16500000      36.58000000      33.31700000
 O      30.43400000      30.78500000      32.63300000
 H      30.00800000      31.53400000      33.04200000
 H      29.75300000      30.07100000      32.61800000
 O      39.35100000      26.43400000      38.93100000
 H      38.55600000      25.95700000      38.80300000
 H      39.19900000      27.27600000      38.46500000
 O      31.52100000      35.77500000      36.73300000
 H      30.55200000      35.99900000      36.75000000
 H      31.56300000      35.62300000      35.73100000
 O      12.21600000      25.13300000      39.83100000
 H      11.43800000      24.56900000      39.67700000
 H      12.63700000      24.62500000      40.57200000
 O      20.86700000      22.46600000      31.99900000
 H      21.67700000      22.27300000      31.51200000
 H      20.44200000      21.54600000      31.96400000
 O      40.68700000      24.60900000      33.30900000
 H      40.37300000      23.79000000      32.79200000
 H      40.67800000      25.28600000      32.58900000
 O      28.25900000      40.70100000      34.03300000
 H      27.30700000      40.45000000      33.86400000
 H      28.17800000      41.63500000      33.99000000
 O      38.31300000      33.69300000      31.29500000
 H      39.25100000      33.96800000      31.49200000
 H      38.17600000      34.14200000      30.43600000
 O      23.74100000      35.12900000      27.95900000
 H      23.06100000      34.57500000      28.41400000
 H      24.57200000      34.58200000      28.07100000
 O      16.80100000      34.75100000      31.40200000
 H      16.88800000      34.25300000      32.26700000
 H      16.71200000      35.64800000      31.72600000
 O      34.47200000      35.98900000      37.72300000
 H      33.53800000      36.14200000      37.43900000
 H      34.49500000      36.59600000      38.44900000
 O      29.96600000      39.57300000      31.25400000
 H      29.93200000      40.10400000      32.08200000
 H      30.83500000      39.89900000      30.88200000
 O       9.87000000      35.29100000      29.19300000
 H       9.66000000      34.63700000      29.86200000
 H      10.85300000      35.10000000      29.17000000
 O      18.38000000      29.37800000      39.08700000
 H      18.24700000      30.34300000      38.98100000
 H      17.64500000      29.12200000      39.66400000
 O      24.45400000      37.82400000      31.55400000
 H      24.69600000      36.88200000      31.35300000
 H      23.91200000      38.07100000      30.79100000
 O      27.46500000      25.30800000      27.41300000
 H      27.51500000      25.33400000      28.37600000
 H      26.50900000      25.07000000      27.33300000
 O      37.02700000      28.98000000      40.14400000
 H      36.45900000      28.38100000      40.64600000
 H      36.24600000      29.56300000      39.80000000
 O      13.96400000      38.31800000      33.28900000
 H      13.81500000      39.25400000      33.48100000
 H      13.49700000      37.91000000      33.93800000
 O      15.21300000      36.58100000      39.47900000
 H      16.04500000      36.79300000      40.09100000
 H      14.72000000      37.40900000      39.63800000
 O      27.01700000      34.62900000      36.65500000
 H      27.38200000      33.86000000      36.17300000
 H      27.57700000      35.33800000      36.33100000
 O      11.00100000      39.10300000      29.14800000
 H      11.73900000      39.28400000      28.59000000
 H      11.11500000      39.82800000      29.80900000
 O      12.53900000      34.62300000      28.86700000
 H      13.34300000      35.05700000      28.49100000
 H      12.71700000      33.66900000      28.64000000
 O      28.70300000      33.87600000      34.90000000
 H      29.50500000      34.08800000      34.43100000
 H      28.04900000      34.30900000      34.32700000
 O      24.37400000      39.97800000      35.40000000
 H      23.54900000      39.46000000      35.44200000
 H      24.97600000      39.34800000      35.86000000
 O      21.48500000      25.99100000      34.27000000
 H      22.02700000      25.18600000      34.40600000
 H      21.95800000      26.61800000      34.82000000
 O      15.38900000      31.28300000      28.00200000
 H      16.10600000      30.75600000      27.59800000
 H      15.91100000      31.87400000      28.58600000
 O      25.02600000      28.51300000      33.16000000
 H      24.13300000      28.86200000      33.22200000
 H      25.56400000      29.24500000      32.90100000
 O      23.36900000      32.36600000      31.27600000
 H      22.93500000      32.99900000      30.60400000
 H      23.65200000      31.68800000      30.62200000
 O       9.42000000      32.00500000      40.20800000
 H       9.02700000      31.10700000      40.42100000
 H      10.22800000      31.89500000      40.64100000
 O      39.29800000      38.23500000      34.08600000
 H      38.74400000      38.23100000      33.29600000
 H      39.99200000      38.90300000      33.80700000
 O      38.16500000      25.78900000      32.59400000
 H      38.89800000      25.79000000      31.98100000
 H      38.54900000      26.36300000      33.27600000
 O      39.11200000      32.24900000      27.93700000
 H      39.60400000      32.00700000      27.13700000
 H      38.48000000      31.53100000      28.00500000
 O      24.74000000      30.15000000      30.04900000
 H      25.36000000      29.75600000      29.38800000
 H      24.12300000      29.41100000      30.18500000
 O      40.20400000      22.53000000      30.63400000
 H      39.79500000      22.67400000      29.72900000
 H      41.06700000      22.98500000      30.44200000
 O      39.38100000      32.15100000      34.61900000
 H      39.98800000      32.36900000      35.33900000
 H      38.98600000      33.03100000      34.51900000
 O      23.42600000      36.36600000      39.59300000
 H      23.23800000      35.46600000      40.04000000
 H      24.46100000      36.42000000      39.71200000
 O      36.60300000      25.87400000      39.33200000
 H      36.16400000      26.11500000      40.14900000
 H      36.04400000      26.36200000      38.65900000
 O      37.54600000      28.03800000      30.10800000
 H      37.55100000      27.31600000      29.41200000
 H      38.06900000      27.61900000      30.80400000
 O      23.00200000      21.98000000      30.41200000
 H      23.14500000      21.22400000      31.03300000
 H      23.74000000      21.71000000      29.77700000
 O      17.87600000      27.04900000      29.52500000
 H      17.07600000      27.56000000      29.71900000
 H      17.53900000      26.43700000      28.87400000
 O      10.37600000      30.88100000      34.68500000
 H      10.64400000      30.12300000      35.20100000
 H       9.45400000      30.98600000      35.05600000
 O      28.19100000      32.88800000      31.56500000
 H      28.87600000      33.36800000      31.09200000
 H      27.54800000      33.60200000      31.80300000
 O       7.21900000      22.23800000      27.93900000
 H       7.53300000      21.43400000      28.50400000
 H       8.00100000      22.83400000      28.04800000
 O      19.66400000      37.43400000      39.60200000
 H      20.48800000      37.99000000      39.48600000
 H      19.44200000      37.46900000      38.66300000
 O      26.66500000      33.82500000      39.67900000
 H      27.54400000      33.89500000      40.05700000
 H      26.81900000      34.09500000      38.77200000
 O      29.50200000      25.57300000      34.17700000
 H      30.10900000      24.82300000      34.09100000
 H      30.09200000      26.34700000      34.00500000
 O      28.30300000      40.28400000      28.66200000
 H      28.95500000      39.76400000      29.19900000
 H      28.89200000      40.68800000      27.97600000
 O      19.07000000      21.97500000      27.13500000
 H      18.33800000      21.33600000      27.07000000
 H      19.64900000      21.61600000      27.82400000
 O      22.89000000      25.71800000      38.35900000
 H      23.11200000      26.27000000      39.14600000
 H      23.51600000      26.15700000      37.72800000
 O       9.96100000      38.48300000      36.38900000
 H      10.42000000      38.25400000      35.53300000
 H       9.11100000      38.83800000      35.97700000
 O      32.42600000      40.54700000      29.79100000
 H      33.23700000      40.73700000      30.19900000
 H      32.16500000      41.44400000      29.45100000
 O      25.85200000      33.47500000      28.62100000
 H      26.80700000      33.32100000      28.69800000
 H      25.48700000      32.59300000      28.83100000
 O      26.43400000      25.06200000      40.53900000
 H      27.27100000      25.18000000      41.05600000
 H      26.72100000      24.26500000      40.04800000
 O      17.45100000      39.34000000      38.84300000
 H      17.27600000      39.82200000      39.63800000
 H      18.37200000      38.98400000      39.04600000
 O      13.06700000      29.81100000      32.40100000
 H      13.45300000      30.27600000      33.15400000
 H      12.77900000      28.98400000      32.87500000
 O      37.41100000      20.94700000      33.20500000
 H      37.25900000      21.91700000      32.89200000
 H      37.40800000      21.23000000      34.17900000
