1521
XYZ file of cluster: frame_15000_20394.2279c.c2f5a - created by MolEdiTo
 O      37.15000000      22.08500000      35.60500000
 H      36.78200000      22.98100000      35.76300000
 H      38.08800000      22.22900000      35.82900000
 O      27.31300000      23.25200000      34.70700000
 H      27.11700000      24.14500000      34.40300000
 H      26.57100000      22.74500000      34.32000000
 O      40.89700000      39.55500000      39.29800000
 H      40.81300000      39.86100000      38.35700000
 H      40.16400000      39.99300000      39.71500000
 O      19.18600000      37.44400000      36.72200000
 H      19.13700000      38.03200000      35.97400000
 H      19.58700000      36.64600000      36.41400000
 O      35.51300000      33.01100000      40.47100000
 H      34.88300000      32.39400000      40.98200000
 H      35.76900000      32.41700000      39.79700000
 O      19.85500000      16.68400000      34.00000000
 H      18.94500000      16.37300000      33.90200000
 H      19.74900000      17.11900000      34.87000000
 O      16.18100000      29.64800000      36.07500000
 H      16.91600000      29.09200000      36.32900000
 H      15.47000000      28.92200000      36.21000000
 O      38.26100000      34.66900000      34.46700000
 H      37.57800000      35.24800000      34.79400000
 H      38.98900000      35.28400000      34.29900000
 O       9.29400000      36.04300000      37.70300000
 H       9.30800000      35.46600000      36.88600000
 H       9.71900000      36.86200000      37.29900000
 O      28.42100000      37.26300000      36.61000000
 H      28.97700000      37.83600000      35.98000000
 H      28.80800000      37.51000000      37.45300000
 O      16.85200000      18.30400000      36.26600000
 H      16.05200000      17.85200000      36.64500000
 H      17.34300000      17.49300000      36.02600000
 O      16.83500000      18.20800000      40.01700000
 H      16.12600000      17.51700000      40.09000000
 H      16.47100000      18.74300000      39.27900000
 O      20.41900000      11.28600000      35.84000000
 H      20.83300000      11.67500000      36.60900000
 H      20.44900000      12.02500000      35.20700000
 O      19.46900000      32.24100000      35.61300000
 H      19.79000000      32.25200000      34.65800000
 H      20.00900000      31.50900000      35.97500000
 O      27.74300000      10.78000000      40.63200000
 H      27.09300000      11.47200000      40.93700000
 H      27.10900000      10.30000000      39.99500000
 O      36.95400000      31.83800000      35.89800000
 H      37.86400000      31.71700000      35.43800000
 H      36.83700000      32.79300000      35.62000000
 O      38.81900000      14.79600000      40.61500000
 H      39.20300000      14.06700000      40.07300000
 H      38.85600000      14.41900000      41.49900000
 O      14.18900000      35.72500000      35.11500000
 H      13.99300000      35.30300000      36.02000000
 H      14.48700000      34.90100000      34.65800000
 O      37.65400000      36.72100000      40.04600000
 H      38.18500000      36.14800000      39.48400000
 H      37.87000000      36.40000000      40.95000000
 O      30.52200000      14.14100000      38.92300000
 H      29.59300000      14.18200000      38.68500000
 H      30.41400000      13.42100000      39.67400000
 O      19.20300000      10.88300000      39.73200000
 H      20.03500000      11.29300000      39.38900000
 H      18.69100000      10.78800000      38.94100000
 O      32.91400000      29.31700000      34.95700000
 H      33.34600000      30.07700000      34.45800000
 H      33.00100000      29.69200000      35.87300000
 O      39.70500000      18.33600000      39.01200000
 H      40.64100000      18.72500000      39.07300000
 H      39.40000000      18.95300000      38.29700000
 O      28.82000000      36.79100000      39.91800000
 H      29.42100000      36.06400000      40.12000000
 H      28.61800000      37.18800000      40.72700000
 O      28.93600000      19.52400000      39.42800000
 H      28.14000000      19.24400000      38.92200000
 H      29.60200000      19.00200000      39.00000000
 O       7.88900000      14.13900000      39.20100000
 H       8.43400000      13.42200000      38.84800000
 H       8.43600000      14.86200000      39.08200000
 O      29.91200000      31.22600000      38.42100000
 H      29.76100000      32.14300000      38.76700000
 H      29.59300000      30.70700000      39.20900000
 O      32.27300000      15.93400000      36.31700000
 H      31.97500000      15.19200000      36.87500000
 H      33.22900000      15.73000000      36.28000000
 O      28.84400000      22.55800000      36.72300000
 H      29.63000000      22.10900000      36.23800000
 H      28.33900000      22.80000000      35.86500000
 O       7.34300000      37.24100000      38.81500000
 H       7.80600000      37.45000000      39.65500000
 H       8.11800000      36.77900000      38.40700000
 O      30.10900000      33.60900000      39.65700000
 H      30.18100000      33.99900000      40.50600000
 H      31.04700000      33.58400000      39.36600000
 O      22.15400000      38.36500000      35.43400000
 H      22.09400000      37.92100000      34.58800000
 H      22.26300000      37.56500000      36.00200000
 O      29.86200000      25.55200000      37.54200000
 H      29.33200000      24.66300000      37.45300000
 H      29.50800000      25.98500000      36.74900000
 O      12.73900000      28.09600000      40.48700000
 H      12.56400000      27.17400000      40.22800000
 H      12.19200000      28.56600000      39.73100000
 O      34.61600000      38.09600000      34.28700000
 H      34.25500000      38.71400000      34.92900000
 H      34.38400000      38.51200000      33.47100000
 O      15.45400000      22.52800000      37.83400000
 H      15.14700000      21.65900000      38.05300000
 H      16.39400000      22.42100000      37.86600000
 O      10.71400000      20.82900000      35.81200000
 H      10.02000000      21.44100000      36.05100000
 H      11.52200000      21.17100000      36.13800000
 O      30.34100000      21.74200000      40.24800000
 H      30.41300000      21.23000000      41.09700000
 H      29.61500000      21.17600000      39.89400000
 O      19.50900000      18.20100000      39.35600000
 H      19.62300000      18.26100000      40.35700000
 H      18.52700000      18.26800000      39.30600000
 O      34.71700000      39.87900000      37.20800000
 H      35.04700000      40.77400000      37.37000000
 H      35.56300000      39.40100000      37.19100000
 O      35.65800000      30.89700000      38.36000000
 H      34.70500000      30.68900000      38.05900000
 H      35.90400000      31.42000000      37.54500000
 O      16.89300000      35.54600000      37.53900000
 H      17.54300000      36.25200000      37.40300000
 H      16.21900000      35.99500000      38.11300000
 O       7.98100000      31.57500000      35.83400000
 H       7.95400000      32.40800000      36.30400000
 H       7.67900000      30.98500000      36.58100000
 O      15.99300000      12.71200000      40.06500000
 H      16.26500000      12.25600000      40.91500000
 H      16.02600000      11.93800000      39.44900000
 O      37.94500000      25.34200000      35.75300000
 H      38.66900000      24.73700000      35.61300000
 H      38.29100000      26.20700000      35.44900000
 O      23.74500000      14.20000000      40.71400000
 H      22.78500000      14.15400000      40.93200000
 H      23.63200000      14.41100000      39.79300000
 O      18.67000000      22.69500000      40.22000000
 H      18.53400000      22.24100000      39.39800000
 H      18.34400000      22.04300000      40.85700000
 O      30.05200000      12.36800000      40.72800000
 H      29.64400000      12.67600000      41.55600000
 H      29.66100000      11.45800000      40.59200000
 O      27.19500000      13.96700000      34.78900000
 H      28.03300000      13.56300000      34.73900000
 H      26.79300000      13.71000000      33.96300000
 O      34.39700000       8.48400000      39.32900000
 H      35.12900000       8.12700000      38.78500000
 H      34.52500000       7.88100000      40.12100000
 O      22.45300000       7.39700000      34.48900000
 H      23.27400000       7.61400000      34.92500000
 H      22.52800000       6.39800000      34.37100000
 O      23.09200000      18.23800000      39.28500000
 H      22.62400000      18.63700000      40.02500000
 H      22.80200000      18.89700000      38.57100000
 O      10.66000000      23.52200000      34.28600000
 H      11.40500000      23.34200000      34.92800000
 H       9.92900000      23.73500000      34.95500000
 O      19.85300000      18.16400000      36.43700000
 H      19.92000000      18.22200000      37.39300000
 H      20.49000000      18.83400000      36.17800000
 O      39.35100000      26.43400000      38.93100000
 H      38.55600000      25.95700000      38.80300000
 H      39.19900000      27.27600000      38.46500000
 O      31.52100000      35.77500000      36.73300000
 H      30.55200000      35.99900000      36.75000000
 H      31.56300000      35.62300000      35.73100000
 O      13.65600000      14.25700000      36.18700000
 H      13.00600000      14.54500000      36.83600000
 H      13.45300000      14.93800000      35.48700000
 O      26.29300000      39.76200000      39.09100000
 H      26.90700000      40.13500000      38.44300000
 H      25.65000000      40.48900000      39.17700000
 O      25.98000000       8.01900000      34.21100000
 H      25.35600000       8.29100000      34.89100000
 H      26.79400000       8.54600000      34.36000000
 O      18.43500000       6.80600000      34.93600000
 H      19.15800000       7.47800000      35.23400000
 H      18.99200000       6.01400000      35.04500000
 O      12.21600000      25.13300000      39.83100000
 H      11.43800000      24.56900000      39.67700000
 H      12.63700000      24.62500000      40.57200000
 O      32.59000000      19.96200000      38.87600000
 H      32.06400000      20.62900000      39.35500000
 H      32.01000000      19.20300000      38.86400000
 O      25.41900000      20.55400000      37.63700000
 H      26.16700000      19.93800000      37.63000000
 H      24.77400000      20.16900000      37.02100000
 O      18.22300000      27.85900000      36.08600000
 H      18.98400000      28.24300000      36.60600000
 H      18.68300000      27.42400000      35.38600000
 O      24.03000000      13.25700000      35.76800000
 H      24.59700000      12.48400000      35.65900000
 H      23.67800000      13.37500000      34.88800000
 O      40.37800000       8.23500000      38.49000000
 H      39.85700000       8.13400000      37.63200000
 H      39.69800000       8.75900000      38.95600000
 O      36.06900000      29.31600000      35.29800000
 H      35.35700000      29.33500000      34.60800000
 H      36.24000000      30.33000000      35.35000000
 O      39.81700000      13.44600000      38.53200000
 H      39.14800000      13.91000000      37.97700000
 H      40.19600000      12.75700000      37.92800000
 O      20.68600000       7.59000000      39.68100000
 H      19.85600000       8.02800000      39.42400000
 H      20.61300000       6.73300000      39.28100000
 O      15.81700000      20.38700000      34.60400000
 H      16.74100000      20.80000000      34.34100000
 H      16.23300000      19.91500000      35.39600000
 O      40.25000000      30.39400000      38.93600000
 H      39.70900000      29.85300000      38.35300000
 H      41.03200000      30.58100000      38.30800000
 O      25.10600000      31.42800000      35.91300000
 H      24.97600000      30.87900000      36.69900000
 H      26.05500000      31.57400000      35.91600000
 O      14.75000000      32.68700000      40.10200000
 H      14.67900000      32.45900000      39.14600000
 H      14.37300000      31.85500000      40.54800000
 O      12.41300000      16.07700000      39.38500000
 H      13.01200000      16.67100000      40.00400000
 H      12.96100000      15.26200000      39.48700000
 O      36.61900000      14.46000000      39.14700000
 H      37.21400000      14.69200000      39.84900000
 H      36.91400000      14.98200000      38.41200000
 O      15.44700000      29.55400000      39.72300000
 H      14.65400000      29.73000000      40.23400000
 H      15.46800000      30.25300000      39.05500000
 O      29.95600000      28.72700000      35.50400000
 H      29.34100000      28.68900000      34.70800000
 H      30.81500000      28.78700000      35.13500000
 O      32.58100000      12.88100000      36.97200000
 H      31.86300000      13.12100000      37.57700000
 H      32.83600000      11.99200000      37.28100000
 O      39.84400000      19.63200000      35.26800000
 H      39.39700000      20.34600000      35.69700000
 H      40.28700000      20.08000000      34.51700000
 O      21.76800000      11.46300000      39.24700000
 H      22.28900000      12.19900000      39.57800000
 H      22.33500000      10.73900000      39.19400000
 O      27.88300000      31.35200000      36.03600000
 H      28.64100000      31.18200000      36.61700000
 H      28.22500000      32.08700000      35.46200000
 O      22.11700000      36.14400000      37.33200000
 H      22.61200000      35.98700000      38.15900000
 H      22.80700000      35.63500000      36.75500000
 O      37.06700000      22.74800000      39.57800000
 H      36.82200000      23.72400000      39.45200000
 H      36.50200000      22.33600000      38.91000000
 O      15.92100000       9.94900000      39.04700000
 H      16.53100000      10.13200000      38.32700000
 H      15.24700000       9.36400000      38.51200000
 O      12.89800000      11.03500000      38.52600000
 H      12.49500000      10.38600000      37.91800000
 H      12.52500000      11.85800000      38.16500000
 O      31.59800000       7.69700000      39.17600000
 H      31.42400000       7.57800000      40.17900000
 H      32.56300000       8.01700000      39.29600000
 O       9.87000000      15.81600000      38.38300000
 H       9.68200000      16.48300000      39.12700000
 H      10.82700000      15.75000000      38.47200000
 O      40.89200000      40.20400000      36.24900000
 H      40.88700000      40.42300000      35.31400000
 H      41.78000000      40.50600000      36.52500000
 O       9.07400000      26.92600000      37.45800000
 H       8.43300000      26.63600000      38.13200000
 H       8.53000000      26.98700000      36.66300000
 O      14.30900000      19.96800000      37.34100000
 H      14.20800000      19.01000000      37.31200000
 H      14.73500000      20.17100000      36.50300000
 O       9.39700000      17.76400000      40.36800000
 H       8.50900000      18.16500000      40.26600000
 H       9.92100000      18.63000000      40.53900000
 O      34.47200000      35.98900000      37.72300000
 H      33.53800000      36.14200000      37.43900000
 H      34.49500000      36.59600000      38.44900000
 O      12.57100000      22.79600000      36.83600000
 H      12.72400000      22.86300000      37.82100000
 H      13.08400000      23.52800000      36.52000000
 O      31.52200000      24.04400000      39.27400000
 H      30.88500000      24.30900000      38.62000000
 H      31.03400000      23.33200000      39.74300000
 O      18.38000000      29.37800000      39.08700000
 H      18.24700000      30.34300000      38.98100000
 H      17.64500000      29.12200000      39.66400000
 O      34.90400000      10.89000000      40.21400000
 H      35.58000000      11.19400000      39.57000000
 H      34.92200000       9.95100000      39.96500000
 O      17.73800000      10.88900000      36.78900000
 H      18.48200000      11.09200000      36.20400000
 H      16.99500000      11.08900000      36.22000000
 O      13.59300000      13.88600000      40.18100000
 H      13.78100000      13.76500000      41.13400000
 H      14.43300000      13.48000000      39.86100000
 O      15.21000000      11.95000000      35.84900000
 H      14.65300000      12.70800000      36.17300000
 H      14.51100000      11.31300000      35.52600000
 O      25.14400000      26.84300000      36.21200000
 H      25.97200000      27.39500000      36.32600000
 H      25.50700000      26.02700000      35.84300000
 O      10.90600000       7.86800000      39.18200000
 H      10.69000000       6.91100000      38.96000000
 H      10.55400000       7.89800000      40.08900000
 O      26.48400000      20.27700000      40.69400000
 H      27.16700000      19.57300000      40.54000000
 H      26.63100000      20.86200000      39.98000000
 O      37.02700000      28.98000000      40.14400000
 H      36.45900000      28.38100000      40.64600000
 H      36.24600000      29.56300000      39.80000000
 O      14.10800000       8.02100000      37.67400000
 H      13.37600000       7.43100000      37.83500000
 H      14.73500000       7.39700000      37.29500000
 O      15.14900000      31.90400000      37.52200000
 H      15.31500000      31.04000000      37.13600000
 H      15.84300000      32.48900000      37.13300000
 O      36.81200000      16.83200000      37.13700000
 H      36.34800000      17.02600000      37.95000000
 H      36.62200000      17.68100000      36.64000000
 O      11.25000000      34.82300000      39.51000000
 H      10.67600000      35.31100000      38.83800000
 H      11.48200000      35.66700000      40.10000000
 O      39.70400000      37.36700000      36.76200000
 H      39.58100000      37.61400000      35.79800000
 H      40.36600000      38.06700000      36.98500000
 O      15.21300000      36.58100000      39.47900000
 H      16.04500000      36.79300000      40.09100000
 H      14.72000000      37.40900000      39.63800000
 O      25.51200000      37.71900000      36.40900000
 H      26.50300000      37.50700000      36.49800000
 H      25.21200000      36.89300000      35.93900000
 O      29.95000000      13.59400000      34.45000000
 H      30.62200000      14.07600000      34.93300000
 H      30.30700000      13.51400000      33.56400000
 O      27.01700000      34.62900000      36.65500000
 H      27.38200000      33.86000000      36.17300000
 H      27.57700000      35.33800000      36.33100000
 O      11.21200000      29.84400000      38.91900000
 H      11.33200000      29.50200000      37.93500000
 H      11.61300000      30.74100000      38.79700000
 O      24.23500000       8.55800000      36.26300000
 H      23.54000000       8.99400000      36.82500000
 H      24.29300000       7.70900000      36.67300000
 O      20.17700000       8.58400000      35.61500000
 H      20.13000000       9.55000000      35.78000000
 H      20.87500000       8.51100000      35.03600000
 O      12.13100000      32.27200000      38.47600000
 H      11.94100000      32.66600000      37.61300000
 H      11.28900000      32.57800000      38.94000000
 O       8.89100000      17.58300000      35.96500000
 H       9.35300000      17.08700000      36.71900000
 H       9.24700000      17.15800000      35.18400000
 O      19.92200000      35.12100000      35.73100000
 H      19.94000000      34.15500000      35.85200000
 H      20.88300000      35.32700000      35.84700000
 O      28.70300000      33.87600000      34.90000000
 H      29.50500000      34.08800000      34.43100000
 H      28.04900000      34.30900000      34.32700000
 O      30.26800000      10.26300000      38.45000000
 H      30.37500000       9.35000000      38.85700000
 H      31.04900000      10.28200000      37.90900000
 O      24.37400000      39.97800000      35.40000000
 H      23.54900000      39.46000000      35.44200000
 H      24.97600000      39.34800000      35.86000000
 O      26.05700000       9.81100000      38.72800000
 H      25.69600000       9.02200000      39.22900000
 H      25.41500000       9.92000000      38.06800000
 O      34.65200000      27.02800000      37.84500000
 H      33.77000000      27.38000000      38.12900000
 H      34.81600000      27.59400000      37.05100000
 O      21.48500000      25.99100000      34.27000000
 H      22.02700000      25.18600000      34.40600000
 H      21.95800000      26.61800000      34.82000000
 O      38.17000000      28.71100000      37.75400000
 H      37.46800000      29.03400000      37.19200000
 H      37.74700000      28.72800000      38.66200000
 O      40.27600000      34.55900000      37.49500000
 H      39.96500000      35.50800000      37.40200000
 H      41.10600000      34.58900000      36.98200000
 O      38.00300000      11.73600000      35.67400000
 H      38.90900000      11.41100000      35.44800000
 H      37.62200000      11.92300000      34.77300000
 O      22.80500000       9.08500000      39.11600000
 H      23.33700000       8.95200000      39.91800000
 H      22.01500000       8.57500000      39.32700000
 O      40.85500000      14.54000000      35.26800000
 H      41.78400000      14.30700000      35.50700000
 H      40.61000000      15.09300000      36.03300000
 O      17.78300000      32.89400000      38.00600000
 H      18.47500000      32.85000000      37.34500000
 H      17.50300000      33.80300000      38.00400000
 O       7.19000000      29.49300000      37.86500000
 H       6.30500000      29.10700000      38.15100000
 H       7.60200000      29.51800000      38.73300000
 O      33.16000000      33.77800000      38.75700000
 H      33.82200000      33.54900000      39.39400000
 H      33.39300000      34.72300000      38.54200000
 O       9.42000000      32.00500000      40.20800000
 H       9.02700000      31.10700000      40.42100000
 H      10.22800000      31.89500000      40.64100000
 O      38.84400000       6.76500000      35.96400000
 H      38.63200000       5.88600000      36.10400000
 H      38.86300000       6.95700000      35.02400000
 O      35.74100000      17.33000000      39.40900000
 H      35.90800000      17.96400000      40.13000000
 H      35.42900000      16.58600000      39.95900000
 O       7.65800000      34.74800000      34.71800000
 H       8.23100000      34.08400000      34.33000000
 H       6.76700000      34.26900000      34.62700000
 O       7.67400000      39.19100000      35.33200000
 H       7.13000000      39.43900000      36.15700000
 H       7.46300000      40.01300000      34.81400000
 O      40.61500000      11.00800000      35.17500000
 H      40.65700000      10.03900000      35.16500000
 H      41.35300000      11.19300000      34.57200000
 O      34.96700000      21.21800000      37.83200000
 H      34.16200000      20.95700000      38.33900000
 H      34.67700000      22.20600000      37.74300000
 O      15.80200000      31.22300000      34.01900000
 H      16.02100000      30.48500000      34.69200000
 H      15.91200000      30.67100000      33.23900000
 O      32.25300000      28.01000000      38.57200000
 H      31.61100000      27.91700000      37.83800000
 H      31.66900000      27.78100000      39.32100000
 O      29.49200000      27.00400000      39.79500000
 H      29.44500000      26.50400000      38.97500000
 H      29.32100000      26.25300000      40.44500000
 O       7.90300000       9.41800000      40.56200000
 H       8.46600000      10.21500000      40.34500000
 H       8.63000000       8.84800000      40.93800000
 O      12.43100000      20.73100000      39.53700000
 H      12.80200000      20.65500000      38.62000000
 H      13.17900000      20.68300000      40.12400000
 O      27.74800000      14.10600000      38.42100000
 H      27.66900000      13.26200000      37.89100000
 H      27.20300000      14.70700000      37.87400000
 O      22.51000000      28.08300000      36.17500000
 H      23.43900000      27.77600000      36.04800000
 H      22.51000000      28.16600000      37.13400000
 O      33.10300000       9.96800000      36.75900000
 H      33.62700000       9.29200000      37.26200000
 H      33.00400000       9.41700000      35.88900000
 O      24.94200000      27.40900000      40.55000000
 H      25.67500000      28.00400000      40.71400000
 H      25.42500000      26.51600000      40.45800000
 O      27.89900000      11.57000000      37.53500000
 H      27.48800000      10.82700000      38.06800000
 H      28.82200000      11.34900000      37.69100000
 O      13.77000000      34.67400000      37.80900000
 H      13.27400000      33.97900000      38.22300000
 H      14.12600000      35.13100000      38.56300000
 O      30.13100000       7.06400000      36.41200000
 H      29.61400000       7.81700000      36.24700000
 H      30.73700000       7.31300000      37.14000000
 O       7.47100000      19.59300000      37.21300000
 H       7.17200000      19.13900000      38.03500000
 H       8.23800000      19.03300000      36.93000000
 O      31.34100000      20.92400000      36.00600000
 H      32.00200000      20.95700000      36.73800000
 H      31.71400000      20.10000000      35.53500000
 O      27.05400000      18.21100000      37.68300000
 H      26.45300000      17.61300000      38.19400000
 H      27.39500000      17.72000000      37.00600000
 O      34.59900000      24.37700000      34.15400000
 H      33.96400000      25.03200000      33.89900000
 H      34.37800000      24.29300000      35.12700000
 O      19.52500000      21.72800000      36.14700000
 H      20.40100000      21.37600000      36.28800000
 H      19.62200000      22.64600000      36.42800000
 O      17.60500000      26.33400000      38.47200000
 H      16.58800000      26.40400000      38.36700000
 H      17.75100000      26.91200000      37.69100000
 O      39.41400000      16.08100000      37.31300000
 H      38.53600000      16.52700000      37.16100000
 H      39.65100000      16.55700000      38.13800000
 O      14.49300000      17.04500000      37.47000000
 H      14.16100000      16.54800000      36.75200000
 H      13.96500000      16.73800000      38.20600000
 O      16.31700000      40.44600000      36.35500000
 H      16.92300000      40.28200000      35.57600000
 H      16.76900000      39.80300000      37.02400000
 O      22.62600000      32.23900000      35.15200000
 H      22.71800000      33.03300000      34.64100000
 H      23.56100000      31.98800000      35.35200000
 O      39.38100000      32.15100000      34.61900000
 H      39.98800000      32.36900000      35.33900000
 H      38.98600000      33.03100000      34.51900000
 O      34.77800000      37.41000000      39.97500000
 H      34.88000000      36.72500000      40.63400000
 H      35.63800000      37.84500000      39.93900000
 O      13.33500000       7.74600000      40.63400000
 H      12.56000000       7.55500000      40.04200000
 H      13.37000000       6.93200000      41.15800000
 O      28.93900000      19.69400000      33.94900000
 H      29.78700000      19.88600000      33.49200000
 H      29.15900000      20.11400000      34.81300000
 O      12.01300000      39.96800000      37.57000000
 H      11.22200000      39.38400000      37.31900000
 H      12.71300000      39.40100000      37.17800000
 O      25.30500000       8.13200000      40.52700000
 H      24.69300000       7.54600000      41.04200000
 H      26.16000000       7.95300000      40.87500000
 O      27.50400000      10.30000000      34.82300000
 H      26.83600000      10.87700000      34.27800000
 H      27.24400000      10.66600000      35.68600000
 O      19.91600000      15.24400000      39.23200000
 H      20.32600000      14.99000000      38.35500000
 H      20.14100000      16.19200000      39.27800000
 O      23.42600000      36.36600000      39.59300000
 H      23.23800000      35.46600000      40.04000000
 H      24.46100000      36.42000000      39.71200000
 O      36.60300000      25.87400000      39.33200000
 H      36.16400000      26.11500000      40.14900000
 H      36.04400000      26.36200000      38.65900000
 O      20.20100000      34.62000000      39.93600000
 H      20.01200000      35.53200000      39.68900000
 H      20.70200000      34.34200000      39.17500000
 O      12.48300000      27.83600000      34.27700000
 H      13.36900000      27.89100000      34.71900000
 H      12.75700000      27.08600000      33.67400000
 O      39.90100000      22.16500000      39.78900000
 H      40.09600000      21.87000000      40.66200000
 H      38.94600000      22.04000000      39.76400000
 O       7.82500000      33.56100000      38.21000000
 H       8.14200000      34.40300000      38.24600000
 H       8.43500000      33.07500000      38.80800000
 O      39.91300000      32.95800000      39.80500000
 H      39.82500000      32.21900000      39.20300000
 H      40.13600000      33.66300000      39.15500000
 O      39.72100000      22.95200000      35.60400000
 H      40.12000000      23.37400000      34.79400000
 H      40.40500000      22.32000000      35.80800000
 O      33.99300000      24.11900000      37.65800000
 H      34.37300000      25.01500000      37.76300000
 H      33.13400000      24.24500000      38.02500000
 O      30.55500000      17.72800000      38.56300000
 H      31.04000000      17.07600000      39.15900000
 H      30.95800000      17.46400000      37.70900000
 O      21.15200000      14.83600000      35.84800000
 H      20.67900000      15.54700000      35.42000000
 H      21.66000000      14.44500000      35.07900000
 O      22.91000000      14.70100000      38.04700000
 H      23.41500000      14.13300000      37.40000000
 H      22.23300000      14.94700000      37.39400000
 O      24.08400000      33.66100000      40.11300000
 H      25.07300000      33.63000000      39.87200000
 H      23.68500000      33.14200000      39.39400000
 O      27.00100000      22.54400000      39.03100000
 H      26.36000000      22.24500000      38.34100000
 H      27.76900000      22.61600000      38.34600000
 O      20.84100000      30.08800000      36.94000000
 H      21.41500000      29.30000000      36.85000000
 H      20.23400000      29.72700000      37.64200000
 O      10.37600000      30.88100000      34.68500000
 H      10.64400000      30.12300000      35.20100000
 H       9.45400000      30.98600000      35.05600000
 O      23.90800000      19.37000000      35.04400000
 H      23.58600000      19.87900000      34.26100000
 H      24.60700000      18.81400000      34.61300000
 O      33.07800000      39.45200000      39.81200000
 H      33.46200000      39.75300000      38.96000000
 H      33.55300000      38.62600000      39.93400000
 O      37.23100000      38.68800000      36.47400000
 H      38.03900000      38.27000000      36.83400000
 H      36.88800000      37.89700000      35.99600000
 O      31.93200000      18.25700000      35.00100000
 H      32.62100000      18.36300000      34.31300000
 H      32.02600000      17.32600000      35.27100000
 O      36.01600000      19.19300000      35.95000000
 H      36.10900000      20.15800000      35.90200000
 H      35.45900000      19.09200000      36.79200000
 O       7.21300000      23.36700000      35.86000000
 H       8.13200000      23.54800000      36.17200000
 H       7.00100000      24.26200000      35.51600000
 O      32.97900000      30.62700000      37.95600000
 H      32.12500000      31.08000000      37.99200000
 H      32.73500000      29.78300000      38.41700000
 O      10.81900000      35.29900000      34.84200000
 H      11.65500000      34.93300000      35.16000000
 H      10.46300000      34.58700000      34.31800000
 O      25.01900000      16.20000000      38.82000000
 H      24.23500000      15.62600000      38.47700000
 H      24.44100000      16.95000000      39.10100000
 O      19.66400000      37.43400000      39.60200000
 H      20.48800000      37.99000000      39.48600000
 H      19.44200000      37.46900000      38.66300000
 O      26.66500000      33.82500000      39.67900000
 H      27.54400000      33.89500000      40.05700000
 H      26.81900000      34.09500000      38.77200000
 O      34.08600000      13.18600000      34.13300000
 H      34.57900000      13.87900000      34.64000000
 H      33.68000000      12.68400000      34.87000000
 O      10.25200000      22.61800000      39.57200000
 H      10.93400000      21.88900000      39.50700000
 H       9.85200000      22.26800000      40.47500000
 O      40.30500000      29.62900000      34.21900000
 H      41.04000000      29.82000000      34.88200000
 H      39.84500000      30.48100000      34.17500000
 O      23.34100000      21.71400000      39.45000000
 H      22.88000000      22.12600000      38.69800000
 H      24.10500000      21.31700000      39.03900000
 O       6.38100000      14.08100000      36.93000000
 H       7.22800000      14.24500000      36.40300000
 H       6.80300000      14.22000000      37.83100000
 O      37.76200000       9.34700000      38.97100000
 H      37.41800000      10.23100000      38.68600000
 H      37.45800000       8.73800000      38.25800000
 O      15.03800000      27.32200000      38.45500000
 H      15.25300000      28.25700000      38.73400000
 H      14.52300000      26.97000000      39.15700000
 O      11.87000000      32.88700000      35.50500000
 H      12.54800000      32.84500000      34.78100000
 H      11.23300000      32.26200000      35.16000000
 O      33.51700000      32.92200000      35.73900000
 H      33.35000000      33.27000000      36.66000000
 H      32.99700000      33.58900000      35.23100000
 O      10.76700000      13.90100000      36.23000000
 H      10.44200000      13.30000000      36.97200000
 H       9.82800000      14.32700000      36.03800000
 O      24.44100000      35.32100000      35.60200000
 H      25.18200000      34.88900000      36.06000000
 H      24.77200000      35.25400000      34.64800000
 O      28.45300000      16.41500000      35.50400000
 H      28.30300000      15.43200000      35.52200000
 H      29.39600000      16.46800000      35.33400000
 O      13.36200000      38.02100000      36.10300000
 H      14.15100000      38.22000000      36.56700000
 H      13.48600000      37.12400000      35.79200000
 O      11.06100000      28.93100000      36.26200000
 H      10.30700000      28.30500000      36.55900000
 H      11.40600000      28.36700000      35.50400000
 O      20.48000000      40.60300000      35.06200000
 H      19.60100000      40.31900000      34.83700000
 H      20.93400000      39.78400000      35.31700000
 O      27.28500000      28.39500000      36.46800000
 H      27.14300000      29.34100000      36.33300000
 H      28.12300000      28.35300000      36.94000000
 O       7.54500000      26.38500000      34.81100000
 H       6.83600000      26.93000000      34.37300000
 H       7.96700000      25.93100000      34.03900000
 O      36.20600000      36.19900000      35.33500000
 H      35.57700000      36.74700000      34.75900000
 H      35.59400000      35.96600000      36.06900000
 O      32.46800000      16.18100000      40.39600000
 H      32.22800000      15.38500000      39.83100000
 H      33.31300000      15.90100000      40.87300000
 O      20.27400000      24.87500000      37.41900000
 H      20.99000000      25.21400000      37.92400000
 H      19.51300000      25.16100000      37.99800000
 O      22.35000000      32.55400000      38.09800000
 H      22.14500000      32.39000000      37.12000000
 H      22.44400000      31.65100000      38.40500000
 O      21.81500000      20.20400000      36.35600000
 H      22.58000000      19.80500000      35.72300000
 H      22.20200000      21.06000000      36.46800000
 O      36.99100000       9.23100000      35.60300000
 H      37.10800000       8.97900000      34.72600000
 H      37.24900000      10.09300000      35.72100000
 O      21.21300000      28.31800000      39.35100000
 H      20.21100000      28.44100000      39.55300000
 H      21.54700000      28.08700000      40.22700000
 O      22.89000000      25.71800000      38.35900000
 H      23.11200000      26.27000000      39.14600000
 H      23.51600000      26.15700000      37.72800000
 O       9.96100000      38.48300000      36.38900000
 H      10.42000000      38.25400000      35.53300000
 H       9.11100000      38.83800000      35.97700000
 O      36.63700000      11.82400000      38.36700000
 H      36.63800000      12.68500000      38.84100000
 H      37.19300000      12.03900000      37.59200000
 O      29.78500000      39.03800000      35.22800000
 H      29.34700000      39.64700000      34.56700000
 H      30.67800000      39.41900000      35.26300000
 O      35.50000000      15.35900000      34.95000000
 H      36.22800000      15.43300000      34.26700000
 H      35.97200000      15.73700000      35.73400000
 O      26.43400000      25.06200000      40.53900000
 H      27.27100000      25.18000000      41.05600000
 H      26.72100000      24.26500000      40.04800000
 O      22.05400000      38.68100000      39.64500000
 H      22.70900000      37.93200000      39.39000000
 H      22.30300000      38.70300000      40.61300000
 O      22.65100000      22.78200000      36.70200000
 H      22.75000000      23.69800000      36.93700000
 H      22.75400000      22.82200000      35.69700000
 O      23.18400000      30.22500000      39.25300000
 H      23.93800000      29.65100000      39.20900000
 H      22.39900000      29.70500000      39.39400000
 O      26.06500000      37.06600000      39.78800000
 H      25.95400000      37.77400000      39.15300000
 H      27.02600000      36.95700000      39.69100000
 O      17.45100000      39.34000000      38.84300000
 H      17.27600000      39.82200000      39.63800000
 H      18.37200000      38.98400000      39.04600000
 O      38.21800000      27.90400000      34.35500000
 H      37.45500000      28.34800000      34.72400000
 H      38.87500000      28.61500000      34.33200000
 O       9.58600000      24.27900000      37.19700000
 H       9.82300000      23.77600000      38.02600000
 H       9.72100000      25.17800000      37.46600000
 O       9.26300000       7.25400000      35.70700000
 H       8.39300000       7.54600000      35.26800000
 H       8.96000000       6.54600000      36.25800000
 O      18.94100000      32.24000000      40.34000000
 H      18.32300000      32.56300000      39.62200000
 H      19.66000000      32.83000000      40.31200000
 O       9.00900000      29.38500000      40.49400000
 H       9.14500000      28.81300000      41.31200000
 H       9.86400000      29.40700000      40.09600000
 O      11.33100000       9.37700000      36.49500000
 H      10.77400000       8.74900000      36.04600000
 H      11.05500000       9.16500000      37.42200000
 O       9.64400000      12.27200000      38.27400000
 H       9.71000000      12.08400000      39.25500000
 H       9.10500000      11.52200000      37.95200000
 O       7.96200000      10.20600000      37.90000000
 H       7.87700000       9.46200000      37.23500000
 H       7.76400000       9.71200000      38.72200000
 O      27.00900000      15.31900000      40.54500000
 H      26.50900000      15.57600000      39.72600000
 H      27.37800000      14.47100000      40.24900000
 O      13.72400000       9.79800000      35.20700000
 H      14.10100000       9.07100000      35.84800000
 H      12.79000000       9.72100000      35.52500000
 O      14.86000000      23.79500000      35.21200000
 H      15.00700000      23.45300000      36.12800000
 H      15.72700000      23.92100000      34.91100000
 O      17.57200000      20.67600000      37.93700000
 H      17.32000000      19.81100000      37.54800000
 H      18.45200000      20.76100000      37.52300000
 O      14.88400000      27.10500000      35.09200000
 H      15.65600000      27.04300000      34.42400000
 H      14.93200000      26.16800000      35.37900000
 O      21.26700000      39.38300000      47.67600000
 H      20.77600000      39.23500000      48.50700000
 H      21.34600000      40.38800000      47.72000000
 O      22.76600000      20.15700000      42.98400000
 H      23.62100000      20.26200000      43.47100000
 H      22.74600000      20.89000000      42.37000000
 O      38.58200000      32.81800000      43.87400000
 H      39.05400000      32.83800000      43.01400000
 H      37.74700000      32.40400000      43.57600000
 O      13.52600000      13.36100000      45.27800000
 H      14.21400000      13.85300000      44.74400000
 H      14.12000000      12.64800000      45.62700000
 O      38.45800000      39.16900000      42.89600000
 H      38.23300000      38.37000000      42.41700000
 H      37.85300000      39.80600000      42.48400000
 O      32.49300000      18.64400000      49.12900000
 H      32.58500000      18.08400000      48.32600000
 H      32.08500000      19.45600000      48.81300000
 O      16.59000000      27.75000000      45.11700000
 H      15.89200000      27.05900000      44.89600000
 H      16.24500000      27.90600000      46.01800000
 O      15.42400000      40.75500000      48.32000000
 H      15.07500000      41.34300000      47.64900000
 H      16.39100000      40.82200000      48.07300000
 O      14.45100000      17.09700000      42.39900000
 H      14.44500000      16.27800000      42.90400000
 H      14.42800000      17.78600000      43.15000000
 O      13.90000000      38.95300000      42.36700000
 H      13.16700000      39.15000000      41.77200000
 H      13.39300000      38.50900000      43.08200000
 O      17.55100000      11.69000000      43.72500000
 H      17.20100000      10.73400000      43.99100000
 H      18.23700000      11.41400000      43.08400000
 O      21.16400000      14.23200000      42.98600000
 H      20.52100000      14.46200000      42.30000000
 H      20.61900000      13.63100000      43.55400000
 O      33.10100000      37.11300000      46.07100000
 H      32.67500000      37.96400000      45.82300000
 H      33.20300000      37.20400000      47.00900000
 O      12.55200000      22.78000000      47.68100000
 H      11.98200000      22.71800000      46.88900000
 H      13.44300000      22.82400000      47.22100000
 O      38.08700000       7.08900000      46.16200000
 H      37.67900000       6.92900000      45.31200000
 H      37.29000000       7.41900000      46.68100000
 O      18.37900000      31.04200000      44.37700000
 H      18.54700000      31.71600000      43.67100000
 H      18.91700000      30.30300000      44.02400000
 O      39.56300000      10.21500000      45.77200000
 H      39.22100000       9.70300000      44.95800000
 H      39.13900000       9.61000000      46.42600000
 O      33.67100000      27.57500000      45.50700000
 H      33.35000000      26.60800000      45.53000000
 H      33.36500000      27.83400000      46.39600000
 O      13.92500000      36.54200000      45.39500000
 H      14.25000000      35.83400000      44.73700000
 H      13.37100000      35.93400000      45.91700000
 O      22.47300000      27.61100000      43.09400000
 H      23.38100000      27.36400000      42.82200000
 H      22.44900000      27.01100000      43.93700000
 O      39.23100000      39.61300000      49.16100000
 H      38.62200000      39.29100000      48.48000000
 H      39.00300000      39.07000000      49.93500000
 O      28.30200000      23.41100000      46.63500000
 H      27.74600000      22.54600000      46.61400000
 H      28.99900000      23.19600000      46.00200000
 O      36.58100000      30.74000000      44.10600000
 H      36.41500000      29.84600000      43.79500000
 H      36.28600000      30.64700000      45.07100000
 O       8.99900000      30.48000000      45.86000000
 H       8.34900000      30.45800000      46.63500000
 H       8.37200000      30.98200000      45.23400000
 O      23.42500000      21.85700000      48.63100000
 H      23.30300000      22.46000000      49.44100000
 H      22.73400000      22.34700000      48.06600000
 O      34.44500000      37.95300000      48.32800000
 H      34.13200000      37.46300000      49.07500000
 H      33.84300000      38.71400000      48.38400000
 O      12.18200000      14.62200000      48.34100000
 H      11.65900000      14.69700000      47.53100000
 H      12.94600000      15.19700000      48.19700000
 O      31.53100000      21.13900000      46.68500000
 H      32.38900000      20.63400000      46.51500000
 H      31.85500000      21.96300000      47.07200000
 O       8.18300000      15.75700000      45.78300000
 H       8.45100000      14.87700000      45.51500000
 H       7.42900000      15.89900000      45.19000000
 O      18.34500000       7.25800000      43.21800000
 H      18.03100000       6.91300000      42.35000000
 H      17.71900000       7.99100000      43.34600000
 O      20.88200000      35.71100000      47.52100000
 H      21.06500000      34.81900000      47.07900000
 H      21.68500000      36.16800000      47.09100000
 O       9.76800000      28.15600000      44.36000000
 H       9.32600000      28.67900000      45.11100000
 H      10.68900000      28.57000000      44.51900000
 O      33.98700000      20.04700000      43.22000000
 H      33.76900000      19.79700000      42.30200000
 H      34.82600000      19.55400000      43.29900000
 O      30.44400000      24.22900000      45.19900000
 H      31.27000000      23.67200000      45.09600000
 H      30.83000000      25.06400000      45.55200000
 O      21.52400000      16.28700000      44.81400000
 H      21.52400000      15.68400000      44.00300000
 H      20.76100000      16.01700000      45.31400000
 O      28.99500000      35.61000000      45.97200000
 H      28.78400000      36.47500000      46.32700000
 H      28.20500000      35.08300000      46.17000000
 O      11.24000000      31.39500000      47.41700000
 H      10.55000000      31.19000000      46.70500000
 H      12.02600000      31.52400000      46.84300000
 O      27.10800000       8.95300000      47.87100000
 H      27.09400000       7.98300000      47.93600000
 H      26.43700000       9.07700000      47.15600000
 O      20.28000000      18.67400000      43.53900000
 H      20.94100000      18.01200000      43.88000000
 H      20.97000000      19.32300000      43.14800000
 O      25.92000000      27.41900000      48.94600000
 H      26.79700000      27.10200000      49.38900000
 H      26.05500000      26.99900000      48.11100000
 O      19.11500000      37.32600000      48.46700000
 H      19.94200000      36.79900000      48.18900000
 H      18.61400000      37.21900000      47.60700000
 O      35.59900000      37.44500000      45.24000000
 H      35.53200000      36.81100000      44.48300000
 H      34.75800000      37.19200000      45.67600000
 O      37.76100000      24.52100000      48.41900000
 H      36.79400000      24.43500000      48.45600000
 H      37.88400000      25.00500000      47.59700000
 O      24.79300000      15.56500000      44.61700000
 H      25.67700000      15.92000000      44.42800000
 H      24.55000000      15.26800000      43.70100000
 O      20.58700000       6.63400000      46.97100000
 H      20.21500000       7.43800000      47.44100000
 H      20.67100000       7.09900000      46.07700000
 O      35.38800000      22.21200000      48.64800000
 H      34.94700000      22.19700000      49.46600000
 H      35.40700000      21.28100000      48.42500000
 O      12.26400000      34.96400000      47.08600000
 H      11.89800000      35.60000000      47.83600000
 H      11.37600000      34.48400000      46.93700000
 O      37.32000000      32.33400000      46.29300000
 H      37.55000000      33.23300000      46.62100000
 H      37.63700000      32.39200000      45.37400000
 O      13.28200000      28.32800000      45.03600000
 H      12.97800000      28.65400000      44.20300000
 H      13.65800000      27.45300000      44.69400000
 O       9.39400000      25.72600000      48.37900000
 H       9.08300000      25.55200000      47.45700000
 H      10.39000000      25.55600000      48.26100000
 O      36.03200000      11.36800000      46.39600000
 H      35.74800000      12.31200000      46.57900000
 H      36.10800000      11.42300000      45.41000000
 O      36.78700000      14.51800000      44.48200000
 H      37.41400000      15.26400000      44.71900000
 H      37.45500000      13.82200000      44.40100000
 O       8.97800000      36.16000000      44.12100000
 H       8.44000000      36.55300000      44.88000000
 H       8.60900000      35.23600000      44.11500000
 O      21.04700000      28.74300000      46.10300000
 H      20.49100000      28.84200000      45.29100000
 H      21.77500000      29.36200000      45.90300000
 O      14.77700000      34.61600000      43.72200000
 H      14.77100000      33.88800000      43.06200000
 H      15.60600000      35.05700000      43.56000000
 O      19.32900000      15.73300000      46.71200000
 H      19.51700000      14.95200000      47.33800000
 H      19.77200000      16.46000000      47.31100000
 O      11.65900000      32.92000000      43.09500000
 H      11.96900000      33.51100000      43.73100000
 H      11.73100000      33.33900000      42.23200000
 O      14.97700000      29.29500000      47.05200000
 H      14.23100000      29.02900000      46.40800000
 H      15.32000000      30.03800000      46.53500000
 O      18.04800000      18.70400000      45.12300000
 H      18.73000000      18.79500000      44.44400000
 H      18.49100000      19.00500000      45.92600000
 O      32.97400000       7.05400000      45.34300000
 H      33.51100000       7.76700000      45.69000000
 H      32.35700000       6.88900000      46.10000000
 O      29.84000000      14.88900000      44.87400000
 H      29.57400000      15.69400000      44.39100000
 H      29.21800000      14.21800000      44.56700000
 O       7.23700000      31.35300000      44.16000000
 H       6.59800000      31.55100000      43.41300000
 H       6.59100000      30.90400000      44.82600000
 O      11.84200000      39.23000000      44.69900000
 H      12.60900000      39.10900000      45.30600000
 H      11.90700000      40.22900000      44.56600000
 O      32.71600000      14.16700000      45.95100000
 H      31.75400000      14.30500000      45.80100000
 H      32.92500000      13.84000000      45.02500000
 O      36.49500000      19.13300000      42.97600000
 H      37.00200000      19.90400000      43.30600000
 H      37.30200000      18.59400000      42.66400000
 O      30.51400000      40.54800000      42.94300000
 H      29.82300000      40.98000000      42.38900000
 H      31.13300000      40.28900000      42.24300000
 O      37.65600000       9.94000000      48.14200000
 H      37.05100000      10.64400000      47.74100000
 H      37.12500000       9.20000000      48.03000000
 O      29.55400000      26.36500000      47.30600000
 H      30.00400000      26.01700000      48.08800000
 H      29.02300000      25.50600000      47.06600000
 O      22.11100000      26.20100000      45.08800000
 H      21.70500000      27.02600000      45.39800000
 H      22.23000000      25.69500000      45.89100000
 O      19.76400000      19.72200000      47.17700000
 H      20.72000000      19.97900000      46.98300000
 H      19.74000000      20.04800000      48.11700000
 O      17.46600000      34.43200000      47.68200000
 H      17.56000000      34.54100000      48.69600000
 H      18.04000000      33.63000000      47.59600000
 O       8.45400000      21.28400000      45.92200000
 H       7.54600000      21.02300000      45.64200000
 H       8.34900000      21.11600000      46.90000000
 O      15.07500000      18.93500000      44.34500000
 H      14.54200000      18.54300000      45.08200000
 H      15.95600000      18.54400000      44.64900000
 O      20.11100000      13.84400000      48.31100000
 H      20.18800000      13.33800000      49.18200000
 H      21.06300000      14.08700000      48.17100000
 O      34.17500000      25.33000000      42.46100000
 H      34.02500000      24.43300000      42.86300000
 H      33.55400000      25.23000000      41.69900000
 O      38.61900000      34.33500000      47.72900000
 H      38.79700000      35.30500000      48.00500000
 H      38.80700000      33.95800000      48.59400000
 O      26.11500000      34.03800000      44.99500000
 H      25.16100000      33.77800000      44.81100000
 H      26.55500000      33.28500000      44.58000000
 O      33.17400000      24.91400000      46.21200000
 H      32.64400000      24.51200000      47.00000000
 H      34.04200000      24.99500000      46.70500000
 O      37.37700000       6.94400000      43.28600000
 H      36.40500000       7.04100000      43.24400000
 H      37.66500000       7.84800000      43.22500000
 O      18.80600000      27.04700000      47.06200000
 H      17.99800000      26.86300000      46.53900000
 H      18.63700000      27.85700000      47.41900000
 O      16.85400000      16.41200000      46.09000000
 H      17.63200000      16.14400000      46.61600000
 H      17.31100000      17.18200000      45.58200000
 O       9.23800000      25.30700000      45.68600000
 H       8.49900000      25.03900000      45.04000000
 H       9.47300000      26.16100000      45.25500000
 O      30.50300000      20.31200000      44.08300000
 H      31.01100000      20.67400000      44.83300000
 H      29.77000000      19.88500000      44.59100000
 O      28.77500000      12.81900000      49.26600000
 H      29.43400000      13.45200000      49.65000000
 H      28.57700000      13.43800000      48.48700000
 O      12.48300000      10.26200000      42.90600000
 H      12.85900000       9.37000000      42.77600000
 H      12.68900000      10.64400000      41.97200000
 O      15.58800000      14.79100000      44.14800000
 H      16.35300000      14.69000000      43.53100000
 H      16.04000000      15.36500000      44.83300000
 O      29.59000000       8.82800000      49.04200000
 H      29.21400000       9.00100000      49.91800000
 H      28.74900000       8.91100000      48.50700000
 O      23.78400000      23.48000000      43.37000000
 H      23.78800000      22.90300000      42.59300000
 H      24.64300000      23.95900000      43.25600000
 O      23.72400000      38.12900000      47.89900000
 H      23.54600000      37.39400000      47.31000000
 H      22.95400000      38.67700000      47.77200000
 O      18.15600000      36.45800000      46.00100000
 H      17.90500000      35.79300000      46.66400000
 H      18.49200000      35.95400000      45.27700000
 O      26.33500000      25.81300000      46.51100000
 H      25.72400000      25.07800000      46.39100000
 H      27.17800000      25.24400000      46.66400000
 O      15.62700000      11.99200000      46.06700000
 H      16.32800000      12.31700000      46.66400000
 H      16.10300000      11.37000000      45.55800000
 O      17.54500000      12.80200000      48.01100000
 H      17.25200000      13.34800000      48.78200000
 H      18.41400000      13.23700000      47.87300000
 O       8.24600000       7.88100000      47.84600000
 H       9.18700000       7.80200000      47.44700000
 H       8.46700000       8.67500000      48.41800000
 O      14.27700000      39.08700000      45.76800000
 H      14.50100000      39.15600000      46.71500000
 H      14.21300000      38.05300000      45.77000000
 O       9.63900000      32.84900000      49.18600000
 H       9.59100000      33.47800000      48.44700000
 H       9.93800000      32.05800000      48.66100000
 O      14.56100000       8.95400000      48.26700000
 H      14.09500000       9.73900000      48.56500000
 H      13.88200000       8.29700000      48.50400000
 O      28.05200000      13.03800000      44.14700000
 H      27.14700000      12.88700000      43.69600000
 H      27.83800000      12.51500000      44.99600000
 O      23.10500000       6.69400000      43.43000000
 H      22.32800000       7.19700000      43.85500000
 H      22.54600000       6.22100000      42.68800000
 O      13.30700000      32.61900000      45.81600000
 H      14.19200000      32.56400000      45.44600000
 H      13.30600000      33.54500000      46.18800000
 O      14.60100000      25.95500000      44.67300000
 H      14.00000000      25.23700000      44.27200000
 H      15.45400000      25.48400000      44.64000000
 O      18.99600000      34.41700000      44.32500000
 H      18.86800000      34.04100000      43.44500000
 H      19.94300000      34.43700000      44.44100000
 O      28.96300000      24.19200000      42.96800000
 H      29.37300000      23.44400000      42.46200000
 H      29.43500000      24.05700000      43.79200000
 O      34.95400000      15.60200000      42.87900000
 H      35.08100000      14.88400000      42.20900000
 H      35.56000000      15.24800000      43.56800000
 O      32.59000000      34.84500000      44.47100000
 H      32.78100000      35.69600000      44.96800000
 H      31.72500000      35.08400000      44.09600000
 O      33.10800000      12.29200000      47.90100000
 H      32.92500000      13.13600000      47.48400000
 H      32.26900000      11.81000000      47.74100000
 O      33.13700000      12.79700000      43.00800000
 H      32.23500000      12.64400000      42.73900000
 H      33.61500000      12.10200000      42.53300000
 O      11.17300000      19.50000000      43.16800000
 H      10.51200000      20.25200000      43.24300000
 H      11.63400000      19.87900000      42.27900000
 O      28.23000000      32.38700000      48.75900000
 H      27.50200000      33.01500000      48.44900000
 H      28.16600000      31.73300000      48.02700000
 O      35.75000000      14.12300000      47.01500000
 H      35.20100000      14.93500000      47.10500000
 H      36.00900000      14.16000000      46.06000000
 O      32.68600000      32.49900000      46.16900000
 H      32.19100000      32.69500000      47.01300000
 H      32.67600000      33.36500000      45.72900000
 O      37.83700000      30.28200000      47.82900000
 H      37.57000000      31.00100000      47.18900000
 H      37.28700000      29.53700000      47.55000000
 O      29.29800000      32.41500000      44.26800000
 H      30.04600000      31.85400000      44.29700000
 H      28.54100000      31.77400000      44.17400000
 O      40.79000000      37.86700000      47.18100000
 H      41.39600000      37.75000000      46.45300000
 H      39.95800000      38.00000000      46.65200000
 O      35.97800000      17.05500000      45.70200000
 H      35.15000000      16.92000000      46.18300000
 H      35.72900000      16.85000000      44.77900000
 O      25.66100000      12.16600000      43.31900000
 H      25.04100000      12.92300000      42.96800000
 H      24.93800000      11.57500000      43.65600000
 O       9.24400000      34.22300000      46.74000000
 H       8.64700000      34.99500000      46.85000000
 H       9.14400000      34.03500000      45.80900000
 O      35.59800000      19.52700000      48.31700000
 H      35.23600000      18.99500000      49.03500000
 H      36.33400000      19.03000000      48.03400000
 O      22.55300000      20.56600000      46.58700000
 H      23.14300000      20.82100000      47.33900000
 H      22.89000000      19.72700000      46.35100000
 O      26.89300000      29.06000000      42.90300000
 H      27.82400000      29.22400000      42.77800000
 H      26.88500000      28.55700000      43.67600000
 O      22.58000000      15.29400000      47.95900000
 H      22.14700000      15.45200000      48.84300000
 H      22.57200000      16.20200000      47.60800000
 O      15.55900000      36.40100000      47.74900000
 H      16.20900000      35.64200000      47.73600000
 H      15.18200000      36.31900000      46.84800000
 O      18.19900000      21.91600000      45.84100000
 H      18.65000000      21.14100000      46.35200000
 H      18.98500000      22.49600000      45.82600000
 O      25.09600000       9.38900000      46.20400000
 H      24.65800000       8.53600000      45.89000000
 H      24.61100000      10.00500000      45.57500000
 O      35.86200000       8.00300000      47.60800000
 H      35.43100000       7.88500000      48.44900000
 H      35.08800000       8.26400000      47.06800000
 O      20.59600000      23.40700000      44.71500000
 H      21.05800000      24.26800000      44.52000000
 H      20.89100000      22.88500000      43.97000000
 O      12.39300000      18.43900000      45.23900000
 H      11.48200000      18.20800000      45.54800000
 H      12.03800000      18.69000000      44.32200000
 O      13.36200000      30.81800000      43.07200000
 H      12.56900000      31.25000000      42.67000000
 H      13.25800000      31.11700000      43.94600000
 O      30.24400000      28.88300000      46.71400000
 H      30.63400000      29.39300000      47.40700000
 H      30.19900000      28.01000000      47.10700000
 O      34.03900000       9.48000000      46.34000000
 H      34.76900000      10.16000000      46.33700000
 H      33.26100000      10.09800000      46.49800000
 O      10.31300000      17.08400000      46.86200000
 H      10.79700000      16.31800000      46.43700000
 H       9.46500000      16.94600000      46.32400000
 O      37.55500000      14.91100000      48.75700000
 H      38.14800000      14.29500000      48.22100000
 H      36.72500000      14.71100000      48.23800000
 O      17.75600000      14.82800000      42.43900000
 H      18.37500000      15.22000000      41.78300000
 H      17.36800000      14.06700000      41.90100000
 O      18.67400000      31.91300000      47.04900000
 H      19.56700000      32.14700000      47.14400000
 H      18.52500000      31.91000000      46.03800000
 O      39.35500000      30.01400000      42.93900000
 H      39.67900000      30.31700000      42.06500000
 H      38.37500000      30.09300000      42.73400000
 O      23.23900000      32.72800000      44.61700000
 H      23.57100000      33.04100000      43.72900000
 H      23.14000000      31.77200000      44.43900000
 O      36.09700000      28.79200000      46.22800000
 H      35.13300000      28.55700000      46.29200000
 H      36.42500000      27.90100000      45.97200000
 O      40.49100000      33.98600000      45.71300000
 H      39.79400000      33.99100000      46.36700000
 H      40.09000000      33.41800000      45.01800000
 O      39.44200000      13.64600000      47.13400000
 H      39.96300000      13.52700000      46.30100000
 H      39.63400000      12.78600000      47.55900000
 O      27.37600000       6.89600000      43.30700000
 H      27.07700000       6.34700000      44.02900000
 H      27.97600000       7.50300000      43.74400000
 O       8.01200000      13.03100000      44.97500000
 H       8.05600000      12.01300000      44.90200000
 H       7.48600000      13.23100000      44.16100000
 O      38.96100000      13.06600000      44.14900000
 H      38.49400000      12.20000000      44.22300000
 H      39.86200000      12.74500000      44.34800000
 O      15.03500000      23.03600000      46.61100000
 H      15.54000000      23.22400000      45.82300000
 H      15.30400000      23.71400000      47.21000000
 O      20.81000000      39.29300000      44.88300000
 H      20.97300000      39.45500000      45.79700000
 H      21.64400000      38.94800000      44.53100000
 O      29.68800000      35.02400000      43.53900000
 H      29.49400000      34.03700000      43.76900000
 H      29.58100000      35.39100000      44.47400000
 O      38.34700000      17.24400000      42.55500000
 H      38.81200000      17.58700000      41.76400000
 H      38.74900000      16.34800000      42.66600000
 O      26.40800000      21.62500000      46.57800000
 H      25.55200000      22.11500000      46.46300000
 H      26.18400000      20.83000000      46.03600000
 O      15.68800000       9.12600000      43.22600000
 H      15.16800000       8.30600000      42.90200000
 H      15.73700000       9.53000000      42.32600000
 O      36.10000000      22.49100000      45.76800000
 H      35.89300000      23.47700000      45.76200000
 H      35.83800000      22.25500000      46.64700000
 O      29.34600000      20.11300000      48.81500000
 H      29.78200000      20.39400000      48.05900000
 H      28.57000000      20.66000000      48.93300000
 O       6.35400000      28.39900000      42.56800000
 H       5.51500000      28.86300000      42.65500000
 H       6.96900000      29.03700000      42.92800000
 O       7.72300000      36.76500000      46.32400000
 H       7.09200000      36.18500000      46.76400000
 H       7.97900000      37.29400000      47.19900000
 O      28.14300000      38.50600000      46.26600000
 H      27.30700000      38.92600000      46.44800000
 H      28.11600000      38.46200000      45.24100000
 O      28.55900000      15.09000000      47.59200000
 H      28.90500000      15.02100000      46.65200000
 H      28.44000000      16.08300000      47.61800000
 O      34.91200000      32.95100000      47.77000000
 H      35.66200000      32.67300000      47.23400000
 H      34.16800000      32.74100000      47.15500000
 O       8.65700000      10.51800000      44.92800000
 H       9.58800000      10.30100000      45.10100000
 H       8.24200000       9.62400000      44.86400000
 O      28.94200000       9.13100000      43.91800000
 H      28.57800000       9.52300000      44.73300000
 H      28.49500000       9.73000000      43.24400000
 O      31.00700000      32.80000000      48.50500000
 H      31.08200000      33.51500000      49.17600000
 H      30.13100000      32.46000000      48.69800000
 O      22.93000000      36.64800000      45.78300000
 H      23.69900000      36.49500000      45.17800000
 H      22.37000000      37.14500000      45.25900000
 O      24.38600000      28.12300000      45.99800000
 H      23.90500000      27.87400000      46.79800000
 H      25.21200000      27.61000000      46.12600000
 O      33.56300000      22.53000000      44.01900000
 H      34.32200000      22.30500000      44.67800000
 H      33.46700000      21.65100000      43.66100000
 O      29.76200000      40.64800000      47.22100000
 H      29.05500000      40.97200000      47.82900000
 H      29.32700000      40.00600000      46.69600000
 O      26.00300000      12.83800000      47.90800000
 H      25.36100000      13.19300000      47.24500000
 H      26.41900000      13.64500000      48.20800000
 O      18.15600000      40.67900000      47.69500000
 H      18.85400000      39.98800000      47.81200000
 H      18.59500000      41.28600000      47.06400000
 O       9.24600000      18.75800000      48.56100000
 H       9.65100000      18.06200000      47.97200000
 H      10.14600000      19.16200000      48.81000000
 O      37.48600000      21.35800000      43.59000000
 H      37.18000000      21.95300000      44.39900000
 H      37.25000000      21.98800000      42.85600000
 O      22.97100000       6.99900000      48.13600000
 H      23.43000000       7.11400000      47.28000000
 H      22.05700000       6.88200000      47.80900000
 O      23.31400000      38.76800000      43.53200000
 H      24.05900000      39.47300000      43.54200000
 H      23.93800000      38.02700000      43.56600000
 O      38.11400000      26.25100000      45.75800000
 H      38.73300000      26.98300000      45.96000000
 H      38.45900000      25.95100000      44.88500000
 O      11.36400000      37.03900000      43.20500000
 H      11.43400000      37.83800000      43.76900000
 H      10.55200000      36.63300000      43.59200000
 O      24.26100000      23.42800000      46.15100000
 H      23.91300000      23.27000000      45.23700000
 H      23.42600000      23.30400000      46.68300000
 O      38.61800000      38.13000000      45.83400000
 H      38.41500000      37.76200000      44.96300000
 H      37.74500000      38.40400000      46.15800000
 O      14.04600000      18.70300000      47.40100000
 H      14.01000000      17.96000000      48.02200000
 H      13.26400000      18.56700000      46.79800000
 O      32.62200000      39.96600000      48.70200000
 H      31.81900000      39.97800000      48.13900000
 H      32.54500000      40.86200000      49.16900000
 O      16.88600000       9.63100000      45.48900000
 H      16.38000000       9.24700000      44.68300000
 H      16.84300000       8.80400000      46.04500000
 O      26.49100000      34.12800000      47.67900000
 H      26.23600000      34.01500000      46.73100000
 H      25.58700000      33.97000000      48.08800000
 O       8.65900000      33.55800000      44.19500000
 H       9.08900000      33.54000000      43.29000000
 H       8.22400000      32.66400000      44.22100000
 O      19.63400000      13.01700000      44.81000000
 H      19.33100000      13.85900000      45.21600000
 H      18.77400000      12.67400000      44.43100000
 O      22.69900000      27.04500000      48.04100000
 H      23.11300000      26.95200000      48.93900000
 H      21.90100000      26.50500000      48.15500000
 O      14.44500000      21.07200000      42.93000000
 H      14.53700000      20.32000000      43.57200000
 H      15.43500000      21.32100000      42.88300000
 O      28.43500000      17.67000000      47.57200000
 H      27.53700000      17.89800000      47.91600000
 H      28.98200000      18.34100000      47.99300000
 O      14.32800000      12.72200000      48.40800000
 H      13.78600000      13.50300000      48.29700000
 H      14.67300000      12.59900000      47.48100000
 O       6.34400000       8.10700000      45.99600000
 H       6.18700000       7.13200000      46.13700000
 H       7.07900000       8.22700000      46.59900000
 O       9.89600000       7.95600000      43.33100000
 H      10.78900000       8.03400000      43.75200000
 H       9.82700000       7.06100000      43.08900000
 O      16.15600000       7.39100000      46.79500000
 H      15.61900000       8.04000000      47.28700000
 H      15.43500000       6.95800000      46.24100000
 O      38.93400000      36.03300000      44.00100000
 H      39.85900000      36.30200000      44.03900000
 H      39.02400000      35.05400000      44.15800000
 O      15.73600000      30.85200000      45.11900000
 H      15.32700000      30.28300000      44.48200000
 H      16.65600000      30.91900000      44.81000000
 O      12.54000000      29.34800000      48.94800000
 H      12.22100000      29.96900000      48.31800000
 H      13.50900000      29.30500000      48.61300000
 O       7.89600000      38.28500000      42.89900000
 H       8.43900000      37.65500000      43.42300000
 H       7.81600000      39.06800000      43.46800000
 O      21.70300000      23.30700000      47.19200000
 H      21.17800000      23.98000000      47.73800000
 H      21.05400000      23.27200000      46.41500000
 O      36.80400000      11.13000000      43.83900000
 H      37.40200000      10.38000000      43.73100000
 H      36.24000000      11.07100000      43.03400000
 O      27.15000000      11.23000000      45.85600000
 H      26.97300000      11.42800000      46.78800000
 H      26.27500000      10.84000000      45.58400000
 O      38.78800000      17.18600000      49.45500000
 H      38.40000000      16.29700000      49.39500000
 H      38.65000000      17.50100000      48.51500000
 O      12.12200000       7.51300000      45.34900000
 H      12.45200000       8.35100000      45.68600000
 H      11.59800000       7.12000000      46.08600000
 O      32.15800000      17.78800000      44.42800000
 H      32.17200000      17.37300000      43.52400000
 H      32.04900000      18.70800000      44.18000000
 O      25.48200000      30.11900000      48.18800000
 H      26.34200000      30.14100000      47.72400000
 H      25.38200000      29.14900000      48.21000000
 O      30.34800000      11.15800000      47.93500000
 H      30.10900000      10.23600000      48.23300000
 H      29.79500000      11.71900000      48.48500000
 O      32.31500000      39.93000000      45.14200000
 H      31.77800000      39.96000000      44.29100000
 H      31.74100000      40.35600000      45.75200000
 O      32.99300000      16.93200000      46.75200000
 H      32.60500000      16.01400000      46.70100000
 H      32.53300000      17.27100000      45.89900000
 O      38.09400000      18.24800000      46.99100000
 H      38.68500000      18.38700000      46.17800000
 H      37.40400000      17.75300000      46.49800000
 O      32.03200000      23.17800000      48.24000000
 H      31.18700000      23.54500000      48.63000000
 H      32.58000000      23.29500000      49.03900000
 O      35.07400000      26.88900000      48.50800000
 H      34.16300000      26.64400000      48.85700000
 H      35.48200000      26.94500000      49.46600000
 O      18.25500000      38.76100000      44.63500000
 H      19.20900000      38.93400000      44.68000000
 H      18.14100000      38.01900000      45.21100000
 O      14.72900000      15.74600000      48.00400000
 H      15.20800000      15.23000000      48.65400000
 H      15.42300000      16.01500000      47.35300000
 O       8.33900000      38.50000000      48.42500000
 H       8.85600000      39.05200000      49.05400000
 H       7.82900000      39.16800000      47.98000000
 O      10.94300000      15.68200000      43.25400000
 H      11.58600000      15.75200000      42.48600000
 H      10.26100000      16.32500000      42.95500000
 O      18.80200000      25.61200000      42.52400000
 H      18.43400000      25.95600000      41.70600000
 H      18.89600000      24.64600000      42.26300000
 O      16.91700000      24.52800000      44.27600000
 H      17.44100000      24.82100000      43.50800000
 H      17.60100000      23.90700000      44.65700000
 O      38.64800000       9.39200000      43.02000000
 H      38.21100000       9.26700000      42.15900000
 H      39.55900000       9.68700000      42.62000000
 O       7.63400000      24.53300000      43.81900000
 H       6.94500000      23.94600000      44.06100000
 H       7.76500000      24.46000000      42.91400000
 O      23.43000000      11.18800000      44.87700000
 H      23.38800000      12.01900000      45.38300000
 H      22.46300000      11.04000000      44.80300000
 O      17.12500000      21.07300000      43.53200000
 H      17.47300000      21.63500000      44.25200000
 H      17.10800000      20.18000000      43.90400000
 O      13.24100000      23.29000000      43.86000000
 H      13.65200000      22.51800000      43.38400000
 H      12.96300000      22.79500000      44.68400000
 O      23.06600000      29.97300000      44.77300000
 H      22.99100000      29.51200000      43.85400000
 H      23.64300000      29.19300000      45.19300000
 O      10.82900000      22.69800000      45.56800000
 H      10.08400000      22.06300000      45.85900000
 H      10.35700000      23.54700000      45.69300000
 O      24.13300000      13.50300000      46.24900000
 H      23.58300000      14.14400000      46.83300000
 H      24.37000000      14.19100000      45.53000000
 O      33.32100000      29.59100000      47.68100000
 H      33.08400000      30.53200000      47.41400000
 H      33.70900000      29.73100000      48.53400000
 O      20.88400000       7.74400000      44.32500000
 H      20.84200000       8.68700000      43.93800000
 H      19.96600000       7.50300000      44.07600000
 O      11.43400000      14.79400000      45.82300000
 H      12.23900000      14.20200000      45.62200000
 H      11.10000000      14.90000000      44.90500000
 O      39.67700000      17.94500000      44.76100000
 H      40.56600000      17.75600000      44.46000000
 H      39.11800000      17.69500000      44.01200000
 O      32.03700000      29.76900000      44.45300000
 H      32.63100000      29.01700000      44.42800000
 H      31.52900000      29.60100000      45.25400000
 O      28.20100000      18.97100000      45.15600000
 H      28.33100000      18.30400000      44.45900000
 H      28.35800000      18.33600000      45.93300000
 O      29.53300000      29.59300000      42.44600000
 H      29.63100000      28.68500000      42.03800000
 H      30.39200000      29.70700000      42.81800000
 O       9.19400000      21.27100000      43.44600000
 H       8.27500000      20.92000000      43.35900000
 H       9.12600000      21.57600000      44.32800000
 O      27.83200000      30.05100000      46.98700000
 H      28.78200000      29.83900000      47.19300000
 H      27.70700000      29.41400000      46.27400000
 O      19.45800000       8.34400000      48.50500000
 H      18.58300000       8.77900000      48.67600000
 H      19.80500000       8.42400000      49.37100000
 O      25.11900000      36.91900000      44.21400000
 H      25.70800000      36.26600000      44.58700000
 H      25.49000000      37.00100000      43.29800000
 O      27.59200000      27.83300000      45.36600000
 H      28.43800000      27.51300000      45.63700000
 H      27.03000000      27.10200000      45.66700000
 O      40.17100000      21.38400000      43.97700000
 H      39.30400000      20.94900000      43.91900000
 H      40.23500000      21.58100000      44.90000000
 O      28.91500000      17.12100000      43.26100000
 H      29.36100000      17.35300000      42.41100000
 H      28.32300000      16.37500000      42.95700000
 O      20.67500000      10.59900000      45.51700000
 H      20.39500000      11.51100000      45.30600000
 H      20.19300000      10.45900000      46.37800000
 O      23.41600000      17.89700000      46.05300000
 H      24.14600000      17.65400000      45.37600000
 H      22.70000000      17.38300000      45.71700000
 O      33.90700000      20.09900000      46.09300000
 H      34.51300000      19.58500000      46.62500000
 H      34.25700000      20.02700000      45.18100000
 O      30.90400000       7.36300000      43.23900000
 H      30.25100000       7.98100000      43.55400000
 H      31.49900000       7.20400000      43.98600000
 O      28.01800000      38.70300000      43.35300000
 H      28.81500000      39.22900000      43.08900000
 H      27.41500000      38.98900000      42.66900000
 O      40.53000000      29.63100000      48.67300000
 H      39.72400000      29.95800000      48.25700000
 H      40.23100000      28.90300000      49.22500000
 O      17.19300000       9.79600000      48.51400000
 H      17.26800000      10.71700000      48.35100000
 H      16.28700000       9.59200000      48.12900000
 O      18.43000000      29.51700000      48.42900000
 H      18.32200000      30.30900000      47.90900000
 H      17.96900000      29.78800000      49.26300000
 O      35.26400000      35.39100000      43.36800000
 H      35.41800000      34.65900000      42.75700000
 H      34.38500000      35.14300000      43.77700000
 O      17.47300000      36.90300000      42.68400000
 H      17.71800000      37.23200000      43.56000000
 H      18.32300000      37.05000000      42.18300000
 O      39.01800000      26.18900000      43.15900000
 H      38.40300000      26.89800000      43.22800000
 H      39.24300000      26.09800000      42.22500000
 O      10.86300000       9.30200000      47.44300000
 H      11.05100000       9.73200000      48.27900000
 H      11.29500000       9.91900000      46.76300000
 O      39.44900000      28.41000000      45.41000000
 H      40.29200000      28.89400000      45.61300000
 H      39.31400000      28.76800000      44.50100000
 O      40.82600000      21.97500000      46.94900000
 H      40.26400000      21.77000000      47.65400000
 H      41.52300000      22.56000000      47.37000000
 O      11.48100000      10.65900000      45.32700000
 H      11.70000000      11.59200000      45.40800000
 H      11.99900000      10.39500000      44.53600000
 O      11.67800000      20.43700000      49.13000000
 H      11.98100000      21.13000000      48.47200000
 H      11.10600000      21.00400000      49.69700000
 O       7.62600000      30.39000000      47.98000000
 H       6.74500000      30.31100000      48.39700000
 H       8.18000000      30.46600000      48.78600000
 O      33.58500000      31.78700000      43.47200000
 H      33.07000000      32.29900000      44.17200000
 H      32.95900000      31.01500000      43.51300000
 O      25.75800000      19.62600000      44.77600000
 H      26.64900000      19.48000000      45.06500000
 H      25.82400000      19.92200000      43.83600000
 O      35.47500000      27.47700000      43.49000000
 H      35.14700000      26.56400000      43.42300000
 H      34.87600000      27.87500000      44.07300000
 O       9.97000000      11.29600000      42.53700000
 H      10.88100000      11.01600000      42.67600000
 H       9.78000000      11.72100000      43.41100000
 O      20.39900000      25.55500000      48.39600000
 H      19.71000000      26.05500000      47.91500000
 H      20.13800000      25.69400000      49.29600000
 O      16.32700000      40.60600000      44.96800000
 H      15.66000000      39.89700000      45.22800000
 H      17.10000000      40.07400000      44.72900000
 O      26.43000000      31.75800000      43.35000000
 H      26.37800000      30.83500000      43.26600000
 H      26.40200000      32.13200000      42.46400000
 O      35.06600000      40.23600000      44.78300000
 H      35.50400000      39.30800000      44.93000000
 H      34.13300000      39.87100000      44.69900000
 O      15.91800000      20.60100000      47.96500000
 H      15.23400000      20.03700000      47.52500000
 H      15.68500000      21.47800000      47.56800000
 O      21.66100000      33.21700000      46.69600000
 H      22.16900000      32.70200000      47.35500000
 H      22.20300000      33.04600000      45.87400000
 O      35.86600000      25.36200000      46.47700000
 H      35.52800000      26.06400000      47.06600000
 H      36.68400000      25.81600000      46.15900000
 O      19.17100000      27.78900000      44.18500000
 H      19.06000000      27.09000000      43.56300000
 H      18.33300000      27.84600000      44.65200000
 O       8.92900000      12.91300000      47.89100000
 H       9.43800000      13.03000000      47.05900000
 H       8.10000000      13.33400000      47.64700000
 O      38.55000000      21.64000000      48.80300000
 H      37.69500000      21.18500000      48.81700000
 H      38.32600000      22.52400000      48.45100000
 O      37.03700000      38.47100000      48.02700000
 H      36.02900000      38.36500000      47.97900000
 H      37.23300000      37.79500000      48.69700000
 O      25.63500000      17.60900000      48.21400000
 H      25.30300000      17.95900000      49.08100000
 H      24.81500000      17.71900000      47.69300000
