354
XYZ file of cluster: frame_18000_9c60b.75571.c4468 - created by MolEdiTo
 O      34.49000000      28.68900000      38.90100000
 H      34.06000000      28.64800000      38.04800000
 H      35.23600000      28.09200000      38.79700000
 O      29.74000000      40.70400000      39.23100000
 H      28.87500000      41.06900000      39.49300000
 H      29.59000000      40.51200000      38.30300000
 O      33.86200000      34.40700000      37.52800000
 H      34.42000000      33.63900000      37.10600000
 H      33.31300000      34.58800000      36.76300000
 O      29.08200000      23.28400000      34.59900000
 H      29.77600000      23.06000000      34.00700000
 H      28.99400000      22.40900000      35.07100000
 O      40.29600000      31.98400000      37.72000000
 H      40.99900000      32.26600000      37.13300000
 H      39.74800000      32.81000000      37.70600000
 O      30.29700000      30.86900000      35.68700000
 H      29.56000000      30.31900000      36.12900000
 H      30.84300000      30.99700000      36.45500000
 O      32.04700000      25.82300000      36.78100000
 H      32.72800000      25.29800000      36.35200000
 H      32.50400000      26.57400000      37.14400000
 O      29.83000000      21.06400000      36.05300000
 H      30.16600000      20.96800000      36.89400000
 H      30.58700000      21.28200000      35.43000000
 O      30.98200000      23.72700000      38.17300000
 H      31.53000000      23.14100000      37.58000000
 H      31.22600000      24.57400000      37.70900000
 O      37.86300000      34.02900000      35.59900000
 H      37.98100000      33.53500000      34.75700000
 H      37.25200000      33.34000000      36.04700000
 O      28.25100000      23.06900000      38.44000000
 H      27.89800000      23.96600000      38.17500000
 H      29.21900000      23.31100000      38.55400000
 O      28.43000000      29.48900000      37.03900000
 H      27.59200000      29.55400000      36.48800000
 H      28.77300000      28.62500000      36.73500000
 O      33.99600000      31.58100000      35.32900000
 H      33.76200000      32.06300000      34.54500000
 H      33.45300000      30.73700000      35.15400000
 O      36.40600000      35.19200000      38.67800000
 H      36.29200000      35.24800000      39.64400000
 H      35.53800000      34.71300000      38.44000000
 O      37.98100000      25.26000000      38.80600000
 H      38.93300000      25.46700000      38.62000000
 H      37.56600000      25.94200000      38.23300000
 O      35.75000000      27.88100000      35.26000000
 H      35.29400000      28.46300000      34.58300000
 H      36.55400000      27.72700000      34.71400000
 O      29.44200000      27.01700000      36.42700000
 H      30.25400000      26.48300000      36.56000000
 H      29.20900000      26.74900000      35.51900000
 O      33.22400000      25.29400000      40.65900000
 H      32.63600000      24.53600000      40.86900000
 H      33.59200000      25.04000000      39.81200000
 O      36.27500000      36.50700000      36.13700000
 H      36.20000000      36.24100000      37.05900000
 H      37.10000000      36.05100000      35.87300000
 O      33.06300000      21.91800000      36.80700000
 H      33.66100000      21.18500000      37.00200000
 H      33.31000000      22.02300000      35.84800000
 O      30.77800000      26.98700000      40.47000000
 H      31.57800000      27.30500000      40.07500000
 H      31.15800000      26.57100000      41.29300000
 O      32.70600000      30.76200000      39.43100000
 H      33.38600000      30.20000000      38.94400000
 H      33.25600000      30.91200000      40.23300000
 O      36.65500000      31.68200000      39.51300000
 H      37.39800000      32.35600000      39.61600000
 H      36.65700000      31.58300000      38.54900000
 O      36.98500000      27.25100000      37.71400000
 H      37.74900000      27.86500000      37.62300000
 H      36.47000000      27.49300000      36.94900000
 O      40.28200000      39.28700000      35.60200000
 H      39.52700000      39.44900000      36.26000000
 H      40.30100000      38.27400000      35.66700000
 O      36.20600000      24.00800000      34.32000000
 H      36.69600000      23.51400000      34.98100000
 H      36.55500000      23.54700000      33.51000000
 O      39.32400000      34.45600000      38.65600000
 H      38.39100000      34.74400000      38.47900000
 H      39.22400000      34.17700000      39.63400000
 O      30.31000000      34.73800000      39.46600000
 H      30.47500000      34.18700000      40.27400000
 H      30.03400000      35.56500000      39.83900000
 O      37.76400000      29.00500000      40.42300000
 H      37.18600000      29.74900000      40.21300000
 H      37.98300000      28.69800000      39.51500000
 O      30.60500000      32.02600000      38.57600000
 H      30.84300000      32.96300000      38.62900000
 H      31.45800000      31.60800000      38.90300000
 O      29.55600000      36.08800000      37.08800000
 H      29.92000000      35.63500000      37.88100000
 H      28.70900000      36.38000000      37.44800000
 O      38.27100000      39.46400000      37.65500000
 H      38.56500000      40.29200000      38.12600000
 H      37.32900000      39.45800000      37.93600000
 O      39.93400000      36.15800000      36.19600000
 H      40.65000000      35.79700000      36.73800000
 H      39.36200000      35.32800000      36.19600000
 O      36.78800000      23.08500000      38.98000000
 H      35.88900000      23.51800000      38.68000000
 H      37.28000000      23.96100000      39.01200000
 O      34.36000000      24.06000000      38.07900000
 H      33.77400000      23.51100000      37.55700000
 H      34.65500000      24.72900000      37.39300000
 O      36.46500000      31.79400000      36.53000000
 H      36.99700000      31.35600000      35.84300000
 H      35.56700000      31.64100000      36.18400000
 O      27.61600000      25.75400000      38.19800000
 H      27.95100000      26.18100000      37.36200000
 H      26.68500000      26.11800000      38.19700000
 O      29.45400000      40.42600000      36.33300000
 H      29.30700000      40.60600000      35.39600000
 H      30.17400000      39.70600000      36.28300000
 O      38.42000000      20.00000000      35.96800000
 H      38.67000000      19.96900000      35.03000000
 H      37.85500000      20.80000000      35.95300000
 O      27.98600000      31.44100000      38.90400000
 H      28.87400000      31.78800000      38.76200000
 H      28.16900000      30.51800000      38.59000000
 O      27.66100000      33.50100000      35.78300000
 H      27.36800000      34.41900000      35.95400000
 H      28.61000000      33.64000000      35.55200000
 O      32.94100000      35.05100000      40.57200000
 H      32.95200000      34.78000000      39.61400000
 H      32.51700000      34.27800000      40.99500000
 O      36.79500000      22.16000000      36.42800000
 H      36.96600000      22.47800000      37.34100000
 H      36.07900000      21.49300000      36.58000000
 O      33.56700000      39.26700000      35.07800000
 H      33.25000000      38.39500000      35.32900000
 H      33.35700000      39.31000000      34.12400000
 O      35.13600000      39.50100000      38.28200000
 H      35.44200000      39.42700000      39.16100000
 H      34.43000000      38.86000000      38.18100000
 O      30.99900000      38.31800000      36.60400000
 H      30.43000000      37.54000000      36.44400000
 H      31.67400000      37.97600000      37.19500000
 O      34.55000000      25.69100000      35.98900000
 H      34.88000000      26.54600000      35.54500000
 H      34.97500000      25.05700000      35.34200000
 O      28.14500000      26.96900000      40.68200000
 H      27.78400000      26.48700000      39.93900000
 H      29.09700000      26.67200000      40.57300000
 O      32.51000000      34.96100000      35.13000000
 H      31.69700000      35.46600000      34.88900000
 H      32.52100000      34.34900000      34.36500000
 O      38.95200000      29.25200000      37.22100000
 H      39.33400000      30.11700000      37.51700000
 H      38.53600000      29.52400000      36.38600000
 O      34.91600000      21.06700000      39.73100000
 H      34.74100000      21.99300000      40.00700000
 H      35.59800000      20.81400000      40.34500000
 O      30.26700000      36.44000000      34.37600000
 H      29.72200000      36.83400000      33.71800000
 H      29.62400000      36.24100000      35.10800000
 O      33.33200000      37.34200000      38.37900000
 H      33.22100000      37.14700000      39.33500000
 H      33.50500000      36.40300000      38.09000000
 O      32.49600000      28.74900000      37.16000000
 H      32.50100000      28.71700000      36.16000000
 H      31.56100000      28.94000000      37.24500000
 O      31.31500000      25.95200000      44.65800000
 H      31.34200000      25.22200000      43.97700000
 H      31.86800000      25.67400000      45.36400000
 O      31.16700000      37.39600000      48.38200000
 H      30.96600000      37.91900000      49.23500000
 H      31.84200000      36.79200000      48.80100000
 O      31.46000000      34.72700000      46.27400000
 H      31.26400000      35.54000000      45.73400000
 H      32.40100000      34.71900000      46.10500000
 O      29.38200000      31.01200000      43.43000000
 H      29.53800000      30.04600000      43.38000000
 H      28.89100000      31.16600000      42.58900000
 O      33.66300000      31.24300000      43.46300000
 H      33.86000000      30.62800000      44.22500000
 H      34.52800000      31.73000000      43.41300000
 O      29.37200000      34.39800000      48.12700000
 H      29.33600000      33.46400000      47.96000000
 H      30.04100000      34.61200000      47.40500000
 O      37.15200000      27.31500000      44.37200000
 H      37.11800000      27.83000000      43.58200000
 H      37.71600000      27.78700000      44.96300000
 O      38.56200000      25.95700000      47.43600000
 H      37.64000000      25.60500000      47.28900000
 H      38.79600000      26.21700000      46.54500000
 O      37.27300000      34.69400000      46.35000000
 H      36.74300000      35.56400000      46.19900000
 H      38.21300000      35.04300000      46.27900000
 O      27.80500000      36.42900000      44.62200000
 H      27.12300000      36.02500000      45.19900000
 H      28.30100000      36.85100000      45.40800000
 O      38.28700000      22.26600000      47.67900000
 H      38.28300000      21.97700000      46.73000000
 H      38.71700000      21.47400000      48.06600000
 O      27.53300000      23.12500000      44.71400000
 H      28.43800000      22.82300000      44.73900000
 H      27.02700000      22.41600000      45.13400000
 O      31.74300000      36.76600000      44.18600000
 H      32.13400000      36.18100000      43.51100000
 H      30.85000000      36.96900000      43.82800000
 O      38.59700000      22.32600000      42.61500000
 H      38.08000000      22.24900000      41.79900000
 H      38.33200000      23.20700000      42.92300000
 O      30.89700000      28.20000000      46.15400000
 H      30.06500000      27.74400000      46.48300000
 H      30.94200000      27.68700000      45.28100000
 O      30.67700000      20.57400000      47.95000000
 H      31.02000000      21.45800000      47.60700000
 H      29.93200000      20.99800000      48.48000000
 O      35.46700000      37.19300000      46.64100000
 H      35.10800000      36.32100000      46.29700000
 H      34.58500000      37.64000000      46.66600000
 O      32.17000000      20.41500000      44.29100000
 H      32.93000000      20.90400000      44.65900000
 H      32.43700000      20.14200000      43.45900000
 O      33.28000000      28.47300000      47.41500000
 H      32.98800000      28.58100000      48.37600000
 H      32.41900000      28.46400000      46.96500000
 O      39.25800000      38.89600000      48.53900000
 H      39.43100000      39.08100000      49.49100000
 H      38.87200000      38.02700000      48.62900000
 O      39.47600000      31.12500000      44.22400000
 H      40.40900000      31.04800000      44.51000000
 H      39.22600000      30.28900000      43.93200000
 O      37.48500000      37.59700000      43.91700000
 H      38.21800000      37.35800000      43.31700000
 H      38.02000000      38.08400000      44.62900000
 O      35.93200000      25.17400000      46.60900000
 H      35.83000000      25.77500000      45.87000000
 H      35.11900000      24.63700000      46.57000000
 O      37.73800000      24.96500000      43.36600000
 H      37.92900000      25.37100000      42.49600000
 H      37.73800000      25.83000000      43.87500000
 O      33.46300000      32.31700000      47.40400000
 H      32.93800000      31.69800000      46.83300000
 H      34.33100000      31.75500000      47.39100000
 O      29.22800000      24.30600000      48.26000000
 H      28.64600000      24.89000000      48.83800000
 H      28.98900000      23.47200000      48.70700000
 O      36.62700000      34.03000000      48.73800000
 H      37.08000000      34.81800000      49.12800000
 H      36.81500000      34.29600000      47.78000000
 O      34.20500000      34.30000000      45.70900000
 H      35.04100000      33.97300000      45.36000000
 H      34.15600000      33.77300000      46.56200000
 O      30.80400000      24.10200000      42.66700000
 H      30.66700000      24.17300000      41.69900000
 H      30.13100000      23.46700000      42.94500000
 O      35.98400000      32.63000000      43.74900000
 H      36.18800000      33.60200000      43.75400000
 H      36.48400000      32.40300000      42.92900000
 O      29.23400000      27.12000000      49.35700000
 H      30.13900000      26.83800000      49.30500000
 H      29.01100000      27.08100000      48.39800000
 O      34.29200000      22.21000000      47.92800000
 H      35.09800000      22.29600000      48.44500000
 H      33.66200000      22.79200000      48.34700000
 O      35.54500000      39.23400000      42.69200000
 H      36.17100000      38.73000000      43.31700000
 H      34.73900000      39.19400000      43.28600000
 O      35.84100000      35.37500000      43.03300000
 H      34.89300000      35.45000000      43.33100000
 H      36.25900000      36.17000000      43.40400000
 O      36.32400000      39.23600000      48.27700000
 H      36.24600000      38.44300000      47.70100000
 H      37.30700000      39.33600000      48.17700000
 O      28.95800000      26.56500000      46.75900000
 H      29.10600000      25.63300000      46.92600000
 H      28.16300000      26.47900000      46.20000000
 O      28.40500000      39.96800000      46.06400000
 H      27.41900000      40.04700000      45.88700000
 H      28.41700000      39.00200000      46.22600000
 O      33.51800000      39.07300000      44.28900000
 H      33.08500000      38.26100000      43.85400000
 H      33.18400000      38.85200000      45.22400000
 O      31.38100000      23.18000000      46.69500000
 H      30.77700000      23.58900000      47.32400000
 H      32.14500000      23.78100000      46.66400000
 O      29.21800000      37.03000000      42.46000000
 H      28.70100000      37.84400000      42.26100000
 H      28.61000000      36.62800000      43.11700000
 O      33.59000000      27.77200000      43.25200000
 H      33.53700000      26.82200000      42.96300000
 H      33.91100000      28.23300000      42.47400000
 O      35.37800000      40.84000000      46.34000000
 H      34.75800000      40.28800000      45.82900000
 H      35.68100000      40.30500000      47.06500000
 O      39.86400000      36.35100000      46.58600000
 H      40.00600000      37.21800000      46.16700000
 H      40.73700000      36.09600000      46.78700000
 O      31.37500000      32.99800000      43.23700000
 H      30.62700000      32.38600000      43.18800000
 H      32.07700000      32.34900000      43.11900000
 O      38.25600000      20.91100000      45.22700000
 H      38.56900000      21.52700000      44.54700000
 H      37.54200000      20.45200000      44.66200000
 O      35.04000000      21.34500000      45.24100000
 H      35.27000000      22.25600000      44.83800000
 H      34.70100000      21.62000000      46.13100000
 O      38.89600000      33.25000000      42.55500000
 H      38.84400000      32.44100000      43.09700000
 H      39.48900000      33.77600000      43.14000000
 O      30.10000000      31.79900000      48.58100000
 H      30.73100000      31.72200000      47.78800000
 H      30.77800000      32.06900000      49.22800000
 O      32.05100000      40.72500000      48.36200000
 H      31.31400000      40.93000000      47.82500000
 H      31.64600000      40.37300000      49.18300000
 O      40.33300000      26.99600000      45.57200000
 H      40.30000000      27.69200000      44.90900000
 H      40.94200000      26.34200000      45.17000000
 O      34.27900000      29.40800000      45.25200000
 H      34.19200000      28.79600000      44.46500000
 H      33.78300000      28.82700000      45.90800000
 O      33.02700000      25.55200000      46.71700000
 H      32.96900000      25.28100000      47.70900000
 H      33.13300000      26.47300000      46.90100000
 O      27.56400000      30.41600000      48.07900000
 H      28.45100000      30.67400000      47.68500000
 H      27.17400000      31.27800000      48.21700000
 O      38.01800000      29.11200000      46.85900000
 H      38.31300000      28.19500000      46.73300000
 H      37.43900000      29.03500000      47.59900000
 O      27.17800000      32.49600000      44.13300000
 H      27.96600000      32.01700000      43.93100000
 H      26.67200000      31.92400000      44.74200000
 O      40.02300000      36.84500000      42.59100000
 H      40.75400000      36.21200000      42.60200000
 H      40.44000000      37.51400000      41.96800000
 O      38.84100000      39.20700000      45.93800000
 H      39.28100000      40.00700000      45.54100000
 H      39.17700000      39.28300000      46.85800000
 O      35.23500000      23.60900000      43.79100000
 H      36.07100000      24.11400000      43.71400000
 H      34.62900000      24.20600000      43.33300000
 O      31.24700000      31.04200000      46.19300000
 H      30.88700000      31.46700000      45.39500000
 H      31.18700000      30.11600000      45.89100000
 O      39.27900000      32.01900000      47.28800000
 H      38.84900000      31.24200000      46.80800000
 H      38.68100000      32.74300000      47.06900000
 O      28.78700000      37.52100000      46.87700000
 H      28.08400000      37.56100000      47.56400000
 H      29.55900000      37.36100000      47.46900000
 O      33.10100000      38.53600000      46.77100000
 H      32.89400000      39.40900000      47.16600000
 H      32.38600000      38.02100000      47.17800000
 O      29.89500000      21.97300000      44.78700000
 H      30.30300000      22.22700000      45.61000000
 H      30.66900000      21.39200000      44.44400000
 O      35.76900000      31.35100000      46.57800000
 H      35.91000000      31.65100000      45.67300000
 H      35.51700000      30.37800000      46.34100000
