555
XYZ file of cluster: frame_18000_c33e5.745bd.7298b - created by MolEdiTo
 O      36.28200000      31.61200000      23.95800000
 H      36.80600000      31.22100000      23.20100000
 H      35.40000000      31.23700000      23.66300000
 O      35.35100000      32.56500000      28.98500000
 H      35.25600000      31.63200000      29.22000000
 H      35.97800000      32.51600000      28.25300000
 O      34.07700000      39.48100000      30.44000000
 H      33.30100000      39.70400000      29.88900000
 H      34.79500000      39.50800000      29.77200000
 O      35.75000000      27.88100000      35.26000000
 H      35.29400000      28.46300000      34.58300000
 H      36.55400000      27.72700000      34.71400000
 O      38.18300000      20.87700000      33.41000000
 H      37.75900000      21.70600000      33.13700000
 H      38.82000000      20.75900000      32.68200000
 O      35.56800000      29.30600000      28.30900000
 H      36.06300000      29.70800000      27.56300000
 H      34.65400000      29.59600000      27.99100000
 O      36.20900000      27.02400000      22.69400000
 H      35.20600000      27.05200000      22.68900000
 H      36.32700000      26.06600000      22.84600000
 O      36.20600000      24.00800000      34.32000000
 H      36.69600000      23.51400000      34.98100000
 H      36.55500000      23.54700000      33.51000000
 O      37.76400000      29.00500000      40.42300000
 H      37.18600000      29.74900000      40.21300000
 H      37.98300000      28.69800000      39.51500000
 O      38.47600000      27.41600000      33.65600000
 H      39.37600000      27.45000000      33.84700000
 H      38.44700000      26.93500000      32.83000000
 O      34.56800000      34.82500000      20.47700000
 H      34.84200000      35.52900000      20.98800000
 H      34.60200000      35.18400000      19.56500000
 O      34.15000000      27.69600000      25.31200000
 H      34.22100000      28.35300000      26.04700000
 H      34.94300000      27.17000000      25.41200000
 O      40.38800000      26.10500000      30.74200000
 H      40.77200000      26.78800000      31.26700000
 H      40.61500000      25.29700000      31.27300000
 O      34.39100000      40.73200000      27.27300000
 H      34.98200000      41.22400000      27.89100000
 H      33.71300000      40.47500000      27.96500000
 O      35.27900000      21.48500000      26.14000000
 H      34.41300000      21.11500000      26.42100000
 H      35.89300000      21.16700000      26.87400000
 O      36.46500000      31.79400000      36.53000000
 H      36.99700000      31.35600000      35.84300000
 H      35.56700000      31.64100000      36.18400000
 O      39.57400000      40.01300000      32.86900000
 H      40.28100000      39.80000000      33.45400000
 H      38.78300000      39.57500000      33.26200000
 O      37.56000000      33.54800000      27.04000000
 H      37.34300000      33.38500000      26.11000000
 H      37.00400000      34.36400000      27.20800000
 O      37.11700000      34.24900000      24.30100000
 H      36.74700000      33.36100000      24.16200000
 H      38.10600000      34.01100000      24.26400000
 O      34.02300000      22.23700000      34.42000000
 H      34.26400000      21.48500000      33.82000000
 H      34.71600000      22.88700000      34.12700000
 O      35.02600000      35.40700000      33.66600000
 H      34.03200000      35.42100000      33.85500000
 H      35.34500000      35.55300000      34.58400000
 O      34.55000000      25.69100000      35.98900000
 H      34.88000000      26.54600000      35.54500000
 H      34.97500000      25.05700000      35.34200000
 O      35.53800000      30.11300000      20.88600000
 H      35.56700000      29.19400000      20.59500000
 H      34.77500000      30.14200000      21.48000000
 O      39.84100000      21.19200000      23.69900000
 H      38.89500000      21.27700000      23.87500000
 H      40.02100000      22.01800000      23.17800000
 O      35.11100000      38.75000000      23.89000000
 H      35.47200000      39.34700000      23.16300000
 H      35.27200000      37.84100000      23.42300000
 O      39.27200000      22.21800000      21.04100000
 H      39.48100000      23.04000000      20.61800000
 H      38.30600000      22.36700000      21.24100000
 O      36.40600000      35.19200000      38.67800000
 H      36.29200000      35.24800000      39.64400000
 H      35.53800000      34.71300000      38.44000000
 O      37.10200000      24.59800000      23.30300000
 H      37.87300000      24.69100000      23.81000000
 H      36.42700000      24.35300000      24.05500000
 O      38.55700000      39.61200000      26.32500000
 H      37.64500000      39.55800000      26.09200000
 H      38.71200000      38.76000000      26.82200000
 O      36.27500000      36.50700000      36.13700000
 H      36.20000000      36.24100000      37.05900000
 H      37.10000000      36.05100000      35.87300000
 O      35.70400000      36.08900000      22.95300000
 H      34.98500000      35.44600000      23.13300000
 H      36.42100000      35.58600000      23.44400000
 O      36.65500000      31.68200000      39.51300000
 H      37.39800000      32.35600000      39.61600000
 H      36.65700000      31.58300000      38.54900000
 O      36.98500000      27.25100000      37.71400000
 H      37.74900000      27.86500000      37.62300000
 H      36.47000000      27.49300000      36.94900000
 O      38.18300000      30.65100000      34.63000000
 H      39.19600000      30.70300000      34.49500000
 H      37.91100000      31.30700000      33.96300000
 O      40.28200000      39.28700000      35.60200000
 H      39.52700000      39.44900000      36.26000000
 H      40.30100000      38.27400000      35.66700000
 O      36.43600000      39.86100000      22.02700000
 H      37.37100000      39.54200000      21.84900000
 H      36.54000000      40.84700000      22.02000000
 O      35.73000000      37.98700000      31.87600000
 H      35.21700000      37.18300000      32.02100000
 H      35.15800000      38.48800000      31.28700000
 O      39.79200000      30.84400000      22.22100000
 H      40.31200000      30.35900000      21.47200000
 H      39.51000000      31.63300000      21.71400000
 O      34.90100000      29.75500000      33.46900000
 H      35.23000000      30.70600000      33.47800000
 H      34.80400000      29.53400000      32.56800000
 O      39.84900000      32.35700000      28.44000000
 H      40.46200000      33.09300000      28.68200000
 H      39.12400000      32.88200000      27.97800000
 O      36.87600000      21.33500000      23.81300000
 H      36.51500000      21.47100000      24.67600000
 H      36.11600000      20.83700000      23.36700000
 O      37.40700000      30.25000000      26.41800000
 H      37.17600000      30.85500000      25.68600000
 H      38.24400000      29.87400000      26.07900000
 O      39.62400000      29.76600000      24.60300000
 H      40.41400000      30.30300000      24.98000000
 H      39.73400000      30.18400000      23.69300000
 O      36.63500000      36.07800000      27.58700000
 H      36.25600000      36.85300000      27.11900000
 H      37.58500000      36.44800000      27.61200000
 O      37.86300000      34.02900000      35.59900000
 H      37.98100000      33.53500000      34.75700000
 H      37.25200000      33.34000000      36.04700000
 O      38.93200000      25.06400000      26.58500000
 H      39.84200000      24.84200000      26.39600000
 H      38.74500000      25.87300000      26.07700000
 O      38.93600000      39.01800000      21.00900000
 H      39.36800000      39.86400000      20.90400000
 H      39.34400000      38.53700000      20.27400000
 O      37.98100000      25.26000000      38.80600000
 H      38.93300000      25.46700000      38.62000000
 H      37.56600000      25.94200000      38.23300000
 O      40.78100000      24.18500000      23.59100000
 H      40.74900000      24.83400000      22.94800000
 H      40.91200000      24.66100000      24.44200000
 O      38.30700000      37.76500000      23.45200000
 H      38.45000000      37.77900000      22.47600000
 H      37.33100000      37.53000000      23.46300000
 O      37.35900000      26.79000000      29.85600000
 H      38.23600000      26.36400000      30.02800000
 H      37.57900000      27.71200000      30.05200000
 O      37.21900000      38.69000000      33.95600000
 H      36.49900000      38.38700000      33.35300000
 H      37.29700000      38.00200000      34.60400000
 O      36.26300000      23.13500000      21.24200000
 H      36.46500000      23.55900000      22.06200000
 H      35.29200000      22.84000000      21.45000000
 O      39.32400000      34.45600000      38.65600000
 H      38.39100000      34.74400000      38.47900000
 H      39.22400000      34.17700000      39.63400000
 O      34.92000000      28.41500000      30.96900000
 H      35.44800000      28.21300000      30.14400000
 H      35.10000000      27.51800000      31.40100000
 O      40.24500000      26.35900000      21.68200000
 H      39.42600000      26.84900000      21.50100000
 H      40.29700000      25.74800000      20.96200000
 O      35.79200000      26.45000000      32.54800000
 H      36.42600000      25.91800000      33.01900000
 H      35.01500000      25.79800000      32.61000000
 O      38.13600000      36.09400000      32.05000000
 H      37.68600000      35.39100000      32.50900000
 H      37.44600000      36.79400000      32.02100000
 O      39.93400000      36.15800000      36.19600000
 H      40.65000000      35.79700000      36.73800000
 H      39.36200000      35.32800000      36.19600000
 O      37.71900000      32.76500000      33.05400000
 H      38.45100000      32.78000000      32.42800000
 H      36.96200000      33.07900000      32.48400000
 O      37.14200000      22.86700000      32.18800000
 H      36.77700000      22.20100000      31.55600000
 H      37.66300000      23.43100000      31.57900000
 O      40.18300000      31.83700000      31.23700000
 H      39.62500000      31.05600000      31.29400000
 H      39.97100000      32.12000000      30.31500000
 O      36.26700000      26.73500000      27.00100000
 H      36.34600000      26.79400000      27.97200000
 H      37.24400000      26.74900000      26.71600000
 O      38.42000000      20.00000000      35.96800000
 H      38.67000000      19.96900000      35.03000000
 H      37.85500000      20.80000000      35.95300000
 O      36.63200000      39.71400000      29.28100000
 H      37.11800000      40.49100000      29.03400000
 H      37.30400000      39.20800000      29.74100000
 O      40.08000000      34.05300000      23.84000000
 H      40.84100000      33.47000000      23.81600000
 H      40.33000000      34.68500000      23.15500000
 O      36.79500000      22.16000000      36.42800000
 H      36.96600000      22.47800000      37.34100000
 H      36.07900000      21.49300000      36.58000000
 O      37.87900000      22.58400000      27.61700000
 H      38.66700000      22.05200000      27.24400000
 H      38.29500000      23.49400000      27.42400000
 O      35.13600000      39.50100000      38.28200000
 H      35.44200000      39.42700000      39.16100000
 H      34.43000000      38.86000000      38.18100000
 O      38.95200000      29.25200000      37.22100000
 H      39.33400000      30.11700000      37.51700000
 H      38.53600000      29.52400000      36.38600000
 O      34.49000000      28.68900000      38.90100000
 H      34.06000000      28.64800000      38.04800000
 H      35.23600000      28.09200000      38.79700000
 O      40.29600000      31.98400000      37.72000000
 H      40.99900000      32.26600000      37.13300000
 H      39.74800000      32.81000000      37.70600000
 O      36.80700000      20.75400000      30.06600000
 H      37.09900000      20.91300000      29.11300000
 H      37.00200000      19.80200000      30.07500000
 O      38.92200000      23.75300000      30.15300000
 H      39.75900000      23.63600000      30.57700000
 H      38.98200000      23.13000000      29.40100000
 O      38.68700000      29.38900000      28.85400000
 H      37.98900000      29.89500000      28.31700000
 H      38.51300000      29.59700000      29.75300000
 O      37.68400000      29.67200000      31.50300000
 H      36.80600000      29.36900000      31.79000000
 H      38.20700000      29.70700000      32.28800000
 O      40.30500000      36.19400000      30.45600000
 H      40.45400000      37.15200000      30.60500000
 H      39.47200000      36.07700000      31.03700000
 O      35.88400000      23.90100000      28.70500000
 H      36.29800000      24.51200000      29.31400000
 H      36.63200000      23.48400000      28.25600000
 O      35.95000000      33.71900000      31.42700000
 H      35.29400000      34.36900000      31.63500000
 H      35.57300000      33.29500000      30.62100000
 O      38.27100000      39.46400000      37.65500000
 H      38.56500000      40.29200000      38.12600000
 H      37.32900000      39.45800000      37.93600000
 O      35.28500000      23.95900000      25.17500000
 H      35.13300000      24.49900000      25.91900000
 H      35.25900000      23.08000000      25.61100000
 O      34.22700000      21.91100000      29.69300000
 H      34.61800000      22.73800000      29.37500000
 H      35.07600000      21.44400000      29.85700000
 O      37.46600000      27.73700000      20.43200000
 H      36.92800000      27.46700000      21.23900000
 H      36.69000000      27.56400000      19.80400000
 O      34.22400000      36.46900000      28.77200000
 H      34.13400000      36.96000000      27.97800000
 H      35.20100000      36.17900000      28.69900000
 O      40.20900000      36.66700000      25.30800000
 H      40.12300000      35.74700000      24.98700000
 H      39.43700000      37.09200000      24.78600000
 O      39.35700000      37.37000000      27.73000000
 H      39.90100000      37.10000000      26.90000000
 H      39.96900000      37.15200000      28.42400000
 O      36.78800000      23.08500000      38.98000000
 H      35.88900000      23.51800000      38.68000000
 H      37.28000000      23.96100000      39.01200000
 O      39.47100000      39.27400000      30.25800000
 H      39.66400000      39.38100000      31.21400000
 H      40.38400000      39.09400000      29.94500000
 O      38.16400000      27.34000000      24.87800000
 H      38.51500000      28.29400000      24.88600000
 H      37.57200000      27.35400000      24.17900000
 O      35.67900000      38.50400000      26.40300000
 H      35.54300000      38.66100000      25.42000000
 H      35.19600000      39.27400000      26.74700000
 O      34.91600000      21.06700000      39.73100000
 H      34.74100000      21.99300000      40.00700000
 H      35.59800000      20.81400000      40.34500000
 O      40.78600000      34.16000000      34.01900000
 H      41.35400000      34.28500000      33.21700000
 H      40.41800000      35.02100000      34.15600000
 O      47.73100000      24.64600000      36.52900000
 H      46.94600000      24.10300000      36.72900000
 H      48.43400000      24.04700000      36.77500000
 O      44.73700000      33.10900000      26.61100000
 H      44.19600000      33.67200000      27.23200000
 H      45.59900000      33.60800000      26.63200000
 O      47.53600000      38.87100000      32.46800000
 H      47.48700000      39.85300000      32.49500000
 H      47.48500000      38.73300000      33.41200000
 O      45.27000000      28.42200000      36.20300000
 H      45.35700000      29.38500000      36.41600000
 H      44.87000000      28.17200000      37.09500000
 O      43.79800000      34.35200000      40.62800000
 H      43.91200000      33.51100000      41.12100000
 H      44.59000000      34.34500000      40.08800000
 O      45.95600000      36.59600000      36.82100000
 H      45.61700000      37.39900000      36.44200000
 H      45.22200000      36.18300000      37.26200000
 O      42.89200000      34.45400000      28.60400000
 H      43.69800000      34.98700000      28.38600000
 H      42.49600000      35.15000000      29.21600000
 O      47.47200000      40.56100000      26.96500000
 H      48.44400000      40.64900000      26.71200000
 H      47.17300000      39.89000000      26.35300000
 O      49.02000000      24.40400000      25.92700000
 H      49.24900000      24.22100000      24.95000000
 H      48.41100000      23.66600000      26.10300000
 O      43.64800000      23.86800000      31.48500000
 H      44.54900000      23.79100000      31.86700000
 H      43.39000000      22.94600000      31.55200000
 O      46.58600000      26.13600000      21.88100000
 H      45.80900000      26.79400000      21.79200000
 H      47.30500000      26.79300000      22.08500000
 O      42.99800000      25.57900000      35.88300000
 H      42.88800000      26.45500000      35.53600000
 H      43.72900000      25.22000000      35.39400000
 O      44.22200000      34.41800000      22.67900000
 H      44.98400000      34.49200000      23.32000000
 H      44.67100000      33.99200000      21.92800000
 O      43.10000000      31.22600000      25.90700000
 H      42.52300000      31.23800000      26.66200000
 H      43.65400000      32.01300000      26.02900000
 O      43.34100000      26.51400000      28.29000000
 H      44.23100000      26.26400000      28.58500000
 H      42.82100000      26.32100000      29.13600000
 O      43.82000000      24.15300000      40.34500000
 H      44.43500000      24.84300000      39.93500000
 H      43.04300000      24.32900000      39.76100000
 O      42.53500000      25.98500000      38.46700000
 H      42.73700000      25.72500000      37.54300000
 H      43.14300000      26.71300000      38.58800000
 O      42.78200000      30.94800000      34.27900000
 H      42.94400000      31.91300000      34.22900000
 H      43.69800000      30.69000000      34.54500000
 O      46.25200000      36.73900000      31.44000000
 H      46.57200000      35.89200000      31.91000000
 H      46.74100000      37.39200000      31.97400000
 O      47.85800000      21.79900000      26.08900000
 H      48.17500000      21.03700000      25.56000000
 H      48.17800000      21.60200000      26.95600000
 O      43.10800000      39.25000000      22.63600000
 H      43.13700000      39.70400000      21.80400000
 H      43.01800000      38.31100000      22.28700000
 O      46.94700000      34.05000000      35.17900000
 H      46.34800000      34.79500000      35.42000000
 H      47.66000000      34.12700000      35.79400000
 O      47.35000000      40.20900000      22.87400000
 H      47.82400000      41.02300000      22.60000000
 H      46.53800000      40.31800000      22.26200000
 O      44.50800000      29.07000000      24.93400000
 H      44.90900000      28.56100000      25.61900000
 H      44.00900000      29.77600000      25.42100000
 O      48.10700000      21.33300000      33.32800000
 H      48.50500000      20.50300000      33.46100000
 H      47.19200000      21.24300000      33.59700000
 O      44.61300000      38.86900000      35.71000000
 H      43.60600000      38.84000000      35.66700000
 H      44.74000000      39.74100000      36.12300000
 O      45.54700000      22.85900000      35.90000000
 H      45.87900000      23.45900000      35.19300000
 H      44.62800000      23.12400000      35.95800000
 O      45.86800000      29.41400000      28.78900000
 H      45.44800000      28.90200000      29.42400000
 H      45.21300000      30.12500000      28.52500000
 O      48.55500000      27.13800000      26.63000000
 H      48.49400000      26.15500000      26.56600000
 H      48.95700000      27.21600000      27.53200000
 O      47.25000000      21.60700000      20.77900000
 H      46.63400000      21.40300000      21.52500000
 H      47.38700000      22.55400000      20.88900000
 O      43.07200000      30.58200000      40.05500000
 H      42.64700000      31.26000000      39.52600000
 H      43.70200000      31.04600000      40.60300000
 O      44.53400000      36.55800000      27.41400000
 H      45.30800000      36.85300000      27.92600000
 H      44.83100000      36.88100000      26.53200000
 O      43.45100000      38.07100000      31.38200000
 H      43.96300000      38.84400000      31.06900000
 H      44.16700000      37.47500000      31.73800000
 O      46.54100000      22.19400000      28.47100000
 H      46.52800000      21.23800000      28.28700000
 H      45.78200000      22.48600000      27.93200000
 O      46.19100000      30.92900000      39.61900000
 H      46.36400000      31.90400000      39.64100000
 H      46.05400000      30.86100000      38.61600000
 O      44.30600000      22.52800000      21.53900000
 H      43.86100000      23.07400000      22.23500000
 H      44.84800000      21.95400000      22.05300000
 O      46.44000000      27.83900000      33.94900000
 H      46.03700000      28.73700000      33.70900000
 H      46.03200000      27.85400000      34.84800000
 O      49.05700000      25.06700000      40.20500000
 H      49.36600000      25.39000000      41.07900000
 H      48.57900000      24.27600000      40.54900000
 O      46.31000000      33.97800000      24.19200000
 H      47.26400000      33.82000000      23.94900000
 H      46.39700000      33.97200000      25.21200000
 O      45.93300000      30.95900000      36.99600000
 H      46.68100000      31.20800000      36.42800000
 H      45.26000000      31.60700000      36.69200000
 O      44.50200000      31.89600000      31.65800000
 H      44.56300000      32.82900000      31.56400000
 H      43.50100000      31.79100000      31.54300000
 O      43.35200000      37.02200000      21.62200000
 H      43.51900000      36.11000000      22.00100000
 H      43.54300000      36.84500000      20.69500000
 O      45.67300000      26.91600000      26.43300000
 H      45.65000000      26.64000000      27.37100000
 H      46.66500000      27.02900000      26.40800000
 O      44.04500000      33.12400000      36.11000000
 H      43.49600000      33.53600000      35.41100000
 H      44.19200000      33.96200000      36.61600000
 O      44.28600000      28.23500000      38.82800000
 H      44.86900000      28.32000000      39.60300000
 H      43.65200000      28.98100000      39.02100000
 O      45.73300000      24.87500000      34.08500000
 H      45.55100000      25.81200000      33.82400000
 H      45.96800000      24.48700000      33.24600000
 O      43.20000000      21.32900000      40.38600000
 H      43.07500000      22.33400000      40.31800000
 H      42.18700000      21.16500000      40.54900000
 O      45.72700000      30.36600000      33.33700000
 H      45.28100000      30.97000000      32.67200000
 H      46.29300000      30.90600000      33.87700000
 O      47.20200000      38.61400000      25.07100000
 H      47.23600000      39.12600000      24.22600000
 H      46.19100000      38.57100000      25.16400000
 O      43.07000000      21.25100000      30.88300000
 H      43.47100000      20.44300000      31.09400000
 H      42.96300000      21.23000000      29.90200000
 O      47.20300000      36.37100000      39.94900000
 H      48.02600000      36.34900000      39.41200000
 H      47.11800000      37.36300000      40.07400000
 O      48.00100000      31.98800000      31.68500000
 H      48.96100000      31.95000000      31.31100000
 H      47.69400000      31.13100000      31.26700000
 O      46.45600000      20.27900000      30.86000000
 H      46.07300000      20.83700000      30.17000000
 H      47.35800000      20.09400000      30.44500000
 O      44.31500000      37.92200000      24.93300000
 H      43.47300000      37.35800000      25.02800000
 H      44.09300000      38.21000000      24.00700000
 O      48.79500000      36.45100000      24.82700000
 H      48.07000000      37.12800000      24.96000000
 H      48.28700000      35.79900000      24.32600000
 O      46.20700000      39.66000000      29.18300000
 H      46.43700000      38.73100000      29.11700000
 H      46.67500000      40.01400000      28.43000000
 O      49.42800000      37.62500000      30.30200000
 H      49.73900000      37.95500000      29.43400000
 H      48.48300000      37.92900000      30.25300000
 O      45.54300000      25.96000000      29.50600000
 H      46.50500000      25.98900000      29.58100000
 H      45.27800000      25.38900000      30.22700000
 O      46.74300000      37.03200000      28.72200000
 H      46.32200000      37.05500000      29.61200000
 H      47.46600000      36.42400000      28.87200000
 O      47.33400000      32.41800000      21.52400000
 H      47.16700000      32.19900000      22.42900000
 H      46.94600000      31.68500000      21.01700000
 O      48.13800000      29.22300000      31.60400000
 H      47.72800000      28.99200000      32.41700000
 H      49.11300000      29.20400000      31.84800000
 O      43.33700000      40.66300000      38.97300000
 H      44.16800000      41.12700000      39.24800000
 H      42.76200000      41.45200000      38.89200000
 O      43.53700000      35.46800000      37.87200000
 H      42.77700000      35.10300000      38.40900000
 H      43.57300000      36.37300000      38.22600000
 O      47.32900000      34.38600000      26.78000000
 H      47.36800000      34.80100000      27.69700000
 H      48.28900000      34.19600000      26.68000000
 O      48.02000000      28.30200000      23.02100000
 H      48.64800000      28.46800000      23.69700000
 H      47.36000000      28.99300000      23.15100000
 O      45.11900000      22.79900000      25.67000000
 H      45.19900000      23.49900000      24.95100000
 H      45.97300000      22.36200000      25.48000000
 O      47.19000000      22.89200000      40.60800000
 H      47.52600000      22.18100000      40.03000000
 H      46.21700000      22.79000000      40.53700000
 O      46.29500000      21.07600000      37.92800000
 H      46.69900000      20.25900000      37.54000000
 H      45.95600000      21.49000000      37.14200000
 O      46.54400000      23.52200000      31.70500000
 H      47.02200000      23.87300000      30.94100000
 H      47.03300000      22.69300000      31.88100000
 O      44.20300000      34.71900000      31.85800000
 H      44.94900000      35.15600000      31.42400000
 H      43.43500000      35.12600000      31.30900000
 O      48.54000000      29.11000000      37.50100000
 H      48.08100000      30.04200000      37.46700000
 H      48.99300000      29.13900000      36.63800000
 O      48.14200000      24.29600000      29.61100000
 H      49.12500000      24.02700000      29.64800000
 H      47.81900000      23.52800000      29.07700000
 O      46.51500000      33.59100000      40.16800000
 H      46.62700000      33.68900000      41.15000000
 H      46.67000000      34.58100000      39.94200000
 O      46.07200000      25.64300000      39.88500000
 H      46.94500000      26.04900000      39.57600000
 H      46.42800000      24.82500000      40.23000000
 O      47.25800000      34.45200000      32.50600000
 H      47.40700000      33.53100000      32.20200000
 H      47.12600000      34.28600000      33.47800000
 O      47.83500000      27.91100000      40.11200000
 H      48.23800000      28.26600000      39.24700000
 H      48.61900000      27.59000000      40.57300000
 O      43.39100000      40.34000000      26.13500000
 H      43.64000000      39.42400000      25.85700000
 H      42.42900000      40.30600000      26.01800000
 O      48.42200000      30.31300000      28.68100000
 H      47.47300000      30.22500000      28.66600000
 H      48.61500000      29.45700000      29.08400000
 O      48.16000000      24.03500000      20.90700000
 H      47.53100000      24.81600000      21.01800000
 H      48.67600000      24.07700000      21.73900000
 O      47.66400000      31.57100000      34.82700000
 H      48.57700000      31.43400000      34.52400000
 H      47.57000000      32.55400000      34.69600000
 O      46.06000000      30.26600000      22.94900000
 H      45.64400000      30.09000000      22.05900000
 H      45.28800000      30.08300000      23.54400000
 O      44.58500000      27.92100000      22.49700000
 H      43.72200000      27.43400000      22.36600000
 H      44.49900000      28.13200000      23.47300000
 O      44.17900000      40.57400000      30.68200000
 H      44.05200000      41.11100000      29.84300000
 H      45.02300000      40.18300000      30.44200000
 O      42.85900000      38.18900000      38.20000000
 H      41.89700000      38.23800000      38.09000000
 H      43.03400000      39.15300000      38.25800000
 O      48.74000000      26.29300000      34.64600000
 H      48.62400000      25.60200000      35.28100000
 H      47.73600000      26.49200000      34.46700000
 O      42.65500000      20.88800000      28.35900000
 H      42.56100000      21.37200000      27.51600000
 H      42.06800000      20.15100000      28.18700000
 O      43.25200000      25.22900000      25.97100000
 H      44.12100000      24.87000000      26.12500000
 H      43.20100000      25.90500000      26.72700000
 O      45.70300000      25.02900000      24.18600000
 H      45.66400000      25.81700000      24.72200000
 H      45.79000000      25.41200000      23.28800000
 O      43.44100000      28.56700000      31.49100000
 H      44.21400000      29.11700000      31.53900000
 H      43.15500000      28.76800000      30.54500000
 O      42.61000000      28.03500000      34.21800000
 H      42.97300000      28.46300000      33.39000000
 H      42.52100000      28.83500000      34.78500000
 O      47.49600000      39.04600000      35.04600000
 H      46.56000000      38.90100000      35.18300000
 H      47.60500000      39.93700000      35.46500000
 O      43.25100000      29.10700000      28.95900000
 H      43.35600000      28.27700000      28.39400000
 H      42.33700000      29.29000000      28.80400000
 O      42.64700000      22.12400000      26.07000000
 H      42.26400000      21.77900000      25.23500000
 H      43.50400000      22.42700000      25.78000000
