1083
XYZ file of cluster: frame_18000_73743.9aeaf.1b0 - created by MolEdiTo
 O      33.66300000      31.24300000       1.78100000
 H      33.86000000      30.62800000       2.54300000
 H      34.52800000      31.73000000       1.73100000
 O      36.28200000      31.61200000      23.95800000
 H      36.80600000      31.22100000      23.20100000
 H      35.40000000      31.23700000      23.66300000
 O      32.85400000      29.74100000      30.11400000
 H      32.78300000      30.15900000      31.01800000
 H      33.75400000      29.31900000      30.33800000
 O      21.60400000      32.05400000       3.09200000
 H      21.84600000      31.18500000       2.78300000
 H      20.69300000      32.16000000       2.74500000
 O      37.67600000      36.50100000       8.36000000
 H      37.28900000      37.12800000       8.95700000
 H      38.44200000      36.14000000       8.88900000
 O      34.07700000      39.48100000      30.44000000
 H      33.30100000      39.70400000      29.88900000
 H      34.79500000      39.50800000      29.77200000
 O      30.87000000      30.24100000      32.16300000
 H      30.25400000      29.73600000      31.66500000
 H      30.23000000      30.93000000      32.54300000
 O      22.92200000      34.79800000      29.05500000
 H      22.56600000      34.11900000      29.68500000
 H      22.82200000      35.60400000      29.59800000
 O      23.38300000      36.72500000      38.35100000
 H      23.29900000      36.43500000      37.37900000
 H      24.34000000      36.62000000      38.46300000
 O      29.23200000      31.39000000      23.71700000
 H      29.28200000      31.12900000      22.71200000
 H      28.44000000      30.93800000      23.99200000
 O      37.76400000      29.00500000      40.42300000
 H      37.18600000      29.74900000      40.21300000
 H      37.98300000      28.69800000      39.51500000
 O      32.63700000      29.26100000      14.35200000
 H      33.10100000      29.59200000      13.58500000
 H      32.44500000      28.33600000      14.05900000
 O      29.55600000      36.08800000      37.08800000
 H      29.92000000      35.63500000      37.88100000
 H      28.70900000      36.38000000      37.44800000
 O      34.18300000      37.33900000      13.86900000
 H      34.21400000      37.69700000      14.76700000
 H      35.05100000      37.58000000      13.47100000
 O      34.15000000      27.69600000      25.31200000
 H      34.22100000      28.35300000      26.04700000
 H      34.94300000      27.17000000      25.41200000
 O      34.39100000      40.73200000      27.27300000
 H      34.98200000      41.22400000      27.89100000
 H      33.71300000      40.47500000      27.96500000
 O      20.13400000      28.48400000      30.28200000
 H      19.69200000      27.77400000      29.73500000
 H      20.93800000      27.93000000      30.51900000
 O      34.27900000      29.40800000       3.57000000
 H      34.19200000      28.79600000       2.78300000
 H      33.78300000      28.82700000       4.22600000
 O      38.56600000      32.31100000      19.96200000
 H      37.57900000      32.28000000      19.80200000
 H      38.81200000      31.49100000      19.39600000
 O      40.02800000      38.06100000      18.80300000
 H      40.48500000      38.43600000      18.02200000
 H      39.96000000      37.12100000      18.51400000
 O      20.96700000      30.78400000      38.07400000
 H      21.95800000      30.70000000      38.16900000
 H      20.76100000      31.05500000      38.97500000
 O      21.32200000      34.91000000       1.32100000
 H      22.20600000      34.58200000       1.59900000
 H      21.44000000      35.83700000       1.15500000
 O      26.79000000      31.34100000      19.86400000
 H      26.10100000      30.93300000      19.31100000
 H      26.29100000      31.52100000      20.67200000
 O      35.11100000      38.75000000      23.89000000
 H      35.47200000      39.34700000      23.16300000
 H      35.27200000      37.84100000      23.42300000
 O      25.59700000      32.06600000      37.09400000
 H      26.37900000      31.96600000      37.72300000
 H      26.12300000      32.49300000      36.37600000
 O      28.24600000      40.02400000      31.51800000
 H      27.84000000      40.83600000      31.10500000
 H      28.79200000      39.79100000      30.80500000
 O      27.40900000      31.34900000      30.13600000
 H      27.72300000      32.27100000      30.20600000
 H      26.40900000      31.56900000      29.94600000
 O      32.51300000      29.20300000      34.45900000
 H      33.42200000      29.26000000      34.02600000
 H      31.99600000      29.75500000      33.80600000
 O      36.98500000      27.25100000      37.71400000
 H      37.74900000      27.86500000      37.62300000
 H      36.47000000      27.49300000      36.94900000
 O      32.92500000      34.39600000      15.70500000
 H      32.98000000      34.06800000      14.76900000
 H      32.43900000      35.17300000      15.64300000
 O      31.20800000      40.38500000      18.50900000
 H      32.13300000      40.53600000      18.24200000
 H      31.03500000      39.65400000      17.84700000
 O      25.95900000      35.88300000      39.08200000
 H      26.18600000      36.37400000      39.88300000
 H      26.23000000      34.97900000      39.33200000
 O      39.79200000      30.84400000      22.22100000
 H      40.31200000      30.35900000      21.47200000
 H      39.51000000      31.63300000      21.71400000
 O      31.37500000      32.99800000       1.55500000
 H      30.62700000      32.38600000       1.50600000
 H      32.07700000      32.34900000       1.43700000
 O      28.84600000      35.48900000      17.47600000
 H      29.26800000      35.48600000      16.58200000
 H      29.45500000      36.04000000      17.98700000
 O      34.90100000      29.75500000      33.46900000
 H      35.23000000      30.70600000      33.47800000
 H      34.80400000      29.53400000      32.56800000
 O      32.08000000      30.58900000       9.84800000
 H      32.15200000      31.33500000       9.21500000
 H      31.10900000      30.59000000       9.93800000
 O      33.37800000      34.79100000      24.21000000
 H      32.73400000      35.53400000      24.25100000
 H      33.42400000      34.60800000      25.13400000
 O      38.78300000      30.47600000      11.05400000
 H      39.01000000      29.92200000      10.24900000
 H      39.60900000      30.43700000      11.57300000
 O      33.35400000      32.92000000      13.15200000
 H      33.19900000      31.99600000      12.74000000
 H      34.27900000      32.74300000      13.45800000
 O      36.63500000      36.07800000      27.58700000
 H      36.25600000      36.85300000      27.11900000
 H      37.58500000      36.44800000      27.61200000
 O      30.29700000      30.86900000      35.68700000
 H      29.56000000      30.31900000      36.12900000
 H      30.84300000      30.99700000      36.45500000
 O      37.86300000      34.02900000      35.59900000
 H      37.98100000      33.53500000      34.75700000
 H      37.25200000      33.34000000      36.04700000
 O      33.59700000      39.90800000      11.01700000
 H      34.28100000      40.21900000      10.34700000
 H      34.22100000      39.47800000      11.65700000
 O      37.27300000      34.69400000       4.66800000
 H      36.74300000      35.56400000       4.51700000
 H      38.21300000      35.04300000       4.59700000
 O      32.54300000      28.89500000      17.25400000
 H      33.07800000      29.75900000      17.33700000
 H      32.46400000      28.93800000      16.26400000
 O      38.93600000      39.01800000      21.00900000
 H      39.36800000      39.86400000      20.90400000
 H      39.34400000      38.53700000      20.27400000
 O      26.63500000      36.44600000      23.46400000
 H      26.71400000      35.57600000      23.87800000
 H      27.20700000      36.23900000      22.62800000
 O      23.78800000      32.19500000       8.44200000
 H      23.43000000      32.04400000       9.34300000
 H      24.20900000      31.24000000       8.40200000
 O      23.14700000      27.64000000      20.05800000
 H      22.96500000      27.92400000      19.12300000
 H      22.28700000      27.17900000      20.26000000
 O      21.53200000      35.23400000      26.71000000
 H      22.10500000      35.26300000      27.54100000
 H      21.00200000      36.06600000      26.88700000
 O      24.32700000      40.06800000       1.74400000
 H      24.28000000      40.72000000       1.00600000
 H      23.60400000      39.50600000       1.45200000
 O      25.50500000      31.89200000      13.52200000
 H      26.19600000      31.70000000      14.22900000
 H      25.84500000      32.80300000      13.30200000
 O      39.32400000      34.45600000      38.65600000
 H      38.39100000      34.74400000      38.47900000
 H      39.22400000      34.17700000      39.63400000
 O      33.52200000      27.57300000      22.58900000
 H      32.85900000      27.91800000      21.93200000
 H      33.58300000      28.30300000      23.25600000
 O      37.75800000      30.24000000      13.79500000
 H      37.11400000      29.56500000      13.53900000
 H      38.15400000      30.53900000      12.97500000
 O      28.40500000      39.96800000       4.38200000
 H      27.41900000      40.04700000       4.20500000
 H      28.41700000      39.00200000       4.54400000
 O      33.59000000      27.77200000       1.57000000
 H      33.53700000      26.82200000       1.28100000
 H      33.91100000      28.23300000       0.79200000
 O      21.89000000      38.66900000      22.60100000
 H      22.70600000      38.10200000      22.54900000
 H      22.27600000      39.51500000      22.91100000
 O      24.09900000      28.63300000      35.73400000
 H      24.56100000      28.00100000      36.31900000
 H      23.66800000      29.18500000      36.45400000
 O      37.71900000      32.76500000      33.05400000
 H      38.45100000      32.78000000      32.42800000
 H      36.96200000      33.07900000      32.48400000
 O      39.27500000      39.88600000      13.36300000
 H      39.84000000      40.60900000      13.08200000
 H      38.80700000      40.27200000      14.12200000
 O      40.08000000      34.05300000      23.84000000
 H      40.84100000      33.47000000      23.81600000
 H      40.33000000      34.68500000      23.15500000
 O      35.13600000      39.50100000      38.28200000
 H      35.44200000      39.42700000      39.16100000
 H      34.43000000      38.86000000      38.18100000
 O      24.17600000      36.65600000      22.45200000
 H      24.33800000      35.98400000      21.75500000
 H      25.04400000      36.73800000      22.90100000
 O      31.24700000      31.04200000       4.51100000
 H      30.88700000      31.46700000       3.71300000
 H      31.18700000      30.11600000       4.20900000
 O      38.95200000      29.25200000      37.22100000
 H      39.33400000      30.11700000      37.51700000
 H      38.53600000      29.52400000      36.38600000
 O      29.74000000      40.70400000      39.23100000
 H      28.87500000      41.06900000      39.49300000
 H      29.59000000      40.51200000      38.30300000
 O      31.88800000      33.82200000      29.24700000
 H      32.51200000      34.09900000      29.89300000
 H      32.26500000      33.01600000      28.89600000
 O      28.79400000      29.19000000      30.27300000
 H      28.31800000      30.06300000      30.32000000
 H      27.99400000      28.67600000      30.04600000
 O      23.39500000      37.84600000      26.19500000
 H      22.85900000      38.54100000      26.57400000
 H      24.12300000      38.42800000      25.78000000
 O      25.98000000      27.34100000      17.91600000
 H      25.49400000      28.16800000      17.94000000
 H      26.36200000      27.41100000      18.85300000
 O      25.87200000      35.25500000       4.62000000
 H      25.20600000      34.60800000       4.91000000
 H      25.73100000      35.97300000       5.26500000
 O      32.80300000      33.28800000      22.03100000
 H      33.16500000      33.73500000      22.85400000
 H      33.31400000      33.81200000      21.35100000
 O      35.78600000      39.28900000      19.25200000
 H      36.60900000      39.18500000      18.78000000
 H      36.07800000      39.74000000      20.09400000
 O      36.32400000      39.23600000       6.59500000
 H      36.24600000      38.44300000       6.01900000
 H      37.30700000      39.33600000       6.49500000
 O      21.13000000      39.75900000       5.57300000
 H      21.66800000      39.39800000       6.29500000
 H      20.25600000      39.38100000       5.74700000
 O      35.95000000      33.71900000      31.42700000
 H      35.29400000      34.36900000      31.63500000
 H      35.57300000      33.29500000      30.62100000
 O      23.62800000      33.60700000      36.03400000
 H      23.06700000      33.22300000      36.74500000
 H      24.49400000      33.16900000      36.27900000
 O      23.17800000      28.65400000      11.45300000
 H      23.70900000      28.75200000      12.25300000
 H      23.95400000      28.38800000      10.82800000
 O      34.22400000      36.46900000      28.77200000
 H      34.13400000      36.96000000      27.97800000
 H      35.20100000      36.17900000      28.69900000
 O      34.75200000      33.95700000       9.06000000
 H      35.40300000      33.86600000       8.32200000
 H      35.37300000      34.16400000       9.80300000
 O      24.55600000      29.97000000      18.27300000
 H      24.28400000      29.59400000      17.40300000
 H      23.73000000      30.47500000      18.47900000
 O      39.35700000      37.37000000      27.73000000
 H      39.90100000      37.10000000      26.90000000
 H      39.96900000      37.15200000      28.42400000
 O      28.34500000      32.57500000      17.85000000
 H      27.69400000      32.29000000      18.59200000
 H      28.22900000      33.56600000      17.89200000
 O      29.45400000      40.42600000      36.33300000
 H      29.30700000      40.60600000      35.39600000
 H      30.17400000      39.70600000      36.28300000
 O      22.94200000      31.34200000      10.89200000
 H      23.30600000      30.41000000      10.92600000
 H      22.16100000      31.29500000      11.45000000
 O      39.47100000      39.27400000      30.25800000
 H      39.66400000      39.38100000      31.21400000
 H      40.38400000      39.09400000      29.94500000
 O      34.73400000      27.40600000      19.78400000
 H      33.83900000      27.81200000      19.92500000
 H      34.44900000      26.44300000      19.82800000
 O      21.61400000      38.35900000      18.93100000
 H      21.04100000      38.30200000      19.68900000
 H      21.16000000      39.02000000      18.33600000
 O      35.67900000      38.50400000      26.40300000
 H      35.54300000      38.66100000      25.42000000
 H      35.19600000      39.27400000      26.74700000
 O      25.97200000      28.30500000      10.92000000
 H      26.30500000      27.36600000      11.04300000
 H      26.50800000      28.53600000      10.08900000
 O      26.57400000      29.45500000      35.02800000
 H      26.42700000      30.37600000      34.72500000
 H      25.53800000      29.29700000      35.23900000
 O      33.03500000      38.23900000      20.51300000
 H      33.16600000      38.88400000      21.31200000
 H      33.91200000      38.35000000      20.07200000
 O      23.78300000      32.97400000       5.72800000
 H      23.50000000      32.15700000       5.26400000
 H      23.82700000      32.64300000       6.65300000
 O      20.17900000      40.38900000      31.54200000
 H      20.23800000      41.15600000      32.12500000
 H      20.93100000      40.69300000      30.88200000
 O      27.80500000      36.42900000       2.94000000
 H      27.12300000      36.02500000       3.51700000
 H      28.30100000      36.85100000       3.72600000
 O      28.30100000      37.50600000      32.57700000
 H      27.80900000      36.99400000      31.87000000
 H      28.28800000      38.39400000      32.16600000
 O      35.35100000      32.56500000      28.98500000
 H      35.25600000      31.63200000      29.22000000
 H      35.97800000      32.51600000      28.25300000
 O      23.47400000      37.44400000      30.50200000
 H      23.95900000      38.30900000      30.59900000
 H      22.55100000      37.71000000      30.31700000
 O      30.02200000      36.00000000      14.82800000
 H      30.19500000      35.32900000      14.11100000
 H      30.34300000      36.79400000      14.32800000
 O      33.61800000      35.15900000      31.07100000
 H      33.31900000      35.90800000      31.59400000
 H      33.72900000      35.56300000      30.16500000
 O      26.93100000      38.91100000      35.42500000
 H      27.32900000      38.88600000      34.48500000
 H      27.57800000      39.43900000      35.85000000
 O      23.48500000      34.92200000      24.93500000
 H      23.45000000      35.59900000      24.27300000
 H      22.85100000      35.13400000      25.62300000
 O      39.97700000      38.93900000       9.57300000
 H      40.11300000      38.50500000      10.46300000
 H      39.97300000      39.86900000       9.85300000
 O      21.89000000      33.89700000      15.30900000
 H      22.00800000      32.94100000      15.17700000
 H      21.14100000      34.07100000      14.64400000
 O      24.27300000      39.83400000      35.10900000
 H      25.10800000      39.41600000      35.26800000
 H      23.69200000      38.98900000      35.13600000
 O      35.89600000      27.98000000      17.27900000
 H      35.62300000      28.82000000      16.96300000
 H      35.21500000      27.71500000      17.91900000
 O      33.51800000      39.07300000       2.60700000
 H      33.08500000      38.26100000       2.17200000
 H      33.18400000      38.85200000       3.54200000
 O      32.50300000      39.92400000      32.66000000
 H      33.20100000      39.79900000      31.98500000
 H      32.06900000      40.74900000      32.36600000
 O      25.28100000      39.62800000      24.92600000
 H      26.13500000      39.16200000      24.88100000
 H      25.06300000      39.67400000      23.99800000
 O      39.57400000      40.01300000      32.86900000
 H      40.28100000      39.80000000      33.45400000
 H      38.78300000      39.57500000      33.26200000
 O      26.96200000      31.75800000       9.29000000
 H      26.99200000      32.18900000       8.40600000
 H      26.02100000      31.75100000       9.40600000
 O      35.02600000      35.40700000      33.66600000
 H      34.03200000      35.42100000      33.85500000
 H      35.34500000      35.55300000      34.58400000
 O      33.56700000      39.26700000      35.07800000
 H      33.25000000      38.39500000      35.32900000
 H      33.35700000      39.31000000      34.12400000
 O      26.95000000      33.62900000      40.05500000
 H      27.26800000      32.89600000      39.53400000
 H      26.90900000      33.17000000      40.95000000
 O      30.26700000      36.44000000      34.37600000
 H      29.72200000      36.83400000      33.71800000
 H      29.62400000      36.24100000      35.10800000
 O      39.61500000      35.67000000      10.27300000
 H      39.74000000      36.23800000      11.09600000
 H      39.39700000      34.80300000      10.64400000
 O      32.65600000      35.38500000      12.42600000
 H      33.33100000      36.02200000      12.86000000
 H      33.27000000      34.60400000      12.44700000
 O      28.43000000      29.48900000      37.03900000
 H      27.59200000      29.55400000      36.48800000
 H      28.77300000      28.62500000      36.73500000
 O      23.69000000      28.63700000      15.50200000
 H      23.08700000      28.00800000      15.11700000
 H      24.34400000      28.71500000      14.85900000
 O      33.99600000      31.58100000      35.32900000
 H      33.76200000      32.06300000      34.54500000
 H      33.45300000      30.73700000      35.15400000
 O      30.92100000      27.65200000      30.19800000
 H      30.08400000      28.13100000      30.03000000
 H      31.57200000      28.43500000      30.19500000
 O      35.76000000      28.26400000       9.21900000
 H      35.61700000      27.67600000      10.00300000
 H      36.75600000      28.15000000       9.09400000
 O      25.01000000      37.56800000       6.36000000
 H      25.03700000      37.03300000       7.20900000
 H      24.06500000      37.78700000       6.34100000
 O      21.90300000      30.79700000      18.88500000
 H      21.27400000      31.63400000      18.92400000
 H      21.21100000      30.12000000      18.85800000
 O      26.84500000      33.46900000      23.98600000
 H      26.09800000      33.01500000      23.48300000
 H      27.59200000      33.09000000      23.49400000
 O      27.55500000      36.78000000      12.08000000
 H      27.25400000      37.11800000      12.93700000
 H      28.46800000      36.55300000      12.26800000
 O      22.04200000      36.56100000      10.42500000
 H      22.37700000      36.19600000      11.29800000
 H      21.29200000      36.05700000      10.22500000
 O      36.43600000      39.86100000      22.02700000
 H      37.37100000      39.54200000      21.84900000
 H      36.54000000      40.84700000      22.02000000
 O      23.74200000      39.70600000      10.14000000
 H      23.49300000      39.66300000      11.07100000
 H      24.72100000      39.51900000      10.22700000
 O      29.21800000      37.03000000       0.77800000
 H      28.70100000      37.84400000       0.57900000
 H      28.61000000      36.62800000       1.43500000
 O      26.20400000      38.53800000      10.01200000
 H      26.80200000      38.32700000      10.70100000
 H      25.93800000      37.68400000       9.70200000
 O      30.70100000      38.95700000       8.77500000
 H      31.08900000      38.77400000       9.65500000
 H      30.06100000      39.69300000       9.02600000
 O      25.16100000      34.78100000      31.77100000
 H      24.73000000      34.94400000      32.67000000
 H      24.71000000      35.58900000      31.29200000
 O      32.94100000      35.05100000      40.57200000
 H      32.95200000      34.78000000      39.61400000
 H      32.51700000      34.27800000      40.99500000
 O      39.27900000      32.01900000       5.60600000
 H      38.84900000      31.24200000       5.12600000
 H      38.68100000      32.74300000       5.38700000
 O      39.84900000      32.35700000      28.44000000
 H      40.46200000      33.09300000      28.68200000
 H      39.12400000      32.88200000      27.97800000
 O      37.40700000      30.25000000      26.41800000
 H      37.17600000      30.85500000      25.68600000
 H      38.24400000      29.87400000      26.07900000
 O      31.46000000      34.72700000       4.59200000
 H      31.26400000      35.54000000       4.05200000
 H      32.40100000      34.71900000       4.42300000
 O      26.57900000      38.08400000      28.41700000
 H      25.91800000      37.44300000      28.08200000
 H      26.87300000      37.48600000      29.18200000
 O      29.22600000      36.11200000       8.59200000
 H      29.29600000      35.45200000       7.86600000
 H      28.79100000      36.83100000       8.08700000
 O      35.73100000      28.75200000      12.93100000
 H      35.38800000      27.85200000      13.13300000
 H      34.92100000      29.14800000      12.52200000
 O      26.07900000      30.27600000       3.82000000
 H      26.21200000      30.06100000       4.76100000
 H      25.04600000      30.40800000       3.91100000
 O      37.21900000      38.69000000      33.95600000
 H      36.49900000      38.38700000      33.35300000
 H      37.29700000      38.00200000      34.60400000
 O      37.57500000      34.58700000      14.51700000
 H      37.54400000      34.45800000      15.50000000
 H      37.07400000      33.75900000      14.25200000
 O      21.21700000      28.79200000       8.52700000
 H      21.59700000      28.04600000       7.98500000
 H      21.89500000      29.50200000       8.44600000
 O      31.75400000      34.86400000      26.87100000
 H      31.61400000      34.06700000      26.36700000
 H      31.75000000      34.55300000      27.82200000
 O      29.06200000      30.89900000      27.78700000
 H      28.19400000      30.84600000      27.29600000
 H      28.81400000      30.88200000      28.67300000
 O      30.60500000      32.02600000      38.57600000
 H      30.84300000      32.96300000      38.62900000
 H      31.45800000      31.60800000      38.90300000
 O      35.37800000      40.84000000       4.65800000
 H      34.75800000      40.28800000       4.14700000
 H      35.68100000      40.30500000       5.38300000
 O      38.89600000      33.25000000       0.87300000
 H      38.84400000      32.44100000       1.41500000
 H      39.48900000      33.77600000       1.45800000
 O      34.87400000      35.32100000      17.76600000
 H      33.93000000      35.09000000      17.46000000
 H      34.94600000      36.15800000      17.25800000
 O      27.45000000      35.99000000      30.11300000
 H      26.79700000      35.47700000      30.59800000
 H      27.91400000      35.25500000      29.65500000
 O      39.54000000      29.42100000      19.15500000
 H      38.88700000      28.78000000      19.51100000
 H      39.40100000      29.24700000      18.15900000
 O      23.55100000      30.25800000       4.83800000
 H      23.54300000      29.57600000       5.46400000
 H      23.12800000      29.83900000       4.01100000
 O      27.72800000      28.87800000       8.98500000
 H      27.84100000      29.64200000       8.47200000
 H      28.34300000      28.21600000       8.47400000
 O      25.22100000      29.36600000      13.22200000
 H      25.14400000      30.34000000      13.15800000
 H      25.67700000      29.17500000      12.37800000
 O      35.76900000      31.35100000       4.89600000
 H      35.91000000      31.65100000       3.99100000
 H      35.51700000      30.37800000       4.65900000
 O      33.37400000      36.31800000       9.65300000
 H      33.38800000      36.39200000      10.58200000
 H      33.88800000      35.44700000       9.53400000
 O      32.27200000      36.95200000      32.70500000
 H      31.97300000      37.87900000      32.65400000
 H      31.51600000      36.58600000      33.25800000
 O      31.74300000      36.76600000       2.50400000
 H      32.13400000      36.18100000       1.82900000
 H      30.85000000      36.96900000       2.14600000
 O      26.41100000      34.35400000      10.62300000
 H      27.26500000      34.03100000      10.22200000
 H      26.73600000      34.74100000      11.49800000
 O      39.74100000      35.41300000      17.85500000
 H      40.32800000      35.03400000      17.19900000
 H      38.90500000      34.88500000      17.70200000
 O      38.68700000      29.38900000      28.85400000
 H      37.98900000      29.89500000      28.31700000
 H      38.51300000      29.59700000      29.75300000
 O      37.68400000      29.67200000      31.50300000
 H      36.80600000      29.36900000      31.79000000
 H      38.20700000      29.70700000      32.28800000
 O      33.46300000      32.31700000       5.72200000
 H      32.93800000      31.69800000       5.15100000
 H      34.33100000      31.75500000       5.70900000
 O      22.84700000      35.28800000      17.65100000
 H      22.49100000      34.77600000      16.89400000
 H      22.10800000      35.67600000      18.06200000
 O      32.09800000      40.05900000      22.48000000
 H      32.89000000      40.26100000      21.97500000
 H      32.23300000      40.56000000      23.28800000
 O      34.20500000      34.30000000       4.02700000
 H      35.04100000      33.97300000       3.67800000
 H      34.15600000      33.77300000       4.88000000
 O      24.96200000      29.05400000      28.06300000
 H      24.60300000      29.94700000      28.19900000
 H      24.32400000      28.73100000      27.35200000
 O      26.63200000      36.38000000      36.34300000
 H      26.81700000      37.21600000      35.89300000
 H      26.16600000      36.70000000      37.13300000
 O      38.16400000      27.34000000      24.87800000
 H      38.51500000      28.29400000      24.88600000
 H      37.57200000      27.35400000      24.17900000
 O      28.78700000      37.52100000       5.19500000
 H      28.08400000      37.56100000       5.88200000
 H      29.55900000      37.36100000       5.78700000
 O      33.33200000      37.34200000      38.37900000
 H      33.22100000      37.14700000      39.33500000
 H      33.50500000      36.40300000      38.09000000
 O      33.86200000      34.40700000      37.52800000
 H      34.42000000      33.63900000      37.10600000
 H      33.31300000      34.58800000      36.76300000
 O      23.94500000      33.78200000      11.84500000
 H      23.50500000      32.92500000      11.54000000
 H      24.80600000      33.66700000      11.40000000
 O      22.87200000      37.49300000       0.89300000
 H      23.53500000      37.08000000       1.45400000
 H      22.98900000      37.07800000       0.01800000
 O      23.32800000      32.28600000      25.58700000
 H      22.94100000      31.96600000      24.79500000
 H      23.47700000      33.24100000      25.39200000
 O      27.42000000      37.81800000       7.45600000
 H      26.56900000      38.11500000       7.14000000
 H      27.65900000      38.54100000       8.07100000
 O      35.50200000      30.66200000      16.88200000
 H      34.58500000      31.06600000      16.78400000
 H      35.72000000      31.12600000      17.73300000
 O      36.31700000      30.77600000       8.01600000
 H      35.70800000      30.01900000       8.05400000
 H      36.26400000      30.97500000       7.02800000
 O      31.82200000      39.07800000      16.00700000
 H      32.40100000      39.81400000      15.76300000
 H      31.48500000      38.84100000      15.09900000
 O      22.66700000      40.07300000      12.55900000
 H      23.23400000      39.56400000      13.21200000
 H      22.67600000      40.94300000      13.00800000
 O      24.82900000      32.18500000      30.46600000
 H      24.68000000      32.28600000      29.46500000
 H      25.01000000      33.12900000      30.65100000
 O      33.06900000      31.81000000      16.71400000
 H      33.21200000      32.81900000      16.59300000
 H      32.23000000      31.78600000      17.17800000
 O      34.56800000      34.82500000      20.47700000
 H      34.84200000      35.52900000      20.98800000
 H      34.60200000      35.18400000      19.56500000
 O      31.30600000      33.62400000      32.59400000
 H      30.52000000      33.14700000      32.84600000
 H      30.99900000      34.24300000      31.85100000
 O      23.78600000      30.97000000      32.65700000
 H      24.39500000      31.56600000      33.15600000
 H      23.78200000      31.46700000      31.74600000
 O      30.69500000      28.54100000      27.11700000
 H      30.99800000      28.10200000      27.92100000
 H      30.27400000      29.31500000      27.49100000
 O      36.46500000      31.79400000      36.53000000
 H      36.99700000      31.35600000      35.84300000
 H      35.56700000      31.64100000      36.18400000
 O      24.31900000      35.06700000      20.01300000
 H      23.98700000      34.78400000      19.10900000
 H      25.24900000      35.36800000      19.71500000
 O      37.56000000      33.54800000      27.04000000
 H      37.34300000      33.38500000      26.11000000
 H      37.00400000      34.36400000      27.20800000
 O      27.09100000      33.13000000       6.95600000
 H      26.49700000      33.67200000       7.40700000
 H      27.61900000      33.75700000       6.43600000
 O      37.11700000      34.24900000      24.30100000
 H      36.74700000      33.36100000      24.16200000
 H      38.10600000      34.01100000      24.26400000
 O      22.31600000      40.70500000      36.82400000
 H      21.70700000      39.97200000      36.72800000
 H      23.11600000      40.37900000      36.36800000
 O      27.73100000      33.76500000      13.25400000
 H      28.64400000      33.69900000      12.91000000
 H      27.84500000      33.65700000      14.18400000
 O      38.01800000      29.11200000       5.17700000
 H      38.31300000      28.19500000       5.05100000
 H      37.43900000      29.03500000       5.91700000
 O      38.11300000      37.39400000      14.78900000
 H      37.80000000      37.60700000      13.84900000
 H      38.00100000      36.39400000      14.77200000
 O      28.36600000      27.44800000      33.92900000
 H      27.67800000      26.99000000      33.39800000
 H      27.80900000      28.18600000      34.26200000
 O      37.67400000      38.77100000      17.29300000
 H      38.49500000      38.61600000      17.83500000
 H      38.00700000      38.40500000      16.40200000
 O      28.99100000      29.70900000      12.24000000
 H      29.02000000      30.14700000      11.38500000
 H      28.57000000      28.83200000      11.95900000
 O      22.13700000      31.68100000      23.34600000
 H      22.50300000      31.19300000      22.57100000
 H      22.03200000      32.57900000      22.89800000
 O      32.16900000      28.36900000      20.00900000
 H      31.19300000      28.44600000      20.17000000
 H      32.16800000      28.63000000      19.01900000
 O      22.81800000      37.54800000      35.03700000
 H      22.07400000      37.72100000      34.43800000
 H      23.15800000      36.69000000      34.71000000
 O      36.40600000      35.19200000      38.67800000
 H      36.29200000      35.24800000      39.64400000
 H      35.53800000      34.71300000      38.44000000
 O      20.86700000      39.13300000       0.81400000
 H      20.76500000      38.97700000       1.78000000
 H      21.58000000      38.51300000       0.62400000
 O      23.80900000      28.35100000      33.11300000
 H      23.96800000      29.31200000      33.13100000
 H      23.66900000      28.16400000      34.05900000
 O      33.30400000      29.97800000      27.29000000
 H      32.74000000      29.64100000      27.97200000
 H      32.68400000      30.22700000      26.60000000
 O      38.55700000      39.61200000      26.32500000
 H      37.64500000      39.55800000      26.09200000
 H      38.71200000      38.76000000      26.82200000
 O      39.47600000      31.12500000       2.54200000
 H      40.40900000      31.04800000       2.82800000
 H      39.22600000      30.28900000       2.25000000
 O      25.26500000      32.20000000      22.28800000
 H      24.36700000      32.09900000      21.87800000
 H      25.39200000      31.32800000      22.69500000
 O      36.65500000      31.68200000      39.51300000
 H      37.39800000      32.35600000      39.61600000
 H      36.65700000      31.58300000      38.54900000
 O      24.65900000      29.81100000       8.25300000
 H      24.37500000      29.22000000       7.54000000
 H      25.55300000      29.44100000       8.46300000
 O      40.28200000      39.28700000      35.60200000
 H      39.52700000      39.44900000      36.26000000
 H      40.30100000      38.27400000      35.66700000
 O      27.02100000      38.85600000       0.93900000
 H      27.20100000      39.72500000       0.56900000
 H      26.12600000      39.03300000       1.41400000
 O      29.75400000      40.29500000      13.34500000
 H      30.13300000      39.40300000      13.18000000
 H      30.16700000      40.82200000      12.60600000
 O      29.52800000      28.31900000      19.81300000
 H      29.10300000      28.64400000      18.97800000
 H      28.72700000      27.77300000      20.07300000
 O      38.56600000      28.98500000      15.99400000
 H      37.83800000      28.44500000      16.24300000
 H      38.08400000      29.64300000      15.39800000
 O      26.98100000      29.47300000       1.10700000
 H      26.82700000      29.53700000       2.02500000
 H      27.44700000      28.59900000       0.99300000
 O      34.91600000      38.13100000      16.67600000
 H      34.39000000      38.84400000      17.15800000
 H      35.78500000      38.41200000      17.01600000
 O      27.17800000      32.49600000       2.45100000
 H      27.96600000      32.01700000       2.24900000
 H      26.67200000      31.92400000       3.06000000
 O      27.02700000      30.55500000      26.11100000
 H      26.34700000      31.08700000      26.59300000
 H      26.46400000      30.06300000      25.49100000
 O      26.95400000      33.89900000      26.80300000
 H      26.95200000      33.89000000      25.83600000
 H      26.34200000      34.75500000      26.88600000
 O      24.26600000      30.33700000      40.47000000
 H      25.23600000      30.03800000      40.74500000
 H      23.82900000      29.91400000      41.22600000
 O      33.10100000      38.53600000       5.08900000
 H      32.89400000      39.40900000       5.48400000
 H      32.38600000      38.02100000       5.49600000
 O      39.62400000      29.76600000      24.60300000
 H      40.41400000      30.30300000      24.98000000
 H      39.73400000      30.18400000      23.69300000
 O      31.56300000      29.98100000      24.21600000
 H      31.15300000      29.12500000      23.86800000
 H      30.82400000      30.59000000      24.16200000
 O      36.28500000      38.36600000      12.54500000
 H      36.27400000      39.31400000      12.87800000
 H      37.05800000      38.51600000      11.91100000
 O      27.48200000      28.03900000      27.94700000
 H      27.27200000      27.49600000      27.17000000
 H      27.01900000      28.82600000      27.64500000
 O      22.98000000      30.36400000      21.35100000
 H      22.76900000      30.92700000      20.51500000
 H      22.96800000      29.49300000      20.86200000
 O      27.57800000      31.25600000      15.32100000
 H      28.51600000      31.07600000      14.98900000
 H      27.75800000      31.76300000      16.11100000
 O      25.06200000      35.35200000       8.23900000
 H      24.35600000      34.76900000       8.21000000
 H      25.55000000      35.10200000       9.08000000
 O      20.77500000      39.06200000      10.83000000
 H      21.25100000      38.25800000      10.57400000
 H      21.35100000      39.36900000      11.53800000
 O      30.64600000      31.31000000      17.70700000
 H      29.90400000      31.95500000      17.74800000
 H      30.22200000      30.50200000      17.43600000
 O      39.60300000      31.05100000       7.99600000
 H      38.59700000      30.96100000       8.14500000
 H      39.46600000      31.46900000       7.07200000
 O      35.98400000      32.63000000       2.06700000
 H      36.18800000      33.60200000       2.07200000
 H      36.48400000      32.40300000       1.24700000
 O      35.54500000      39.23400000       1.01000000
 H      36.17100000      38.73000000       1.63500000
 H      34.73900000      39.19400000       1.60400000
 O      34.92000000      28.41500000      30.96900000
 H      35.44800000      28.21300000      30.14400000
 H      35.10000000      27.51800000      31.40100000
 O      21.34700000      27.38300000      17.94400000
 H      20.57600000      27.88400000      18.25700000
 H      21.09100000      27.07900000      17.06600000
 O      39.93400000      36.15800000      36.19600000
 H      40.65000000      35.79700000      36.73800000
 H      39.36200000      35.32800000      36.19600000
 O      21.06200000      29.62500000      27.71800000
 H      20.83300000      30.58600000      27.61300000
 H      20.91900000      29.50000000      28.67000000
 O      27.94500000      40.29400000       8.71200000
 H      27.23500000      39.81800000       9.22700000
 H      27.71500000      41.22500000       8.88100000
 O      25.35900000      36.18000000      16.67800000
 H      24.39600000      35.92900000      16.72500000
 H      25.46700000      36.42400000      17.65700000
 O      25.19500000      32.00100000      27.62800000
 H      24.63100000      32.33700000      26.90200000
 H      25.98600000      32.56800000      27.55500000
 O      32.51000000      34.96100000      35.13000000
 H      31.69700000      35.46600000      34.88900000
 H      32.52100000      34.34900000      34.36500000
 O      39.99200000      37.79000000      12.01500000
 H      40.73500000      37.48600000      12.53400000
 H      39.75600000      38.63300000      12.48600000
 O      30.13500000      33.76000000      22.89000000
 H      31.01000000      33.39200000      22.64300000
 H      29.76100000      32.96900000      23.35300000
 O      23.59900000      35.81800000      13.60300000
 H      23.87200000      35.27900000      12.81000000
 H      23.17500000      35.02300000      14.10100000
 O      31.01300000      37.50500000      18.19900000
 H      31.44100000      38.06900000      17.44400000
 H      31.79900000      37.37600000      18.71400000
 O      20.15800000      38.65600000      15.45500000
 H      20.31300000      37.84800000      14.95700000
 H      21.08000000      38.99200000      15.54100000
 O      31.07200000      36.51700000      23.96600000
 H      30.93300000      35.67800000      23.53600000
 H      30.44900000      37.10000000      23.48100000
 O      33.82300000      30.80400000      22.95800000
 H      33.07200000      30.49500000      23.53600000
 H      33.46600000      31.66600000      22.64200000
 O      29.98600000      30.79600000      14.47800000
 H      29.65700000      30.34700000      13.63900000
 H      30.74700000      30.16000000      14.65300000
 O      30.82600000      32.46900000      26.13500000
 H      30.59100000      31.77600000      26.73300000
 H      30.07300000      32.36500000      25.48300000
 O      28.74100000      40.78800000      24.55900000
 H      29.74100000      40.70400000      24.67600000
 H      28.43700000      39.92200000      24.81300000
 O      29.39000000      38.78900000      29.05600000
 H      29.83400000      38.68300000      28.13800000
 H      28.48600000      38.46600000      28.78800000
 O      29.23500000      30.67800000      21.13800000
 H      29.54300000      29.78500000      20.78700000
 H      28.53700000      30.85400000      20.50000000
 O      31.40500000      38.21200000      13.38500000
 H      32.42400000      38.26900000      13.41900000
 H      31.29000000      37.63900000      12.60800000
 O      35.84100000      35.37500000       1.35100000
 H      34.89300000      35.45000000       1.64900000
 H      36.25900000      36.17000000       1.72200000
 O      28.68700000      29.05900000      17.35100000
 H      28.09100000      29.68700000      16.94100000
 H      28.48700000      28.22700000      16.78700000
 O      21.12500000      31.56000000      33.21800000
 H      20.71100000      31.72300000      34.08700000
 H      22.05800000      31.48900000      33.41800000
 O      25.68100000      28.34200000      30.44400000
 H      25.35300000      29.13000000      30.86200000
 H      25.40500000      28.48300000      29.48100000
 O      37.46600000      27.73700000      20.43200000
 H      36.92800000      27.46700000      21.23900000
 H      36.69000000      27.56400000      19.80400000
 O      40.20900000      36.66700000      25.30800000
 H      40.12300000      35.74700000      24.98700000
 H      39.43700000      37.09200000      24.78600000
 O      21.39100000      28.90900000      23.46800000
 H      20.56200000      29.29600000      23.02700000
 H      22.02800000      29.59900000      23.20600000
 O      21.11400000      32.32400000      27.30600000
 H      21.90700000      32.34700000      26.73000000
 H      20.61500000      33.06000000      26.85800000
 O      30.69500000      33.32200000      13.43800000
 H      30.56800000      32.38600000      13.69700000
 H      31.62400000      33.31800000      13.13100000
 O      30.33500000      37.33900000      26.36100000
 H      30.60200000      36.58600000      26.89900000
 H      30.76300000      37.04000000      25.52700000
 O      25.09300000      39.90600000      29.97500000
 H      25.88800000      40.53800000      30.23900000
 H      25.55100000      39.46400000      29.22700000
 O      24.19600000      33.00600000      39.62800000
 H      24.92400000      33.50400000      39.98600000
 H      24.45300000      32.08100000      39.98500000
 O      22.30200000      33.60400000      21.11100000
 H      21.84200000      33.29100000      20.25900000
 H      22.87800000      34.25900000      20.67700000
 O      29.48600000      31.25500000       9.53100000
 H      29.44800000      31.33000000       8.56200000
 H      28.53900000      31.64500000       9.71000000
 O      40.78600000      34.16000000      34.01900000
 H      41.35400000      34.28500000      33.21700000
 H      40.41800000      35.02100000      34.15600000
 O      32.52400000      32.74100000       8.05800000
 H      32.91400000      32.64900000       7.15300000
 H      33.09800000      33.48500000       8.42500000
 O      33.65900000      29.99200000      11.93400000
 H      34.39200000      30.54300000      11.55100000
 H      32.95900000      30.20100000      11.34100000
 O      30.15400000      36.59400000      11.30000000
 H      30.91200000      35.91800000      11.33000000
 H      29.88900000      36.47900000      10.35500000
 O      38.78300000      33.27400000      10.77900000
 H      38.57100000      32.45700000      10.25600000
 H      39.72500000      32.99100000      11.09100000
 O      28.40200000      35.70300000      21.51900000
 H      29.18300000      36.33700000      21.37800000
 H      28.84300000      34.86900000      21.74700000
 O      30.09200000      38.05500000      21.50500000
 H      29.67100000      38.91100000      21.30300000
 H      31.03000000      38.30300000      21.23500000
 O      30.89700000      28.20000000       4.47200000
 H      30.06500000      27.74400000       4.80100000
 H      30.94200000      27.68700000       3.59900000
 O      35.75000000      27.88100000      35.26000000
 H      35.29400000      28.46300000      34.58300000
 H      36.55400000      27.72700000      34.71400000
 O      35.56800000      29.30600000      28.30900000
 H      36.06300000      29.70800000      27.56300000
 H      34.65400000      29.59600000      27.99100000
 O      20.82300000      36.92300000      13.33800000
 H      21.79400000      36.65900000      13.23200000
 H      20.46100000      36.06400000      13.19500000
 O      37.18300000      34.04800000      17.35300000
 H      36.40800000      34.60400000      17.64300000
 H      36.91500000      33.22500000      17.75600000
 O      30.26000000      27.56000000      22.89100000
 H      29.51800000      27.89700000      22.38400000
 H      30.03400000      26.56700000      22.79500000
 O      35.48700000      38.10300000       9.25600000
 H      35.57200000      38.48500000       8.33700000
 H      34.56400000      37.78600000       9.22700000
 O      21.00000000      38.17700000      29.67100000
 H      20.48600000      38.67500000      30.34900000
 H      20.24000000      37.76500000      29.24800000
 O      35.90400000      32.32200000      14.27300000
 H      36.57300000      31.63200000      14.06700000
 H      35.57800000      32.02200000      15.13300000
 O      27.66100000      33.50100000      35.78300000
 H      27.36800000      34.41900000      35.95400000
 H      28.61000000      33.64000000      35.55200000
 O      26.94300000      37.35000000      14.62000000
 H      26.42300000      36.80400000      15.21100000
 H      27.62400000      37.69200000      15.28000000
 O      31.98400000      39.98300000      28.99000000
 H      31.28800000      39.31100000      28.99500000
 H      31.41000000      40.79500000      29.26600000
 O      35.53800000      30.11300000      20.88600000
 H      35.56700000      29.19400000      20.59500000
 H      34.77500000      30.14200000      21.48000000
 O      23.08500000      28.72300000      26.16100000
 H      22.48400000      29.21100000      26.72400000
 H      22.54100000      28.21700000      25.52900000
 O      29.38200000      31.01200000       1.74800000
 H      29.53800000      30.04600000       1.69800000
 H      28.89100000      31.16600000       0.90700000
 O      37.15200000      27.31500000       2.69000000
 H      37.11800000      27.83000000       1.90000000
 H      37.71600000      27.78700000       3.28100000
 O      21.56100000      33.78400000      39.00100000
 H      22.39200000      33.53900000      39.37100000
 H      21.17000000      34.26700000      39.78000000
 O      36.27500000      36.50700000      36.13700000
 H      36.20000000      36.24100000      37.05900000
 H      37.10000000      36.05100000      35.87300000
 O      40.58600000      33.17300000      15.24600000
 H      40.67200000      33.28700000      14.29700000
 H      40.79200000      32.22400000      15.35900000
 O      35.70400000      36.08900000      22.95300000
 H      34.98500000      35.44600000      23.13300000
 H      36.42100000      35.58600000      23.44400000
 O      25.32600000      29.95800000      23.97500000
 H      24.42900000      29.93800000      24.40100000
 H      25.21800000      29.29000000      23.27900000
 O      38.18300000      30.65100000      34.63000000
 H      39.19600000      30.70300000      34.49500000
 H      37.91100000      31.30700000      33.96300000
 O      21.23100000      33.56100000       5.18200000
 H      22.09800000      33.44900000       5.59500000
 H      21.40000000      33.44100000       4.24700000
 O      35.63500000      40.37200000      13.94100000
 H      34.71600000      40.75500000      14.03200000
 H      35.94000000      40.51600000      14.86000000
 O      35.73000000      37.98700000      31.87600000
 H      35.21700000      37.18300000      32.02100000
 H      35.15800000      38.48800000      31.28700000
 O      28.53400000      33.67000000      29.35200000
 H      29.39000000      33.34400000      29.60800000
 H      28.36400000      33.37400000      28.49400000
 O      21.22600000      33.86200000      31.53000000
 H      21.38100000      33.31500000      32.34800000
 H      20.92900000      34.68300000      32.04900000
 O      24.79100000      40.38300000      22.40300000
 H      24.53500000      39.91400000      21.56700000
 H      23.89700000      40.82400000      22.63000000
 O      24.43500000      38.56600000      14.32000000
 H      25.32100000      38.31500000      14.52100000
 H      24.06400000      37.73000000      13.95900000
 O      20.78300000      30.68300000      12.53700000
 H      21.10700000      30.81600000      13.46500000
 H      20.01100000      30.03400000      12.70700000
 O      40.02300000      36.84500000       0.90900000
 H      40.75400000      36.21200000       0.92000000
 H      40.44000000      37.51400000       0.28600000
 O      37.48500000      37.59700000       2.23500000
 H      38.21800000      37.35800000       1.63500000
 H      38.02000000      38.08400000       2.94700000
 O      23.83800000      38.86600000      20.39400000
 H      24.04600000      38.03300000      20.79200000
 H      23.02400000      38.63400000      19.86800000
 O      35.46700000      37.19300000       4.95900000
 H      35.10800000      36.32100000       4.61500000
 H      34.58500000      37.64000000       4.98400000
 O      38.30700000      37.76500000      23.45200000
 H      38.45000000      37.77900000      22.47600000
 H      37.33100000      37.53000000      23.46300000
 O      34.91400000      31.55200000      10.24500000
 H      35.57100000      31.31600000       9.55200000
 H      34.54200000      32.36800000       9.96300000
 O      37.35900000      26.79000000      29.85600000
 H      38.23600000      26.36400000      30.02800000
 H      37.57900000      27.71200000      30.05200000
 O      25.04000000      35.99000000      27.36100000
 H      24.50400000      36.53800000      26.72900000
 H      24.34400000      35.62100000      27.95400000
 O      22.64000000      39.36800000      16.63000000
 H      22.76200000      38.87600000      17.43700000
 H      23.18200000      38.91900000      15.98000000
 O      26.58800000      36.35100000      19.13700000
 H      27.17100000      36.77300000      19.81500000
 H      27.19100000      36.11000000      18.45700000
 O      28.05400000      38.43400000      25.57900000
 H      27.74700000      37.55000000      25.26200000
 H      28.98800000      38.13100000      25.89100000
 O      30.31000000      34.73800000      39.46600000
 H      30.47500000      34.18700000      40.27400000
 H      30.03400000      35.56500000      39.83900000
 O      21.57700000      39.35000000      27.22500000
 H      21.32900000      39.03600000      28.06900000
 H      21.38200000      40.32700000      27.23900000
 O      38.13600000      36.09400000      32.05000000
 H      37.68600000      35.39100000      32.50900000
 H      37.44600000      36.79400000      32.02100000
 O      30.10000000      31.79900000       6.89900000
 H      30.73100000      31.72200000       6.10600000
 H      30.77800000      32.06900000       7.54600000
 O      40.18300000      31.83700000      31.23700000
 H      39.62500000      31.05600000      31.29400000
 H      39.97100000      32.12000000      30.31500000
 O      36.63200000      39.71400000      29.28100000
 H      37.11800000      40.49100000      29.03400000
 H      37.30400000      39.20800000      29.74100000
 O      27.98600000      31.44100000      38.90400000
 H      28.87400000      31.78800000      38.76200000
 H      28.16900000      30.51800000      38.59000000
 O      32.05100000      40.72500000       6.68000000
 H      31.31400000      40.93000000       6.14300000
 H      31.64600000      40.37300000       7.50100000
 O      22.59800000      37.95400000       8.22800000
 H      22.99800000      38.82300000       8.49400000
 H      22.40700000      37.58200000       9.11000000
 O      24.17100000      28.09000000       6.23800000
 H      24.78200000      27.48700000       5.74600000
 H      23.71900000      27.41300000       6.82300000
 O      27.56400000      30.41600000       6.39700000
 H      28.45100000      30.67400000       6.00300000
 H      27.17400000      31.27800000       6.53500000
 O      25.07200000      36.72800000       2.23400000
 H      25.01200000      36.14600000       3.03000000
 H      26.07500000      36.77300000       2.16800000
 O      33.88900000      40.58400000      17.90700000
 H      34.72200000      40.93500000      17.61300000
 H      33.97300000      40.55900000      18.90700000
 O      20.57500000      35.30100000      22.56400000
 H      21.31000000      34.71200000      22.23400000
 H      20.64300000      35.08600000      23.52000000
 O      32.49600000      28.74900000      37.16000000
 H      32.50100000      28.71700000      36.16000000
 H      31.56100000      28.94000000      37.24500000
 O      31.16700000      37.39600000       6.70000000
 H      30.96600000      37.91900000       7.55300000
 H      31.84200000      36.79200000       7.11900000
 O      34.49000000      28.68900000      38.90100000
 H      34.06000000      28.64800000      38.04800000
 H      35.23600000      28.09200000      38.79700000
 O      40.29600000      31.98400000      37.72000000
 H      40.99900000      32.26600000      37.13300000
 H      39.74800000      32.81000000      37.70600000
 O      28.07300000      38.57900000      17.10900000
 H      28.27700000      39.47300000      16.89800000
 H      28.83100000      38.31600000      17.63300000
 O      23.64100000      30.47700000      37.86000000
 H      24.36300000      31.05500000      37.51600000
 H      23.98900000      30.39500000      38.81700000
 O      23.26700000      34.60500000      33.84200000
 H      23.53200000      34.07300000      34.69900000
 H      22.30300000      34.54900000      33.98500000
 O      29.37200000      34.39800000       6.44500000
 H      29.33600000      33.46400000       6.27800000
 H      30.04100000      34.61200000       5.72300000
 O      33.28000000      28.47300000       5.73300000
 H      32.98800000      28.58100000       6.69400000
 H      32.41900000      28.46400000       5.28300000
 O      39.25800000      38.89600000       6.85700000
 H      39.43100000      39.08100000       7.80900000
 H      38.87200000      38.02700000       6.94700000
 O      26.20700000      32.42800000      33.68600000
 H      26.68900000      33.12700000      34.12700000
 H      25.56000000      32.99300000      33.13800000
 O      22.87700000      31.51800000      14.27400000
 H      23.71200000      31.81100000      13.79200000
 H      23.25000000      30.94200000      14.93100000
 O      35.92900000      32.08800000      19.18300000
 H      35.82100000      31.35400000      19.83700000
 H      35.34000000      32.73500000      19.53200000
 O      36.62700000      34.03000000       7.05600000
 H      37.08000000      34.81800000       7.44600000
 H      36.81500000      34.29600000       6.09800000
 O      40.30500000      36.19400000      30.45600000
 H      40.45400000      37.15200000      30.60500000
 H      39.47200000      36.07700000      31.03700000
 O      32.70600000      30.76200000      39.43100000
 H      33.38600000      30.20000000      38.94400000
 H      33.25600000      30.91200000      40.23300000
 O      22.58200000      29.28200000       2.52700000
 H      22.95900000      28.39400000       2.31700000
 H      21.65400000      29.13700000       2.19900000
 O      27.68500000      40.75900000      27.44200000
 H      27.60300000      41.34000000      26.66500000
 H      27.20600000      39.95200000      27.10600000
 O      38.27100000      39.46400000      37.65500000
 H      38.56500000      40.29200000      38.12600000
 H      37.32900000      39.45800000      37.93600000
 O      33.07300000      28.42100000       8.49200000
 H      33.98900000      28.29200000       8.86700000
 H      32.81600000      29.13900000       9.12200000
 O      39.86400000      36.35100000       4.90400000
 H      40.00600000      37.21800000       4.48500000
 H      40.73700000      36.09600000       5.10500000
 O      33.65400000      32.34400000      32.44500000
 H      32.80600000      32.74800000      32.58700000
 H      34.12100000      33.00400000      31.93100000
 O      29.21900000      32.10900000      33.54200000
 H      29.64200000      31.75000000      34.33000000
 H      28.26200000      31.89600000      33.75100000
 O      30.99900000      38.31800000      36.60400000
 H      30.43000000      37.54000000      36.44400000
 H      31.67400000      37.97600000      37.19500000
 O      38.84100000      39.20700000       4.25600000
 H      39.28100000      40.00700000       3.85900000
 H      39.17700000      39.28300000       5.17600000
 O      36.08900000      34.71500000      11.09800000
 H      36.80700000      34.11500000      11.33900000
 H      36.43400000      35.64000000      11.20200000
