690
XYZ file of cluster: frame_18000_1804.c44f2.c43d8 - created by MolEdiTo
 O      29.74000000      40.70400000      39.23100000
 H      28.87500000      41.06900000      39.49300000
 H      29.59000000      40.51200000      38.30300000
 O      20.27900000      34.46900000      36.84000000
 H      20.74100000      34.17600000      37.67600000
 H      19.82700000      35.27700000      37.17600000
 O       1.69600000      40.66300000      38.97300000
 H       2.52700000      41.12700000      39.24800000
 H       1.12100000      41.45200000      38.89200000
 O       1.89600000      35.46800000      37.87200000
 H       1.13600000      35.10300000      38.40900000
 H       1.93200000      36.37300000      38.22600000
 O       5.30600000      34.05000000      35.17900000
 H       4.70700000      34.79500000      35.42000000
 H       6.01900000      34.12700000      35.79400000
 O      22.81800000      37.54800000      35.03700000
 H      22.07400000      37.72100000      34.43800000
 H      23.15800000      36.69000000      34.71000000
 O       9.96500000      40.63300000      38.04000000
 H       9.58900000      41.12300000      37.26200000
 H      10.76300000      41.20100000      38.25200000
 O      20.43500000      34.91300000      34.02800000
 H      20.51500000      34.61400000      34.93200000
 H      19.67300000      35.45400000      34.02700000
 O      36.40600000      35.19200000      38.67800000
 H      36.29200000      35.24800000      39.64400000
 H      35.53800000      34.71300000      38.44000000
 O       8.31000000      39.01900000      39.46400000
 H       9.09900000      39.38100000      39.01200000
 H       7.76300000      38.73100000      38.73500000
 O       2.97200000      38.86900000      35.71000000
 H       1.96500000      38.84000000      35.66700000
 H       3.09900000      39.74100000      36.12300000
 O       4.31500000      36.59600000      36.82100000
 H       3.97600000      37.39900000      36.44200000
 H       3.58100000      36.18300000      37.26200000
 O      36.27500000      36.50700000      36.13700000
 H      36.20000000      36.24100000      37.05900000
 H      37.10000000      36.05100000      35.87300000
 O      14.22300000      34.61200000      36.41000000
 H      14.96200000      35.23300000      36.29300000
 H      13.63700000      35.18400000      36.95500000
 O      26.93100000      38.91100000      35.42500000
 H      27.32900000      38.88600000      34.48500000
 H      27.57800000      39.43900000      35.85000000
 O      17.30600000      40.11900000      37.43200000
 H      17.16100000      39.59100000      36.62000000
 H      17.59500000      39.44300000      38.03800000
 O      16.62800000      36.09900000      36.42400000
 H      17.54300000      36.28700000      36.81900000
 H      16.52000000      37.06000000      36.06800000
 O      18.68100000      38.71700000      39.12400000
 H      18.09800000      38.75400000      39.99400000
 H      19.56800000      38.97500000      39.52400000
 O       9.98100000      35.86500000      40.02000000
 H      10.13200000      36.76600000      40.30100000
 H       9.14900000      35.98600000      39.52400000
 O      10.43000000      36.89200000      37.16700000
 H       9.84600000      37.38100000      36.48900000
 H      10.05800000      36.01600000      37.08400000
 O      23.38300000      36.72500000      38.35100000
 H      23.29900000      36.43500000      37.37900000
 H      24.34000000      36.62000000      38.46300000
 O      40.28200000      39.28700000      35.60200000
 H      39.52700000      39.44900000      36.26000000
 H      40.30100000      38.27400000      35.66700000
 O       5.56200000      36.37100000      39.94900000
 H       6.38500000      36.34900000      39.41200000
 H       5.47700000      37.36300000      40.07400000
 O      24.27300000      39.83400000      35.10900000
 H      25.10800000      39.41600000      35.26800000
 H      23.69200000      38.98900000      35.13600000
 O      39.32400000      34.45600000      38.65600000
 H      38.39100000      34.74400000      38.47900000
 H      39.22400000      34.17700000      39.63400000
 O      12.92200000      36.17500000      38.49300000
 H      12.34200000      35.70300000      39.07700000
 H      12.36000000      36.86900000      38.13300000
 O      30.31000000      34.73800000      39.46600000
 H      30.47500000      34.18700000      40.27400000
 H      30.03400000      35.56500000      39.83900000
 O      16.59100000      38.78700000      35.21600000
 H      15.86700000      38.28800000      34.72900000
 H      16.33900000      39.68900000      34.95700000
 O      20.08100000      39.11700000      35.58500000
 H      19.53900000      39.85700000      35.30900000
 H      20.26300000      38.65100000      34.69500000
 O      29.55600000      36.08800000      37.08800000
 H      29.92000000      35.63500000      37.88100000
 H      28.70900000      36.38000000      37.44800000
 O       7.76200000      35.84600000      38.29300000
 H       7.43800000      36.12700000      37.39900000
 H       7.74400000      34.86000000      38.12200000
 O      38.27100000      39.46400000      37.65500000
 H      38.56500000      40.29200000      38.12600000
 H      37.32900000      39.45800000      37.93600000
 O      25.95900000      35.88300000      39.08200000
 H      26.18600000      36.37400000      39.88300000
 H      26.23000000      34.97900000      39.33200000
 O      39.93400000      36.15800000      36.19600000
 H      40.65000000      35.79700000      36.73800000
 H      39.36200000      35.32800000      36.19600000
 O      12.03800000      39.56500000      35.65100000
 H      11.54300000      39.41700000      36.47100000
 H      11.52800000      39.11000000      34.95700000
 O      29.45400000      40.42600000      36.33300000
 H      29.30700000      40.60600000      35.39600000
 H      30.17400000      39.70600000      36.28300000
 O       8.02900000      37.34200000      35.60000000
 H       7.38400000      38.06100000      35.50400000
 H       8.08900000      36.96300000      34.73000000
 O       1.21800000      38.18900000      38.20000000
 H       0.25600000      38.23800000      38.09000000
 H       1.39300000      39.15300000      38.25800000
 O      22.31600000      40.70500000      36.82400000
 H      21.70700000      39.97200000      36.72800000
 H      23.11600000      40.37900000      36.36800000
 O      26.63200000      36.38000000      36.34300000
 H      26.81700000      37.21600000      35.89300000
 H      26.16600000      36.70000000      37.13300000
 O      15.15100000      37.99300000      39.34000000
 H      14.37600000      37.46100000      39.41300000
 H      14.83800000      38.86200000      39.13300000
 O      32.94100000      35.05100000      40.57200000
 H      32.95200000      34.78000000      39.61400000
 H      32.51700000      34.27800000      40.99500000
 O      16.85000000      35.95400000      40.34500000
 H      16.12300000      36.48700000      39.97100000
 H      17.38300000      36.61300000      40.78600000
 O      33.56700000      39.26700000      35.07800000
 H      33.25000000      38.39500000      35.32900000
 H      33.35700000      39.31000000      34.12400000
 O      30.99900000      38.31800000      36.60400000
 H      30.43000000      37.54000000      36.44400000
 H      31.67400000      37.97600000      37.19500000
 O      35.13600000      39.50100000      38.28200000
 H      35.44200000      39.42700000      39.16100000
 H      34.43000000      38.86000000      38.18100000
 O      13.70000000      40.38400000      38.62500000
 H      12.72600000      40.42400000      38.71000000
 H      13.95900000      40.98800000      37.89800000
 O      32.51000000      34.96100000      35.13000000
 H      31.69700000      35.46600000      34.88900000
 H      32.52100000      34.34900000      34.36500000
 O       5.85500000      39.04600000      35.04600000
 H       4.91900000      38.90100000      35.18300000
 H       5.96400000      39.93700000      35.46500000
 O      18.96000000      36.99000000      37.23000000
 H      19.33800000      37.65900000      36.58100000
 H      18.73600000      37.61600000      37.95100000
 O      30.26700000      36.44000000      34.37600000
 H      29.72200000      36.83400000      33.71800000
 H      29.62400000      36.24100000      35.10800000
 O      33.33200000      37.34200000      38.37900000
 H      33.22100000      37.14700000      39.33500000
 H      33.50500000      36.40300000      38.09000000
 O      31.16700000      37.39600000      48.38200000
 H      30.96600000      37.91900000      49.23500000
 H      31.84200000      36.79200000      48.80100000
 O      14.61500000      37.71000000      48.48200000
 H      14.11000000      37.00800000      48.95800000
 H      13.92300000      38.28700000      48.13200000
 O      31.46000000      34.72700000      46.27400000
 H      31.26400000      35.54000000      45.73400000
 H      32.40100000      34.71900000      46.10500000
 O      12.26200000      38.62400000      47.11700000
 H      11.51100000      38.02700000      47.03700000
 H      11.80500000      39.51400000      47.06400000
 O      37.27300000      34.69400000      46.35000000
 H      36.74300000      35.56400000      46.19900000
 H      38.21300000      35.04300000      46.27900000
 O      27.80500000      36.42900000      44.62200000
 H      27.12300000      36.02500000      45.19900000
 H      28.30100000      36.85100000      45.40800000
 O      16.53600000      39.75400000      45.04600000
 H      16.44700000      40.55400000      44.43300000
 H      16.76300000      40.22500000      45.88000000
 O      31.74300000      36.76600000      44.18600000
 H      32.13400000      36.18100000      43.51100000
 H      30.85000000      36.96900000      43.82800000
 O      20.86700000      39.13300000      42.49600000
 H      20.76500000      38.97700000      43.46200000
 H      21.58000000      38.51300000      42.30600000
 O      22.87200000      37.49300000      42.57500000
 H      23.53500000      37.08000000      43.13600000
 H      22.98900000      37.07800000      41.70000000
 O      35.46700000      37.19300000      46.64100000
 H      35.10800000      36.32100000      46.29700000
 H      34.58500000      37.64000000      46.66600000
 O      39.25800000      38.89600000      48.53900000
 H      39.43100000      39.08100000      49.49100000
 H      38.87200000      38.02700000      48.62900000
 O       1.23000000      40.67000000      43.31200000
 H       1.69700000      39.81400000      43.40500000
 H       1.40400000      40.86700000      42.38500000
 O       3.54900000      36.48900000      45.42000000
 H       4.26800000      37.07900000      45.75600000
 H       2.86800000      37.21400000      45.26600000
 O      37.48500000      37.59700000      43.91700000
 H      38.21800000      37.35800000      43.31700000
 H      38.02000000      38.08400000      44.62900000
 O      25.01000000      37.56800000      48.04200000
 H      25.03700000      37.03300000      48.89100000
 H      24.06500000      37.78700000      48.02300000
 O      11.05300000      40.63600000      42.74500000
 H      10.91500000      39.66700000      42.99600000
 H      10.13300000      40.96500000      42.72300000
 O      18.48400000      34.12700000      44.18700000
 H      19.25800000      34.70200000      43.95700000
 H      17.77400000      34.52800000      43.66200000
 O      15.87200000      40.17900000      48.53100000
 H      15.70100000      39.26300000      48.80600000
 H      15.93000000      40.59900000      49.41300000
 O      18.90700000      38.50800000      48.25800000
 H      18.18100000      38.05600000      48.73000000
 H      19.30300000      37.76300000      47.79100000
 O      13.89700000      38.62200000      44.80900000
 H      13.36300000      38.71500000      45.67200000
 H      14.79800000      38.81600000      45.12800000
 O      25.87200000      35.25500000      46.30200000
 H      25.20600000      34.60800000      46.59200000
 H      25.73100000      35.97300000      46.94700000
 O       7.17900000      35.08200000      46.56400000
 H       7.20800000      34.92200000      47.50600000
 H       6.76600000      35.98400000      46.57800000
 O       5.30100000      34.02300000      44.57100000
 H       4.69700000      34.79500000      44.76900000
 H       5.83700000      34.09600000      45.39800000
 O      24.32700000      40.06800000      43.42600000
 H      24.28000000      40.72000000      42.68800000
 H      23.60400000      39.50600000      43.13400000
 O      36.62700000      34.03000000      48.73800000
 H      37.08000000      34.81800000      49.12800000
 H      36.81500000      34.29600000      47.78000000
 O      10.42700000      35.90300000      46.08500000
 H      10.27200000      35.84900000      47.08600000
 H      10.52400000      34.92500000      45.91900000
 O      27.02100000      38.85600000      42.62100000
 H      27.20100000      39.72500000      42.25100000
 H      26.12600000      39.03300000      43.09600000
 O      35.54500000      39.23400000      42.69200000
 H      36.17100000      38.73000000      43.31700000
 H      34.73900000      39.19400000      43.28600000
 O      35.84100000      35.37500000      43.03300000
 H      34.89300000      35.45000000      43.33100000
 H      36.25900000      36.17000000      43.40400000
 O      12.86900000      37.10200000      42.83800000
 H      13.43100000      36.24300000      42.80800000
 H      13.37400000      37.62700000      43.43900000
 O       2.78500000      37.88500000      42.76100000
 H       3.58700000      38.42800000      42.63100000
 H       3.15000000      37.00400000      42.58500000
 O      36.32400000      39.23600000      48.27700000
 H      36.24600000      38.44300000      47.70100000
 H      37.30700000      39.33600000      48.17700000
 O       8.65100000      34.41000000      43.94200000
 H       8.75200000      34.88100000      43.09400000
 H       8.40000000      35.06000000      44.57100000
 O      20.53500000      38.12200000      44.95800000
 H      20.76700000      38.83200000      45.55900000
 H      20.68800000      37.32900000      45.46700000
 O      17.95900000      37.87300000      43.44300000
 H      18.82300000      37.90900000      43.91300000
 H      17.39700000      38.28400000      44.11900000
 O      28.40500000      39.96800000      46.06400000
 H      27.41900000      40.04700000      45.88700000
 H      28.41700000      39.00200000      46.22600000
 O       9.64200000      35.92800000      48.55300000
 H       8.78400000      36.16400000      48.98400000
 H      10.23900000      36.15700000      49.27900000
 O      21.13000000      39.75900000      47.25500000
 H      21.66800000      39.39800000      47.97700000
 H      20.25600000      39.38100000      47.42900000
 O      33.51800000      39.07300000      44.28900000
 H      33.08500000      38.26100000      43.85400000
 H      33.18400000      38.85200000      45.22400000
 O      29.21800000      37.03000000      42.46000000
 H      28.70100000      37.84400000      42.26100000
 H      28.61000000      36.62800000      43.11700000
 O       1.65000000      38.67400000      47.18500000
 H       2.44800000      38.77100000      47.83000000
 H       0.92500000      38.61800000      47.86400000
 O      35.37800000      40.84000000      46.34000000
 H      34.75800000      40.28800000      45.82900000
 H      35.68100000      40.30500000      47.06500000
 O      39.86400000      36.35100000      46.58600000
 H      40.00600000      37.21800000      46.16700000
 H      40.73700000      36.09600000      46.78700000
 O      10.47900000      38.00400000      43.84300000
 H      11.38400000      37.71900000      43.53700000
 H      10.36400000      37.48200000      44.60800000
 O       5.57900000      38.86100000      43.28100000
 H       6.44600000      39.25200000      43.42400000
 H       5.10100000      39.07700000      44.10700000
 O      13.26100000      33.98700000      45.68600000
 H      13.39600000      34.22200000      44.67600000
 H      13.02900000      34.87900000      45.98900000
 O       2.29200000      35.00500000      47.64700000
 H       2.93000000      34.89100000      48.32400000
 H       2.64500000      35.73300000      47.10900000
 O       4.23600000      39.93900000      45.64900000
 H       4.24100000      40.88000000      46.06400000
 H       3.42900000      40.08400000      45.11100000
 O      32.05100000      40.72500000      48.36200000
 H      31.31400000      40.93000000      47.82500000
 H      31.64600000      40.37300000      49.18300000
 O      19.84800000      35.90300000      46.94400000
 H      20.56000000      35.31800000      47.16900000
 H      19.27300000      35.35500000      46.35200000
 O       6.35200000      39.78000000      48.54000000
 H       6.55300000      40.62000000      48.15000000
 H       6.87800000      39.89100000      49.39400000
 O      40.02300000      36.84500000      42.59100000
 H      40.75400000      36.21200000      42.60200000
 H      40.44000000      37.51400000      41.96800000
 O      38.84100000      39.20700000      45.93800000
 H      39.28100000      40.00700000      45.54100000
 H      39.17700000      39.28300000      46.85800000
 O      25.07200000      36.72800000      43.91600000
 H      25.01200000      36.14600000      44.71200000
 H      26.07500000      36.77300000      43.85000000
 O       5.78100000      37.90000000      46.39800000
 H       6.05000000      38.14300000      47.29700000
 H       5.29700000      38.74500000      46.20700000
 O       8.48000000      39.75700000      43.77300000
 H       9.25400000      39.20000000      44.09900000
 H       8.36900000      39.30100000      42.88600000
 O      18.98200000      34.33900000      49.32800000
 H      19.11100000      34.78600000      48.52600000
 H      19.06900000      33.40800000      49.09300000
 O      28.78700000      37.52100000      46.87700000
 H      28.08400000      37.56100000      47.56400000
 H      29.55900000      37.36100000      47.46900000
 O      33.10100000      38.53600000      46.77100000
 H      32.89400000      39.40900000      47.16600000
 H      32.38600000      38.02100000      47.17800000
 O      21.32200000      34.91000000      43.00300000
 H      22.20600000      34.58200000      43.28100000
 H      21.44000000      35.83700000      42.83700000
 O       3.68100000      44.81100000      36.27300000
 H       3.32600000      45.14500000      37.13300000
 H       2.91500000      44.23100000      35.99800000
 O      32.23200000      47.40000000      38.70100000
 H      32.01700000      46.92600000      37.89700000
 H      31.38800000      47.24100000      39.26200000
 O      23.52100000      43.12400000      39.54200000
 H      23.18600000      42.98200000      38.63200000
 H      24.39900000      43.52400000      39.31300000
 O       8.47200000      43.52800000      35.91400000
 H       8.39100000      44.25000000      35.22900000
 H       7.55100000      43.55500000      36.24500000
 O      27.34300000      47.64600000      38.87900000
 H      26.99300000      48.54800000      39.05900000
 H      26.70600000      47.28100000      38.33400000
 O       5.97700000      42.78100000      36.76700000
 H       5.27500000      43.48400000      36.87200000
 H       6.32700000      42.77900000      37.67800000
 O       9.67700000      48.63800000      40.28600000
 H       9.35500000      48.94900000      41.15600000
 H      10.51400000      48.14600000      40.56700000
 O      17.38900000      47.37300000      36.26000000
 H      17.21100000      47.14000000      37.19400000
 H      16.57800000      47.84000000      36.00500000
 O       2.13700000      45.73100000      38.00000000
 H       1.27200000      45.73700000      37.52800000
 H       2.04700000      46.55000000      38.52700000
 O      11.83000000      43.68600000      34.62600000
 H      11.87700000      42.82500000      35.12200000
 H      11.74800000      43.33000000      33.72100000
 O      11.73400000      44.43400000      38.32300000
 H      12.17200000      44.96400000      37.61200000
 H      10.94000000      45.07300000      38.45100000
 O      18.14600000      43.94000000      39.07800000
 H      19.09500000      43.80000000      39.31100000
 H      17.99300000      43.07900000      38.58000000
 O      21.33300000      45.98500000      39.87900000
 H      21.14600000      45.07000000      40.15900000
 H      20.42100000      46.37700000      39.88800000
 O      35.36300000      43.70600000      39.60300000
 H      35.72900000      42.85200000      39.39700000
 H      34.62900000      43.50100000      40.21700000
 O      35.47500000      42.65100000      35.95000000
 H      35.10200000      41.81200000      35.56100000
 H      35.95000000      42.27600000      36.75000000
 O      25.57100000      43.87500000      37.88000000
 H      26.32400000      43.81400000      37.27300000
 H      25.16800000      44.68500000      37.57300000
 O      24.18500000      46.18000000      38.69200000
 H      23.32500000      45.97300000      39.12400000
 H      23.97000000      47.12600000      38.49300000
 O      39.88800000      45.97500000      36.21300000
 H      39.20700000      45.53700000      35.60200000
 H      40.61700000      46.01700000      35.48800000
 O      32.59700000      43.36300000      35.59400000
 H      32.89100000      42.45000000      35.70000000
 H      32.63300000      43.47100000      34.62400000
 O       7.00100000      42.65900000      39.30900000
 H       7.45000000      43.37300000      39.79200000
 H       7.60000000      41.91500000      39.39400000
 O      37.20200000      45.81800000      39.53700000
 H      36.52300000      45.07500000      39.36700000
 H      36.97100000      46.37300000      38.75300000
 O      18.64100000      42.87100000      35.26800000
 H      19.20100000      43.67600000      35.14300000
 H      17.79900000      43.32900000      34.98400000
 O      29.22800000      45.95900000      36.92100000
 H      28.62400000      46.44100000      37.46900000
 H      30.06300000      45.95800000      37.49300000
 O      20.54000000      43.37000000      40.47800000
 H      20.87100000      42.42300000      40.42900000
 H      20.13000000      43.32700000      41.35500000
 O      12.44400000      47.15900000      36.98300000
 H      13.34700000      46.72700000      37.32400000
 H      12.83200000      48.00500000      36.66000000
 O      34.68200000      47.45200000      34.16300000
 H      35.40200000      47.23700000      33.50400000
 H      35.20700000      47.27800000      34.96800000
 O      27.17000000      43.03600000      39.66800000
 H      27.11800000      43.88000000      40.09300000
 H      26.56300000      43.19300000      38.90100000
 O       1.54300000      48.05800000      39.14700000
 H       0.63000000      48.35100000      38.91000000
 H       1.95200000      48.92300000      39.36600000
 O      32.08900000      45.74500000      36.63600000
 H      33.04500000      45.64600000      36.78300000
 H      31.91300000      44.89600000      36.18400000
 O      13.81000000      45.48900000      40.32300000
 H      13.54100000      45.25400000      39.40100000
 H      13.72800000      44.67200000      40.76300000
 O      32.18500000      42.87500000      38.71600000
 H      32.11300000      43.02200000      37.78400000
 H      31.24400000      42.77100000      39.00000000
 O      27.43500000      44.58900000      35.59000000
 H      28.33600000      44.80000000      35.98200000
 H      27.60200000      43.91100000      34.95700000
 O       4.30100000      47.31900000      34.81800000
 H       4.17200000      46.73000000      34.07200000
 H       4.35400000      46.63700000      35.55400000
 O      26.01000000      46.80400000      35.23700000
 H      25.91400000      46.62800000      34.28600000
 H      26.43200000      45.95400000      35.48900000
 O      34.78500000      45.11300000      36.93100000
 H      34.82400000      44.24800000      36.43400000
 H      34.91900000      44.82800000      37.83600000
 O      14.63200000      45.89500000      37.55700000
 H      14.85200000      44.96000000      37.19100000
 H      15.41200000      45.86900000      38.20500000
 O      37.48200000      44.80000000      34.89700000
 H      36.94300000      43.99900000      35.01500000
 H      37.70700000      44.77600000      33.98000000
 O      11.91200000      47.64200000      40.61500000
 H      12.25800000      48.54400000      40.44900000
 H      12.62300000      47.06100000      40.28000000
 O      12.40500000      46.08300000      34.43900000
 H      12.17200000      45.12900000      34.59900000
 H      12.04200000      46.45000000      35.27600000
 O       7.08900000      47.99800000      38.72800000
 H       6.36800000      48.38500000      39.23800000
 H       7.82000000      48.14700000      39.40400000
 O      39.15800000      43.72200000      38.31400000
 H      39.13500000      44.31200000      37.54300000
 H      38.79000000      44.33500000      38.99500000
 O      36.44600000      47.86900000      38.15800000
 H      36.63800000      47.77200000      37.19700000
 H      35.77000000      48.61700000      38.09200000
 O      22.99800000      46.99600000      35.75900000
 H      23.06400000      47.76400000      36.37300000
 H      23.93600000      46.86700000      35.49500000
 O      29.80600000      46.99200000      39.84900000
 H      29.77000000      46.46200000      40.63800000
 H      28.86600000      47.21100000      39.62500000
 O      34.17800000      48.14700000      40.53800000
 H      33.50400000      47.55900000      40.19600000
 H      34.47800000      48.49300000      39.63200000
 O      15.55800000      43.58400000      36.84600000
 H      16.15300000      42.87500000      37.08400000
 H      15.77400000      43.69700000      35.90900000
 O      10.03600000      46.46300000      38.37900000
 H       9.76700000      47.31300000      38.75600000
 H      10.80300000      46.80900000      37.81800000
 O       1.53600000      43.49000000      35.08500000
 H       1.71800000      43.35500000      34.11200000
 H       0.87900000      42.77800000      35.22400000
 O      36.96500000      47.35100000      35.55200000
 H      37.24600000      46.43600000      35.44700000
 H      37.76800000      47.85700000      35.23800000
 O      17.10400000      46.21100000      38.82400000
 H      17.57000000      45.31600000      38.90200000
 H      17.68600000      46.74900000      39.41800000
 O      18.72000000      45.89000000      34.55500000
 H      18.07400000      46.36000000      35.16700000
 H      19.45000000      45.71300000      35.15300000
 O       8.31800000      47.20000000      36.52400000
 H       7.67500000      47.53800000      37.24000000
 H       8.81300000      46.57800000      37.04200000
 O       4.02000000      42.93200000      40.21700000
 H       4.20000000      43.58500000      40.85200000
 H       4.76700000      42.33700000      40.25900000
 O      27.53100000      48.92400000      35.42600000
 H      27.00700000      48.09900000      35.51200000
 H      28.36000000      48.55000000      35.11100000
 O      39.13500000      48.92800000      38.58800000
 H      38.33700000      48.36100000      38.55500000
 H      38.93400000      49.70400000      38.04900000
 O      19.07900000      47.59600000      40.16000000
 H      18.94500000      48.29400000      39.45000000
 H      19.41100000      48.17800000      40.88900000
 O      30.80400000      47.63300000      34.74200000
 H      30.57300000      46.98300000      35.41600000
 H      31.29400000      46.98200000      34.18600000
 O      21.36000000      44.81200000      35.76500000
 H      21.72600000      44.05900000      36.27900000
 H      22.08500000      45.45600000      35.82700000
 O       8.69600000      44.19900000      42.63800000
 H       8.28200000      44.17900000      43.51400000
 H       9.39600000      44.83200000      42.73400000
 O      34.27000000      44.03700000      48.12200000
 H      34.69600000      43.74600000      47.29100000
 H      33.53400000      43.34500000      48.20400000
 O      19.37400000      42.96000000      44.84600000
 H      18.84600000      42.86000000      45.71200000
 H      18.68800000      43.01300000      44.20900000
 O      26.07500000      46.70400000      47.06800000
 H      25.30100000      46.51300000      46.49000000
 H      26.41700000      45.80200000      47.24500000
 O      15.05700000      45.00600000      47.27700000
 H      15.43900000      44.17500000      47.20800000
 H      14.67500000      45.00300000      48.14700000
 O      15.43500000      48.31400000      48.40700000
 H      15.54400000      47.73200000      47.61800000
 H      14.55900000      48.72300000      48.23100000
 O      38.63600000      46.76000000      43.25900000
 H      38.58700000      47.68100000      42.93500000
 H      37.91000000      46.33100000      42.66800000
 O      24.94500000      48.68300000      44.35500000
 H      24.23700000      48.72200000      43.73400000
 H      24.88800000      47.75200000      44.71700000
 O      28.76300000      47.37300000      44.35000000
 H      28.23000000      46.63700000      44.49500000
 H      29.46200000      47.32600000      45.04000000
 O      19.40000000      45.06100000      48.39800000
 H      20.26100000      44.82700000      47.96100000
 H      19.19300000      45.89500000      47.91800000
 O      36.85600000      43.72900000      44.26800000
 H      36.15100000      43.16000000      44.63400000
 H      36.54400000      43.99200000      43.41500000
 O      27.33700000      44.18800000      48.13500000
 H      26.95700000      44.34100000      49.02200000
 H      27.11100000      43.24100000      48.01100000
 O      23.92300000      46.33500000      45.17400000
 H      23.34900000      47.07800000      45.33000000
 H      23.31100000      45.66500000      44.83400000
 O      23.98400000      42.88000000      47.28400000
 H      23.31900000      43.46700000      46.90300000
 H      23.50000000      42.50000000      48.07400000
 O      37.14600000      47.07500000      45.66300000
 H      36.28700000      47.20500000      45.26500000
 H      37.71800000      46.96100000      44.90300000
 O      33.43800000      46.51300000      49.04000000
 H      33.77700000      45.76600000      48.54300000
 H      33.80500000      47.29900000      48.56700000
 O      13.21600000      45.12900000      45.13100000
 H      13.89200000      44.97700000      45.82700000
 H      13.24200000      44.24400000      44.60400000
 O      33.02400000      43.22800000      43.06000000
 H      32.72400000      43.13100000      42.11000000
 H      33.02700000      42.30000000      43.36900000
 O      30.59200000      43.13300000      46.22800000
 H      30.78800000      43.14200000      45.21700000
 H      29.79500000      42.61200000      46.15000000
 O      21.63700000      47.36800000      46.29200000
 H      22.13900000      47.26000000      47.11100000
 H      20.69600000      47.22200000      46.58600000
 O      17.61600000      43.16900000      46.86500000
 H      18.30100000      43.61800000      47.48000000
 H      17.02600000      42.78400000      47.59500000
 O      26.62900000      49.29700000      47.72100000
 H      27.28100000      49.74200000      47.17100000
 H      26.55800000      48.44700000      47.33200000
 O      37.84000000      47.21200000      48.30400000
 H      37.37600000      47.27500000      47.47000000
 H      38.07600000      46.26100000      48.29900000
 O      14.90200000      47.30200000      43.53100000
 H      14.14000000      46.81500000      43.15600000
 H      15.56700000      47.25700000      42.85100000
 O       7.08500000      43.41600000      44.71100000
 H       7.58500000      42.58600000      44.40600000
 H       7.29500000      43.26400000      45.68400000
 O       3.68200000      47.95200000      44.11800000
 H       3.41200000      48.87700000      43.94600000
 H       2.91200000      47.45200000      43.91600000
 O       4.94600000      46.15900000      48.21500000
 H       4.55400000      46.85100000      47.63600000
 H       4.33800000      46.24400000      48.97100000
 O      11.95700000      47.50300000      45.07500000
 H      12.57100000      46.72200000      45.08400000
 H      11.65900000      47.44000000      44.14900000
 O       3.92300000      48.10000000      46.82800000
 H       4.01300000      48.16300000      45.87300000
 H       3.44200000      48.92700000      46.99500000
 O       0.96500000      47.12400000      47.48700000
 H       1.46500000      46.74000000      48.24300000
 H       1.24200000      46.54400000      46.76800000
 O       4.03900000      43.92000000      46.81900000
 H       4.25500000      44.70300000      47.41500000
 H       4.05100000      44.34600000      45.92800000
 O      10.18600000      42.43900000      47.66900000
 H      10.23800000      41.87500000      48.48200000
 H      10.79500000      43.16100000      47.83800000
 O      38.30500000      43.79200000      47.70100000
 H      38.69800000      43.65200000      46.83300000
 H      37.38700000      43.92500000      47.60200000
 O      18.72900000      47.21200000      47.10100000
 H      18.83600000      48.18800000      47.06400000
 H      17.81400000      47.14900000      46.75000000
 O      39.89500000      43.34900000      45.36900000
 H      40.39700000      42.93700000      44.63900000
 H      39.25000000      43.78500000      44.80200000
 O      16.23600000      47.08100000      45.97500000
 H      15.73800000      46.35400000      46.39000000
 H      15.74100000      47.20100000      45.14500000
 O      11.41600000      47.67300000      47.72100000
 H      11.40800000      47.65700000      46.74600000
 H      11.89700000      48.43700000      48.00200000
 O       4.80500000      44.67500000      44.20600000
 H       5.22200000      45.54200000      44.39500000
 H       5.58000000      44.10300000      44.26600000
 O      16.64700000      43.59500000      43.28800000
 H      15.67000000      43.70400000      42.96700000
 H      17.15600000      43.83700000      42.45000000
 O      22.84300000      44.26900000      43.87300000
 H      23.66000000      43.73900000      44.03900000
 H      22.45600000      43.81700000      43.09600000
 O      32.23700000      45.45100000      44.35300000
 H      32.60000000      44.65400000      43.82600000
 H      31.28900000      45.19600000      44.27000000
 O       7.70900000      43.52900000      47.43100000
 H       8.63500000      43.19200000      47.50200000
 H       7.82700000      44.41100000      47.85600000
 O      29.88300000      44.17800000      43.67100000
 H      29.83500000      43.80500000      42.84100000
 H      29.00500000      44.18900000      43.98700000
 O      31.10200000      47.42900000      45.96700000
 H      30.96800000      46.75100000      46.64700000
 H      31.78600000      46.95500000      45.42600000
 O       1.24000000      46.47700000      44.77500000
 H       1.39200000      45.64800000      44.27300000
 H       0.44400000      46.77500000      44.28200000
 O      13.49700000      43.00700000      43.53000000
 H      12.59800000      42.85500000      43.29800000
 H      13.89100000      42.09600000      43.44300000
 O       8.58300000      47.67500000      46.96800000
 H       8.28100000      48.40300000      47.65200000
 H       9.49000000      47.55800000      47.19700000
 O      29.87200000      45.54000000      47.52800000
 H      28.98200000      45.21400000      47.74000000
 H      30.25900000      44.67400000      47.20500000
 O      39.40500000      49.07900000      46.33200000
 H      38.76200000      48.42400000      46.16300000
 H      40.16600000      48.55600000      46.68500000
 O      11.67100000      44.65800000      48.37700000
 H      11.43400000      45.58300000      48.11000000
 H      12.51500000      44.81500000      48.78900000
 O      34.35500000      47.31300000      44.75100000
 H      33.82900000      46.43300000      44.69100000
 H      34.22200000      47.56100000      43.79300000
 O       5.48100000      48.98300000      42.55900000
 H       5.77800000      49.33200000      43.40300000
 H       4.88100000      48.26100000      42.85000000
 O      27.48300000      44.94500000      44.49000000
 H      26.66300000      45.29700000      44.05500000
 H      27.12800000      44.15700000      44.98800000
 O       7.64700000      45.99400000      48.74800000
 H       7.94600000      46.64500000      48.04800000
 H       6.66800000      46.01000000      48.45900000
 O      25.85300000      42.55500000      45.58400000
 H      25.32300000      42.01700000      45.00600000
 H      25.22400000      42.69200000      46.32200000
 O      21.56600000      44.14800000      46.76800000
 H      21.45800000      43.16000000      46.69200000
 H      21.41200000      44.45500000      45.87200000
 O       1.93200000      43.38200000      49.15200000
 H       1.78500000      42.46700000      49.45100000
 H       2.40600000      43.25500000      48.33400000
 O      22.74700000      48.22600000      42.61400000
 H      21.87900000      48.57900000      43.04200000
 H      22.35900000      47.41500000      42.17200000
 O      25.29100000      45.16400000      42.76100000
 H      25.00700000      45.45300000      41.90000000
 H      24.61900000      45.38200000      43.34800000
