552
XYZ file of cluster: frame_18000_73743.9aeaf.7298b - created by MolEdiTo
 O      33.03500000      38.23900000      20.51300000
 H      33.16600000      38.88400000      21.31200000
 H      33.91200000      38.35000000      20.07200000
 O      33.86200000      34.40700000      37.52800000
 H      34.42000000      33.63900000      37.10600000
 H      33.31300000      34.58800000      36.76300000
 O      36.28200000      31.61200000      23.95800000
 H      36.80600000      31.22100000      23.20100000
 H      35.40000000      31.23700000      23.66300000
 O      32.85400000      29.74100000      30.11400000
 H      32.78300000      30.15900000      31.01800000
 H      33.75400000      29.31900000      30.33800000
 O      28.40200000      35.70300000      21.51900000
 H      29.18300000      36.33700000      21.37800000
 H      28.84300000      34.86900000      21.74700000
 O      20.17900000      40.38900000      31.54200000
 H      20.23800000      41.15600000      32.12500000
 H      20.93100000      40.69300000      30.88200000
 O      28.30100000      37.50600000      32.57700000
 H      27.80900000      36.99400000      31.87000000
 H      28.28800000      38.39400000      32.16600000
 O      35.35100000      32.56500000      28.98500000
 H      35.25600000      31.63200000      29.22000000
 H      35.97800000      32.51600000      28.25300000
 O      30.09200000      38.05500000      21.50500000
 H      29.67100000      38.91100000      21.30300000
 H      31.03000000      38.30300000      21.23500000
 O      34.07700000      39.48100000      30.44000000
 H      33.30100000      39.70400000      29.88900000
 H      34.79500000      39.50800000      29.77200000
 O      30.87000000      30.24100000      32.16300000
 H      30.25400000      29.73600000      31.66500000
 H      30.23000000      30.93000000      32.54300000
 O      23.47400000      37.44400000      30.50200000
 H      23.95900000      38.30900000      30.59900000
 H      22.55100000      37.71000000      30.31700000
 O      23.32800000      32.28600000      25.58700000
 H      22.94100000      31.96600000      24.79500000
 H      23.47700000      33.24100000      25.39200000
 O      35.75000000      27.88100000      35.26000000
 H      35.29400000      28.46300000      34.58300000
 H      36.55400000      27.72700000      34.71400000
 O      33.61800000      35.15900000      31.07100000
 H      33.31900000      35.90800000      31.59400000
 H      33.72900000      35.56300000      30.16500000
 O      35.56800000      29.30600000      28.30900000
 H      36.06300000      29.70800000      27.56300000
 H      34.65400000      29.59600000      27.99100000
 O      26.93100000      38.91100000      35.42500000
 H      27.32900000      38.88600000      34.48500000
 H      27.57800000      39.43900000      35.85000000
 O      23.48500000      34.92200000      24.93500000
 H      23.45000000      35.59900000      24.27300000
 H      22.85100000      35.13400000      25.62300000
 O      22.92200000      34.79800000      29.05500000
 H      22.56600000      34.11900000      29.68500000
 H      22.82200000      35.60400000      29.59800000
 O      23.38300000      36.72500000      38.35100000
 H      23.29900000      36.43500000      37.37900000
 H      24.34000000      36.62000000      38.46300000
 O      30.26000000      27.56000000      22.89100000
 H      29.51800000      27.89700000      22.38400000
 H      30.03400000      26.56700000      22.79500000
 O      29.23200000      31.39000000      23.71700000
 H      29.28200000      31.12900000      22.71200000
 H      28.44000000      30.93800000      23.99200000
 O      24.27300000      39.83400000      35.10900000
 H      25.10800000      39.41600000      35.26800000
 H      23.69200000      38.98900000      35.13600000
 O      37.76400000      29.00500000      40.42300000
 H      37.18600000      29.74900000      40.21300000
 H      37.98300000      28.69800000      39.51500000
 O      29.55600000      36.08800000      37.08800000
 H      29.92000000      35.63500000      37.88100000
 H      28.70900000      36.38000000      37.44800000
 O      24.82900000      32.18500000      30.46600000
 H      24.68000000      32.28600000      29.46500000
 H      25.01000000      33.12900000      30.65100000
 O      34.56800000      34.82500000      20.47700000
 H      34.84200000      35.52900000      20.98800000
 H      34.60200000      35.18400000      19.56500000
 O      34.15000000      27.69600000      25.31200000
 H      34.22100000      28.35300000      26.04700000
 H      34.94300000      27.17000000      25.41200000
 O      32.50300000      39.92400000      32.66000000
 H      33.20100000      39.79900000      31.98500000
 H      32.06900000      40.74900000      32.36600000
 O      25.28100000      39.62800000      24.92600000
 H      26.13500000      39.16200000      24.88100000
 H      25.06300000      39.67400000      23.99800000
 O      31.30600000      33.62400000      32.59400000
 H      30.52000000      33.14700000      32.84600000
 H      30.99900000      34.24300000      31.85100000
 O      34.39100000      40.73200000      27.27300000
 H      34.98200000      41.22400000      27.89100000
 H      33.71300000      40.47500000      27.96500000
 O      23.78600000      30.97000000      32.65700000
 H      24.39500000      31.56600000      33.15600000
 H      23.78200000      31.46700000      31.74600000
 O      30.69500000      28.54100000      27.11700000
 H      30.99800000      28.10200000      27.92100000
 H      30.27400000      29.31500000      27.49100000
 O      36.46500000      31.79400000      36.53000000
 H      36.99700000      31.35600000      35.84300000
 H      35.56700000      31.64100000      36.18400000
 O      39.57400000      40.01300000      32.86900000
 H      40.28100000      39.80000000      33.45400000
 H      38.78300000      39.57500000      33.26200000
 O      37.56000000      33.54800000      27.04000000
 H      37.34300000      33.38500000      26.11000000
 H      37.00400000      34.36400000      27.20800000
 O      21.00000000      38.17700000      29.67100000
 H      20.48600000      38.67500000      30.34900000
 H      20.24000000      37.76500000      29.24800000
 O      37.11700000      34.24900000      24.30100000
 H      36.74700000      33.36100000      24.16200000
 H      38.10600000      34.01100000      24.26400000
 O      27.66100000      33.50100000      35.78300000
 H      27.36800000      34.41900000      35.95400000
 H      28.61000000      33.64000000      35.55200000
 O      22.31600000      40.70500000      36.82400000
 H      21.70700000      39.97200000      36.72800000
 H      23.11600000      40.37900000      36.36800000
 O      20.13400000      28.48400000      30.28200000
 H      19.69200000      27.77400000      29.73500000
 H      20.93800000      27.93000000      30.51900000
 O      35.02600000      35.40700000      33.66600000
 H      34.03200000      35.42100000      33.85500000
 H      35.34500000      35.55300000      34.58400000
 O      33.56700000      39.26700000      35.07800000
 H      33.25000000      38.39500000      35.32900000
 H      33.35700000      39.31000000      34.12400000
 O      26.95000000      33.62900000      40.05500000
 H      27.26800000      32.89600000      39.53400000
 H      26.90900000      33.17000000      40.95000000
 O      31.98400000      39.98300000      28.99000000
 H      31.28800000      39.31100000      28.99500000
 H      31.41000000      40.79500000      29.26600000
 O      20.96700000      30.78400000      38.07400000
 H      21.95800000      30.70000000      38.16900000
 H      20.76100000      31.05500000      38.97500000
 O      30.26700000      36.44000000      34.37600000
 H      29.72200000      36.83400000      33.71800000
 H      29.62400000      36.24100000      35.10800000
 O      28.36600000      27.44800000      33.92900000
 H      27.67800000      26.99000000      33.39800000
 H      27.80900000      28.18600000      34.26200000
 O      35.53800000      30.11300000      20.88600000
 H      35.56700000      29.19400000      20.59500000
 H      34.77500000      30.14200000      21.48000000
 O      23.08500000      28.72300000      26.16100000
 H      22.48400000      29.21100000      26.72400000
 H      22.54100000      28.21700000      25.52900000
 O      35.11100000      38.75000000      23.89000000
 H      35.47200000      39.34700000      23.16300000
 H      35.27200000      37.84100000      23.42300000
 O      22.13700000      31.68100000      23.34600000
 H      22.50300000      31.19300000      22.57100000
 H      22.03200000      32.57900000      22.89800000
 O      22.81800000      37.54800000      35.03700000
 H      22.07400000      37.72100000      34.43800000
 H      23.15800000      36.69000000      34.71000000
 O      36.40600000      35.19200000      38.67800000
 H      36.29200000      35.24800000      39.64400000
 H      35.53800000      34.71300000      38.44000000
 O      28.43000000      29.48900000      37.03900000
 H      27.59200000      29.55400000      36.48800000
 H      28.77300000      28.62500000      36.73500000
 O      33.99600000      31.58100000      35.32900000
 H      33.76200000      32.06300000      34.54500000
 H      33.45300000      30.73700000      35.15400000
 O      25.59700000      32.06600000      37.09400000
 H      26.37900000      31.96600000      37.72300000
 H      26.12300000      32.49300000      36.37600000
 O      30.92100000      27.65200000      30.19800000
 H      30.08400000      28.13100000      30.03000000
 H      31.57200000      28.43500000      30.19500000
 O      23.80900000      28.35100000      33.11300000
 H      23.96800000      29.31200000      33.13100000
 H      23.66900000      28.16400000      34.05900000
 O      33.30400000      29.97800000      27.29000000
 H      32.74000000      29.64100000      27.97200000
 H      32.68400000      30.22700000      26.60000000
 O      38.55700000      39.61200000      26.32500000
 H      37.64500000      39.55800000      26.09200000
 H      38.71200000      38.76000000      26.82200000
 O      21.56100000      33.78400000      39.00100000
 H      22.39200000      33.53900000      39.37100000
 H      21.17000000      34.26700000      39.78000000
 O      36.27500000      36.50700000      36.13700000
 H      36.20000000      36.24100000      37.05900000
 H      37.10000000      36.05100000      35.87300000
 O      28.24600000      40.02400000      31.51800000
 H      27.84000000      40.83600000      31.10500000
 H      28.79200000      39.79100000      30.80500000
 O      27.40900000      31.34900000      30.13600000
 H      27.72300000      32.27100000      30.20600000
 H      26.40900000      31.56900000      29.94600000
 O      25.26500000      32.20000000      22.28800000
 H      24.36700000      32.09900000      21.87800000
 H      25.39200000      31.32800000      22.69500000
 O      26.84500000      33.46900000      23.98600000
 H      26.09800000      33.01500000      23.48300000
 H      27.59200000      33.09000000      23.49400000
 O      32.51300000      29.20300000      34.45900000
 H      33.42200000      29.26000000      34.02600000
 H      31.99600000      29.75500000      33.80600000
 O      36.65500000      31.68200000      39.51300000
 H      37.39800000      32.35600000      39.61600000
 H      36.65700000      31.58300000      38.54900000
 O      35.70400000      36.08900000      22.95300000
 H      34.98500000      35.44600000      23.13300000
 H      36.42100000      35.58600000      23.44400000
 O      36.98500000      27.25100000      37.71400000
 H      37.74900000      27.86500000      37.62300000
 H      36.47000000      27.49300000      36.94900000
 O      25.32600000      29.95800000      23.97500000
 H      24.42900000      29.93800000      24.40100000
 H      25.21800000      29.29000000      23.27900000
 O      40.28200000      39.28700000      35.60200000
 H      39.52700000      39.44900000      36.26000000
 H      40.30100000      38.27400000      35.66700000
 O      38.18300000      30.65100000      34.63000000
 H      39.19600000      30.70300000      34.49500000
 H      37.91100000      31.30700000      33.96300000
 O      36.43600000      39.86100000      22.02700000
 H      37.37100000      39.54200000      21.84900000
 H      36.54000000      40.84700000      22.02000000
 O      35.73000000      37.98700000      31.87600000
 H      35.21700000      37.18300000      32.02100000
 H      35.15800000      38.48800000      31.28700000
 O      25.95900000      35.88300000      39.08200000
 H      26.18600000      36.37400000      39.88300000
 H      26.23000000      34.97900000      39.33200000
 O      39.79200000      30.84400000      22.22100000
 H      40.31200000      30.35900000      21.47200000
 H      39.51000000      31.63300000      21.71400000
 O      28.53400000      33.67000000      29.35200000
 H      29.39000000      33.34400000      29.60800000
 H      28.36400000      33.37400000      28.49400000
 O      25.16100000      34.78100000      31.77100000
 H      24.73000000      34.94400000      32.67000000
 H      24.71000000      35.58900000      31.29200000
 O      21.22600000      33.86200000      31.53000000
 H      21.38100000      33.31500000      32.34800000
 H      20.92900000      34.68300000      32.04900000
 O      32.94100000      35.05100000      40.57200000
 H      32.95200000      34.78000000      39.61400000
 H      32.51700000      34.27800000      40.99500000
 O      24.79100000      40.38300000      22.40300000
 H      24.53500000      39.91400000      21.56700000
 H      23.89700000      40.82400000      22.63000000
 O      34.90100000      29.75500000      33.46900000
 H      35.23000000      30.70600000      33.47800000
 H      34.80400000      29.53400000      32.56800000
 O      27.02700000      30.55500000      26.11100000
 H      26.34700000      31.08700000      26.59300000
 H      26.46400000      30.06300000      25.49100000
 O      26.95400000      33.89900000      26.80300000
 H      26.95200000      33.89000000      25.83600000
 H      26.34200000      34.75500000      26.88600000
 O      24.26600000      30.33700000      40.47000000
 H      25.23600000      30.03800000      40.74500000
 H      23.82900000      29.91400000      41.22600000
 O      39.84900000      32.35700000      28.44000000
 H      40.46200000      33.09300000      28.68200000
 H      39.12400000      32.88200000      27.97800000
 O      33.37800000      34.79100000      24.21000000
 H      32.73400000      35.53400000      24.25100000
 H      33.42400000      34.60800000      25.13400000
 O      37.40700000      30.25000000      26.41800000
 H      37.17600000      30.85500000      25.68600000
 H      38.24400000      29.87400000      26.07900000
 O      39.62400000      29.76600000      24.60300000
 H      40.41400000      30.30300000      24.98000000
 H      39.73400000      30.18400000      23.69300000
 O      36.63500000      36.07800000      27.58700000
 H      36.25600000      36.85300000      27.11900000
 H      37.58500000      36.44800000      27.61200000
 O      30.29700000      30.86900000      35.68700000
 H      29.56000000      30.31900000      36.12900000
 H      30.84300000      30.99700000      36.45500000
 O      31.56300000      29.98100000      24.21600000
 H      31.15300000      29.12500000      23.86800000
 H      30.82400000      30.59000000      24.16200000
 O      37.86300000      34.02900000      35.59900000
 H      37.98100000      33.53500000      34.75700000
 H      37.25200000      33.34000000      36.04700000
 O      27.48200000      28.03900000      27.94700000
 H      27.27200000      27.49600000      27.17000000
 H      27.01900000      28.82600000      27.64500000
 O      38.93600000      39.01800000      21.00900000
 H      39.36800000      39.86400000      20.90400000
 H      39.34400000      38.53700000      20.27400000
 O      22.98000000      30.36400000      21.35100000
 H      22.76900000      30.92700000      20.51500000
 H      22.96800000      29.49300000      20.86200000
 O      26.63500000      36.44600000      23.46400000
 H      26.71400000      35.57600000      23.87800000
 H      27.20700000      36.23900000      22.62800000
 O      26.57900000      38.08400000      28.41700000
 H      25.91800000      37.44300000      28.08200000
 H      26.87300000      37.48600000      29.18200000
 O      38.30700000      37.76500000      23.45200000
 H      38.45000000      37.77900000      22.47600000
 H      37.33100000      37.53000000      23.46300000
 O      37.35900000      26.79000000      29.85600000
 H      38.23600000      26.36400000      30.02800000
 H      37.57900000      27.71200000      30.05200000
 O      37.21900000      38.69000000      33.95600000
 H      36.49900000      38.38700000      33.35300000
 H      37.29700000      38.00200000      34.60400000
 O      25.04000000      35.99000000      27.36100000
 H      24.50400000      36.53800000      26.72900000
 H      24.34400000      35.62100000      27.95400000
 O      21.53200000      35.23400000      26.71000000
 H      22.10500000      35.26300000      27.54100000
 H      21.00200000      36.06600000      26.88700000
 O      28.05400000      38.43400000      25.57900000
 H      27.74700000      37.55000000      25.26200000
 H      28.98800000      38.13100000      25.89100000
 O      39.32400000      34.45600000      38.65600000
 H      38.39100000      34.74400000      38.47900000
 H      39.22400000      34.17700000      39.63400000
 O      31.75400000      34.86400000      26.87100000
 H      31.61400000      34.06700000      26.36700000
 H      31.75000000      34.55300000      27.82200000
 O      34.92000000      28.41500000      30.96900000
 H      35.44800000      28.21300000      30.14400000
 H      35.10000000      27.51800000      31.40100000
 O      30.31000000      34.73800000      39.46600000
 H      30.47500000      34.18700000      40.27400000
 H      30.03400000      35.56500000      39.83900000
 O      29.06200000      30.89900000      27.78700000
 H      28.19400000      30.84600000      27.29600000
 H      28.81400000      30.88200000      28.67300000
 O      21.57700000      39.35000000      27.22500000
 H      21.32900000      39.03600000      28.06900000
 H      21.38200000      40.32700000      27.23900000
 O      33.52200000      27.57300000      22.58900000
 H      32.85900000      27.91800000      21.93200000
 H      33.58300000      28.30300000      23.25600000
 O      30.60500000      32.02600000      38.57600000
 H      30.84300000      32.96300000      38.62900000
 H      31.45800000      31.60800000      38.90300000
 O      38.13600000      36.09400000      32.05000000
 H      37.68600000      35.39100000      32.50900000
 H      37.44600000      36.79400000      32.02100000
 O      39.93400000      36.15800000      36.19600000
 H      40.65000000      35.79700000      36.73800000
 H      39.36200000      35.32800000      36.19600000
 O      21.89000000      38.66900000      22.60100000
 H      22.70600000      38.10200000      22.54900000
 H      22.27600000      39.51500000      22.91100000
 O      24.09900000      28.63300000      35.73400000
 H      24.56100000      28.00100000      36.31900000
 H      23.66800000      29.18500000      36.45400000
 O      37.71900000      32.76500000      33.05400000
 H      38.45100000      32.78000000      32.42800000
 H      36.96200000      33.07900000      32.48400000
 O      40.18300000      31.83700000      31.23700000
 H      39.62500000      31.05600000      31.29400000
 H      39.97100000      32.12000000      30.31500000
 O      21.06200000      29.62500000      27.71800000
 H      20.83300000      30.58600000      27.61300000
 H      20.91900000      29.50000000      28.67000000
 O      36.63200000      39.71400000      29.28100000
 H      37.11800000      40.49100000      29.03400000
 H      37.30400000      39.20800000      29.74100000
 O      27.45000000      35.99000000      30.11300000
 H      26.79700000      35.47700000      30.59800000
 H      27.91400000      35.25500000      29.65500000
 O      27.98600000      31.44100000      38.90400000
 H      28.87400000      31.78800000      38.76200000
 H      28.16900000      30.51800000      38.59000000
 O      40.08000000      34.05300000      23.84000000
 H      40.84100000      33.47000000      23.81600000
 H      40.33000000      34.68500000      23.15500000
 O      35.13600000      39.50100000      38.28200000
 H      35.44200000      39.42700000      39.16100000
 H      34.43000000      38.86000000      38.18100000
 O      25.19500000      32.00100000      27.62800000
 H      24.63100000      32.33700000      26.90200000
 H      25.98600000      32.56800000      27.55500000
 O      24.17600000      36.65600000      22.45200000
 H      24.33800000      35.98400000      21.75500000
 H      25.04400000      36.73800000      22.90100000
 O      32.51000000      34.96100000      35.13000000
 H      31.69700000      35.46600000      34.88900000
 H      32.52100000      34.34900000      34.36500000
 O      38.95200000      29.25200000      37.22100000
 H      39.33400000      30.11700000      37.51700000
 H      38.53600000      29.52400000      36.38600000
 O      20.57500000      35.30100000      22.56400000
 H      21.31000000      34.71200000      22.23400000
 H      20.64300000      35.08600000      23.52000000
 O      32.49600000      28.74900000      37.16000000
 H      32.50100000      28.71700000      36.16000000
 H      31.56100000      28.94000000      37.24500000
 O      30.13500000      33.76000000      22.89000000
 H      31.01000000      33.39200000      22.64300000
 H      29.76100000      32.96900000      23.35300000
 O      34.49000000      28.68900000      38.90100000
 H      34.06000000      28.64800000      38.04800000
 H      35.23600000      28.09200000      38.79700000
 O      29.74000000      40.70400000      39.23100000
 H      28.87500000      41.06900000      39.49300000
 H      29.59000000      40.51200000      38.30300000
 O      40.29600000      31.98400000      37.72000000
 H      40.99900000      32.26600000      37.13300000
 H      39.74800000      32.81000000      37.70600000
 O      31.88800000      33.82200000      29.24700000
 H      32.51200000      34.09900000      29.89300000
 H      32.26500000      33.01600000      28.89600000
 O      31.07200000      36.51700000      23.96600000
 H      30.93300000      35.67800000      23.53600000
 H      30.44900000      37.10000000      23.48100000
 O      28.79400000      29.19000000      30.27300000
 H      28.31800000      30.06300000      30.32000000
 H      27.99400000      28.67600000      30.04600000
 O      33.82300000      30.80400000      22.95800000
 H      33.07200000      30.49500000      23.53600000
 H      33.46600000      31.66600000      22.64200000
 O      23.64100000      30.47700000      37.86000000
 H      24.36300000      31.05500000      37.51600000
 H      23.98900000      30.39500000      38.81700000
 O      23.26700000      34.60500000      33.84200000
 H      23.53200000      34.07300000      34.69900000
 H      22.30300000      34.54900000      33.98500000
 O      32.27200000      36.95200000      32.70500000
 H      31.97300000      37.87900000      32.65400000
 H      31.51600000      36.58600000      33.25800000
 O      26.20700000      32.42800000      33.68600000
 H      26.68900000      33.12700000      34.12700000
 H      25.56000000      32.99300000      33.13800000
 O      23.39500000      37.84600000      26.19500000
 H      22.85900000      38.54100000      26.57400000
 H      24.12300000      38.42800000      25.78000000
 O      38.68700000      29.38900000      28.85400000
 H      37.98900000      29.89500000      28.31700000
 H      38.51300000      29.59700000      29.75300000
 O      30.82600000      32.46900000      26.13500000
 H      30.59100000      31.77600000      26.73300000
 H      30.07300000      32.36500000      25.48300000
 O      28.74100000      40.78800000      24.55900000
 H      29.74100000      40.70400000      24.67600000
 H      28.43700000      39.92200000      24.81300000
 O      37.68400000      29.67200000      31.50300000
 H      36.80600000      29.36900000      31.79000000
 H      38.20700000      29.70700000      32.28800000
 O      29.39000000      38.78900000      29.05600000
 H      29.83400000      38.68300000      28.13800000
 H      28.48600000      38.46600000      28.78800000
 O      32.09800000      40.05900000      22.48000000
 H      32.89000000      40.26100000      21.97500000
 H      32.23300000      40.56000000      23.28800000
 O      29.23500000      30.67800000      21.13800000
 H      29.54300000      29.78500000      20.78700000
 H      28.53700000      30.85400000      20.50000000
 O      32.70600000      30.76200000      39.43100000
 H      33.38600000      30.20000000      38.94400000
 H      33.25600000      30.91200000      40.23300000
 O      40.30500000      36.19400000      30.45600000
 H      40.45400000      37.15200000      30.60500000
 H      39.47200000      36.07700000      31.03700000
 O      32.80300000      33.28800000      22.03100000
 H      33.16500000      33.73500000      22.85400000
 H      33.31400000      33.81200000      21.35100000
 O      21.12500000      31.56000000      33.21800000
 H      20.71100000      31.72300000      34.08700000
 H      22.05800000      31.48900000      33.41800000
 O      25.68100000      28.34200000      30.44400000
 H      25.35300000      29.13000000      30.86200000
 H      25.40500000      28.48300000      29.48100000
 O      27.68500000      40.75900000      27.44200000
 H      27.60300000      41.34000000      26.66500000
 H      27.20600000      39.95200000      27.10600000
 O      35.95000000      33.71900000      31.42700000
 H      35.29400000      34.36900000      31.63500000
 H      35.57300000      33.29500000      30.62100000
 O      38.27100000      39.46400000      37.65500000
 H      38.56500000      40.29200000      38.12600000
 H      37.32900000      39.45800000      37.93600000
 O      23.62800000      33.60700000      36.03400000
 H      23.06700000      33.22300000      36.74500000
 H      24.49400000      33.16900000      36.27900000
 O      37.46600000      27.73700000      20.43200000
 H      36.92800000      27.46700000      21.23900000
 H      36.69000000      27.56400000      19.80400000
 O      34.22400000      36.46900000      28.77200000
 H      34.13400000      36.96000000      27.97800000
 H      35.20100000      36.17900000      28.69900000
 O      40.20900000      36.66700000      25.30800000
 H      40.12300000      35.74700000      24.98700000
 H      39.43700000      37.09200000      24.78600000
 O      21.39100000      28.90900000      23.46800000
 H      20.56200000      29.29600000      23.02700000
 H      22.02800000      29.59900000      23.20600000
 O      33.65400000      32.34400000      32.44500000
 H      32.80600000      32.74800000      32.58700000
 H      34.12100000      33.00400000      31.93100000
 O      39.35700000      37.37000000      27.73000000
 H      39.90100000      37.10000000      26.90000000
 H      39.96900000      37.15200000      28.42400000
 O      21.11400000      32.32400000      27.30600000
 H      21.90700000      32.34700000      26.73000000
 H      20.61500000      33.06000000      26.85800000
 O      29.21900000      32.10900000      33.54200000
 H      29.64200000      31.75000000      34.33000000
 H      28.26200000      31.89600000      33.75100000
 O      29.45400000      40.42600000      36.33300000
 H      29.30700000      40.60600000      35.39600000
 H      30.17400000      39.70600000      36.28300000
 O      24.96200000      29.05400000      28.06300000
 H      24.60300000      29.94700000      28.19900000
 H      24.32400000      28.73100000      27.35200000
 O      30.33500000      37.33900000      26.36100000
 H      30.60200000      36.58600000      26.89900000
 H      30.76300000      37.04000000      25.52700000
 O      26.63200000      36.38000000      36.34300000
 H      26.81700000      37.21600000      35.89300000
 H      26.16600000      36.70000000      37.13300000
 O      39.47100000      39.27400000      30.25800000
 H      39.66400000      39.38100000      31.21400000
 H      40.38400000      39.09400000      29.94500000
 O      25.09300000      39.90600000      29.97500000
 H      25.88800000      40.53800000      30.23900000
 H      25.55100000      39.46400000      29.22700000
 O      30.99900000      38.31800000      36.60400000
 H      30.43000000      37.54000000      36.44400000
 H      31.67400000      37.97600000      37.19500000
 O      24.19600000      33.00600000      39.62800000
 H      24.92400000      33.50400000      39.98600000
 H      24.45300000      32.08100000      39.98500000
 O      38.16400000      27.34000000      24.87800000
 H      38.51500000      28.29400000      24.88600000
 H      37.57200000      27.35400000      24.17900000
 O      22.30200000      33.60400000      21.11100000
 H      21.84200000      33.29100000      20.25900000
 H      22.87800000      34.25900000      20.67700000
 O      35.67900000      38.50400000      26.40300000
 H      35.54300000      38.66100000      25.42000000
 H      35.19600000      39.27400000      26.74700000
 O      26.57400000      29.45500000      35.02800000
 H      26.42700000      30.37600000      34.72500000
 H      25.53800000      29.29700000      35.23900000
 O      33.33200000      37.34200000      38.37900000
 H      33.22100000      37.14700000      39.33500000
 H      33.50500000      36.40300000      38.09000000
 O      40.78600000      34.16000000      34.01900000
 H      41.35400000      34.28500000      33.21700000
 H      40.41800000      35.02100000      34.15600000
