282
XYZ file of cluster: frame_18000_280e.4b718.730f3 - created by MolEdiTo
 O       5.11700000      17.92900000      34.50300000
 H       4.59100000      17.18100000      34.90500000
 H       5.89700000      17.40700000      34.16600000
 O      10.11300000      15.97100000      21.72300000
 H      10.04300000      15.08000000      22.06200000
 H      10.17300000      15.81100000      20.77400000
 O       4.38400000      20.44100000      22.87900000
 H       3.46000000      20.25400000      23.17500000
 H       4.84500000      19.63300000      23.23900000
 O      13.72700000      23.40200000      29.22800000
 H      14.47300000      23.05700000      29.84200000
 H      14.03300000      22.93600000      28.43100000
 O      10.04900000      27.17600000      30.69400000
 H      10.86200000      27.34200000      30.15700000
 H      10.35700000      26.40700000      31.20000000
 O       1.88800000      15.30700000      27.14100000
 H       2.06100000      15.38000000      26.15900000
 H       2.02400000      14.37800000      27.23400000
 O       8.72700000      15.63000000      29.06000000
 H       9.23100000      15.25200000      29.84700000
 H       9.39200000      15.42000000      28.36400000
 O       3.80900000      19.91100000      27.69400000
 H       3.53100000      19.19300000      27.09900000
 H       2.94800000      20.37000000      27.82200000
 O      14.26800000      20.71000000      22.97100000
 H      13.71500000      20.01500000      23.38600000
 H      14.58800000      20.16100000      22.22800000
 O       7.37900000      24.40400000      25.92700000
 H       7.60800000      24.22100000      24.95000000
 H       6.77000000      23.66600000      26.10300000
 O       2.00700000      23.86800000      31.48500000
 H       2.90800000      23.79100000      31.86700000
 H       1.74900000      22.94600000      31.55200000
 O       4.94500000      26.13600000      21.88100000
 H       4.16800000      26.79400000      21.79200000
 H       5.66400000      26.79300000      22.08500000
 O      11.21300000      16.40300000      32.70700000
 H      10.64600000      17.17700000      32.76100000
 H      11.19400000      16.12000000      33.63700000
 O       1.70000000      26.51400000      28.29000000
 H       2.59000000      26.26400000      28.58500000
 H       1.18000000      26.32100000      29.13600000
 O       3.77000000      20.03400000      33.63600000
 H       4.20000000      19.23100000      34.05900000
 H       3.94800000      19.84900000      32.69600000
 O       9.79400000      26.63900000      22.99400000
 H      10.59900000      26.55000000      23.52700000
 H       9.13000000      26.56800000      23.71500000
 O       6.21700000      21.79900000      26.08900000
 H       6.53400000      21.03700000      25.56000000
 H       6.53700000      21.60200000      26.95600000
 O       9.94600000      26.09500000      33.99900000
 H      10.13600000      26.38300000      34.94600000
 H       8.95900000      26.25100000      33.99300000
 O       6.07200000      15.25100000      31.42600000
 H       6.77100000      14.51100000      31.49600000
 H       5.82100000      15.19900000      30.47300000
 O      10.97800000      19.69300000      27.40400000
 H      11.47000000      19.35500000      28.21600000
 H      10.76300000      18.93900000      26.89100000
 O       9.20600000      23.15800000      29.70400000
 H      10.02000000      23.79000000      29.70700000
 H       9.17900000      23.04100000      30.69000000
 O       6.46600000      21.33300000      33.32800000
 H       6.86400000      20.50300000      33.46100000
 H       5.55100000      21.24300000      33.59700000
 O       6.91400000      27.13800000      26.63000000
 H       6.85300000      26.15500000      26.56600000
 H       7.31600000      27.21600000      27.53200000
 O       5.60900000      21.60700000      20.77900000
 H       4.99300000      21.40300000      21.52500000
 H       5.74600000      22.55400000      20.88900000
 O      13.72100000      17.65000000      33.14100000
 H      13.48200000      18.26300000      33.83400000
 H      12.86600000      17.19400000      32.98700000
 O      10.80200000      21.11500000      33.28000000
 H      11.65700000      21.58200000      33.14700000
 H      10.22800000      21.65900000      32.69900000
 O       9.53900000      18.46400000      32.72700000
 H       9.72300000      18.46900000      31.77700000
 H       9.76000000      19.36500000      32.93000000
 O       9.99100000      14.04700000      25.82200000
 H      10.68100000      14.64900000      25.95200000
 H       9.22800000      14.65900000      25.86300000
 O      13.09800000      22.95800000      33.68200000
 H      14.04700000      23.06400000      33.97600000
 H      12.93500000      23.93900000      33.56300000
 O      10.46000000      17.67600000      25.70300000
 H      11.25200000      17.36200000      25.22000000
 H       9.91300000      17.94300000      24.91100000
 O       4.90000000      22.19400000      28.47100000
 H       4.88700000      21.23800000      28.28700000
 H       4.14100000      22.48600000      27.93200000
 O       1.35200000      18.99000000      34.25300000
 H       1.46600000      18.64800000      35.17900000
 H       2.28900000      19.33300000      34.15500000
 O      12.13600000      25.63600000      24.19300000
 H      13.10000000      25.83100000      24.21000000
 H      12.13100000      24.69500000      23.99900000
 O       2.66500000      22.52800000      21.53900000
 H       2.22000000      23.07400000      22.23500000
 H       3.20700000      21.95400000      22.05300000
 O       9.60400000      21.92800000      22.46000000
 H       8.82000000      21.33600000      22.32100000
 H       9.86300000      21.68400000      23.34300000
 O      12.89900000      24.51700000      20.38000000
 H      13.68500000      23.96800000      20.46600000
 H      12.23400000      24.07000000      20.93400000
 O       7.85700000      27.50400000      29.31100000
 H       7.26300000      27.01100000      29.85400000
 H       8.68400000      27.40600000      29.80500000
 O       3.79200000      15.30400000      32.88200000
 H       4.66600000      15.36100000      32.41800000
 H       4.06200000      14.71400000      33.62900000
 O       4.39400000      13.33200000      25.21900000
 H       3.96000000      14.17900000      25.01400000
 H       3.64500000      12.83900000      25.57100000
 O       9.57300000      18.00200000      23.26300000
 H       9.53600000      17.16500000      22.73600000
 H       8.84100000      18.50500000      22.85600000
 O       4.03200000      26.91600000      26.43300000
 H       4.00900000      26.64000000      27.37100000
 H       5.02400000      27.02900000      26.40800000
 O       4.09200000      24.87500000      34.08500000
 H       3.91000000      25.81200000      33.82400000
 H       4.32700000      24.48700000      33.24600000
 O       7.28300000      17.42400000      21.37800000
 H       6.85200000      17.10100000      22.17200000
 H       6.87900000      16.82600000      20.72800000
 O      11.04400000      26.43800000      26.55800000
 H      11.38800000      26.35800000      25.66000000
 H      10.65600000      25.50000000      26.60400000
 O       1.42900000      21.25100000      30.88300000
 H       1.83000000      20.44300000      31.09400000
 H       1.32200000      21.23000000      29.90200000
 O       2.69800000      13.59100000      30.16200000
 H       3.33200000      13.80200000      29.51900000
 H       2.24400000      14.39100000      30.33800000
 O      10.48400000      21.34900000      24.92600000
 H      10.52000000      20.89200000      25.71200000
 H      10.82400000      22.24300000      25.11400000
 O       8.37500000      21.26000000      28.01000000
 H       8.54100000      21.89600000      28.78100000
 H       9.27300000      20.84400000      27.91600000
 O      10.05300000      24.01400000      26.68400000
 H       9.84800000      23.57300000      27.55400000
 H       9.14200000      24.01900000      26.29400000
 O       5.56500000      16.33100000      28.78200000
 H       6.49400000      16.34300000      28.69500000
 H       5.25500000      16.56300000      27.90000000
 O      12.25000000      18.39100000      23.09200000
 H      12.58200000      17.93600000      22.34800000
 H      11.26600000      18.23600000      22.98300000
 O       9.49000000      14.72100000      31.25300000
 H       9.21000000      14.44200000      32.19000000
 H      10.31600000      15.22700000      31.56200000
 O       6.11000000      13.57700000      20.67700000
 H       6.26800000      14.44100000      20.22700000
 H       5.29300000      13.84900000      21.22100000
 O       9.00800000      14.27100000      33.98700000
 H       8.30800000      14.73800000      34.43800000
 H       9.55500000      14.04100000      34.81300000
 O       4.81500000      20.27900000      30.86000000
 H       4.43200000      20.83700000      30.17000000
 H       5.71700000      20.09400000      30.44500000
 O      12.92400000      15.20000000      25.39800000
 H      12.88600000      14.22300000      25.46000000
 H      12.90600000      15.35500000      24.43700000
 O      12.27100000      23.02900000      23.51400000
 H      12.88200000      22.33900000      23.61500000
 H      11.55500000      22.59900000      22.98300000
 O      11.98400000      27.53200000      28.83100000
 H      12.87700000      27.14900000      28.80000000
 H      11.63500000      27.11600000      28.04000000
 O       3.90200000      25.96000000      29.50600000
 H       4.86400000      25.98900000      29.58100000
 H       3.63700000      25.38900000      30.22700000
 O       7.72100000      15.38100000      26.02600000
 H       7.41400000      14.66500000      26.66200000
 H       7.23500000      15.01100000      25.25900000
 O       9.37000000      26.96100000      20.48100000
 H       9.43600000      26.73500000      21.42800000
 H      10.08700000      26.45700000      20.09200000
 O       1.18700000      15.64000000      20.22100000
 H       0.45400000      15.82500000      19.64400000
 H       0.86900000      16.05200000      21.05500000
 O       8.24400000      24.03100000      23.07800000
 H       8.55500000      23.11000000      22.81600000
 H       8.88600000      24.58500000      22.70200000
 O       5.53400000      18.66300000      24.54100000
 H       6.11300000      17.93900000      24.94100000
 H       4.64300000      18.33200000      24.69300000
 O       8.75100000      22.75000000      32.40400000
 H       8.80900000      23.25200000      33.29400000
 H       7.92400000      22.25200000      32.55700000
 O       3.34200000      17.55100000      26.00200000
 H       2.48900000      17.96700000      26.17800000
 H       3.33900000      16.78200000      26.61700000
 O      10.15400000      18.06100000      30.04900000
 H       9.72800000      17.31800000      29.58100000
 H      11.03100000      17.65200000      30.21300000
 O       3.89300000      17.81000000      30.67000000
 H       4.32600000      18.66300000      30.77500000
 H       4.49500000      17.22800000      30.20000000
 O      11.70400000      24.53700000      30.60100000
 H      12.22300000      24.63900000      31.43400000
 H      12.46900000      24.13800000      30.03600000
 O       2.06500000      19.59700000      23.85400000
 H       1.71100000      18.87500000      24.37600000
 H       1.35600000      20.25900000      23.84600000
 O       1.90900000      16.24800000      31.32000000
 H       2.65700000      16.83700000      30.98400000
 H       2.35600000      15.90600000      32.14000000
 O       6.61400000      19.49200000      29.30000000
 H       6.51500000      18.70800000      28.75300000
 H       7.45400000      19.85500000      28.93800000
 O       3.47800000      22.79900000      25.67000000
 H       3.55800000      23.49900000      24.95100000
 H       4.33200000      22.36200000      25.48000000
 O       4.90300000      23.52200000      31.70500000
 H       5.38100000      23.87300000      30.94100000
 H       5.39200000      22.69300000      31.88100000
 O       6.50100000      24.29600000      29.61100000
 H       7.48400000      24.02700000      29.64800000
 H       6.17800000      23.52800000      29.07700000
 O      14.72700000      18.91500000      20.89000000
 H      14.96200000      18.11000000      21.41900000
 H      13.79200000      18.65200000      20.64300000
 O       6.65600000      14.18700000      23.61200000
 H       5.72200000      13.93600000      23.73000000
 H       6.87000000      13.52800000      22.87900000
 O       7.49400000      17.88300000      26.88900000
 H       7.73000000      16.92500000      26.80600000
 H       8.42900000      18.25500000      26.69000000
 O      13.84600000      14.44200000      22.89800000
 H      14.70300000      14.29500000      22.33600000
 H      13.24100000      14.10400000      22.27900000
 O       2.57600000      15.34700000      24.42600000
 H       2.44600000      14.62800000      23.79600000
 H       2.89800000      16.07700000      23.81300000
 O       6.51900000      24.03500000      20.90700000
 H       5.89000000      24.81600000      21.01800000
 H       7.03500000      24.07700000      21.73900000
 O       3.06300000      17.49500000      22.51200000
 H       3.15500000      17.77700000      21.56800000
 H       2.82600000      18.38900000      22.92800000
 O      10.15800000      13.70000000      23.05100000
 H      10.03500000      14.09700000      23.96800000
 H      10.77700000      12.99800000      23.26300000
 O       2.94400000      27.92100000      22.49700000
 H       2.08100000      27.43400000      22.36600000
 H       2.85800000      28.13200000      23.47300000
 O      11.63800000      15.62300000      27.88900000
 H      11.99700000      15.73500000      26.99200000
 H      12.41600000      15.16100000      28.31600000
 O       7.52600000      19.94100000      22.31200000
 H       6.59700000      20.11000000      22.12200000
 H       7.49800000      18.97600000      22.12600000
 O       7.09900000      26.29300000      34.64600000
 H       6.98300000      25.60200000      35.28100000
 H       6.09500000      26.49200000      34.46700000
 O      12.45300000      25.53100000      33.25200000
 H      12.88800000      26.43700000      33.13600000
 H      11.53800000      25.84700000      33.49500000
 O       1.01400000      20.88800000      28.35900000
 H       0.92000000      21.37200000      27.51600000
 H       0.42700000      20.15100000      28.18700000
 O       1.61100000      25.22900000      25.97100000
 H       2.48000000      24.87000000      26.12500000
 H       1.56000000      25.90500000      26.72700000
 O       4.06200000      25.02900000      24.18600000
 H       4.02300000      25.81700000      24.72200000
 H       4.14900000      25.41200000      23.28800000
 O       7.39000000      16.78000000      33.67500000
 H       8.12900000      17.15300000      33.14000000
 H       6.89100000      16.29300000      32.91400000
 O       3.60400000      14.80600000      21.61600000
 H       3.01700000      15.49700000      21.31100000
 H       2.93300000      14.15200000      21.92500000
 O       1.00600000      22.12400000      26.07000000
 H       0.62300000      21.77900000      25.23500000
 H       1.86300000      22.42700000      25.78000000
