61
XYZ file of cluster: frame_9500_4a8f8.17388.47cee - created by MolEdiTo
 O      13.59900000       8.36500000       9.46500000
 H      14.05700000       9.19500000       9.51500000
 H      12.66800000       8.44400000       9.75000000
 O      10.02900000       7.26000000      13.92600000
 H       9.97600000       7.15000000      14.91700000
 H      10.07300000       6.36500000      13.59900000
 O      10.47500000       6.69800000       7.30800000
 H      10.96600000       7.55200000       7.40200000
 H      10.46800000       6.54800000       6.40400000
 O      13.66500000       3.37900000      11.67800000
 H      13.09100000       4.10300000      11.44000000
 H      14.50200000       3.91300000      11.56800000
 O       6.80300000       7.99700000      13.21400000
 H       7.62000000       8.35000000      12.78400000
 H       7.01800000       8.08100000      14.22300000
 O      11.55200000       5.27700000       9.72200000
 H      11.69500000       6.02200000      10.35300000
 H      11.53500000       5.59400000       8.80000000
 O       9.64700000       3.24800000       9.73900000
 H      10.27600000       3.94500000       9.92200000
 H       9.14300000       3.57400000       9.05100000
 O      13.83900000       3.92600000       6.84100000
 H      13.32500000       3.32800000       7.41300000
 H      14.29100000       4.41400000       7.49700000
 O       7.32700000      11.07900000      14.11800000
 H       7.32100000      10.12600000      14.00000000
 H       6.52500000      11.19200000      14.69900000
 O      10.78700000       4.29300000      12.96100000
 H      10.19600000       3.55700000      13.29400000
 H      10.98800000       4.12300000      12.01500000
 O       8.05500000       5.26400000       8.29800000
 H       7.45500000       5.64700000       8.95900000
 H       8.82600000       5.76600000       8.57800000
 C      11.43000000      11.14800000      11.86700000
 C      10.94900000      11.50300000      10.50400000
 C       9.53300000       9.24000000      10.47200000
 H       8.85500000      11.21000000      10.63800000
 H      10.87300000      10.91700000      13.64000000
 O       9.47300000      11.14900000       8.66700000
 O      12.64700000      11.86100000      12.24300000
 O      10.49400000      11.55600000      12.88900000
 C       9.66900000      10.77600000      10.04900000
 O      10.59300000      12.86000000      10.38900000
 H      11.76100000      11.30200000       9.85900000
 O      10.77000000       8.60700000      10.10800000
 O       9.44300000       8.98400000      11.83900000
 H       9.70600000       8.03700000      11.91300000
 H       9.99700000      12.95800000      11.22600000
 H       9.47600000      12.17000000       8.74400000
 O      11.45700000       9.88800000      14.84100000
 H      11.89000000       9.63800000      15.66800000
 H      11.36000000       9.00400000      14.32300000
 O       8.48800000       2.88200000      13.89100000
 H       8.02700000       2.04100000      13.62200000
 H       7.97000000       3.61300000      13.48000000
 O       7.23900000       7.12000000      10.20400000
 H       6.43600000       7.61500000       9.98600000
 H       6.91700000       6.35800000      10.72300000
 O      12.90300000       6.36500000      11.97400000
 H      13.59700000       7.10600000      11.89700000
 H      12.77200000       6.21500000      12.93300000
