45
XYZ file of cluster: frame_9500_761eb.bf6b5.6daca - created by MolEdiTo
 O      16.83500000      18.75900000      18.12300000
 H      16.13800000      19.44800000      18.12500000
 H      17.55200000      18.96200000      18.69400000
 O      13.38400000      17.58800000      17.98900000
 H      14.16200000      17.31000000      18.42600000
 H      13.37800000      18.56600000      18.08600000
 O      16.31600000      20.20000000      13.81400000
 H      15.75900000      19.51600000      13.44700000
 H      15.88500000      21.01500000      13.59500000
 O      10.94800000      19.50700000      10.01100000
 H      10.21500000      20.03400000       9.78100000
 H      10.86000000      19.35300000      11.00700000
 O      12.16400000      17.77500000      15.24100000
 H      12.70700000      18.01200000      15.97900000
 H      12.37800000      16.82500000      15.24000000
 O      10.80200000      18.86200000      12.83700000
 H      10.35000000      18.28700000      13.53600000
 H      11.76000000      18.76200000      13.02200000
 O      11.91700000      20.71300000      18.31900000
 H      11.25800000      21.45900000      18.12100000
 H      11.34700000      19.92900000      18.42600000
 O      13.80400000      19.10700000      11.40000000
 H      13.49600000      18.11800000      11.63400000
 H      13.60100000      19.12400000      10.45600000
 O      15.81800000      24.85700000      14.47700000
 H      15.67100000      25.30000000      15.35900000
 H      16.67100000      24.30600000      14.63300000
 O      13.66500000      24.83800000      11.67800000
 H      13.09100000      25.56200000      11.44000000
 H      14.50200000      25.37200000      11.56800000
 O      10.78700000      25.75200000      12.96100000
 H      10.19600000      25.01600000      13.29400000
 H      10.98800000      25.58200000      12.01500000
 O      16.48600000      22.82000000      16.82500000
 H      15.60500000      22.79500000      16.45200000
 H      17.01900000      22.06200000      16.45200000
 O      13.86800000      22.90300000      15.99900000
 H      12.89100000      22.67400000      16.18900000
 H      13.88400000      22.95600000      14.99700000
 O      13.36000000      22.50600000      13.30200000
 H      13.25800000      23.30800000      12.79500000
 H      13.69700000      21.83700000      12.61200000
 O      11.22300000      22.62300000      15.41200000
 H      10.75900000      23.46500000      15.39700000
 H      11.51600000      22.24700000      14.58900000
