39
XYZ file of cluster: frame_9500_cd2e3.96b93.4cf19 - created by MolEdiTo
 O      19.95200000      13.81700000       8.52800000
 H      19.09900000      13.24800000       8.44100000
 H      19.64000000      14.73800000       8.28300000
 O      19.15900000      15.02900000      12.01100000
 H      19.40900000      14.90300000      11.04800000
 H      18.23300000      15.39000000      11.94700000
 O      18.37000000      16.40100000       8.33500000
 H      17.71100000      16.57300000       7.58900000
 H      18.23200000      17.15800000       8.97100000
 O      20.27900000      14.83800000      15.08600000
 H      20.08300000      14.87500000      14.11900000
 H      20.87400000      15.62600000      15.14600000
 O      19.24100000      20.69700000       7.16200000
 H      19.40300000      20.22400000       7.97200000
 H      18.44100000      21.29600000       7.27400000
 O      19.07900000      20.52400000      11.33400000
 H      18.57600000      19.76200000      10.89200000
 H      18.43900000      21.17800000      11.63900000
 O      22.61100000      17.45000000      15.27600000
 H      22.58900000      17.77900000      14.33100000
 H      22.83000000      18.33300000      15.73800000
 O      22.51200000      17.84200000      12.53500000
 H      22.87100000      18.24900000      11.72400000
 H      21.53100000      17.78700000      12.26500000
 O      23.83600000      15.98300000       9.92100000
 H      23.59700000      16.19000000       9.04400000
 H      23.46000000      15.04600000      10.02300000
 O      22.03600000      18.37300000       7.95600000
 H      21.72200000      17.43700000       7.84600000
 H      22.66200000      18.42700000       7.20000000
 O      23.82600000      14.93200000      12.90100000
 H      23.28600000      14.54400000      12.09500000
 H      23.50600000      15.85300000      13.00100000
 O      24.49300000      16.63700000       6.99100000
 H      25.37400000      16.98600000       6.86200000
 H      24.68100000      15.78900000       7.40700000
 O      23.48000000      18.88300000      10.28000000
 H      23.03500000      18.75400000       9.36800000
 H      24.04700000      18.11000000      10.47900000
