51
XYZ file of cluster: frame_12500_6cbc1.6fc8a.97c23 - created by MolEdiTo
 O      12.78600000      14.31000000      15.84500000
 H      12.45400000      13.36200000      16.04000000
 H      13.76200000      14.26200000      15.95500000
 O      15.45500000      14.12300000      15.85100000
 H      16.04900000      14.02700000      15.13400000
 H      15.40900000      13.25400000      16.28000000
 O      17.73400000      14.19400000      14.00200000
 H      17.43600000      15.13900000      14.26000000
 H      18.32600000      14.53900000      13.28800000
 O      13.68700000      13.88100000      20.38600000
 H      13.53200000      13.92900000      21.37700000
 H      13.88600000      14.79700000      20.18800000
 O      15.69000000      18.18200000      16.95500000
 H      16.44700000      18.82700000      17.08000000
 H      15.88700000      17.33600000      17.47300000
 O      10.02200000      13.27000000      17.03100000
 H       9.55600000      12.41900000      16.98400000
 H      10.90400000      12.85700000      17.21000000
 O      14.72600000      12.41500000      18.06200000
 H      14.24300000      12.68900000      18.91200000
 H      15.05900000      11.46900000      18.24600000
 O      12.29100000      11.66300000      16.82300000
 H      13.16400000      11.11600000      16.70900000
 H      11.86500000      11.19200000      16.07400000
 O      16.96600000      16.63500000      14.56900000
 H      17.11700000      17.19600000      15.35600000
 H      16.05400000      16.89200000      14.27800000
 O       9.99100000      13.99900000      14.43600000
 H      10.96200000      14.08000000      14.45700000
 H       9.81700000      13.88400000      15.37400000
 O      11.73900000      16.22000000      17.53900000
 H      12.09100000      15.40000000      17.08900000
 H      10.89400000      16.35400000      17.03000000
 O      11.67300000      12.15300000      19.37400000
 H      12.25000000      12.86600000      19.84700000
 H      12.18700000      11.96000000      18.50000000
 O      11.12900000      10.49200000      14.55200000
 H      11.09800000       9.59000000      14.22900000
 H      10.27200000      10.85100000      14.24800000
 O      13.03000000      18.13800000      19.48700000
 H      12.81100000      17.36000000      18.90500000
 H      13.51800000      18.69800000      18.86300000
 O      17.19400000      10.57900000      14.77100000
 H      17.34100000      11.26300000      14.10300000
 H      17.68200000       9.82400000      14.37700000
 O      14.02600000      11.75100000      14.68000000
 H      14.31300000      11.29500000      13.82200000
 H      14.47200000      11.33900000      15.40900000
 O      15.66900000      15.70500000      18.26900000
 H      16.02200000      15.08600000      19.02000000
 H      15.61300000      14.98100000      17.57500000
