42
XYZ file of cluster: frame_12500_6422.4773f.bb7b8 - created by MolEdiTo
 O       5.06200000      10.15000000      19.02000000
 H       5.05100000      11.17500000      19.18200000
 H       4.26600000      10.05500000      18.40200000
 O       4.23900000       7.27000000      18.32400000
 H       4.61000000       6.61600000      18.99300000
 H       4.64500000       8.13600000      18.60200000
 O       2.11000000      14.14100000      17.38500000
 H       2.38000000      15.10000000      17.48300000
 H       2.52200000      13.68100000      18.20400000
 O       7.49800000      14.43200000      18.04600000
 H       8.17100000      14.04800000      17.46500000
 H       6.89400000      13.71000000      18.04900000
 O       2.76300000      10.34500000      17.27100000
 H       2.00400000      10.38300000      17.92100000
 H       2.35100000      10.02900000      16.41600000
 O       4.94700000      13.20400000      18.84900000
 H       4.73600000      14.17700000      18.62300000
 H       5.05300000      13.30700000      19.79200000
 O       2.23700000      13.34800000      20.11100000
 H       1.67100000      12.88000000      19.41100000
 H       2.74400000      12.68300000      20.66200000
 O       7.98900000      10.11100000      23.13200000
 H       7.06400000       9.93600000      22.97000000
 H       8.11900000      11.03700000      22.84600000
 O       2.33800000       7.77400000      22.62600000
 H       2.61100000       8.73300000      22.51000000
 H       2.56600000       7.37200000      21.78200000
 O       7.69200000       6.75300000      22.49000000
 H       6.83000000       6.13000000      22.41100000
 H       7.32400000       7.60900000      22.47700000
 O       4.16900000      11.50900000      23.31500000
 H       4.66800000      12.28800000      23.73200000
 H       3.27500000      11.47300000      23.64700000
 O       1.13800000      10.86400000      23.35700000
 H       0.59600000      11.63700000      23.09800000
 H       0.55000000      10.11100000      23.07500000
 O       6.01800000      13.42100000      24.75400000
 H       5.90200000      13.89300000      25.60900000
 H       5.82700000      14.10500000      24.08100000
 O       5.32600000       8.79300000      22.98500000
 H       5.10200000       9.15900000      22.00400000
 H       4.83900000       9.44400000      23.50100000
