57
XYZ file of cluster: frame_12500_be2ee.1a045.71c8e - created by MolEdiTo
 O      17.37900000       3.16900000      10.74300000
 H      17.96100000       3.73700000      10.20800000
 H      16.71400000       3.25800000       9.96300000
 O      20.30000000       8.94700000      16.14800000
 H      20.02000000       8.07600000      15.79000000
 H      20.25900000       9.44400000      15.26700000
 O      20.39800000       7.56600000      18.62100000
 H      20.59300000       7.97200000      17.74900000
 H      20.95300000       6.78400000      18.72000000
 O      17.79600000      10.71700000      11.22500000
 H      16.87800000      10.43500000      11.05800000
 H      18.27600000      10.54300000      10.36600000
 O      20.28400000       3.53300000      11.68100000
 H      20.65100000       4.44900000      11.91100000
 H      19.99300000       3.66300000      10.80000000
 O      19.69900000       3.32800000      17.89100000
 H      20.11500000       4.03500000      18.46500000
 H      20.21500000       3.37300000      17.02800000
 O      18.55000000       6.84500000      15.56500000
 H      17.82600000       7.40600000      15.26900000
 H      18.18900000       5.96600000      15.53900000
 O      19.40600000       6.87700000      11.49900000
 H      19.27300000       7.80900000      11.45900000
 H      18.95600000       6.58300000      10.62400000
 O      20.36900000       3.17900000      14.86300000
 H      20.28800000       2.23200000      14.78200000
 H      19.56800000       3.56400000      14.32800000
 O      20.57400000      10.13200000      10.37100000
 H      21.20100000       9.39600000      10.24200000
 H      20.82500000      10.42200000      11.28600000
 O      19.57500000       9.47600000      13.44200000
 H      20.47900000       9.60900000      13.03900000
 H      19.26100000      10.38200000      13.43100000
 O      18.04700000       3.81900000      13.73200000
 H      17.54300000       3.85800000      12.90000000
 H      17.37900000       3.64500000      14.37500000
 O      23.93900000      10.25000000      12.81900000
 H      24.44600000       9.86900000      12.04300000
 H      24.49800000      11.01300000      13.03700000
 O      23.69500000       3.79200000      16.84500000
 H      24.34100000       3.04900000      16.97600000
 H      23.37700000       3.57000000      15.92500000
 O      25.17700000       4.29100000      12.46000000
 H      24.69500000       4.90500000      12.96600000
 H      24.62000000       4.39200000      11.58600000
 O      25.01200000       6.97900000      15.65500000
 H      25.20000000       7.24400000      16.60200000
 H      24.20100000       6.43900000      15.75900000
 O      22.66300000       5.83500000      13.69600000
 H      22.60400000       4.91100000      14.02500000
 H      21.77900000       6.24000000      13.80900000
 O      23.52000000       7.94800000      11.02100000
 H      23.87800000       7.09400000      10.65700000
 H      22.95100000       7.70000000      11.75000000
 O      24.21900000      10.34500000      17.27100000
 H      23.46000000      10.38300000      17.92100000
 H      23.80700000      10.02900000      16.41600000
