30
XYZ file of cluster: frame_12500_0.d20bd.cd46a - created by MolEdiTo
 O       5.83500000      20.27600000      17.99000000
 H       6.27300000      20.60900000      18.80500000
 H       4.87400000      20.48800000      17.97400000
 O       3.62100000      18.34100000      19.84300000
 H       3.15100000      19.20400000      19.67800000
 H       3.62400000      18.32500000      20.82500000
 O       1.70700000      20.45400000      19.55900000
 H       0.93900000      20.48400000      20.07300000
 H       1.27200000      20.61400000      18.64200000
 O       6.38900000      18.02000000      22.20600000
 H       6.47600000      18.70100000      22.90900000
 H       5.51200000      18.02000000      21.76600000
 O       3.94000000      18.59200000      23.87200000
 H       3.69400000      18.41800000      24.82300000
 H       4.59100000      19.29500000      23.84900000
 O       3.02800000      23.76000000      20.15800000
 H       2.11300000      23.90400000      20.55300000
 H       3.10800000      22.83500000      19.76000000
 O       5.02100000      22.09800000      22.77100000
 H       4.43900000      21.97100000      23.54400000
 H       4.72900000      22.94000000      22.27000000
 O       1.79300000      21.76100000      24.61100000
 H       2.14400000      21.32400000      23.80400000
 H       1.21100000      22.41700000      24.24600000
 O       0.94500000      24.08700000      23.31800000
 H       1.05700000      24.88200000      23.86600000
 H       0.00000000      24.13300000      23.00900000
 O       6.57300000      25.02200000      23.51200000
 H       7.41300000      25.07600000      23.05000000
 H       6.55500000      24.13200000      23.81500000
