42
XYZ file of cluster: frame_12500_46d2.99e8d.a2b60 - created by MolEdiTo
 O       5.59200000      19.48200000      14.96000000
 H       5.41300000      20.40600000      14.62000000
 H       6.25200000      19.16900000      14.24700000
 O       6.65000000      16.90100000      16.51600000
 H       6.43500000      16.60500000      17.43000000
 H       6.24800000      17.79400000      16.44700000
 O       1.13700000      18.72900000      16.03100000
 H       1.35500000      17.94300000      15.56300000
 H       0.38900000      18.41900000      16.58500000
 O       0.91100000      16.13800000      15.16900000
 H       1.86300000      15.98800000      15.02400000
 H       0.77100000      15.52800000      15.94700000
 O       2.11000000      14.14100000      17.38500000
 H       2.38000000      15.10000000      17.48300000
 H       2.52200000      13.68100000      18.20400000
 O       7.49800000      14.43200000      18.04600000
 H       8.17100000      14.04800000      17.46500000
 H       6.89400000      13.71000000      18.04900000
 O       4.33500000      16.26000000      17.96000000
 H       4.10100000      16.84000000      18.74900000
 H       4.18400000      16.84400000      17.16100000
 O       1.87700000      15.89500000      20.22000000
 H       1.99000000      14.90600000      20.12900000
 H       2.44500000      16.05200000      20.96800000
 O       1.70700000      20.45400000      19.55900000
 H       0.93900000      20.48400000      20.07300000
 H       1.27200000      20.61400000      18.64200000
 O       3.83700000      16.71500000      15.07200000
 H       4.11600000      17.35200000      14.34400000
 H       4.62800000      16.10400000      15.06900000
 O       5.83500000      20.27600000      17.99000000
 H       6.27300000      20.60900000      18.80500000
 H       4.87400000      20.48800000      17.97400000
 O       3.62100000      18.34100000      19.84300000
 H       3.15100000      19.20400000      19.67800000
 H       3.62400000      18.32500000      20.82500000
 O       5.80700000      14.54600000      15.42100000
 H       5.53300000      13.73700000      15.93300000
 H       6.36200000      15.14400000      16.03100000
 O       4.94700000      13.20400000      18.84900000
 H       4.73600000      14.17700000      18.62300000
 H       5.05300000      13.30700000      19.79200000
