39
XYZ file of cluster: frame_12500_6dcaf.ca12c.6b639 - created by MolEdiTo
 O      14.99600000      18.30100000      12.00800000
 H      15.45200000      17.55100000      11.58900000
 H      14.34600000      17.83300000      12.59000000
 O      15.69000000      18.18200000      16.95500000
 H      16.44700000      18.82700000      17.08000000
 H      15.88700000      17.33600000      17.47300000
 O      13.98000000      20.42700000      10.23800000
 H      13.99300000      19.76600000      10.97700000
 H      13.66900000      19.96500000       9.40300000
 O      16.68800000      20.36600000      12.96500000
 H      16.04400000      19.77500000      12.52400000
 H      17.39900000      20.56500000      12.28500000
 O      12.30500000      18.68400000      13.71100000
 H      12.97800000      18.77400000      14.43700000
 H      11.88000000      19.60000000      13.62500000
 O      13.13300000      19.10800000      16.87100000
 H      14.00100000      18.59900000      16.71200000
 H      12.50300000      18.58000000      17.43500000
 O      17.37900000      24.11400000      10.74300000
 H      17.96100000      24.68200000      10.20800000
 H      16.71400000      24.20300000       9.96300000
 O      15.31500000      24.06600000      17.04200000
 H      15.41900000      23.71700000      16.16400000
 H      15.18500000      24.99600000      17.00100000
 O      14.37900000      24.24300000      10.29400000
 H      14.55600000      24.46000000      11.21500000
 H      14.14500000      23.23200000      10.23200000
 O      17.27600000      21.90400000      15.65100000
 H      16.98200000      21.39400000      14.89900000
 H      17.84500000      22.60800000      15.15200000
 O      14.42000000      23.38000000      13.26600000
 H      13.75100000      22.90400000      13.71800000
 H      15.08500000      22.74300000      13.18500000
 O      11.82000000      22.38100000      15.16000000
 H      10.87200000      22.27900000      15.29000000
 H      12.17900000      21.87300000      15.89700000
 O      10.54300000      22.82400000      11.28900000
 H       9.64900000      23.28300000      11.36800000
 H      11.16800000      23.45900000      11.82800000
