%chk=cluster_504.chk
%mem=6GB
%nproc=4
#b3lyp/6-31G** scrf=(cpcm,Solvent=Water) nosymm force
iop(2/11=1) 
 Geom=(NoDistance,NoAngle)

cluster_504

0 1
 O      20.41000000       2.58700000      20.16100000
 H      20.41000000       1.75600000      19.66900000
 H      20.16700000       2.27900000      21.07100000
 O      18.52300000       6.94600000      13.79200000
 H      18.12400000       6.50300000      14.58800000
 H      19.52000000       7.11700000      14.02900000
 O      17.71700000       2.97100000      15.07000000
 H      17.92300000       2.05400000      15.18100000
 H      18.05900000       3.32500000      14.22900000
 O      19.52400000       4.27100000      17.27200000
 H      19.45600000       3.78100000      16.44700000
 H      18.59600000       4.23400000      17.56800000
 O      19.03900000       5.21300000      20.64500000
 H      18.50200000       5.50100000      19.87600000
 H      19.49500000       4.40000000      20.32800000
 O      22.08900000       7.36500000      14.27400000
 H      22.78800000       6.70200000      14.40800000
 H      22.51900000       7.88800000      13.55700000
 O      24.73300000       6.98600000      18.92900000
 H      24.09200000       6.34400000      18.52100000
 H      25.35300000       6.37800000      19.27900000
 O      23.71000000       4.97300000      13.98300000
 H      23.31400000       4.10600000      14.24800000
 H      24.48300000       5.20900000      14.61200000
 O      22.04700000       6.83400000      17.49800000
 H      21.06800000       6.43700000      17.45100000
 H      22.40200000       6.91000000      16.58300000
 O      23.17500000       3.14800000      17.33000000
 H      22.52800000       3.75400000      16.99200000
 H      22.75300000       2.43200000      17.84100000

