33
XYZ file of cluster: frame_19500_cdfc2.6fa6d.1ac06 - created by MolEdiTo
 O      18.16600000      12.19700000       2.80300000
 H      19.04600000      12.25100000       2.36900000
 H      18.41400000      11.91700000       3.70300000
 O      19.02000000      15.37600000       8.48000000
 H      19.32800000      16.20700000       8.16400000
 H      19.53900000      14.61800000       8.16500000
 O      19.12500000      12.09200000       9.18800000
 H      18.93400000      11.62800000      10.04700000
 H      20.05900000      12.32800000       9.13900000
 O      18.62800000      11.90000000       5.69200000
 H      18.57800000      12.42100000       6.51400000
 H      18.20500000      11.02200000       5.84100000
 O      23.99700000      14.72300000      10.01100000
 H      23.22600000      14.39400000       9.50700000
 H      23.70900000      15.64500000      10.15200000
 O      23.01500000      10.52500000       6.83800000
 H      22.08200000      10.57500000       7.10000000
 H      23.22700000       9.61800000       7.15800000
 O      24.71600000      11.84600000      10.59900000
 H      23.98500000      11.36800000      11.07100000
 H      24.32900000      12.77300000      10.62700000
 O      23.64100000      11.57100000       4.26500000
 H      23.64700000      10.64900000       4.47900000
 H      23.26500000      11.99900000       5.03300000
 O      23.52500000      16.74500000       7.41500000
 H      23.43200000      17.28000000       8.24400000
 H      24.18500000      17.32200000       7.00800000
 O      23.10100000      13.26200000       7.77200000
 H      23.98800000      13.67300000       7.50000000
 H      23.17800000      12.39700000       7.25700000
 O      23.78900000      15.77900000       4.80900000
 H      24.70200000      16.00600000       5.04800000
 H      23.37100000      16.21700000       5.57600000
