51
XYZ file of cluster: frame_19500_4a7f5.1afa8.ad73 - created by MolEdiTo
 O       8.73900000       7.47700000       7.07600000
 H       8.03000000       7.43500000       7.75800000
 H       9.40200000       6.94000000       7.49100000
 O      11.93400000      10.14600000       5.89400000
 H      12.66800000      10.89400000       5.77500000
 H      11.73900000      10.01100000       6.83000000
 O      14.61500000       4.76300000       2.30500000
 H      13.95600000       5.24000000       1.81700000
 H      14.36800000       4.61300000       3.27000000
 O      10.61000000       7.61900000       4.29000000
 H       9.86400000       8.08500000       4.65600000
 H      10.81900000       7.03500000       5.11400000
 O      13.77200000       8.15500000       3.47300000
 H      13.02400000       8.51400000       3.86300000
 H      13.58600000       8.27600000       2.52300000
 O       6.62300000       4.12200000       1.38200000
 H       7.28000000       4.82000000       1.74700000
 H       6.57000000       3.33200000       1.99400000
 O       8.62200000       9.78000000       2.98000000
 H       8.19500000       9.20200000       2.34200000
 H       9.59600000       9.71000000       2.86300000
 O      11.53100000       5.79100000       2.00600000
 H      10.81800000       5.07900000       2.03500000
 H      11.27800000       6.42300000       2.76400000
 O       7.53300000       7.20900000       1.87800000
 H       7.73300000       6.88700000       0.96000000
 H       8.22300000       6.83500000       2.41600000
 O      13.48300000       4.53400000       4.74700000
 H      12.80100000       3.83800000       5.01500000
 H      13.98200000       4.56200000       5.54800000
 O      11.84200000       6.44900000       6.44300000
 H      12.71400000       6.23300000       6.14100000
 H      11.84100000       6.28600000       7.42800000
 O       7.67100000       4.95700000       4.05700000
 H       7.79800000       5.29000000       4.97200000
 H       6.77200000       5.39400000       3.79100000
 O      12.00700000       3.51100000       7.17600000
 H      12.61000000       4.16100000       7.61600000
 H      12.07400000       2.71600000       7.68200000
 O      11.43600000      10.03500000       2.89100000
 H      11.71200000       9.92200000       3.82800000
 H      11.99100000      10.81600000       2.62600000
 O      10.38900000       3.18500000       4.66600000
 H      11.01400000       3.80400000       5.13100000
 H      10.61600000       2.32400000       4.95700000
 O       9.46100000       4.07500000       2.07900000
 H      10.08200000       3.29400000       2.11400000
 H       9.00000000       4.20300000       2.90300000
 O       8.76200000      10.10700000       6.30400000
 H       8.41700000       9.23800000       6.25500000
 H       9.48100000      10.02700000       5.70100000
