27
XYZ file of cluster: frame_19500_9c294.9a2f8.1bd3 - created by MolEdiTo
 O      14.63200000      19.48900000       7.46400000
 H      13.77200000      19.74500000       7.84600000
 H      14.43900000      19.32700000       6.51600000
 O      20.49300000      13.28200000       1.87200000
 H      20.04000000      14.10000000       2.25900000
 H      20.97200000      13.61500000       1.01000000
 O      14.57300000      19.48400000       1.95000000
 H      15.01900000      20.01800000       1.31800000
 H      14.92700000      18.58200000       1.88700000
 O      17.90700000      17.83900000       6.48000000
 H      17.80300000      18.66400000       6.00800000
 H      18.20100000      18.12000000       7.30300000
 O      20.77200000      16.18300000       2.16400000
 H      21.53100000      15.83600000       1.57500000
 H      21.20300000      16.25600000       3.13800000
 O      16.05200000      14.22300000       3.42500000
 H      16.12200000      14.43000000       4.43400000
 H      16.63600000      13.33700000       3.23600000
 O      18.07800000      20.21800000       4.80100000
 H      17.86500000      19.88600000       3.91800000
 H      17.36400000      20.77200000       5.10500000
 O      19.48400000      19.46700000       1.07400000
 H      19.87500000      19.51800000       0.15400000
 H      19.81500000      18.55400000       1.30500000
 O      16.97000000      15.06900000       6.03300000
 H      17.21000000      16.04600000       5.88200000
 H      17.71900000      14.78500000       6.54400000
