48
XYZ file of cluster: frame_1500_0.6b13f.4e439 - created by MolEdiTo
 O       6.56500000      18.58400000      10.21900000
 H       7.17200000      17.96700000      10.67800000
 H       6.09700000      18.00600000       9.61900000
 O       4.34200000      16.53900000      10.21300000
 H       4.83800000      15.88800000      10.72100000
 H       3.83800000      16.09200000       9.46100000
 O       4.32200000      13.07700000      13.36000000
 H       5.27600000      12.62400000      13.40000000
 H       4.25100000      13.09300000      12.37400000
 O       4.30100000      13.64400000      10.64700000
 H       5.20200000      13.61800000      10.31700000
 H       3.90400000      13.24100000       9.84700000
 O       6.21400000      12.40000000       8.73100000
 H       5.20900000      12.28400000       8.65600000
 H       6.39700000      11.67800000       9.33100000
 O       0.73700000      13.45500000      10.98600000
 H       1.13900000      14.13100000      11.57700000
 H       0.45600000      12.80400000      11.71800000
 O       6.51200000      15.59500000       8.12500000
 H       6.30800000      14.79300000       8.66000000
 H       7.53700000      15.57100000       7.97000000
 O       1.82800000      15.96500000      12.50900000
 H       2.70000000      15.74500000      12.14500000
 H       2.08200000      16.41200000      13.30200000
 O       0.90600000      11.65500000       8.55700000
 H       0.80900000      12.43300000       9.23500000
 H       0.00000000      11.35400000       8.22300000
 O       3.30700000      15.67500000       7.66900000
 H       2.79500000      16.10900000       6.91500000
 H       4.21200000      15.45200000       7.36800000
 O       3.50500000      12.73900000       8.27600000
 H       3.20500000      13.57600000       7.87000000
 H       2.63100000      12.36500000       8.34200000
 O       2.48500000      10.24900000      12.08800000
 H       2.20800000      11.00100000      12.59600000
 H       2.00600000       9.52400000      12.50300000
 O       5.87500000      17.60400000      13.28100000
 H       5.11500000      17.18700000      13.82900000
 H       5.75300000      17.17700000      12.45300000
 O       1.18200000      12.04400000      13.55600000
 H       0.60800000      11.73200000      14.25300000
 H       1.03100000      12.97300000      13.39500000
 O       6.53900000      15.10700000      11.89300000
 H       6.84300000      14.65800000      12.73600000
 H       7.40900000      15.48000000      11.57200000
 O       4.20200000      15.79900000      14.70800000
 H       4.20700000      15.82200000      15.72100000
 H       4.16300000      14.85500000      14.37000000
