39
XYZ file of cluster: frame_1500_54c3.4abe4.7c56f - created by MolEdiTo
 O       0.91000000       7.98600000      17.14400000
 H       0.98700000       7.90300000      18.11800000
 H       0.45800000       7.13000000      16.95700000
 O       4.87900000       9.41100000      11.00700000
 H       5.37200000       8.94000000      11.78500000
 H       3.95600000       9.54200000      11.16500000
 O       4.32200000      13.07700000      13.36000000
 H       5.27600000      12.62400000      13.40000000
 H       4.25100000      13.09300000      12.37400000
 O       5.25500000       6.64800000      16.14300000
 H       5.12300000       7.45000000      15.55400000
 H       5.64300000       7.06000000      16.92400000
 O       0.73700000      13.45500000      10.98600000
 H       1.13900000      14.13100000      11.57700000
 H       0.45600000      12.80400000      11.71800000
 O       5.11100000       8.78300000      14.59100000
 H       5.98800000       9.23700000      14.33900000
 H       4.77100000       8.31300000      13.83200000
 O       4.81200000      10.01600000      17.12000000
 H       3.87600000       9.79600000      17.24500000
 H       5.05300000       9.41200000      16.32400000
 O       2.48500000      10.24900000      12.08800000
 H       2.20800000      11.00100000      12.59600000
 H       2.00600000       9.52400000      12.50300000
 O       1.18200000      12.04400000      13.55600000
 H       0.60800000      11.73200000      14.25300000
 H       1.03100000      12.97300000      13.39500000
 O       6.59400000      12.45600000      16.80100000
 H       5.81900000      13.03900000      16.73400000
 H       6.13700000      11.55000000      16.83100000
 O       2.39200000      12.55300000      16.51700000
 H       1.98800000      13.34100000      16.17200000
 H       3.35700000      12.64600000      16.43200000
 O       1.07800000       8.10300000      14.17100000
 H       1.83800000       7.84400000      14.72200000
 H       0.58400000       8.66400000      14.73400000
 O       4.58700000      14.23100000      17.70400000
 H       3.75900000      14.02800000      18.22600000
 H       5.11000000      14.72300000      18.38000000
