52
XYZ file of cluster: frame_1500_4d4a7.48565.4b60c - created by MolEdiTo
 O      13.78600000      11.85100000       6.85200000
 H      12.89800000      11.49600000       7.06500000
 H      14.27600000      11.79700000       7.70200000
 O      13.30600000       7.75100000      11.16500000
 H      13.05900000       7.12800000      10.43400000
 H      14.03000000       7.31200000      11.66700000
 O      11.63000000       7.79800000       7.28500000
 H      11.05100000       7.34800000       6.66000000
 H      12.59100000       7.55700000       7.07700000
 O      10.18500000       7.98100000      13.58900000
 H      10.81100000       8.07000000      14.42900000
 H      10.56900000       8.58400000      12.93200000
 O       8.05900000      14.23200000      14.23500000
 H       8.66500000      13.57400000      13.79100000
 H       8.03500000      13.98800000      15.18300000
 O      12.95700000      14.87400000      13.86800000
 H      13.62800000      14.27600000      14.23500000
 H      13.12000000      15.59600000      14.52500000
 O      11.99300000      13.91900000       8.74000000
 H      12.86800000      13.55000000       8.81500000
 H      11.68600000      13.98000000       9.66000000
 C      11.34000000      10.01400000       9.54500000
 C      11.34800000      10.75000000      10.98100000
 C       8.97500000      11.70800000      10.54700000
 H       9.46800000      10.04600000      11.73200000
 H      11.34900000       8.21100000       8.92400000
 O      10.11600000      11.73500000      12.77500000
 O      12.67200000       9.90300000       9.14100000
 O      10.83400000       8.71200000       9.63300000
 C       9.97800000      11.01600000      11.53500000
 O      12.11600000       9.91700000      11.89700000
 H      11.86900000      11.66200000      10.70600000
 O       9.55200000      12.98800000      10.37800000
 O       7.74400000      12.02200000      11.22900000
 H       7.56100000      12.95900000      11.03600000
 H      12.51100000       9.16400000      11.35200000
 H      10.56600000      12.57300000      12.54200000
 O       8.42700000       9.88500000       7.94200000
 H       9.18800000       9.37000000       7.86000000
 H       8.26100000      10.20900000       7.02300000
 O       7.50700000       8.86300000      10.38800000
 H       6.65300000       9.23400000      10.68100000
 H       7.76100000       9.18000000       9.49200000
 O      12.86400000      11.15900000      14.25400000
 H      12.38000000      10.88600000      13.44300000
 H      13.76500000      10.91100000      14.11000000
 O       7.44900000      10.44000000      14.31800000
 H       8.27500000       9.95200000      14.30400000
 H       7.67300000      11.28600000      14.71400000
 O       7.51200000       6.95000000      13.72800000
 H       8.37300000       7.47100000      13.61900000
 H       7.58900000       6.43400000      14.56500000
