36
XYZ file of cluster: frame_1500_4ef9b.a0812.9cf54 - created by MolEdiTo
 O      11.23300000      20.28700000      19.69900000
 H      12.13300000      19.96400000      19.61400000
 H      11.12600000      21.04800000      19.11100000
 O       8.65200000      17.14400000      14.89300000
 H       8.02400000      16.75100000      14.23800000
 H       8.96300000      16.33800000      15.32400000
 O      11.47300000      16.61300000      15.19900000
 H      11.22400000      17.31900000      15.84500000
 H      10.95900000      16.81100000      14.36000000
 O       6.79800000      17.98600000      16.98200000
 H       6.93000000      17.07600000      16.64900000
 H       7.45800000      18.51400000      16.51200000
 O      13.29300000      18.39900000      18.56800000
 H      13.23200000      17.48300000      18.94700000
 H      14.04900000      18.88900000      19.01900000
 O      12.95700000      14.87400000      13.86800000
 H      13.62800000      14.27600000      14.23500000
 H      13.12000000      15.59600000      14.52500000
 O      10.51600000      18.22100000      17.16900000
 H      11.19600000      18.48100000      17.81800000
 H      10.06000000      17.53500000      17.71600000
 O       8.45100000      15.57300000      17.49300000
 H       7.83600000      15.24300000      18.18600000
 H       8.76100000      14.68500000      17.06600000
 O      10.14900000      15.14900000      20.50500000
 H       9.36600000      14.74400000      20.03900000
 H      10.92200000      14.57600000      20.17500000
 O      14.23100000      16.78700000      15.89300000
 H      13.25300000      17.07900000      15.84900000
 H      14.66900000      17.34500000      15.28200000
 O      12.62900000      16.39700000      20.76200000
 H      12.49800000      15.93500000      21.56900000
 H      11.74200000      16.45700000      20.42600000
 O      13.95800000      20.84900000      16.87200000
 H      14.71400000      20.61100000      17.36900000
 H      13.45300000      19.93600000      16.80600000
