54
XYZ file of cluster: frame_1500_1baf3.3bb9.459df - created by MolEdiTo
 O       2.92200000       1.43800000      14.07000000
 H       3.74900000       0.99700000      14.20400000
 H       2.38300000       1.01200000      14.72000000
 O       8.15200000       1.45000000       6.44600000
 H       7.34300000       1.02800000       6.15100000
 H       8.48600000       0.92800000       7.26100000
 O       5.01200000       3.29900000       6.25400000
 H       5.19200000       3.35500000       7.24400000
 H       4.08100000       3.10000000       6.38900000
 O      10.37800000       5.67400000      12.02300000
 H      10.27200000       6.37900000      12.68100000
 H       9.47100000       5.29100000      11.90600000
 O       9.85600000       3.11600000       9.42300000
 H      10.07600000       3.34900000      10.38500000
 H       9.00300000       2.55100000       9.40900000
 O       3.76500000       1.74100000      10.44600000
 H       3.67600000       0.75400000      10.51500000
 H       3.55300000       2.02900000      11.38800000
 O       5.10000000       6.58200000      12.23700000
 H       5.91000000       6.63400000      12.87100000
 H       5.45000000       6.23500000      11.42600000
 O       2.72600000       5.24800000      13.18700000
 H       3.56800000       5.63900000      12.96200000
 H       2.89900000       4.32200000      13.29400000
 O       4.88700000       3.95000000       9.28300000
 H       5.58000000       3.80700000       9.94000000
 H       4.09400000       3.51400000       9.62700000
 O       9.31100000       3.03100000      12.56700000
 H       9.93200000       2.30700000      12.21300000
 H       9.43500000       2.94800000      13.59000000
 O       7.25900000       1.35400000       9.54300000
 H       6.33900000       1.68600000       9.57100000
 H       7.04600000       0.33200000       9.62200000
 O      10.59200000       3.16900000       6.75900000
 H      10.65700000       3.03700000       7.72100000
 H       9.78300000       2.72200000       6.46200000
 O       6.16600000       6.27300000       7.99000000
 H       5.73900000       5.42900000       8.15100000
 H       5.57000000       6.88000000       8.53600000
 O       3.57100000       7.04600000       8.82100000
 H       3.37800000       7.61100000       9.53500000
 H       2.88900000       6.29200000       8.96800000
 O       4.97700000       3.28600000      12.62200000
 H       5.15900000       2.34300000      12.97300000
 H       5.79800000       3.60400000      12.33900000
 O       7.15200000       4.34800000      11.42400000
 H       7.58300000       4.82900000      10.71200000
 H       7.87800000       3.78200000      11.74400000
 O       7.51200000       6.95000000      13.72800000
 H       8.37300000       7.47100000      13.61900000
 H       7.58900000       6.43400000      14.56500000
 O       8.39900000       5.94300000       9.44600000
 H       7.74400000       5.92500000       8.71300000
 H       8.31900000       6.81000000       9.75700000
