45
XYZ file of cluster: frame_1500_2c7bb.c1aeb.0 - created by MolEdiTo
 O       5.69700000      19.75700000       6.81800000
 H       5.46900000      19.78200000       5.88900000
 H       5.11300000      20.40900000       7.28000000
 O       9.85500000      20.18200000       3.01500000
 H       9.60000000      19.56600000       2.28100000
 H       9.81800000      19.70000000       3.85600000
 O       6.88100000      18.33000000       1.00600000
 H       7.87500000      18.48700000       0.96400000
 H       6.73200000      17.35500000       1.18000000
 O       9.72000000      18.97900000       5.61100000
 H       9.40200000      18.91400000       6.50300000
 H      10.68300000      19.23300000       5.68800000
 O       9.52600000      18.11400000       0.90000000
 H       9.99800000      18.44500000       0.07300000
 H       9.95100000      17.22700000       0.95100000
 O       3.82900000      19.20900000       1.68700000
 H       4.01400000      20.03000000       1.14300000
 H       4.72100000      18.89900000       1.82700000
 O       6.61700000      19.00800000       3.58000000
 H       6.65400000      18.57700000       2.69200000
 H       7.06900000      18.37600000       4.18300000
 O       8.15200000      23.16500000       6.44600000
 H       7.34300000      22.74300000       6.15100000
 H       8.48600000      22.64300000       7.26100000
 O       5.01200000      25.01400000       6.25400000
 H       5.19200000      25.07000000       7.24400000
 H       4.08100000      24.81500000       6.38900000
 O       7.86000000      25.60400000       5.00000000
 H       7.28500000      26.30500000       5.45800000
 H       7.94300000      24.84500000       5.59300000
 O       4.67700000      23.00700000       4.12200000
 H       5.42300000      22.47500000       3.76000000
 H       5.16600000      23.67000000       4.58900000
 O       4.82300000      23.54700000       0.80600000
 H       4.56600000      24.10000000       1.53000000
 H       4.62400000      24.07700000       0.00000000
 O       9.29300000      25.35900000       2.64300000
 H       9.32600000      24.32100000       2.71100000
 H       8.84100000      25.54400000       3.47900000
 O       5.88500000      25.58000000       2.64000000
 H       5.90100000      25.87600000       3.61500000
 H       6.59800000      24.83700000       2.63100000
 O      10.59200000      24.88400000       6.75900000
 H      10.65700000      24.75200000       7.72100000
 H       9.78300000      24.43700000       6.46200000
