114
XYZ file of cluster: frame_11000_9a375.706f4.c2220 - created by MolEdiTo
 O      25.39400000      25.25400000      30.63300000
 H      24.49900000      24.90800000      30.37900000
 H      25.68400000      25.92700000      30.02600000
 O      29.47900000      26.07400000      25.99400000
 H      29.00800000      25.97400000      25.14400000
 H      28.84000000      25.56800000      26.49900000
 O      20.59900000      19.53000000      28.65700000
 H      21.47900000      19.46500000      28.17300000
 H      20.01000000      20.17300000      28.30900000
 O      28.20200000      19.13800000      27.63000000
 H      28.02200000      18.98700000      28.48900000
 H      27.72700000      18.56300000      27.11900000
 O      26.89600000      21.43600000      26.78700000
 H      27.08600000      21.63400000      25.76300000
 H      27.25700000      20.54600000      26.92600000
 O      27.74200000      23.07400000      28.67400000
 H      27.45100000      22.29200000      28.30200000
 H      27.53000000      23.71600000      27.98100000
 O      24.08700000      19.04700000      27.54800000
 H      24.92200000      18.74800000      27.97200000
 H      24.21200000      18.79900000      26.65500000
 O      26.93500000      15.22600000      30.58500000
 H      26.60600000      15.92100000      29.96700000
 H      26.57300000      14.49800000      30.03600000
 O      29.75200000      18.60100000      30.56600000
 H      29.39300000      17.71800000      30.82500000
 H      29.18100000      19.14600000      31.05900000
 O      24.46400000      26.47600000      26.01400000
 H      24.12800000      26.86100000      26.81900000
 H      23.71200000      25.95300000      25.79300000
 O      25.82700000      18.60200000      30.60600000
 H      25.59800000      18.11100000      31.37300000
 H      25.73800000      19.50500000      30.92100000
 O      25.38400000      21.66700000      29.90900000
 H      26.14500000      22.28400000      29.81900000
 H      24.67900000      22.16600000      29.38900000
 O      24.23600000      21.63300000      26.81800000
 H      24.14000000      20.72400000      27.10600000
 H      25.19900000      21.66200000      26.84400000
 O      22.82200000      24.02500000      30.37900000
 H      22.26800000      24.61800000      29.88000000
 H      22.15500000      23.29700000      30.40300000
 O      30.31200000      23.06400000      27.49700000
 H      30.91100000      22.25000000      27.56100000
 H      29.53600000      22.62300000      27.89800000
 O      26.98700000      24.65800000      26.37900000
 H      26.70900000      24.25900000      25.55000000
 H      26.50800000      25.48800000      26.39300000
 O      29.00900000      25.84700000      28.87300000
 H      29.77400000      25.70700000      28.32300000
 H      28.50800000      24.97900000      28.86900000
 O      28.86800000      22.09100000      35.48000000
 H      29.02900000      22.84500000      34.87400000
 H      28.91000000      21.35100000      34.79700000
 O      28.18600000      25.68800000      36.78900000
 H      29.03500000      25.73100000      36.31800000
 H      27.52400000      25.91800000      36.07800000
 O      25.55700000      16.12200000      34.31900000
 H      25.90500000      15.78400000      33.45200000
 H      24.61900000      16.30800000      34.08500000
 O      23.67000000      20.29300000      36.57500000
 H      24.58700000      20.03700000      36.69600000
 H      23.69300000      21.24600000      36.34600000
 O      25.88500000      25.41500000      35.18000000
 H      24.99900000      25.41500000      35.53900000
 H      25.69400000      25.39800000      34.22100000
 O      25.73600000      17.14700000      37.27500000
 H      25.79300000      17.36000000      36.29300000
 H      25.55600000      18.06400000      37.63300000
 O      20.44700000      19.90700000      36.82400000
 H      20.46200000      19.18700000      37.51100000
 H      21.30000000      20.29700000      36.94100000
 O      23.56300000      18.36500000      35.13300000
 H      23.81800000      17.91900000      35.99200000
 H      23.29000000      19.26400000      35.33400000
 O      26.77700000      20.89800000      36.92100000
 H      27.59000000      21.25700000      36.45200000
 H      26.31900000      21.73600000      37.03000000
 O      23.26000000      25.43700000      36.04000000
 H      23.60200000      25.40500000      36.95700000
 H      22.62000000      26.17600000      35.92400000
 O      30.36000000      26.06100000      35.18900000
 H      31.09500000      25.61200000      35.70300000
 H      30.72100000      27.00100000      34.99800000
 O      22.10600000      20.46500000      33.85600000
 H      23.07500000      20.56200000      33.60400000
 H      21.93900000      19.47200000      33.73700000
 O      29.32600000      24.10600000      33.56700000
 H      28.72700000      24.72100000      33.05900000
 H      29.76500000      24.65300000      34.18500000
 O      21.12000000      22.76100000      35.19500000
 H      21.29900000      22.57900000      36.15700000
 H      21.09300000      21.80900000      34.84900000
 O      25.20700000      20.24500000      33.72100000
 H      24.88200000      20.77400000      34.42600000
 H      25.35000000      20.88800000      32.93300000
 O      30.77600000      16.06900000      35.16600000
 H      29.87600000      16.62800000      35.06500000
 H      31.03300000      15.64300000      34.32300000
 O      26.44900000      18.32500000      35.41300000
 H      26.60400000      19.09000000      36.04300000
 H      25.76700000      18.77400000      34.85900000
 O      23.22200000      16.54500000      33.20000000
 H      23.49200000      17.28400000      33.79200000
 H      22.30000000      16.77100000      33.14600000
 O      24.14100000      22.59600000      35.35000000
 H      23.43500000      23.10300000      34.91200000
 H      24.40200000      23.29500000      36.04200000
 O      28.40300000      17.22200000      34.30000000
 H      27.69300000      17.63600000      34.93100000
 H      27.99200000      16.50800000      33.91000000
 O      29.70300000      21.46500000      32.49200000
 H      29.17800000      22.29700000      32.45100000
 H      30.32200000      21.48500000      31.73700000
