114
XYZ file of cluster: frame_11000_4ab41.c923.9de03 - created by MolEdiTo
 O      16.40500000       8.41500000      30.55700000
 H      16.19700000       8.29900000      31.52900000
 H      16.35900000       9.39100000      30.54600000
 O      18.07200000       6.31100000      26.37900000
 H      17.74400000       7.21100000      26.48700000
 H      18.83900000       6.28300000      26.90200000
 O      16.80200000       1.67400000      24.36400000
 H      17.51800000       2.33900000      24.12000000
 H      16.57500000       2.00100000      25.27300000
 O      20.27300000       4.71300000      30.45300000
 H      21.20900000       4.85900000      30.85100000
 H      19.75000000       4.96900000      31.25800000
 O      11.15800000       9.24900000      29.48300000
 H      11.56300000       8.33200000      29.43300000
 H      10.71100000       9.07800000      30.35500000
 O      21.01300000       7.48000000      25.36000000
 H      20.96100000       8.50500000      25.33100000
 H      21.33100000       7.35100000      26.26400000
 O      14.14400000       9.10500000      23.23600000
 H      15.00800000       9.60300000      23.30900000
 H      13.58300000       9.49300000      23.98300000
 O      17.29400000       2.53600000      29.60900000
 H      17.09300000       3.50400000      29.88400000
 H      18.27100000       2.55500000      29.38100000
 O      19.62200000      10.39400000      23.91900000
 H      20.40100000      10.82000000      23.48000000
 H      19.65200000       9.60900000      23.30300000
 O      13.31300000       5.72200000      25.89500000
 H      13.59300000       6.50900000      26.43400000
 H      13.78700000       4.92600000      26.16100000
 O      15.98400000       4.41400000      25.89500000
 H      16.86700000       4.94000000      26.02500000
 H      15.78600000       4.63700000      24.97200000
 O      13.85900000       5.62900000      30.43000000
 H      14.58900000       6.24400000      30.18900000
 H      14.35800000       4.90400000      30.72500000
 O      14.20400000       7.76700000      27.59300000
 H      15.09500000       7.51100000      27.86500000
 H      13.89000000       8.28800000      28.33100000
 O      10.79500000       6.77700000      27.16100000
 H      10.83000000       6.80300000      28.17900000
 H      11.00900000       5.83400000      26.96300000
 O      14.87400000       6.29700000      23.36500000
 H      14.75800000       7.25100000      23.11400000
 H      14.25400000       6.08900000      24.10900000
 O      18.56400000       6.24600000      23.65100000
 H      18.88300000       6.38400000      24.59400000
 H      18.50300000       5.24200000      23.62600000
 O      16.53600000       8.83100000      26.34700000
 H      15.54500000       8.85700000      26.45500000
 H      16.74800000       9.21100000      25.50200000
 O      17.39000000       9.05300000      21.34200000
 H      17.10300000       9.28500000      22.25800000
 H      18.26600000       8.50800000      21.52800000
 O      11.20700000       6.29100000      29.87300000
 H      10.71400000       5.85900000      30.63200000
 H      12.12000000       5.88800000      30.06500000
 O      19.11100000       3.69100000      21.25500000
 H      19.33800000       4.16500000      20.44800000
 H      18.08600000       3.95200000      21.23500000
 O      18.88300000       3.59100000      24.41100000
 H      19.54600000       3.37100000      23.71600000
 H      19.33900000       3.27900000      25.32700000
 O      11.82900000       3.13900000      21.11300000
 H      12.06100000       2.19600000      21.39500000
 H      12.31900000       3.72200000      21.71100000
 O      18.78800000       9.48500000      27.78900000
 H      17.89400000       9.55700000      27.36100000
 H      18.94000000       8.62300000      28.11900000
 O      10.12200000       7.51700000      24.27000000
 H      10.43200000       7.52800000      25.18800000
 H      10.70200000       8.14200000      23.76200000
 O      21.14300000       2.51600000      26.09500000
 H      21.65500000       1.74600000      26.44800000
 H      21.07700000       2.42600000      25.06000000
 O      19.92800000       6.92900000      28.91600000
 H      20.06900000       6.18700000      29.54100000
 H      20.80800000       7.33700000      28.68000000
 O      10.58900000       4.01500000      27.10000000
 H      10.62200000       3.77500000      26.15000000
 H       9.69300000       3.71100000      27.45900000
 O      16.44400000       2.62000000      21.34800000
 H      16.95400000       1.82200000      21.13600000
 H      15.98000000       2.43900000      22.21300000
 O      12.99500000       2.60400000      29.09900000
 H      13.17300000       3.00400000      28.19800000
 H      12.53800000       1.77700000      28.82400000
 O      16.47100000       6.51800000      21.26000000
 H      15.99000000       6.04000000      22.04500000
 H      16.54100000       7.51000000      21.42200000
 O      15.70700000       1.85200000      26.84500000
 H      16.52900000       1.62100000      27.30700000
 H      15.74000000       2.84000000      26.92900000
 O      19.74500000       2.55000000      28.61200000
 H      20.10900000       2.83900000      27.71500000
 H      20.38600000       3.06600000      29.15600000
 O      11.08100000       8.10900000      21.67200000
 H      11.14900000       8.83700000      21.00500000
 H      10.28700000       7.62200000      21.44700000
 O      21.25900000       2.14000000      23.10200000
 H      22.15400000       2.03600000      22.69900000
 H      20.83800000       2.27000000      22.25200000
 O      19.98100000       8.25300000      22.01200000
 H      20.92000000       8.02100000      22.10700000
 H      19.48600000       7.48400000      22.37200000
 O      16.53400000       6.29600000      29.01200000
 H      17.53900000       6.24400000      28.90500000
 H      16.48600000       7.04900000      29.61900000
 O      16.74200000      10.34300000      23.76000000
 H      16.10200000      10.88000000      24.28100000
 H      17.41400000      11.04700000      23.68200000
 O      11.54600000       4.91100000      23.93500000
 H      11.27000000       5.87700000      23.82600000
 H      12.35000000       4.98400000      24.50100000
