108
XYZ file of cluster: frame_11000_9a375.46d00.9f400 - created by MolEdiTo
 O      28.88000000      18.27400000      24.74200000
 H      29.75900000      18.47200000      25.07900000
 H      29.02500000      18.38500000      23.79600000
 O      30.56000000      15.14300000      28.51500000
 H      29.98800000      14.71300000      27.78900000
 H      31.49800000      14.92200000      28.17900000
 O      20.68100000      19.35200000      24.67900000
 H      21.64400000      19.59900000      24.77700000
 H      20.64400000      18.43900000      24.98300000
 O      26.93500000      15.22600000      30.58500000
 H      26.60600000      15.92100000      29.96700000
 H      26.57300000      14.49800000      30.03600000
 O      30.18800000      18.64300000      22.08900000
 H      30.20100000      17.67600000      21.72200000
 H      31.14700000      18.75900000      21.96200000
 O      23.41100000      14.78500000      26.43700000
 H      22.66400000      14.27300000      26.17400000
 H      23.16500000      15.71000000      26.09900000
 O      22.40800000      17.06500000      25.47400000
 H      22.42700000      17.99100000      25.07900000
 H      21.58200000      16.99700000      26.06000000
 O      23.37300000      19.08000000      23.96700000
 H      23.35900000      18.78200000      23.01900000
 H      24.35900000      19.12300000      24.13900000
 O      28.75300000      11.47300000      30.04400000
 H      27.92800000      11.96400000      29.77400000
 H      28.90500000      11.04400000      29.18800000
 O      25.17000000      20.81600000      21.15300000
 H      24.37000000      21.18900000      20.75000000
 H      25.77300000      21.62600000      21.10400000
 O      23.25300000      18.31800000      21.27200000
 H      23.88800000      18.94900000      20.84900000
 H      22.49100000      18.02900000      20.62600000
 O      26.89600000      21.43600000      26.78700000
 H      27.08600000      21.63400000      25.76300000
 H      27.25700000      20.54600000      26.92600000
 O      28.78200000      12.70900000      22.34400000
 H      27.92800000      12.33000000      22.69500000
 H      29.44200000      12.02100000      22.50700000
 O      24.08700000      19.04700000      27.54800000
 H      24.92200000      18.74800000      27.97200000
 H      24.21200000      18.79900000      26.65500000
 O      24.23600000      21.63300000      26.81800000
 H      24.14000000      20.72400000      27.10600000
 H      25.19900000      21.66200000      26.84400000
 O      27.18300000      18.54100000      21.64800000
 H      26.55400000      19.30500000      21.64200000
 H      26.97600000      17.99100000      20.84600000
 O      26.33000000      18.86000000      25.72200000
 H      27.30700000      18.75300000      25.40600000
 H      25.85700000      17.99200000      25.66600000
 O      29.29800000      10.39700000      27.56100000
 H      29.96700000       9.60000000      27.42900000
 H      29.90700000      11.21900000      27.65600000
 O      25.82700000      18.60200000      30.60600000
 H      25.59800000      18.11100000      31.37300000
 H      25.73800000      19.50500000      30.92100000
 O      22.92500000      11.60200000      22.09600000
 H      22.77000000      12.46800000      21.64800000
 H      22.84500000      11.00900000      21.24100000
 O      24.47300000      11.58300000      25.86500000
 H      23.87600000      10.89700000      25.40500000
 H      23.98400000      11.84000000      26.71200000
 O      29.51400000      13.74900000      26.19400000
 H      29.19300000      14.31000000      25.43800000
 H      30.48000000      13.74400000      26.01500000
 O      20.59900000      19.53000000      28.65700000
 H      21.47900000      19.46500000      28.17300000
 H      20.01000000      20.17300000      28.30900000
 O      27.58100000      13.83200000      28.18600000
 H      28.36600000      13.69300000      27.61400000
 H      27.15700000      14.58000000      27.79500000
 O      29.75200000      18.60100000      30.56600000
 H      29.39300000      17.71800000      30.82500000
 H      29.18100000      19.14600000      31.05900000
 O      25.80200000      11.36500000      28.61200000
 H      25.67800000      10.55900000      28.04800000
 H      26.58300000      11.83400000      28.33600000
 O      30.75700000      10.99100000      23.87000000
 H      31.67800000      10.77700000      23.71100000
 H      30.70700000      11.87800000      24.27700000
 O      25.98400000      12.71100000      23.56500000
 H      25.91300000      12.73800000      24.55800000
 H      25.56300000      11.83400000      23.38200000
 O      24.09200000      14.89500000      29.56400000
 H      23.83000000      15.04600000      28.62400000
 H      23.57900000      15.45700000      30.10900000
 O      22.61700000       9.95600000      24.30500000
 H      22.55600000       9.13100000      23.73500000
 H      22.94700000      10.68300000      23.63100000
 O      28.20200000      19.13800000      27.63000000
 H      28.02200000      18.98700000      28.48900000
 H      27.72700000      18.56300000      27.11900000
 O      29.34400000      15.52200000      23.84200000
 H      30.20800000      15.37800000      23.46900000
 H      28.75200000      14.94400000      23.36800000
 O      26.22100000      15.39000000      26.38200000
 H      26.29200000      15.60000000      25.46100000
 H      25.33000000      15.08200000      26.46600000
 O      20.67100000      15.14600000      23.53500000
 H      21.55700000      15.21900000      23.33100000
 H      20.52800000      15.49100000      24.46600000
 O      26.70800000      16.77900000      23.53800000
 H      26.61700000      17.51500000      22.91400000
 H      27.68900000      16.52800000      23.45400000
 O      24.02000000      14.42500000      22.53800000
 H      24.65800000      15.16600000      22.76700000
 H      24.33900000      13.56300000      22.96200000
