120
XYZ file of cluster: frame_11000_25043.9e664.4af82 - created by MolEdiTo
 O       7.97300000      23.16900000      11.87600000
 H       7.13800000      22.78600000      12.15900000
 H       8.06000000      24.05800000      12.33400000
 O      12.99500000      26.92000000      13.79100000
 H      12.98100000      27.64600000      14.46700000
 H      12.19200000      27.17200000      13.31000000
 O      15.74700000      28.40600000      10.57100000
 H      15.63200000      27.99000000       9.71000000
 H      15.47600000      27.67900000      11.18100000
 O      13.17200000      22.57300000      20.44300000
 H      13.10500000      21.65000000      20.10600000
 H      12.50900000      22.60000000      21.24500000
 O      10.18400000      22.05800000      21.72600000
 H       9.25200000      21.78000000      21.78300000
 H      10.55000000      21.50800000      20.98200000
 O       7.43000000      25.68600000      18.16600000
 H       6.56700000      25.96100000      18.59100000
 H       7.74800000      24.90400000      18.64300000
 O      15.72400000      21.25200000      15.94500000
 H      14.96100000      20.71000000      16.24300000
 H      16.17400000      21.38500000      16.85800000
 O      14.81500000      23.06100000      11.03800000
 H      14.02100000      22.53100000      11.15200000
 H      15.23300000      23.05400000      11.98200000
 O       5.83100000      27.78500000      11.16500000
 H       5.02400000      27.96200000      10.59800000
 H       5.57400000      27.06600000      11.74600000
 O      13.00000000      23.88900000      12.84200000
 H      13.09400000      23.52900000      13.71600000
 H      13.10800000      24.89600000      12.96700000
 O      15.57000000      24.35000000      15.15300000
 H      14.82000000      23.85900000      15.45200000
 H      15.69500000      25.07500000      15.76500000
 O      13.32900000      22.98700000      15.45500000
 H      13.99500000      22.20600000      15.42800000
 H      12.56400000      22.41700000      15.64000000
 O      16.28400000      21.82800000      19.30400000
 H      17.05800000      22.19900000      19.85000000
 H      15.46100000      21.90800000      19.80500000
 O       9.56700000      20.85000000      12.09700000
 H      10.44600000      21.25900000      12.05700000
 H       9.03200000      21.19100000      11.34400000
 O       9.08400000      25.44700000      12.95300000
 H       8.62500000      26.27600000      12.69100000
 H       8.53000000      25.20800000      13.75800000
 O      11.70700000      30.41300000      17.00000000
 H      12.44400000      29.80000000      17.13000000
 H      12.01900000      31.25200000      17.44400000
 O       6.09500000      27.03600000      20.38100000
 H       6.28600000      28.00000000      20.44700000
 H       6.30200000      26.68200000      21.23900000
 O      13.62600000      25.78300000      19.75000000
 H      13.49400000      24.85900000      19.99100000
 H      12.63000000      26.05100000      19.68400000
 O       5.84700000      29.59600000      21.14700000
 H       5.04300000      29.66300000      20.58700000
 H       6.12800000      30.53600000      21.41000000
 O      15.30900000      27.97700000      20.29700000
 H      14.73500000      27.33200000      19.87400000
 H      15.38200000      27.78900000      21.22300000
 O      10.91300000      26.97000000      19.48700000
 H      10.10000000      26.42700000      19.33100000
 H      10.77900000      27.79400000      19.00100000
 O       9.38100000      27.66400000      15.41300000
 H       9.89700000      28.37000000      15.02800000
 H      10.06300000      26.96700000      15.64800000
 O      11.24400000      29.37300000      13.50700000
 H      11.82800000      30.06700000      13.80600000
 H      10.78100000      29.82100000      12.75800000
 O      12.33100000      21.15900000      11.47800000
 H      12.24500000      21.89500000      12.04800000
 H      13.05500000      20.58400000      11.80600000
 O      10.37300000      25.03200000      16.48900000
 H      10.12100000      24.22000000      15.92000000
 H       9.52800000      25.46600000      16.42500000
 O      15.93300000      24.91600000      18.29500000
 H      15.38000000      24.34600000      17.77100000
 H      15.35300000      25.07500000      19.05200000
 O       9.08100000      29.11100000      17.88900000
 H       9.08700000      28.41800000      17.17200000
 H       9.78100000      29.64100000      17.50400000
 O       6.12600000      23.33300000      13.39200000
 H       6.02800000      23.63200000      14.32900000
 H       5.22000000      23.53400000      13.04100000
 O       6.31800000      30.00600000      13.82900000
 H       6.18300000      29.10100000      14.00800000
 H       5.48200000      30.44900000      14.13800000
 O      13.81000000      28.25500000      16.72100000
 H      14.69500000      28.26300000      16.28300000
 H      13.60600000      27.31500000      16.79400000
 O       7.30400000      25.48400000      15.19800000
 H       7.41900000      25.60300000      16.12800000
 H       6.69900000      26.22200000      14.92900000
 O       9.05500000      22.26500000      17.93900000
 H       8.26400000      21.82100000      17.47000000
 H       9.52700000      21.46200000      18.31100000
 O       9.89200000      24.24100000      19.75700000
 H       9.59200000      23.52900000      20.39700000
 H       9.68600000      23.85400000      18.86500000
 O      15.85700000      28.20700000      14.78800000
 H      16.15700000      27.70400000      13.99800000
 H      15.70700000      29.17900000      14.59300000
 O       9.93100000      26.39600000      11.12900000
 H      10.11900000      25.56500000      10.58900000
 H       9.79700000      25.96200000      11.99100000
 O       6.38800000      23.53000000      20.54300000
 H       5.87600000      24.20700000      20.95900000
 H       6.92100000      23.08800000      21.24800000
 O       4.80300000      21.03300000      19.49500000
 H       5.23200000      21.86400000      19.72300000
 H       5.55500000      20.42500000      19.27900000
 O      10.44200000      28.67500000      21.93500000
 H      10.21400000      28.21700000      21.07600000
 H      10.47800000      27.81100000      22.49000000
 O      13.02700000      25.61900000      16.64700000
 H      13.27200000      24.79500000      16.13200000
 H      12.11900000      25.47800000      17.07300000
 O      10.38900000      21.85200000      15.28300000
 H       9.93900000      21.69100000      14.40000000
 H       9.83700000      21.35000000      15.86800000
