120
XYZ file of cluster: frame_17000_264ec.c64e9.c81fc - created by MolEdiTo
 O       7.20200000      25.53600000      26.42800000
 H       6.48600000      26.16100000      26.24500000
 H       7.86400000      26.23100000      26.67800000
 O      10.61400000      29.05600000      28.96400000
 H      11.42200000      28.47900000      28.85700000
 H       9.97500000      28.47800000      28.44600000
 O      12.92400000      27.24700000      27.62400000
 H      13.26500000      26.49400000      27.12100000
 H      13.60500000      27.92500000      27.79600000
 O      14.76200000      29.80700000      29.84200000
 H      14.61200000      30.76900000      29.67700000
 H      14.74300000      29.76100000      30.87000000
 O      13.45400000      30.36600000      26.69800000
 H      12.89500000      29.57000000      26.68100000
 H      13.23500000      30.78700000      27.61600000
 O       7.50600000      28.35500000      28.24400000
 H       7.05300000      28.35800000      27.36500000
 H       6.82700000      28.01700000      28.80800000
 O      15.67000000      28.04100000      28.18000000
 H      16.41100000      28.22000000      27.60900000
 H      15.51800000      28.80500000      28.80600000
 O       9.87900000      27.46800000      26.33400000
 H       9.25300000      28.27100000      26.16700000
 H      10.68900000      27.61400000      25.82900000
 O       5.36400000      28.23400000      30.14700000
 H       5.09000000      28.68100000      30.93000000
 H       4.97900000      28.78900000      29.48500000
 O       7.73000000      26.54200000      32.60800000
 H       7.88800000      25.74500000      32.08200000
 H       6.77200000      26.54900000      32.61000000
 O       9.81400000      28.00200000      34.15900000
 H       9.66200000      28.82700000      33.58300000
 H       9.11400000      27.36900000      33.85600000
 O       6.94500000      30.10700000      34.02300000
 H       6.71400000      30.88700000      33.41600000
 H       7.91900000      30.20800000      34.21300000
 O      11.57800000      28.79600000      36.46300000
 H      10.99800000      28.85000000      35.68500000
 H      11.10700000      28.08200000      36.91100000
 O       6.71500000      28.26900000      36.24000000
 H       6.68700000      28.78000000      35.33300000
 H       7.59300000      27.78700000      36.37700000
 O      14.67100000      27.03600000      32.37000000
 H      14.98500000      27.47700000      31.57600000
 H      13.96100000      27.60400000      32.73400000
 O      14.34900000      28.36900000      36.27000000
 H      14.30300000      27.43600000      36.52100000
 H      13.52100000      28.84300000      36.58500000
 O      16.57100000      29.98200000      35.95400000
 H      15.66700000      29.66400000      36.14200000
 H      16.35800000      30.74900000      35.38800000
 O      12.06500000      26.29100000      34.22700000
 H      11.61700000      27.17600000      33.98600000
 H      11.60200000      25.63800000      33.66200000
 O      13.15400000      29.15800000      33.81000000
 H      12.82800000      30.03500000      34.14300000
 H      13.58100000      28.82900000      34.61800000
 O       9.59600000      30.60400000      32.74700000
 H       8.95200000      31.11100000      32.29200000
 H       9.73300000      29.93700000      32.00700000
 O      16.14500000      26.10700000      34.62400000
 H      15.43800000      25.88100000      35.28600000
 H      15.79900000      26.20700000      33.71800000
 O       9.48500000      32.69700000      27.72900000
 H      10.35000000      32.32500000      28.02000000
 H       9.50600000      33.64200000      28.06700000
 O      15.54900000      34.08700000      26.70700000
 H      15.84100000      34.90900000      26.26200000
 H      15.24300000      33.58000000      25.99100000
 O       6.95900000      32.36300000      29.10100000
 H       7.68600000      32.46200000      28.46800000
 H       6.77000000      31.43800000      29.08800000
 O       9.77900000      35.10100000      29.42800000
 H       9.12100000      35.69200000      28.88900000
 H       9.43800000      35.19400000      30.40900000
 O      14.03500000      33.54400000      28.85200000
 H      14.64400000      33.80800000      28.12900000
 H      13.59200000      34.37100000      29.16100000
 O      16.78200000      36.49000000      28.21400000
 H      16.82800000      37.37700000      27.79900000
 H      15.84700000      36.20100000      28.05900000
 O       5.92200000      34.97900000      29.30200000
 H       5.97500000      33.99100000      29.37500000
 H       5.43800000      35.24300000      30.14100000
 O      13.51900000      36.21800000      29.34900000
 H      12.82200000      36.91300000      29.16800000
 H      14.22500000      36.75600000      29.90000000
 O       7.22500000      34.76100000      35.90600000
 H       8.11000000      34.30200000      35.86700000
 H       6.61000000      34.04600000      36.18400000
 O      15.33600000      36.74600000      33.51100000
 H      15.97200000      36.19100000      33.13700000
 H      15.53400000      36.93300000      34.49900000
 O      13.76000000      34.28400000      33.98200000
 H      14.23600000      35.07400000      34.43300000
 H      12.94800000      34.81400000      33.62200000
 O      15.48300000      35.16300000      36.03900000
 H      14.93200000      35.62000000      36.70700000
 H      16.27500000      35.51800000      36.02500000
 O       5.80700000      36.71400000      37.30000000
 H       6.41400000      36.12400000      36.71700000
 H       5.42300000      37.31200000      36.61700000
 O      16.26500000      33.07600000      33.74900000
 H      16.38100000      33.62000000      33.01700000
 H      15.45200000      33.55200000      34.09400000
 O      11.20000000      35.15100000      33.88300000
 H      10.70600000      34.32200000      34.01000000
 H      10.48200000      35.79000000      33.61100000
 O       9.55700000      32.81000000      35.50000000
 H       9.93300000      32.95300000      34.59000000
 H      10.23600000      33.19200000      36.11200000
 O      12.54600000      36.40500000      36.30400000
 H      11.72600000      36.76500000      36.63800000
 H      12.62700000      36.64400000      35.37900000
 O       8.30800000      35.22200000      33.23600000
 H       7.41600000      35.06700000      32.82300000
 H       8.01900000      35.56200000      34.12700000
 O      11.69200000      33.54900000      36.70900000
 H      12.17100000      34.13800000      36.08700000
 H      12.10300000      33.70500000      37.55100000
