105
XYZ file of cluster: frame_17000_48f00.537f.c7062 - created by MolEdiTo
 O      18.59500000       2.88600000      26.89800000
 H      18.45600000       2.64700000      25.97600000
 H      18.29600000       3.79200000      27.00300000
 O      18.22200000      10.04900000      26.58600000
 H      17.99200000      10.38000000      25.68700000
 H      17.81100000       9.16100000      26.52100000
 O      15.54900000       2.64900000      26.70700000
 H      15.84100000       3.47100000      26.26200000
 H      15.24300000       2.14200000      25.99100000
 O      16.27500000       8.00600000      28.90800000
 H      16.28400000       8.88300000      28.80200000
 H      17.18500000       7.63500000      28.64700000
 O      14.22800000       6.76200000      26.96600000
 H      13.38700000       6.87700000      27.35000000
 H      14.84000000       7.16300000      27.66200000
 O      12.54200000       9.35700000      26.20200000
 H      12.05800000      10.15100000      26.46100000
 H      12.58300000       8.85000000      27.03700000
 O      14.03500000       2.10600000      28.85200000
 H      14.64400000       2.37000000      28.12900000
 H      13.59200000       2.93300000      29.16100000
 O      11.37300000       6.06800000      28.68000000
 H      10.94100000       6.07100000      27.77900000
 H      10.95400000       5.28900000      29.15100000
 O      16.78200000       5.05200000      28.21400000
 H      16.82800000       5.93900000      27.79900000
 H      15.84700000       4.76300000      28.05900000
 O      12.45300000       8.54100000      28.73500000
 H      11.97600000       7.68800000      28.76800000
 H      13.19800000       8.33200000      29.32400000
 O      17.20600000       2.02600000      29.19100000
 H      16.44100000       1.85200000      28.57800000
 H      17.70600000       2.55400000      28.54100000
 O      14.17800000       7.40100000      30.70000000
 H      14.77700000       7.66500000      29.93800000
 H      14.71000000       6.73700000      31.15200000
 O      10.07100000      10.11500000      28.72400000
 H       9.48000000       9.46100000      28.21400000
 H      10.96300000       9.81400000      28.68700000
 O      21.27000000       0.81600000      28.04700000
 H      22.08000000       0.67200000      27.48700000
 H      20.63600000       0.90300000      27.30700000
 O      18.46700000       7.21000000      26.68500000
 H      18.81900000       6.53100000      27.32500000
 H      19.30400000       7.52800000      26.21100000
 O      18.94400000       8.56800000      29.56300000
 H      19.37600000       8.91700000      30.39600000
 H      19.51000000       8.97600000      28.91000000
 O      13.51900000       4.78000000      29.34900000
 H      12.82200000       5.47500000      29.16800000
 H      14.22500000       5.31800000      29.90000000
 O      15.33600000       5.30800000      33.51100000
 H      15.97200000       4.75300000      33.13700000
 H      15.53400000       5.49500000      34.49900000
 O      13.76000000       2.84600000      33.98200000
 H      14.23600000       3.63600000      34.43300000
 H      12.94800000       3.37600000      33.62200000
 O      13.27500000       7.55400000      34.73100000
 H      13.47500000       7.67300000      33.76200000
 H      12.70500000       8.38600000      35.06100000
 O      11.38200000       9.38700000      35.21700000
 H      10.89000000       9.09200000      36.04100000
 H      11.63300000      10.34300000      35.43400000
 O      15.90800000       9.42600000      34.50300000
 H      16.76100000       9.61100000      34.89400000
 H      15.90500000       8.46500000      34.45700000
 O      14.21700000       7.78600000      37.55700000
 H      13.96000000       7.25700000      36.72100000
 H      15.13700000       8.13900000      37.29900000
 O      15.48300000       3.72500000      36.03900000
 H      14.93200000       4.18200000      36.70700000
 H      16.27500000       4.08000000      36.02500000
 O      17.75800000       4.52000000      32.40100000
 H      18.29900000       3.76000000      32.29900000
 H      17.33600000       4.59600000      31.51000000
 O      16.90400000       6.16900000      36.54100000
 H      17.60300000       5.97800000      37.15800000
 H      17.24300000       6.41800000      35.69600000
 O      18.10500000       6.97100000      33.78200000
 H      18.77600000       6.19300000      33.71900000
 H      17.96100000       7.27500000      32.86800000
 O      16.26500000       1.63800000      33.74900000
 H      16.38100000       2.18200000      33.01700000
 H      15.45200000       2.11400000      34.09400000
 O      18.58000000       8.95800000      36.24000000
 H      18.78900000       8.01900000      36.05800000
 H      19.44000000       9.27900000      36.59100000
 O      19.54300000       2.48000000      32.92000000
 H      19.13000000       1.70100000      32.56600000
 H      20.39900000       2.47200000      32.51300000
 O      11.20000000       3.71300000      33.88300000
 H      10.70600000       2.88400000      34.01000000
 H      10.48200000       4.35200000      33.61100000
 O      18.97200000       1.74400000      36.95300000
 H      18.54100000       0.85500000      37.14700000
 H      18.74400000       1.99900000      36.06600000
 O      12.54600000       4.96700000      36.30400000
 H      11.72600000       5.32700000      36.63800000
 H      12.62700000       5.20600000      35.37900000
 O      20.44200000       5.44000000      33.97400000
 H      19.84800000       4.68500000      33.79700000
 H      21.13600000       5.08500000      34.55900000
 O      11.69200000       2.11100000      36.70900000
 H      12.17100000       2.70000000      36.08700000
 H      12.10300000       2.26700000      37.55100000
