108
XYZ file of cluster: frame_17000_9e62a.537f.9a05f - created by MolEdiTo
 O      29.75500000       8.27900000      28.62500000
 H      30.48100000       7.66600000      28.58800000
 H      29.57900000       8.45300000      27.65900000
 O      26.31400000       1.85400000      26.81000000
 H      26.11900000       0.96000000      27.04600000
 H      26.02400000       1.91200000      25.87500000
 O      29.94800000       6.72100000      21.97800000
 H      30.07900000       6.05400000      22.69100000
 H      29.85300000       7.59800000      22.44000000
 O      20.78200000       7.42300000      25.03100000
 H      21.34600000       7.91100000      25.66200000
 H      20.58600000       8.01000000      24.32100000
 O      23.44900000       4.96300000      26.88700000
 H      24.41600000       4.96800000      26.95300000
 H      23.30100000       4.34600000      27.70600000
 O      27.32700000       6.67000000      20.67200000
 H      28.11000000       6.72100000      21.23100000
 H      27.80000000       6.27900000      19.87900000
 O      22.85000000       3.99000000      21.35800000
 H      22.84400000       3.28600000      22.10900000
 H      23.80200000       4.14100000      21.43100000
 O      27.12300000       9.48900000      28.45700000
 H      26.46900000       9.38800000      27.74400000
 H      26.54400000      10.20000000      28.91200000
 O      22.05900000       2.28800000      30.30900000
 H      22.55100000       1.67300000      30.92600000
 H      21.83800000       1.79300000      29.51700000
 O      21.53700000       4.29200000      24.75800000
 H      21.66700000       5.27900000      24.94700000
 H      22.16300000       3.95000000      25.44200000
 O      25.46700000       7.79700000      22.48600000
 H      26.28200000       7.81200000      22.99800000
 H      25.70000000       7.61000000      21.51800000
 O      29.35600000       6.76600000      25.80700000
 H      28.66800000       6.62300000      25.17100000
 H      29.17400000       6.07000000      26.45500000
 O      27.16600000       5.72600000      24.12300000
 H      27.50200000       4.84700000      23.76200000
 H      26.33000000       5.42800000      24.51300000
 O      25.42400000       8.60900000      26.15300000
 H      25.14600000       7.77400000      26.59900000
 H      24.58400000       8.85200000      25.59400000
 O      23.10300000       9.84000000      24.87600000
 H      22.88100000      10.49200000      25.57700000
 H      22.98000000      10.31700000      24.07500000
 O      26.26700000       5.45800000      27.83300000
 H      25.69000000       5.35700000      28.58000000
 H      26.98800000       5.99600000      28.28000000
 O      25.76400000      10.62700000      23.64400000
 H      26.08500000       9.71600000      23.69400000
 H      24.97200000      10.50800000      23.06800000
 O      23.75300000       4.71600000      29.98100000
 H      23.19100000       5.49500000      30.12600000
 H      23.21800000       3.94500000      30.21000000
 O      21.57800000       1.91700000      22.98600000
 H      20.95000000       2.35000000      23.59900000
 H      22.36400000       1.54200000      23.57800000
 O      21.78100000      10.09600000      29.30900000
 H      22.24700000      10.25600000      28.47500000
 H      21.25200000      10.86000000      29.31100000
 O      23.74300000      10.29000000      21.25200000
 H      23.31400000       9.41200000      21.34700000
 H      23.03100000      11.03100000      21.36400000
 O      28.19300000       3.98800000      26.39500000
 H      27.45000000       4.43000000      26.82200000
 H      28.04200000       3.05800000      26.64800000
 O      22.30800000       7.34800000      21.02900000
 H      23.22100000       7.08200000      20.81900000
 H      21.91900000       6.47300000      21.28300000
 O      23.52800000       2.34400000      25.82900000
 H      23.84200000       1.76600000      25.07100000
 H      24.31100000       2.46000000      26.42200000
 O      27.25700000       2.20000000      29.56900000
 H      27.57500000       1.30700000      29.29500000
 H      27.19900000       2.59100000      28.70300000
 O      22.75900000       7.60300000      27.29200000
 H      23.05300000       7.64100000      28.20100000
 H      22.87700000       6.62000000      26.98700000
 O      29.71300000       9.33400000      23.24200000
 H      29.28300000      10.17100000      22.91500000
 H      30.16800000       9.53700000      24.04700000
 O      28.34900000      10.42300000      25.62800000
 H      27.57600000      10.90500000      25.92900000
 H      28.04200000       9.52400000      25.72500000
 O      26.33300000       1.75100000      24.17900000
 H      26.83900000       1.89600000      23.37900000
 H      26.84600000       0.96200000      24.53800000
 O      30.03800000       3.61500000      28.66500000
 H      29.54800000       4.48800000      28.56600000
 H      29.82400000       3.16600000      27.81300000
 O      28.29500000       6.22700000      29.42900000
 H      27.93200000       6.26800000      30.29400000
 H      28.54900000       7.13600000      29.08200000
 O      25.49400000       4.09600000      21.41000000
 H      25.76600000       3.50600000      22.09400000
 H      26.31200000       4.46000000      21.06600000
 O      24.17200000       6.00300000      24.13800000
 H      23.22900000       6.01100000      23.92100000
 H      24.53200000       6.67500000      23.43500000
 O      28.34700000       3.47400000      22.80700000
 H      28.39000000       3.54500000      21.80000000
 H      29.19700000       3.75100000      23.11900000
 O      29.66800000       1.43500000      26.59700000
 H      30.36300000       0.76700000      26.68900000
 H      28.93900000       1.16000000      25.95700000
 O      21.27000000       0.81600000      28.04700000
 H      22.08000000       0.67200000      27.48700000
 H      20.63600000       0.90300000      27.30700000
