114
XYZ file of cluster: frame_17000_7084.9b56c.996b4 - created by MolEdiTo
 O       3.65900000      23.32600000      25.35000000
 H       4.31400000      22.64100000      25.08600000
 H       3.18000000      23.62500000      24.57300000
 O       8.44200000      23.41100000      23.77600000
 H       8.63400000      24.28500000      24.10800000
 H       9.12300000      23.36500000      23.14000000
 O       1.82300000      24.57100000      30.54200000
 H       1.07400000      24.42400000      31.16100000
 H       2.27400000      23.68200000      30.51100000
 O       7.55100000      29.45900000      20.70100000
 H       7.60000000      29.79900000      19.80100000
 H       7.57000000      30.10500000      21.36000000
 O       5.36400000      28.23400000      30.14700000
 H       5.09000000      28.68100000      30.93000000
 H       4.97900000      28.78900000      29.48500000
 O       9.91300000      25.70600000      20.93900000
 H      10.24600000      24.74900000      20.78200000
 H       9.97600000      25.78100000      21.92200000
 O       6.26100000      22.47100000      29.20800000
 H       5.86600000      21.70600000      29.74200000
 H       6.49100000      22.07800000      28.31600000
 O       3.30600000      29.07700000      25.76500000
 H       3.12500000      29.57100000      26.62500000
 H       2.36400000      28.78900000      25.57600000
 O       9.93300000      22.84300000      21.43600000
 H       9.77400000      21.81300000      21.47000000
 H      10.34200000      22.92700000      20.56500000
 O       3.92000000      23.91600000      28.61800000
 H       4.19100000      24.72600000      27.99100000
 H       4.78100000      23.30500000      28.72500000
 O      10.02800000      22.98100000      27.43000000
 H       9.95300000      23.66600000      28.17800000
 H       9.93800000      22.19000000      28.03800000
 O      10.61400000      29.05600000      28.96400000
 H      11.42200000      28.47900000      28.85700000
 H       9.97500000      28.47800000      28.44600000
 O       9.87900000      27.46800000      26.33400000
 H       9.25300000      28.27100000      26.16700000
 H      10.68900000      27.61400000      25.82900000
 O      10.43700000      22.66000000      30.59500000
 H      11.25400000      22.05100000      30.51700000
 H      10.81600000      23.54600000      30.29300000
 O       1.95400000      28.04300000      21.50900000
 H       1.88200000      27.51000000      20.68100000
 H       2.48700000      28.77200000      21.16200000
 O       5.35200000      21.45700000      21.19200000
 H       5.45100000      22.36800000      21.52400000
 H       4.39000000      21.44800000      21.14100000
 O       3.63400000      25.95700000      26.68400000
 H       3.47100000      25.45400000      25.86300000
 H       3.70700000      26.85300000      26.30000000
 O       3.06000000      23.90000000      22.68500000
 H       2.99200000      22.96600000      22.28900000
 H       3.03000000      24.41700000      21.82900000
 O       2.26700000      27.19100000      29.51400000
 H       2.32400000      26.62600000      28.69900000
 H       2.41100000      26.54100000      30.28900000
 O       5.44300000      27.43300000      20.82600000
 H       5.82800000      26.80100000      21.46600000
 H       6.22100000      27.81700000      20.36300000
 O       7.20200000      25.53600000      26.42800000
 H       6.48600000      26.16100000      26.24500000
 H       7.86400000      26.23100000      26.67800000
 O      11.53800000      23.60100000      24.70600000
 H      11.91300000      24.46400000      24.46100000
 H      10.57300000      23.73700000      24.71400000
 O       2.90000000      29.75300000      28.46000000
 H       2.72600000      30.58800000      28.94600000
 H       2.51800000      29.01600000      29.01200000
 O       9.71700000      26.19000000      23.54400000
 H      10.35400000      26.84100000      23.86100000
 H       8.85500000      26.73300000      23.46500000
 O       5.71500000      23.15100000      23.45200000
 H       5.29500000      24.04000000      23.56200000
 H       6.62400000      23.22100000      23.80000000
 O       7.04800000      27.51700000      23.50300000
 H       6.11900000      27.31100000      23.44100000
 H       7.22800000      27.96100000      22.59700000
 O       2.71000000      21.25000000      22.11800000
 H       2.70500000      20.21600000      22.19700000
 H       1.84600000      21.50500000      22.53600000
 O       7.33600000      20.69000000      24.09300000
 H       7.85100000      21.34900000      23.65500000
 H       7.90100000      20.42900000      24.80500000
 O       5.82500000      28.14700000      26.05400000
 H       6.45500000      28.04300000      25.26400000
 H       4.99500000      28.42200000      25.57600000
 O       1.78400000      21.64100000      26.95800000
 H       2.50900000      22.32900000      26.89600000
 H       1.40300000      21.81400000      27.84000000
 O       6.96300000      25.10900000      21.69600000
 H       6.69000000      24.64600000      20.86800000
 H       7.67400000      24.43900000      21.99600000
 O       8.42200000      29.78800000      25.41500000
 H       7.90300000      30.63200000      25.54400000
 H       9.36300000      30.12800000      25.45800000
 O       4.35800000      27.24600000      23.66100000
 H       3.73100000      26.64500000      23.16600000
 H       3.81300000      28.15200000      23.68800000
 O       0.91400000      25.05500000      27.97200000
 H       1.31400000      24.73800000      28.84500000
 H       1.68300000      24.81000000      27.50800000
 O       7.50600000      28.35500000      28.24400000
 H       7.05300000      28.35800000      27.36500000
 H       6.82700000      28.01700000      28.80800000
 O       7.79600000      24.71700000      29.04800000
 H       7.57200000      24.77600000      28.10700000
 H       7.35200000      23.87900000      29.30500000
 O       9.14200000      20.51700000      26.09800000
 H       9.42900000      21.41900000      26.23400000
 H       9.64900000      20.00300000      26.78600000
 O       6.95500000      22.35400000      26.58900000
 H       7.26800000      22.20800000      25.69700000
 H       7.03200000      23.34700000      26.69000000
