114
XYZ file of cluster: frame_17000_c53f3.4cea.74a79 - created by MolEdiTo
 O      29.35600000       6.76600000      25.80700000
 H      28.66800000       6.62300000      25.17100000
 H      29.17400000       6.07000000      26.45500000
 O      28.75500000       9.85500000      19.01200000
 H      28.02400000      10.04100000      19.61900000
 H      28.52800000      10.15100000      18.08400000
 O      29.94800000       6.72100000      21.97800000
 H      30.07900000       6.05400000      22.69100000
 H      29.85300000       7.59800000      22.44000000
 O      27.16600000       5.72600000      24.12300000
 H      27.50200000       4.84700000      23.76200000
 H      26.33000000       5.42800000      24.51300000
 O      30.15700000       1.01000000      20.66000000
 H      29.45300000       1.05800000      19.94900000
 H      30.65300000       1.86600000      20.64300000
 O      26.45800000      10.33000000      20.54100000
 H      26.18600000      11.28200000      20.68100000
 H      25.63700000       9.81500000      20.86300000
 O      27.74000000       1.95700000      17.72000000
 H      28.68500000       1.97000000      17.39300000
 H      27.67600000       0.98400000      17.89700000
 O      27.32700000       6.67000000      20.67200000
 H      28.11000000       6.72100000      21.23100000
 H      27.80000000       6.27900000      19.87900000
 O      29.47000000       6.05300000      18.47000000
 H      28.94400000       6.16100000      17.64200000
 H      30.33300000       6.41800000      18.29100000
 O      30.52100000       2.42600000      17.15300000
 H      30.94600000       3.19200000      17.47500000
 H      31.08800000       2.08600000      16.33600000
 O      29.71300000       9.33400000      23.24200000
 H      29.28300000      10.17100000      22.91500000
 H      30.16800000       9.53700000      24.04700000
 O      28.34900000      10.42300000      25.62800000
 H      27.57600000      10.90500000      25.92900000
 H      28.04200000       9.52400000      25.72500000
 O      26.33300000       1.75100000      24.17900000
 H      26.83900000       1.89600000      23.37900000
 H      26.84600000       0.96200000      24.53800000
 O      29.66800000       1.43500000      26.59700000
 H      30.36300000       0.76700000      26.68900000
 H      28.93900000       1.16000000      25.95700000
 O      28.34700000       3.47400000      22.80700000
 H      28.39000000       3.54500000      21.80000000
 H      29.19700000       3.75100000      23.11900000
 O      27.30600000       5.90100000      16.69900000
 H      26.89100000       5.03900000      16.33600000
 H      26.64400000       6.60700000      16.43700000
 O      28.21500000       3.96800000      19.85800000
 H      28.01300000       3.39200000      19.08100000
 H      28.86700000       4.63900000      19.51300000
 O      37.51300000       4.43000000      19.60500000
 H      38.35200000       4.00000000      19.32200000
 H      36.78500000       3.98000000      19.10400000
 O      33.54000000       5.04300000      26.81400000
 H      33.89900000       4.17700000      26.85000000
 H      33.26700000       4.94900000      25.87200000
 O      36.46300000       4.87000000      25.15400000
 H      35.94200000       4.06600000      25.41600000
 H      36.22500000       4.98200000      24.19700000
 O      35.46300000       7.98200000      19.19900000
 H      34.92000000       8.82200000      19.09000000
 H      35.35400000       7.63600000      18.28800000
 O      34.72900000       7.94700000      24.80200000
 H      34.87600000       8.93300000      24.93400000
 H      35.61000000       7.48100000      24.66200000
 O      33.22100000       3.47400000      20.09200000
 H      33.90100000       3.03300000      19.49900000
 H      33.47900000       4.42100000      20.11800000
 O      35.00900000       4.30400000      16.27500000
 H      34.27200000       4.96200000      16.20100000
 H      35.51800000       4.46000000      15.46800000
 O      33.00900000       8.75700000      20.05300000
 H      32.23200000       9.04100000      19.61300000
 H      32.58000000       8.46500000      20.89100000
 O      34.90400000      10.77600000      18.12800000
 H      34.61000000      11.69800000      18.27800000
 H      34.32900000      10.40500000      17.36400000
 O      32.70300000       9.84600000      16.52600000
 H      31.73200000       9.73500000      16.75100000
 H      32.93800000       8.89900000      16.57200000
 O      34.78900000       7.26000000      16.33600000
 H      34.95500000       8.03100000      15.73200000
 H      35.59300000       6.74000000      16.31900000
 O      33.05200000       1.33700000      23.72600000
 H      32.55700000       1.85900000      24.38300000
 H      32.38700000       0.72300000      23.28400000
 O      35.73900000       0.97200000      22.78300000
 H      35.55200000       0.61900000      21.92100000
 H      34.82100000       1.12000000      23.18600000
 O      34.34400000      10.93800000      21.66700000
 H      33.77600000      10.37300000      21.03900000
 H      35.31900000      10.97300000      21.32300000
 O      35.44900000       3.00900000      18.43000000
 H      35.69600000       2.11500000      18.13200000
 H      35.30600000       3.59400000      17.63700000
 O      32.84700000       5.70300000      24.08300000
 H      33.65200000       6.21200000      23.99000000
 H      32.38000000       6.10000000      24.91900000
 O      37.22000000       6.40300000      17.58300000
 H      36.61500000       6.09300000      18.26500000
 H      37.79000000       7.06300000      18.06500000
 O      36.69900000       5.31100000      22.33500000
 H      37.02700000       4.49900000      21.89300000
 H      35.86100000       5.42100000      21.78200000
 O      36.45900000       1.44300000      15.38500000
 H      37.19700000       0.96400000      15.05600000
 H      36.95600000       1.87100000      16.06400000
 O      34.04500000       5.81400000      20.69500000
 H      33.10600000       6.11400000      21.01800000
 H      34.40200000       6.65000000      20.39300000
 O      36.77600000       9.94900000      20.66300000
 H      36.60000000       9.46200000      19.90600000
 H      37.19100000       9.26900000      21.34600000
