111
XYZ file of cluster: frame_17000_6ed46.9f36d.c21c9 - created by MolEdiTo
 O      18.28700000      21.11100000      27.53100000
 H      18.94600000      20.62500000      27.05300000
 H      18.38200000      22.01400000      27.13500000
 O      20.15600000      23.24300000      26.36700000
 H      19.27900000      23.39300000      25.98200000
 H      20.16800000      23.92800000      27.04500000
 O      24.06400000      27.30300000      29.61600000
 H      23.16700000      26.96800000      29.94600000
 H      24.41500000      26.47800000      29.35700000
 O      17.46100000      24.58700000      30.06400000
 H      17.36200000      23.88300000      30.72400000
 H      17.94000000      25.33000000      30.50900000
 O      20.79000000      25.35300000      28.09800000
 H      20.41600000      26.21900000      28.44200000
 H      21.68800000      25.21800000      28.57100000
 O      21.78000000      22.32300000      28.92000000
 H      22.25400000      21.97200000      28.15700000
 H      21.23700000      23.05800000      28.46800000
 O      17.31100000      23.68900000      26.00700000
 H      16.86500000      24.47600000      26.43000000
 H      16.61000000      23.04900000      25.99000000
 O      24.70000000      24.04300000      28.77600000
 H      24.56400000      23.91500000      27.79100000
 H      24.74400000      23.11400000      29.14900000
 O      25.14600000      29.36400000      27.40900000
 H      24.66200000      28.78800000      26.74300000
 H      24.82300000      28.82300000      28.23000000
 O      16.63300000      25.56000000      27.64300000
 H      16.87700000      25.27100000      28.52600000
 H      16.10700000      26.36200000      27.65400000
 O      25.03100000      23.39700000      25.97800000
 H      25.01000000      23.87200000      25.05300000
 H      25.93700000      23.41500000      26.26400000
 O      15.67000000      28.04100000      28.18000000
 H      16.41100000      28.22000000      27.60900000
 H      15.51800000      28.80500000      28.80600000
 O      15.44400000      20.50200000      29.87400000
 H      16.42300000      20.51600000      29.72000000
 H      15.06300000      21.38200000      29.91000000
 O      23.66700000      21.16000000      26.92300000
 H      24.08000000      22.03400000      26.59400000
 H      23.10800000      20.86400000      26.16000000
 O      18.95200000      26.35800000      25.93100000
 H      17.99100000      26.16300000      26.19700000
 H      19.33400000      26.54300000      26.81400000
 O      20.22000000      28.39300000      28.68200000
 H      19.79800000      28.85200000      29.39100000
 H      20.97800000      29.02400000      28.28500000
 O      23.55000000      30.35400000      33.26400000
 H      23.04000000      29.67200000      33.73300000
 H      24.39400000      29.84200000      33.04000000
 O      24.22800000      28.56000000      36.36700000
 H      24.86200000      27.85700000      36.12300000
 H      24.57900000      28.98300000      37.22800000
 O      15.05200000      21.51800000      35.24100000
 H      15.95000000      21.15300000      35.11200000
 H      14.40500000      20.80800000      35.15300000
 O      16.14500000      26.10700000      34.62400000
 H      15.43800000      25.88100000      35.28600000
 H      15.79900000      26.20700000      33.71800000
 O      18.14500000      27.93400000      35.05200000
 H      17.61500000      28.53100000      35.63100000
 H      17.65300000      27.05300000      35.21200000
 O      23.13200000      23.09300000      33.55200000
 H      23.40300000      24.00400000      33.25700000
 H      22.65300000      22.72400000      32.74900000
 O      18.31300000      21.48100000      32.32800000
 H      18.11000000      21.00800000      33.20000000
 H      18.59000000      20.73800000      31.76200000
 O      21.40300000      24.02700000      35.71200000
 H      21.76500000      23.67900000      34.89600000
 H      21.46000000      23.28400000      36.34200000
 O      16.57100000      29.98200000      35.95400000
 H      15.66700000      29.66400000      36.14200000
 H      16.35800000      30.74900000      35.38800000
 O      21.78100000      29.48200000      36.21200000
 H      22.52000000      28.99700000      36.54100000
 H      21.58600000      29.30300000      35.26500000
 O      18.22200000      27.29100000      32.35000000
 H      18.18000000      27.32000000      33.35300000
 H      17.85500000      28.22500000      32.15900000
 O      20.15400000      23.64200000      33.15700000
 H      19.46700000      23.00600000      32.83700000
 H      19.98700000      23.82400000      34.11400000
 O      21.02400000      28.63100000      33.82700000
 H      20.34700000      28.41100000      34.54300000
 H      20.55000000      28.42400000      33.00600000
 O      25.13300000      25.46900000      33.58100000
 H      24.71800000      26.38700000      33.62400000
 H      24.81300000      25.14100000      34.45900000
 O      21.66300000      25.83600000      32.61000000
 H      21.15500000      24.97700000      32.79200000
 H      21.16200000      26.57600000      33.16700000
 O      18.36800000      30.10000000      32.38900000
 H      17.64900000      30.57300000      31.78800000
 H      17.94900000      30.19800000      33.24700000
 O      18.70100000      23.27000000      36.03500000
 H      19.00300000      22.66000000      36.64700000
 H      17.72700000      23.20600000      36.19200000
 O      26.39300000      30.54900000      33.00600000
 H      26.92000000      30.05600000      32.36700000
 H      26.32400000      31.43800000      32.65200000
 O      19.63600000      25.82300000      36.70100000
 H      18.74300000      25.45800000      36.72200000
 H      20.22900000      25.24100000      36.11000000
 O      24.53300000      21.07100000      32.47600000
 H      24.72300000      22.05900000      32.62700000
 H      25.09900000      20.56600000      32.98700000
 O      24.02300000      25.45800000      36.09300000
 H      24.23500000      24.46500000      36.30100000
 H      23.05200000      25.49700000      36.02400000
