169
XYZ file of cluster: frame_17000_1fc49.22b49.6c09e - created by MolEdiTo
 O       7.69500000       5.72000000      22.25900000
 H       6.93900000       5.24200000      21.85000000
 H       8.12400000       5.06600000      22.80500000
 O       7.96000000       9.40400000      15.50600000
 H       8.41300000       8.97400000      16.22400000
 H       7.91400000      10.34900000      15.66600000
 O      13.50000000      11.22600000      16.24200000
 H      14.29500000      10.67100000      16.16900000
 H      12.85500000      10.66500000      16.74600000
 O      15.16700000      11.25700000      22.70600000
 H      14.83600000      11.33500000      23.65900000
 H      14.62800000      10.49400000      22.39200000
 O      15.88000000       5.03700000      25.40400000
 H      15.30200000       5.84500000      25.76100000
 H      15.69900000       5.00600000      24.46100000
 O      13.25400000      11.96800000      24.64800000
 H      13.78700000      12.61900000      25.25100000
 H      12.65800000      11.61700000      25.36800000
 O      10.32300000       9.63900000      19.81000000
 H      10.82700000       9.81500000      20.63200000
 H       9.67000000      10.41500000      19.81700000
 O       8.43900000      11.92100000      19.72900000
 H       8.49900000      12.88200000      19.83200000
 H       7.46000000      11.85900000      20.00000000
 O       8.94400000      12.38300000      16.52400000
 H       8.17300000      12.52200000      17.12800000
 H       9.70900000      12.13000000      17.09700000
 O      10.72000000       7.32600000      15.63700000
 H      11.01700000       7.03000000      16.52800000
 H      11.39000000       7.95600000      15.20400000
 O      15.80000000      15.44800000      24.34100000
 H      15.99300000      14.88300000      23.49200000
 H      15.16800000      16.20300000      24.17300000
 O      11.64100000      14.82700000      16.68500000
 H      10.79800000      15.29800000      16.88500000
 H      11.50700000      14.58600000      15.70500000
 O      12.54200000       9.35700000      26.20200000
 H      12.05800000      10.15100000      26.46100000
 H      12.58300000       8.85000000      27.03700000
 O       7.39600000       5.45000000      25.74000000
 H       6.47500000       5.62100000      25.47900000
 H       7.68500000       4.75500000      25.08100000
 O      10.87500000       6.55300000      26.00900000
 H      11.51300000       6.65200000      25.21800000
 H       9.98700000       6.54000000      25.59800000
 O      15.94200000      14.07400000      21.87900000
 H      15.78600000      13.21400000      21.42200000
 H      15.87700000      14.78100000      21.18900000
 C      15.98500000      16.98200000      16.79900000
 C      14.95500000      15.97000000      16.23500000
 C      16.66800000      15.27500000      14.46100000
 H      16.09100000      14.06700000      16.24700000
 H      14.40100000      17.96200000      17.30600000
 O      14.59700000      14.06400000      14.83600000
 O      17.23000000      16.80100000      16.76300000
 O      15.39400000      17.98800000      17.47900000
 C      15.64000000      14.78500000      15.52600000
 O      14.18200000      15.48600000      17.34000000
 H      14.43200000      16.52100000      15.43900000
 O      16.59500000      16.36800000      13.94400000
 O      17.76300000      14.46700000      14.27900000
 H      17.59900000      13.58500000      14.72100000
 H      13.26100000      15.29800000      16.98100000
 H      14.21600000      13.34600000      15.43600000
 O       8.77900000       5.33900000      16.95000000
 H       8.85700000       6.16800000      17.50200000
 H       8.90500000       5.74700000      16.06200000
 O      13.62700000      11.99600000      19.60100000
 H      13.38100000      12.37100000      20.47100000
 H      14.03600000      11.15800000      19.89400000
 O       5.67000000       8.12300000      25.92500000
 H       5.31000000       8.77600000      26.61300000
 H       6.47100000       8.53900000      25.57500000
 O      14.26600000      14.09800000      26.33900000
 H      14.54100000      14.36400000      25.50400000
 H      14.35600000      14.95700000      26.87800000
 O       6.98300000       7.57100000      20.09200000
 H       7.66200000       7.49300000      20.87100000
 H       6.26100000       6.95400000      20.42100000
 O      15.52300000      13.76100000      18.76200000
 H      15.04000000      14.56400000      18.40700000
 H      14.89100000      13.12300000      19.10600000
 O       6.78300000      16.26000000      15.37300000
 H       6.35400000      15.39700000      15.23000000
 H       6.10800000      16.74100000      15.92600000
 O       8.75600000       7.64300000      23.82800000
 H       8.29100000       6.74900000      24.06200000
 H       8.26100000       8.06800000      23.11100000
 O       5.86700000       7.92400000      22.86700000
 H       5.36500000       7.10700000      22.68400000
 H       6.17800000       7.92700000      23.80800000
 O       6.69200000      14.04900000      19.08100000
 H       6.93500000      15.01100000      19.13400000
 H       6.44300000      13.96600000      18.11500000
 O       9.00100000       7.84400000      18.25700000
 H       8.22000000       7.70100000      18.86500000
 H       9.58100000       8.57300000      18.75600000
 O      15.57100000       8.75100000      18.05400000
 H      15.49400000       8.09900000      17.23800000
 H      14.61300000       9.02800000      18.26400000
 O      12.27000000       6.01600000      23.56300000
 H      11.55000000       5.83700000      22.85200000
 H      12.52000000       5.07300000      23.80200000
 O      12.73300000       6.46200000      19.81100000
 H      12.53100000       6.13300000      18.84200000
 H      12.19900000       5.77800000      20.35600000
 O       6.44300000      15.36800000      22.90200000
 H       7.34600000      14.97200000      22.90600000
 H       5.92200000      14.68300000      22.36300000
 O      15.71400000       6.90600000      16.07800000
 H      16.23800000       6.72600000      15.25500000
 H      15.80100000       6.02400000      16.57700000
 O      13.46800000       8.94700000      21.28500000
 H      13.19300000       8.21200000      20.70300000
 H      13.69200000       8.48300000      22.06900000
 O       9.27700000      10.64700000      25.11000000
 H       9.39200000       9.71500000      25.05500000
 H       8.27700000      10.79700000      25.16300000
 O      10.71700000      14.93800000      25.66800000
 H       9.95400000      15.43400000      26.08800000
 H      10.82600000      14.18700000      26.18200000
 O      12.71300000       8.99200000      18.41300000
 H      12.75900000       8.17500000      18.84300000
 H      11.88000000       9.40500000      18.78900000
 O       8.92400000      13.44900000      23.85400000
 H       8.66400000      12.61300000      24.15400000
 H       9.14300000      14.06000000      24.60300000
 O      12.36600000      12.97900000      22.00700000
 H      12.82300000      13.62000000      22.62600000
 H      12.33200000      12.18700000      22.59500000
 O      13.73500000       8.54200000      23.94700000
 H      13.50900000       7.62000000      24.03800000
 H      13.30600000       8.94300000      24.77700000
 O       9.90300000      14.37500000      21.30700000
 H      10.73400000      13.96400000      20.98600000
 H       9.66600000      13.74600000      22.03300000
 O       5.48800000       6.40300000      17.58300000
 H       4.88300000       6.09300000      18.26500000
 H       6.05800000       7.06300000      18.06500000
 O       6.37900000      10.62000000      25.28100000
 H       5.69500000      11.02400000      24.73800000
 H       6.45300000      11.16700000      26.09200000
 O       4.96700000       5.31100000      22.33500000
 H       5.29500000       4.49900000      21.89300000
 H       4.12900000       5.42100000      21.78200000
 O      10.53300000       5.24300000      21.66400000
 H       9.80200000       5.85800000      21.98300000
 H      10.05300000       4.46900000      21.22400000
 O      12.30700000       5.49200000      17.24300000
 H      12.66600000       5.33800000      16.33200000
 H      11.89600000       4.66200000      17.48700000
 O       5.79500000      11.93000000      17.40100000
 H       6.34000000      11.36300000      18.00200000
 H       4.93700000      11.59300000      17.70500000
 O      16.51500000       8.35900000      24.78900000
 H      16.41400000       7.51500000      25.26800000
 H      15.81600000       8.43200000      24.04700000
 O       5.04400000       9.94900000      20.66300000
 H       4.86800000       9.46200000      19.90600000
 H       5.45900000       9.26900000      21.34600000
 O      11.09000000       9.93800000      23.07700000
 H      11.96400000       9.74100000      23.41900000
 H      10.59500000      10.09500000      23.93800000
 O      11.09200000      13.02100000      18.67700000
 H      11.97100000      12.61100000      19.01800000
 H      11.37700000      13.73600000      18.10200000
 O       5.29100000      14.61300000      26.70400000
 H       4.80500000      15.48200000      26.67000000
 H       5.82100000      14.53500000      25.84300000
