108
XYZ file of cluster: frame_17000_9f336.4e674.c3fe9 - created by MolEdiTo
 O      21.58000000      13.13200000      28.85400000
 H      20.69200000      13.37900000      28.85900000
 H      21.91900000      13.07200000      29.81200000
 O      21.52600000      17.61300000      27.99500000
 H      21.03900000      17.28400000      28.80700000
 H      22.31300000      18.11700000      28.43600000
 O      25.63200000      18.69700000      26.86100000
 H      26.22000000      19.25600000      27.43200000
 H      25.17400000      19.32600000      26.27700000
 O      26.16000000      12.06300000      26.12400000
 H      25.90100000      11.69500000      25.29600000
 H      25.31900000      12.12300000      26.57800000
 O      25.82300000      11.57000000      29.53000000
 H      25.19200000      12.25000000      29.25500000
 H      25.84900000      11.59500000      30.51600000
 O      23.66700000      21.16000000      26.92300000
 H      24.08000000      22.03400000      26.59400000
 H      23.10800000      20.86400000      26.16000000
 O      23.57400000      16.72100000      25.88900000
 H      24.33900000      17.05800000      26.47300000
 H      22.71200000      16.72700000      26.33300000
 O      21.78100000      10.09600000      29.30900000
 H      22.24700000      10.25600000      28.47500000
 H      21.25200000      10.86000000      29.31100000
 O      27.91900000      14.11200000      27.38800000
 H      27.44400000      13.48100000      26.79400000
 H      28.17800000      13.38700000      28.05500000
 O      24.39800000      13.83900000      28.78600000
 H      24.76600000      14.76000000      28.92100000
 H      23.46500000      13.98800000      28.67300000
 O      30.22900000      12.35800000      26.44900000
 H      30.86200000      11.86800000      27.05100000
 H      29.54100000      11.69300000      26.14700000
 O      23.32800000      19.36900000      29.13600000
 H      23.66200000      19.99200000      29.83300000
 H      23.41400000      20.00200000      28.36300000
 O      23.09400000      11.51300000      26.97500000
 H      22.15300000      11.65000000      26.62700000
 H      23.12000000      12.08900000      27.78100000
 O      28.77000000      12.33000000      29.26000000
 H      29.16800000      11.54800000      28.85300000
 H      27.82400000      12.15300000      29.28500000
 O      28.75400000      18.47900000      26.60500000
 H      29.00900000      19.03700000      25.85400000
 H      29.46200000      18.74600000      27.29100000
 O      26.78900000      20.62700000      28.53600000
 H      27.16600000      20.87500000      27.64800000
 H      27.04000000      21.38200000      29.07800000
 O      30.73200000      13.97500000      30.76400000
 H      30.25900000      13.40600000      30.07100000
 H      30.06600000      14.02400000      31.51000000
 O      26.07700000      16.00800000      28.57800000
 H      26.67800000      15.21600000      28.52600000
 H      26.38300000      16.58200000      27.81400000
 O      30.73600000      18.72100000      28.54100000
 H      30.51100000      17.84100000      28.83000000
 H      31.59300000      18.64700000      27.99700000
 O      25.60800000      17.51100000      30.59200000
 H      25.82400000      16.91700000      29.80400000
 H      25.32300000      18.36100000      30.17100000
 O      30.41800000      19.64900000      32.92100000
 H      30.25700000      19.17000000      33.73800000
 H      30.66800000      18.99500000      32.20300000
 O      29.38300000      15.73000000      35.17400000
 H      30.29600000      16.03000000      35.29100000
 H      28.94700000      16.48500000      34.74700000
 O      28.11100000      17.83400000      32.99200000
 H      28.15500000      18.74700000      32.79300000
 H      27.14800000      17.71300000      32.84100000
 O      25.56800000      18.64900000      36.70900000
 H      24.98300000      19.00700000      37.42400000
 H      26.25400000      19.30000000      36.72400000
 O      21.59900000      16.40700000      35.60500000
 H      21.58800000      15.76900000      34.88100000
 H      21.25900000      17.20300000      35.20500000
 O      28.50800000      21.90800000      34.60600000
 H      28.87600000      21.95300000      35.44800000
 H      28.65700000      20.94300000      34.38300000
 O      28.43300000      18.98200000      35.59700000
 H      28.22400000      18.33400000      36.31100000
 H      27.83200000      19.78700000      35.69300000
 O      25.98200000      12.08500000      33.69000000
 H      25.63300000      12.96800000      33.98500000
 H      26.47300000      11.82300000      34.46100000
 O      30.78100000      12.29100000      36.11200000
 H      31.59500000      12.49000000      36.64000000
 H      30.24200000      13.05200000      36.12200000
 O      23.95900000      11.79400000      35.87100000
 H      24.40800000      11.11700000      36.39500000
 H      24.14400000      11.42500000      34.88800000
 O      24.53300000      21.07100000      32.47600000
 H      24.72300000      22.05900000      32.62700000
 H      25.09900000      20.56600000      32.98700000
 O      24.19100000      14.86300000      33.62200000
 H      24.81500000      15.53000000      33.37500000
 H      23.38600000      15.37100000      33.58200000
 O      22.49200000      12.50600000      32.83000000
 H      22.76400000      11.58600000      32.92800000
 H      23.21400000      13.01200000      33.26200000
 O      28.14400000      10.72000000      35.97800000
 H      28.43100000      10.27400000      36.82700000
 H      28.59600000      11.57000000      36.03600000
 O      25.89300000      15.88300000      36.07400000
 H      26.18400000      16.83600000      35.88800000
 H      25.26800000      15.74300000      35.32100000
 O      28.14800000      14.25900000      36.99100000
 H      28.50300000      14.89200000      36.29800000
 H      27.22900000      14.55700000      36.96500000
