132
XYZ file of cluster: frame_17000_1fc49.c64e9.996b4 - created by MolEdiTo
 O       7.20200000      25.53600000      26.42800000
 H       6.48600000      26.16100000      26.24500000
 H       7.86400000      26.23100000      26.67800000
 O       5.44300000      27.43300000      20.82600000
 H       5.82800000      26.80100000      21.46600000
 H       6.22100000      27.81700000      20.36300000
 O       5.82500000      28.14700000      26.05400000
 H       6.45500000      28.04300000      25.26400000
 H       4.99500000      28.42200000      25.57600000
 O      11.39200000      28.39200000      23.90100000
 H      12.19700000      28.33400000      23.37500000
 H      11.34700000      29.26000000      24.36800000
 O       8.42200000      29.78800000      25.41500000
 H       7.90300000      30.63200000      25.54400000
 H       9.36300000      30.12800000      25.45800000
 O      12.92400000      27.24700000      27.62400000
 H      13.26500000      26.49400000      27.12100000
 H      13.60500000      27.92500000      27.79600000
 O      14.76200000      29.80700000      29.84200000
 H      14.61200000      30.76900000      29.67700000
 H      14.74300000      29.76100000      30.87000000
 O       9.71700000      26.19000000      23.54400000
 H      10.35400000      26.84100000      23.86100000
 H       8.85500000      26.73300000      23.46500000
 O      13.45400000      30.36600000      26.69800000
 H      12.89500000      29.57000000      26.68100000
 H      13.23500000      30.78700000      27.61600000
 O       9.87900000      27.46800000      26.33400000
 H       9.25300000      28.27100000      26.16700000
 H      10.68900000      27.61400000      25.82900000
 O       7.55100000      29.45900000      20.70100000
 H       7.60000000      29.79900000      19.80100000
 H       7.57000000      30.10500000      21.36000000
 O       7.04800000      27.51700000      23.50300000
 H       6.11900000      27.31100000      23.44100000
 H       7.22800000      27.96100000      22.59700000
 O      15.67000000      28.04100000      28.18000000
 H      16.41100000      28.22000000      27.60900000
 H      15.51800000      28.80500000      28.80600000
 O       7.50600000      28.35500000      28.24400000
 H       7.05300000      28.35800000      27.36500000
 H       6.82700000      28.01700000      28.80800000
 O      10.61400000      29.05600000      28.96400000
 H      11.42200000      28.47900000      28.85700000
 H       9.97500000      28.47800000      28.44600000
 O      14.46000000      26.54000000      25.43800000
 H      15.08000000      26.45600000      24.69900000
 H      13.70200000      27.01900000      25.05400000
 O      14.49900000      29.06400000      22.36200000
 H      15.13200000      29.64200000      21.90500000
 H      14.95800000      28.21600000      22.40900000
 O       5.36400000      28.23400000      30.14700000
 H       5.09000000      28.68100000      30.93000000
 H       4.97900000      28.78900000      29.48500000
 O       7.69500000      37.15800000      22.25900000
 H       6.93900000      36.68000000      21.85000000
 H       8.12400000      36.50400000      22.80500000
 O      15.30600000      36.05800000      20.76500000
 H      14.48800000      36.10700000      21.30600000
 H      15.91100000      36.63500000      21.30200000
 O       9.29500000      35.07500000      23.76000000
 H      10.18200000      34.93500000      23.37300000
 H       8.83900000      34.23000000      23.66500000
 O      15.88000000      36.47500000      25.40400000
 H      15.30200000      37.28300000      25.76100000
 H      15.69900000      36.44400000      24.46100000
 O      15.57500000      32.76500000      20.84800000
 H      15.00900000      33.43500000      20.50400000
 H      16.34300000      33.20000000      21.34500000
 O      13.51900000      36.21800000      29.34900000
 H      12.82200000      36.91300000      29.16800000
 H      14.22500000      36.75600000      29.90000000
 O      12.13200000      35.39500000      25.51700000
 H      11.78500000      36.14600000      26.11900000
 H      12.79100000      34.90600000      26.03800000
 O       7.39600000      36.88800000      25.74000000
 H       6.47500000      37.05900000      25.47900000
 H       7.68500000      36.19300000      25.08100000
 O      14.03500000      33.54400000      28.85200000
 H      14.64400000      33.80800000      28.12900000
 H      13.59200000      34.37100000      29.16100000
 O       5.92200000      34.97900000      29.30200000
 H       5.97500000      33.99100000      29.37500000
 H       5.43800000      35.24300000      30.14100000
 O      15.54900000      34.08700000      26.70700000
 H      15.84100000      34.90900000      26.26200000
 H      15.24300000      33.58000000      25.99100000
 O      11.21300000      32.54300000      25.04200000
 H      10.83400000      33.47000000      25.07400000
 H      11.66400000      32.51700000      25.96400000
 O      12.81100000      32.78500000      22.12400000
 H      11.99800000      32.59900000      21.65800000
 H      13.45100000      32.06400000      21.84500000
 O       9.77900000      35.10100000      29.42800000
 H       9.12100000      35.69200000      28.88900000
 H       9.43800000      35.19400000      30.40900000
 O      16.78200000      36.49000000      28.21400000
 H      16.82800000      37.37700000      27.79900000
 H      15.84700000      36.20100000      28.05900000
 O      13.96900000      35.12000000      23.06200000
 H      14.60500000      34.49500000      23.39900000
 H      13.28900000      34.56000000      22.58000000
 O       8.80700000      34.53600000      21.10400000
 H       7.87900000      34.49200000      21.51400000
 H       8.61400000      34.15100000      20.26400000
 O      12.27000000      37.45400000      23.56300000
 H      11.55000000      37.27500000      22.85200000
 H      12.52000000      36.51100000      23.80200000
 O       9.19800000      32.43000000      22.84300000
 H       9.95200000      31.84200000      22.99300000
 H       9.48000000      32.96300000      22.10000000
 O       9.48500000      32.69700000      27.72900000
 H      10.35000000      32.32500000      28.02000000
 H       9.50600000      33.64200000      28.06700000
 O       6.04700000      34.11100000      22.18300000
 H       5.34300000      33.44300000      22.31200000
 H       6.45900000      34.11800000      23.08200000
 O       6.95900000      32.36300000      29.10100000
 H       7.68600000      32.46200000      28.46800000
 H       6.77000000      31.43800000      29.08800000
 O      15.35500000      32.79300000      24.02800000
 H      14.84000000      32.01100000      23.71300000
 H      16.21600000      32.42100000      24.37000000
 O       4.96700000      36.74900000      22.33500000
 H       5.29500000      35.93700000      21.89300000
 H       4.12900000      36.85900000      21.78200000
 O      10.53300000      36.68100000      21.66400000
 H       9.80200000      37.29600000      21.98300000
 H      10.05300000      35.90700000      21.22400000
 O       6.15500000      33.69800000      25.03000000
 H       5.80400000      32.84200000      24.67600000
 H       5.66800000      33.87400000      25.85300000
