    0.029741366    0.041141473    0.019126479
   -0.042881051   -0.041752679   -0.014583444
    0.008341609    0.002111519    0.000086645
    0.035368859    0.010199434    0.009921521
   -0.031803585   -0.011447541    0.002504067
   -0.001361873   -0.000460156   -0.009051587
    0.035511435    0.006103154   -0.009160718
   -0.027187858   -0.010031674    0.012653132
   -0.008306040    0.004314597   -0.003664699
   -0.016628883    0.041992734    0.012211020
    0.008781818    0.008887347    0.016605689
    0.008329829   -0.042971483   -0.030958998
   -0.000111071    0.030504942   -0.038624393
   -0.002067921   -0.028724041    0.039317413
    0.001358276   -0.001027566   -0.001341678
   -0.024190194    0.004694684   -0.004471677
   -0.002615318    0.002677254    0.002132177
    0.025672452   -0.005297543    0.004273181
   -0.010460037    0.021651118   -0.058885192
   -0.001466524   -0.040040167    0.027399328
    0.010843764    0.015957257    0.032631344
   -0.037683876    0.097594420   -0.211090089
    0.027981102   -0.040006384    0.054910230
    0.126794547   -0.086202145    0.175199265
    0.004048363   -0.002783825   -0.026786542
   -0.011289346    0.001100446   -0.007582566
   -0.061339923    0.016850016    0.016023700
    0.052595170   -0.058743131    0.110682532
    0.018634128   -0.028655816    0.062304705
   -0.006295831    0.006453956   -0.016437588
   -0.030688596    0.009646776   -0.005636255
   -0.011289451    0.000363322   -0.001247942
   -0.057660849    0.028352085   -0.132405521
    0.005461311    0.072120527   -0.036778674
   -0.038799552   -0.024703847    0.017456414
   -0.001817701    0.000279106    0.004131630
    0.026339103    0.003930883   -0.007931657
   -0.002606569    0.017937467    0.005179088
    0.005302189   -0.026062995   -0.021535623
   -0.004764051    0.010347856    0.019326367
   -0.002061389    0.001624170   -0.003506336
    0.023351952   -0.005119447    0.015229599
   -0.025164969    0.006014898   -0.011828486
   -0.019145388   -0.034363951    0.005331591
    0.004309942   -0.000659785   -0.001302841
    0.013846243    0.029062268   -0.008329631
   -0.003251978    0.008218901    0.029633273
   -0.001072081    0.000696038   -0.000639118
    0.008540184   -0.011287876   -0.030823158
   -0.012383730   -0.062463771   -0.024307116
   -0.010471400    0.025186368    0.030318871
    0.022911077    0.036371814   -0.007616737
   -0.013632719    0.027344678   -0.028015812
    0.004734055   -0.032688708    0.030632444
    0.010136053    0.001030193    0.001160269
   -0.013419849   -0.029511903    0.004093551
    0.018818824    0.013674426    0.002049904
   -0.005130855    0.016405710   -0.009035160
   -0.004934860    0.009028758    0.038379178
   -0.005294599   -0.001159229   -0.050131326
    0.011526269   -0.003704931    0.012805960
