132
XYZ file of cluster: frame_9000_1e85c.737e7.2c0a - created by MolEdiTo
 O      13.88000000      17.88300000       4.50000000
 H      14.28700000      18.51100000       5.19100000
 H      13.20500000      18.39600000       4.03600000
 O      11.81600000      24.55600000       0.91900000
 H      11.50600000      23.76200000       0.35800000
 H      10.98300000      24.91300000       1.25100000
 O      10.72300000      21.92600000       1.27400000
 H      10.92100000      21.55000000       2.19400000
 H       9.97400000      22.49200000       1.47200000
 O       8.27800000      21.11200000       2.35900000
 H       7.47300000      20.58500000       2.01600000
 H       8.99300000      20.49600000       2.11300000
 O      15.13500000      18.37600000       7.15500000
 H      14.83200000      19.01500000       7.82500000
 H      16.08600000      18.65500000       6.97000000
 O      16.63800000      20.43200000       3.88700000
 H      15.77000000      20.13100000       4.30300000
 H      16.27700000      21.17800000       3.29100000
 O      11.17400000      24.37700000       8.18600000
 H      11.22400000      25.29700000       7.86000000
 H      11.51300000      24.48900000       9.14400000
 O      11.68400000      18.19600000       6.78000000
 H      12.35100000      17.50600000       6.74700000
 H      11.41400000      18.22800000       7.75300000
 O       4.49800000      16.07200000       5.70900000
 H       5.27500000      16.48600000       5.26700000
 H       3.94900000      15.68700000       4.90700000
 O      13.75400000      26.98900000       9.77200000
 H      14.11700000      27.80700000       9.39400000
 H      13.80400000      26.27400000       9.09200000
 O      13.90700000      20.93600000       4.82300000
 H      13.82800000      21.21000000       5.76800000
 H      13.59000000      21.56700000       4.12100000
 O       9.52100000      16.14100000       9.92600000
 H       9.70200000      15.49200000       9.20200000
 H      10.40900000      16.60100000      10.05300000
 O       7.19300000      20.81200000       9.07200000
 H       6.51900000      21.55200000       9.09800000
 H       7.89700000      21.22000000       9.62700000
 O      12.91700000      15.50900000       6.03700000
 H      13.53200000      15.00300000       6.59100000
 H      13.56500000      16.08000000       5.62100000
 O       9.13400000      23.93400000       2.44600000
 H       9.76700000      24.40900000       3.07600000
 H       8.60400000      23.33400000       3.04300000
 O       8.47000000      19.20900000       5.61600000
 H       8.83200000      19.84300000       6.26000000
 H       8.02000000      19.81900000       5.01500000
 O      11.98700000      18.39100000       9.71900000
 H      12.43400000      19.22300000      10.04500000
 H      11.10300000      18.50400000      10.10200000
 O      14.42100000      14.99800000       2.62300000
 H      14.04000000      15.90100000       2.42100000
 H      15.33800000      15.28800000       2.77300000
 O       7.86500000      25.63200000      10.30000000
 H       7.55500000      26.20100000       9.55300000
 H       7.07500000      25.42400000      10.99400000
 O      10.37200000      20.82100000       7.03800000
 H      10.53200000      21.11100000       8.02100000
 H      11.26600000      20.29000000       6.87800000
 O       8.52900000      24.85300000       7.51000000
 H       7.81500000      24.36400000       7.86500000
 H       9.26800000      24.23300000       7.42800000
 O       9.13700000      18.26900000       1.67800000
 H       9.01800000      17.71000000       0.90600000
 H       8.23500000      18.40900000       1.99600000
 O      13.53500000      23.18200000       2.77200000
 H      12.62600000      23.46100000       2.40400000
 H      14.28200000      23.79600000       2.47600000
 O      11.20100000      24.72400000       4.65300000
 H      12.15600000      24.56500000       4.57300000
 H      11.06100000      24.37300000       5.54000000
 O      12.19700000      17.07500000       1.38200000
 H      12.13900000      16.36500000       0.72000000
 H      11.27600000      17.20900000       1.49200000
 O       7.81000000      22.32400000       6.24000000
 H       7.51100000      22.09100000       7.19100000
 H       8.77200000      22.24800000       6.30900000
 O      10.98500000      19.95100000       3.29600000
 H      11.22300000      19.89000000       4.14100000
 H      10.43500000      19.16300000       3.12900000
 O      14.84800000      21.18900000       8.72600000
 H      15.68700000      21.71100000       8.83400000
 H      14.40300000      21.30800000       9.59400000
 O       6.15700000      17.85100000       4.24300000
 H       5.68900000      18.68800000       4.03200000
 H       6.31600000      17.28900000       3.41800000
 O      16.64000000      17.54800000      10.40000000
 H      15.68300000      17.53300000      10.60900000
 H      16.75400000      16.91700000       9.70000000
 O       8.81900000      26.96600000       3.06300000
 H       7.91400000      27.01700000       2.74600000
 H       8.93900000      26.01100000       2.97700000
 O      11.24700000      15.34000000       3.83500000
 H      10.66800000      16.11200000       4.08900000
 H      12.04500000      15.58200000       4.32200000
 O       9.52800000      16.86900000       4.96300000
 H       9.21400000      17.76300000       5.36200000
 H       8.93200000      16.13700000       5.28100000
 O      12.86900000      22.41100000       7.17200000
 H      13.48900000      21.88800000       7.74300000
 H      12.48900000      23.21500000       7.63300000
 O       5.38900000      22.67400000       4.66200000
 H       5.15400000      21.82200000       4.15600000
 H       6.17700000      22.45200000       5.18000000
 O      14.04800000      16.78400000       9.98000000
 H      13.17900000      17.31000000       9.95100000
 H      13.81400000      16.05700000       9.35000000
 O       7.42800000      17.10700000       7.22200000
 H       6.53100000      16.83200000       7.07000000
 H       7.57100000      17.98700000       6.84000000
 O       8.94500000      22.99100000      10.85400000
 H       8.18900000      23.08900000      11.43500000
 H       9.22000000      23.87900000      10.57500000
 O      10.98200000      21.40800000       9.77500000
 H      10.54100000      22.28700000       9.54300000
 H      10.62500000      21.28000000      10.64800000
 O       5.23800000      26.80600000       7.05100000
 H       5.57300000      25.94000000       7.42900000
 H       4.82100000      26.57100000       6.14600000
 O       6.29600000      18.26600000       9.62800000
 H       6.59000000      19.28100000       9.57700000
 H       7.13900000      17.80400000       9.39100000
 O      15.00800000      24.39600000       8.51400000
 H      14.37100000      24.47600000       7.83300000
 H      15.71100000      23.86100000       8.11200000
 O       5.69500000      16.67300000       1.86100000
 H       6.05000000      15.76400000       1.73200000
 H       5.69600000      17.17000000       0.96000000
 O       6.30500000      24.43600000       1.81800000
 H       5.83400000      23.70700000       1.42100000
 H       7.24900000      24.06200000       1.94600000
