99
XYZ file of cluster: frame_9000_c8964.8bf.9f114 - created by MolEdiTo
 O      27.14200000       5.52800000      24.90700000
 H      27.89400000       5.83800000      25.50600000
 H      26.77300000       6.35700000      24.65700000
 O      29.89200000       5.65500000      20.68900000
 H      29.63200000       5.05100000      21.40100000
 H      29.54500000       6.53500000      20.97000000
 O      28.98700000       8.87100000      26.17100000
 H      29.19200000       9.56900000      25.45000000
 H      28.87500000       9.42700000      26.97600000
 O      29.84400000       0.86400000      22.98800000
 H      30.51700000       1.17800000      23.57800000
 H      30.36800000       0.07100000      22.57600000
 O      28.99800000       7.39900000      23.00200000
 H      29.22200000       6.44100000      23.04900000
 H      29.22200000       7.85900000      23.84200000
 O      28.29100000       2.20600000      21.23000000
 H      28.68000000       1.83800000      22.03600000
 H      27.53200000       2.58600000      21.63200000
 O      28.12900000       6.42600000      27.34000000
 H      28.22500000       7.39600000      27.28100000
 H      28.68800000       6.00400000      27.97200000
 O      28.32500000       9.63900000      29.13900000
 H      28.57800000       9.14000000      29.96400000
 H      28.88700000      10.42700000      29.19900000
 O      29.06800000       2.37900000      27.81800000
 H      28.58300000       3.20600000      27.96400000
 H      28.51800000       1.64100000      28.08800000
 O      26.61100000       7.79700000      21.32400000
 H      27.28100000       8.10200000      20.73200000
 H      27.11500000       7.67700000      22.18700000
 O      26.37300000       3.31200000      27.57000000
 H      26.49900000       2.96200000      26.63800000
 H      26.21200000       4.31800000      27.51000000
 O      28.35200000       0.79400000      25.49800000
 H      28.96000000       1.39000000      26.01500000
 H      28.76400000       0.46200000      24.65400000
 O      29.05500000       5.38500000      30.33300000
 H      28.09400000       5.33300000      30.60000000
 H      29.59500000       4.93200000      31.01600000
 O      30.05800000      10.29900000      24.17600000
 H      29.22000000      10.64000000      23.81800000
 H      30.75100000      10.28100000      23.37600000
 O      25.95200000       1.86300000      29.93200000
 H      26.08800000       0.96700000      30.18400000
 H      26.83500000       2.14900000      29.58600000
 O      30.15400000       4.33100000      23.02000000
 H      30.01600000       3.86200000      23.86300000
 H      30.82200000       3.73000000      22.62300000
 O      36.32300000      10.76300000      27.10800000
 H      35.38300000      10.85800000      26.98600000
 H      36.56300000       9.91200000      27.44300000
 O      35.84400000       6.16000000      30.13400000
 H      35.84000000       5.33700000      29.59700000
 H      36.74500000       6.01300000      30.48900000
 O      34.88900000      10.53500000      23.04900000
 H      34.80000000      10.42600000      23.99400000
 H      35.78100000      10.16600000      22.87200000
 O      34.39200000       3.52800000      22.44400000
 H      34.60600000       4.00100000      23.26100000
 H      34.39100000       2.55700000      22.55600000
 O      35.58200000       1.93500000      26.26500000
 H      35.60400000       2.59500000      26.94100000
 H      36.58000000       1.81300000      26.08800000
 O      36.67200000       6.67500000      21.52000000
 H      36.18400000       6.87100000      22.35500000
 H      35.93700000       6.24000000      21.02600000
 O      32.80000000       2.47400000      25.50700000
 H      32.28200000       2.62300000      26.39400000
 H      33.65200000       2.01600000      25.74600000
 O      33.06300000       7.67100000      27.31400000
 H      32.38500000       8.04100000      26.76000000
 H      33.02900000       8.36700000      28.04800000
 O      34.44100000       0.81600000      22.70900000
 H      34.89600000       0.37300000      22.00500000
 H      34.30300000       0.08200000      23.40300000
 O      33.34800000       4.84800000      28.01600000
 H      34.13000000       5.51100000      27.93000000
 H      32.67800000       5.52400000      27.83800000
 O      35.02700000       6.34800000      23.68100000
 H      34.29000000       6.41300000      23.01700000
 H      34.58400000       5.93000000      24.43000000
 O      36.41900000       4.20300000      28.19900000
 H      36.26600000       5.15200000      27.93700000
 H      36.95200000       3.91700000      27.42000000
 O      35.48700000       6.59400000      26.83600000
 H      36.11200000       7.30200000      26.61800000
 H      34.63300000       7.03200000      27.02900000
 O      35.11200000       1.96200000      29.69900000
 H      35.13900000       2.94000000      29.79900000
 H      36.07000000       1.69800000      29.59200000
 O      35.95100000       8.81800000      29.18800000
 H      35.04600000       9.16200000      29.41800000
 H      35.67100000       7.88100000      29.39500000
 O      33.22100000       9.51100000      21.10800000
 H      32.77400000      10.26500000      20.73100000
 H      33.71600000       9.91200000      21.88600000
 O      33.23300000      10.00500000      29.41600000
 H      32.67900000       9.98700000      30.22500000
 H      33.37900000      10.95800000      29.20000000
