%chk=cluster_120.chk
%mem=6GB
%nproc=4
#b3lyp/6-311++G** scrf=(cpcm,Solvent=Water) nosymm freq
iop(2/11=1) 
 Geom=(NoDistance,NoAngle)

cluster_120

0 1
 O       6.55600000      13.52700000       6.52000000
 H       6.05600000      13.54700000       5.65000000
 H       6.51800000      12.51600000       6.65700000
 O       6.62000000       8.01700000       5.52700000
 H       6.02200000       7.65200000       4.87700000
 H       7.35800000       8.44400000       5.05400000
 O       8.78300000       9.58100000       4.40500000
 H       9.03700000       8.91500000       3.81000000
 H       9.13500000      10.33900000       3.98600000
 O       5.74100000      10.71800000       5.68300000
 H       4.84700000      11.05800000       5.45300000
 H       5.79700000       9.75700000       5.35600000
 O       7.79800000      10.62800000       7.37200000
 H       8.51500000      10.01700000       6.99900000
 H       7.09500000      10.48100000       6.72400000
 O       4.01300000       9.78200000       7.66900000
 H       4.24400000       9.52700000       6.75200000
 H       3.31700000       9.12600000       7.97300000
 O       6.05900000       9.71200000       2.35200000
 H       5.12900000       9.41800000       2.28200000
 H       6.45000000       9.09900000       1.69100000
 O       7.00000000      12.11200000       2.43600000
 H       6.47300000      11.28400000       2.37300000
 H       7.90600000      11.94500000       2.42200000
 O       5.37400000      13.28300000       4.08400000
 H       6.10000000      12.98900000       3.44800000
 H       4.84000000      13.76300000       3.47000000
 O       9.23800000      12.74200000       4.70500000
 H       9.46200000      12.75600000       5.66600000
 H       8.41600000      13.23900000       4.51500000
 O       3.07400000      11.89000000       2.50400000
 H       3.61400000      12.61400000       2.04100000
 H       3.70400000      11.31200000       3.05600000
 O       3.70100000       8.42000000       1.69200000
 H       3.26200000       8.69700000       0.80100000
 H       3.82200000       7.47100000       1.61600000
 O       9.20300000       7.22600000       2.89100000
 H       9.22500000       6.29900000       2.60100000
 H       9.35900000       7.80600000       2.13900000

