150
XYZ file of cluster: frame_3000_20e1d.3611.22578 - created by MolEdiTo
 O       9.47600000       2.73100000      14.12000000
 H       9.52500000       3.69700000      14.39700000
 H       8.89800000       2.67500000      13.30700000
 O      13.64900000       3.20100000       5.83700000
 H      13.54400000       4.12100000       6.13200000
 H      12.97800000       3.08700000       5.13700000
 O       4.67700000       8.87400000      15.18700000
 H       4.79400000       8.04100000      14.66900000
 H       5.42300000       9.32600000      14.77600000
 O       8.90900000       1.48700000      10.38600000
 H       8.00700000       1.28900000      10.84400000
 H       8.79600000       1.28000000       9.43800000
 O      12.69400000       7.41100000      15.99600000
 H      12.51400000       6.76100000      15.24400000
 H      11.89600000       7.39600000      16.59900000
 O       9.72800000       6.48100000      11.41200000
 H       9.09600000       6.30100000      10.76400000
 H      10.39800000       5.77200000      11.24800000
 O      13.26700000      10.21100000      13.41900000
 H      12.34300000      10.52800000      13.24700000
 H      13.67100000      10.24500000      12.58300000
 O      10.45700000       1.94700000       7.26300000
 H      10.47300000       2.56300000       6.43500000
 H      10.76500000       2.54000000       7.97100000
 O      16.42200000       5.95900000      12.15500000
 H      15.63600000       6.56300000      12.12800000
 H      16.97300000       6.28000000      11.38000000
 O       6.84400000       1.68700000      12.89400000
 H       6.28500000       1.00200000      13.18700000
 H       6.25700000       2.46800000      13.01700000
 O       5.79100000       2.25400000       8.26500000
 H       6.00000000       1.90300000       7.41300000
 H       5.79300000       1.38900000       8.79600000
 O       5.88600000      10.42900000      11.15200000
 H       6.82700000      10.23100000      11.19300000
 H       5.41600000       9.90100000      10.42400000
 O       7.87400000       1.01900000       6.77600000
 H       8.08300000       0.43500000       6.00300000
 H       8.81500000       1.33000000       7.03500000
 O      15.05400000       8.60500000      14.93300000
 H      14.64800000       8.02200000      15.63200000
 H      14.17000000       8.80400000      14.42500000
 O       5.55600000       6.78600000       5.22500000
 H       6.26200000       6.31800000       5.61000000
 H       5.44200000       6.34900000       4.39900000
 O      16.16500000      11.10500000       7.31900000
 H      16.43900000      10.24100000       7.04500000
 H      15.76100000      11.49500000       6.53600000
 O      13.70700000       6.65100000      12.52000000
 H      14.26700000       6.53600000      13.35200000
 H      13.21600000       5.81200000      12.51700000
 O       5.23300000       1.85300000      16.45100000
 H       5.27200000       1.23100000      15.61100000
 H       4.25000000       1.98900000      16.62900000
 O       5.53300000       3.13100000      12.19700000
 H       4.95500000       2.53600000      11.68000000
 H       4.98800000       3.41700000      12.91800000
 O      15.25600000       4.85000000      14.96400000
 H      14.75100000       4.00000000      14.91200000
 H      16.02200000       4.74100000      15.62200000
 O       9.67600000       4.79800000       7.56400000
 H       8.73900000       4.59700000       7.71400000
 H       9.72600000       5.04600000       6.63800000
 O       6.87200000       4.29600000       8.56200000
 H       7.28300000       3.62300000       9.03100000
 H       5.91500000       3.97100000       8.73100000
 O       7.95200000       9.71000000       9.50700000
 H       8.09200000       9.61700000      10.45800000
 H       8.07200000      10.66400000       9.28700000
 O      13.94800000      10.17600000      10.72600000
 H      14.07800000      10.99100000      10.22700000
 H      14.87700000      10.01000000      11.09200000
 O      11.23700000       4.28700000      11.24800000
 H      11.94600000       3.87600000      10.71000000
 H      11.65200000       4.21000000      12.16500000
 O       5.86800000       3.56200000      14.93300000
 H       4.98500000       3.10500000      15.10000000
 H       6.39700000       3.09600000      15.61100000
 O       6.83500000      10.54000000       6.19100000
 H       7.43700000      10.01500000       5.57100000
 H       7.47400000      10.77300000       6.89200000
 O      16.24300000       1.45800000       6.14900000
 H      15.69100000       2.26400000       6.40000000
 H      16.28600000       1.33500000       5.17800000
 O       4.71100000       2.27100000       5.31100000
 H       5.59000000       2.71000000       5.42200000
 H       4.94300000       1.30600000       5.47300000
 O       9.90900000       8.17100000       8.41400000
 H       9.10400000       8.62100000       8.86000000
 H      10.32600000       7.52500000       9.09700000
 O       6.55900000       8.02100000      14.09000000
 H       6.89700000       8.38600000      14.93700000
 H       7.07100000       8.42800000      13.30900000
 O       6.80200000       5.69200000      12.49200000
 H       6.15000000       4.95800000      12.71400000
 H       6.61300000       6.26200000      13.27900000
 O       7.05800000       3.56900000       5.90500000
 H       7.78600000       2.94600000       5.87900000
 H       7.07700000       3.87400000       6.88600000
 O      12.37500000       1.15100000      13.73200000
 H      12.41300000       1.96100000      13.24800000
 H      11.46200000       0.86500000      13.55200000
 O       9.62100000       5.91100000      14.24900000
 H       9.00000000       6.58600000      14.64400000
 H       9.49800000       6.12000000      13.26900000
 O      12.49500000       7.49400000       9.74200000
 H      13.40400000       7.70000000      10.08200000
 H      11.89100000       7.83800000      10.43700000
 O       7.78100000       1.11600000      15.66900000
 H       8.28800000       0.73600000      16.41600000
 H       8.41600000       1.75500000      15.18300000
 O       5.15200000       8.95900000       8.95000000
 H       5.51700000       8.92200000       8.03500000
 H       5.52600000       8.19500000       9.44000000
 O      15.09500000       5.14700000       9.09900000
 H      15.74000000       4.45800000       9.13000000
 H      14.61200000       4.92300000       9.92700000
 O      14.32600000       3.55900000      11.30200000
 H      14.46300000       2.66900000      10.96500000
 H      15.23100000       3.88600000      11.38100000
 O       7.95400000      10.46800000      12.35700000
 H       8.80400000      10.87700000      12.78500000
 H       7.22200000      11.05000000      12.71900000
 O      13.85200000       2.20100000       8.47000000
 H      13.45200000       2.31100000       7.60100000
 H      14.84600000       2.32200000       8.36600000
 O      12.45900000       5.50000000       7.15900000
 H      12.76400000       5.79200000       8.04600000
 H      11.55500000       4.96300000       7.32000000
 O       5.21700000       6.63900000      10.56300000
 H       5.80300000       6.27600000      11.28500000
 H       5.60400000       6.29300000       9.70700000
 O       8.45700000       7.02700000       6.29500000
 H       9.07300000       7.11500000       7.03200000
 H       8.27800000       7.93200000       5.92700000
 O      12.15400000       4.60200000      13.96500000
 H      12.27900000       4.19100000      14.86900000
 H      11.39700000       5.13900000      14.12000000
 O       4.85200000       8.41700000       5.89400000
 H       5.32700000       9.26900000       5.60600000
 H       5.47600000       7.66300000       5.69100000
 O      13.04600000       9.10300000       7.43600000
 H      13.41600000       9.84500000       7.92000000
 H      12.43200000       8.59100000       8.02800000
 O      12.32800000       9.33000000       4.71100000
 H      12.31800000       9.45900000       5.70400000
 H      13.26800000       9.09800000       4.58800000
 O      15.86900000       6.44700000       6.76600000
 H      15.04000000       6.66900000       6.33200000
 H      15.59200000       6.05700000       7.63500000
