138
XYZ file of cluster: frame_3000_24cc1.9a8f6.3cd5 - created by MolEdiTo
 O       8.40600000      27.96000000       5.90500000
 H       8.99900000      27.37100000       6.36900000
 H       8.56900000      27.90700000       4.90400000
 O      11.82300000      20.62900000       6.76900000
 H      11.08500000      20.57700000       7.42000000
 H      11.59500000      21.23400000       6.03400000
 O       7.52700000      22.73900000       9.51500000
 H       7.14300000      22.16900000       8.74000000
 H       6.67400000      22.70600000      10.09700000
 O      11.29800000      28.65300000       7.66700000
 H      11.79300000      29.24200000       7.10100000
 H      11.32600000      27.84400000       7.15900000
 O       7.60800000      23.00600000       3.08600000
 H       7.32300000      23.88400000       3.34800000
 H       8.53700000      23.18500000       3.17600000
 O      11.47700000      29.95600000      10.18400000
 H      11.21900000      29.53300000       9.26900000
 H      11.30800000      30.92300000      10.09900000
 O       8.25100000      27.82200000       9.25100000
 H       8.40200000      26.88400000       9.55200000
 H       9.03000000      28.41900000       9.45400000
 O       5.61600000      27.30400000       7.54900000
 H       6.51900000      27.60200000       7.86300000
 H       5.61100000      26.29800000       7.42000000
 O      14.72500000      29.07900000       6.33700000
 H      15.43300000      29.18800000       5.66800000
 H      14.42600000      28.16600000       6.29000000
 O      14.15600000      23.15400000       5.91300000
 H      13.44200000      23.75900000       5.92900000
 H      14.72600000      23.78600000       6.39100000
 O      13.93500000      25.64500000       4.75500000
 H      14.72800000      26.19400000       4.77900000
 H      13.95800000      25.12200000       3.88700000
 O      15.46400000      25.30000000       1.32200000
 H      16.29500000      25.82600000       1.41500000
 H      15.06900000      25.47600000       0.48700000
 O       5.61900000      21.16300000       5.92000000
 H       5.94800000      20.30500000       5.52900000
 H       5.99900000      21.21900000       6.82600000
 O      14.34700000      29.39900000       9.34100000
 H      13.58600000      29.20500000       9.84100000
 H      14.05400000      30.22600000       8.90100000
 O       5.39200000      29.87800000       6.67600000
 H       5.60600000      28.92900000       6.71700000
 H       6.20900000      30.12900000       7.20200000
 O       6.49700000      29.74900000       9.42100000
 H       7.03100000      28.87600000       9.28400000
 H       5.71200000      29.27400000       9.81000000
 O      16.25100000      22.68000000       0.92500000
 H      15.75900000      22.85500000       1.73600000
 H      17.16100000      22.89700000       1.29100000
 O       8.34300000      25.74400000       4.11900000
 H       7.98100000      25.86300000       3.23400000
 H       9.28500000      26.01900000       4.12300000
 O       5.27400000      25.09400000      10.00900000
 H       5.26900000      25.82500000      10.70200000
 H       4.82100000      25.27900000       9.19500000
 O       8.39200000      20.73200000       7.67700000
 H       8.92700000      21.04800000       8.44300000
 H       8.83900000      20.96100000       6.85100000
 O      13.17500000      23.32600000       9.04700000
 H      12.19000000      23.25200000       9.00100000
 H      13.30100000      22.61700000       8.40900000
 O      13.09800000      25.00500000       1.77600000
 H      13.27500000      24.12900000       2.17500000
 H      13.94000000      25.55900000       1.71500000
 O      10.20400000      24.14400000       2.77900000
 H      11.11400000      24.51700000       2.93900000
 H       9.92700000      24.32400000       1.83700000
 O       8.17500000      24.61400000       6.01500000
 H       8.36600000      25.33800000       5.40000000
 H       7.53600000      24.04500000       5.53200000
 O      10.77000000      29.47000000       3.19100000
 H      10.75700000      28.64400000       3.78600000
 H      11.38700000      30.08200000       3.74200000
 O       5.47200000      28.31400000       9.98500000
 H       4.75600000      28.97400000       9.74200000
 H       5.62900000      27.92900000       9.06500000
 O       8.06800000      27.53900000       1.64400000
 H       7.74600000      28.47500000       1.87200000
 H       7.24200000      27.13300000       1.26900000
 O      11.28800000      23.61400000       5.60400000
 H      10.92300000      23.65200000       6.52400000
 H      10.48800000      23.58500000       5.04200000
 O      15.36100000      25.00300000       8.71900000
 H      14.82800000      25.83500000       8.79100000
 H      14.86900000      24.20300000       8.99400000
 O       6.25600000      29.91400000       2.38000000
 H       5.45700000      29.73600000       3.00200000
 H       5.69600000      30.17500000       1.64300000
 O      13.74000000      22.70300000       3.10100000
 H      13.79700000      22.74700000       4.10000000
 H      13.57300000      21.66800000       3.23700000
 O       5.29600000      23.55900000       5.05500000
 H       4.87700000      24.05700000       5.85200000
 H       5.92200000      22.84000000       5.34000000
 O       8.30600000      25.85000000       9.68100000
 H       8.55100000      25.03700000       9.14700000
 H       8.75300000      25.68200000      10.57000000
 O       5.50000000      23.86700000       0.98500000
 H       6.05000000      24.28600000       1.65700000
 H       6.09700000      23.14400000       0.66800000
 O       5.93500000      25.52500000       7.81600000
 H       5.73500000      25.18900000       8.71200000
 H       6.93800000      25.58300000       7.65800000
 O      10.61200000      25.85700000       7.60900000
 H      11.30900000      25.21000000       7.61100000
 H      10.27600000      26.12700000       8.50900000
 O       9.95000000      23.37500000       8.10800000
 H       9.16700000      23.20200000       8.75800000
 H       9.42700000      23.80400000       7.36100000
 O      11.29000000      26.49600000       4.76000000
 H      10.81400000      26.47800000       5.66000000
 H      12.18800000      26.19000000       4.79600000
 O       9.09900000      21.98600000       5.20800000
 H       8.18100000      22.04800000       4.82600000
 H       9.66500000      21.55700000       4.41700000
 O      10.46200000      20.72500000       3.03300000
 H      10.80600000      21.29300000       2.28700000
 H      10.46000000      19.89700000       2.51300000
 O       6.31400000      21.71100000       8.72100000
 H       6.31000000      20.83000000       9.05600000
 H       5.44500000      21.82800000       8.25100000
 O      12.77500000      30.57200000       4.95900000
 H      12.51500000      31.04500000       5.75500000
 H      13.62300000      30.10300000       5.10500000
 O       5.55200000      24.83200000       2.93700000
 H       5.06800000      25.33700000       3.63600000
 H       5.27400000      25.31100000       2.16500000
 O       5.96300000      27.24500000       4.49000000
 H       5.93200000      27.33200000       5.46600000
 H       6.68100000      26.57000000       4.39400000
 O      13.64600000      26.68000000       8.73400000
 H      12.71100000      26.67800000       9.00900000
 H      13.99000000      27.56800000       9.03500000
 O       7.78400000      20.48800000       1.46200000
 H       7.72300000      21.31200000       1.98200000
 H       8.62700000      20.02900000       1.69400000
