138
XYZ file of cluster: frame_3000_98dc1.47655.475a9 - created by MolEdiTo
 O      26.10000000      15.19000000      19.48600000
 H      26.07400000      14.50600000      18.78000000
 H      26.65700000      14.66900000      20.15800000
 O      22.13600000      20.90700000       9.96600000
 H      22.40100000      20.68600000      10.88100000
 H      22.54200000      20.22000000       9.44400000
 O      23.90300000      20.60800000      18.71000000
 H      23.81100000      20.83700000      17.70300000
 H      23.20200000      21.15300000      19.17600000
 O      20.61100000      13.19900000      18.42000000
 H      21.09400000      12.81300000      17.65200000
 H      19.75700000      12.64400000      18.46200000
 O      23.08300000      18.01000000      18.41500000
 H      23.16200000      18.96200000      18.14800000
 H      22.10300000      17.89400000      18.22800000
 O      30.63100000      10.39900000      17.46900000
 H      31.21900000       9.66300000      17.10400000
 H      31.12200000      10.62400000      18.35200000
 O      26.24600000      16.74000000      16.92400000
 H      26.90600000      16.10400000      16.74600000
 H      25.58000000      16.39200000      17.56000000
 O      26.50900000      11.13000000      18.37500000
 H      26.93500000      11.95500000      18.60700000
 H      26.86200000      10.93500000      17.47500000
 O      26.39900000      19.69600000      16.48600000
 H      27.03300000      19.34200000      15.80300000
 H      26.09500000      18.75000000      16.76700000
 O      28.36800000      18.98600000      10.18200000
 H      27.57100000      18.83000000      10.68900000
 H      27.79200000      19.27500000       9.41200000
 O      28.45800000      12.28900000      17.33500000
 H      29.09000000      12.99500000      17.57500000
 H      29.09800000      11.52700000      17.19800000
 O      26.84800000      18.85100000      21.51400000
 H      26.54800000      18.20400000      20.80500000
 H      25.99500000      19.00100000      21.99400000
 O      30.55500000      15.85500000      13.36300000
 H      30.60600000      14.99500000      12.76800000
 H      31.13800000      15.70300000      14.13200000
 O      20.94100000      16.14500000      15.31300000
 H      20.29800000      15.67500000      14.72700000
 H      21.73200000      15.57200000      15.22000000
 O      26.88000000      21.49200000      18.91500000
 H      26.84400000      20.91500000      18.14400000
 H      26.13000000      21.30600000      19.51100000
 O      21.43600000      18.04700000      20.06900000
 H      21.32000000      17.83800000      21.02700000
 H      22.39500000      18.12200000      19.87000000
 O      24.82800000      17.50600000      19.64600000
 H      24.53700000      17.81500000      18.72900000
 H      25.41800000      16.77200000      19.39400000
 O      29.01700000      16.32100000      20.40200000
 H      28.34000000      15.66100000      20.88100000
 H      28.49800000      16.73600000      19.67300000
 O      29.61500000      12.31100000      14.55400000
 H      29.10500000      13.16600000      14.64900000
 H      30.49300000      12.50300000      14.15700000
 O      26.06800000      13.76400000      18.15400000
 H      26.65500000      13.13200000      17.58900000
 H      25.29400000      13.97500000      17.61800000
 O      26.77200000      15.75100000      12.07300000
 H      26.44200000      16.68100000      12.15500000
 H      27.42900000      15.71600000      11.35200000
 O      23.64100000      20.61600000      12.72300000
 H      23.87900000      21.50700000      12.47900000
 H      23.56900000      20.67400000      13.74500000
 O      24.49600000      12.25400000      16.07500000
 H      24.15600000      11.36500000      16.28500000
 H      25.39500000      12.10000000      15.61800000
 O      20.30400000      20.42500000      21.52400000
 H      20.32500000      20.66400000      20.58900000
 H      21.12600000      19.99500000      21.73700000
 O      21.44600000      16.73600000      11.38200000
 H      21.23200000      16.20800000      12.16600000
 H      20.59400000      17.09400000      10.99400000
 O      28.65300000      12.65100000      19.52900000
 H      29.40700000      12.04300000      19.36000000
 H      29.06100000      13.36400000      20.14400000
 O      23.05000000      11.31900000      12.22100000
 H      23.34000000      12.24000000      12.47100000
 H      23.50500000      10.69800000      12.88900000
 O      23.17800000      14.39700000      20.34200000
 H      24.02500000      13.85200000      20.53700000
 H      22.86400000      13.95200000      19.50300000
 O      30.53500000      18.09600000      11.67300000
 H      30.46400000      17.42900000      12.42900000
 H      29.74100000      17.85400000      11.06800000
 O      26.57300000      11.38000000      14.80000000
 H      27.25100000      10.71700000      15.14900000
 H      27.20700000      11.65700000      14.09300000
 O      21.04300000      11.33800000      17.28300000
 H      21.72900000      10.60400000      17.35900000
 H      20.28100000      10.90200000      16.81500000
 O      28.87100000       9.74700000      14.84200000
 H      29.67500000       9.19100000      15.10800000
 H      29.13800000      10.69800000      14.64400000
 O      24.88900000      12.49800000      21.27500000
 H      25.26300000      12.23100000      22.18400000
 H      25.23600000      11.87600000      20.58300000
 O      25.29300000      18.37800000      11.35700000
 H      24.87100000      18.87800000      12.06900000
 H      24.97800000      18.92400000      10.61900000
 O      23.69800000      14.91300000      15.69400000
 H      24.38900000      15.41400000      15.21000000
 H      23.97800000      13.98800000      15.61300000
 O      21.77000000      10.45400000       9.95600000
 H      22.35300000      10.90600000      10.67000000
 H      22.31200000      10.48700000       9.14000000
 O      27.28400000      13.02200000      12.30800000
 H      27.76400000      13.81200000      11.90900000
 H      26.37300000      13.36100000      12.36700000
 O      23.23100000      18.96200000      15.21800000
 H      23.14600000      18.36400000      16.03200000
 H      22.71900000      18.65100000      14.49900000
 O      28.87500000      14.93700000      10.35800000
 H      28.84900000      14.35800000       9.53400000
 H      29.60200000      14.52400000      10.93000000
 O      29.80300000      21.23400000      14.45200000
 H      29.78500000      20.26800000      14.75700000
 H      29.89900000      21.00300000      13.44000000
 O      29.95100000      21.02200000      11.73800000
 H      29.43100000      21.32900000      10.89500000
 H      30.25400000      20.12300000      11.41000000
 O      29.86400000      20.40600000      18.33900000
 H      30.04000000      20.44700000      19.35300000
 H      30.08500000      19.46800000      18.26400000
 O      28.21400000      15.07100000      15.10400000
 H      27.56700000      15.03400000      14.42400000
 H      29.02300000      15.45600000      14.70100000
 O      28.15000000      10.45000000      10.88800000
 H      28.43300000      11.32500000      11.29600000
 H      27.67900000       9.92000000      11.54500000
 O      30.13500000      14.67000000      18.52900000
 H      31.09800000      14.84300000      18.15800000
 H      30.27800000      14.16200000      19.29500000
 O      21.04400000      21.40400000      18.89300000
 H      20.82600000      20.60700000      18.41100000
 H      20.46500000      22.14800000      18.45200000
