126
XYZ file of cluster: frame_3000_c4674.ca15b.47b08 - created by MolEdiTo
 O      29.57600000      27.08300000       9.63400000
 H      28.82600000      27.43800000       9.18300000
 H      29.41100000      27.25100000      10.58500000
 O      28.97900000      29.56000000      19.02100000
 H      28.27500000      30.22600000      19.22200000
 H      28.44400000      28.80300000      18.47700000
 O      28.62100000      26.76100000      18.32200000
 H      27.68600000      26.56200000      18.70000000
 H      28.64300000      26.14500000      17.57500000
 O      26.80000000      29.82100000      17.41900000
 H      26.36500000      29.74600000      16.51700000
 H      26.45800000      30.62600000      17.83600000
 O      30.18400000      27.37200000      13.34000000
 H      31.18400000      27.52200000      13.32000000
 H      29.98400000      27.09000000      14.25800000
 O      26.28200000      26.97000000      14.32800000
 H      26.93800000      26.84200000      15.11800000
 H      25.38500000      26.78700000      14.71800000
 O      27.87900000      29.56300000      11.66500000
 H      28.51600000      29.17000000      12.32200000
 H      27.00700000      29.11100000      11.75600000
 O      26.23600000      27.12900000      20.73000000
 H      27.04700000      27.06100000      21.37800000
 H      25.80900000      26.33500000      20.99900000
 O      27.13000000      26.01500000      11.85700000
 H      27.21800000      26.48900000      12.68300000
 H      26.06600000      26.03100000      11.87700000
 O      30.13800000      27.54700000      16.36400000
 H      30.35200000      26.67700000      16.06600000
 H      29.18200000      27.43000000      16.47800000
 O      29.77900000      27.08600000      21.12000000
 H      29.37900000      26.78900000      20.24600000
 H      29.28800000      27.78000000      21.53800000
 O      30.24700000      30.45100000      16.96700000
 H      29.34700000      30.45700000      17.06100000
 H      30.39100000      29.71300000      16.33800000
 O      26.83300000      32.93900000      13.76000000
 H      27.38500000      33.46900000      14.39800000
 H      27.47000000      32.63400000      13.11900000
 O      29.58200000      33.48700000      14.37000000
 H      29.73300000      34.07300000      13.64200000
 H      30.12900000      33.83500000      15.11200000
 O      30.47300000      35.60100000      18.30800000
 H      30.92600000      34.75700000      18.43300000
 H      29.56000000      35.28400000      18.13600000
 O      28.35400000      33.91500000      18.69500000
 H      27.45100000      33.86100000      18.54100000
 H      28.80400000      33.04800000      18.43400000
 O      29.98600000      35.37000000      12.07100000
 H      30.45100000      35.97000000      12.59900000
 H      30.85700000      34.94000000      11.74900000
 O      26.86000000      36.15100000      13.22200000
 H      26.17500000      35.86100000      12.57900000
 H      27.66500000      36.15900000      12.63000000
 O      27.70000000      36.21700000      19.60000000
 H      26.94100000      36.84300000      19.49300000
 H      27.58300000      35.32100000      19.17100000
 O      27.08000000      35.98100000      16.29800000
 H      27.14200000      36.07100000      15.34400000
 H      28.01800000      36.02000000      16.58800000
 O      33.00400000      30.25200000      10.88100000
 H      33.62600000      30.90500000      10.44700000
 H      32.22800000      30.80100000      11.12000000
 O      34.44600000      28.74000000      12.97500000
 H      34.14900000      29.16500000      13.77700000
 H      33.78000000      29.18200000      12.34300000
 O      33.02500000      26.89100000      18.26700000
 H      32.90200000      27.14600000      17.41600000
 H      32.19800000      26.94800000      18.86700000
 O      36.84300000      28.65600000      18.88500000
 H      36.01600000      29.04800000      18.46300000
 H      37.19300000      29.47500000      19.27100000
 O      34.79300000      29.11600000      18.48600000
 H      34.51000000      29.73500000      19.26700000
 H      34.25400000      28.36100000      18.61800000
 O      37.64000000      29.20000000      13.79400000
 H      36.79000000      28.93700000      13.37600000
 H      38.14800000      28.37400000      13.77400000
 O      36.08900000      26.58400000      14.47500000
 H      35.44200000      26.89600000      13.78000000
 H      36.08500000      27.27100000      15.13800000
 O      33.93300000      28.90200000      15.70000000
 H      33.44700000      28.24200000      16.28500000
 H      34.72400000      29.18800000      16.19600000
 O      36.13600000      28.33800000      16.31200000
 H      36.55000000      28.43100000      15.41900000
 H      36.97700000      28.14600000      16.89900000
 O      33.05100000      36.17900000      14.21800000
 H      33.27100000      37.02400000      14.66100000
 H      32.80200000      35.68300000      15.12000000
 O      33.69800000      32.36000000      20.26800000
 H      34.12000000      32.49000000      21.19300000
 H      32.84800000      32.90700000      20.26400000
 O      35.50200000      36.77100000      18.66300000
 H      36.20600000      37.39000000      18.95700000
 H      35.55400000      35.97200000      19.27200000
 O      36.78800000      33.28200000      16.45100000
 H      36.82700000      32.66000000      15.61100000
 H      35.80500000      33.41800000      16.62900000
 O      37.08800000      34.56000000      12.19700000
 H      36.51000000      33.96500000      11.68000000
 H      36.54300000      34.84600000      12.91800000
 O      36.59100000      36.97600000      16.45400000
 H      37.16500000      37.72600000      16.66100000
 H      37.14000000      36.23800000      16.74700000
 O      35.72900000      35.33800000      14.38300000
 H      36.18000000      35.97600000      14.94800000
 H      34.78200000      35.61600000      14.58600000
 O      37.01400000      32.41800000      20.53700000
 H      38.01000000      32.22800000      20.67300000
 H      36.65100000      32.35300000      21.44800000
 O      35.98600000      33.94200000      19.38500000
 H      35.03200000      33.63600000      19.43600000
 H      36.64700000      33.34600000      19.83700000
 O      34.00100000      33.21600000      18.37800000
 H      34.60700000      32.73700000      18.91400000
 H      33.25500000      32.55600000      18.12800000
 O      32.86800000      34.99100000      16.49200000
 H      33.38300000      35.60900000      17.00200000
 H      33.12200000      34.19400000      17.04500000
 O      34.17200000      34.71300000      11.55500000
 H      34.63500000      35.42700000      12.07900000
 H      34.21400000      34.96300000      10.59500000
 O      37.42300000      34.99100000      14.93300000
 H      36.54000000      34.53400000      15.10000000
 H      37.95200000      34.52500000      15.61100000
