273
XYZ file of cluster: frame_17000_525f.1bb9.250f7 - created by MolEdiTo
 O      10.39200000       9.91100000      16.27100000
 H       9.98900000       9.14300000      16.67100000
 H       9.71000000      10.47000000      15.96200000
 O       4.92400000      13.85100000      19.80800000
 H       5.40400000      14.20500000      20.53900000
 H       4.75900000      14.68300000      19.28100000
 O       6.29800000       8.56600000      20.21400000
 H       5.95400000       8.60900000      19.28200000
 H       6.37300000       7.53000000      20.28400000
 O       9.60700000       5.03200000      18.53800000
 H      10.41000000       4.70300000      18.99700000
 H       9.89200000       4.71300000      17.61800000
 O       1.33200000       9.22200000      21.07100000
 H       2.18700000       9.30200000      20.71200000
 H       1.47400000       8.68200000      21.89400000
 O       5.19300000       9.52600000       7.16000000
 H       5.01600000       9.04700000       7.98800000
 H       6.06500000       9.18200000       6.91700000
 O       5.64900000      12.80900000      17.08200000
 H       6.22700000      11.99700000      17.22800000
 H       5.47300000      13.01300000      18.03500000
 O       5.65300000       4.01600000       9.98200000
 H       4.76300000       4.44700000       9.97800000
 H       6.00200000       4.24900000      10.83200000
 O      12.51900000       2.12900000      14.11800000
 H      11.60900000       2.07000000      14.48000000
 H      12.50800000       1.50900000      13.39900000
 O       6.76700000       6.89000000      16.03800000
 H       6.02400000       6.22000000      15.91800000
 H       6.40900000       7.51400000      16.63100000
 O       7.22600000       7.98300000      12.85800000
 H       8.16000000       8.23300000      12.89100000
 H       7.05100000       8.11100000      11.94300000
 O      10.98000000      13.93900000      20.00400000
 H      10.56200000      13.78700000      20.85000000
 H      11.24800000      13.00500000      19.75100000
 O      11.06700000       1.36300000      19.19700000
 H      10.91100000       2.27800000      18.98000000
 H      11.38100000       1.42400000      20.13600000
 O       7.73200000       1.74500000       9.77200000
 H       7.07300000       1.11900000      10.11100000
 H       7.24800000       2.56100000       9.61200000
 O       6.76000000       7.57800000      10.26500000
 H       7.28100000       7.56000000       9.39700000
 H       5.99000000       7.01700000       9.99000000
 O      13.25900000      11.61800000      18.06000000
 H      12.48400000      11.51900000      18.64100000
 H      13.98300000      11.59200000      18.70400000
 O       3.44000000       1.30200000      20.81800000
 H       2.59300000       0.82200000      20.70000000
 H       4.07000000       0.70300000      20.40600000
 O       6.25200000      12.61900000      12.26400000
 H       6.16200000      13.35100000      11.59600000
 H       5.38600000      12.12600000      12.05300000
 O       8.09900000      10.97200000      15.26800000
 H       7.28200000      10.50300000      15.17800000
 H       8.20600000      11.32300000      14.35300000
 O      13.41300000       8.74900000       6.95900000
 H      14.19500000       8.46100000       6.48100000
 H      13.15700000       7.93800000       7.35600000
 O       3.14500000      13.40000000       9.30100000
 H       3.28500000      13.89200000       8.45400000
 H       2.74700000      12.57700000       8.90000000
 O       8.74400000      14.43800000      17.69900000
 H       8.27100000      13.74200000      17.20900000
 H       9.37600000      14.77700000      17.03500000
 O       5.55500000       9.78500000      14.34500000
 H       6.18700000       9.06800000      14.29300000
 H       4.84700000       9.48600000      13.74200000
 O       9.65600000       1.87400000      14.54500000
 H       8.81600000       1.65400000      14.96700000
 H       9.71700000       1.26100000      13.79300000
 O       7.03700000       4.47500000       6.73100000
 H       6.20200000       4.95000000       6.85700000
 H       7.59500000       4.88400000       7.46600000
 O       1.95400000       4.16600000       7.19900000
 H       1.14100000       3.63900000       6.99800000
 H       2.57400000       3.53800000       6.75700000
 O       9.15600000       6.26100000      14.01600000
 H       9.56000000       7.21800000      14.02800000
 H       8.31200000       6.49600000      14.40300000
 O      11.92600000       8.82700000      11.09700000
 H      12.87200000       8.74300000      11.16700000
 H      11.75500000       9.79900000      11.05800000
 O       4.88400000       3.82100000      19.81600000
 H       4.48600000       3.63700000      20.64700000
 H       4.27900000       4.47500000      19.35500000
 O      10.08700000       8.49900000      13.45900000
 H      10.77800000       8.80200000      14.06800000
 H      10.45000000       8.76100000      12.60700000
 O       2.58000000       3.20600000      14.78000000
 H       1.75500000       3.63100000      15.01900000
 H       2.92800000       2.82700000      15.62100000
 O       1.09500000       3.43800000      18.60600000
 H       1.54100000       4.02100000      19.30700000
 H       1.85700000       2.89300000      18.32500000
 O      13.00600000       7.45700000      18.42900000
 H      13.58100000       7.99700000      17.85600000
 H      12.74500000       6.76600000      17.75600000
 O       8.93800000      11.94400000      12.78000000
 H       9.16900000      11.90400000      11.79100000
 H       8.07900000      12.34200000      12.70000000
 O      10.40800000       4.52400000      15.71000000
 H       9.93000000       5.04700000      15.05100000
 H      10.18000000       3.63900000      15.41100000
 O       3.13400000       4.51800000      12.02800000
 H       3.36500000       3.54200000      12.00300000
 H       2.91900000       4.51300000      12.97600000
 O       8.71300000       4.37800000      12.16700000
 H       9.06900000       4.98200000      12.83700000
 H       7.75500000       4.75100000      12.18200000
 O       6.03100000       1.75000000      18.13600000
 H       5.89500000       0.93200000      18.60800000
 H       5.91600000       2.38500000      18.83200000
 O      12.48600000       8.48900000      15.02100000
 H      12.00500000       9.15200000      15.62400000
 H      12.22100000       7.67700000      15.48200000
 O      12.03200000       3.84200000      19.27200000
 H      12.13300000       4.38500000      20.09200000
 H      12.96600000       3.72700000      19.01700000
 O       1.87000000      10.92400000       8.44600000
 H       2.39200000      10.25100000       8.91800000
 H       1.86700000      10.55600000       7.54800000
 O       5.34200000       8.72600000      17.87400000
 H       4.42300000       8.43800000      17.81500000
 H       5.26200000       9.63900000      17.40000000
 O       2.40900000      10.51100000      15.67400000
 H       1.93800000      11.10200000      15.05500000
 H       3.29200000      10.44900000      15.31000000
 O      10.70000000       4.08400000       6.53700000
 H      10.50500000       3.55500000       7.28700000
 H       9.88000000       4.48800000       6.36000000
 O       3.58700000       1.91300000      11.92100000
 H       4.06800000       1.05500000      11.73100000
 H       4.32100000       2.27100000      12.52000000
 O      10.13300000       2.60400000       8.83700000
 H      10.50700000       2.85400000       9.65100000
 H       9.27800000       2.16700000       9.17500000
 O       1.80700000      13.58800000      11.59800000
 H       0.87900000      13.43000000      11.50600000
 H       2.03100000      13.85000000      10.64300000
 O      14.02000000       6.42400000       9.69700000
 H      13.29900000       6.16800000      10.32700000
 H      13.43900000       6.45400000       8.85500000
 O      12.09900000       6.50700000       7.78200000
 H      11.34700000       7.01100000       8.20300000
 H      11.65300000       5.69500000       7.47000000
 O      12.10200000      13.12500000      16.11800000
 H      12.34700000      12.46600000      16.86600000
 H      12.02800000      12.45800000      15.41100000
 O      13.05600000       1.80200000       7.99500000
 H      12.25000000       2.29700000       8.30500000
 H      12.65300000       0.94300000       7.76400000
 O       8.18000000       9.77900000       9.73300000
 H       8.03700000      10.59400000       9.14500000
 H       7.30300000       9.54700000       9.95000000
 O       1.15100000       1.42400000      11.41300000
 H       2.09700000       1.35900000      11.65800000
 H       1.01800000       0.45100000      11.28100000
 O       4.14700000       5.95600000       7.05000000
 H       3.56500000       5.25100000       7.41900000
 H       3.62900000       6.28700000       6.29100000
 O       8.59900000      10.08600000      20.25300000
 H       8.02500000       9.32300000      20.01000000
 H       8.40300000      10.18000000      21.21000000
 O       3.53600000      11.46100000      11.50900000
 H       2.88200000      10.86200000      11.29000000
 H       3.08500000      12.31900000      11.52300000
 O      13.71200000       4.52500000      14.28700000
 H      14.56400000       4.43300000      13.83800000
 H      13.34900000       3.62000000      14.10400000
 O       8.12300000      12.19100000       8.55100000
 H       7.30700000      12.73800000       8.32200000
 H       8.40000000      12.79200000       9.30500000
 O      11.21400000      11.35900000      19.75700000
 H      10.39400000      10.82500000      19.61700000
 H      11.44000000      11.10200000      20.68700000
 O       7.43700000       1.20900000      15.75700000
 H       6.90600000       1.42900000      16.51700000
 H       7.18400000       0.29500000      15.58600000
 O      10.77300000      11.67000000      10.44000000
 H      10.91200000      12.65900000      10.31500000
 H      11.25400000      11.36400000       9.64200000
 O      10.09000000       7.94300000       9.24500000
 H      10.68000000       8.13900000       9.99100000
 H       9.48100000       8.75200000       9.39100000
 O       3.81200000       9.00800000       9.63300000
 H       3.79400000       8.13000000      10.09500000
 H       3.92600000       9.55400000      10.46300000
 O       8.80800000      13.82600000      10.43900000
 H       9.48800000      14.56100000      10.28100000
 H       8.50400000      14.18400000      11.34000000
 O       2.12100000       8.35800000      17.81500000
 H       1.22600000       8.17000000      18.01200000
 H       2.12500000       9.28400000      17.57700000
 O      12.12600000       6.25900000      11.91200000
 H      12.26000000       5.76500000      12.70500000
 H      12.13900000       7.16200000      12.27100000
 O      13.64800000       7.75900000      21.16800000
 H      13.38900000       7.72000000      20.17900000
 H      13.13900000       6.96900000      21.47500000
 O       3.41200000       6.73100000      10.67700000
 H       3.53400000       6.04700000      11.37700000
 H       2.60200000       6.42000000      10.24700000
 O       2.11900000       6.17400000      15.69100000
 H       1.50200000       5.50600000      15.47000000
 H       1.76400000       6.71000000      16.38700000
 O       9.23600000       7.40500000      16.86300000
 H       9.22900000       6.70200000      17.55600000
 H       8.40900000       7.16600000      16.34700000
 O       2.74700000      11.89400000      19.66400000
 H       3.28700000      11.30300000      20.27900000
 H       3.31800000      12.68700000      19.75200000
 O      10.33300000      12.35000000       6.99000000
 H      10.94300000      11.75900000       7.49700000
 H       9.50500000      12.21800000       7.54200000
 O      11.04400000       3.61300000      11.05100000
 H      10.31400000       3.70300000      11.63900000
 H      11.32000000       4.55900000      10.91900000
 O       7.36300000       5.86600000      20.06200000
 H       6.60200000       5.37100000      19.73400000
 H       8.02900000       5.49200000      19.37500000
 O       3.07000000       2.05400000      17.41300000
 H       4.00900000       2.11900000      17.48700000
 H       2.92200000       1.11400000      17.23000000
 O      11.55900000      11.72100000      13.78400000
 H      11.68700000      12.64400000      13.39900000
 H      10.58500000      11.62500000      13.77300000
 O       4.53500000       5.11700000      14.66600000
 H       4.30000000       4.17700000      14.45000000
 H       3.64900000       5.41200000      14.95200000
 O      10.45200000       7.55700000      20.16100000
 H      10.83200000       7.68300000      19.24900000
 H      11.06300000       7.01900000      20.55400000
 O       6.06100000       2.39000000      13.54400000
 H       6.50500000       2.16000000      14.37500000
 H       6.80600000       2.72500000      13.01700000
 O       4.85400000      13.70000000      14.63500000
 H       4.95900000      13.27200000      15.53100000
 H       5.54500000      13.12300000      14.18400000
 O       7.40400000      10.94300000      18.01300000
 H       8.15400000      11.07200000      17.33700000
 H       7.98800000      10.96500000      18.84900000
 O      14.29600000       1.14300000      15.64400000
 H      13.57400000       1.47200000      15.09400000
 H      13.85600000       0.94600000      16.45100000
 O      12.37000000      11.09700000       8.24100000
 H      12.77100000      10.28200000       7.77600000
 H      13.20300000      11.54600000       8.53300000
 O       9.56500000      13.92700000      15.25200000
 H       9.46800000      13.29400000      14.53000000
 H      10.42800000      14.24900000      15.23400000
 O      12.60600000       6.04400000      16.20000000
 H      11.77500000       5.57500000      16.25400000
 H      13.13800000       5.55300000      15.54300000
 O       8.84500000       5.62400000       8.50000000
 H       9.48600000       5.01300000       8.94000000
 H       9.21200000       6.46400000       8.84200000
 O       2.83900000       8.10600000      14.11100000
 H       2.76200000       8.74900000      14.81200000
 H       2.55200000       7.27900000      14.52100000
 O      13.93000000      10.99100000      12.72900000
 H      14.32000000      10.46200000      13.42900000
 H      13.00100000      11.17400000      13.09100000
 O       6.30600000       5.51500000      12.41600000
 H       6.43900000       6.50300000      12.38900000
 H       5.65100000       5.52500000      13.15000000
 O       3.27700000       6.05500000      19.38100000
 H       2.89400000       6.82000000      19.00000000
 H       2.70200000       5.79600000      20.15200000
 O       1.78000000       9.40900000      11.71200000
 H       1.47000000       8.85000000      11.00200000
 H       1.91100000       8.75100000      12.42200000
