1284
XYZ file of cluster: frame_17000_4b69f.212e0.9a6bb - created by MolEdiTo
 O      20.69100000      23.71000000      36.35200000
 H      21.26700000      23.42900000      37.07600000
 H      19.98300000      24.11500000      36.91400000
 O      23.27700000      37.61100000      28.57800000
 H      22.49100000      37.06500000      28.40900000
 H      23.73300000      37.60300000      27.76300000
 O      21.15300000      21.62400000      32.55500000
 H      21.75200000      20.91900000      32.22600000
 H      20.87000000      21.22600000      33.42500000
 O      15.59300000      18.76200000      36.58500000
 H      16.10900000      18.83900000      37.45200000
 H      15.11800000      17.90900000      36.75500000
 O      37.34700000      21.55000000      32.57200000
 H      36.43500000      21.37200000      32.89400000
 H      37.82200000      21.57400000      33.41600000
 O      14.32800000      23.59400000      35.45900000
 H      14.88300000      22.79300000      35.38400000
 H      13.45300000      23.16600000      35.45000000
 O      25.32000000      39.16800000      39.15400000
 H      24.63500000      39.28100000      38.48200000
 H      24.89500000      39.61600000      39.90600000
 O      38.06600000      17.05100000      40.37000000
 H      38.63800000      16.36800000      40.73900000
 H      37.73400000      16.66100000      39.55800000
 O      35.50800000      28.10200000      34.22600000
 H      36.11300000      27.77400000      33.54400000
 H      34.63700000      27.70900000      33.92800000
 O      29.56600000       7.25000000      34.49500000
 H      28.89100000       7.53300000      35.06300000
 H      29.48500000       6.27100000      34.60000000
 O      24.78300000      12.93200000      32.10300000
 H      25.28200000      12.07900000      32.30600000
 H      24.63500000      12.73600000      31.15100000
 O      17.47200000      27.33000000      32.45600000
 H      17.68400000      26.86000000      31.65300000
 H      18.01800000      26.83500000      33.12600000
 O      19.10200000       6.88800000      40.05800000
 H      19.32000000       7.86800000      40.09500000
 H      19.63000000       6.63600000      39.29200000
 O      18.88300000      35.66000000      37.69200000
 H      17.96400000      35.90900000      37.83200000
 H      19.24700000      35.76800000      38.56500000
 O      37.70900000       8.19100000      36.20600000
 H      37.45000000       7.71600000      37.01600000
 H      36.90700000       8.69900000      36.05600000
 O      34.72200000      13.44100000      30.77300000
 H      34.55400000      14.27000000      30.37400000
 H      34.82400000      13.78000000      31.75000000
 O      16.67200000      38.00200000      39.72300000
 H      16.48300000      37.15900000      40.20300000
 H      17.65900000      38.13100000      39.79900000
 O      19.42400000      18.63600000      36.20800000
 H      19.26600000      19.34500000      35.58600000
 H      19.31900000      19.14000000      37.07000000
 O      30.28400000      35.15400000      32.02200000
 H      30.45700000      36.00900000      32.33100000
 H      29.35200000      35.16400000      31.75700000
 O      28.01500000       8.43600000      32.61900000
 H      28.71100000       8.22000000      33.29700000
 H      27.35700000       7.72400000      32.80800000
 O      18.41800000      37.90300000      27.86300000
 H      18.39300000      37.11200000      28.44600000
 H      18.23900000      38.57500000      28.59800000
 O      40.58100000      25.85100000      36.46300000
 H      40.66800000      26.79800000      36.64200000
 H      40.60400000      25.38900000      37.31200000
 O      28.18100000      16.63200000      34.78200000
 H      27.43800000      16.00200000      34.94400000
 H      27.76700000      17.25700000      34.18400000
 O      28.10400000      24.68800000      39.31200000
 H      28.18000000      24.84100000      38.36700000
 H      27.16800000      24.70300000      39.45100000
 O      27.61600000      32.82000000      28.80000000
 H      26.75400000      33.06900000      29.13500000
 H      27.48500000      33.01500000      27.82100000
 O      13.37500000      27.53000000      31.64600000
 H      13.54500000      26.73800000      31.17300000
 H      14.17100000      28.04300000      31.52300000
 O      39.00400000      20.45800000      36.13200000
 H      39.17700000      20.88700000      35.25100000
 H      38.66700000      21.25200000      36.64100000
 O      36.12300000      19.04200000      37.99700000
 H      35.17000000      18.88400000      38.22900000
 H      35.93300000      19.42300000      37.10000000
 O      21.28000000      17.12100000      35.07000000
 H      22.12200000      17.70500000      35.02900000
 H      20.68200000      17.74300000      35.52700000
 O      22.66800000      24.54700000      38.79700000
 H      22.09200000      24.62800000      39.59200000
 H      22.35900000      25.35200000      38.28800000
 O      25.60300000      37.47300000      30.28500000
 H      24.77100000      37.68100000      29.85200000
 H      25.87500000      38.34900000      30.64900000
 O      16.26300000       6.92400000      39.46900000
 H      17.11200000       7.03700000      39.97900000
 H      15.61100000       6.87000000      40.15400000
 O      38.39500000      22.53100000      30.25000000
 H      37.96400000      22.29400000      31.10200000
 H      37.70900000      22.17900000      29.64600000
 O      35.31500000      13.52700000      40.07300000
 H      34.61300000      12.98400000      40.55700000
 H      36.07000000      12.87400000      40.14100000
 O      24.43300000      33.79500000      40.38800000
 H      25.08400000      33.83600000      39.68000000
 H      24.71700000      32.99700000      40.89700000
 O      39.30600000      37.60300000      29.28300000
 H      38.43000000      38.00300000      29.13000000
 H      39.09200000      36.95500000      29.98300000
 O      40.00700000      15.83700000      36.02800000
 H      40.13700000      15.74100000      36.98700000
 H      40.94100000      15.85800000      35.67500000
 O      14.09600000      24.62000000      27.52400000
 H      13.69400000      23.75800000      27.73600000
 H      13.47700000      25.23900000      27.92900000
 O      29.65300000      37.63500000      27.91900000
 H      29.89400000      38.53100000      28.29400000
 H      28.65000000      37.64400000      28.02700000
 O      21.28200000      32.53600000      29.93300000
 H      20.61200000      32.72300000      30.61900000
 H      20.76500000      32.92800000      29.18400000
 O      25.40200000      24.95200000      39.38200000
 H      24.47400000      25.08500000      39.08900000
 H      25.24600000      24.51500000      40.23300000
 O      39.46900000      22.53600000      38.89100000
 H      38.78300000      22.75300000      38.30600000
 H      39.15000000      21.84800000      39.43500000
 O      36.43200000      21.76300000      28.54400000
 H      35.54500000      21.67300000      28.77800000
 H      36.49600000      22.27400000      27.73400000
 O      15.98300000      19.42100000      39.34200000
 H      16.41900000      20.25800000      39.40900000
 H      16.35500000      18.86300000      40.01400000
 O      24.07400000      27.83000000      31.29100000
 H      23.11800000      27.82100000      31.18700000
 H      24.41900000      28.26700000      30.52600000
 O      32.63000000      15.84500000      30.09700000
 H      32.63200000      15.39700000      29.20500000
 H      33.54200000      16.18400000      30.12300000
 O      25.59600000      21.82100000      30.29000000
 H      24.80900000      22.26700000      29.92400000
 H      25.24200000      20.92300000      30.29900000
 O      21.68800000      33.76900000      34.64000000
 H      22.22600000      33.27800000      35.29800000
 H      21.73100000      34.62400000      35.06300000
 O      24.22900000      12.98700000      29.52000000
 H      23.29500000      12.67800000      29.31800000
 H      24.20400000      13.81800000      28.96300000
 O      27.41300000      33.40900000      31.98400000
 H      27.73300000      34.00400000      31.27600000
 H      26.57200000      33.06000000      31.54800000
 O      31.79400000      11.26200000      38.76100000
 H      32.07900000      11.77900000      37.98300000
 H      32.14200000      10.39300000      38.45000000
 O      19.53300000      32.87100000      33.27900000
 H      19.44100000      31.96600000      33.62700000
 H      20.43300000      33.06200000      33.52900000
 O      15.73400000      12.84700000      32.53300000
 H      14.93600000      13.41200000      32.36300000
 H      16.45000000      13.42100000      32.28900000
 O      15.61200000      11.36600000      40.61800000
 H      15.75800000      12.28700000      40.82300000
 H      16.28000000      11.25000000      39.92900000
 O      25.87000000      11.69200000      36.74500000
 H      25.50300000      12.56400000      37.00000000
 H      26.59700000      11.64100000      37.46300000
 O      27.29100000      17.36500000      29.81200000
 H      26.62200000      16.94200000      29.25600000
 H      27.50900000      18.14500000      29.24500000
 O      14.27300000      32.78300000      36.64700000
 H      14.86700000      32.17900000      36.26600000
 H      13.40000000      32.38900000      36.54300000
 O      14.20000000      37.40600000      38.31700000
 H      14.98100000      37.97600000      38.53600000
 H      14.74300000      36.57300000      38.08900000
 O      21.30200000      30.86500000      40.00700000
 H      20.56800000      30.62000000      39.37900000
 H      21.30200000      31.81700000      39.80300000
 O      14.35600000      32.65700000      30.81700000
 H      14.45400000      33.02400000      31.74000000
 H      13.48600000      32.19100000      30.96800000
 O      32.66400000      19.32500000      34.91700000
 H      32.83700000      18.34500000      34.88800000
 H      33.58900000      19.60400000      35.14900000
 O      19.55400000       9.13600000      29.82600000
 H      20.39100000       8.63800000      29.96500000
 H      19.76900000       9.92000000      29.39800000
 O      18.16600000      36.17100000      29.82800000
 H      18.51500000      35.24600000      30.04200000
 H      17.23200000      36.05700000      30.06400000
 O      18.50500000      12.38300000      30.79400000
 H      19.44500000      12.16300000      30.95600000
 H      18.40200000      13.09300000      31.44300000
 O      29.68700000      14.02300000      29.09000000
 H      29.84700000      14.69200000      28.47100000
 H      30.02800000      13.22900000      28.60900000
 O      24.44000000       8.64500000      40.18400000
 H      24.68400000       9.31700000      39.49700000
 H      23.52100000       8.94700000      40.38700000
 O      21.23800000      28.54900000      30.79300000
 H      20.90400000      29.29900000      30.31300000
 H      21.54400000      28.99000000      31.62000000
 O      32.91700000      15.60300000      39.66300000
 H      33.50900000      14.85900000      39.55400000
 H      33.56800000      16.36600000      39.64200000
 O      37.89200000      17.00700000      30.49100000
 H      38.07100000      17.51800000      29.67300000
 H      38.37400000      17.48900000      31.17000000
 O      29.08900000      15.56700000      31.11700000
 H      28.53900000      16.14800000      30.56400000
 H      29.39700000      14.95700000      30.41700000
 O      34.81800000      17.29300000      39.96100000
 H      35.58500000      17.31200000      39.27200000
 H      35.31500000      17.30800000      40.77500000
 O      29.50900000      31.34500000      38.52200000
 H      29.26700000      31.28900000      37.57800000
 H      30.26900000      30.70000000      38.59200000
 O      25.97200000       9.76400000      35.02100000
 H      25.98900000      10.54900000      35.64100000
 H      26.57700000       9.14000000      35.51600000
 O      14.46600000      39.60900000      28.63700000
 H      14.55500000      39.34700000      29.58800000
 H      13.83100000      40.36200000      28.67800000
 O      30.95900000      19.82200000      32.83700000
 H      31.01800000      19.23200000      32.09400000
 H      31.62800000      19.47400000      33.42400000
 O      33.71900000      40.09400000      32.65600000
 H      33.98200000      39.76800000      31.79000000
 H      34.52300000      40.08800000      33.18200000
 O      24.04600000      16.79500000      30.12400000
 H      23.68200000      16.10100000      30.68100000
 H      23.88700000      16.40800000      29.23800000
 O      20.41700000      29.09300000      35.87900000
 H      20.82800000      28.27100000      35.46800000
 H      19.63300000      29.23700000      35.32900000
 O      25.25700000      24.89300000      31.70400000
 H      24.88300000      25.72300000      31.40100000
 H      25.79400000      25.15600000      32.46500000
 O      33.23600000      25.47500000      28.89600000
 H      33.43500000      25.09200000      28.00400000
 H      33.14800000      26.44000000      28.58800000
 O      38.16100000       6.27500000      34.66400000
 H      38.15200000       7.00600000      35.34300000
 H      37.72700000       6.76400000      33.91000000
 O      19.72300000      24.29700000      27.50800000
 H      19.87300000      24.70700000      26.67400000
 H      20.12700000      24.95100000      28.10900000
 O      31.34500000      20.73300000      36.84000000
 H      30.45400000      20.60800000      36.40600000
 H      31.86800000      20.19400000      36.22400000
 O      27.71400000      29.12100000      33.85600000
 H      26.91900000      29.56600000      34.23400000
 H      28.36900000      29.86800000      33.98800000
 O      39.99900000      40.36900000      27.77500000
 H      40.24500000      39.44800000      27.75100000
 H      40.79300000      40.81500000      28.11100000
 O      35.83300000       7.78600000      28.48200000
 H      36.08200000       7.12800000      29.16200000
 H      36.48400000       8.47200000      28.62600000
 O      23.01700000      35.39400000      33.11900000
 H      22.97600000      35.27000000      32.17800000
 H      22.34000000      34.69100000      33.40200000
 O      17.04000000      20.79600000      29.03200000
 H      17.85800000      20.48200000      29.42100000
 H      17.35300000      21.54500000      28.51900000
 O      22.86900000      30.44300000      35.83200000
 H      22.06900000      29.93900000      36.14000000
 H      22.78500000      31.19000000      36.48500000
 O      36.82700000      34.12200000      33.53800000
 H      37.70900000      33.66700000      33.66200000
 H      36.23200000      33.37700000      33.75600000
 O      34.82700000      24.21300000      30.40100000
 H      34.80000000      23.38500000      29.85700000
 H      34.20500000      24.73600000      29.78500000
 O      26.89900000      26.13600000      33.79300000
 H      27.79100000      25.74500000      33.80000000
 H      27.19200000      27.11100000      33.69200000
 O      17.82600000      10.01000000      31.79200000
 H      18.56000000       9.52800000      31.38000000
 H      18.10600000      10.92200000      31.47000000
 O      23.19600000      37.99100000      33.74800000
 H      24.06100000      37.93500000      34.23300000
 H      23.11600000      37.00200000      33.43300000
 O      17.99200000      35.15000000      34.69200000
 H      18.21600000      34.61600000      33.94900000
 H      18.79300000      35.37200000      35.14400000
 O      36.11200000      33.71900000      40.42500000
 H      36.31600000      33.78100000      41.36500000
 H      36.71200000      34.33900000      40.01500000
 O      18.94100000      39.72100000      33.16500000
 H      18.22700000      40.29700000      33.55500000
 H      18.43100000      38.99500000      32.79200000
 O      31.38400000      38.41600000      39.24600000
 H      31.09300000      37.44900000      39.27300000
 H      32.22700000      38.32100000      38.70300000
 O      24.83000000      30.84100000      27.68600000
 H      25.77100000      30.86200000      27.39400000
 H      24.74600000      29.93100000      27.95700000
 O      20.93400000      35.60600000      28.07100000
 H      20.77500000      36.15200000      27.31200000
 H      20.65100000      34.68700000      27.74600000
 O      14.47600000      16.54900000      37.33000000
 H      13.57700000      16.76700000      37.70800000
 H      14.19300000      15.73000000      36.84500000
 O      33.76200000      35.34300000      27.14700000
 H      34.52500000      35.18200000      27.76900000
 H      33.25000000      34.54100000      27.15900000
 O      30.57200000      33.84900000      37.56900000
 H      29.64900000      34.20000000      37.33400000
 H      30.36700000      32.94600000      37.55500000
 O      35.20500000      13.06800000      27.65600000
 H      35.41500000      13.81500000      27.07800000
 H      36.00900000      13.02000000      28.19100000
 O      27.84400000      22.48400000      34.37900000
 H      28.33000000      22.11100000      33.65900000
 H      26.92600000      22.43100000      34.06500000
 O      21.56000000       7.21200000      30.00300000
 H      22.24400000       6.48300000      30.10300000
 H      21.75700000       7.41000000      29.03600000
 O      13.42100000      18.48600000      31.06500000
 H      13.94400000      19.37700000      31.09000000
 H      14.20900000      17.98200000      30.69900000
 O      28.61100000      38.59600000      36.88300000
 H      28.14400000      38.38600000      37.75100000
 H      29.02900000      37.70700000      36.74300000
 O      21.41500000      15.12600000      37.12600000
 H      21.24800000      15.76400000      36.36100000
 H      21.96500000      15.72100000      37.63000000
 O      39.32000000      13.38400000      40.22900000
 H      39.85600000      12.57800000      40.19500000
 H      38.45500000      12.96700000      40.53100000
 O      19.97000000      36.90500000      33.91100000
 H      19.30200000      37.49900000      34.20200000
 H      20.18500000      37.14300000      33.01000000
 O      22.19900000      21.76300000      38.45600000
 H      22.98900000      21.22500000      38.71500000
 H      22.44600000      22.67000000      38.62200000
 O      20.54500000      20.91400000      34.95100000
 H      20.50600000      21.74000000      35.45000000
 H      21.16800000      20.37000000      35.45500000
 O      35.33200000      36.36900000      33.61800000
 H      35.09400000      36.36400000      32.64000000
 H      35.87900000      35.54400000      33.63800000
 O      15.73300000      30.59400000      35.77700000
 H      16.56800000      30.11700000      35.72600000
 H      15.10500000      29.87800000      35.91400000
 O      35.38000000      16.35500000      30.14300000
 H      35.43800000      16.15900000      29.14400000
 H      36.23800000      16.77700000      30.27700000
 O      19.47500000       9.56500000      39.99700000
 H      19.62400000      10.35000000      39.43300000
 H      18.90600000       9.96400000      40.69600000
 O      26.24900000      40.08900000      30.88000000
 H      25.85400000      40.96500000      30.73900000
 H      26.87000000      40.28600000      31.56200000
 O      25.72400000      34.20500000      37.65300000
 H      25.04600000      34.92100000      37.57000000
 H      25.30800000      33.55300000      37.00900000
 O      32.01800000      39.69600000      36.17600000
 H      32.82600000      39.10200000      36.18500000
 H      31.30500000      39.04600000      36.17700000
 O      32.68400000      37.72100000      28.60900000
 H      31.70900000      37.59000000      28.52400000
 H      32.96400000      36.88000000      28.15200000
 O      39.54700000      32.68000000      29.14100000
 H      39.21700000      33.19900000      29.85100000
 H      38.78000000      32.17100000      28.75000000
 O      19.86700000      13.07700000      35.46500000
 H      20.59800000      13.30300000      36.11700000
 H      20.18300000      12.20700000      35.11300000
 O      30.50800000      10.36000000      35.62300000
 H      30.57900000      11.21700000      35.15000000
 H      30.71100000       9.73200000      34.95900000
 O      37.58900000      31.19800000      37.71100000
 H      37.06300000      31.11700000      36.89900000
 H      36.98800000      30.63800000      38.30700000
 O      24.37600000      20.12500000      38.95200000
 H      25.15600000      20.51200000      39.41300000
 H      24.82400000      19.42700000      38.44100000
 O      32.25800000       7.10200000      33.84200000
 H      32.31000000       8.08200000      33.73000000
 H      31.32100000       7.03700000      34.06300000
 O      15.81100000      40.17600000      38.55500000
 H      16.09600000      39.39800000      39.10700000
 H      16.33100000      39.99000000      37.77000000
 O      37.69600000      34.32700000      30.70600000
 H      37.29200000      34.07700000      31.57900000
 H      38.55000000      34.66400000      31.00200000
 O      27.83500000      35.66800000      30.41200000
 H      27.71000000      35.23600000      29.54900000
 H      27.13000000      36.30800000      30.43800000
 O      15.99800000      18.01200000      30.36400000
 H      16.15800000      17.94500000      29.42500000
 H      16.42700000      18.84500000      30.57000000
 O      30.02100000       7.23700000      38.91300000
 H      29.62500000       8.07500000      38.54900000
 H      29.19700000       6.70800000      39.06200000
 O      21.41100000       8.77400000      37.64800000
 H      21.16500000       9.58900000      38.19300000
 H      22.37200000       9.00600000      37.55200000
 O      20.34100000      11.72700000      38.41400000
 H      19.71500000      12.49000000      38.31600000
 H      21.18000000      12.06800000      38.11800000
 O      19.52900000      20.49400000      38.59000000
 H      20.39100000      21.03500000      38.48200000
 H      19.81400000      20.05900000      39.45300000
 O      15.89300000      24.93900000      37.21000000
 H      15.33600000      24.38200000      36.64600000
 H      15.64000000      24.57400000      38.06800000
 O      33.43300000      17.03200000      32.75500000
 H      32.76400000      16.94100000      32.05900000
 H      33.62100000      16.11000000      32.99200000
 O      38.06400000      24.45200000      28.27900000
 H      38.76600000      24.85200000      27.77900000
 H      38.51500000      24.14700000      29.04800000
 O      30.02800000       8.06800000      28.63500000
 H      29.88500000       8.97000000      29.15300000
 H      30.77600000       7.78700000      29.23900000
 O      35.12400000      10.66700000      33.03400000
 H      35.33000000      10.67500000      32.09900000
 H      35.95600000      11.15000000      33.36700000
 O      26.75600000      21.63000000      39.54700000
 H      26.49400000      22.20900000      40.28700000
 H      27.71700000      21.86600000      39.52400000
 O      29.60200000      14.65700000      33.82900000
 H      29.45800000      15.07100000      32.93800000
 H      29.12700000      15.37900000      34.33400000
 O      36.21500000      26.30100000      27.98900000
 H      35.56700000      25.76600000      27.52500000
 H      36.89600000      25.63700000      28.16900000
 O      31.89900000      19.51600000      28.41100000
 H      31.47300000      18.99100000      29.13200000
 H      32.14800000      18.75300000      27.82500000
 O      14.40000000      25.15900000      30.75200000
 H      14.69900000      25.25900000      31.68100000
 H      15.04300000      24.58200000      30.40100000
 O      38.74000000       7.01400000      29.47700000
 H      39.06600000       7.94100000      29.74800000
 H      38.90600000       7.03900000      28.51400000
 O      25.21200000      32.97800000      35.31500000
 H      24.85300000      32.89800000      34.35500000
 H      25.43500000      31.97500000      35.42600000
 O      15.16700000      36.19600000      31.84200000
 H      15.03800000      35.31100000      32.24600000
 H      14.99200000      36.07200000      30.91800000
 O      25.27800000      32.82900000      30.20800000
 H      24.80500000      33.67100000      30.51100000
 H      24.59100000      32.19000000      30.52200000
 O      23.13300000      12.87000000      34.91400000
 H      22.91600000      13.44600000      34.19600000
 H      23.37900000      12.03900000      34.45100000
 O      24.79900000       6.52900000      37.84200000
 H      24.52900000       5.64900000      38.25400000
 H      24.64600000       7.06600000      38.63400000
 O      31.25200000      37.74400000      33.34200000
 H      31.48900000      37.28000000      34.19500000
 H      32.08000000      38.22400000      33.14200000
 O      24.48700000      22.86900000      33.41000000
 H      24.72700000      23.06200000      32.54400000
 H      23.93300000      23.56800000      33.75000000
 O      24.32400000      15.46800000      32.67300000
 H      24.39300000      14.46600000      32.54900000
 H      23.32900000      15.51300000      32.71900000
 O      37.78700000      27.41100000      35.84700000
 H      36.96300000      27.81000000      35.57800000
 H      38.41200000      27.78200000      35.20900000
 O      36.42200000      11.49000000      30.91600000
 H      35.75300000      12.24900000      30.93100000
 H      36.91800000      11.75000000      30.12900000
 O      15.33200000      25.12700000      33.25300000
 H      16.29600000      25.09300000      33.53700000
 H      14.95100000      24.65400000      34.02200000
 O      37.50700000      12.94500000      28.82200000
 H      37.94000000      13.35500000      29.63300000
 H      38.15700000      13.19100000      28.16800000
 O      29.62300000      13.94900000      37.76000000
 H      30.61700000      13.81200000      37.81200000
 H      29.59700000      14.35200000      36.88100000
 O      15.42000000      35.77200000      29.15100000
 H      14.44500000      35.99100000      29.11400000
 H      15.53000000      35.42500000      28.22400000
 O      35.49800000      18.65600000      32.90100000
 H      34.56300000      18.33200000      32.73000000
 H      35.97500000      17.81600000      32.66900000
 O      37.09300000      22.11800000      40.52200000
 H      37.12800000      22.37300000      41.44300000
 H      37.48400000      21.30300000      40.47300000
 O      22.46800000      28.86500000      27.97000000
 H      22.45200000      28.03000000      28.52500000
 H      21.60400000      29.24900000      28.16400000
 O      18.69300000      33.70800000      30.72300000
 H      18.72100000      33.56100000      31.67900000
 H      18.04900000      33.01100000      30.40200000
 O      15.87300000      21.40900000      35.27300000
 H      16.35700000      21.23700000      34.50600000
 H      16.04000000      20.68200000      35.84400000
 O      15.38000000      34.94500000      37.83200000
 H      15.57900000      35.43400000      36.97900000
 H      14.88100000      34.17300000      37.50700000
 O      28.27100000      34.64500000      36.65200000
 H      27.47000000      34.46000000      37.24100000
 H      27.71600000      34.83500000      35.86600000
 O      17.07000000      27.34800000      37.48600000
 H      16.79800000      26.48500000      37.20500000
 H      16.56800000      27.38900000      38.32400000
 O      16.16400000      36.73300000      36.02700000
 H      16.91500000      36.30900000      35.57000000
 H      16.57000000      37.61200000      36.24200000
 O      22.67500000      18.19100000      27.64800000
 H      22.21800000      17.34500000      27.87000000
 H      22.30000000      18.45600000      26.82900000
 O      21.79100000      30.23400000      32.94700000
 H      20.83500000      30.22000000      33.08100000
 H      22.18900000      30.22900000      33.82300000
 O      38.80300000      10.83100000      36.64300000
 H      38.47900000       9.90800000      36.67300000
 H      39.76600000      10.60100000      36.64600000
 O      23.36600000      30.91900000      29.98200000
 H      23.55100000      30.86700000      29.02200000
 H      22.59500000      31.52000000      29.96100000
 O      32.21400000      17.42900000      37.39600000
 H      32.70100000      18.19900000      37.75100000
 H      32.40900000      16.77300000      38.06700000
 O      37.07400000       6.93700000      38.66600000
 H      37.93600000       6.43700000      38.66500000
 H      36.64800000       6.61300000      39.50600000
 O      34.98800000      35.28200000      36.01500000
 H      35.77400000      34.84900000      36.36600000
 H      35.32600000      35.57700000      35.13500000
 O      20.36000000      25.11100000      34.26300000
 H      21.07200000      25.74500000      34.56400000
 H      20.62800000      24.34000000      34.86600000
 O      31.53400000      29.60100000      31.63600000
 H      31.33400000      29.50100000      30.68800000
 H      32.03100000      30.47100000      31.61500000
 O      37.33600000      25.04000000      39.32600000
 H      37.29700000      24.04200000      39.22100000
 H      38.17200000      25.04100000      39.84300000
 O      13.96500000      33.84800000      33.47500000
 H      13.23700000      33.31300000      33.91200000
 H      13.70800000      34.71900000      33.88200000
 O      16.17300000      27.03600000      40.14500000
 H      16.78200000      26.33800000      40.47400000
 H      15.42800000      26.96400000      40.78400000
 O      20.71400000      24.13800000      31.59900000
 H      20.86400000      23.19200000      31.85200000
 H      20.49200000      24.48900000      32.50600000
 O      15.49400000      29.34400000      31.40200000
 H      15.72800000      30.27300000      31.46800000
 H      16.26100000      28.88100000      31.81500000
 O      30.13300000      28.81300000      28.83700000
 H      29.73800000      28.22000000      29.50600000
 H      29.60400000      29.62400000      29.05400000
 O      34.25100000      25.11600000      34.20400000
 H      33.74300000      25.58200000      34.90600000
 H      33.90600000      25.60200000      33.41000000
 O      33.23600000      26.95500000      32.26700000
 H      32.63200000      26.41700000      31.69300000
 H      32.84700000      27.85600000      32.02100000
 O      24.11600000      19.52400000      29.87700000
 H      24.33100000      18.76400000      30.43300000
 H      23.66000000      19.07400000      29.12300000
 O      17.71200000      25.20800000      34.75600000
 H      17.66500000      24.50100000      35.43200000
 H      18.68500000      25.22400000      34.54900000
 O      20.31100000      37.72300000      30.48800000
 H      20.61900000      37.80300000      29.59100000
 H      19.45100000      37.23800000      30.36800000
 O      28.88400000      19.87100000      35.93000000
 H      28.23900000      20.54400000      35.73600000
 H      28.73800000      19.18100000      35.24900000
 O      39.85800000      24.21800000      34.43200000
 H      38.91300000      24.34100000      34.31500000
 H      40.03500000      24.93500000      35.06200000
 O      36.42800000      30.78800000      31.41100000
 H      36.05400000      31.50800000      30.86100000
 H      36.39500000      30.01700000      30.85000000
 O      13.72000000      12.44100000      28.47800000
 H      14.19000000      12.86400000      27.75400000
 H      14.43500000      12.04700000      29.00800000
 O      29.14900000       9.54600000      37.86300000
 H      29.62900000       9.91600000      37.12400000
 H      28.48600000      10.22500000      37.99100000
 O      35.12200000      31.81200000      33.42500000
 H      35.16900000      31.40800000      34.32100000
 H      35.64700000      31.21100000      32.86000000
 O      26.90800000      27.85500000      29.64100000
 H      27.54500000      28.53400000      29.75600000
 H      27.36000000      27.03500000      29.91500000
 O      27.76600000      12.05200000      38.67200000
 H      28.57600000      12.51000000      38.33800000
 H      27.88600000      12.19800000      39.64600000
 O      21.31100000      15.75400000      28.87800000
 H      20.66600000      15.99400000      29.56000000
 H      20.65300000      15.43900000      28.22000000
 O      30.94900000      23.59900000      33.81900000
 H      30.69300000      24.49200000      33.53500000
 H      30.51000000      23.02600000      33.15700000
 O      26.74500000      35.17200000      34.45800000
 H      26.30300000      34.30900000      34.77200000
 H      26.67400000      35.06400000      33.52600000
 O      18.41500000      18.87500000      32.64300000
 H      18.95100000      19.21700000      31.95400000
 H      17.86500000      19.63500000      33.00400000
 O      31.76500000      24.43600000      30.85000000
 H      32.17100000      23.66600000      31.22500000
 H      32.40200000      24.78400000      30.23200000
 O      16.60700000      15.75900000      31.61600000
 H      16.83900000      15.97100000      32.53600000
 H      16.10900000      16.49900000      31.36300000
 O      24.40900000      27.06800000      34.19400000
 H      24.30000000      27.64500000      33.45100000
 H      25.28600000      26.65700000      34.13100000
 O      29.66300000      10.38400000      40.50100000
 H      29.18000000       9.86500000      39.85000000
 H      30.44200000      10.66900000      40.02700000
 O      39.86500000      40.42000000      37.00500000
 H      39.26400000      41.19200000      37.14500000
 H      40.02700000      40.56300000      36.04700000
 O      36.01000000      38.50700000      35.34100000
 H      36.11100000      39.16200000      34.69600000
 H      36.00200000      37.62300000      34.85500000
 O      38.47900000      27.82100000      38.48700000
 H      38.05200000      26.95900000      38.49300000
 H      38.36500000      27.97300000      37.44200000
 O      34.52300000       8.12700000      38.87900000
 H      34.03900000       8.79700000      38.41400000
 H      35.42400000       8.13200000      38.45100000
 O      39.73400000      29.43000000      31.25100000
 H      40.22200000      30.29700000      31.41700000
 H      38.82200000      29.80500000      31.13500000
 O      12.97200000      11.37300000      35.20700000
 H      13.92700000      11.54900000      35.50600000
 H      13.07600000      10.62700000      34.63500000
 O      20.98100000      25.72500000      29.45600000
 H      20.85600000      26.57700000      29.91200000
 H      21.11600000      25.10600000      30.23700000
 O      17.28400000      23.51200000      28.63800000
 H      18.15600000      23.72200000      28.19500000
 H      16.71400000      23.24300000      27.89200000
 O      38.29000000      18.59100000      28.27200000
 H      38.70500000      18.28000000      27.46700000
 H      38.94200000      19.23700000      28.61900000
 O      37.13300000      33.84000000      36.91200000
 H      37.64800000      33.04700000      37.12300000
 H      37.53300000      34.47200000      37.55400000
 O      35.54200000      29.66700000      39.03100000
 H      35.03900000      30.48300000      39.06800000
 H      35.63700000      29.41700000      40.01100000
 O      13.88000000      36.47800000      34.41000000
 H      14.21500000      36.84600000      33.59000000
 H      14.71200000      36.61800000      34.99000000
 O      39.54100000      11.97700000      31.59300000
 H      40.21700000      12.40900000      31.00000000
 H      38.79900000      12.64900000      31.46600000
 O      13.67700000      17.60200000      40.14200000
 H      14.56500000      18.02300000      40.10400000
 H      13.10500000      18.24000000      39.74400000
 O      29.50300000      39.88700000      29.69600000
 H      30.11500000      40.64700000      29.69200000
 H      29.19300000      39.89100000      30.65100000
 O      30.97400000      17.62900000      31.10800000
 H      31.41500000      16.92400000      30.52000000
 H      30.23500000      17.08300000      31.43100000
 O      17.21700000       7.00300000      35.28700000
 H      16.54800000       7.22100000      35.95900000
 H      16.94700000       6.11700000      35.04200000
 O      30.42000000      27.22200000      35.95900000
 H      30.57000000      27.94300000      35.31500000
 H      31.29000000      26.85500000      36.08800000
 O      17.51900000      39.24100000      36.50100000
 H      18.36600000      39.14400000      36.81300000
 H      17.55800000      40.01900000      35.82500000
 O      19.61900000      24.70800000      38.71700000
 H      19.14700000      25.54900000      38.86000000
 H      20.10800000      24.60300000      39.59700000
 O      37.69700000      22.75300000      36.79300000
 H      37.41800000      23.48600000      36.19200000
 H      36.79600000      22.62200000      37.21600000
 O      34.53100000      36.33600000      31.12900000
 H      33.85600000      35.62300000      30.80500000
 H      34.16300000      37.10100000      30.62100000
 O      35.34800000       9.50800000      35.80300000
 H      34.46100000       9.33800000      36.09800000
 H      35.24600000       9.91400000      34.92000000
 O      15.27600000      14.91500000      29.32900000
 H      15.55700000      15.00300000      30.29300000
 H      15.84400000      14.12600000      29.05800000
 O      23.53000000      18.60800000      33.22900000
 H      23.89300000      19.18600000      33.91800000
 H      24.31200000      18.08800000      32.95600000
 O      34.27900000      39.33400000      30.01000000
 H      33.49700000      38.99500000      29.46100000
 H      34.51900000      40.12700000      29.43300000
 O      31.47800000      23.55800000      36.45500000
 H      31.29400000      23.58000000      35.46100000
 H      31.82700000      22.63300000      36.53500000
 O      32.65200000      13.91600000      28.06300000
 H      32.08100000      13.14400000      27.97700000
 H      33.53000000      13.56300000      28.05400000
 O      27.19800000      24.08600000      30.13000000
 H      26.52100000      24.55400000      30.68400000
 H      26.82900000      23.18200000      30.18200000
 O      22.07000000      32.58600000      37.31000000
 H      21.16200000      32.78200000      36.98700000
 H      22.08600000      32.97400000      38.18400000
 O      22.14700000      26.65000000      35.43300000
 H      22.15700000      26.77100000      36.45300000
 H      23.11100000      26.86000000      35.20600000
 O      23.86900000      10.32800000      37.75100000
 H      23.49400000      11.19800000      37.73900000
 H      24.76500000      10.49100000      37.35400000
 O      32.74400000      12.90800000      36.87200000
 H      32.45900000      13.73800000      36.51800000
 H      33.70000000      12.89000000      36.73200000
 O      13.14700000      16.43500000      28.40800000
 H      13.90100000      15.95900000      28.83400000
 H      13.72400000      17.04700000      27.82600000
 O      21.07600000      39.76400000      34.91100000
 H      21.71400000      39.07300000      34.61600000
 H      20.45400000      39.79900000      34.14000000
 O      22.16100000      38.44700000      40.66000000
 H      21.62800000      39.11400000      41.11700000
 H      22.21100000      37.75700000      41.42000000
 O      21.66300000      33.54300000      39.84400000
 H      21.01500000      34.19800000      40.08700000
 H      22.47300000      33.78700000      40.30800000
 O      20.11200000      30.25400000      28.37700000
 H      19.90000000      29.86000000      27.47300000
 H      20.26300000      31.17100000      28.04900000
 O      36.99600000      12.23200000      34.23200000
 H      37.55900000      13.04600000      34.12300000
 H      37.62900000      11.75500000      34.81600000
 O      19.58400000      30.40700000      38.19800000
 H      19.29300000      31.25700000      37.83900000
 H      19.86500000      29.87900000      37.40600000
 O      25.61800000      22.44800000      37.04400000
 H      25.78800000      22.27200000      37.98900000
 H      25.65900000      23.43500000      37.01100000
 O      39.95600000      21.57700000      33.59400000
 H      40.96800000      21.47900000      33.71300000
 H      39.98200000      22.56400000      33.48400000
 O      35.71500000      28.13900000      29.76500000
 H      35.97700000      27.35000000      29.24500000
 H      34.82200000      28.31800000      29.40000000
 O      15.80300000      11.48200000      35.33300000
 H      16.73600000      11.48500000      35.60300000
 H      15.96500000      11.48800000      34.36400000
 O      15.08600000      23.58600000      39.66600000
 H      14.66600000      23.00400000      40.30700000
 H      15.77900000      22.93600000      39.34300000
 O      31.47500000      12.94100000      30.85800000
 H      30.81000000      13.36600000      30.25800000
 H      32.32700000      13.16000000      30.40200000
 O      16.57700000      16.67200000      34.15700000
 H      16.48000000      17.50700000      34.63800000
 H      16.30300000      15.99600000      34.82800000
 O      23.09900000       9.20200000      34.15300000
 H      22.59500000       8.51000000      34.51900000
 H      23.90400000       9.16800000      34.70700000
 O      39.18700000      32.75400000      33.50400000
 H      39.63800000      32.27500000      34.23100000
 H      39.88800000      32.78700000      32.88400000
 O      35.19800000      20.23800000      35.18200000
 H      35.53400000      19.61900000      34.50800000
 H      35.13500000      21.07300000      34.64700000
 O      38.42200000       9.51400000      40.53100000
 H      38.34100000       8.94100000      41.28900000
 H      39.20600000       9.18100000      40.07400000
 O      24.99100000      20.92000000      35.04800000
 H      24.93400000      21.64300000      34.39200000
 H      25.42200000      21.49600000      35.80400000
 O      27.63700000      24.29700000      27.26600000
 H      27.66700000      24.00600000      28.20500000
 H      27.07700000      23.56100000      26.89400000
 O      18.08300000      39.83000000      29.75300000
 H      17.36200000      40.23900000      30.24500000
 H      18.85600000      40.09700000      30.30300000
 O      29.24400000      39.31000000      34.15200000
 H      29.19900000      38.87900000      35.01400000
 H      29.84800000      38.71800000      33.64900000
 O      21.27100000      12.84600000      29.00600000
 H      21.20700000      13.82500000      28.95800000
 H      20.77200000      12.59000000      28.21200000
 O      19.31900000      38.40600000      39.82500000
 H      19.66800000      38.74400000      39.00300000
 H      19.50500000      39.12100000      40.49800000
 O      37.62000000      19.48900000      40.12400000
 H      37.83300000      18.50400000      40.26300000
 H      37.18100000      19.39000000      39.24000000
 O      37.25400000      24.64000000      31.76400000
 H      36.49900000      24.53100000      31.12300000
 H      37.07500000      23.82700000      32.35300000
 O      29.65200000      25.96800000      33.27100000
 H      29.87900000      26.84900000      33.56300000
 H      29.73600000      26.07300000      32.26700000
 O      26.89100000      12.87500000      27.41700000
 H      26.14800000      12.78000000      28.03400000
 H      27.60200000      13.20300000      27.98000000
 O      21.02700000      10.95700000      34.04600000
 H      20.71700000      10.75200000      33.13900000
 H      21.89000000      10.42900000      34.06900000
 O      19.47000000      35.88600000      40.39900000
 H      19.28800000      35.96800000      41.35200000
 H      19.59800000      36.84000000      40.13600000
 O      28.99800000      31.83700000      35.98600000
 H      29.04500000      31.67500000      34.99300000
 H      28.43700000      32.62100000      35.97100000
 O      17.70900000      28.28700000      35.12700000
 H      17.09100000      27.79600000      34.59900000
 H      17.47100000      27.88300000      36.04200000
 O      25.92500000      17.44200000      32.29300000
 H      26.35800000      17.47000000      31.43000000
 H      25.33000000      16.63800000      32.14400000
 O      25.50300000      37.24100000      34.92300000
 H      26.05200000      36.44800000      34.67800000
 H      25.13200000      36.90000000      35.76400000
 O      26.67100000      40.02400000      34.60300000
 H      27.57700000      39.80800000      34.30800000
 H      26.46400000      39.11300000      34.97400000
 O      34.55500000      19.87700000      30.68700000
 H      34.91100000      19.39700000      29.90300000
 H      35.10200000      19.49800000      31.39700000
 O      16.35800000       8.82800000      33.54700000
 H      16.95500000       8.27300000      34.09700000
 H      16.97400000       9.35000000      33.02000000
 O      31.62900000      29.73100000      38.02000000
 H      31.71500000      29.84800000      37.04800000
 H      32.55100000      30.01900000      38.25800000
 O      14.51000000      39.41200000      32.02000000
 H      13.81500000      38.82600000      31.51400000
 H      13.96700000      39.73400000      32.75100000
 O      26.12200000      18.10900000      38.32600000
 H      26.27600000      17.18600000      38.11100000
 H      26.96100000      18.53300000      38.11100000
 O      22.74200000      12.65500000      37.68200000
 H      22.86700000      12.72900000      36.69500000
 H      23.24500000      13.46900000      37.89800000
 O      31.89200000       7.00600000      37.09300000
 H      31.23100000       7.23100000      37.78200000
 H      31.36900000       6.45800000      36.45700000
 O      29.34700000      25.97200000      30.45400000
 H      30.11400000      25.40500000      30.09200000
 H      28.61200000      25.40600000      30.19100000
 O      30.81300000      29.75100000      34.27100000
 H      31.13100000      29.64100000      33.32300000
 H      30.32000000      30.56700000      34.19600000
 O      33.25800000      33.09500000      36.13100000
 H      33.92700000      33.81800000      36.02700000
 H      32.53900000      33.46400000      36.56300000
 O      27.50200000       7.87200000      29.89900000
 H      28.35900000       7.93600000      29.49900000
 H      27.78400000       8.00700000      30.85700000
 O      36.07700000      35.41500000      28.96100000
 H      36.64500000      35.15100000      29.71400000
 H      35.88600000      36.33000000      29.26100000
 O      36.98800000      27.23300000      32.11500000
 H      36.51700000      27.66900000      31.44000000
 H      37.09300000      26.33000000      31.72000000
 O      38.66500000      14.85300000      33.50300000
 H      39.34300000      15.27100000      34.08300000
 H      37.83800000      15.20700000      33.89800000
 O      32.43300000       9.80200000      33.72200000
 H      32.05400000      10.69300000      33.53700000
 H      33.42300000       9.95800000      33.62200000
 O      19.59200000      16.45600000      33.06500000
 H      19.95000000      16.60400000      33.94500000
 H      18.95100000      17.25600000      32.99000000
 O      27.34100000      39.97200000      28.14700000
 H      26.92100000      40.60100000      28.72300000
 H      28.15100000      39.77400000      28.70400000
 O      18.26800000      25.30100000      30.31200000
 H      19.00500000      24.72600000      30.59300000
 H      17.67200000      24.66100000      29.84500000
 O      32.78700000      28.48700000      28.27600000
 H      32.95800000      29.24800000      27.74100000
 H      31.81700000      28.57400000      28.48600000
 O      21.67400000      14.61800000      32.82300000
 H      20.95000000      15.21900000      32.62200000
 H      21.39300000      13.74900000      32.49200000
 O      17.03800000      21.20600000      32.79900000
 H      17.39500000      22.01500000      32.46700000
 H      16.21500000      21.17300000      32.23300000
 O      39.73900000      35.24500000      35.88200000
 H      39.50300000      35.99400000      35.31400000
 H      39.16200000      34.55800000      35.57500000
 O      15.43200000      10.76100000      30.11200000
 H      14.67800000      10.86600000      30.76200000
 H      16.14900000      10.63800000      30.69200000
 O      39.90300000      35.80200000      31.51900000
 H      39.92600000      36.50900000      32.18400000
 H      40.88600000      35.87500000      31.25600000
 O      33.83400000      37.54900000      37.15600000
 H      34.47300000      36.96300000      36.70100000
 H      34.49200000      38.12200000      37.55600000
 O      34.65000000      14.62000000      33.58100000
 H      34.85900000      13.73600000      33.97600000
 H      35.38200000      15.13000000      34.07300000
 O      32.75700000       9.39800000      37.07100000
 H      31.93800000       9.76400000      36.68900000
 H      32.55200000       8.40000000      37.00700000
 O      32.85400000      21.86600000      31.72400000
 H      33.50200000      21.26800000      31.44000000
 H      32.12300000      21.31400000      32.09500000
 O      24.24300000      31.83500000      32.74100000
 H      24.39900000      30.97600000      32.26800000
 H      23.26900000      31.73700000      32.86600000
 O      28.52300000      30.28800000      30.19700000
 H      28.38900000      31.14600000      29.78300000
 H      28.33300000      30.49900000      31.12000000
 O      30.45900000      16.11600000      40.48900000
 H      30.70600000      16.63600000      41.24900000
 H      31.34000000      15.93400000      40.05600000
 O      30.31600000      22.37900000      28.96800000
 H      29.62100000      21.95000000      29.47900000
 H      30.82500000      22.84700000      29.68200000
 O      36.69800000      38.30100000      29.20900000
 H      35.77200000      38.49000000      29.46700000
 H      36.67500000      38.79300000      28.31400000
 O      21.70500000      19.01500000      31.32200000
 H      22.07800000      18.73300000      32.20100000
 H      22.57000000      19.15700000      30.91100000
 O      27.78500000      27.38200000      36.63800000
 H      28.64000000      27.19400000      36.21700000
 H      27.20300000      26.74700000      36.16100000
 O      15.31800000      28.59900000      28.58600000
 H      15.32000000      29.08700000      29.42900000
 H      16.27900000      28.43100000      28.47000000
 O      26.81900000      32.19000000      39.40700000
 H      26.21000000      31.55400000      39.01900000
 H      27.69700000      31.85200000      39.10500000
 O      31.86100000      33.33100000      26.83700000
 H      31.41000000      33.45800000      27.72700000
 H      31.14000000      33.50100000      26.21300000
 O      15.13200000       7.37000000      37.00300000
 H      15.61700000       7.37300000      37.88900000
 H      14.53100000       8.13600000      37.12200000
 O      21.24100000      35.88700000      36.11400000
 H      20.48200000      35.92900000      36.76900000
 H      20.81400000      36.35900000      35.37200000
 O      22.85700000      38.91500000      38.10400000
 H      21.93500000      39.09400000      37.76100000
 H      22.59400000      38.67300000      39.02700000
 O      38.41300000      17.70700000      34.77400000
 H      38.42400000      18.36500000      35.51700000
 H      39.07800000      17.06700000      35.13600000
 O      23.70500000      25.65200000      28.58200000
 H      22.85900000      25.41400000      28.89800000
 H      24.20600000      24.84600000      28.81500000
 O      39.35100000       9.58700000      30.16300000
 H      39.33600000      10.33500000      30.79000000
 H      39.59100000      10.10200000      29.30700000
 O      39.08300000      37.50600000      34.16100000
 H      38.53200000      38.09900000      33.57500000
 H      39.98200000      37.81400000      33.86200000
 O      22.37200000      39.61000000      31.46500000
 H      22.06300000      38.76000000      31.15900000
 H      22.89000000      39.32900000      32.25800000
 O      29.44400000      21.88400000      32.36500000
 H      29.89100000      21.01900000      32.60900000
 H      28.95800000      21.61000000      31.58200000
 O      28.96500000      31.61400000      33.37800000
 H      29.77600000      31.79000000      32.81900000
 H      28.41100000      32.34900000      33.01700000
 O      30.69600000      18.92600000      40.20300000
 H      30.46800000      19.83900000      40.06500000
 H      30.13400000      18.55000000      39.45700000
 O      17.46800000       7.31900000      30.00700000
 H      17.48800000       7.24000000      29.03300000
 H      18.25000000       7.92800000      30.12900000
 O      28.15900000      20.76100000      30.12100000
 H      27.20300000      20.92800000      30.32100000
 H      28.03400000      20.21100000      29.27000000
 O      29.52300000      21.30300000      38.93000000
 H      29.64700000      21.08900000      38.02000000
 H      29.67100000      22.29700000      38.95100000
 O      32.85700000      26.20200000      36.16600000
 H      32.41800000      25.34700000      36.25400000
 H      33.36800000      26.27300000      36.98400000
 O      18.18600000      27.51900000      28.15300000
 H      18.61000000      28.25500000      28.63400000
 H      18.41600000      26.75900000      28.72200000
 O      38.13200000      13.35300000      37.54100000
 H      38.89700000      13.89900000      37.35300000
 H      38.60700000      12.45400000      37.38600000
 O      35.48200000      12.83300000      36.76400000
 H      36.31800000      13.09300000      37.15300000
 H      35.87300000      12.17500000      36.17700000
 O      40.66000000      10.84800000      27.88700000
 H      41.42900000      10.87200000      28.53500000
 H      40.88500000      10.03900000      27.42500000
 O      14.60000000      20.97400000      31.35500000
 H      14.28700000      21.42900000      30.55900000
 H      14.06000000      21.52800000      32.04700000
 O      16.52300000      15.92300000      39.04200000
 H      15.82100000      16.23300000      38.38400000
 H      17.29500000      15.79900000      38.44300000
 O      23.32100000      10.04300000      31.30500000
 H      23.00700000       9.31200000      31.87200000
 H      24.25600000      10.00500000      31.61400000
 O      14.66500000      27.44500000      34.85500000
 H      13.91300000      26.97400000      35.21900000
 H      14.97300000      26.89300000      34.13100000
 O      25.03500000      14.62300000      37.47700000
 H      25.31700000      14.56000000      36.55800000
 H      25.96900000      14.80300000      37.94300000
 O      32.98000000      30.27600000      35.75700000
 H      32.13600000      30.09800000      35.34800000
 H      33.03700000      31.18900000      35.87500000
 O      19.27400000      30.02500000      33.42600000
 H      19.02700000      29.57900000      32.54800000
 H      18.36800000      29.86500000      33.84300000
 O      17.11100000      10.26600000      27.81700000
 H      16.67700000      10.29800000      28.69800000
 H      16.64000000       9.46200000      27.47900000
 O      25.14600000       7.47700000      28.95300000
 H      24.76300000       6.71900000      29.49400000
 H      25.97200000       7.56400000      29.44700000
 O      21.01700000      21.59400000      29.36100000
 H      21.42600000      21.67400000      30.22500000
 H      20.41400000      20.87200000      29.53600000
 O      27.74100000      38.06400000      39.34800000
 H      27.87900000      38.13000000      40.36700000
 H      26.82600000      38.39600000      39.35700000
 O      36.76500000      38.31700000      37.90500000
 H      37.56300000      38.83100000      37.78500000
 H      36.51100000      38.34600000      36.92500000
 O      16.95000000      38.08000000      32.86300000
 H      16.61900000      37.28500000      32.45100000
 H      16.24400000      38.71800000      32.52600000
 O      35.24200000      32.18800000      29.36600000
 H      35.56800000      33.09200000      29.20700000
 H      35.73800000      31.66600000      28.64000000
 O      13.88700000      21.86800000      28.30200000
 H      13.52000000      21.02400000      27.94700000
 H      14.72300000      21.89100000      27.86700000
 O      22.00700000      26.98500000      38.18100000
 H      22.54400000      27.61400000      38.77700000
 H      21.10800000      27.24400000      38.49700000
 O      35.37500000      22.63700000      37.85800000
 H      35.21800000      22.01500000      38.57700000
 H      34.47700000      22.94500000      37.63900000
 O      26.94500000      19.16800000      33.99700000
 H      26.13900000      19.60600000      34.32200000
 H      26.62200000      18.72100000      33.19300000
 O      31.19000000      36.74000000      35.94400000
 H      31.97400000      36.94500000      36.44700000
 H      30.95700000      35.84500000      36.31900000
 O      33.49500000      19.63500000      38.29100000
 H      32.78300000      20.22800000      37.94400000
 H      33.86100000      20.22300000      39.00800000
 O      23.31600000       6.95500000      35.66100000
 H      22.80600000       6.13000000      35.70100000
 H      23.83000000       6.80500000      36.51600000
 O      40.26100000      31.28700000      39.18600000
 H      40.58200000      32.22000000      39.01800000
 H      39.55300000      31.16600000      38.50100000
 O      37.41000000      31.27400000      27.83800000
 H      37.21600000      30.31300000      27.64600000
 H      37.08800000      31.68100000      26.97400000
 O      37.46800000       7.70300000      32.24600000
 H      36.60600000       7.19500000      32.10200000
 H      37.05200000       8.57900000      32.28600000
 O      24.59700000      15.20200000      27.93300000
 H      24.28700000      14.54600000      27.19900000
 H      24.91600000      15.90000000      27.31600000
 O      34.90100000      15.95800000      36.75900000
 H      34.50800000      15.09400000      36.99100000
 H      35.56300000      16.10500000      37.44700000
 O      36.62500000      16.03100000      34.87100000
 H      35.89400000      16.33600000      35.47100000
 H      37.25000000      16.75500000      34.90400000
 O      37.55800000      35.57300000      38.95500000
 H      37.11700000      36.36500000      38.62100000
 H      38.38400000      35.96700000      39.35000000
 O      38.25200000      14.28900000      30.90300000
 H      38.12700000      15.28700000      30.68700000
 H      38.59700000      14.44900000      31.78700000
 O      18.51700000      30.29800000      30.60800000
 H      17.61800000      30.61700000      30.32700000
 H      18.96900000      30.63200000      29.75700000
 O      31.04700000      12.27200000      33.55000000
 H      31.12300000      12.46900000      32.58900000
 H      30.57000000      13.10200000      33.81200000
 O      36.55600000      40.41200000      33.39700000
 H      37.20800000      40.47800000      32.62500000
 H      37.11200000      40.88800000      34.06500000
 O      19.13500000      16.36300000      30.23700000
 H      19.43400000      16.46700000      31.20600000
 H      18.21600000      15.97000000      30.44000000
 O      12.97300000      11.82300000      40.12300000
 H      12.87600000      11.05600000      40.72400000
 H      13.92300000      11.97400000      40.17700000
 O      31.47100000      15.19800000      35.93000000
 H      31.52900000      15.17300000      34.98500000
 H      32.06500000      15.93600000      36.21500000
 O      18.18000000      16.95100000      27.74800000
 H      18.53800000      16.26200000      27.15900000
 H      18.46100000      16.62400000      28.63100000
 O      22.94900000      35.09900000      30.35500000
 H      22.10400000      35.03300000      29.92600000
 H      23.47600000      35.64000000      29.79700000
 O      27.95400000      34.64200000      39.73200000
 H      27.49900000      33.83900000      39.51200000
 H      27.32000000      35.36200000      39.46200000
 O      38.94500000      40.03800000      39.70800000
 H      39.07600000      40.28300000      38.78000000
 H      39.84800000      40.40900000      40.02200000
 O      29.92200000      10.17600000      30.61300000
 H      30.60800000      10.69200000      31.10200000
 H      29.39300000       9.84400000      31.35700000
 O      39.38800000      27.29300000      33.29300000
 H      38.64200000      26.96700000      32.75300000
 H      39.63800000      28.04300000      32.74000000
 O      23.85500000      36.38200000      36.98100000
 H      22.98100000      36.17300000      36.54300000
 H      23.56700000      37.21700000      37.47800000
 O      15.92800000      35.32700000      40.48500000
 H      16.56200000      34.70600000      40.83700000
 H      15.73100000      34.96000000      39.63000000
 O      18.41700000      13.69000000      33.19600000
 H      18.87900000      13.43200000      34.02300000
 H      18.78900000      14.54900000      33.03800000
 O      34.60600000      22.40900000      33.89000000
 H      33.98800000      22.43700000      33.10800000
 H      34.57000000      23.34300000      34.13900000
 O      33.02200000       6.95800000      27.91200000
 H      33.87500000       7.51200000      27.95700000
 H      32.48100000       7.50100000      27.33500000
 O      26.28600000      29.77300000      37.81800000
 H      27.12200000      29.29000000      37.57700000
 H      25.83400000      29.06300000      38.31400000
 O      19.41000000      27.52100000      39.02800000
 H      18.47100000      27.43900000      38.76800000
 H      19.62800000      28.40200000      38.64600000
 O      26.28700000      14.50700000      34.77400000
 H      26.90200000      13.86200000      34.47800000
 H      25.75500000      14.67800000      33.96600000
 O      20.06500000      39.68100000      37.28200000
 H      19.82400000      40.59700000      37.43000000
 H      20.57800000      39.77100000      36.43900000
 O      30.33100000      33.55600000      29.02300000
 H      29.51100000      33.33900000      28.55500000
 H      30.11500000      33.05700000      29.82700000
 O      16.94000000      12.89700000      28.57100000
 H      17.14100000      12.01400000      28.17200000
 H      17.51800000      12.80200000      29.34100000
 O      23.45200000      16.90400000      37.55400000
 H      24.03300000      17.53400000      37.12600000
 H      24.03000000      16.13900000      37.61300000
 O      30.57900000      32.53600000      31.44900000
 H      31.51600000      32.29300000      31.45400000
 H      30.62300000      33.47900000      31.62400000
 O      22.93200000      17.88600000      40.09000000
 H      23.15300000      17.29000000      39.35700000
 H      23.76800000      18.27900000      40.33600000
 O      21.02900000      11.93900000      31.46900000
 H      21.87100000      11.45900000      31.66800000
 H      21.25800000      12.29900000      30.56200000
 O      40.12400000      24.87800000      31.62500000
 H      39.18700000      24.86900000      31.48600000
 H      40.27500000      24.68600000      32.57500000
 O      39.18000000      18.82300000      32.40000000
 H      38.99400000      18.14400000      33.10400000
 H      39.08000000      19.63900000      32.89000000
 O      16.02900000      31.83800000      33.34600000
 H      15.22200000      32.31700000      33.38500000
 H      15.92300000      31.22200000      34.10500000
 O      23.18400000      29.05300000      39.87800000
 H      23.71300000      29.46300000      40.61200000
 H      22.54400000      29.80000000      39.75400000
 O      15.20800000       7.39400000      31.49600000
 H      16.06900000       7.48000000      31.02400000
 H      15.27800000       8.04400000      32.21300000
 O      26.54900000      27.44000000      40.26900000
 H      26.17100000      26.70900000      39.71300000
 H      25.94500000      27.34300000      41.02400000
 O      31.35200000      35.57300000      39.67400000
 H      30.69300000      35.22600000      40.32300000
 H      31.40700000      34.79900000      39.05300000
 O      32.49800000      34.93500000      30.23300000
 H      31.81400000      35.22400000      30.83600000
 H      31.94900000      34.41800000      29.62300000
 O      17.30300000      22.03100000      38.94000000
 H      18.18600000      21.55500000      38.90100000
 H      17.13200000      22.08600000      37.97700000
 O      34.86000000      26.43200000      38.66000000
 H      35.70600000      26.04500000      38.89800000
 H      35.08000000      27.39200000      38.72100000
 O      19.14600000      32.71500000      36.69100000
 H      18.45900000      32.65700000      35.99500000
 H      18.90500000      33.58400000      37.10100000
 O      33.75100000      22.08200000      29.12400000
 H      33.32300000      21.95400000      29.97800000
 H      33.20400000      21.52300000      28.51500000
 O      17.19300000      10.60600000      38.56500000
 H      17.55700000      11.48300000      38.32500000
 H      17.54100000      10.11600000      37.73000000
 O      19.47700000      19.40300000      30.09400000
 H      20.33500000      19.16000000      30.49200000
 H      19.20100000      18.55400000      29.71500000
 O      34.44700000      21.37300000      40.15000000
 H      35.40100000      21.52900000      40.24900000
 H      34.17800000      21.34000000      41.09900000
 O      25.70000000      10.36700000      32.49400000
 H      25.55200000      10.10700000      33.46600000
 H      26.58700000       9.88200000      32.34700000
 O      18.12000000       9.32400000      36.41000000
 H      18.99300000       9.12600000      36.69700000
 H      17.89600000       8.44300000      36.03000000
 O      23.35100000      22.75600000      28.64100000
 H      23.08900000      22.71200000      27.70500000
 H      22.57400000      22.38400000      29.05200000
 O      27.22400000      15.35300000      38.65500000
 H      28.02600000      14.84800000      38.37500000
 H      27.48900000      15.77200000      39.50700000
 O      20.84800000       6.19000000      38.05800000
 H      21.04800000       7.14900000      37.79500000
 H      20.99000000       5.79100000      37.16900000
 O      40.14600000      15.36600000      38.60400000
 H      39.99300000      14.58800000      39.22500000
 H      40.99400000      15.71200000      38.90600000
 O      18.06400000      13.04800000      37.42800000
 H      18.43500000      12.98100000      36.53400000
 H      17.68400000      13.92200000      37.40500000
 O      22.31900000      15.02700000      40.02200000
 H      22.34400000      14.18900000      39.57900000
 H      23.14100000      15.04400000      40.57500000
 O      23.68700000       9.89300000      28.68000000
 H      23.44100000      10.22500000      29.56500000
 H      24.35000000       9.23000000      28.96600000
 O      33.20500000      31.67900000      31.19400000
 H      33.77200000      31.97200000      30.46300000
 H      33.83900000      31.79200000      31.93400000
 O      28.19000000      24.29900000      36.54200000
 H      27.76000000      23.77500000      35.82900000
 H      29.09700000      24.33600000      36.18500000
 O      40.01900000      20.16500000      29.86300000
 H      39.70900000      21.09500000      29.78000000
 H      39.64600000      19.83200000      30.70600000
 O      22.89000000      19.84700000      36.20400000
 H      23.58200000      20.45300000      35.79300000
 H      22.99900000      20.13900000      37.11500000
 O      37.22000000      24.93100000      35.00000000
 H      37.53800000      25.73100000      35.46300000
 H      36.31200000      25.14300000      34.78300000
 O      27.14500000       7.62100000      36.07700000
 H      26.38100000       7.42400000      36.65500000
 H      26.94500000       7.11600000      35.26000000
 O      15.22800000      31.94800000      39.41900000
 H      15.14100000      32.83800000      39.06400000
 H      15.08300000      31.39700000      38.60400000
 O      25.46200000      29.99100000      35.06100000
 H      24.48300000      29.76700000      35.18900000
 H      25.70300000      29.82200000      36.02700000
 O      34.15400000      32.09200000      38.86000000
 H      34.30500000      32.49500000      37.97000000
 H      34.58900000      32.82600000      39.39800000
 O      18.65100000      15.93100000      37.46700000
 H      19.50500000      15.34900000      37.46800000
 H      19.01500000      16.71500000      36.95800000
 O      30.57100000      27.11500000      38.94400000
 H      30.36300000      26.71200000      38.09700000
 H      30.98400000      27.97200000      38.61600000
 O      36.57000000      15.42700000      38.76400000
 H      36.11400000      15.03300000      39.61700000
 H      37.11800000      14.65400000      38.52200000
 O      25.25500000      27.68200000      27.53700000
 H      24.77700000      26.98100000      27.98800000
 H      25.94100000      27.92700000      28.22800000
 O      29.37000000      18.08600000      37.94400000
 H      29.16900000      18.62600000      37.11900000
 H      30.26300000      17.72900000      37.67000000
 O      16.48300000      31.77200000      29.51400000
 H      16.37400000      32.28600000      28.64900000
 H      15.58800000      32.03700000      29.92600000
 O      14.42700000       9.96600000      37.47400000
 H      14.82300000      10.48100000      36.76900000
 H      15.16100000      10.05900000      38.14000000
 O      35.60400000      39.82200000      40.07100000
 H      34.86100000      40.06100000      39.45000000
 H      36.08600000      39.13800000      39.58100000
 O      35.56200000      30.46500000      35.78400000
 H      35.54900000      29.87000000      35.04000000
 H      34.53800000      30.48500000      35.94300000
