357
XYZ file of cluster: frame_17000_7349c.c5136.9fec4 - created by MolEdiTo
 O      34.98800000      35.28200000      36.01500000
 H      35.77400000      34.84900000      36.36600000
 H      35.32600000      35.57700000      35.13500000
 O      25.60300000      37.47300000      30.28500000
 H      24.77100000      37.68100000      29.85200000
 H      25.87500000      38.34900000      30.64900000
 O      26.74500000      35.17200000      34.45800000
 H      26.30300000      34.30900000      34.77200000
 H      26.67400000      35.06400000      33.52600000
 O      28.61100000      38.59600000      36.88300000
 H      28.14400000      38.38600000      37.75100000
 H      29.02900000      37.70700000      36.74300000
 O      23.27700000      37.61100000      28.57800000
 H      22.49100000      37.06500000      28.40900000
 H      23.73300000      37.60300000      27.76300000
 O      34.53100000      36.33600000      31.12900000
 H      33.85600000      35.62300000      30.80500000
 H      34.16300000      37.10100000      30.62100000
 O      37.55800000      35.57300000      38.95500000
 H      37.11700000      36.36500000      38.62100000
 H      38.38400000      35.96700000      39.35000000
 O      39.99900000      40.36900000      27.77500000
 H      40.24500000      39.44800000      27.75100000
 H      40.79300000      40.81500000      28.11100000
 O      29.24400000      39.31000000      34.15200000
 H      29.19900000      38.87900000      35.01400000
 H      29.84800000      38.71800000      33.64900000
 O      36.69800000      38.30100000      29.20900000
 H      35.77200000      38.49000000      29.46700000
 H      36.67500000      38.79300000      28.31400000
 O      36.55600000      40.41200000      33.39700000
 H      37.20800000      40.47800000      32.62500000
 H      37.11200000      40.88800000      34.06500000
 O      25.32000000      39.16800000      39.15400000
 H      24.63500000      39.28100000      38.48200000
 H      24.89500000      39.61600000      39.90600000
 O      34.27900000      39.33400000      30.01000000
 H      33.49700000      38.99500000      29.46100000
 H      34.51900000      40.12700000      29.43300000
 O      39.86500000      40.42000000      37.00500000
 H      39.26400000      41.19200000      37.14500000
 H      40.02700000      40.56300000      36.04700000
 O      39.30600000      37.60300000      29.28300000
 H      38.43000000      38.00300000      29.13000000
 H      39.09200000      36.95500000      29.98300000
 O      36.01000000      38.50700000      35.34100000
 H      36.11100000      39.16200000      34.69600000
 H      36.00200000      37.62300000      34.85500000
 O      22.94900000      35.09900000      30.35500000
 H      22.10400000      35.03300000      29.92600000
 H      23.47600000      35.64000000      29.79700000
 O      36.07700000      35.41500000      28.96100000
 H      36.64500000      35.15100000      29.71400000
 H      35.88600000      36.33000000      29.26100000
 O      31.25200000      37.74400000      33.34200000
 H      31.48900000      37.28000000      34.19500000
 H      32.08000000      38.22400000      33.14200000
 O      27.95400000      34.64200000      39.73200000
 H      27.49900000      33.83900000      39.51200000
 H      27.32000000      35.36200000      39.46200000
 O      35.33200000      36.36900000      33.61800000
 H      35.09400000      36.36400000      32.64000000
 H      35.87900000      35.54400000      33.63800000
 O      29.65300000      37.63500000      27.91900000
 H      29.89400000      38.53100000      28.29400000
 H      28.65000000      37.64400000      28.02700000
 O      38.94500000      40.03800000      39.70800000
 H      39.07600000      40.28300000      38.78000000
 H      39.84800000      40.40900000      40.02200000
 O      27.74100000      38.06400000      39.34800000
 H      27.87900000      38.13000000      40.36700000
 H      26.82600000      38.39600000      39.35700000
 O      23.85500000      36.38200000      36.98100000
 H      22.98100000      36.17300000      36.54300000
 H      23.56700000      37.21700000      37.47800000
 O      36.76500000      38.31700000      37.90500000
 H      37.56300000      38.83100000      37.78500000
 H      36.51100000      38.34600000      36.92500000
 O      26.24900000      40.08900000      30.88000000
 H      25.85400000      40.96500000      30.73900000
 H      26.87000000      40.28600000      31.56200000
 O      25.72400000      34.20500000      37.65300000
 H      25.04600000      34.92100000      37.57000000
 H      25.30800000      33.55300000      37.00900000
 O      23.01700000      35.39400000      33.11900000
 H      22.97600000      35.27000000      32.17800000
 H      22.34000000      34.69100000      33.40200000
 O      32.01800000      39.69600000      36.17600000
 H      32.82600000      39.10200000      36.18500000
 H      31.30500000      39.04600000      36.17700000
 O      21.24100000      35.88700000      36.11400000
 H      20.48200000      35.92900000      36.76900000
 H      20.81400000      36.35900000      35.37200000
 O      32.68400000      37.72100000      28.60900000
 H      31.70900000      37.59000000      28.52400000
 H      32.96400000      36.88000000      28.15200000
 O      22.85700000      38.91500000      38.10400000
 H      21.93500000      39.09400000      37.76100000
 H      22.59400000      38.67300000      39.02700000
 O      30.28400000      35.15400000      32.02200000
 H      30.45700000      36.00900000      32.33100000
 H      29.35200000      35.16400000      31.75700000
 O      31.35200000      35.57300000      39.67400000
 H      30.69300000      35.22600000      40.32300000
 H      31.40700000      34.79900000      39.05300000
 O      21.07600000      39.76400000      34.91100000
 H      21.71400000      39.07300000      34.61600000
 H      20.45400000      39.79900000      34.14000000
 O      27.34100000      39.97200000      28.14700000
 H      26.92100000      40.60100000      28.72300000
 H      28.15100000      39.77400000      28.70400000
 O      22.16100000      38.44700000      40.66000000
 H      21.62800000      39.11400000      41.11700000
 H      22.21100000      37.75700000      41.42000000
 O      39.08300000      37.50600000      34.16100000
 H      38.53200000      38.09900000      33.57500000
 H      39.98200000      37.81400000      33.86200000
 O      32.49800000      34.93500000      30.23300000
 H      31.81400000      35.22400000      30.83600000
 H      31.94900000      34.41800000      29.62300000
 O      22.37200000      39.61000000      31.46500000
 H      22.06300000      38.76000000      31.15900000
 H      22.89000000      39.32900000      32.25800000
 O      23.19600000      37.99100000      33.74800000
 H      24.06100000      37.93500000      34.23300000
 H      23.11600000      37.00200000      33.43300000
 O      31.19000000      36.74000000      35.94400000
 H      31.97400000      36.94500000      36.44700000
 H      30.95700000      35.84500000      36.31900000
 O      28.27100000      34.64500000      36.65200000
 H      27.47000000      34.46000000      37.24100000
 H      27.71600000      34.83500000      35.86600000
 O      37.69600000      34.32700000      30.70600000
 H      37.29200000      34.07700000      31.57900000
 H      38.55000000      34.66400000      31.00200000
 O      27.83500000      35.66800000      30.41200000
 H      27.71000000      35.23600000      29.54900000
 H      27.13000000      36.30800000      30.43800000
 O      33.71900000      40.09400000      32.65600000
 H      33.98200000      39.76800000      31.79000000
 H      34.52300000      40.08800000      33.18200000
 O      31.38400000      38.41600000      39.24600000
 H      31.09300000      37.44900000      39.27300000
 H      32.22700000      38.32100000      38.70300000
 O      29.50300000      39.88700000      29.69600000
 H      30.11500000      40.64700000      29.69200000
 H      29.19300000      39.89100000      30.65100000
 O      39.73900000      35.24500000      35.88200000
 H      39.50300000      35.99400000      35.31400000
 H      39.16200000      34.55800000      35.57500000
 O      25.50300000      37.24100000      34.92300000
 H      26.05200000      36.44800000      34.67800000
 H      25.13200000      36.90000000      35.76400000
 O      20.93400000      35.60600000      28.07100000
 H      20.77500000      36.15200000      27.31200000
 H      20.65100000      34.68700000      27.74600000
 O      35.60400000      39.82200000      40.07100000
 H      34.86100000      40.06100000      39.45000000
 H      36.08600000      39.13800000      39.58100000
 O      33.76200000      35.34300000      27.14700000
 H      34.52500000      35.18200000      27.76900000
 H      33.25000000      34.54100000      27.15900000
 O      39.90300000      35.80200000      31.51900000
 H      39.92600000      36.50900000      32.18400000
 H      40.88600000      35.87500000      31.25600000
 O      26.67100000      40.02400000      34.60300000
 H      27.57700000      39.80800000      34.30800000
 H      26.46400000      39.11300000      34.97400000
 O      33.83400000      37.54900000      37.15600000
 H      34.47300000      36.96300000      36.70100000
 H      34.49200000      38.12200000      37.55600000
 O      39.75000000      47.60100000      32.12300000
 H      39.22000000      47.93000000      31.38700000
 H      39.50300000      48.23100000      32.83500000
 O      25.91900000      44.56200000      30.87100000
 H      25.35800000      44.88300000      31.62600000
 H      26.82300000      44.63100000      31.25600000
 O      21.56000000      48.77800000      30.00300000
 H      22.24400000      48.04900000      30.10300000
 H      21.75700000      48.97600000      29.03600000
 O      37.00000000      45.79000000      27.32000000
 H      36.91700000      45.85000000      28.28900000
 H      37.18200000      44.82000000      27.17000000
 O      26.49400000      47.84800000      33.46900000
 H      27.26300000      47.26100000      33.22800000
 H      25.76600000      47.24200000      33.19600000
 O      20.84800000      47.75600000      38.05800000
 H      21.04800000      48.71500000      37.79500000
 H      20.99000000      47.35700000      37.16900000
 O      23.57500000      45.36300000      35.94300000
 H      24.43200000      44.98500000      35.71900000
 H      23.21600000      44.59600000      36.39500000
 O      25.95800000      45.52900000      38.64500000
 H      25.06500000      45.49900000      38.16200000
 H      26.45800000      45.04700000      37.97700000
 O      24.92500000      45.76600000      32.98100000
 H      23.92200000      45.77100000      33.16800000
 H      25.20300000      45.18300000      33.74200000
 O      28.33500000      42.29900000      32.31500000
 H      28.78600000      43.19200000      32.64100000
 H      28.65800000      41.82800000      33.17200000
 O      31.89200000      48.57200000      37.09300000
 H      31.23100000      48.79700000      37.78200000
 H      31.36900000      48.02400000      36.45700000
 O      23.20600000      42.73200000      29.39100000
 H      23.08100000      42.11200000      30.22800000
 H      23.76800000      42.06200000      28.93200000
 O      34.29100000      45.68100000      31.65000000
 H      35.17000000      45.26100000      31.74600000
 H      34.52300000      46.58000000      32.02000000
 O      33.58900000      47.21900000      38.58700000
 H      32.82600000      47.57100000      38.13500000
 H      34.04500000      48.11000000      38.79500000
 O      27.81200000      43.53700000      37.14500000
 H      28.64500000      43.49000000      37.66100000
 H      27.68600000      42.58100000      37.01300000
 O      20.68900000      46.96900000      35.44700000
 H      20.22400000      47.11000000      34.59200000
 H      21.37900000      46.29300000      35.16000000
 O      37.48000000      45.23900000      40.05400000
 H      37.57100000      44.55500000      40.78600000
 H      37.24700000      46.02700000      40.53300000
 O      34.03400000      44.56900000      39.98700000
 H      33.82100000      45.46100000      39.66700000
 H      34.14900000      44.65800000      40.93700000
 O      32.93600000      42.69800000      27.70200000
 H      32.32400000      42.96900000      28.43600000
 H      33.81400000      43.01800000      28.05300000
 O      25.91500000      45.51400000      28.28400000
 H      25.84900000      45.19600000      29.21400000
 H      24.96700000      45.62900000      28.09800000
 O      31.05100000      44.13900000      36.04400000
 H      31.20200000      43.22000000      36.30700000
 H      30.92600000      44.56100000      36.92800000
 O      35.62500000      43.38000000      29.36200000
 H      36.34300000      43.44900000      28.68100000
 H      36.18800000      43.34000000      30.17900000
 O      35.63800000      47.05700000      35.42400000
 H      35.18500000      46.76200000      36.26700000
 H      36.53600000      47.15700000      35.65400000
 O      23.52700000      47.19700000      30.52300000
 H      23.48300000      46.32400000      30.07800000
 H      23.62300000      46.93600000      31.51400000
 O      29.56600000      48.81600000      34.49500000
 H      28.89100000      49.09900000      35.06300000
 H      29.48500000      47.83700000      34.60000000
 O      25.14600000      49.04300000      28.95300000
 H      24.76300000      48.28500000      29.49400000
 H      25.97200000      49.13000000      29.44700000
 O      24.79900000      48.09500000      37.84200000
 H      24.52900000      47.21500000      38.25400000
 H      24.64600000      48.63200000      38.63400000
 O      30.01000000      44.22300000      33.39900000
 H      30.90500000      43.91000000      33.04900000
 H      30.25900000      44.22700000      34.36600000
 O      29.90500000      46.51800000      36.05900000
 H      29.61000000      46.21100000      36.94700000
 H      30.36100000      45.63900000      35.84700000
 O      20.04500000      42.77200000      31.27200000
 H      20.92400000      42.26200000      31.28900000
 H      19.68400000      42.42600000      32.13900000
 O      39.33800000      47.02800000      38.30400000
 H      39.01400000      46.09100000      38.35000000
 H      39.95200000      46.94300000      37.57900000
 O      35.94600000      43.19200000      36.89300000
 H      35.38600000      42.41800000      36.99900000
 H      35.31200000      43.93600000      36.93000000
 O      33.88700000      42.28900000      38.32200000
 H      33.21400000      42.36100000      37.67500000
 H      33.84800000      43.17500000      38.80000000
 O      28.56500000      46.48400000      32.79700000
 H      28.91100000      46.32800000      31.87800000
 H      28.99800000      45.74000000      33.28800000
 O      29.31900000      46.59300000      30.15800000
 H      30.27500000      46.48300000      30.20800000
 H      29.07100000      46.61400000      29.25600000
 O      31.21300000      43.61800000      29.61100000
 H      31.29000000      43.62200000      30.60000000
 H      31.56100000      44.59200000      29.47600000
 O      38.16100000      47.84100000      34.66400000
 H      38.15200000      48.57200000      35.34300000
 H      37.72700000      48.33000000      33.91000000
 O      38.53300000      45.92300000      29.71700000
 H      39.42600000      45.63800000      29.42100000
 H      38.60500000      46.87600000      29.65000000
 O      38.31100000      43.88500000      37.75400000
 H      37.41800000      43.62100000      37.49300000
 H      38.06400000      44.35300000      38.60500000
 O      36.87500000      44.61000000      31.53100000
 H      37.54100000      44.30600000      32.16500000
 H      37.51400000      45.14100000      30.92600000
 O      22.47100000      43.73600000      37.65300000
 H      22.67200000      44.23900000      38.51000000
 H      21.53400000      43.97200000      37.52700000
 O      27.86700000      47.37700000      39.31200000
 H      27.14000000      46.75400000      39.14600000
 H      27.86400000      47.38000000      40.27900000
 O      34.93600000      48.10200000      33.23400000
 H      34.02100000      48.43200000      33.34000000
 H      34.99400000      47.64100000      34.11900000
 O      23.31600000      48.52100000      35.66100000
 H      22.80600000      47.69600000      35.70100000
 H      23.83000000      48.37100000      36.51600000
 O      32.96300000      46.12300000      34.58600000
 H      32.55400000      46.95600000      34.36900000
 H      33.45000000      45.83100000      33.83500000
 O      39.06700000      42.51600000      31.74600000
 H      40.03600000      42.70900000      31.82000000
 H      39.02100000      42.28800000      30.79600000
 O      20.63100000      44.27100000      34.59200000
 H      21.04900000      43.47100000      34.99800000
 H      19.88900000      44.37300000      35.26100000
 O      22.73400000      46.06300000      39.41300000
 H      22.94400000      46.64100000      40.15200000
 H      22.05800000      46.61300000      38.99100000
 O      25.89100000      44.24200000      35.18600000
 H      26.78900000      44.39300000      35.66800000
 H      25.99400000      43.31400000      34.89400000
 O      30.02100000      48.80300000      38.91300000
 H      29.62500000      49.64100000      38.54900000
 H      29.19700000      48.27400000      39.06200000
 O      29.94300000      42.30500000      38.87600000
 H      29.46500000      41.56600000      38.46800000
 H      30.68600000      41.84500000      39.33900000
 O      32.18700000      46.34200000      29.60500000
 H      33.05400000      46.24500000      30.04100000
 H      32.39100000      47.13200000      29.04700000
 O      33.87300000      45.11800000      36.79000000
 H      33.47200000      45.28700000      35.94600000
 H      33.36500000      45.72300000      37.35900000
 O      22.99100000      45.22800000      28.82800000
 H      23.09200000      44.22900000      28.83700000
 H      22.07200000      45.32300000      28.58200000
 O      32.29300000      43.74500000      32.02600000
 H      33.09000000      44.33500000      31.86000000
 H      32.78900000      42.89500000      32.14500000
 O      40.83700000      46.62600000      35.79900000
 H      40.08400000      46.61400000      35.25300000
 H      41.50200000      46.06200000      35.37700000
 O      39.97400000      43.20100000      34.64000000
 H      40.51200000      43.54900000      33.84400000
 H      39.28200000      43.90800000      34.54000000
 O      22.16000000      45.81000000      32.79000000
 H      21.44200000      46.44100000      32.53000000
 H      21.64800000      45.24900000      33.41400000
 O      30.33500000      44.93800000      38.36900000
 H      30.55600000      45.40000000      39.19600000
 H      30.34300000      44.00200000      38.66800000
 O      38.16100000      45.00500000      34.35400000
 H      37.72100000      44.76300000      35.17000000
 H      38.07800000      46.00500000      34.41500000
 O      37.07400000      48.50300000      38.66600000
 H      37.93600000      48.00300000      38.66500000
 H      36.64800000      48.17900000      39.50600000
 O      40.78400000      44.65400000      28.96200000
 H      41.40200000      45.32900000      29.38200000
 H      41.36600000      43.85700000      29.12500000
