325
XYZ file of cluster: frame_17000_4babf.671c4.244fe - created by MolEdiTo
 O      14.21200000      28.47600000      16.59900000
 H      13.43000000      28.46500000      17.22800000
 H      14.74600000      29.16200000      17.03300000
 O      21.26400000      31.71300000      12.88200000
 H      22.12600000      32.10900000      12.88400000
 H      20.89900000      31.94500000      13.73000000
 O      18.89000000      34.15400000      16.43900000
 H      18.86600000      34.95500000      17.06800000
 H      18.95300000      34.63800000      15.55000000
 O      17.55000000      29.76400000       7.62900000
 H      16.83800000      29.77700000       8.26000000
 H      17.75300000      30.67900000       7.42000000
 O      23.45000000      20.63100000      12.44300000
 H      23.91400000      21.45500000      12.26900000
 H      22.88400000      20.82900000      13.18600000
 O      20.40800000      33.27200000       8.76500000
 H      21.12000000      33.68200000       9.37400000
 H      21.08700000      33.11200000       8.06100000
 O      24.87800000      25.29400000      16.62300000
 H      24.53400000      26.10200000      16.19000000
 H      24.84900000      25.56200000      17.55200000
 O      18.43400000      29.17200000      17.35100000
 H      18.06600000      30.06800000      17.58500000
 H      18.60500000      29.38700000      16.40600000
 O      24.79900000      31.44500000      18.00800000
 H      25.52000000      30.91100000      18.39600000
 H      24.57100000      31.98900000      18.78900000
 O      15.36800000      28.40400000       9.27800000
 H      15.48700000      27.38500000       9.34100000
 H      14.87000000      28.44900000       8.51700000
 O      26.05600000      34.16600000      17.57600000
 H      25.92200000      34.31300000      18.53400000
 H      26.48100000      34.97700000      17.31600000
 O      20.03000000      22.82900000       7.27400000
 H      19.64900000      23.56500000       6.79100000
 H      20.70700000      23.32000000       7.82000000
 O      25.44500000      21.53700000      17.53200000
 H      25.98100000      22.17300000      16.92700000
 H      25.28700000      22.18100000      18.22600000
 O      17.27200000      32.28500000      14.30000000
 H      17.38300000      32.61000000      13.39800000
 H      16.93400000      33.09500000      14.78100000
 O      14.52400000      30.58100000      18.65100000
 H      14.99900000      31.37700000      18.98400000
 H      14.88200000      29.90200000      19.21700000
 O      26.91500000      23.43700000      16.30700000
 H      26.84300000      23.05400000      15.39800000
 H      26.44600000      24.30700000      16.19900000
 O      16.08500000      32.39900000      20.03500000
 H      15.85600000      33.23400000      20.56500000
 H      16.85600000      32.09200000      20.59200000
 O      16.61000000      23.18900000      18.94000000
 H      16.11700000      23.28200000      19.79600000
 H      17.38400000      22.68000000      19.31700000
 O      27.42000000      32.22500000      15.30300000
 H      26.42800000      32.07300000      15.34800000
 H      27.75500000      31.33900000      15.38200000
 O      24.49700000      23.31200000      19.67300000
 H      24.75200000      23.28600000      20.61800000
 H      24.59000000      24.22200000      19.43800000
 O      15.33100000      22.47300000      13.70700000
 H      15.32400000      22.68300000      14.68500000
 H      15.99900000      21.75000000      13.73300000
 O      27.28400000      25.68900000      14.12900000
 H      26.34600000      25.92900000      14.03700000
 H      27.13700000      24.70600000      14.10500000
 O      16.09100000      21.64400000       8.14100000
 H      16.62200000      22.17800000       8.82700000
 H      15.64700000      22.35900000       7.61700000
 O      27.23100000      22.36000000       7.07200000
 H      26.72500000      22.40400000       7.93600000
 H      26.37100000      22.48400000       6.45600000
 O      21.78300000      24.01600000       8.83600000
 H      22.49900000      24.56100000       8.47800000
 H      21.83800000      24.35200000       9.77000000
 O      17.16300000      24.77700000      13.12900000
 H      16.63300000      24.01700000      12.83800000
 H      18.06600000      24.43500000      12.96200000
 O      15.21700000      30.74300000      13.52100000
 H      15.97900000      31.28700000      13.86300000
 H      15.48800000      29.90300000      13.82400000
 O      16.23800000      22.21700000      16.22900000
 H      17.19600000      22.39300000      16.23600000
 H      16.11800000      22.22200000      17.21800000
 O      22.70100000      33.04400000      20.42900000
 H      23.54900000      33.49200000      20.21200000
 H      22.09500000      33.80000000      20.51600000
 O      15.92300000      28.98200000      20.43100000
 H      16.52900000      29.08400000      21.18100000
 H      15.76800000      28.03100000      20.45900000
 O      20.80800000      26.27500000      16.60800000
 H      21.32200000      25.64700000      17.16000000
 H      20.00200000      26.42400000      17.10000000
 O      24.79300000      34.69600000       9.21500000
 H      24.39400000      34.33700000       8.38100000
 H      24.96300000      33.78600000       9.56800000
 O      19.36400000      30.82700000      15.26800000
 H      19.88500000      31.49900000      15.75500000
 H      18.50500000      31.45400000      15.13300000
 C      20.14400000      22.40600000      21.37600000
 C      21.19600000      21.35300000      20.99200000
 C      21.61200000      18.80000000      20.38900000
 H      19.86200000      19.68700000      21.43800000
 H      20.79500000      24.10200000      20.78300000
 O      19.68400000      20.07200000      19.48700000
 O      19.27000000      22.74900000      20.25300000
 O      20.87700000      23.60400000      21.62900000
 C      20.53700000      19.94900000      20.65600000
 O      22.00100000      21.79500000      19.79900000
 H      21.87700000      21.22400000      21.88400000
 O      22.10400000      18.49800000      21.65000000
 O      21.09700000      17.55500000      20.62600000
 H      21.67800000      17.68900000      21.46300000
 H      22.83400000      22.26300000      20.14100000
 H      20.08100000      20.83200000      18.90500000
 O      14.74100000      35.10600000      12.70300000
 H      15.18500000      35.23800000      13.56500000
 H      15.38300000      34.54500000      12.24700000
 O      27.66400000      26.32100000      19.38900000
 H      27.20100000      27.14800000      19.54200000
 H      27.79700000      26.31000000      18.41400000
 O      25.88800000      21.79700000       9.39000000
 H      26.42800000      21.16900000       9.93100000
 H      25.33700000      21.16200000       8.93300000
 O      23.63400000      27.59100000      15.84300000
 H      22.78700000      27.86600000      15.37600000
 H      23.39700000      27.82800000      16.81200000
 O      25.31500000      29.87400000      11.39600000
 H      25.14300000      29.53200000      10.51700000
 H      24.48900000      29.54900000      11.85800000
 O      22.90900000      28.65900000      18.50000000
 H      22.27900000      29.38800000      18.32300000
 H      23.62700000      29.15700000      18.91200000
 O      19.70600000      29.84900000      19.86100000
 H      19.26200000      29.34500000      19.08600000
 H      20.42400000      30.27000000      19.34500000
 O      23.77200000      32.86800000       7.27500000
 H      24.33900000      32.09600000       7.00300000
 H      23.64500000      33.13600000       6.28200000
 O      28.15600000      31.99200000      18.05500000
 H      27.73900000      32.41200000      17.32400000
 H      28.44400000      31.14900000      17.61200000
 O      20.86600000      25.39200000      19.63200000
 H      21.37900000      26.24600000      19.70900000
 H      19.97200000      25.74400000      19.43600000
 O      15.26800000      26.06800000      19.72400000
 H      14.46300000      26.56600000      20.01500000
 H      15.36400000      26.30700000      18.81400000
 O      26.17900000      29.55000000      19.43200000
 H      25.87100000      29.37300000      20.28700000
 H      27.13400000      29.57500000      19.60700000
 O      14.04400000      26.10000000      10.47100000
 H      13.76400000      25.22000000      10.19600000
 H      15.01100000      26.04200000      10.40100000
 O      25.54600000      32.39100000      10.76700000
 H      25.40300000      31.42400000      10.99500000
 H      26.40900000      32.51400000      11.23800000
 O      22.00700000      27.06100000      13.00400000
 H      22.28600000      27.75400000      12.37800000
 H      21.60900000      27.55500000      13.72800000
 O      27.73800000      28.56000000      12.66400000
 H      27.11900000      29.22800000      12.26100000
 H      27.25300000      28.43500000      13.50400000
 O      24.92200000      22.75600000      11.96400000
 H      24.61200000      23.58400000      11.53100000
 H      25.32800000      22.26600000      11.23400000
 O      15.35900000      34.76900000       9.18500000
 H      16.07100000      34.10700000       9.28500000
 H      14.52300000      34.33300000       9.36300000
 O      15.16500000      24.02500000       7.07200000
 H      15.23400000      24.81600000       6.50600000
 H      14.27100000      23.64500000       6.69200000
 O      20.11500000      33.76300000      20.05400000
 H      19.67100000      34.13600000      19.27900000
 H      20.03900000      34.49900000      20.71100000
 O      15.53200000      26.94900000      13.53500000
 H      15.92500000      26.05900000      13.23400000
 H      15.91800000      27.50600000      12.88100000
 O      22.10900000      24.78600000      11.41700000
 H      22.00100000      25.54000000      12.05200000
 H      22.31300000      24.06300000      11.97400000
 O      17.03700000      28.80000000      11.78800000
 H      18.00200000      28.65100000      11.66900000
 H      16.75100000      28.67400000      10.87800000
 O      27.19000000      29.71800000       8.51100000
 H      27.36000000      30.12200000       9.38200000
 H      27.87800000      30.18400000       7.96300000
 O      21.30300000      28.82300000      15.02000000
 H      20.70100000      28.15700000      15.47700000
 H      20.59900000      29.48100000      14.75700000
 O      13.24900000      31.55600000      11.42800000
 H      14.10200000      31.44400000      11.95700000
 H      12.92000000      30.64200000      11.52300000
 O      19.58400000      21.90900000      17.67700000
 H      19.69600000      22.50400000      18.50400000
 H      19.54400000      22.59900000      16.98500000
 O      19.43700000      24.10900000      11.42000000
 H      19.35300000      25.05000000      11.05300000
 H      20.43400000      24.13700000      11.50200000
 O      22.50800000      29.86700000      11.18800000
 H      22.04300000      29.98800000      10.32900000
 H      22.21000000      30.62900000      11.69800000
 O      24.51200000      26.12100000      19.02900000
 H      24.12800000      26.96300000      18.86000000
 H      24.51200000      26.03600000      20.03000000
 O      21.36800000      24.33700000      14.56500000
 H      21.39100000      24.93800000      15.38700000
 H      21.98300000      23.64500000      14.82100000
 O      24.97900000      34.54700000      20.07000000
 H      24.46600000      35.23400000      20.58200000
 H      25.60400000      34.32700000      20.84800000
 O      22.10700000      27.83600000       7.38200000
 H      22.42600000      27.02100000       7.80100000
 H      21.22300000      27.92000000       7.78800000
 O      17.41500000      22.87900000      10.09100000
 H      17.55600000      21.95600000      10.38400000
 H      18.19200000      23.27500000      10.56100000
 O      13.80200000      23.09900000      18.39900000
 H      13.39000000      23.94600000      18.08700000
 H      14.72600000      23.35600000      18.56900000
 O      20.01700000      30.90200000      10.39600000
 H      20.07500000      31.74100000       9.85000000
 H      19.92500000      31.31600000      11.29500000
 O      26.89400000      22.73900000      13.83600000
 H      27.60300000      22.32600000      13.27100000
 H      26.14700000      22.69000000      13.20800000
 O      23.82400000      25.46000000       8.00600000
 H      24.40800000      25.62800000       7.22300000
 H      24.48300000      25.07000000       8.61700000
 O      17.61900000      33.28000000       9.18300000
 H      18.57200000      33.32200000       9.08300000
 H      17.42200000      32.72100000       8.40400000
 O      23.53000000      33.06800000      12.66200000
 H      24.15800000      32.56000000      12.08000000
 H      24.16600000      33.42100000      13.31700000
 O      19.86400000      28.86000000       8.67600000
 H      20.01400000      29.59100000       9.36800000
 H      19.07200000      29.21400000       8.26500000
 O      15.89300000      25.80400000      16.75000000
 H      15.28000000      26.53700000      16.42500000
 H      15.74900000      25.18400000      16.00400000
 O      23.34600000      34.05400000      16.98600000
 H      24.28000000      33.83200000      17.20100000
 H      23.24400000      34.97000000      17.36000000
 O      18.50700000      20.80200000       6.76700000
 H      19.14700000      21.53000000       6.90300000
 H      17.75100000      21.24400000       7.27500000
 O      21.64600000      31.18400000      18.54500000
 H      21.99900000      31.78100000      19.26200000
 H      21.68800000      31.75300000      17.78200000
 O      24.95800000      25.42600000      10.52500000
 H      25.87200000      25.53700000      10.29500000
 H      24.62700000      26.29300000      10.18100000
 O      18.62600000      26.67500000      10.27100000
 H      17.85200000      26.31300000       9.76100000
 H      18.97300000      27.31100000       9.68000000
 O      18.10100000      26.44600000      15.22800000
 H      17.36800000      26.30400000      15.87400000
 H      17.65800000      26.27600000      14.39700000
 O      21.91200000      21.24600000      15.14400000
 H      22.16700000      20.61200000      15.81800000
 H      22.24800000      22.05600000      15.48200000
 O      13.93300000      34.48600000      16.29300000
 H      13.07200000      34.02000000      16.15900000
 H      14.06100000      34.45400000      17.23500000
 O      22.64600000      21.28600000       9.15400000
 H      22.27400000      22.23600000       9.24400000
 H      21.88100000      20.79100000       9.55600000
 O      25.82600000      28.92900000      14.49400000
 H      24.96000000      28.55700000      14.65100000
 H      25.53300000      29.90100000      14.51900000
 O      25.26400000      30.51100000       6.65100000
 H      24.69700000      29.75200000       6.73800000
 H      26.05000000      30.34900000       7.18100000
 O      17.08400000      33.90900000      11.69900000
 H      17.63300000      34.70800000      11.58800000
 H      17.21300000      33.53900000      10.77800000
 O      24.59400000      25.46300000      13.55900000
 H      24.80500000      25.75400000      12.64300000
 H      23.68600000      25.79600000      13.68100000
 O      24.74600000      31.39100000      15.26000000
 H      23.76100000      31.24700000      15.10300000
 H      24.71000000      31.39100000      16.25900000
 O      21.12300000      32.61700000      16.02400000
 H      20.39800000      33.17300000      16.30200000
 H      21.91200000      33.06700000      16.39400000
 O      18.91700000      23.82200000      15.70200000
 H      18.37300000      24.66900000      15.59500000
 H      19.77400000      24.07400000      15.27100000
 O      27.74900000      25.71200000       8.91600000
 H      28.15400000      26.51100000       9.21000000
 H      27.86000000      25.78600000       7.96800000
 O      25.27800000      34.33300000      14.39600000
 H      26.18300000      34.75000000      14.26900000
 H      25.50700000      33.63700000      14.99600000
 O      17.56700000      31.78400000      17.82800000
 H      17.76900000      32.64300000      17.32100000
 H      17.09800000      32.20500000      18.58500000
 O      22.32600000      34.28000000      10.58800000
 H      22.66600000      33.91100000      11.44400000
 H      23.16200000      34.32400000      10.09900000
 O      18.44400000      31.85400000      21.25000000
 H      18.97100000      32.46600000      20.70400000
 H      18.74300000      31.01300000      20.86200000
 O      24.79200000      27.87200000       9.33100000
 H      24.31100000      27.26400000       8.68600000
 H      25.66100000      27.93200000       8.93400000
 O      22.82100000      23.27400000      16.62700000
 H      23.72600000      23.68100000      16.74400000
 H      22.66900000      23.02000000      17.55200000
 O      27.41300000      33.03700000      12.67400000
 H      27.65900000      32.80500000      13.58600000
 H      27.67200000      34.01700000      12.56700000
 O      27.33200000      27.12400000      16.61800000
 H      26.52000000      27.44900000      16.25100000
 H      27.58800000      26.44000000      16.03200000
 O      22.23000000      20.99300000       6.28100000
 H      21.64300000      21.75100000       6.16400000
 H      22.23700000      20.96000000       7.30800000
 O      16.32400000      25.26200000       9.34100000
 H      15.91200000      24.92200000       8.56500000
 H      16.87300000      24.52500000       9.67200000
 O      18.67300000      26.44300000      18.36800000
 H      17.90800000      25.93300000      18.11900000
 H      18.45900000      27.31400000      17.97100000
