363
XYZ file of cluster: frame_17000_77cc4.9b297.9a6bb - created by MolEdiTo
 O      28.61100000      38.59600000      36.88300000
 H      28.14400000      38.38600000      37.75100000
 H      29.02900000      37.70700000      36.74300000
 O      23.27700000      37.61100000      28.57800000
 H      22.49100000      37.06500000      28.40900000
 H      23.73300000      37.60300000      27.76300000
 O      34.53100000      36.33600000      31.12900000
 H      33.85600000      35.62300000      30.80500000
 H      34.16300000      37.10100000      30.62100000
 O      25.32000000      39.16800000      39.15400000
 H      24.63500000      39.28100000      38.48200000
 H      24.89500000      39.61600000      39.90600000
 O      34.27900000      39.33400000      30.01000000
 H      33.49700000      38.99500000      29.46100000
 H      34.51900000      40.12700000      29.43300000
 O      32.98000000      30.27600000      35.75700000
 H      32.13600000      30.09800000      35.34800000
 H      33.03700000      31.18900000      35.87500000
 O      35.50800000      28.10200000      34.22600000
 H      36.11300000      27.77400000      33.54400000
 H      34.63700000      27.70900000      33.92800000
 O      35.33200000      36.36900000      33.61800000
 H      35.09400000      36.36400000      32.64000000
 H      35.87900000      35.54400000      33.63800000
 O      22.07000000      32.58600000      37.31000000
 H      21.16200000      32.78200000      36.98700000
 H      22.08600000      32.97400000      38.18400000
 O      27.74100000      38.06400000      39.34800000
 H      27.87900000      38.13000000      40.36700000
 H      26.82600000      38.39600000      39.35700000
 O      36.76500000      38.31700000      37.90500000
 H      37.56300000      38.83100000      37.78500000
 H      36.51100000      38.34600000      36.92500000
 O      26.24900000      40.08900000      30.88000000
 H      25.85400000      40.96500000      30.73900000
 H      26.87000000      40.28600000      31.56200000
 O      25.72400000      34.20500000      37.65300000
 H      25.04600000      34.92100000      37.57000000
 H      25.30800000      33.55300000      37.00900000
 O      35.24200000      32.18800000      29.36600000
 H      35.56800000      33.09200000      29.20700000
 H      35.73800000      31.66600000      28.64000000
 O      32.01800000      39.69600000      36.17600000
 H      32.82600000      39.10200000      36.18500000
 H      31.30500000      39.04600000      36.17700000
 O      32.68400000      37.72100000      28.60900000
 H      31.70900000      37.59000000      28.52400000
 H      32.96400000      36.88000000      28.15200000
 O      30.28400000      35.15400000      32.02200000
 H      30.45700000      36.00900000      32.33100000
 H      29.35200000      35.16400000      31.75700000
 O      39.54700000      32.68000000      29.14100000
 H      39.21700000      33.19900000      29.85100000
 H      38.78000000      32.17100000      28.75000000
 O      21.07600000      39.76400000      34.91100000
 H      21.71400000      39.07300000      34.61600000
 H      20.45400000      39.79900000      34.14000000
 O      21.66300000      33.54300000      39.84400000
 H      21.01500000      34.19800000      40.08700000
 H      22.47300000      33.78700000      40.30800000
 O      22.16100000      38.44700000      40.66000000
 H      21.62800000      39.11400000      41.11700000
 H      22.21100000      37.75700000      41.42000000
 O      31.19000000      36.74000000      35.94400000
 H      31.97400000      36.94500000      36.44700000
 H      30.95700000      35.84500000      36.31900000
 O      37.58900000      31.19800000      37.71100000
 H      37.06300000      31.11700000      36.89900000
 H      36.98800000      30.63800000      38.30700000
 O      37.69600000      34.32700000      30.70600000
 H      37.29200000      34.07700000      31.57900000
 H      38.55000000      34.66400000      31.00200000
 O      27.83500000      35.66800000      30.41200000
 H      27.71000000      35.23600000      29.54900000
 H      27.13000000      36.30800000      30.43800000
 O      40.26100000      31.28700000      39.18600000
 H      40.58200000      32.22000000      39.01800000
 H      39.55300000      31.16600000      38.50100000
 O      35.71500000      28.13900000      29.76500000
 H      35.97700000      27.35000000      29.24500000
 H      34.82200000      28.31800000      29.40000000
 O      37.41000000      31.27400000      27.83800000
 H      37.21600000      30.31300000      27.64600000
 H      37.08800000      31.68100000      26.97400000
 O      27.61600000      32.82000000      28.80000000
 H      26.75400000      33.06900000      29.13500000
 H      27.48500000      33.01500000      27.82100000
 O      39.18700000      32.75400000      33.50400000
 H      39.63800000      32.27500000      34.23100000
 H      39.88800000      32.78700000      32.88400000
 O      25.60300000      37.47300000      30.28500000
 H      24.77100000      37.68100000      29.85200000
 H      25.87500000      38.34900000      30.64900000
 O      37.55800000      35.57300000      38.95500000
 H      37.11700000      36.36500000      38.62100000
 H      38.38400000      35.96700000      39.35000000
 O      29.24400000      39.31000000      34.15200000
 H      29.19900000      38.87900000      35.01400000
 H      29.84800000      38.71800000      33.64900000
 O      24.43300000      33.79500000      40.38800000
 H      25.08400000      33.83600000      39.68000000
 H      24.71700000      32.99700000      40.89700000
 O      36.55600000      40.41200000      33.39700000
 H      37.20800000      40.47800000      32.62500000
 H      37.11200000      40.88800000      34.06500000
 O      25.21200000      32.97800000      35.31500000
 H      24.85300000      32.89800000      34.35500000
 H      25.43500000      31.97500000      35.42600000
 O      39.30600000      37.60300000      29.28300000
 H      38.43000000      38.00300000      29.13000000
 H      39.09200000      36.95500000      29.98300000
 O      22.94900000      35.09900000      30.35500000
 H      22.10400000      35.03300000      29.92600000
 H      23.47600000      35.64000000      29.79700000
 O      25.27800000      32.82900000      30.20800000
 H      24.80500000      33.67100000      30.51100000
 H      24.59100000      32.19000000      30.52200000
 O      31.25200000      37.74400000      33.34200000
 H      31.48900000      37.28000000      34.19500000
 H      32.08000000      38.22400000      33.14200000
 O      27.95400000      34.64200000      39.73200000
 H      27.49900000      33.83900000      39.51200000
 H      27.32000000      35.36200000      39.46200000
 O      29.65300000      37.63500000      27.91900000
 H      29.89400000      38.53100000      28.29400000
 H      28.65000000      37.64400000      28.02700000
 O      38.94500000      40.03800000      39.70800000
 H      39.07600000      40.28300000      38.78000000
 H      39.84800000      40.40900000      40.02200000
 O      39.38800000      27.29300000      33.29300000
 H      38.64200000      26.96700000      32.75300000
 H      39.63800000      28.04300000      32.74000000
 O      37.78700000      27.41100000      35.84700000
 H      36.96300000      27.81000000      35.57800000
 H      38.41200000      27.78200000      35.20900000
 O      21.28200000      32.53600000      29.93300000
 H      20.61200000      32.72300000      30.61900000
 H      20.76500000      32.92800000      29.18400000
 O      23.85500000      36.38200000      36.98100000
 H      22.98100000      36.17300000      36.54300000
 H      23.56700000      37.21700000      37.47800000
 O      22.46800000      28.86500000      27.97000000
 H      22.45200000      28.03000000      28.52500000
 H      21.60400000      29.24900000      28.16400000
 O      28.27100000      34.64500000      36.65200000
 H      27.47000000      34.46000000      37.24100000
 H      27.71600000      34.83500000      35.86600000
 O      24.07400000      27.83000000      31.29100000
 H      23.11800000      27.82100000      31.18700000
 H      24.41900000      28.26700000      30.52600000
 O      28.99800000      31.83700000      35.98600000
 H      29.04500000      31.67500000      34.99300000
 H      28.43700000      32.62100000      35.97100000
 O      26.28600000      29.77300000      37.81800000
 H      27.12200000      29.29000000      37.57700000
 H      25.83400000      29.06300000      38.31400000
 O      25.50300000      37.24100000      34.92300000
 H      26.05200000      36.44800000      34.67800000
 H      25.13200000      36.90000000      35.76400000
 O      21.79100000      30.23400000      32.94700000
 H      20.83500000      30.22000000      33.08100000
 H      22.18900000      30.22900000      33.82300000
 O      23.36600000      30.91900000      29.98200000
 H      23.55100000      30.86700000      29.02200000
 H      22.59500000      31.52000000      29.96100000
 O      21.68800000      33.76900000      34.64000000
 H      22.22600000      33.27800000      35.29800000
 H      21.73100000      34.62400000      35.06300000
 O      26.67100000      40.02400000      34.60300000
 H      27.57700000      39.80800000      34.30800000
 H      26.46400000      39.11300000      34.97400000
 O      34.98800000      35.28200000      36.01500000
 H      35.77400000      34.84900000      36.36600000
 H      35.32600000      35.57700000      35.13500000
 O      31.62900000      29.73100000      38.02000000
 H      31.71500000      29.84800000      37.04800000
 H      32.55100000      30.01900000      38.25800000
 O      27.41300000      33.40900000      31.98400000
 H      27.73300000      34.00400000      31.27600000
 H      26.57200000      33.06000000      31.54800000
 O      31.53400000      29.60100000      31.63600000
 H      31.33400000      29.50100000      30.68800000
 H      32.03100000      30.47100000      31.61500000
 O      30.33100000      33.55600000      29.02300000
 H      29.51100000      33.33900000      28.55500000
 H      30.11500000      33.05700000      29.82700000
 O      30.81300000      29.75100000      34.27100000
 H      31.13100000      29.64100000      33.32300000
 H      30.32000000      30.56700000      34.19600000
 O      33.25800000      33.09500000      36.13100000
 H      33.92700000      33.81800000      36.02700000
 H      32.53900000      33.46400000      36.56300000
 O      21.30200000      30.86500000      40.00700000
 H      20.56800000      30.62000000      39.37900000
 H      21.30200000      31.81700000      39.80300000
 O      36.07700000      35.41500000      28.96100000
 H      36.64500000      35.15100000      29.71400000
 H      35.88600000      36.33000000      29.26100000
 O      30.57900000      32.53600000      31.44900000
 H      31.51600000      32.29300000      31.45400000
 H      30.62300000      33.47900000      31.62400000
 O      30.13300000      28.81300000      28.83700000
 H      29.73800000      28.22000000      29.50600000
 H      29.60400000      29.62400000      29.05400000
 O      33.23600000      26.95500000      32.26700000
 H      32.63200000      26.41700000      31.69300000
 H      32.84700000      27.85600000      32.02100000
 O      23.18400000      29.05300000      39.87800000
 H      23.71300000      29.46300000      40.61200000
 H      22.54400000      29.80000000      39.75400000
 O      21.23800000      28.54900000      30.79300000
 H      20.90400000      29.29900000      30.31300000
 H      21.54400000      28.99000000      31.62000000
 O      31.35200000      35.57300000      39.67400000
 H      30.69300000      35.22600000      40.32300000
 H      31.40700000      34.79900000      39.05300000
 O      27.34100000      39.97200000      28.14700000
 H      26.92100000      40.60100000      28.72300000
 H      28.15100000      39.77400000      28.70400000
 O      32.49800000      34.93500000      30.23300000
 H      31.81400000      35.22400000      30.83600000
 H      31.94900000      34.41800000      29.62300000
 O      29.50900000      31.34500000      38.52200000
 H      29.26700000      31.28900000      37.57800000
 H      30.26900000      30.70000000      38.59200000
 O      32.78700000      28.48700000      28.27600000
 H      32.95800000      29.24800000      27.74100000
 H      31.81700000      28.57400000      28.48600000
 O      36.42800000      30.78800000      31.41100000
 H      36.05400000      31.50800000      30.86100000
 H      36.39500000      30.01700000      30.85000000
 O      33.71900000      40.09400000      32.65600000
 H      33.98200000      39.76800000      31.79000000
 H      34.52300000      40.08800000      33.18200000
 O      39.73900000      35.24500000      35.88200000
 H      39.50300000      35.99400000      35.31400000
 H      39.16200000      34.55800000      35.57500000
 O      39.90300000      35.80200000      31.51900000
 H      39.92600000      36.50900000      32.18400000
 H      40.88600000      35.87500000      31.25600000
 O      35.12200000      31.81200000      33.42500000
 H      35.16900000      31.40800000      34.32100000
 H      35.64700000      31.21100000      32.86000000
 O      26.90800000      27.85500000      29.64100000
 H      27.54500000      28.53400000      29.75600000
 H      27.36000000      27.03500000      29.91500000
 O      33.83400000      37.54900000      37.15600000
 H      34.47300000      36.96300000      36.70100000
 H      34.49200000      38.12200000      37.55600000
 O      24.24300000      31.83500000      32.74100000
 H      24.39900000      30.97600000      32.26800000
 H      23.26900000      31.73700000      32.86600000
 O      26.74500000      35.17200000      34.45800000
 H      26.30300000      34.30900000      34.77200000
 H      26.67400000      35.06400000      33.52600000
 O      27.71400000      29.12100000      33.85600000
 H      26.91900000      29.56600000      34.23400000
 H      28.36900000      29.86800000      33.98800000
 O      28.52300000      30.28800000      30.19700000
 H      28.38900000      31.14600000      29.78300000
 H      28.33300000      30.49900000      31.12000000
 O      39.99900000      40.36900000      27.77500000
 H      40.24500000      39.44800000      27.75100000
 H      40.79300000      40.81500000      28.11100000
 O      36.69800000      38.30100000      29.20900000
 H      35.77200000      38.49000000      29.46700000
 H      36.67500000      38.79300000      28.31400000
 O      39.86500000      40.42000000      37.00500000
 H      39.26400000      41.19200000      37.14500000
 H      40.02700000      40.56300000      36.04700000
 O      33.20500000      31.67900000      31.19400000
 H      33.77200000      31.97200000      30.46300000
 H      33.83900000      31.79200000      31.93400000
 O      36.01000000      38.50700000      35.34100000
 H      36.11100000      39.16200000      34.69600000
 H      36.00200000      37.62300000      34.85500000
 O      38.47900000      27.82100000      38.48700000
 H      38.05200000      26.95900000      38.49300000
 H      38.36500000      27.97300000      37.44200000
 O      39.73400000      29.43000000      31.25100000
 H      40.22200000      30.29700000      31.41700000
 H      38.82200000      29.80500000      31.13500000
 O      26.81900000      32.19000000      39.40700000
 H      26.21000000      31.55400000      39.01900000
 H      27.69700000      31.85200000      39.10500000
 O      31.86100000      33.33100000      26.83700000
 H      31.41000000      33.45800000      27.72700000
 H      31.14000000      33.50100000      26.21300000
 O      37.13300000      33.84000000      36.91200000
 H      37.64800000      33.04700000      37.12300000
 H      37.53300000      34.47200000      37.55400000
 O      23.01700000      35.39400000      33.11900000
 H      22.97600000      35.27000000      32.17800000
 H      22.34000000      34.69100000      33.40200000
 O      21.24100000      35.88700000      36.11400000
 H      20.48200000      35.92900000      36.76900000
 H      20.81400000      36.35900000      35.37200000
 O      22.86900000      30.44300000      35.83200000
 H      22.06900000      29.93900000      36.14000000
 H      22.78500000      31.19000000      36.48500000
 O      35.54200000      29.66700000      39.03100000
 H      35.03900000      30.48300000      39.06800000
 H      35.63700000      29.41700000      40.01100000
 O      22.85700000      38.91500000      38.10400000
 H      21.93500000      39.09400000      37.76100000
 H      22.59400000      38.67300000      39.02700000
 O      36.82700000      34.12200000      33.53800000
 H      37.70900000      33.66700000      33.66200000
 H      36.23200000      33.37700000      33.75600000
 O      25.46200000      29.99100000      35.06100000
 H      24.48300000      29.76700000      35.18900000
 H      25.70300000      29.82200000      36.02700000
 O      39.08300000      37.50600000      34.16100000
 H      38.53200000      38.09900000      33.57500000
 H      39.98200000      37.81400000      33.86200000
 O      22.37200000      39.61000000      31.46500000
 H      22.06300000      38.76000000      31.15900000
 H      22.89000000      39.32900000      32.25800000
 O      23.19600000      37.99100000      33.74800000
 H      24.06100000      37.93500000      34.23300000
 H      23.11600000      37.00200000      33.43300000
 O      34.15400000      32.09200000      38.86000000
 H      34.30500000      32.49500000      37.97000000
 H      34.58900000      32.82600000      39.39800000
 O      30.57100000      27.11500000      38.94400000
 H      30.36300000      26.71200000      38.09700000
 H      30.98400000      27.97200000      38.61600000
 O      36.11200000      33.71900000      40.42500000
 H      36.31600000      33.78100000      41.36500000
 H      36.71200000      34.33900000      40.01500000
 O      25.25500000      27.68200000      27.53700000
 H      24.77700000      26.98100000      27.98800000
 H      25.94100000      27.92700000      28.22800000
 O      28.96500000      31.61400000      33.37800000
 H      29.77600000      31.79000000      32.81900000
 H      28.41100000      32.34900000      33.01700000
 O      31.38400000      38.41600000      39.24600000
 H      31.09300000      37.44900000      39.27300000
 H      32.22700000      38.32100000      38.70300000
 O      29.50300000      39.88700000      29.69600000
 H      30.11500000      40.64700000      29.69200000
 H      29.19300000      39.89100000      30.65100000
 O      24.83000000      30.84100000      27.68600000
 H      25.77100000      30.86200000      27.39400000
 H      24.74600000      29.93100000      27.95700000
 O      20.93400000      35.60600000      28.07100000
 H      20.77500000      36.15200000      27.31200000
 H      20.65100000      34.68700000      27.74600000
 O      35.60400000      39.82200000      40.07100000
 H      34.86100000      40.06100000      39.45000000
 H      36.08600000      39.13800000      39.58100000
 O      33.76200000      35.34300000      27.14700000
 H      34.52500000      35.18200000      27.76900000
 H      33.25000000      34.54100000      27.15900000
 O      35.56200000      30.46500000      35.78400000
 H      35.54900000      29.87000000      35.04000000
 H      34.53800000      30.48500000      35.94300000
 O      30.42000000      27.22200000      35.95900000
 H      30.57000000      27.94300000      35.31500000
 H      31.29000000      26.85500000      36.08800000
 O      30.57200000      33.84900000      37.56900000
 H      29.64900000      34.20000000      37.33400000
 H      30.36700000      32.94600000      37.55500000
