322
XYZ file of cluster: frame_17000_4d40c.671c4.6f5e9 - created by MolEdiTo
 O      14.60000000      20.97400000      31.35500000
 H      14.28700000      21.42900000      30.55900000
 H      14.06000000      21.52800000      32.04700000
 O      21.15300000      21.62400000      32.55500000
 H      21.75200000      20.91900000      32.22600000
 H      20.87000000      21.22600000      33.42500000
 O      14.66500000      27.44500000      34.85500000
 H      13.91300000      26.97400000      35.21900000
 H      14.97300000      26.89300000      34.13100000
 O      23.85600000      23.13500000      24.88800000
 H      23.05500000      22.94300000      25.43400000
 H      23.57500000      23.96200000      24.38200000
 O      14.73900000      32.22600000      26.45800000
 H      13.92100000      32.44400000      26.84000000
 H      15.15800000      33.12100000      26.45100000
 O      22.41900000      29.93100000      24.55900000
 H      22.70900000      29.03300000      24.63600000
 H      22.79800000      30.20900000      23.72000000
 O      16.59300000      25.57500000      26.60900000
 H      15.81700000      25.13200000      27.01100000
 H      16.74100000      26.33000000      27.16700000
 O      19.27400000      30.02500000      33.42600000
 H      19.02700000      29.57900000      32.54800000
 H      18.36800000      29.86500000      33.84300000
 O      26.33600000      28.15300000      25.05600000
 H      27.08900000      27.51700000      25.18100000
 H      25.91800000      28.08500000      25.99800000
 O      24.61300000      21.55400000      22.21100000
 H      25.35100000      22.23800000      22.25500000
 H      24.41200000      21.54200000      23.17400000
 O      17.47200000      27.33000000      32.45600000
 H      17.68400000      26.86000000      31.65300000
 H      18.01800000      26.83500000      33.12600000
 O      21.01700000      21.59400000      29.36100000
 H      21.42600000      21.67400000      30.22500000
 H      20.41400000      20.87200000      29.53600000
 O      18.13500000      22.12500000      23.86500000
 H      17.23100000      21.66500000      23.96800000
 H      18.67000000      21.42000000      24.21400000
 O      27.19800000      24.08600000      30.13000000
 H      26.52100000      24.55400000      30.68400000
 H      26.82900000      23.18200000      30.18200000
 O      23.21700000      27.06500000      25.49700000
 H      24.06200000      27.32800000      25.95100000
 H      22.54300000      27.36100000      26.12400000
 O      23.60500000      31.52400000      22.37400000
 H      23.30300000      31.97300000      21.56200000
 H      24.05600000      32.26600000      22.85200000
 O      13.88700000      21.86800000      28.30200000
 H      13.52000000      21.02400000      27.94700000
 H      14.72300000      21.89100000      27.86700000
 O      27.95100000      25.88500000      21.92800000
 H      27.53700000      26.71900000      22.36000000
 H      27.81800000      26.22900000      20.98300000
 O      16.26800000      26.61400000      24.06200000
 H      16.30200000      26.02800000      24.85400000
 H      16.98800000      26.18600000      23.52400000
 O      21.59400000      22.30800000      25.85900000
 H      20.89700000      22.90100000      26.22300000
 H      21.01200000      21.55500000      25.60000000
 O      16.68400000      22.71200000      21.61300000
 H      16.17000000      21.89000000      21.81400000
 H      17.41500000      22.56400000      22.22100000
 O      20.11200000      30.25400000      28.37700000
 H      19.90000000      29.86000000      27.47300000
 H      20.26300000      31.17100000      28.04900000
 O      17.60800000      25.41600000      21.66800000
 H      17.16400000      25.63400000      20.82100000
 H      17.59600000      24.43100000      21.59200000
 O      21.37000000      27.61500000      21.83600000
 H      20.73400000      28.15500000      21.33800000
 H      20.79600000      27.25600000      22.52200000
 O      26.01900000      22.42400000      25.93800000
 H      25.22000000      22.87600000      25.58400000
 H      25.65400000      21.56800000      26.09800000
 O      17.24100000      32.50800000      23.53600000
 H      17.01200000      31.58700000      23.72700000
 H      17.79800000      32.37700000      22.71400000
 O      27.12400000      30.88400000      26.14800000
 H      27.13500000      31.58200000      25.50400000
 H      26.71000000      30.14000000      25.63700000
 O      26.14500000      34.34600000      22.68000000
 H      26.37400000      35.24000000      23.13800000
 H      25.38300000      34.13500000      23.25900000
 O      27.61600000      32.82000000      28.80000000
 H      26.75400000      33.06900000      29.13500000
 H      27.48500000      33.01500000      27.82100000
 O      20.99000000      34.82000000      23.41300000
 H      20.31000000      34.48000000      24.00600000
 H      20.36000000      35.21800000      22.72600000
 O      13.37500000      27.53000000      31.64600000
 H      13.54500000      26.73800000      31.17300000
 H      14.17100000      28.04300000      31.52300000
 O      14.08200000      33.34000000      23.88900000
 H      14.40800000      32.93200000      24.72000000
 H      13.19000000      32.97800000      23.89700000
 O      24.99100000      20.92000000      35.04800000
 H      24.93400000      21.64300000      34.39200000
 H      25.42200000      21.49600000      35.80400000
 O      27.63700000      24.29700000      27.26600000
 H      27.66700000      24.00600000      28.20500000
 H      27.07700000      23.56100000      26.89400000
 O      18.51700000      30.29800000      30.60800000
 H      17.61800000      30.61700000      30.32700000
 H      18.96900000      30.63200000      29.75700000
 O      14.40000000      25.15900000      30.75200000
 H      14.69900000      25.25900000      31.68100000
 H      15.04300000      24.58200000      30.40100000
 O      25.21200000      32.97800000      35.31500000
 H      24.85300000      32.89800000      34.35500000
 H      25.43500000      31.97500000      35.42600000
 O      20.26000000      32.58400000      26.89300000
 H      21.03500000      32.38400000      26.42100000
 H      19.79300000      33.18500000      26.22400000
 O      25.27800000      32.82900000      30.20800000
 H      24.80500000      33.67100000      30.51100000
 H      24.59100000      32.19000000      30.52200000
 O      14.09600000      24.62000000      27.52400000
 H      13.69400000      23.75800000      27.73600000
 H      13.47700000      25.23900000      27.92900000
 O      15.92300000      28.98200000      20.43100000
 H      16.52900000      29.08400000      21.18100000
 H      15.76800000      28.03100000      20.45900000
 O      24.48700000      22.86900000      33.41000000
 H      24.72700000      23.06200000      32.54400000
 H      23.93300000      23.56800000      33.75000000
 C      20.14400000      22.40600000      21.37600000
 C      21.19600000      21.35300000      20.99200000
 C      21.61200000      18.80000000      20.38900000
 H      19.86200000      19.68700000      21.43800000
 H      20.79500000      24.10200000      20.78300000
 O      19.68400000      20.07200000      19.48700000
 O      19.27000000      22.74900000      20.25300000
 O      20.87700000      23.60400000      21.62900000
 C      20.53700000      19.94900000      20.65600000
 O      22.00100000      21.79500000      19.79900000
 H      21.87700000      21.22400000      21.88400000
 O      22.10400000      18.49800000      21.65000000
 O      21.09700000      17.55500000      20.62600000
 H      21.67800000      17.68900000      21.46300000
 H      22.83400000      22.26300000      20.14100000
 H      20.08100000      20.83200000      18.90500000
 O      26.00200000      23.92600000      22.11500000
 H      26.67800000      24.62500000      22.06300000
 H      25.73000000      23.94700000      23.06700000
 O      21.28200000      32.53600000      29.93300000
 H      20.61200000      32.72300000      30.61900000
 H      20.76500000      32.92800000      29.18400000
 O      15.33200000      25.12700000      33.25300000
 H      16.29600000      25.09300000      33.53700000
 H      14.95100000      24.65400000      34.02200000
 O      15.19900000      34.40600000      21.68300000
 H      14.88100000      33.81800000      22.44000000
 H      14.76000000      35.23000000      21.92800000
 O      22.46800000      28.86500000      27.97000000
 H      22.45200000      28.03000000      28.52500000
 H      21.60400000      29.24900000      28.16400000
 O      18.69300000      33.70800000      30.72300000
 H      18.72100000      33.56100000      31.67900000
 H      18.04900000      33.01100000      30.40200000
 O      15.87300000      21.40900000      35.27300000
 H      16.35700000      21.23700000      34.50600000
 H      16.04000000      20.68200000      35.84400000
 O      26.48500000      28.55200000      22.21400000
 H      26.30600000      28.81200000      23.11000000
 H      25.63800000      28.36100000      21.84200000
 O      13.98000000      27.79200000      23.62500000
 H      13.90600000      28.21700000      24.52900000
 H      14.84500000      27.34300000      23.77600000
 O      24.07400000      27.83000000      31.29100000
 H      23.11800000      27.82100000      31.18700000
 H      24.41900000      28.26700000      30.52600000
 O      15.99500000      22.46700000      26.31500000
 H      16.25600000      21.69500000      25.67200000
 H      15.27400000      22.84300000      25.82000000
 O      21.79100000      30.23400000      32.94700000
 H      20.83500000      30.22000000      33.08100000
 H      22.18900000      30.22900000      33.82300000
 O      23.36600000      30.91900000      29.98200000
 H      23.55100000      30.86700000      29.02200000
 H      22.59500000      31.52000000      29.96100000
 O      25.59600000      21.82100000      30.29000000
 H      24.80900000      22.26700000      29.92400000
 H      25.24200000      20.92300000      30.29900000
 O      20.36000000      25.11100000      34.26300000
 H      21.07200000      25.74500000      34.56400000
 H      20.62800000      24.34000000      34.86600000
 O      27.41300000      33.40900000      31.98400000
 H      27.73300000      34.00400000      31.27600000
 H      26.57200000      33.06000000      31.54800000
 O      27.06800000      33.94200000      26.32400000
 H      28.05100000      34.17900000      26.35500000
 H      27.03200000      33.41600000      25.53900000
 O      19.53300000      32.87100000      33.27900000
 H      19.44100000      31.96600000      33.62700000
 H      20.43300000      33.06200000      33.52900000
 O      22.95600000      32.09100000      26.17500000
 H      23.56900000      31.64500000      26.81700000
 H      22.86700000      31.39200000      25.54100000
 O      13.80200000      29.16200000      26.41200000
 H      14.20700000      28.89400000      27.30100000
 H      13.69900000      30.12800000      26.56700000
 O      13.96500000      33.84800000      33.47500000
 H      13.23700000      33.31300000      33.91200000
 H      13.70800000      34.71900000      33.88200000
 O      27.14400000      32.26900000      23.97800000
 H      27.85400000      31.97300000      23.37900000
 H      26.72700000      33.01000000      23.54000000
 O      20.71400000      24.13800000      31.59900000
 H      20.86400000      23.19200000      31.85200000
 H      20.49200000      24.48900000      32.50600000
 O      15.49400000      29.34400000      31.40200000
 H      15.72800000      30.27300000      31.46800000
 H      16.26100000      28.88100000      31.81500000
 O      14.35600000      32.65700000      30.81700000
 H      14.45400000      33.02400000      31.74000000
 H      13.48600000      32.19100000      30.96800000
 O      18.85500000      33.94500000      25.04000000
 H      18.33600000      34.78100000      24.79000000
 H      18.15400000      33.25700000      24.68700000
 O      24.97900000      34.54700000      20.07000000
 H      24.46600000      35.23400000      20.58200000
 H      25.60400000      34.32700000      20.84800000
 O      17.09600000      29.56500000      23.28300000
 H      16.11400000      29.32900000      23.29900000
 H      17.43500000      28.63000000      23.44800000
 O      16.02900000      31.83800000      33.34600000
 H      15.22200000      32.31700000      33.38500000
 H      15.92300000      31.22200000      34.10500000
 O      21.23800000      28.54900000      30.79300000
 H      20.90400000      29.29900000      30.31300000
 H      21.54400000      28.99000000      31.62000000
 O      18.26800000      25.30100000      30.31200000
 H      19.00500000      24.72600000      30.59300000
 H      17.67200000      24.66100000      29.84500000
 O      17.03800000      21.20600000      32.79900000
 H      17.39500000      22.01500000      32.46700000
 H      16.21500000      21.17300000      32.23300000
 O      19.36100000      26.83400000      23.29100000
 H      19.28900000      26.16200000      24.01300000
 H      18.92600000      26.29600000      22.55600000
 O      25.25700000      24.89300000      31.70400000
 H      24.88300000      25.72300000      31.40100000
 H      25.79400000      25.15600000      32.46500000
 O      26.90800000      27.85500000      29.64100000
 H      27.54500000      28.53400000      29.75600000
 H      27.36000000      27.03500000      29.91500000
 O      19.72300000      24.29700000      27.50800000
 H      19.87300000      24.70700000      26.67400000
 H      20.12700000      24.95100000      28.10900000
 O      23.35100000      22.75600000      28.64100000
 H      23.08900000      22.71200000      27.70500000
 H      22.57400000      22.38400000      29.05200000
 O      24.24300000      31.83500000      32.74100000
 H      24.39900000      30.97600000      32.26800000
 H      23.26900000      31.73700000      32.86600000
 O      26.74500000      35.17200000      34.45800000
 H      26.30300000      34.30900000      34.77200000
 H      26.67400000      35.06400000      33.52600000
 O      27.71400000      29.12100000      33.85600000
 H      26.91900000      29.56600000      34.23400000
 H      28.36900000      29.86800000      33.98800000
 O      23.96100000      29.05600000      21.17300000
 H      23.32800000      28.37300000      21.50900000
 H      23.42100000      29.87700000      21.41300000
 O      24.40900000      27.06800000      34.19400000
 H      24.30000000      27.64500000      33.45100000
 H      25.28600000      26.65700000      34.13100000
 O      23.90800000      33.65200000      24.04300000
 H      23.85500000      33.14800000      24.83800000
 H      22.96600000      33.69400000      23.74600000
 O      15.31800000      28.59900000      28.58600000
 H      15.32000000      29.08700000      29.42900000
 H      16.27900000      28.43100000      28.47000000
 O      18.69400000      24.70000000      24.73100000
 H      18.46700000      23.79600000      24.37900000
 H      18.06600000      24.81900000      25.47600000
 O      20.98100000      25.72500000      29.45600000
 H      20.85600000      26.57700000      29.91200000
 H      21.11600000      25.10600000      30.23700000
 O      17.28400000      23.51200000      28.63800000
 H      18.15600000      23.72200000      28.19500000
 H      16.71400000      23.24300000      27.89200000
 O      17.04000000      20.79600000      29.03200000
 H      17.85800000      20.48200000      29.42100000
 H      17.35300000      21.54500000      28.51900000
 O      23.70500000      25.65200000      28.58200000
 H      22.85900000      25.41400000      28.89800000
 H      24.20600000      24.84600000      28.81500000
 O      26.89900000      26.13600000      33.79300000
 H      27.79100000      25.74500000      33.80000000
 H      27.19200000      27.11100000      33.69200000
 O      17.99200000      35.15000000      34.69200000
 H      18.21600000      34.61600000      33.94900000
 H      18.79300000      35.37200000      35.14400000
 O      25.25500000      27.68200000      27.53700000
 H      24.77700000      26.98100000      27.98800000
 H      25.94100000      27.92700000      28.22800000
 O      16.48300000      31.77200000      29.51400000
 H      16.37400000      32.28600000      28.64900000
 H      15.58800000      32.03700000      29.92600000
 O      28.15900000      20.76100000      30.12100000
 H      27.20300000      20.92800000      30.32100000
 H      28.03400000      20.21100000      29.27000000
 O      24.83000000      30.84100000      27.68600000
 H      25.77100000      30.86200000      27.39400000
 H      24.74600000      29.93100000      27.95700000
 O      20.11800000      28.94600000      25.93700000
 H      19.60900000      28.50100000      25.28300000
 H      20.88200000      29.26000000      25.40800000
 O      18.18600000      27.51900000      28.15300000
 H      18.61000000      28.25500000      28.63400000
 H      18.41600000      26.75900000      28.72200000
 O      23.36400000      25.55200000      23.39600000
 H      22.72700000      25.92400000      22.79800000
 H      23.40300000      26.11200000      24.15100000
 O      18.44400000      31.85400000      21.25000000
 H      18.97100000      32.46600000      20.70400000
 H      18.74300000      31.01300000      20.86200000
 O      27.84400000      22.48400000      34.37900000
 H      28.33000000      22.11100000      33.65900000
 H      26.92600000      22.43100000      34.06500000
