313
XYZ file of cluster: frame_17000_70dd0.24d54.6f5e9 - created by MolEdiTo
 O      33.86300000      15.58800000      25.78800000
 H      33.14700000      14.94300000      25.97700000
 H      33.97700000      15.46100000      24.78800000
 O      21.56000000       7.21200000      30.00300000
 H      22.24400000       6.48300000      30.10300000
 H      21.75700000       7.41000000      29.03600000
 O      23.32100000      10.04300000      31.30500000
 H      23.00700000       9.31200000      31.87200000
 H      24.25600000      10.00500000      31.61400000
 O      26.06700000      17.19100000      25.55300000
 H      26.94000000      16.88300000      25.13200000
 H      25.49700000      17.29900000      24.77400000
 O      28.50400000       9.86800000      23.39500000
 H      28.95700000       9.39800000      24.13400000
 H      27.59200000       9.75400000      23.63300000
 O      23.53000000      18.60800000      33.22900000
 H      23.89300000      19.18600000      33.91800000
 H      24.31200000      18.08800000      32.95600000
 O      24.22000000      10.74700000      26.03500000
 H      24.22400000      10.50200000      26.96400000
 H      24.51700000       9.89800000      25.61000000
 O      32.69400000      10.94900000      25.88400000
 H      32.97100000      11.24600000      24.96800000
 H      33.60500000      10.75500000      26.18400000
 O      22.65200000       7.50900000      27.33000000
 H      22.97200000       8.41500000      27.55700000
 H      23.42000000       6.99800000      27.50400000
 O      24.78300000      12.93200000      32.10300000
 H      25.28200000      12.07900000      32.30600000
 H      24.63500000      12.73600000      31.15100000
 O      29.56600000       7.25000000      34.49500000
 H      28.89100000       7.53300000      35.06300000
 H      29.48500000       6.27100000      34.60000000
 O      32.89600000      18.15800000      20.68400000
 H      32.37900000      17.28900000      20.72600000
 H      33.64400000      17.78500000      20.10800000
 O      27.79800000      19.39200000      27.45600000
 H      26.93400000      19.59400000      27.11000000
 H      28.40600000      19.87300000      26.88100000
 O      32.65200000      13.91600000      28.06300000
 H      32.08100000      13.14400000      27.97700000
 H      33.53000000      13.56300000      28.05400000
 O      34.31700000      14.81400000      23.30800000
 H      34.61500000      14.99400000      22.37200000
 H      35.11100000      14.63900000      23.74300000
 O      24.23900000      17.81000000      23.60900000
 H      24.44300000      18.43700000      22.88000000
 H      23.86900000      17.09800000      22.99900000
 O      25.14600000       7.47700000      28.95300000
 H      24.76300000       6.71900000      29.49400000
 H      25.97200000       7.56400000      29.44700000
 O      25.78000000      12.61000000      22.77100000
 H      26.03300000      11.80300000      22.31800000
 H      26.02000000      12.33200000      23.71000000
 O      34.72200000      13.44100000      30.77300000
 H      34.55400000      14.27000000      30.37400000
 H      34.82400000      13.78000000      31.75000000
 O      32.19400000      12.67500000      20.56600000
 H      33.08900000      12.47000000      20.82100000
 H      31.64900000      12.14200000      21.19500000
 O      24.86800000      13.65800000      20.46200000
 H      24.87900000      13.26200000      21.39200000
 H      25.83700000      13.69200000      20.30100000
 O      28.01500000       8.43600000      32.61900000
 H      28.71100000       8.22000000      33.29700000
 H      27.35700000       7.72400000      32.80800000
 O      31.49900000      16.01100000      20.76900000
 H      30.86300000      15.92100000      21.51200000
 H      31.77100000      15.07100000      20.64500000
 O      26.94500000      19.16800000      33.99700000
 H      26.13900000      19.60600000      34.32200000
 H      26.62200000      18.72100000      33.19300000
 O      32.25800000       7.10200000      33.84200000
 H      32.31000000       8.08200000      33.73000000
 H      31.32100000       7.03700000      34.06300000
 O      20.09300000      11.70300000      24.98100000
 H      20.86000000      12.21100000      24.56700000
 H      19.33400000      12.07400000      24.56500000
 O      28.18100000      16.63200000      34.78200000
 H      27.43800000      16.00200000      34.94400000
 H      27.76700000      17.25700000      34.18400000
 O      27.98800000       6.97400000      20.07300000
 H      28.37400000       6.27600000      19.47500000
 H      27.82400000       6.37600000      20.86700000
 O      34.57500000       7.69200000      24.24700000
 H      35.45700000       7.72100000      24.69200000
 H      34.58300000       6.72400000      23.96400000
 O      31.47500000      12.94100000      30.85800000
 H      30.81000000      13.36600000      30.25800000
 H      32.32700000      13.16000000      30.40200000
 O      24.59700000      15.20200000      27.93300000
 H      24.28700000      14.54600000      27.19900000
 H      24.91600000      15.90000000      27.31600000
 O      23.09900000       9.20200000      34.15300000
 H      22.59500000       8.51000000      34.51900000
 H      23.90400000       9.16800000      34.70700000
 O      33.43300000      17.03200000      32.75500000
 H      32.76400000      16.94100000      32.05900000
 H      33.62100000      16.11000000      32.99200000
 O      30.02800000       8.06800000      28.63500000
 H      29.88500000       8.97000000      29.15300000
 H      30.77600000       7.78700000      29.23900000
 O      29.60200000      14.65700000      33.82900000
 H      29.45800000      15.07100000      32.93800000
 H      29.12700000      15.37900000      34.33400000
 O      30.67300000      19.91300000      25.36000000
 H      31.03600000      20.65000000      25.92800000
 H      30.74700000      19.21900000      25.97700000
 O      31.89900000      19.51600000      28.41100000
 H      31.47300000      18.99100000      29.13200000
 H      32.14800000      18.75300000      27.82500000
 O      31.04700000      12.27200000      33.55000000
 H      31.12300000      12.46900000      32.58900000
 H      30.57000000      13.10200000      33.81200000
 O      30.76200000      10.90200000      22.01000000
 H      31.43800000      10.30200000      22.39600000
 H      29.95600000      10.62800000      22.54500000
 O      21.27100000      12.84600000      29.00600000
 H      21.20700000      13.82500000      28.95800000
 H      20.77200000      12.59000000      28.21200000
 O      23.13300000      12.87000000      34.91400000
 H      22.91600000      13.44600000      34.19600000
 H      23.37900000      12.03900000      34.45100000
 O      29.92200000      10.17600000      30.61300000
 H      30.60800000      10.69200000      31.10200000
 H      29.39300000       9.84400000      31.35700000
 C      20.14400000      22.40600000      21.37600000
 C      21.19600000      21.35300000      20.99200000
 C      21.61200000      18.80000000      20.38900000
 H      19.86200000      19.68700000      21.43800000
 H      20.79500000      24.10200000      20.78300000
 O      19.68400000      20.07200000      19.48700000
 O      19.27000000      22.74900000      20.25300000
 O      20.87700000      23.60400000      21.62900000
 C      20.53700000      19.94900000      20.65600000
 O      22.00100000      21.79500000      19.79900000
 H      21.87700000      21.22400000      21.88400000
 O      22.10400000      18.49800000      21.65000000
 O      21.09700000      17.55500000      20.62600000
 H      21.67800000      17.68900000      21.46300000
 H      22.83400000      22.26300000      20.14100000
 H      20.08100000      20.83200000      18.90500000
 O      24.32400000      15.46800000      32.67300000
 H      24.39300000      14.46600000      32.54900000
 H      23.32900000      15.51300000      32.71900000
 O      28.01400000       9.58700000      20.63400000
 H      28.37200000       9.55500000      21.54100000
 H      28.12900000       8.65500000      20.40700000
 O      25.12600000       7.87400000      22.37200000
 H      25.88500000       7.34200000      22.39600000
 H      24.66200000       7.75200000      23.23900000
 O      35.49800000      18.65600000      32.90100000
 H      34.56300000      18.33200000      32.73000000
 H      35.97500000      17.81600000      32.66900000
 O      23.70400000       7.12000000      20.30100000
 H      24.32700000       7.34200000      21.02800000
 H      24.22500000       6.40000000      19.89500000
 O      21.63200000       8.89900000      21.24100000
 H      21.75400000       9.05800000      20.25100000
 H      22.45800000       8.33500000      21.34500000
 O      32.06100000      17.38200000      27.02300000
 H      31.30900000      16.72400000      27.07900000
 H      32.78300000      16.78000000      26.71200000
 O      26.89100000      12.87500000      27.41700000
 H      26.14800000      12.78000000      28.03400000
 H      27.60200000      13.20300000      27.98000000
 O      21.02700000      10.95700000      34.04600000
 H      20.71700000      10.75200000      33.13900000
 H      21.89000000      10.42900000      34.06900000
 O      32.63000000      15.84500000      30.09700000
 H      32.63200000      15.39700000      29.20500000
 H      33.54200000      16.18400000      30.12300000
 O      33.02200000       6.95800000      27.91200000
 H      33.87500000       7.51200000      27.95700000
 H      32.48100000       7.50100000      27.33500000
 O      23.15800000      11.51000000      22.03600000
 H      24.01700000      11.08800000      21.83400000
 H      22.59300000      10.69500000      21.96300000
 O      25.92500000      17.44200000      32.29300000
 H      26.35800000      17.47000000      31.43000000
 H      25.33000000      16.63800000      32.14400000
 O      26.28700000      14.50700000      34.77400000
 H      26.90200000      13.86200000      34.47800000
 H      25.75500000      14.67800000      33.96600000
 O      22.67500000      18.19100000      27.64800000
 H      22.21800000      17.34500000      27.87000000
 H      22.30000000      18.45600000      26.82900000
 O      32.08400000       7.14900000      21.27400000
 H      31.70000000       6.32800000      21.58700000
 H      31.63400000       7.28700000      20.41200000
 O      24.22900000      12.98700000      29.52000000
 H      23.29500000      12.67800000      29.31800000
 H      24.20400000      13.81800000      28.96300000
 O      34.55500000      19.87700000      30.68700000
 H      34.91100000      19.39700000      29.90300000
 H      35.10200000      19.49800000      31.39700000
 O      25.61700000      10.38600000      21.29800000
 H      26.38300000      10.20700000      20.70900000
 H      25.47300000       9.50700000      21.63400000
 O      25.46600000      19.25700000      21.18400000
 H      26.39100000      19.49900000      21.00600000
 H      25.26300000      19.99900000      21.78200000
 O      29.82200000      15.86000000      26.70000000
 H      29.14900000      16.27700000      26.11400000
 H      29.98200000      15.04300000      26.17300000
 O      27.29100000      17.36500000      29.81200000
 H      26.62200000      16.94200000      29.25600000
 H      27.50900000      18.14500000      29.24500000
 O      30.33100000      17.74300000      22.68300000
 H      31.10500000      17.96100000      22.14400000
 H      30.49100000      18.24900000      23.45900000
 O      27.50200000       7.87200000      29.89900000
 H      28.35900000       7.93600000      29.49900000
 H      27.78400000       8.00700000      30.85700000
 O      21.02900000      11.93900000      31.46900000
 H      21.87100000      11.45900000      31.66800000
 H      21.25800000      12.29900000      30.56200000
 O      24.50800000       8.17600000      25.05200000
 H      24.98400000       7.60100000      25.64200000
 H      23.64200000       7.68800000      25.01600000
 O      24.11600000      19.52400000      29.87700000
 H      24.33100000      18.76400000      30.43300000
 H      23.66000000      19.07400000      29.12300000
 O      32.43300000       9.80200000      33.72200000
 H      32.05400000      10.69300000      33.53700000
 H      33.42300000       9.95800000      33.62200000
 O      29.68700000      14.02300000      29.09000000
 H      29.84700000      14.69200000      28.47100000
 H      30.02800000      13.22900000      28.60900000
 O      28.39800000      19.12200000      21.31000000
 H      28.25000000      19.76900000      22.07100000
 H      29.03900000      18.52600000      21.74400000
 O      29.57600000       8.31600000      25.61100000
 H      30.54800000       8.07300000      25.59900000
 H      29.46400000       8.09600000      26.58200000
 O      21.66400000      18.09300000      24.83500000
 H      21.21900000      17.50500000      24.12900000
 H      22.61700000      17.94700000      24.47100000
 O      33.63300000      12.17500000      23.70300000
 H      34.05300000      11.62300000      23.02100000
 H      33.98100000      13.05700000      23.50000000
 O      29.08900000      15.56700000      31.11700000
 H      28.53900000      16.14800000      30.56400000
 H      29.39700000      14.95700000      30.41700000
 O      21.67400000      14.61800000      32.82300000
 H      20.95000000      15.21900000      32.62200000
 H      21.39300000      13.74900000      32.49200000
 O      28.73600000      20.60400000      23.57200000
 H      28.55800000      21.41600000      24.07000000
 H      29.60400000      20.32100000      23.87700000
 O      30.95900000      19.82200000      32.83700000
 H      31.01800000      19.23200000      32.09400000
 H      31.62800000      19.47400000      33.42400000
 O      24.04600000      16.79500000      30.12400000
 H      23.68200000      16.10100000      30.68100000
 H      23.88700000      16.40800000      29.23800000
 O      25.04300000      19.78400000      26.48900000
 H      25.45100000      18.95600000      26.15600000
 H      24.32800000      19.44000000      27.03700000
 O      26.70600000      11.72500000      24.87300000
 H      27.14000000      12.11000000      25.68400000
 H      25.89600000      11.37500000      25.24100000
 O      25.70000000      10.36700000      32.49400000
 H      25.55200000      10.10700000      33.46600000
 H      26.58700000       9.88200000      32.34700000
 O      34.65000000      14.62000000      33.58100000
 H      34.85900000      13.73600000      33.97600000
 H      35.38200000      15.13000000      34.07300000
 O      21.31100000      15.75400000      28.87800000
 H      20.66600000      15.99400000      29.56000000
 H      20.65300000      15.43900000      28.22000000
 O      30.87800000      12.08800000      27.44500000
 H      31.51600000      11.55500000      26.88500000
 H      30.07200000      11.60500000      27.09900000
 O      23.54700000      13.37200000      26.20100000
 H      22.93200000      13.66500000      25.48200000
 H      23.50400000      12.38700000      26.00200000
 O      22.09700000       6.80900000      23.96400000
 H      21.28700000       7.34700000      24.24300000
 H      21.77400000       6.65700000      23.03700000
 O      21.70500000      19.01500000      31.32200000
 H      22.07800000      18.73300000      32.20100000
 H      22.57000000      19.15700000      30.91100000
 O      23.68700000       9.89300000      28.68000000
 H      23.44100000      10.22500000      29.56500000
 H      24.35000000       9.23000000      28.96600000
 O      24.02800000      16.13500000      21.42100000
 H      24.40900000      15.36200000      20.98700000
 H      23.49100000      16.51000000      20.69900000
 O      32.18000000       8.22300000      25.83000000
 H      32.99100000       8.20300000      25.23300000
 H      32.20800000       9.18900000      26.01300000
 O      33.20900000       9.37600000      22.59000000
 H      33.03200000       8.70500000      21.92600000
 H      33.76100000       8.88200000      23.23300000
 O      28.20300000      14.10200000      22.79000000
 H      27.42600000      13.63200000      23.09200000
 H      28.01800000      14.13300000      21.80200000
 O      28.31400000      16.40900000      24.42200000
 H      27.99400000      15.67100000      23.90600000
 H      29.02400000      16.71700000      23.83100000
 O      28.15900000      20.76100000      30.12100000
 H      27.20300000      20.92800000      30.32100000
 H      28.03400000      20.21100000      29.27000000
 O      30.97400000      17.62900000      31.10800000
 H      31.41500000      16.92400000      30.52000000
 H      30.23500000      17.08300000      31.43100000
 O      21.90500000      13.35200000      23.84000000
 H      22.16900000      12.67100000      23.13500000
 H      22.10600000      14.13600000      23.37700000
 O      30.58300000      14.02400000      24.63600000
 H      29.69600000      13.92300000      24.29800000
 H      31.08000000      13.33900000      24.12100000
