366
XYZ file of cluster: frame_17000_9d1e4.733bc.9a6bb - created by MolEdiTo
 O      37.69700000      22.75300000      36.79300000
 H      37.41800000      23.48600000      36.19200000
 H      36.79600000      22.62200000      37.21600000
 O      28.61100000      38.59600000      36.88300000
 H      28.14400000      38.38600000      37.75100000
 H      29.02900000      37.70700000      36.74300000
 O      37.34700000      21.55000000      32.57200000
 H      36.43500000      21.37200000      32.89400000
 H      37.82200000      21.57400000      33.41600000
 O      34.53100000      36.33600000      31.12900000
 H      33.85600000      35.62300000      30.80500000
 H      34.16300000      37.10100000      30.62100000
 O      34.27900000      39.33400000      30.01000000
 H      33.49700000      38.99500000      29.46100000
 H      34.51900000      40.12700000      29.43300000
 O      32.98000000      30.27600000      35.75700000
 H      32.13600000      30.09800000      35.34800000
 H      33.03700000      31.18900000      35.87500000
 O      35.50800000      28.10200000      34.22600000
 H      36.11300000      27.77400000      33.54400000
 H      34.63700000      27.70900000      33.92800000
 O      31.47800000      23.55800000      36.45500000
 H      31.29400000      23.58000000      35.46100000
 H      31.82700000      22.63300000      36.53500000
 O      35.33200000      36.36900000      33.61800000
 H      35.09400000      36.36400000      32.64000000
 H      35.87900000      35.54400000      33.63800000
 O      27.74100000      38.06400000      39.34800000
 H      27.87900000      38.13000000      40.36700000
 H      26.82600000      38.39600000      39.35700000
 O      36.76500000      38.31700000      37.90500000
 H      37.56300000      38.83100000      37.78500000
 H      36.51100000      38.34600000      36.92500000
 O      35.24200000      32.18800000      29.36600000
 H      35.56800000      33.09200000      29.20700000
 H      35.73800000      31.66600000      28.64000000
 O      32.01800000      39.69600000      36.17600000
 H      32.82600000      39.10200000      36.18500000
 H      31.30500000      39.04600000      36.17700000
 O      32.68400000      37.72100000      28.60900000
 H      31.70900000      37.59000000      28.52400000
 H      32.96400000      36.88000000      28.15200000
 O      30.28400000      35.15400000      32.02200000
 H      30.45700000      36.00900000      32.33100000
 H      29.35200000      35.16400000      31.75700000
 O      39.54700000      32.68000000      29.14100000
 H      39.21700000      33.19900000      29.85100000
 H      38.78000000      32.17100000      28.75000000
 O      35.37500000      22.63700000      37.85800000
 H      35.21800000      22.01500000      38.57700000
 H      34.47700000      22.94500000      37.63900000
 O      31.19000000      36.74000000      35.94400000
 H      31.97400000      36.94500000      36.44700000
 H      30.95700000      35.84500000      36.31900000
 O      37.58900000      31.19800000      37.71100000
 H      37.06300000      31.11700000      36.89900000
 H      36.98800000      30.63800000      38.30700000
 O      37.69600000      34.32700000      30.70600000
 H      37.29200000      34.07700000      31.57900000
 H      38.55000000      34.66400000      31.00200000
 O      40.58100000      25.85100000      36.46300000
 H      40.66800000      26.79800000      36.64200000
 H      40.60400000      25.38900000      37.31200000
 O      27.83500000      35.66800000      30.41200000
 H      27.71000000      35.23600000      29.54900000
 H      27.13000000      36.30800000      30.43800000
 O      40.26100000      31.28700000      39.18600000
 H      40.58200000      32.22000000      39.01800000
 H      39.55300000      31.16600000      38.50100000
 O      39.95600000      21.57700000      33.59400000
 H      40.96800000      21.47900000      33.71300000
 H      39.98200000      22.56400000      33.48400000
 O      28.10400000      24.68800000      39.31200000
 H      28.18000000      24.84100000      38.36700000
 H      27.16800000      24.70300000      39.45100000
 O      35.71500000      28.13900000      29.76500000
 H      35.97700000      27.35000000      29.24500000
 H      34.82200000      28.31800000      29.40000000
 O      37.41000000      31.27400000      27.83800000
 H      37.21600000      30.31300000      27.64600000
 H      37.08800000      31.68100000      26.97400000
 O      39.00400000      20.45800000      36.13200000
 H      39.17700000      20.88700000      35.25100000
 H      38.66700000      21.25200000      36.64100000
 O      38.06400000      24.45200000      28.27900000
 H      38.76600000      24.85200000      27.77900000
 H      38.51500000      24.14700000      29.04800000
 O      39.18700000      32.75400000      33.50400000
 H      39.63800000      32.27500000      34.23100000
 H      39.88800000      32.78700000      32.88400000
 O      38.39500000      22.53100000      30.25000000
 H      37.96400000      22.29400000      31.10200000
 H      37.70900000      22.17900000      29.64600000
 O      35.19800000      20.23800000      35.18200000
 H      35.53400000      19.61900000      34.50800000
 H      35.13500000      21.07300000      34.64700000
 O      36.21500000      26.30100000      27.98900000
 H      35.56700000      25.76600000      27.52500000
 H      36.89600000      25.63700000      28.16900000
 O      37.55800000      35.57300000      38.95500000
 H      37.11700000      36.36500000      38.62100000
 H      38.38400000      35.96700000      39.35000000
 O      29.24400000      39.31000000      34.15200000
 H      29.19900000      38.87900000      35.01400000
 H      29.84800000      38.71800000      33.64900000
 O      36.55600000      40.41200000      33.39700000
 H      37.20800000      40.47800000      32.62500000
 H      37.11200000      40.88800000      34.06500000
 O      39.30600000      37.60300000      29.28300000
 H      38.43000000      38.00300000      29.13000000
 H      39.09200000      36.95500000      29.98300000
 O      31.25200000      37.74400000      33.34200000
 H      31.48900000      37.28000000      34.19500000
 H      32.08000000      38.22400000      33.14200000
 O      27.95400000      34.64200000      39.73200000
 H      27.49900000      33.83900000      39.51200000
 H      27.32000000      35.36200000      39.46200000
 O      29.65300000      37.63500000      27.91900000
 H      29.89400000      38.53100000      28.29400000
 H      28.65000000      37.64400000      28.02700000
 O      38.94500000      40.03800000      39.70800000
 H      39.07600000      40.28300000      38.78000000
 H      39.84800000      40.40900000      40.02200000
 O      39.38800000      27.29300000      33.29300000
 H      38.64200000      26.96700000      32.75300000
 H      39.63800000      28.04300000      32.74000000
 O      37.78700000      27.41100000      35.84700000
 H      36.96300000      27.81000000      35.57800000
 H      38.41200000      27.78200000      35.20900000
 O      37.09300000      22.11800000      40.52200000
 H      37.12800000      22.37300000      41.44300000
 H      37.48400000      21.30300000      40.47300000
 O      39.46900000      22.53600000      38.89100000
 H      38.78300000      22.75300000      38.30600000
 H      39.15000000      21.84800000      39.43500000
 O      37.25400000      24.64000000      31.76400000
 H      36.49900000      24.53100000      31.12300000
 H      37.07500000      23.82700000      32.35300000
 O      36.43200000      21.76300000      28.54400000
 H      35.54500000      21.67300000      28.77800000
 H      36.49600000      22.27400000      27.73400000
 O      29.65200000      25.96800000      33.27100000
 H      29.87900000      26.84900000      33.56300000
 H      29.73600000      26.07300000      32.26700000
 O      28.27100000      34.64500000      36.65200000
 H      27.47000000      34.46000000      37.24100000
 H      27.71600000      34.83500000      35.86600000
 O      34.60600000      22.40900000      33.89000000
 H      33.98800000      22.43700000      33.10800000
 H      34.57000000      23.34300000      34.13900000
 O      28.99800000      31.83700000      35.98600000
 H      29.04500000      31.67500000      34.99300000
 H      28.43700000      32.62100000      35.97100000
 O      34.98800000      35.28200000      36.01500000
 H      35.77400000      34.84900000      36.36600000
 H      35.32600000      35.57700000      35.13500000
 O      31.62900000      29.73100000      38.02000000
 H      31.71500000      29.84800000      37.04800000
 H      32.55100000      30.01900000      38.25800000
 O      31.53400000      29.60100000      31.63600000
 H      31.33400000      29.50100000      30.68800000
 H      32.03100000      30.47100000      31.61500000
 O      30.33100000      33.55600000      29.02300000
 H      29.51100000      33.33900000      28.55500000
 H      30.11500000      33.05700000      29.82700000
 O      37.33600000      25.04000000      39.32600000
 H      37.29700000      24.04200000      39.22100000
 H      38.17200000      25.04100000      39.84300000
 O      29.34700000      25.97200000      30.45400000
 H      30.11400000      25.40500000      30.09200000
 H      28.61200000      25.40600000      30.19100000
 O      30.81300000      29.75100000      34.27100000
 H      31.13100000      29.64100000      33.32300000
 H      30.32000000      30.56700000      34.19600000
 O      33.25800000      33.09500000      36.13100000
 H      33.92700000      33.81800000      36.02700000
 H      32.53900000      33.46400000      36.56300000
 O      36.07700000      35.41500000      28.96100000
 H      36.64500000      35.15100000      29.71400000
 H      35.88600000      36.33000000      29.26100000
 O      30.57900000      32.53600000      31.44900000
 H      31.51600000      32.29300000      31.45400000
 H      30.62300000      33.47900000      31.62400000
 O      36.98800000      27.23300000      32.11500000
 H      36.51700000      27.66900000      31.44000000
 H      37.09300000      26.33000000      31.72000000
 O      30.13300000      28.81300000      28.83700000
 H      29.73800000      28.22000000      29.50600000
 H      29.60400000      29.62400000      29.05400000
 O      34.25100000      25.11600000      34.20400000
 H      33.74300000      25.58200000      34.90600000
 H      33.90600000      25.60200000      33.41000000
 O      33.23600000      26.95500000      32.26700000
 H      32.63200000      26.41700000      31.69300000
 H      32.84700000      27.85600000      32.02100000
 O      40.12400000      24.87800000      31.62500000
 H      39.18700000      24.86900000      31.48600000
 H      40.27500000      24.68600000      32.57500000
 O      31.35200000      35.57300000      39.67400000
 H      30.69300000      35.22600000      40.32300000
 H      31.40700000      34.79900000      39.05300000
 O      27.34100000      39.97200000      28.14700000
 H      26.92100000      40.60100000      28.72300000
 H      28.15100000      39.77400000      28.70400000
 O      32.49800000      34.93500000      30.23300000
 H      31.81400000      35.22400000      30.83600000
 H      31.94900000      34.41800000      29.62300000
 O      29.50900000      31.34500000      38.52200000
 H      29.26700000      31.28900000      37.57800000
 H      30.26900000      30.70000000      38.59200000
 O      32.78700000      28.48700000      28.27600000
 H      32.95800000      29.24800000      27.74100000
 H      31.81700000      28.57400000      28.48600000
 O      34.86000000      26.43200000      38.66000000
 H      35.70600000      26.04500000      38.89800000
 H      35.08000000      27.39200000      38.72100000
 O      39.85800000      24.21800000      34.43200000
 H      38.91300000      24.34100000      34.31500000
 H      40.03500000      24.93500000      35.06200000
 O      36.42800000      30.78800000      31.41100000
 H      36.05400000      31.50800000      30.86100000
 H      36.39500000      30.01700000      30.85000000
 O      33.71900000      40.09400000      32.65600000
 H      33.98200000      39.76800000      31.79000000
 H      34.52300000      40.08800000      33.18200000
 O      39.73900000      35.24500000      35.88200000
 H      39.50300000      35.99400000      35.31400000
 H      39.16200000      34.55800000      35.57500000
 O      33.75100000      22.08200000      29.12400000
 H      33.32300000      21.95400000      29.97800000
 H      33.20400000      21.52300000      28.51500000
 O      39.90300000      35.80200000      31.51900000
 H      39.92600000      36.50900000      32.18400000
 H      40.88600000      35.87500000      31.25600000
 O      35.12200000      31.81200000      33.42500000
 H      35.16900000      31.40800000      34.32100000
 H      35.64700000      31.21100000      32.86000000
 O      33.83400000      37.54900000      37.15600000
 H      34.47300000      36.96300000      36.70100000
 H      34.49200000      38.12200000      37.55600000
 O      34.44700000      21.37300000      40.15000000
 H      35.40100000      21.52900000      40.24900000
 H      34.17800000      21.34000000      41.09900000
 O      33.23600000      25.47500000      28.89600000
 H      33.43500000      25.09200000      28.00400000
 H      33.14800000      26.44000000      28.58800000
 O      32.85400000      21.86600000      31.72400000
 H      33.50200000      21.26800000      31.44000000
 H      32.12300000      21.31400000      32.09500000
 O      30.94900000      23.59900000      33.81900000
 H      30.69300000      24.49200000      33.53500000
 H      30.51000000      23.02600000      33.15700000
 O      27.71400000      29.12100000      33.85600000
 H      26.91900000      29.56600000      34.23400000
 H      28.36900000      29.86800000      33.98800000
 O      31.76500000      24.43600000      30.85000000
 H      32.17100000      23.66600000      31.22500000
 H      32.40200000      24.78400000      30.23200000
 O      28.52300000      30.28800000      30.19700000
 H      28.38900000      31.14600000      29.78300000
 H      28.33300000      30.49900000      31.12000000
 O      30.31600000      22.37900000      28.96800000
 H      29.62100000      21.95000000      29.47900000
 H      30.82500000      22.84700000      29.68200000
 O      39.99900000      40.36900000      27.77500000
 H      40.24500000      39.44800000      27.75100000
 H      40.79300000      40.81500000      28.11100000
 O      36.69800000      38.30100000      29.20900000
 H      35.77200000      38.49000000      29.46700000
 H      36.67500000      38.79300000      28.31400000
 O      27.78500000      27.38200000      36.63800000
 H      28.64000000      27.19400000      36.21700000
 H      27.20300000      26.74700000      36.16100000
 O      39.86500000      40.42000000      37.00500000
 H      39.26400000      41.19200000      37.14500000
 H      40.02700000      40.56300000      36.04700000
 O      33.20500000      31.67900000      31.19400000
 H      33.77200000      31.97200000      30.46300000
 H      33.83900000      31.79200000      31.93400000
 O      28.19000000      24.29900000      36.54200000
 H      27.76000000      23.77500000      35.82900000
 H      29.09700000      24.33600000      36.18500000
 O      36.01000000      38.50700000      35.34100000
 H      36.11100000      39.16200000      34.69600000
 H      36.00200000      37.62300000      34.85500000
 O      38.47900000      27.82100000      38.48700000
 H      38.05200000      26.95900000      38.49300000
 H      38.36500000      27.97300000      37.44200000
 O      40.01900000      20.16500000      29.86300000
 H      39.70900000      21.09500000      29.78000000
 H      39.64600000      19.83200000      30.70600000
 O      39.73400000      29.43000000      31.25100000
 H      40.22200000      30.29700000      31.41700000
 H      38.82200000      29.80500000      31.13500000
 O      31.86100000      33.33100000      26.83700000
 H      31.41000000      33.45800000      27.72700000
 H      31.14000000      33.50100000      26.21300000
 O      37.22000000      24.93100000      35.00000000
 H      37.53800000      25.73100000      35.46300000
 H      36.31200000      25.14300000      34.78300000
 O      37.13300000      33.84000000      36.91200000
 H      37.64800000      33.04700000      37.12300000
 H      37.53300000      34.47200000      37.55400000
 O      35.54200000      29.66700000      39.03100000
 H      35.03900000      30.48300000      39.06800000
 H      35.63700000      29.41700000      40.01100000
 O      36.82700000      34.12200000      33.53800000
 H      37.70900000      33.66700000      33.66200000
 H      36.23200000      33.37700000      33.75600000
 O      34.82700000      24.21300000      30.40100000
 H      34.80000000      23.38500000      29.85700000
 H      34.20500000      24.73600000      29.78500000
 O      39.08300000      37.50600000      34.16100000
 H      38.53200000      38.09900000      33.57500000
 H      39.98200000      37.81400000      33.86200000
 O      26.89900000      26.13600000      33.79300000
 H      27.79100000      25.74500000      33.80000000
 H      27.19200000      27.11100000      33.69200000
 O      34.15400000      32.09200000      38.86000000
 H      34.30500000      32.49500000      37.97000000
 H      34.58900000      32.82600000      39.39800000
 O      30.57100000      27.11500000      38.94400000
 H      30.36300000      26.71200000      38.09700000
 H      30.98400000      27.97200000      38.61600000
 O      36.11200000      33.71900000      40.42500000
 H      36.31600000      33.78100000      41.36500000
 H      36.71200000      34.33900000      40.01500000
 O      29.44400000      21.88400000      32.36500000
 H      29.89100000      21.01900000      32.60900000
 H      28.95800000      21.61000000      31.58200000
 O      28.96500000      31.61400000      33.37800000
 H      29.77600000      31.79000000      32.81900000
 H      28.41100000      32.34900000      33.01700000
 O      31.38400000      38.41600000      39.24600000
 H      31.09300000      37.44900000      39.27300000
 H      32.22700000      38.32100000      38.70300000
 O      29.50300000      39.88700000      29.69600000
 H      30.11500000      40.64700000      29.69200000
 H      29.19300000      39.89100000      30.65100000
 O      28.15900000      20.76100000      30.12100000
 H      27.20300000      20.92800000      30.32100000
 H      28.03400000      20.21100000      29.27000000
 O      29.52300000      21.30300000      38.93000000
 H      29.64700000      21.08900000      38.02000000
 H      29.67100000      22.29700000      38.95100000
 O      32.85700000      26.20200000      36.16600000
 H      32.41800000      25.34700000      36.25400000
 H      33.36800000      26.27300000      36.98400000
 O      35.60400000      39.82200000      40.07100000
 H      34.86100000      40.06100000      39.45000000
 H      36.08600000      39.13800000      39.58100000
 O      33.76200000      35.34300000      27.14700000
 H      34.52500000      35.18200000      27.76900000
 H      33.25000000      34.54100000      27.15900000
 O      35.56200000      30.46500000      35.78400000
 H      35.54900000      29.87000000      35.04000000
 H      34.53800000      30.48500000      35.94300000
 O      30.42000000      27.22200000      35.95900000
 H      30.57000000      27.94300000      35.31500000
 H      31.29000000      26.85500000      36.08800000
 O      30.57200000      33.84900000      37.56900000
 H      29.64900000      34.20000000      37.33400000
 H      30.36700000      32.94600000      37.55500000
 O      27.84400000      22.48400000      34.37900000
 H      28.33000000      22.11100000      33.65900000
 H      26.92600000      22.43100000      34.06500000
