345
XYZ file of cluster: frame_17000_c4112.9b3e8.73c21 - created by MolEdiTo
 O      34.98800000      35.28200000      36.01500000
 H      35.77400000      34.84900000      36.36600000
 H      35.32600000      35.57700000      35.13500000
 O      39.18700000      32.75400000      33.50400000
 H      39.63800000      32.27500000      34.23100000
 H      39.88800000      32.78700000      32.88400000
 O      37.55800000      35.57300000      38.95500000
 H      37.11700000      36.36500000      38.62100000
 H      38.38400000      35.96700000      39.35000000
 O      39.99900000      40.36900000      27.77500000
 H      40.24500000      39.44800000      27.75100000
 H      40.79300000      40.81500000      28.11100000
 O      37.60900000      37.83200000      21.51600000
 H      38.33900000      37.28700000      21.89600000
 H      37.55000000      38.54300000      22.20400000
 O      36.69800000      38.30100000      29.20900000
 H      35.77200000      38.49000000      29.46700000
 H      36.67500000      38.79300000      28.31400000
 O      36.55600000      40.41200000      33.39700000
 H      37.20800000      40.47800000      32.62500000
 H      37.11200000      40.88800000      34.06500000
 O      36.71500000      28.80000000      24.23400000
 H      36.83700000      29.62800000      23.76800000
 H      37.24200000      28.16300000      23.71900000
 O      38.83600000      29.72300000      21.44500000
 H      38.92500000      29.07500000      20.74300000
 H      37.94500000      30.08200000      21.35900000
 O      35.98300000      31.36200000      22.96800000
 H      36.10200000      30.79800000      22.14500000
 H      35.56900000      32.13400000      22.63200000
 O      35.98500000      39.38800000      26.82000000
 H      35.88200000      38.54100000      26.23000000
 H      35.56200000      39.99600000      26.18900000
 O      39.30600000      37.60300000      29.28300000
 H      38.43000000      38.00300000      29.13000000
 H      39.09200000      36.95500000      29.98300000
 O      37.11500000      35.32500000      20.68400000
 H      37.49100000      35.72800000      19.90500000
 H      37.55100000      35.91700000      21.34400000
 O      39.86500000      40.42000000      37.00500000
 H      39.26400000      41.19200000      37.14500000
 H      40.02700000      40.56300000      36.04700000
 O      36.07700000      35.41500000      28.96100000
 H      36.64500000      35.15100000      29.71400000
 H      35.88600000      36.33000000      29.26100000
 O      34.04700000      27.62300000      24.92900000
 H      34.86300000      28.11500000      24.63500000
 H      33.47600000      28.40000000      25.21100000
 O      36.01000000      38.50700000      35.34100000
 H      36.11100000      39.16200000      34.69600000
 H      36.00200000      37.62300000      34.85500000
 O      35.50800000      28.10200000      34.22600000
 H      36.11300000      27.77400000      33.54400000
 H      34.63700000      27.70900000      33.92800000
 O      38.47900000      27.82100000      38.48700000
 H      38.05200000      26.95900000      38.49300000
 H      38.36500000      27.97300000      37.44200000
 O      39.73400000      29.43000000      31.25100000
 H      40.22200000      30.29700000      31.41700000
 H      38.82200000      29.80500000      31.13500000
 O      35.33200000      36.36900000      33.61800000
 H      35.09400000      36.36400000      32.64000000
 H      35.87900000      35.54400000      33.63800000
 O      38.94500000      40.03800000      39.70800000
 H      39.07600000      40.28300000      38.78000000
 H      39.84800000      40.40900000      40.02200000
 O      39.62100000      28.29600000      26.37500000
 H      40.12900000      28.75400000      27.07100000
 H      38.71300000      28.58000000      26.59100000
 O      39.38800000      27.29300000      33.29300000
 H      38.64200000      26.96700000      32.75300000
 H      39.63800000      28.04300000      32.74000000
 O      37.78700000      27.41100000      35.84700000
 H      36.96300000      27.81000000      35.57800000
 H      38.41200000      27.78200000      35.20900000
 O      36.76500000      38.31700000      37.90500000
 H      37.56300000      38.83100000      37.78500000
 H      36.51100000      38.34600000      36.92500000
 O      38.23500000      39.46900000      23.77400000
 H      38.87800000      38.79700000      24.23400000
 H      37.49000000      39.25900000      24.37200000
 O      37.13300000      33.84000000      36.91200000
 H      37.64800000      33.04700000      37.12300000
 H      37.53300000      34.47200000      37.55400000
 O      35.24200000      32.18800000      29.36600000
 H      35.56800000      33.09200000      29.20700000
 H      35.73800000      31.66600000      28.64000000
 O      36.56700000      32.42800000      25.63700000
 H      35.63400000      32.68000000      25.55000000
 H      36.66100000      31.97400000      24.75500000
 O      35.54200000      29.66700000      39.03100000
 H      35.03900000      30.48300000      39.06800000
 H      35.63700000      29.41700000      40.01100000
 O      39.54700000      32.68000000      29.14100000
 H      39.21700000      33.19900000      29.85100000
 H      38.78000000      32.17100000      28.75000000
 O      36.82700000      34.12200000      33.53800000
 H      37.70900000      33.66700000      33.66200000
 H      36.23200000      33.37700000      33.75600000
 O      37.04900000      28.92000000      26.94200000
 H      36.67200000      28.85200000      26.06000000
 H      36.71800000      28.18000000      27.44600000
 O      39.08300000      37.50600000      34.16100000
 H      38.53200000      38.09900000      33.57500000
 H      39.98200000      37.81400000      33.86200000
 O      39.54300000      33.29000000      23.00000000
 H      39.07800000      33.19400000      22.14600000
 H      39.92700000      32.35900000      23.04300000
 O      37.58900000      31.19800000      37.71100000
 H      37.06300000      31.11700000      36.89900000
 H      36.98800000      30.63800000      38.30700000
 O      35.33600000      33.81400000      21.81600000
 H      35.26700000      34.02100000      22.77500000
 H      35.85100000      34.54500000      21.48000000
 O      36.11200000      33.71900000      40.42500000
 H      36.31600000      33.78100000      41.36500000
 H      36.71200000      34.33900000      40.01500000
 O      37.69600000      34.32700000      30.70600000
 H      37.29200000      34.07700000      31.57900000
 H      38.55000000      34.66400000      31.00200000
 O      36.35500000      30.07600000      20.58300000
 H      36.42500000      29.78800000      19.65400000
 H      35.46300000      29.76900000      20.78300000
 O      39.29900000      36.12500000      22.68300000
 H      40.24300000      36.41000000      22.83700000
 H      39.51600000      35.15700000      22.55600000
 O      40.26100000      31.28700000      39.18600000
 H      40.58200000      32.22000000      39.01800000
 H      39.55300000      31.16600000      38.50100000
 O      36.42800000      30.78800000      31.41100000
 H      36.05400000      31.50800000      30.86100000
 H      36.39500000      30.01700000      30.85000000
 O      37.80100000      36.02400000      26.77300000
 H      38.33200000      35.33200000      26.47100000
 H      37.34500000      35.67500000      27.56500000
 O      35.71500000      28.13900000      29.76500000
 H      35.97700000      27.35000000      29.24500000
 H      34.82200000      28.31800000      29.40000000
 O      39.73900000      35.24500000      35.88200000
 H      39.50300000      35.99400000      35.31400000
 H      39.16200000      34.55800000      35.57500000
 O      39.91000000      33.70000000      25.48400000
 H      40.38200000      34.54500000      25.37400000
 H      39.36100000      33.83300000      24.61900000
 O      35.60400000      39.82200000      40.07100000
 H      34.86100000      40.06100000      39.45000000
 H      36.08600000      39.13800000      39.58100000
 O      37.41000000      31.27400000      27.83800000
 H      37.21600000      30.31300000      27.64600000
 H      37.08800000      31.68100000      26.97400000
 O      39.90300000      35.80200000      31.51900000
 H      39.92600000      36.50900000      32.18400000
 H      40.88600000      35.87500000      31.25600000
 O      35.56200000      30.46500000      35.78400000
 H      35.54900000      29.87000000      35.04000000
 H      34.53800000      30.48500000      35.94300000
 O      35.12200000      31.81200000      33.42500000
 H      35.16900000      31.40800000      34.32100000
 H      35.64700000      31.21100000      32.86000000
 O      36.29000000      37.57700000      25.08500000
 H      35.71400000      36.90800000      24.56700000
 H      36.62800000      36.89100000      25.67500000
 O      39.64400000      37.85200000      25.54200000
 H      38.92800000      37.40500000      25.98700000
 H      40.35200000      37.16200000      25.69200000
 O      35.50800000      40.16300000      21.70000000
 H      35.86900000      40.12900000      22.60300000
 H      35.43400000      39.18600000      21.51100000
 O      45.66300000      27.79400000      22.43600000
 H      46.49900000      28.17600000      22.60300000
 H      45.37300000      27.68000000      23.36300000
 O      46.67300000      33.63700000      31.58500000
 H      47.49100000      33.99600000      31.27200000
 H      46.42100000      33.13900000      30.73400000
 O      48.36100000      37.66900000      24.06100000
 H      48.80200000      37.41700000      23.23000000
 H      48.80800000      37.11800000      24.67700000
 O      48.69400000      31.91900000      26.15500000
 H      47.77500000      31.62700000      26.21300000
 H      48.93500000      31.89700000      27.13000000
 O      44.94000000      38.67800000      31.16400000
 H      44.02000000      38.94300000      31.34400000
 H      44.90300000      37.72600000      31.20600000
 O      42.80300000      31.25900000      25.46300000
 H      42.27100000      32.07200000      25.48600000
 H      42.92200000      31.10000000      24.46600000
 O      43.00500000      28.03300000      24.29000000
 H      42.86700000      27.14800000      23.88900000
 H      42.16500000      28.09700000      24.85500000
 O      43.49500000      27.29600000      31.21700000
 H      42.67800000      27.86200000      31.38600000
 H      43.17400000      26.43100000      31.58700000
 O      42.87700000      38.78300000      33.07600000
 H      43.55100000      38.95600000      33.79600000
 H      42.61900000      39.68100000      32.83200000
 O      45.80300000      30.96000000      26.86000000
 H      45.29800000      30.18600000      27.16500000
 H      45.10200000      31.43500000      26.35000000
 O      45.12000000      36.23700000      34.31100000
 H      44.36200000      36.00400000      33.73000000
 H      45.22800000      37.16100000      34.02700000
 O      47.62300000      37.48400000      32.33000000
 H      48.05000000      38.31300000      32.41800000
 H      48.31600000      36.88600000      32.02100000
 O      45.16600000      32.37800000      24.03100000
 H      44.72900000      31.75600000      23.46400000
 H      45.91500000      32.72600000      23.47900000
 O      45.71500000      31.87300000      36.76700000
 H      46.17100000      31.47600000      35.96700000
 H      45.67000000      32.79200000      36.47500000
 O      44.56300000      35.89500000      31.20100000
 H      44.81000000      35.93900000      30.24400000
 H      45.30500000      35.27400000      31.48400000
 O      43.20800000      39.62900000      24.60800000
 H      43.34300000      39.00600000      23.85500000
 H      42.40800000      39.15500000      24.95800000
 O      47.61600000      28.59300000      37.01800000
 H      46.85700000      28.04500000      37.23900000
 H      47.28400000      29.37600000      36.61900000
 O      46.70900000      33.90800000      35.28800000
 H      47.58800000      34.41400000      35.25900000
 H      46.12900000      34.66700000      35.01500000
 O      43.40500000      37.88900000      22.59600000
 H      44.30600000      37.52100000      22.39100000
 H      43.16500000      38.15500000      21.68100000
 O      44.82000000      39.18200000      34.78700000
 H      45.13600000      39.61500000      35.60300000
 H      45.53800000      39.46700000      34.17000000
 O      44.77700000      32.02000000      33.79700000
 H      45.11700000      32.91400000      33.75200000
 H      45.61400000      31.47800000      33.89600000
 O      47.45300000      31.45300000      39.06900000
 H      47.81000000      32.35900000      39.29700000
 H      46.72600000      31.75100000      38.42200000
 O      42.69900000      30.26100000      27.90000000
 H      42.73800000      30.59300000      26.99800000
 H      42.06300000      30.86700000      28.31500000
 O      45.28500000      32.25500000      29.61500000
 H      44.64800000      32.83500000      29.12200000
 H      45.62000000      31.70600000      28.85900000
 O      43.22400000      38.17100000      28.24400000
 H      42.40200000      37.77700000      28.64800000
 H      43.80200000      37.36900000      28.15800000
 O      43.16700000      35.95900000      25.63300000
 H      43.88000000      36.57600000      25.90800000
 H      43.61000000      35.56500000      24.81300000
 O      48.70100000      34.57700000      29.72500000
 H      48.47300000      35.21900000      28.96200000
 H      49.28600000      35.22000000      30.17200000
 O      44.76900000      28.78000000      28.94700000
 H      44.31700000      28.21700000      29.62300000
 H      44.00400000      29.28000000      28.60400000
 O      46.52000000      40.22800000      32.92900000
 H      46.15800000      39.45300000      32.37500000
 H      45.99700000      40.95100000      32.53200000
 O      42.81700000      31.80300000      35.89800000
 H      43.38300000      32.26300000      36.47300000
 H      43.37500000      31.61800000      35.09900000
 O      48.29700000      27.83700000      31.66300000
 H      48.00200000      28.21500000      30.80300000
 H      47.41400000      27.57100000      32.00000000
 O      44.19100000      39.64200000      37.49000000
 H      44.22800000      40.61700000      37.60500000
 H      43.39600000      39.57800000      36.97300000
 O      47.26000000      30.22000000      34.16300000
 H      48.15200000      29.83900000      34.26900000
 H      46.79900000      29.48900000      33.69000000
 O      45.80400000      37.21400000      26.08400000
 H      46.53300000      37.49800000      25.51800000
 H      45.86100000      37.83400000      26.83200000
 O      43.93000000      35.04000000      36.66800000
 H      42.99700000      35.14000000      36.42300000
 H      44.28100000      35.87300000      36.17100000
 O      43.10000000      33.80400000      38.91400000
 H      42.71100000      34.55500000      39.35800000
 H      43.49800000      34.25300000      38.13000000
 O      42.87200000      39.92200000      20.33700000
 H      42.29900000      40.35700000      19.65000000
 H      42.26000000      40.17500000      21.11600000
 O      48.12700000      34.10400000      39.30600000
 H      48.81100000      34.56600000      39.82700000
 H      48.15700000      34.68700000      38.50600000
 O      47.85300000      29.09500000      29.18100000
 H      46.91400000      29.06900000      29.14400000
 H      47.93800000      30.10900000      29.01800000
 O      47.64500000      39.75200000      39.01400000
 H      47.34600000      40.17600000      39.83700000
 H      46.87100000      39.25200000      38.73600000
 O      43.28000000      35.50200000      21.07500000
 H      43.69200000      34.67300000      20.82900000
 H      43.82000000      35.64100000      21.89100000
 O      43.31600000      31.67100000      31.48400000
 H      43.95300000      31.73900000      32.25400000
 H      44.02500000      31.71600000      30.76000000
 O      42.95700000      28.88800000      37.31200000
 H      42.55100000      29.08800000      38.17000000
 H      42.62800000      29.63900000      36.76200000
 O      48.03400000      40.56800000      24.21700000
 H      48.45800000      40.78500000      23.36000000
 H      48.17500000      39.58800000      24.20900000
 O      47.94300000      28.63400000      26.47200000
 H      48.24900000      28.68300000      27.40300000
 H      47.53000000      29.49300000      26.39500000
 O      44.17000000      37.89600000      39.57400000
 H      44.14300000      38.44900000      38.76000000
 H      44.77800000      37.16600000      39.24100000
 O      42.64800000      30.63000000      22.99200000
 H      41.80400000      30.27200000      22.59600000
 H      42.93700000      29.79400000      23.40300000
 O      43.50100000      27.79000000      40.46100000
 H      44.38800000      28.19400000      40.51500000
 H      42.92300000      28.34900000      40.98900000
 O      43.99800000      40.58900000      29.09500000
 H      44.92300000      40.80700000      28.86000000
 H      43.89200000      39.71200000      28.69800000
 O      43.54000000      33.57200000      27.91300000
 H      42.75500000      33.39200000      28.41300000
 H      43.21200000      33.57700000      26.98300000
 O      47.66900000      33.74500000      22.71800000
 H      48.24600000      33.31200000      22.09000000
 H      47.17100000      34.29900000      22.07600000
 O      44.57800000      35.02300000      23.81000000
 H      45.31200000      35.37300000      23.32200000
 H      44.82100000      34.09100000      23.99800000
 O      46.06200000      29.18300000      40.03000000
 H      46.55300000      30.06100000      39.93400000
 H      45.78600000      29.00900000      39.11900000
 O      46.36700000      37.08600000      22.21700000
 H      46.79600000      36.80200000      21.35100000
 H      47.19100000      37.03100000      22.80100000
 O      45.90600000      36.24000000      38.22300000
 H      45.36100000      35.56000000      37.73200000
 H      46.73700000      36.13000000      37.71900000
 O      45.59200000      40.65300000      26.06400000
 H      46.15500000      40.57300000      25.29700000
 H      44.85700000      40.07500000      25.79400000
 O      44.58400000      35.91900000      28.14600000
 H      45.06800000      36.19100000      27.31300000
 H      44.44600000      35.00000000      27.96300000
 O      46.67500000      38.59000000      28.50800000
 H      47.54100000      38.58700000      28.99200000
 H      46.07100000      38.77100000      29.23600000
 O      49.28600000      40.65100000      21.77300000
 H      50.08400000      40.25300000      21.34300000
 H      48.55300000      40.13900000      21.33700000
