42
XYZ file of cluster: frame_11500_7a005.44950.c1df5 - created by MolEdiTo
 O      12.97900000       8.66500000      18.07100000
 H      13.38800000       8.00500000      17.50800000
 H      13.54500000       9.40400000      17.76600000
 O      14.14000000      10.07900000      20.57700000
 H      13.52500000       9.43300000      20.83800000
 H      13.99700000      10.26000000      19.58400000
 O      11.11000000       7.50200000      19.85800000
 H      11.79200000       7.53400000      19.19400000
 H      10.60600000       8.27100000      19.55900000
 O      17.10900000       9.75600000      18.34400000
 H      16.61000000       8.92500000      18.47700000
 H      17.21700000      10.15600000      19.20600000
 O      11.37200000      12.30500000      19.89200000
 H      11.80100000      11.80900000      19.21200000
 H      11.51400000      13.19600000      19.52900000
 O      15.20100000      13.54700000      19.24200000
 H      15.07400000      14.12500000      18.41300000
 H      14.76400000      14.09600000      19.95800000
 O      17.78700000      11.96300000      20.03200000
 H      17.17200000      12.54700000      20.57300000
 H      17.35400000      11.93800000      19.19300000
 O      13.52100000      11.47500000      17.93800000
 H      13.84800000      12.29900000      18.41100000
 H      12.86000000      11.75600000      17.20500000
 O      16.49700000       7.42700000      23.10000000
 H      15.91500000       6.77800000      23.51100000
 H      16.58000000       7.22700000      22.13200000
 O      13.57500000      12.51300000      23.46600000
 H      13.82400000      11.56700000      23.21800000
 H      12.70500000      12.55900000      23.00000000
 O      16.70500000       8.76200000      25.69500000
 H      15.83100000       8.40300000      25.29900000
 H      17.30700000       8.55700000      24.92700000
 O      16.69400000      13.50300000      23.94700000
 H      15.75100000      13.37800000      23.88300000
 H      16.95100000      12.68300000      24.40200000
 O      14.33500000       6.56000000      24.92000000
 H      13.57400000       5.95000000      24.79700000
 H      14.04000000       7.41900000      25.36000000
 O      18.40100000       9.75000000      22.99300000
 H      17.63700000       9.14800000      22.86800000
 H      18.14600000      10.56900000      22.44900000
