42
XYZ file of cluster: frame_11500_d3c85.1d55b.1d54e - created by MolEdiTo
 O      19.28800000       3.70400000       9.44000000
 H      19.67900000       2.77000000       9.35100000
 H      18.92700000       3.93500000       8.56100000
 O      19.21100000       6.29600000       7.93900000
 H      19.39400000       7.13400000       7.54200000
 H      18.41100000       6.44600000       8.39400000
 O      20.14700000       7.03100000       4.59800000
 H      19.39600000       7.56300000       4.82500000
 H      19.89300000       6.24500000       4.02100000
 O      20.26800000       9.35400000       8.54200000
 H      21.08100000       8.98300000       8.77600000
 H      20.19800000       9.42900000       7.54100000
 O      19.72800000       9.92700000       5.77600000
 H      20.06100000      10.20500000       4.85100000
 H      18.76000000       9.95600000       5.87100000
 O      22.54200000       6.56000000       9.59200000
 H      22.02800000       6.33700000       8.78500000
 H      21.88100000       6.84000000      10.24600000
 O      22.25100000       4.68700000       6.24500000
 H      21.58100000       4.55400000       6.94700000
 H      21.72400000       5.29600000       5.62800000
 O      24.43800000      10.45000000       5.23100000
 H      24.19700000       9.62800000       5.70100000
 H      25.00200000      10.73100000       6.01100000
 O      23.59900000       7.90600000       6.47000000
 H      22.91400000       7.99000000       5.76400000
 H      23.94400000       7.00300000       6.58300000
 O      24.46400000       3.43400000       3.85200000
 H      24.49100000       4.41600000       4.13600000
 H      25.33200000       3.53800000       3.36600000
 O      24.86100000       6.92300000      11.54000000
 H      25.55700000       7.06700000      10.82300000
 H      24.06200000       6.71800000      10.93500000
 O      25.68700000       7.79100000       8.64600000
 H      26.11100000       7.04700000       8.18900000
 H      24.75700000       7.80700000       8.49600000
 O      24.21900000       2.64800000       7.32800000
 H      24.53000000       3.54000000       7.11100000
 H      23.43200000       2.54500000       6.68400000
 O      22.26800000      10.84300000       3.27200000
 H      23.14500000      10.53700000       3.66600000
 H      21.91600000      10.19600000       2.60300000
