39
XYZ file of cluster: frame_11500_45251.a63ec.9df00 - created by MolEdiTo
 O      14.34900000      15.81900000      17.78800000
 H      13.72800000      16.46000000      17.37300000
 H      15.07900000      16.47900000      18.10600000
 O      10.16400000      19.37100000      20.11200000
 H       9.39800000      20.06800000      20.02600000
 H      10.31500000      19.47000000      21.07500000
 O       7.05700000      18.46000000      19.62300000
 H       7.52800000      17.84200000      20.20600000
 H       6.31200000      17.83400000      19.33200000
 O      11.87500000      14.86000000      14.88700000
 H      12.65100000      14.42300000      15.25100000
 H      12.12100000      15.13800000      14.01600000
 O      12.42000000      18.60000000      15.76500000
 H      12.95600000      19.43700000      15.76500000
 H      12.05600000      18.65400000      16.68600000
 O       9.16600000      17.93200000      15.35800000
 H       8.35200000      17.86000000      14.85000000
 H       9.58100000      17.01600000      15.44100000
 O      10.11300000      16.70800000      19.39600000
 H       9.42600000      16.13800000      19.73000000
 H      10.04100000      17.61100000      19.79400000
 O      12.73500000      18.09300000      18.79600000
 H      12.84000000      18.94000000      19.20500000
 H      11.81300000      17.78800000      19.07900000
 O       7.12900000      16.09200000      14.66500000
 H       6.56900000      16.74900000      15.14000000
 H       7.83900000      15.78300000      15.27200000
 O       9.25100000      15.42300000      16.26300000
 H       9.27900000      15.45700000      17.26800000
 H      10.20600000      15.48700000      16.00100000
 O       6.50200000      14.73700000      19.99400000
 H       7.18700000      15.02100000      20.62300000
 H       6.01100000      15.62800000      19.86900000
 O      13.07600000      20.59200000      20.65700000
 H      13.26500000      20.55900000      21.66600000
 H      12.17500000      20.87700000      20.55400000
 O      11.82000000      14.77100000      18.76100000
 H      11.34200000      15.58300000      19.17800000
 H      12.73100000      15.10500000      18.50000000
