30
XYZ file of cluster: frame_11500_9c247.9c35.cf50d - created by MolEdiTo
 O      15.56500000       1.15700000      19.85300000
 H      15.55600000       1.83800000      19.16900000
 H      14.63900000       0.93500000      19.91000000
 O      20.34800000       3.55200000      19.36800000
 H      21.17800000       3.11900000      19.21500000
 H      20.28600000       3.50900000      20.37400000
 O      19.11200000       5.96800000      19.60700000
 H      19.07900000       5.09700000      19.12700000
 H      19.95600000       6.42600000      19.33700000
 O      19.21200000       1.09800000      18.40100000
 H      19.34900000       2.08600000      18.39800000
 H      20.01900000       0.84700000      18.92300000
 O      16.49700000       7.42700000      23.10000000
 H      15.91500000       6.77800000      23.51100000
 H      16.58000000       7.22700000      22.13200000
 O      14.95700000       3.87200000      22.66200000
 H      14.09100000       3.40900000      22.70000000
 H      15.19300000       3.80500000      21.66600000
 O      19.31500000       5.18400000      24.29300000
 H      19.06900000       4.94400000      23.38100000
 H      18.48200000       5.35300000      24.69100000
 O      18.04200000       1.42300000      25.89800000
 H      17.37800000       0.94100000      26.34300000
 H      17.64800000       1.59500000      25.00700000
 O      14.33500000       6.56000000      24.92000000
 H      13.57400000       5.95000000      24.79700000
 H      14.04000000       7.41900000      25.36000000
 O      16.52500000       1.92200000      23.81100000
 H      15.70600000       2.50500000      24.09300000
 H      16.29600000       1.42700000      22.97700000
