52
XYZ file of cluster: frame_11500_585dd.5dc47.4c693 - created by MolEdiTo
 O      11.87500000      14.86000000      14.88700000
 H      12.65100000      14.42300000      15.25100000
 H      12.12100000      15.13800000      14.01600000
 O      13.03800000      16.60300000       9.63200000
 H      13.44700000      15.91100000       9.10700000
 H      13.56700000      17.34400000       9.24500000
 O      10.20500000      14.36900000       9.73200000
 H       9.74600000      14.47200000      10.57700000
 H      10.35000000      15.29000000       9.52100000
 O      12.25700000      10.31600000       7.12900000
 H      11.93600000      11.25500000       7.02500000
 H      13.19500000      10.37500000       7.23400000
 O       8.59300000      17.68100000       8.41700000
 H       7.70500000      17.44800000       8.62900000
 H       9.07700000      17.95400000       9.20600000
 O       8.44400000      14.83100000      12.32900000
 H       8.14800000      14.89300000      13.27300000
 H       7.85700000      14.11300000      11.98000000
 C      11.46100000      10.99500000      11.99300000
 C      11.26500000      10.94500000      10.42900000
 C       9.27700000       9.37400000      10.53500000
 H       9.34400000      11.44500000      10.85100000
 H      10.51900000      11.78300000      13.40400000
 O       9.57800000      11.02500000       8.74400000
 O      12.88400000      10.94100000      12.33500000
 O      10.99200000      12.15500000      12.53500000
 C       9.79800000      10.74500000      10.10500000
 O      11.92500000      12.14100000       9.83000000
 H      11.79100000      10.04500000      10.07400000
 O       8.90200000       9.51400000      11.93700000
 O      10.12700000       8.25800000      10.32700000
 H      10.10000000       8.13500000       9.32000000
 H      11.22500000      12.86800000       9.77400000
 H      10.54700000      10.90300000       8.42700000
 O      13.53400000      14.67200000       7.56200000
 H      13.86200000      13.76900000       7.40600000
 H      13.81400000      15.15200000       6.78100000
 O      14.77800000      13.40200000      10.33000000
 H      14.82600000      14.08900000      11.05700000
 H      13.84600000      13.21100000      10.18000000
 O       9.76800000      17.21600000      12.14500000
 H       9.18500000      17.90500000      12.64500000
 H       9.09100000      16.42800000      12.00800000
 O      14.34800000      12.90300000      14.26600000
 H      15.34100000      12.79900000      14.21400000
 H      14.07200000      12.82600000      13.30300000
 O       7.68200000      14.04600000       8.28700000
 H       8.63800000      13.85200000       8.27900000
 H       7.77500000      14.69300000       7.50600000
 O      12.21500000      16.02100000      12.39900000
 H      11.28600000      16.22900000      12.11300000
 H      12.70600000      15.81000000      11.55500000
