61
XYZ file of cluster: frame_11500_4b904.5dc47.5ef56 - created by MolEdiTo
 O      14.34900000      15.81900000      17.78800000
 H      13.72800000      16.46000000      17.37300000
 H      15.07900000      16.47900000      18.10600000
 O       9.51600000      10.94700000      14.70800000
 H       9.91000000      10.18700000      15.19400000
 H       8.56400000      10.74800000      14.79600000
 O      11.87500000      14.86000000      14.88700000
 H      12.65100000      14.42300000      15.25100000
 H      12.12100000      15.13800000      14.01600000
 O      12.21500000      16.02100000      12.39900000
 H      11.28600000      16.22900000      12.11300000
 H      12.70600000      15.81000000      11.55500000
 O       9.16600000      17.93200000      15.35800000
 H       8.35200000      17.86000000      14.85000000
 H       9.58100000      17.01600000      15.44100000
 C      11.46100000      10.99500000      11.99300000
 C      11.26500000      10.94500000      10.42900000
 C       9.27700000       9.37400000      10.53500000
 H       9.34400000      11.44500000      10.85100000
 H      10.51900000      11.78300000      13.40400000
 O       9.57800000      11.02500000       8.74400000
 O      12.88400000      10.94100000      12.33500000
 O      10.99200000      12.15500000      12.53500000
 C       9.79800000      10.74500000      10.10500000
 O      11.92500000      12.14100000       9.83000000
 H      11.79100000      10.04500000      10.07400000
 O       8.90200000       9.51400000      11.93700000
 O      10.12700000       8.25800000      10.32700000
 H      10.10000000       8.13500000       9.32000000
 H      11.22500000      12.86800000       9.77400000
 H      10.54700000      10.90300000       8.42700000
 O       8.44400000      14.83100000      12.32900000
 H       8.14800000      14.89300000      13.27300000
 H       7.85700000      14.11300000      11.98000000
 O      14.77800000      13.40200000      10.33000000
 H      14.82600000      14.08900000      11.05700000
 H      13.84600000      13.21100000      10.18000000
 O      13.52100000      11.47500000      17.93800000
 H      13.84800000      12.29900000      18.41100000
 H      12.86000000      11.75600000      17.20500000
 O       9.76800000      17.21600000      12.14500000
 H       9.18500000      17.90500000      12.64500000
 H       9.09100000      16.42800000      12.00800000
 O      11.14900000      12.40200000      16.19600000
 H      11.09300000      13.24200000      15.74700000
 H      10.48200000      11.85000000      15.70300000
 O       7.12900000      16.09200000      14.66500000
 H       6.56900000      16.74900000      15.14000000
 H       7.83900000      15.78300000      15.27200000
 O      14.51200000      10.23500000      15.42400000
 H      15.33300000      10.44000000      15.87300000
 H      14.06000000      11.17900000      15.53900000
 O      14.34800000      12.90300000      14.26600000
 H      15.34100000      12.79900000      14.21400000
 H      14.07200000      12.82600000      13.30300000
 O       9.25100000      15.42300000      16.26300000
 H       9.27900000      15.45700000      17.26800000
 H      10.20600000      15.48700000      16.00100000
 O       8.51000000      12.62600000      17.24900000
 H       9.42300000      12.85900000      17.16700000
 H       8.19400000      12.66600000      18.21500000
