%chk=cluster_132_i.chk
%mem=6GB
%nproc=8
#b3lyp/6-31G** scrf=(cpcm,Solvent=Water) nosymm force
iop(2/11=1)
 Geom=(NoDistance,NoAngle)
guess=checkpoint

cluster_132_i

0 1
 O       8.09417039    14.58047857     8.58986484
 H       8.64839138    13.79628104     8.69185338
 H       7.54063320    14.39348595     7.82233378
 O       7.86837457    14.31291507    11.53469920
 H       8.06771186    15.25973406    11.63779249
 H       7.85507237    14.18812900    10.57251288
 O       8.18494153    17.36897991    11.74273067
 H       7.26486061    17.23955555    12.03999277
 H       8.68148911    17.55958627    12.54969177
 O       7.77372825    10.55842020     7.35829272
 H       8.55326257    11.12290713     7.19922175
 H       7.36919251    10.45147122     6.48564384
 O       5.53094020    16.43987475    12.82794394
 H       4.99635692    16.42953954    12.01352371
 H       5.09381717    17.08476480    13.40416541
 O       6.32087469    17.52393106     8.51913873
 H       6.13557627    17.84500536     7.62808972
 H       5.78767388    16.72106951     8.62457640
 O       3.20671739    11.60056617    10.56215088
 H       3.52246855    11.02396279    11.27645343
 H       3.02266327    10.98714596     9.83478320
 O       9.19004973    17.84194583     9.12245685
 H       8.93908790    17.80776129    10.06481877
 H       8.36356279    17.53708428     8.70695837
 O       4.50767700    15.37306828    10.24135962
 H       4.99188028    14.76623467    10.82414273
 H       4.29228768    14.78165990     9.47761504
 C      10.34356731    12.41100747    10.79935475
 C      11.23404262    11.17045054    10.82684019
 C       9.64092333     9.24346382    11.19792164
 H      10.08677719    10.13193399     9.28530309
 H      10.67209136    14.24755742    10.91101854
 O      11.71920976     9.01956355     9.97127874
 O       9.34894830    12.49696651    10.09111662
 O      10.92867297    13.43486908    11.40647576
 C      10.62190143     9.89283496    10.21364856
 O      12.29103442    11.62833469     9.98597374
 H      11.57485740    10.96256549    11.84354795
 O       9.45812275     9.66034555    12.32131574
 O       9.03098741     8.14520682    10.71319519
 H       8.46475336     7.79060899    11.42244264
 H      13.13647453    11.43043966    10.40785460
 H      11.37964756     8.24155143     9.50477821
 O      11.15010651    15.14493681     9.22128497
 H      11.10600338    14.53863673     8.46662018
 H      10.45905842    15.81020947     9.03761674
 O       6.33128932    11.35580047    12.03402062
 H       6.07020416    12.21305598    12.40534619
 H       6.14090160    11.43842560    11.07957801
 O       5.15209413    13.94831744    13.92742436
 H       4.18948650    13.87952172    13.89698209
 H       5.33230287    14.83461775    13.55855596
 O       4.21616428    13.60206405     8.22551799
 H       4.72106602    12.83421236     8.58676665
 H       4.75156073    13.91356052     7.47994984
 O      10.32641657    12.41661819     7.31442852
 H      11.12538687    11.95432195     7.02418991
 H      10.28857880    12.25118192     8.26824128
 O       8.78612522    12.42087484    14.38840171
 H       8.79755233    11.46083231    14.26833940
 H       8.40386955    12.73755425    13.55104269
 O       5.74889677    11.38443442     9.18782453
 H       5.13767829    10.64237907     9.08704594
 H       6.50081296    11.16699096     8.58869625

