123
XYZ file of cluster: frame_5000_9c3fa.483dd.c8104 - created by MolEdiTo
 O      27.46900000      12.02400000      30.55500000
 H      27.80000000      12.62900000      29.85200000
 H      27.52700000      11.14200000      30.16600000
 O      27.91600000      17.11500000      27.27700000
 H      27.55700000      16.19000000      27.42200000
 H      28.74100000      16.98500000      26.85500000
 O      20.71700000      20.36200000      29.21400000
 H      20.94000000      20.06300000      30.10200000
 H      20.66800000      21.35600000      29.34900000
 O      28.31900000      14.54000000      26.06600000
 H      27.90300000      14.29100000      26.96800000
 H      28.89900000      13.81500000      25.79800000
 O      26.53500000      18.16700000      29.54400000
 H      27.01300000      17.65500000      28.87200000
 H      27.07100000      18.98000000      29.66900000
 O      22.98700000      11.99100000      28.71800000
 H      22.31400000      12.01800000      29.38300000
 H      23.59200000      12.72900000      29.03000000
 O      28.10300000      10.67000000      27.90800000
 H      28.47200000       9.79900000      27.63300000
 H      27.17500000      10.41100000      28.13000000
 O      20.33900000      18.50700000      26.13100000
 H      20.10400000      19.35600000      26.55100000
 H      21.23300000      18.65200000      25.76300000
 O      22.97300000      19.24500000      28.09900000
 H      22.79500000      19.70900000      27.25500000
 H      22.36100000      19.69600000      28.70600000
 O      24.26300000      16.64000000      28.83000000
 H      25.12600000      17.11000000      28.91100000
 H      23.87300000      17.16200000      28.07900000
 O      20.89300000      14.37100000      28.47100000
 H      21.48900000      14.13300000      27.76300000
 H      21.03300000      15.28400000      28.53300000
 O      23.83700000      11.86400000      26.06000000
 H      23.39400000      11.86500000      26.98100000
 H      24.72000000      11.56800000      26.28400000
 O      29.00500000      13.01200000      29.53000000
 H      29.92500000      13.01700000      29.61500000
 H      28.83900000      12.48700000      28.69800000
 O      30.46700000       9.81400000      30.17400000
 H      29.59900000       9.46800000      30.47300000
 H      30.60800000      10.73300000      30.53200000
 O      24.67900000      13.90800000      30.07500000
 H      25.22900000      13.91700000      30.88600000
 H      24.31200000      14.85800000      29.90200000
 O      25.63500000      18.99600000      26.38000000
 H      25.45300000      18.09900000      26.03700000
 H      24.86600000      19.04300000      26.99200000
 O      25.23200000      10.12000000      28.12200000
 H      24.47500000      10.48000000      28.64600000
 H      24.84500000       9.27000000      27.80100000
 O      29.79700000      20.39500000      28.93500000
 H      30.75600000      20.56400000      28.71200000
 H      29.74300000      20.46200000      29.94200000
 O      26.61100000      15.01100000      30.77500000
 H      27.38900000      14.32700000      30.68900000
 H      27.06800000      15.89000000      30.64900000
 O      22.84500000      18.34400000      30.82700000
 H      22.05400000      17.88600000      31.17200000
 H      23.23800000      17.63000000      30.31100000
 O      29.81400000      16.22700000      29.17200000
 H      30.34200000      16.69800000      28.57900000
 H      28.91200000      16.36100000      28.91000000
 O      26.94600000      14.56100000      28.51700000
 H      27.60400000      14.11900000      29.07100000
 H      26.14200000      14.39300000      29.00700000
 O      20.59300000      17.16700000      28.70800000
 H      21.22100000      17.72700000      29.19300000
 H      20.83000000      17.33200000      27.77600000
 O      21.35000000      17.91200000      36.01300000
 H      20.75700000      17.17700000      35.60800000
 H      22.12500000      17.43800000      36.36300000
 O      23.05500000      20.18600000      34.45500000
 H      23.04300000      19.70800000      33.54900000
 H      23.39200000      19.54800000      35.14900000
 O      30.15300000      15.62500000      32.35000000
 H      30.15200000      15.49500000      31.43900000
 H      29.58700000      16.38900000      32.53200000
 O      25.73500000      18.12200000      33.66300000
 H      24.95700000      18.12100000      33.01900000
 H      25.52800000      18.73700000      34.36100000
 O      30.30400000      12.65800000      33.03000000
 H      29.84800000      13.46300000      33.21600000
 H      29.77300000      12.09700000      33.53800000
 O      28.12200000      17.41700000      32.49800000
 H      27.22900000      17.69800000      32.91500000
 H      28.47700000      18.29400000      32.20600000
 O      25.62700000      11.91200000      34.20700000
 H      26.11500000      11.42800000      33.47500000
 H      26.34100000      12.29700000      34.71500000
 O      22.10600000      13.94900000      36.00500000
 H      22.69700000      13.20000000      36.35100000
 H      22.76600000      14.46100000      35.43900000
 O      24.67500000      19.08200000      36.41600000
 H      24.41000000      19.49500000      37.25400000
 H      25.02900000      18.27200000      36.84200000
 O      19.95700000      19.69100000      33.40800000
 H      20.32300000      20.56800000      33.25700000
 H      20.78900000      19.24100000      33.79700000
 O      29.22000000      18.98300000      35.54300000
 H      28.54900000      19.66300000      35.42100000
 H      30.05300000      19.41200000      35.87300000
 O      20.43500000      12.31900000      34.61300000
 H      21.09500000      12.95700000      35.03700000
 H      21.08000000      11.62200000      34.26200000
 O      24.95900000      14.78100000      36.00500000
 H      24.88600000      13.80200000      36.02100000
 H      25.74000000      15.01400000      36.59500000
 O      29.61100000      19.82700000      32.52200000
 H      29.85600000      19.19700000      33.22700000
 H      29.18600000      20.66100000      32.92600000
 O      28.59700000      14.35200000      34.83100000
 H      28.28600000      14.10900000      35.73900000
 H      28.69900000      15.31900000      34.74500000
 O      22.91200000      11.74700000      32.99700000
 H      22.86300000      12.21000000      32.11500000
 H      23.70600000      12.10900000      33.47400000
 O      23.96200000      15.70500000      33.69700000
 H      24.54700000      15.46500000      34.45600000
 H      24.55200000      15.57300000      32.90000000
 O      20.86900000      16.34000000      33.28900000
 H      21.45900000      15.55100000      33.29600000
 H      19.93900000      15.96300000      33.31400000
