105
XYZ file of cluster: frame_5000_9fc86.c57dd.1e0b8 - created by MolEdiTo
 O      25.60900000      28.28000000      11.24300000
 H      25.87300000      28.96400000      11.92900000
 H      25.66000000      28.75600000      10.35900000
 O      22.07300000      29.63800000       9.50500000
 H      22.54500000      30.47800000       9.70100000
 H      22.48500000      28.88800000      10.15400000
 O      28.69800000      29.31300000       6.99800000
 H      28.93900000      29.84200000       6.16500000
 H      29.40500000      29.68900000       7.59900000
 O      28.78600000      27.62000000      10.93300000
 H      28.09300000      27.71700000      11.54500000
 H      28.56600000      26.94100000      10.29000000
 O      22.79200000      27.97500000      11.70700000
 H      22.80000000      27.03100000      11.88700000
 H      23.74700000      28.26000000      11.50700000
 O      25.94100000      30.46000000      13.03000000
 H      25.38400000      30.68400000      13.81600000
 H      26.45400000      31.29200000      12.84000000
 O      22.09500000      26.54600000       6.06500000
 H      21.22400000      26.11800000       6.43000000
 H      22.60400000      25.83500000       5.56100000
 O      23.06000000      27.01900000       8.94400000
 H      23.20700000      27.96400000       8.64200000
 H      22.64600000      26.70400000       8.10600000
 O      26.51700000      29.69300000       8.97600000
 H      27.44600000      29.38300000       8.87600000
 H      26.52600000      30.61100000       8.58600000
 O      29.09300000      26.24500000       9.11800000
 H      28.35100000      26.48100000       8.55000000
 H      29.76400000      25.92300000       8.47700000
 O      26.75500000      29.26100000       4.64400000
 H      26.80800000      29.92700000       5.45000000
 H      26.59500000      29.80400000       3.86900000
 O      20.59500000      26.36200000      10.13400000
 H      20.39000000      25.34200000      10.11300000
 H      21.60200000      26.34500000       9.90400000
 O      26.99000000      26.68600000       7.65300000
 H      26.67500000      26.04800000       7.03300000
 H      27.01800000      27.48900000       7.10400000
 O      21.31800000      26.63900000      14.45600000
 H      21.80000000      25.81800000      14.33500000
 H      20.66300000      26.76100000      13.64800000
 O      24.96100000      27.55900000      14.73800000
 H      25.27800000      28.21100000      14.04400000
 H      24.42900000      28.04200000      15.42300000
 O      25.69700000      25.85700000       9.43500000
 H      24.74600000      25.77800000       9.15400000
 H      25.88200000      26.80400000       9.22100000
 O      21.31400000      29.95100000      14.04600000
 H      22.24600000      29.61300000      13.87700000
 H      20.76200000      29.61000000      13.29400000
 O      27.39500000      29.28100000      15.70200000
 H      26.49100000      28.91400000      15.75500000
 H      27.98700000      28.54600000      16.02500000
 O      24.72900000      28.35400000       6.91300000
 H      25.14200000      28.67700000       6.11900000
 H      25.39900000      28.41600000       7.60200000
 O      25.15100000      34.14500000       8.37700000
 H      25.82200000      34.83400000       8.24400000
 H      24.76200000      34.40100000       9.27800000
 O      23.66100000      32.88600000      10.68200000
 H      24.45000000      32.69100000      11.23500000
 H      23.25200000      33.74200000      11.00500000
 O      22.80200000      32.72100000       7.02300000
 H      23.37800000      33.41100000       7.47300000
 H      23.18100000      31.86500000       7.13900000
 O      21.93900000      33.76800000      15.44000000
 H      21.39800000      34.06600000      16.22600000
 H      21.31400000      33.14100000      15.00500000
 O      22.31300000      35.32300000      11.24700000
 H      21.41700000      35.44000000      11.63900000
 H      22.61000000      36.23400000      10.96500000
 O      30.49900000      33.11400000       7.69100000
 H      30.89700000      34.02400000       7.93900000
 H      30.74900000      32.55100000       8.40700000
 O      24.74700000      32.97500000      15.15000000
 H      24.80300000      33.14300000      16.13100000
 H      23.72400000      33.14000000      15.00800000
 O      22.85100000      36.76300000       5.80900000
 H      22.05900000      36.48500000       6.40000000
 H      23.56500000      36.16000000       6.13900000
 O      23.43100000      36.15700000      14.99200000
 H      22.97000000      36.58000000      15.72300000
 H      22.93500000      35.29400000      14.77800000
 O      20.99500000      32.20500000       4.66500000
 H      21.01800000      32.35800000       5.68600000
 H      21.90000000      31.79000000       4.45400000
 O      27.03700000      33.50200000       5.86300000
 H      26.30700000      33.51800000       5.21200000
 H      26.69000000      33.69200000       6.75000000
 O      29.05700000      32.54200000      14.58200000
 H      28.39500000      31.95600000      14.95800000
 H      28.91300000      33.35800000      15.10300000
 O      28.04600000      34.30100000       8.61700000
 H      28.53100000      35.06300000       9.05000000
 H      28.90500000      33.85200000       8.22600000
 O      26.27400000      35.78300000      15.28000000
 H      25.78800000      34.93100000      15.04900000
 H      25.49000000      36.38300000      15.34800000
 O      26.69500000      34.02900000      11.60300000
 H      27.01700000      34.93700000      11.77000000
 H      27.08900000      33.76500000      10.75300000
 O      21.31200000      36.26400000       8.07500000
 H      20.53000000      36.74900000       8.44300000
 H      21.85100000      35.89700000       8.87300000
