135
XYZ file of cluster: frame_5000_47c9e.c4a06.478f3 - created by MolEdiTo
 O      11.47800000      30.07600000      20.30600000
 H      11.82900000      30.79600000      20.82800000
 H      10.59200000      30.29200000      19.91900000
 O      18.56800000      28.60100000      15.03600000
 H      18.92700000      29.33100000      15.43300000
 H      19.06900000      28.46800000      14.18100000
 O      15.44100000      25.76900000      19.28500000
 H      16.04700000      26.56000000      19.46000000
 H      15.41100000      25.43000000      20.19100000
 O      11.57200000      28.61900000      11.61600000
 H      11.59700000      28.82100000      12.59900000
 H      10.62600000      28.37900000      11.50500000
 O      17.20900000      25.68200000      10.60400000
 H      17.16100000      26.44900000      10.02900000
 H      17.12300000      26.06300000      11.49300000
 O      13.55400000      28.70500000      18.61300000
 H      14.02400000      28.25300000      19.31600000
 H      12.76200000      29.16700000      19.14400000
 O      18.56600000      26.80400000      19.52700000
 H      19.49100000      26.84500000      19.34000000
 H      18.60600000      26.33100000      20.39800000
 O      15.75000000      29.33500000      16.59400000
 H      14.96100000      29.32100000      17.22600000
 H      16.20100000      28.59200000      17.02500000
 O      16.93200000      30.08900000      13.12600000
 H      17.23900000      29.71300000      12.29700000
 H      15.91200000      30.11000000      13.02300000
 O      17.59600000      27.26300000      13.07100000
 H      18.56900000      27.42800000      12.91800000
 H      17.52800000      27.89500000      13.83100000
 O      18.28900000      28.08100000      17.41400000
 H      18.86600000      28.08200000      16.64700000
 H      18.94200000      27.61300000      18.02400000
 O      10.54300000      27.54500000      18.07500000
 H      11.31800000      27.60000000      17.47500000
 H      10.20000000      28.44700000      17.87400000
 O      21.31800000      26.63900000      14.45600000
 H      21.80000000      25.81800000      14.33500000
 H      20.66300000      26.76100000      13.64800000
 O      17.96000000      29.96200000      10.61000000
 H      18.48700000      29.82500000       9.81800000
 H      17.67400000      30.86600000      10.46400000
 O      10.06300000      30.26100000      17.66700000
 H      10.58200000      31.00900000      17.27600000
 H       9.16100000      30.42600000      17.93400000
 O      14.39600000      25.97200000      13.35400000
 H      15.26400000      25.94900000      12.93000000
 H      14.40000000      26.61900000      14.05800000
 O      21.31400000      29.95100000      14.04600000
 H      22.24600000      29.61300000      13.87700000
 H      20.76200000      29.61000000      13.29400000
 O      10.43600000      25.23100000      10.89000000
 H       9.58100000      25.31100000      11.19400000
 H      10.80400000      26.17100000      10.76500000
 O      19.16600000      27.43500000      12.31300000
 H      19.29000000      28.29300000      11.89600000
 H      19.62300000      26.91100000      11.56000000
 O      18.33300000      29.06300000      21.64300000
 H      17.84300000      28.53100000      22.32900000
 H      18.03500000      28.62000000      20.83100000
 O      13.49200000      25.59200000      10.94800000
 H      13.89300000      26.19700000      11.59800000
 H      12.51600000      25.54900000      11.17900000
 O      14.45300000      30.44400000      11.27700000
 H      14.07900000      29.54400000      11.12200000
 H      14.04300000      30.77700000      12.11800000
 O      14.44400000      27.66800000      11.04100000
 H      14.32600000      26.96800000      11.76500000
 H      13.51800000      27.92900000      10.76100000
 O      16.50600000      28.65100000      19.67400000
 H      16.33900000      29.63900000      19.77500000
 H      17.31400000      28.69900000      19.14600000
 O      12.00600000      29.46600000      15.10900000
 H      11.90000000      28.52100000      15.26300000
 H      12.44000000      29.86600000      15.96000000
 O      18.74000000      33.70600000      16.14300000
 H      18.31400000      32.78900000      16.23100000
 H      18.88100000      33.91500000      17.08100000
 O      19.08800000      32.76100000      19.19700000
 H      18.35200000      32.24400000      19.56400000
 H      18.94500000      33.54300000      19.78200000
 O      10.32500000      34.75400000      18.60100000
 H      11.12800000      34.20700000      18.46200000
 H      10.57400000      35.20900000      19.43200000
 O      16.05800000      35.05400000      18.01700000
 H      16.54000000      35.80100000      18.17800000
 H      15.76400000      35.20100000      17.07800000
 O      13.27600000      33.78900000      19.45100000
 H      13.42500000      33.51100000      20.32400000
 H      14.10600000      34.18500000      19.08600000
 O      17.22000000      32.67800000      15.63500000
 H      16.74500000      31.98100000      16.22700000
 H      17.05100000      32.19400000      14.78800000
 O      19.14800000      36.28400000      10.80700000
 H      19.03500000      36.83200000      10.08000000
 H      18.46300000      35.55700000      10.73800000
 O      16.53800000      34.44300000      12.65400000
 H      16.75000000      33.44400000      12.56600000
 H      17.46300000      34.79500000      12.79500000
 O      18.37000000      34.12300000      12.91500000
 H      18.13700000      33.86000000      13.81300000
 H      19.24600000      33.72500000      12.80000000
 O      11.12800000      36.86200000      10.18900000
 H      11.57700000      36.03200000      10.52900000
 H      11.00300000      36.74700000       9.21500000
 O      15.96700000      35.14400000      20.94800000
 H      15.92000000      35.37700000      19.99600000
 H      16.90000000      35.11400000      21.02500000
 O      17.13100000      32.56900000      19.21300000
 H      16.83700000      33.53300000      19.16400000
 H      17.36800000      32.37200000      18.26100000
 O      19.51200000      36.98700000      14.05400000
 H      18.77100000      37.33800000      14.58300000
 H      19.05200000      36.30600000      13.47300000
 O      21.18600000      35.36900000      17.95200000
 H      21.76600000      36.14800000      18.23500000
 H      20.12400000      35.58400000      18.05800000
 O      18.42900000      36.05300000      18.06200000
 H      17.92900000      35.75600000      18.90700000
 H      18.20100000      36.99700000      17.97300000
 O      17.43000000      35.69200000      15.56200000
 H      17.35000000      34.80200000      15.03200000
 H      17.68900000      35.60900000      16.52500000
 O      14.98900000      34.72000000      10.00300000
 H      15.27400000      34.82600000      10.98100000
 H      14.93800000      33.76700000      10.00300000
 O      13.82400000      32.29400000      13.83900000
 H      13.28300000      33.17800000      13.70200000
 H      13.13900000      31.69300000      14.29900000
 O      12.19400000      34.47200000      13.46000000
 H      12.59300000      35.17700000      12.87500000
 H      11.84200000      34.76100000      14.33300000
 O      18.54800000      35.69500000      20.61500000
 H      18.53600000      36.54300000      20.98200000
 H      19.01500000      35.27900000      21.40700000
