144
XYZ file of cluster: frame_5000_6eb42.1831.72c25 - created by MolEdiTo
 O      18.74000000       2.37800000      16.14300000
 H      18.31400000       1.46100000      16.23100000
 H      18.88100000       2.58700000      17.08100000
 O      16.72700000       6.38500000      18.64900000
 H      16.22900000       6.45300000      19.50800000
 H      17.39000000       7.11700000      18.64100000
 O      21.93900000       2.44000000      15.44000000
 H      21.39800000       2.73800000      16.22600000
 H      21.31400000       1.81300000      15.00500000
 O      24.11800000       9.23400000      24.70100000
 H      23.52600000       9.89200000      25.10500000
 H      24.04200000       8.39000000      25.19200000
 O      26.46700000       0.87800000      18.56000000
 H      26.12200000       0.19400000      17.89900000
 H      25.70100000       1.55700000      18.52300000
 O      25.83500000       3.84200000      23.05500000
 H      26.44100000       3.61900000      22.27000000
 H      25.43200000       2.99900000      23.33200000
 O      20.55700000       5.72400000      20.44600000
 H      20.67800000       5.95900000      21.41000000
 H      19.61000000       5.83000000      20.30000000
 O      19.08800000       1.43300000      19.19700000
 H      18.35200000       0.91600000      19.56400000
 H      18.94500000       2.21500000      19.78200000
 O      18.86400000       2.20400000      25.99700000
 H      18.26200000       1.73100000      25.33300000
 H      19.56900000       1.55000000      26.10200000
 O      25.40100000       1.09200000      23.80800000
 H      26.05400000       1.11100000      24.52700000
 H      25.95500000       0.67800000      23.04000000
 O      16.05800000       3.72600000      18.01700000
 H      16.54000000       4.47300000      18.17800000
 H      15.76400000       3.87300000      17.07800000
 O      23.03800000       2.59000000      22.96600000
 H      22.21900000       2.47400000      23.50400000
 H      23.79600000       2.21800000      23.56100000
 O      22.59200000       1.99100000      20.22400000
 H      22.58900000       2.14800000      21.20900000
 H      21.80100000       2.47500000      20.02100000
 O      17.22000000       1.35000000      15.63500000
 H      16.74500000       0.65300000      16.22700000
 H      17.05100000       0.86600000      14.78800000
 O      18.36800000       4.76400000      24.80600000
 H      18.70600000       3.99200000      25.18900000
 H      18.98900000       4.72700000      24.03400000
 O      16.23400000       7.59900000      22.93600000
 H      16.06800000       7.38700000      23.87600000
 H      17.11100000       7.25000000      22.76400000
 O      18.22200000       8.62700000      18.47500000
 H      19.19200000       8.96200000      18.71500000
 H      17.81700000       9.52300000      18.64700000
 O      14.94200000       6.94900000      20.59800000
 H      15.62800000       7.28100000      21.23800000
 H      14.12700000       6.56900000      21.13100000
 O      19.09300000       3.55200000      22.92100000
 H      19.66900000       3.89200000      23.57900000
 H      19.37200000       2.68500000      22.58500000
 O      23.16400000       8.19500000      19.42100000
 H      23.24300000       7.53700000      20.16400000
 H      23.99200000       8.67600000      19.54400000
 O      26.49300000       7.00100000      22.25200000
 H      25.95000000       6.19500000      22.11000000
 H      27.44700000       6.80400000      22.35300000
 O      15.96700000       3.81600000      20.94800000
 H      15.92000000       4.04900000      19.99600000
 H      16.90000000       3.78600000      21.02500000
 O      18.34300000       9.36300000      22.87500000
 H      18.63100000      10.15000000      23.35500000
 H      17.43200000       9.56700000      22.89700000
 O      18.92700000       7.90800000      15.57700000
 H      19.82900000       8.24100000      15.47100000
 H      18.59700000       8.13200000      16.49200000
 O      18.03100000       6.63900000      22.10000000
 H      18.07800000       7.49400000      21.70400000
 H      18.37000000       6.94400000      22.97100000
 O      20.37500000       7.83200000      24.74700000
 H      20.84500000       8.72300000      24.93400000
 H      19.41600000       7.98600000      24.87100000
 O      25.72200000       9.23200000      20.63400000
 H      25.60600000       8.51300000      21.33200000
 H      26.10400000       9.91600000      21.18800000
 O      17.13100000       1.24100000      19.21300000
 H      16.83700000       2.20500000      19.16400000
 H      17.36800000       1.04400000      18.26100000
 O      23.68700000       5.65100000      18.05900000
 H      23.26500000       6.58900000      18.06000000
 H      23.69400000       5.44700000      19.04500000
 O      24.74700000       1.64700000      15.15000000
 H      24.80300000       1.81500000      16.13100000
 H      23.72400000       1.81200000      15.00800000
 O      18.42900000       4.72500000      18.06200000
 H      17.92900000       4.42800000      18.90700000
 H      18.20100000       5.66900000      17.97300000
 O      17.43000000       4.36400000      15.56200000
 H      17.35000000       3.47400000      15.03200000
 H      17.68900000       4.28100000      16.52500000
 O      26.49600000       5.54500000      19.72600000
 H      27.25900000       6.04600000      19.43500000
 H      25.83300000       6.19000000      20.12200000
 O      20.70900000       4.82100000      24.81600000
 H      21.04800000       4.41400000      25.65100000
 H      20.83400000       5.79500000      24.95700000
 O      14.99000000      10.01900000      21.17700000
 H      15.19700000       9.41200000      21.90100000
 H      15.69100000      10.00900000      20.50300000
 O      24.25200000       6.05800000      24.59200000
 H      24.38000000       5.30400000      25.17600000
 H      25.00600000       6.04800000      23.99000000
 O      22.37700000       7.31300000      22.75000000
 H      21.73600000       7.07800000      23.49700000
 H      23.24300000       7.11300000      23.10900000
 O      26.54200000      10.42700000      24.02700000
 H      25.83300000       9.83900000      24.27100000
 H      27.30700000       9.88200000      24.24900000
 O      19.02500000       9.68800000      20.62700000
 H      18.22000000       9.72100000      21.17500000
 H      19.80600000      10.16100000      21.06200000
 O      18.74900000       7.52500000      25.69000000
 H      18.54900000       6.61600000      25.30400000
 H      17.87600000       7.84000000      25.98400000
 O      18.54800000       4.36700000      20.61500000
 H      18.53600000       5.21500000      20.98200000
 H      19.01500000       3.95100000      21.40700000
 O      20.23000000       7.62700000      16.97700000
 H      20.64700000       7.66300000      16.10800000
 H      20.76700000       8.16100000      17.64800000
 O      23.43100000       4.82900000      14.99200000
 H      22.97000000       5.25200000      15.72300000
 H      22.93500000       3.96600000      14.77800000
 O      22.03400000       9.98700000      22.05400000
 H      22.94200000       9.88800000      22.37800000
 H      21.85500000       9.02300000      21.82500000
 O      23.76700000       5.50900000      21.12700000
 H      24.35200000       4.76500000      21.55600000
 H      22.95600000       5.48200000      21.71900000
 O      20.47200000       0.94600000      22.23800000
 H      20.04900000       0.36600000      21.56700000
 H      21.45800000       0.76000000      22.22300000
 O      24.69200000       3.09000000      17.60100000
 H      24.62600000       4.09900000      17.59700000
 H      24.28300000       2.80400000      18.45500000
 O      21.18600000       4.04100000      17.95200000
 H      21.76600000       4.82000000      18.23500000
 H      20.12400000       4.25600000      18.05800000
