139
XYZ file of cluster: frame_5000_228ce.49eac.1e80c - created by MolEdiTo
 O      15.31800000      16.36200000       9.18700000
 H      14.78200000      16.14100000       8.40200000
 H      14.79200000      16.04100000       9.84700000
 O      12.90200000      12.01200000      13.92200000
 H      12.13000000      12.60000000      13.78900000
 H      13.57800000      12.30000000      13.27700000
 O       9.23600000      16.33500000      15.89100000
 H       9.83500000      17.01800000      16.17800000
 H       8.71800000      16.75700000      15.16900000
 O      15.34900000      19.50900000      14.33400000
 H      15.85100000      19.69100000      15.14700000
 H      14.96500000      20.38100000      14.02000000
 O       7.05500000      10.74000000       8.83200000
 H       7.16300000      11.45600000       9.41200000
 H       6.74300000      11.29200000       8.00600000
 O      15.95800000      19.98500000       9.41300000
 H      15.05000000      20.05800000       9.01900000
 H      16.10700000      19.02300000       9.46400000
 O       4.60000000      10.84300000      14.99200000
 H       5.30900000      10.59500000      15.60400000
 H       4.40900000       9.98800000      14.43400000
 O      10.34800000      17.54200000       5.94500000
 H      11.24600000      17.51200000       6.22700000
 H      10.09100000      18.50900000       5.95500000
 O      10.15300000      11.23800000      12.44100000
 H      10.49600000      10.32900000      12.59700000
 H      10.00600000      11.66800000      13.27400000
 O      10.70100000      16.22800000       8.98600000
 H      11.19900000      16.91300000       8.44100000
 H      10.66900000      16.61400000       9.83900000
 O       7.91500000      10.71300000       5.56000000
 H       7.80700000      10.54400000       4.58100000
 H       8.82900000      10.87800000       5.49000000
 O      15.21600000      13.31000000      12.36400000
 H      14.72500000      14.08400000      12.08800000
 H      16.13400000      13.70200000      12.50300000
 O       8.70300000      11.88800000      15.39200000
 H       8.35500000      12.50300000      16.05000000
 H       7.92800000      11.58200000      14.81600000
 O       6.82100000      12.03300000      13.39100000
 H       5.87300000      11.75200000      13.41100000
 H       7.12300000      12.27000000      12.46800000
 O       5.40200000      13.84100000      10.44500000
 H       5.42900000      14.59300000       9.78900000
 H       6.35200000      13.70300000      10.59900000
 O       5.43900000      15.99400000       8.69000000
 H       6.33700000      16.33100000       8.90000000
 H       5.06600000      16.70800000       8.06100000
 O       9.60800000      15.09300000       4.83900000
 H       9.73100000      15.38900000       3.92800000
 H       9.97200000      15.79800000       5.34000000
 O       7.80000000      17.82200000      13.76300000
 H       8.40900000      18.52400000      13.36500000
 H       6.97200000      18.34500000      13.81900000
 O      11.21400000      18.61400000      14.36700000
 H      11.90800000      18.78000000      15.00800000
 H      11.58800000      17.81300000      13.87700000
 O       6.91000000      14.22900000      15.73600000
 H       6.82000000      15.17100000      15.93500000
 H       6.59000000      14.26700000      14.76800000
 O       7.64800000      15.00100000      12.32700000
 H       8.38400000      14.35800000      12.30800000
 H       7.95300000      15.68000000      12.94700000
 O      14.64000000      15.84700000       5.97500000
 H      13.78000000      16.35300000       5.66400000
 H      14.25700000      15.03400000       6.34400000
 O       9.25700000      13.61800000       8.12300000
 H      10.06400000      13.14500000       7.77900000
 H       9.74900000      14.44100000       8.48200000
 O      11.70500000      13.19000000      10.89200000
 H      10.93800000      12.63200000      11.26700000
 H      12.40600000      12.50000000      10.91700000
 O       6.74500000      13.19800000       7.08400000
 H       7.68500000      13.28700000       7.43600000
 H       6.92500000      13.01000000       6.19500000
 O      10.02800000      13.98200000      14.08600000
 H      10.01800000      13.34400000      14.86700000
 H      10.53600000      14.73100000      14.54800000
 O       5.61800000      17.06200000      11.57600000
 H       6.37400000      17.23200000      10.95600000
 H       5.89500000      16.21900000      11.98100000
 C      15.94500000      14.41000000      16.65800000
 C      16.41500000      15.20700000      15.33500000
 C      14.37600000      16.72400000      15.07200000
 H      16.36300000      17.20300000      14.49600000
 H      17.55900000      13.92600000      16.66600000
 O      16.26000000      17.41300000      16.60500000
 O      14.83700000      14.43600000      17.16700000
 O      16.90800000      14.04500000      17.43000000
 C      15.87100000      16.67700000      15.39600000
 O      17.80300000      15.18600000      15.05700000
 H      16.02700000      14.68300000      14.54900000
 O      13.92600000      16.36700000      13.98600000
 O      13.65500000      17.32300000      16.00800000
 H      14.38600000      17.52300000      16.68900000
 H      18.00700000      15.39200000      14.07500000
 H      17.22700000      17.44700000      16.69900000
 O      11.61800000      12.79400000       7.10900000
 H      11.34100000      12.46400000       6.23600000
 H      12.54700000      13.18300000       6.78400000
 O      12.94200000      20.07800000       8.84000000
 H      12.18000000      20.72000000       8.54700000
 H      12.81600000      19.85300000       9.77800000
 O      14.98300000      11.36500000       8.73600000
 H      14.15800000      11.06300000       9.20500000
 H      15.27900000      10.49400000       8.37300000
 O       9.73600000      20.01400000       8.75500000
 H      10.49200000      20.53100000       8.36100000
 H       8.99500000      20.16200000       8.16900000
 O      12.43900000      13.85500000      16.07000000
 H      13.01100000      13.17300000      15.60700000
 H      13.03900000      13.97700000      16.86700000
 O      12.45200000      10.35700000       9.68100000
 H      11.66100000      10.74500000       9.19500000
 H      12.18700000       9.48500000      10.01700000
 O      11.02600000      18.57800000      10.93000000
 H      10.81900000      19.21900000      11.61100000
 H      10.45300000      18.86200000      10.20800000
 O      13.61700000      15.27200000      11.18500000
 H      13.45300000      15.68100000      12.11800000
 H      12.70700000      14.94700000      11.04500000
 O       9.18300000      20.33400000      14.19100000
 H       9.18500000      20.49700000      15.10100000
 H       9.99800000      19.78500000      14.12700000
 O       6.75200000      21.02500000       8.60800000
 H       6.49900000      21.89900000       8.23900000
 H       5.90900000      20.59600000       8.44200000
 O       7.51000000      18.11700000       8.80100000
 H       7.28800000      19.09300000       8.72300000
 H       8.43600000      18.01300000       9.14200000
 O       6.13600000      20.14300000      14.48800000
 H       7.08100000      20.34600000      14.50600000
 H       5.95400000      20.28100000      15.46200000
 O       7.89400000      12.69600000      10.67800000
 H       8.50100000      12.15000000      11.23800000
 H       8.46500000      12.96100000       9.93300000
 O      14.06000000      13.85300000       7.75600000
 H      14.46300000      12.89800000       7.75300000
 H      13.27900000      13.70700000       8.34400000
