42
XYZ file of cluster: frame_14500_bcf99.4a27b.46584 - created by MolEdiTo
 O      19.43500000       6.96200000      12.20100000
 H      20.08800000       6.22300000      12.42200000
 H      18.57700000       6.37600000      12.06400000
 O      19.47900000      10.15200000      10.86100000
 H      20.18600000      10.76200000      11.15900000
 H      18.74300000      10.30300000      11.56200000
 O      17.18800000       9.29200000      12.49100000
 H      16.31600000       9.29100000      13.04400000
 H      17.83700000       8.84200000      13.04700000
 O      20.58000000       8.25900000      14.24100000
 H      19.78100000       8.65300000      14.68300000
 H      20.42100000       7.94400000      13.31600000
 O      19.78200000      12.29700000      13.25700000
 H      19.31100000      12.00000000      14.08000000
 H      19.04300000      12.43500000      12.64900000
 O      19.26700000      13.09100000       8.39200000
 H      18.43800000      12.59000000       8.55100000
 H      19.33000000      12.95300000       7.44300000
 O      18.31200000       9.48600000       8.44600000
 H      17.50700000       8.96400000       8.59600000
 H      18.72800000       9.61700000       9.32900000
 O      22.24000000      10.60600000       7.00400000
 H      22.52300000      10.02300000       7.75900000
 H      21.50100000      11.00900000       7.53900000
 O      23.39100000      10.91000000       9.85800000
 H      22.99500000      10.03800000       9.93100000
 H      23.94500000      10.93600000      10.74400000
 O      23.94600000       6.82900000      14.45300000
 H      23.84100000       6.72300000      15.38500000
 H      23.09500000       7.26300000      14.20700000
 O      22.15300000       7.41600000       6.53900000
 H      22.66000000       6.63200000       6.21300000
 H      22.66100000       7.91200000       7.19000000
 O      23.07600000      13.30600000       9.27700000
 H      23.22800000      12.29200000       9.47500000
 H      22.17800000      13.34300000       8.81900000
 O      22.64200000       8.23400000       9.57100000
 H      23.11200000       7.78600000      10.34800000
 H      21.70400000       8.34300000       9.82500000
 O      23.51400000      12.19700000      12.41400000
 H      22.60400000      12.48700000      12.62400000
 H      23.61900000      11.49100000      13.09400000
