33
XYZ file of cluster: frame_14500_94f55.a5351.be84d - created by MolEdiTo
 O      14.40200000      19.99200000      20.26400000
 H      15.08900000      19.41000000      19.87200000
 H      14.09400000      20.46200000      19.44200000
 O      19.22800000      18.56400000      18.26700000
 H      19.74700000      19.09400000      17.66700000
 H      19.39000000      17.64800000      17.82100000
 O      17.13400000      17.30300000      20.18000000
 H      17.73900000      17.73400000      19.51800000
 H      16.77600000      16.51500000      19.77200000
 O      16.56900000      15.57600000      17.98800000
 H      16.95600000      14.69700000      17.77200000
 H      17.14900000      16.19700000      17.48500000
 O      15.92600000      18.51600000      17.76700000
 H      16.33000000      18.29200000      16.82700000
 H      16.01900000      17.72800000      18.35600000
 O      13.51400000      13.87200000      18.94100000
 H      14.11200000      14.44300000      18.38300000
 H      12.86100000      14.51400000      19.16000000
 O      16.39200000      18.98300000      23.91700000
 H      16.61600000      18.37800000      23.20000000
 H      15.37700000      18.98800000      23.92900000
 O      18.76200000      15.00700000      22.46300000
 H      18.12900000      14.27100000      22.24500000
 H      18.21400000      15.84300000      22.69900000
 O      16.70000000      15.68700000      24.87500000
 H      17.74400000      15.74600000      24.84300000
 H      16.46600000      16.48300000      24.32800000
 O      19.57000000      19.21700000      24.83300000
 H      19.51800000      18.16300000      24.84700000
 H      19.65900000      19.52500000      25.72800000
 O      13.69200000      14.86000000      24.86900000
 H      14.64100000      15.21000000      24.96300000
 H      13.86900000      13.86400000      25.03300000
