45
XYZ file of cluster: frame_18000_2b0a.cc2e0.4ed65 - created by MolEdiTo
 O       2.60500000      19.05600000      10.76300000
 H       2.17100000      19.55900000       9.97400000
 H       1.92200000      18.36200000      11.06800000
 O       0.75400000      20.55600000      13.00300000
 H       0.23700000      20.59600000      13.82400000
 H       0.56000000      19.79500000      12.46700000
 O       6.75000000      19.79000000      10.36000000
 H       7.64400000      19.46200000      10.08500000
 H       6.24800000      19.45300000       9.60400000
 O       4.45300000      20.56500000       7.93700000
 H       3.46300000      20.50100000       7.94700000
 H       4.74100000      19.73100000       8.42500000
 O       6.43500000      18.47500000       7.78300000
 H       7.21900000      18.93900000       7.30300000
 H       5.86200000      18.17600000       6.96500000
 O       3.68800000      18.06200000      13.57800000
 H       3.37100000      18.64600000      14.26700000
 H       3.26900000      18.43000000      12.74600000
 O       6.63600000      18.69600000      14.04600000
 H       6.81800000      19.23200000      13.23400000
 H       5.76800000      18.28700000      13.76300000
 O       4.66300000      22.66500000      11.83100000
 H       3.89900000      22.18800000      11.37900000
 H       5.36700000      22.39800000      11.28800000
 O       1.22000000      24.40300000      11.63900000
 H       1.10300000      23.46800000      12.03500000
 H       0.84100000      24.91800000      12.40100000
 O       7.19200000      24.73600000       8.03500000
 H       6.71700000      24.33600000       7.25400000
 H       6.58200000      25.57000000       8.25500000
 O       3.96700000      25.15200000       7.88500000
 H       3.99600000      24.22800000       8.24800000
 H       3.12300000      25.49400000       8.35400000
 O       6.52600000      25.50500000      12.44700000
 H       5.80900000      25.17100000      12.92600000
 H       6.58800000      25.17800000      11.55300000
 O       5.81500000      23.45200000      14.51500000
 H       5.34500000      23.27700000      13.68500000
 H       6.73000000      23.28300000      14.34600000
 O       3.51200000      25.03900000      13.54900000
 H       2.89500000      24.98000000      12.82400000
 H       3.35100000      24.22300000      14.00900000
 O       1.43900000      22.84300000       9.35200000
 H       0.65700000      23.05300000       8.85000000
 H       1.41000000      23.50400000      10.09700000
