51
XYZ file of cluster: frame_18000_4ab3f.0.1d8af - created by MolEdiTo
 O      14.99000000       0.86400000      10.84100000
 H      14.08100000       0.68300000      10.51900000
 H      15.37700000       0.00000000      10.84400000
 O       9.31000000       2.58900000       3.10300000
 H       9.61400000       2.74200000       4.08300000
 H      10.15300000       2.75300000       2.61000000
 O       7.53800000       5.69600000       4.42600000
 H       6.81500000       5.05900000       4.57300000
 H       7.20700000       6.50200000       4.80400000
 O      10.97700000       1.22400000       6.01600000
 H      11.02400000       1.97000000       5.44600000
 H      11.16400000       0.47800000       5.46600000
 O      13.57900000       1.53300000       7.81500000
 H      12.89800000       2.00300000       8.34100000
 H      13.11500000       0.85600000       7.24000000
 O       7.19200000       3.13900000       8.03500000
 H       6.71700000       2.73900000       7.25400000
 H       6.58200000       3.97300000       8.25500000
 O      12.68200000       6.20600000       6.58800000
 H      13.12400000       7.00800000       7.01800000
 H      11.84000000       6.10100000       7.02200000
 O       8.83200000       7.26400000       6.63600000
 H       8.86300000       6.96200000       7.59700000
 H       7.88500000       7.39800000       6.33200000
 O      11.55500000       6.23000000       3.14300000
 H      12.26600000       5.94100000       3.76500000
 H      11.09900000       5.46400000       2.84000000
 O       8.33700000       2.30100000      10.72500000
 H       9.19700000       2.13200000      10.29200000
 H       7.77900000       1.45300000      10.61700000
 O      13.28800000       7.52500000       9.35100000
 H      13.32800000       8.18500000      10.08300000
 H      12.56700000       6.89800000       9.57100000
 O      12.08400000       3.94500000       4.77400000
 H      11.77000000       4.52500000       5.52500000
 H      12.83900000       3.55000000       5.26100000
 O      11.08500000       1.91000000      10.36400000
 H      11.48300000       1.01900000      10.37200000
 H      11.34800000       2.36800000      11.17000000
 O       9.11800000       6.98400000       9.29000000
 H       8.40200000       6.62700000       9.91800000
 H       9.91000000       6.55800000       9.74400000
 O      10.94400000       5.34900000      10.22700000
 H      11.43500000       4.95100000      11.00300000
 H      11.25100000       4.85100000       9.45700000
 O       9.15900000       3.51300000       5.86800000
 H       8.54400000       4.01000000       5.24200000
 H       8.72500000       3.62200000       6.74000000
 O      11.22400000       3.47400000       7.91700000
 H      10.70800000       2.99100000       8.56900000
 H      10.99200000       2.95200000       7.12100000
