30
XYZ file of cluster: frame_18000_a3267.9d8c9.74508 - created by MolEdiTo
 O      16.17100000      14.86700000      13.76600000
 H      15.85300000      13.93700000      13.70700000
 H      17.04900000      14.72500000      14.11600000
 O      17.89200000      19.26500000      16.29300000
 H      17.77700000      19.52200000      15.37000000
 H      17.89800000      20.09900000      16.77500000
 O      14.37500000      18.72600000      13.01200000
 H      14.64700000      17.90600000      12.47100000
 H      14.97800000      18.63700000      13.84800000
 O      18.10500000      20.09800000      11.04600000
 H      17.78700000      19.65400000      10.27600000
 H      17.60900000      19.55400000      11.68800000
 O      19.75000000      17.22400000      17.46200000
 H      20.09800000      16.38600000      17.93200000
 H      19.66200000      17.97000000      18.13200000
 O      17.15400000      15.64800000      17.76200000
 H      17.65000000      16.26900000      17.28000000
 H      16.34500000      16.15000000      17.94300000
 O      20.61300000      17.23900000      11.29900000
 H      19.81000000      16.79800000      11.10700000
 H      21.22600000      16.54300000      11.05300000
 O      15.26800000      16.64600000      11.41400000
 H      15.49800000      15.95300000      12.04000000
 H      14.59500000      16.23900000      10.87800000
 O      19.56300000      16.55700000      14.84400000
 H      20.22600000      15.86500000      14.67700000
 H      19.66900000      16.69500000      15.82800000
 O      17.33600000      18.06500000      13.09400000
 H      18.16600000      17.82900000      13.48300000
 H      16.78100000      17.23300000      12.87900000
