36
XYZ file of cluster: frame_18000_24576.be7d7.9ae6b - created by MolEdiTo
 O      10.81600000      18.69900000      16.46400000
 H       9.84200000      18.35200000      16.67400000
 H      10.89600000      18.69300000      15.44900000
 O       5.06500000      18.38500000      18.10800000
 H       4.29100000      18.87400000      18.31700000
 H       4.95100000      17.77400000      18.83500000
 O       9.07600000      17.47300000      20.34200000
 H       8.96400000      18.36300000      20.73000000
 H       8.64900000      16.85100000      21.02000000
 O       8.82600000      20.61500000      19.55300000
 H       8.82600000      21.59700000      19.63200000
 H       8.32100000      20.43500000      18.69400000
 O       3.50900000      20.50700000      18.91100000
 H       4.25700000      21.07600000      18.57300000
 H       3.20200000      20.92200000      19.68500000
 O       7.25800000      20.32000000      17.17700000
 H       6.84300000      19.45800000      17.41900000
 H       7.05400000      20.43700000      16.21400000
 O       8.64300000      24.98500000      19.13600000
 H       8.45300000      24.96700000      18.14900000
 H       9.27000000      25.79700000      19.28400000
 O      10.43400000      23.39600000      14.35300000
 H      11.36600000      23.76800000      14.52300000
 H      10.70600000      22.52800000      13.93000000
 O       8.86400000      25.02800000      16.02400000
 H       9.43000000      24.38700000      15.57200000
 H       9.23800000      25.77800000      15.59200000
 O       5.81500000      23.45200000      14.51500000
 H       5.34500000      23.27700000      13.68500000
 H       6.73000000      23.28300000      14.34600000
 O      11.20700000      23.41500000      18.07500000
 H      11.25400000      23.17500000      17.11500000
 H      10.40000000      22.93200000      18.43600000
 O       5.13300000      24.12100000      17.14000000
 H       5.96400000      23.63100000      17.27500000
 H       5.20300000      24.17500000      16.21400000
