%chk=cluster_052.chk
%mem=6GB
%nproc=4
#b3lyp/6-311++G** scrf=(cpcm,Solvent=Water) nosymm freq
iop(2/11=1) 
 Geom=(NoDistance,NoAngle)

cluster_052

0 1
 O       2.64500000      17.51200000      11.77600000
 H       2.47800000      17.40300000      10.85200000
 H       2.48000000      18.41800000      11.97200000
 O       4.47500000      19.31500000      13.68000000
 H       4.60200000      19.54800000      12.76200000
 H       4.17800000      20.19900000      13.98400000
 O       2.15000000      18.37800000       9.23800000
 H       2.70600000      19.04000000       8.84800000
 H       1.25100000      18.82200000       9.31300000
 O       5.71100000      19.22500000      10.86000000
 H       6.19800000      18.61000000      10.24600000
 H       6.41400000      19.85700000      11.06400000
 O       4.10600000      19.53500000       7.15400000
 H       4.55100000      19.23400000       7.97500000
 H       4.77500000      19.48900000       6.47000000
 O       4.67200000      23.49200000      14.44300000
 H       4.60300000      23.50000000      13.47100000
 H       3.74900000      23.85700000      14.67500000
 O       3.90500000      22.31000000      11.39900000
 H       4.06100000      22.93800000      10.62100000
 H       4.44200000      21.46600000      11.26300000
 O       1.10200000      24.28300000      10.87900000
 H       1.21500000      23.86600000       9.96500000
 H       0.70200000      25.18700000      10.57900000
 O       6.36800000      24.13700000      12.02000000
 H       5.62700000      24.12500000      11.45200000
 H       6.77600000      23.27000000      11.81100000
 O       1.98800000      23.48700000      13.69300000
 H       1.64300000      23.53000000      12.80300000
 H       1.77000000      22.57200000      13.98200000
 O       2.42900000      23.14300000       8.18500000
 H       2.23100000      23.43800000       7.30400000
 H       3.12800000      22.55000000       7.95700000
 O       5.38900000      23.73900000       9.40500000
 H       5.31800000      24.38300000       8.68200000
 H       5.89500000      23.02400000       8.94400000

