99
XYZ file of cluster: frame_1500_797e.c72cf.9e0f4 - created by MolEdiTo
 O       5.22000000      25.87300000      24.06200000
 H       5.74100000      26.66600000      24.36400000
 H       4.31200000      26.10500000      24.28100000
 O       9.31000000      28.67200000      27.19700000
 H       9.72000000      29.33900000      26.61600000
 H       8.74800000      28.08500000      26.65400000
 O       7.69300000      26.69500000      22.10700000
 H       7.99500000      27.51200000      21.67800000
 H       8.62400000      26.32300000      22.31700000
 O      10.29600000      26.94600000      29.23700000
 H       9.93800000      27.66000000      28.60500000
 H      11.13600000      27.34200000      29.49100000
 O       4.44400000      29.54800000      26.49400000
 H       4.20900000      30.47200000      26.18100000
 H       3.91100000      29.36400000      27.32100000
 O       4.50800000      27.63200000      20.49900000
 H       3.54200000      27.89900000      20.60800000
 H       4.72000000      27.01200000      21.23500000
 O       7.49000000      26.24900000      27.60700000
 H       6.91200000      26.89700000      27.98200000
 H       8.24700000      26.12900000      28.21700000
 O       6.15000000      30.13700000      22.71200000
 H       6.73000000      29.95900000      21.93800000
 H       5.29100000      30.41300000      22.20300000
 O       6.92100000      28.25300000      25.58100000
 H       6.16100000      28.62000000      26.05400000
 H       6.94300000      28.88600000      24.85800000
 O       8.54600000      29.59800000      30.29400000
 H       8.37500000      29.21700000      29.40300000
 H       8.70000000      30.58600000      30.15900000
 O       0.98100000      27.49100000      26.99500000
 H       1.51500000      27.98900000      27.66000000
 H       1.16700000      26.53700000      27.28400000
 O      11.14400000      30.66800000      29.06300000
 H      11.23800000      30.12300000      29.87800000
 H      10.17300000      30.88100000      29.10900000
 O       2.54900000      29.00700000      29.25900000
 H       2.15100000      28.54000000      29.99300000
 H       3.12400000      29.71300000      29.60400000
 O       5.79900000      28.30300000      28.89100000
 H       6.11000000      29.13700000      29.25600000
 H       5.14600000      27.89800000      29.48400000
 O       5.97600000      34.63000000      21.45200000
 H       5.45700000      33.84700000      21.65000000
 H       6.77800000      34.30600000      21.05200000
 O       4.39800000      32.77300000      29.51400000
 H       4.21900000      33.47300000      28.88400000
 H       5.29200000      33.07600000      29.75000000
 O      10.17800000      35.22400000      26.47700000
 H      10.50700000      36.13800000      26.48300000
 H       9.33800000      35.29200000      26.95400000
 O       2.14400000      35.94000000      29.60600000
 H       2.25500000      36.86400000      29.30300000
 H       2.12000000      35.98300000      30.57400000
 O       7.70300000      36.60600000      26.64400000
 H       7.11700000      36.13300000      25.98200000
 H       7.54200000      36.07100000      27.42200000
 O       1.56600000      34.05200000      27.79900000
 H       2.49600000      33.93200000      27.74900000
 H       1.52300000      34.76000000      28.47700000
 O      10.25500000      33.92600000      23.43900000
 H       9.74000000      34.78500000      23.48000000
 H      10.35500000      33.60700000      24.36800000
 O       4.33500000      34.56300000      27.23400000
 H       4.55300000      34.31400000      26.31000000
 H       5.07800000      35.15600000      27.48300000
 O       4.31400000      33.63800000      24.41200000
 H       4.65600000      32.82100000      23.98000000
 H       4.95600000      34.31200000      24.11900000
 O       8.48100000      32.90800000      21.37700000
 H       8.99500000      33.38000000      20.67300000
 H       8.97900000      33.03400000      22.20000000
 O       2.16400000      34.57300000      22.01300000
 H       1.21900000      34.48100000      21.85000000
 H       2.38300000      34.84300000      22.97000000
 O       8.93200000      36.44500000      23.52800000
 H       8.65700000      36.97000000      22.74700000
 H       9.41700000      37.15100000      23.98700000
 O       4.71900000      36.97100000      22.27100000
 H       4.96100000      36.14700000      21.77000000
 H       4.59600000      36.65300000      23.20000000
 O       6.60700000      35.46200000      29.06000000
 H       6.22800000      36.33300000      28.73400000
 H       6.75300000      35.60700000      30.00600000
 O       3.97300000      32.62200000      21.30100000
 H       3.44800000      32.14600000      20.66500000
 H       3.35300000      33.32000000      21.46600000
 O       5.97500000      35.88900000      24.56000000
 H       5.41100000      36.70800000      24.51200000
 H       6.89900000      35.97100000      24.17600000
 O       2.31000000      36.81500000      24.30300000
 H       1.50700000      36.81800000      24.82100000
 H       1.89100000      37.28400000      23.55800000
 O       8.66000000      33.76200000      28.79300000
 H       8.46600000      34.63300000      29.18900000
 H       7.85500000      33.54000000      28.29200000
 O       6.94700000      32.71000000      27.06400000
 H       7.55600000      32.12300000      26.73700000
 H       6.06400000      32.23200000      27.03100000
