120
XYZ file of cluster: frame_1500_237f6.c7270.23e69 - created by MolEdiTo
 O      10.69900000      29.89300000       9.34300000
 H       9.80800000      30.30500000       8.98200000
 H      11.27200000      29.99100000       8.57900000
 O       9.58900000      30.53300000      12.54900000
 H       9.97500000      30.22500000      11.71700000
 H       9.06800000      31.41300000      12.29900000
 O      11.11300000      26.77400000       8.97400000
 H      10.16100000      26.99200000       8.75200000
 H      11.57900000      27.60200000       8.80000000
 O      14.12800000      30.14300000       7.56400000
 H      13.53900000      30.97500000       7.75100000
 H      14.82300000      30.54900000       6.97500000
 O       6.12500000      28.69900000       6.86100000
 H       5.08500000      28.73100000       6.77200000
 H       6.28000000      28.90300000       7.77700000
 O       8.36800000      26.80900000       8.57500000
 H       7.83600000      27.66800000       8.60100000
 H       7.94200000      26.18200000       9.19700000
 O      12.10800000      26.41600000      15.77700000
 H      11.80500000      27.35100000      15.97700000
 H      11.30900000      25.92600000      16.06200000
 O       5.51900000      29.71900000       9.68300000
 H       5.36500000      28.90200000      10.20400000
 H       5.60000000      30.31700000      10.45000000
 O      13.04200000      26.55700000      12.88700000
 H      13.14600000      26.48400000      13.84700000
 H      12.12400000      26.36100000      12.75700000
 O      12.85000000      28.55500000       5.41900000
 H      12.88500000      28.66200000       6.36000000
 H      13.80600000      28.80000000       5.25800000
 O       8.70200000      29.01100000       6.16200000
 H       9.20700000      28.57800000       6.90800000
 H       7.71000000      28.87200000       6.36200000
 O      13.96100000      27.88000000       8.99100000
 H      13.43900000      28.17600000       9.81500000
 H      14.08900000      28.71700000       8.44900000
 O       5.42200000      30.80300000      14.73800000
 H       5.73700000      31.71400000      14.66500000
 H       6.20300000      30.24200000      14.88000000
 O       9.98000000      27.16000000      13.43500000
 H       9.77100000      27.88200000      14.10100000
 H       9.10200000      27.02900000      13.00700000
 O       7.11300000      28.88500000      13.13200000
 H       7.10300000      28.46500000      13.99800000
 H       7.98900000      29.31500000      12.95700000
 O       4.61600000      29.73200000      12.19900000
 H       4.58600000      30.53200000      12.81800000
 H       5.41800000      29.23700000      12.55100000
 O      13.84400000      28.88900000      11.61600000
 H      13.54200000      28.13600000      12.21800000
 H      13.21600000      29.60700000      11.92400000
 O      15.54600000      26.74200000      15.67200000
 H      15.72500000      25.87000000      15.43500000
 H      14.60500000      26.92400000      15.40600000
 O      12.19400000      33.91800000       7.98300000
 H      13.01100000      34.23200000       8.45300000
 H      11.57400000      33.89300000       8.74500000
 O       9.13800000      37.24000000      13.90000000
 H       8.51600000      36.97500000      14.61200000
 H       9.10000000      38.23700000      13.86900000
 O       5.94200000      35.33800000      14.42800000
 H       5.12800000      35.74900000      14.78900000
 H       6.58700000      36.06100000      14.11100000
 O       6.46400000      37.09100000      12.14400000
 H       6.91500000      36.97400000      11.31600000
 H       5.66000000      37.48200000      11.89300000
 O      13.80700000      37.38200000      12.30800000
 H      13.51600000      38.11100000      11.76300000
 H      14.23100000      36.78800000      11.70900000
 O      15.44200000      36.54100000       9.87100000
 H      15.55700000      37.27000000       9.29600000
 H      16.32400000      36.07100000      10.04500000
 O       8.45600000      34.66900000      12.02600000
 H       8.05000000      35.41800000      11.45100000
 H       7.97300000      34.76100000      12.80800000
 O      13.97700000      32.83100000      16.31000000
 H      14.12200000      32.51000000      15.41400000
 H      14.90100000      32.73400000      16.75600000
 O      11.29400000      35.11500000      13.19400000
 H      10.33200000      35.50900000      13.14700000
 H      11.79000000      35.88400000      13.54900000
 O      14.77700000      37.46000000      14.90100000
 H      14.25500000      37.36000000      14.05500000
 H      15.22600000      36.61800000      14.91800000
 O      15.31000000      34.33300000       7.71100000
 H      15.04900000      35.04100000       8.37100000
 H      15.64500000      34.71400000       6.87100000
 O       8.35500000      32.60600000       8.40400000
 H       8.25400000      32.27800000       7.54800000
 H       7.49900000      33.01100000       8.39800000
 O      14.45200000      34.85600000      13.76500000
 H      14.94200000      34.06400000      13.47400000
 H      13.55400000      34.55500000      13.90500000
 O      15.44000000      36.13200000       5.59800000
 H      15.44200000      35.96800000       4.65600000
 H      15.70800000      37.07800000       5.59600000
 O      11.40700000      34.93900000       5.53000000
 H      11.32600000      34.99400000       6.43800000
 H      11.17500000      34.06200000       5.39200000
 O       7.50400000      36.04800000       9.54300000
 H       6.66400000      35.68700000       9.78100000
 H       7.51500000      36.26100000       8.55300000
 O       6.22500000      33.97400000       7.29900000
 H       6.19900000      34.89400000       6.87900000
 H       5.33400000      33.53900000       7.18900000
 O      15.98200000      33.97800000      10.83800000
 H      15.14200000      34.27300000      10.47000000
 H      16.44700000      33.37100000      10.24700000
 O      11.33400000      34.80500000      10.33200000
 H      11.08800000      35.70900000      10.18200000
 H      11.52700000      34.69700000      11.21700000
 O      12.14600000      32.68400000      13.16800000
 H      11.60400000      33.44100000      13.43400000
 H      11.41000000      32.03300000      13.01100000
 O      10.41700000      34.07500000      16.22000000
 H       9.58100000      34.60200000      16.32100000
 H      10.69400000      34.05400000      15.26700000
 O       6.62500000      36.97900000       6.70800000
 H       7.25300000      37.43100000       6.07200000
 H       5.69800000      37.08600000       6.38300000
