135
XYZ file of cluster: frame_1500_207e9.4c2e7.97952 - created by MolEdiTo
 O      11.49700000      10.49200000      27.11100000
 H      11.25600000      11.10800000      27.84200000
 H      10.75400000       9.89600000      27.06800000
 O      11.96500000      18.51100000      22.73100000
 H      12.29700000      19.44400000      22.89000000
 H      12.18500000      18.06400000      23.59000000
 O      11.33800000      16.08500000      27.77300000
 H      11.69800000      16.95700000      28.08700000
 H      12.17500000      15.60900000      28.00700000
 O      12.79000000      14.30600000      25.61400000
 H      11.97400000      14.48800000      26.13100000
 H      12.48000000      14.09600000      24.70100000
 O      12.70500000      18.64100000      27.66200000
 H      12.70400000      19.29400000      28.35500000
 H      13.32500000      19.05100000      26.93400000
 O      14.99500000      21.03600000      29.34300000
 H      15.03000000      21.30500000      28.35300000
 H      14.53000000      21.75000000      29.73700000
 O      11.85300000      21.57300000      23.31200000
 H      12.18800000      22.26100000      22.68200000
 H      11.27800000      21.06300000      22.68400000
 O      15.51300000      13.06500000      28.31600000
 H      15.20900000      12.75200000      27.42800000
 H      15.22300000      12.36600000      28.87600000
 O       7.70500000      20.36700000      28.90500000
 H       7.51000000      19.87000000      28.06000000
 H       8.45100000      19.89900000      29.30900000
 O      16.46200000      11.58000000      21.54400000
 H      16.10400000      12.44600000      21.86800000
 H      15.71200000      11.16700000      21.07300000
 O      10.98000000      15.69900000      23.24000000
 H      11.15300000      14.83800000      22.84800000
 H      11.60600000      16.28800000      22.86000000
 O      13.87900000      16.27700000      29.76200000
 H      13.58100000      17.02500000      30.35700000
 H      14.81100000      16.35800000      29.41300000
 O       7.83500000      13.74500000      28.73400000
 H       7.65200000      12.94200000      29.30300000
 H       8.75400000      13.90400000      29.06000000
 O       5.17100000      20.66500000      26.41300000
 H       5.71900000      21.36900000      26.55300000
 H       5.61700000      19.82800000      26.72900000
 O      15.03500000      11.91700000      25.71800000
 H      14.14200000      12.24000000      25.39800000
 H      15.24200000      11.17300000      25.16900000
 O       6.54600000      18.08600000      23.79800000
 H       6.49100000      18.62700000      22.94400000
 H       5.53500000      17.98900000      24.07800000
 O       8.48100000      20.47000000      24.16300000
 H       9.28400000      20.42500000      24.77000000
 H       8.55900000      19.74700000      23.43800000
 O       7.26300000      12.00900000      20.90900000
 H       7.16900000      12.13500000      21.87500000
 H       6.55900000      12.72000000      20.63200000
 O      15.67600000      10.70000000      30.03500000
 H      15.14100000      10.76000000      30.84700000
 H      14.87600000      10.47400000      29.41200000
 O      10.90400000      20.98800000      30.05800000
 H      11.05500000      21.13100000      29.16800000
 H      11.12100000      21.78300000      30.59500000
 O      13.18500000      12.07700000      23.37300000
 H      12.96500000      11.11400000      23.20200000
 H      12.31600000      12.45100000      22.91300000
 O      15.60500000      18.85700000      26.53400000
 H      16.55700000      18.65000000      26.17300000
 H      15.83000000      19.67700000      26.98700000
 O      10.52500000      12.77700000      22.30500000
 H       9.64100000      13.25100000      22.19500000
 H      10.35000000      12.28700000      23.23300000
 O       9.44600000      18.28700000      29.76600000
 H      10.33500000      18.45700000      29.90400000
 H       9.12600000      17.49400000      30.23000000
 O       7.24100000      17.08800000      20.44600000
 H       7.41000000      17.69300000      21.21200000
 H       6.25800000      16.95500000      20.62100000
 O      15.14900000      16.48500000      22.37200000
 H      15.06600000      15.55100000      22.78400000
 H      14.22400000      16.77800000      22.52300000
 O       6.81100000      18.42500000      26.67800000
 H       7.41400000      17.57500000      26.67900000
 H       6.83100000      18.60200000      25.67000000
 O      10.17700000      20.37700000      20.58300000
 H       9.64200000      19.75200000      21.11200000
 H       9.95700000      20.29400000      19.65900000
 O      15.30400000      13.73800000      23.35700000
 H      14.50400000      13.13200000      23.29400000
 H      15.67300000      13.55900000      24.29400000
 O       5.12900000      15.91000000      25.55400000
 H       4.19800000      16.09800000      25.90400000
 H       5.61800000      16.66500000      25.96900000
 O      13.50100000      17.47400000      24.92400000
 H      14.21800000      17.41300000      25.64700000
 H      12.94000000      16.79500000      25.24500000
 O       9.19800000      18.17000000      22.53300000
 H      10.07500000      18.03800000      22.96000000
 H       9.09400000      17.25600000      22.16600000
 O       6.06000000      19.94200000      21.72900000
 H       6.34300000      20.83500000      22.09000000
 H       5.35300000      20.19300000      21.08800000
 O      10.21000000      14.41500000      30.15300000
 H       9.82200000      14.24700000      31.06200000
 H      10.77900000      15.21000000      30.17200000
 O       8.00200000      12.03200000      26.61600000
 H       7.89200000      12.72800000      25.91800000
 H       7.91900000      12.56000000      27.47200000
 O       8.68400000      16.32400000      26.92800000
 H       9.65200000      16.45400000      27.14000000
 H       8.38700000      15.68500000      27.65100000
 O      15.24200000      15.67100000      26.50400000
 H      14.57800000      15.08900000      26.10600000
 H      15.76400000      15.08200000      27.13200000
 O       7.82100000      14.27600000      24.97100000
 H       6.95200000      14.72400000      24.79000000
 H       8.25700000      15.04900000      25.40100000
 O      10.68400000      12.05200000      24.98900000
 H      11.34600000      11.76100000      25.62800000
 H       9.80900000      11.99100000      25.46300000
 O      16.42000000      19.16900000      22.68900000
 H      15.66900000      18.60400000      22.63000000
 H      16.05700000      20.08600000      22.80200000
 O       6.90900000      11.71200000      23.87900000
 H       7.07600000      12.65900000      24.14600000
 H       7.76300000      11.32300000      23.51800000
 O       5.63700000      15.39600000      29.10900000
 H       4.75200000      14.98500000      28.94800000
 H       6.25200000      14.76000000      28.64300000
 O       5.95600000      14.91300000      22.92000000
 H       5.57300000      14.89300000      22.02700000
 H       5.18600000      15.22300000      23.42100000
 O      10.94500000      11.65700000      29.60000000
 H      10.52300000      10.88800000      30.03700000
 H      10.73600000      12.43700000      30.12800000
 O       5.07800000      18.79700000      29.03500000
 H       5.17900000      18.17800000      28.30000000
 H       6.03800000      18.91700000      29.42700000
