144
XYZ file of cluster: frame_1500_70544.c2048.724d5 - created by MolEdiTo
 O      25.60800000      29.54200000      21.50400000
 H      25.31100000      28.68100000      21.17600000
 H      25.46300000      29.48900000      22.45900000
 O      22.85900000      26.29900000      24.14800000
 H      22.00300000      26.75700000      24.03200000
 H      22.88500000      25.72900000      23.35600000
 O      23.09300000      28.38900000      26.28500000
 H      22.56000000      28.48200000      25.43900000
 H      22.49400000      28.87300000      26.93300000
 O      18.25700000      29.00100000      25.91400000
 H      17.55800000      29.41100000      26.41300000
 H      19.10400000      29.48100000      26.14300000
 O      16.04200000      29.24000000      20.65600000
 H      16.86100000      29.69700000      21.05000000
 H      15.36700000      29.35800000      21.41300000
 O      21.01300000      28.57100000      24.33200000
 H      20.18700000      29.05300000      24.67400000
 H      20.89800000      28.39500000      23.37500000
 O      18.22500000      27.32400000      22.39000000
 H      17.31400000      27.62300000      22.55300000
 H      18.73600000      28.05900000      22.83600000
 O      25.23700000      26.89100000      22.80100000
 H      24.56800000      27.00300000      23.51300000
 H      25.03800000      25.98300000      22.49700000
 O      18.03500000      25.74700000      25.28700000
 H      18.73900000      25.20300000      25.66100000
 H      18.26600000      26.71200000      25.31700000
 O      20.68900000      26.87000000      18.58400000
 H      20.35200000      27.51600000      17.97000000
 H      20.03700000      26.20000000      18.55800000
 O      24.08000000      26.64600000      17.09900000
 H      24.77200000      27.13100000      16.57800000
 H      23.32300000      27.18300000      16.99100000
 O      21.23700000      27.22200000      21.65200000
 H      20.68000000      27.11000000      20.80600000
 H      21.68500000      26.38000000      21.52200000
 O      16.46300000      30.36800000      18.00200000
 H      17.20700000      30.98100000      17.89300000
 H      16.41900000      30.21400000      18.91600000
 O      26.06700000      28.43700000      15.88500000
 H      26.65200000      27.97500000      16.52800000
 H      25.61300000      29.06800000      16.49200000
 O      26.10300000      27.38500000      25.96000000
 H      25.91300000      27.08200000      25.10500000
 H      25.15200000      27.64300000      26.25800000
 O      17.01200000      30.33100000      23.05900000
 H      16.39100000      31.09000000      23.28700000
 H      17.75900000      30.25200000      23.72200000
 O      24.97800000      29.65400000      18.30600000
 H      24.13000000      29.60600000      18.88000000
 H      25.59800000      29.59400000      19.09700000
 O      18.87700000      28.66100000      16.49600000
 H      17.98200000      28.54600000      16.85700000
 H      18.68100000      29.62700000      16.28600000
 O      21.84100000      28.70200000      16.69700000
 H      20.94100000      28.57200000      16.25800000
 H      22.02800000      29.65000000      16.94300000
 O      25.04400000      26.94000000      19.68300000
 H      24.54000000      26.66100000      18.90700000
 H      25.50900000      26.15900000      19.99000000
 O      25.31500000      29.88100000      24.21300000
 H      26.02100000      30.44900000      24.41900000
 H      24.85400000      29.72300000      25.04400000
 O      22.33700000      29.04000000      19.52600000
 H      22.56900000      28.27900000      20.09400000
 H      21.92800000      28.59800000      18.70300000
 O      19.92400000      30.20300000      21.17200000
 H      20.42000000      29.63100000      20.57000000
 H      20.56300000      30.51100000      21.82200000
 O      15.16400000      26.77700000      26.28500000
 H      14.84700000      27.70600000      26.19000000
 H      15.78800000      26.59500000      25.55900000
 O      17.93800000      26.58200000      19.61100000
 H      17.55200000      27.29200000      20.12900000
 H      18.10600000      25.99300000      20.35900000
 O      17.06200000      37.91200000      24.35100000
 H      17.22000000      37.77700000      25.28600000
 H      17.09300000      36.99500000      24.07200000
 O      26.37800000      34.60300000      24.12000000
 H      27.39300000      34.73700000      24.15000000
 H      26.12400000      34.15100000      23.33100000
 O      14.93100000      33.91600000      19.97400000
 H      15.92800000      33.84200000      20.22900000
 H      14.51200000      34.24400000      20.81700000
 O      24.76400000      35.41100000      21.23600000
 H      24.19800000      34.86100000      20.62000000
 H      24.21100000      35.82800000      21.90200000
 O      26.66700000      33.14800000      19.83600000
 H      27.56900000      33.20100000      20.34800000
 H      26.12600000      32.43800000      20.22500000
 O      25.59200000      35.49400000      18.12200000
 H      25.99900000      34.70400000      18.46600000
 H      24.69400000      35.65600000      18.52400000
 O      22.96400000      34.05900000      19.30300000
 H      23.09900000      33.13700000      19.63000000
 H      22.25400000      34.04000000      18.68300000
 O      22.71700000      36.87800000      17.52100000
 H      23.25200000      37.67900000      17.37000000
 H      23.09300000      36.09000000      16.93400000
 O      19.73400000      35.95500000      25.76800000
 H      19.43100000      35.52600000      24.98700000
 H      20.40400000      35.35800000      26.30700000
 O      20.67200000      34.93300000      17.58100000
 H      20.35000000      35.30200000      16.76000000
 H      21.41100000      35.49600000      17.81200000
 O      15.93000000      33.66200000      25.38700000
 H      16.92300000      33.64200000      25.59100000
 H      15.57000000      34.30200000      26.03500000
 O      17.49500000      35.21900000      22.91300000
 H      16.61300000      35.62700000      22.56400000
 H      18.18800000      35.69200000      22.38500000
 O      18.32200000      36.71400000      18.84000000
 H      18.93400000      36.48800000      18.16700000
 H      19.00200000      37.00100000      19.51500000
 O      16.34500000      34.68400000      16.20000000
 H      16.30500000      35.44000000      16.76100000
 H      15.40100000      34.45400000      16.07800000
 O      25.75800000      33.13600000      16.01700000
 H      25.76000000      32.66200000      16.87200000
 H      26.74600000      33.07000000      15.84100000
 O      22.52200000      32.74200000      22.42300000
 H      22.87000000      32.77400000      23.35000000
 H      23.27200000      32.67500000      21.86900000
 O      20.51400000      35.27800000      21.31000000
 H      20.46400000      36.19000000      21.62500000
 H      21.38400000      35.15800000      20.88600000
 O      26.18100000      35.97100000      15.20100000
 H      25.53700000      36.70000000      15.28500000
 H      25.93700000      35.38200000      15.97000000
 O      24.23200000      35.71800000      25.95900000
 H      24.52600000      36.19100000      26.78800000
 H      24.98300000      35.47100000      25.36500000
 O      17.98300000      33.53800000      20.21600000
 H      18.54200000      32.85600000      20.61200000
 H      18.43000000      34.39300000      20.11100000
 O      23.23100000      34.75400000      15.82700000
 H      23.81700000      34.04200000      16.17800000
 H      23.42400000      34.70300000      14.82400000
 O      19.18100000      33.50200000      23.96900000
 H      18.47900000      34.07900000      23.62200000
 H      19.56100000      33.21400000      23.12500000
 O      22.73000000      36.08000000      23.24300000
 H      22.76800000      36.60900000      24.06900000
 H      22.29300000      35.30200000      23.62800000
