163
XYZ file of cluster: frame_1500_207e9.4f253.65379 - created by MolEdiTo
 O      15.50100000      21.84300000      15.68600000
 H      14.72200000      21.92000000      16.25000000
 H      15.96300000      20.96100000      15.91200000
 O      11.96500000      18.51100000      22.73100000
 H      12.29700000      19.44400000      22.89000000
 H      12.18500000      18.06400000      23.59000000
 O      12.79000000      14.30600000      25.61400000
 H      11.97400000      14.48800000      26.13100000
 H      12.48000000      14.09600000      24.70100000
 O      13.93100000      21.97600000      19.28800000
 H      14.59700000      22.48700000      18.73400000
 H      14.03700000      21.00900000      19.05100000
 O      11.85300000      21.57300000      23.31200000
 H      12.18800000      22.26100000      22.68200000
 H      11.27800000      21.06300000      22.68400000
 O      13.87700000      10.30700000      17.70500000
 H      14.52300000      11.00100000      17.98000000
 H      13.63300000      10.60500000      16.77100000
 O       8.19800000      10.61700000      18.49000000
 H       9.12800000      10.86900000      18.38100000
 H       8.06000000      10.88300000      19.46600000
 O       9.52800000      17.23300000      18.83300000
 H       8.72800000      16.70900000      19.00000000
 H      10.01600000      17.11100000      19.66800000
 O      16.46200000      11.58000000      21.54400000
 H      16.10400000      12.44600000      21.86800000
 H      15.71200000      11.16700000      21.07300000
 O      11.43200000      14.34700000      18.92000000
 H      10.99000000      14.48800000      19.73700000
 H      10.74000000      14.70300000      18.35500000
 O      10.98000000      15.69900000      23.24000000
 H      11.15300000      14.83800000      22.84800000
 H      11.60600000      16.28800000      22.86000000
 O      12.84400000      19.18600000      18.17200000
 H      12.46000000      18.77400000      18.97600000
 H      12.11200000      19.48100000      17.58100000
 O       8.98600000      14.45300000      20.36500000
 H       8.22900000      15.01900000      20.48300000
 H       8.61600000      13.54500000      20.15400000
 O      15.03500000      11.91700000      25.71800000
 H      14.14200000      12.24000000      25.39800000
 H      15.24200000      11.17300000      25.16900000
 O       6.54600000      18.08600000      23.79800000
 H       6.49100000      18.62700000      22.94400000
 H       5.53500000      17.98900000      24.07800000
 O      15.72800000      20.05500000      19.12200000
 H      14.85600000      19.65300000      18.88800000
 H      16.32400000      19.37200000      18.80500000
 O       8.48100000      20.47000000      24.16300000
 H       9.28400000      20.42500000      24.77000000
 H       8.55900000      19.74700000      23.43800000
 C      14.47600000      15.86100000      16.93100000
 C      15.72100000      16.60800000      16.54500000
 C      16.46000000      14.78000000      14.84200000
 H      15.48900000      16.69900000      14.48400000
 H      14.72700000      16.69400000      18.57900000
 O      17.50900000      16.95200000      14.86500000
 O      13.82300000      15.24200000      16.12500000
 O      14.11400000      15.97500000      18.20100000
 C      16.27600000      16.25600000      15.11500000
 O      15.46200000      18.00000000      16.63400000
 H      16.38500000      16.29700000      17.32500000
 O      16.46200000      13.96200000      15.77500000
 O      16.22300000      14.35600000      13.57800000
 H      15.88700000      15.13600000      13.12700000
 H      14.70500000      18.25800000      16.04700000
 H      17.78000000      16.91600000      13.89300000
 O       7.26300000      12.00900000      20.90900000
 H       7.16900000      12.13500000      21.87500000
 H       6.55900000      12.72000000      20.63200000
 O      10.13400000      20.87000000      17.65600000
 H      10.87800000      21.01500000      17.03400000
 H       9.52300000      20.22800000      17.11700000
 O      13.18500000      12.07700000      23.37300000
 H      12.96500000      11.11400000      23.20200000
 H      12.31600000      12.45100000      22.91300000
 O      15.68900000      17.42200000      19.71400000
 H      15.49200000      17.20200000      20.67400000
 H      16.65300000      17.51800000      19.53600000
 O      15.60500000      18.85700000      26.53400000
 H      16.55700000      18.65000000      26.17300000
 H      15.83000000      19.67700000      26.98700000
 O       7.79000000      13.66600000      17.49300000
 H       7.44300000      14.57400000      17.32100000
 H       7.42100000      13.04600000      16.91600000
 O      10.52500000      12.77700000      22.30500000
 H       9.64100000      13.25100000      22.19500000
 H      10.35000000      12.28700000      23.23300000
 O       7.24100000      17.08800000      20.44600000
 H       7.41000000      17.69300000      21.21200000
 H       6.25800000      16.95500000      20.62100000
 O      10.74500000      11.06700000      19.98800000
 H      10.82600000      11.85300000      20.57400000
 H      10.73000000      10.28100000      20.66300000
 O      15.22900000      12.90300000      18.04900000
 H      14.67000000      13.70300000      18.09000000
 H      15.87000000      12.89100000      17.25200000
 O      15.14900000      16.48500000      22.37200000
 H      15.06600000      15.55100000      22.78400000
 H      14.22400000      16.77800000      22.52300000
 O       6.81100000      18.42500000      26.67800000
 H       7.41400000      17.57500000      26.67900000
 H       6.83100000      18.60200000      25.67000000
 O      10.17700000      20.37700000      20.58300000
 H       9.64200000      19.75200000      21.11200000
 H       9.95700000      20.29400000      19.65900000
 O      15.30400000      13.73800000      23.35700000
 H      14.50400000      13.13200000      23.29400000
 H      15.67300000      13.55900000      24.29400000
 O       6.49900000      20.75700000      16.12700000
 H       6.55300000      20.83500000      15.15700000
 H       6.00700000      19.90600000      16.34500000
 O       5.12900000      15.91000000      25.55400000
 H       4.19800000      16.09800000      25.90400000
 H       5.61800000      16.66500000      25.96900000
 O      13.50100000      17.47400000      24.92400000
 H      14.21800000      17.41300000      25.64700000
 H      12.94000000      16.79500000      25.24500000
 O       9.19800000      18.17000000      22.53300000
 H      10.07500000      18.03800000      22.96000000
 H       9.09400000      17.25600000      22.16600000
 O       5.41600000      18.20300000      17.34800000
 H       4.52500000      17.91000000      17.53100000
 H       5.85800000      18.59600000      18.14900000
 O       6.06000000      19.94200000      21.72900000
 H       6.34300000      20.83500000      22.09000000
 H       5.35300000      20.19300000      21.08800000
 O       8.00200000      12.03200000      26.61600000
 H       7.89200000      12.72800000      25.91800000
 H       7.91900000      12.56000000      27.47200000
 O      15.24200000      15.67100000      26.50400000
 H      14.57800000      15.08900000      26.10600000
 H      15.76400000      15.08200000      27.13200000
 O       7.82100000      14.27600000      24.97100000
 H       6.95200000      14.72400000      24.79000000
 H       8.25700000      15.04900000      25.40100000
 O      10.68400000      12.05200000      24.98900000
 H      11.34600000      11.76100000      25.62800000
 H       9.80900000      11.99100000      25.46300000
 O      16.42000000      19.16900000      22.68900000
 H      15.66900000      18.60400000      22.63000000
 H      16.05700000      20.08600000      22.80200000
 O       6.90900000      11.71200000      23.87900000
 H       7.07600000      12.65900000      24.14600000
 H       7.76300000      11.32300000      23.51800000
 O       5.95600000      14.91300000      22.92000000
 H       5.57300000      14.89300000      22.02700000
 H       5.18600000      15.22300000      23.42100000
 O      13.57800000      13.86600000      20.77700000
 H      14.42900000      13.84100000      20.48000000
 H      12.94500000      14.14400000      20.02900000
 O       7.00700000      19.84500000      19.05300000
 H       7.08400000      19.87500000      20.02600000
 H       7.50600000      20.64600000      18.76100000
 O       8.51700000      18.67500000      16.63300000
 H       7.57700000      18.98500000      16.66100000
 H       8.69100000      18.44200000      17.57100000
 O      11.41500000      12.12400000      17.46700000
 H      11.79200000      13.02600000      17.70600000
 H      11.32400000      11.67800000      18.37800000
 O      11.30600000      17.62400000      16.35100000
 H      11.15000000      16.90900000      15.65900000
 H      10.44700000      17.56800000      16.80000000
