%chk=cluster_520.chk
%mem=8GB
%nproc=4
#b3lyp/6-31G** scrf=(cpcm,Solvent=Water) nosymm force
iop(2/11=1)
 Geom=(NoDistance,NoAngle)
guess=checkpoint

cluster_520

0 1
 O      18.75922531     7.19226350     4.01248983
 H      19.38366071     7.92100871     4.18674528
 H      18.51399860     7.37051089     3.08862103
 O      19.54150200    12.05501976     1.34205793
 H      19.00392550    11.29238585     1.61023819
 H      20.36768354    11.64641032     1.04357759
 O      17.49995466    10.91830647     4.24940364
 H      17.89217815    10.83273913     5.14243312
 H      17.71648661    10.07068337     3.84057600
 O      20.44194097     9.49878541     4.19168459
 H      20.86598388     9.47114625     3.31507799
 H      20.33371066    10.46218382     4.34774781
 O      18.42912093     8.65506969     1.21689426
 H      17.64097142     8.69971600     0.65759677
 H      19.16494090     8.73476273     0.59606248
 O      20.33218344    12.37940449     4.29687394
 H      21.16501774    12.81483544     4.53913950
 H      20.29865385    12.41005991     3.32084793
 O      17.57606139    13.91528662     3.54013254
 H      16.82721583    13.37027251     3.82037190
 H      18.29743332    13.27665980     3.60556465
 O      18.65541916    10.37289303     6.49808971
 H      18.87780707     9.44982217     6.31166402
 H      19.49516899    10.84599682     6.42543486
 O      21.79183702    14.86552375     2.10932540
 H      22.50294324    14.22118926     2.20871260
 H      21.10589527    14.37690997     1.63598644
 O      23.50681215    13.75599648     5.90823025
 H      23.57375771    14.27109964     6.72344027
 H      24.31640800    13.22861781     5.90856709
 O      21.69241666     6.77889230     2.06006442
 H      20.89885980     6.52048353     1.57678844
 H      21.78573099     7.72343610     1.87026728
 O      24.93978667     9.78962390     7.63279647
 H      25.66673897     9.48375569     7.07549281
 H      24.90107268     9.12519867     8.33260450
 O      23.00451871     7.44732772     5.25661274
 H      23.36570750     8.05231577     5.92163471
 H      22.26441921     7.94948396     4.88077243
 O      24.08980518    11.90822785     2.52019987
 H      24.67147784    12.07190286     1.76458352
 H      24.67344369    11.54345523     3.19895524
 O      24.74957212     8.40274978     1.62469868
 H      23.93048539     8.91807422     1.67050064
 H      24.43368283     7.49386613     1.73178066
 O      22.18911267     9.91595087     1.74843422
 H      22.16001015    10.00415804     0.78608840
 H      22.77702813    10.64787858     2.06320567

