   -0.042593966    0.064459517   -0.062551197
    0.026207086   -0.049069669   -0.003060478
    0.014309688   -0.016342144    0.061204769
    0.005099988    0.014600708    0.023441425
    0.000544212   -0.012611003   -0.006341394
   -0.008027839    0.001435494   -0.017779189
   -0.000215040   -0.016057708   -0.013933669
   -0.006309088    0.007897071    0.016086289
   -0.002132813    0.002972602    0.002759081
    0.011315717    0.006967294   -0.036866782
   -0.004393010    0.016035961   -0.001580990
   -0.006839633   -0.028903407    0.033010198
   -0.015935233    0.019321686    0.050702238
    0.008817371   -0.016970222   -0.035104331
    0.012462824   -0.004759168   -0.016560002
   -0.025420857   -0.019030460    0.003028337
    0.011442382   -0.004240602   -0.003646924
    0.018195747    0.024577303   -0.002493620
   -0.016151012    0.028206284   -0.012072760
    0.009066011   -0.018469947   -0.004061935
    0.001880488   -0.001348273    0.011018310
   -0.013736912   -0.054690552   -0.007678049
    0.048692983    0.030645564   -0.003838590
   -0.029134841    0.031202125    0.022477112
    0.016296002    0.060202146   -0.032901056
   -0.013353565   -0.051745474   -0.006037306
   -0.000826705   -0.009137193    0.037718179
    0.021197738   -0.016577564    0.033128648
   -0.007474813    0.011045088   -0.027650935
   -0.016809392    0.004211527   -0.002170509
    0.020749894    0.010596093    0.002728910
   -0.003522808   -0.008550705   -0.000701501
   -0.017308326   -0.002768087   -0.003529169
   -0.013343410    0.006672240   -0.004068574
    0.013795467   -0.006745579   -0.001500580
    0.008380724    0.008230084    0.005817715
   -0.037950900   -0.057417309    0.031598060
   -0.003923871    0.013928774    0.014657516
    0.040027657    0.030728433   -0.050485555
   -0.006614663   -0.036540904   -0.026120499
   -0.000819352    0.007490856    0.024634764
   -0.001824740    0.025934639   -0.000652833
   -0.043769114    0.023567253    0.018586039
    0.029042370   -0.024693268   -0.013604086
    0.014867746   -0.001641176   -0.007612468
   -0.005630526   -0.001757514    0.005633106
    0.003631735    0.008281323    0.000939316
    0.006438378   -0.000537278   -0.001804730
    0.014270155   -0.042572985    0.001686800
   -0.015055000    0.018225280   -0.009097159
    0.002385066    0.025742847    0.014650057
