45
XYZ file of cluster: frame_19000_1bed0.0.4fd1d - created by MolEdiTo
 O       8.90700000       0.85200000       7.70700000
 H       8.40000000       0.00000000       7.90800000
 H       8.28600000       1.41400000       7.15400000
 O       8.47500000       2.48600000      13.15600000
 H       8.59700000       2.37400000      12.21600000
 H       8.07400000       1.59700000      13.40900000
 O       6.10600000       2.71500000      10.36000000
 H       5.88000000       2.43500000       9.44200000
 H       5.33800000       2.33600000      10.88600000
 O       3.53100000       6.61900000       7.93500000
 H       3.93000000       6.39400000       7.09200000
 H       3.17400000       5.76900000       8.12800000
 O       3.90900000       3.34300000       8.35300000
 H       3.31000000       2.57900000       8.50100000
 H       4.30400000       3.30000000       7.40600000
 O       8.94900000       1.93900000      10.55200000
 H       9.06500000       1.86000000       9.59100000
 H       8.06700000       2.31600000      10.53900000
 O       5.27100000       1.89700000      13.67800000
 H       5.53500000       1.13200000      13.15600000
 H       5.81600000       2.63300000      13.21300000
 O      10.48500000       6.90700000      11.86700000
 H       9.58300000       7.19900000      11.45100000
 H      10.40800000       7.16500000      12.79000000
 O       3.03700000       3.67900000      13.50600000
 H       3.63100000       3.01300000      12.98300000
 H       3.48300000       4.51400000      13.21500000
 O       2.86800000       6.54700000      14.18900000
 H       2.39600000       7.22900000      14.73400000
 H       3.77700000       6.78600000      14.32700000
 O       3.46800000       1.96800000      11.05500000
 H       2.92800000       1.67100000      10.29000000
 H       3.79100000       1.14500000      11.34100000
 O       8.58900000       4.65600000      14.82500000
 H       8.46700000       3.95300000      14.17500000
 H       9.54700000       4.65200000      15.07300000
 O       7.35900000       5.37800000       9.78000000
 H       6.69900000       4.93200000      10.30600000
 H       7.51300000       4.87800000       8.92000000
 O       5.88400000       5.01800000      12.79600000
 H       6.12200000       5.29600000      13.73000000
 H       5.89000000       5.95300000      12.40900000
 O       3.34900000       5.00000000      10.79300000
 H       3.96100000       4.90300000      10.07600000
 H       3.28500000       4.10100000      11.24900000
