48
XYZ file of cluster: frame_19000_1158.22643.71677 - created by MolEdiTo
 O       6.60200000      10.10800000      14.11800000
 H       6.50800000      10.79500000      14.80600000
 H       5.87000000      10.33900000      13.45300000
 O       7.05800000       7.26100000      16.69600000
 H       7.55800000       6.48300000      16.94700000
 H       6.73500000       7.67800000      17.62300000
 O       5.33200000      10.69200000      18.16600000
 H       5.63100000      11.57700000      17.81900000
 H       4.35900000      10.73200000      17.90700000
 O       5.88400000       7.49000000      14.37600000
 H       6.21400000       7.28800000      15.30700000
 H       5.79100000       8.49400000      14.46500000
 O       5.95300000       4.53800000      16.18600000
 H       5.62100000       5.44200000      16.24600000
 H       6.15500000       4.25100000      17.09100000
 O       0.76000000       9.86700000      15.93500000
 H       0.28300000       9.35600000      15.30300000
 H       0.09300000       9.82400000      16.65100000
 O       1.01800000       9.98800000      10.80100000
 H       1.73700000       9.35400000      10.51300000
 H       0.59700000       9.45000000      11.49400000
 O       5.88400000       5.01800000      12.79600000
 H       6.12200000       5.29600000      13.73000000
 H       5.89000000       5.95300000      12.40900000
 O       3.03700000       3.67900000      13.50600000
 H       3.63100000       3.01300000      12.98300000
 H       3.48300000       4.51400000      13.21500000
 O       2.86800000       6.54700000      14.18900000
 H       2.39600000       7.22900000      14.73400000
 H       3.77700000       6.78600000      14.32700000
 O       1.65600000       4.94900000      16.19300000
 H       2.58800000       4.80600000      16.42100000
 H       1.70900000       5.17200000      15.22500000
 O       3.37000000       9.43400000      15.26700000
 H       2.37300000       9.72400000      15.55800000
 H       3.74200000       9.00500000      16.05800000
 O       3.44300000      10.89700000      12.87500000
 H       2.82100000      10.67600000      13.53200000
 H       3.45200000      10.05400000      12.40900000
 O       2.75700000       7.66000000      11.20100000
 H       3.24600000       6.82700000      10.89100000
 H       2.43700000       7.39400000      12.06400000
 O       3.34900000       5.00000000      10.79300000
 H       3.96100000       4.90300000      10.07600000
 H       3.28500000       4.10100000      11.24900000
 O       5.79300000       8.68000000      11.63600000
 H       6.11000000       9.58000000      11.37400000
 H       6.57700000       8.25000000      12.05900000
