48
XYZ file of cluster: frame_19000_7bca2.c6c1e.7638a - created by MolEdiTo
 O      12.02300000      19.68500000      17.56500000
 H      12.12700000      18.74900000      17.77700000
 H      12.87800000      19.97900000      17.66400000
 O      12.84000000      18.79800000      13.86700000
 H      12.76500000      18.32400000      13.02900000
 H      12.15600000      18.26300000      14.36500000
 O      15.34300000      18.12800000      11.49300000
 H      15.49500000      17.61700000      12.30000000
 H      15.86000000      18.98600000      11.59000000
 O      16.75400000      18.41900000      15.50400000
 H      17.69200000      18.22700000      15.79700000
 H      16.78400000      18.20700000      14.53800000
 O      14.14500000      17.54500000      16.75500000
 H      13.89900000      17.99400000      15.95000000
 H      15.09300000      17.41300000      16.61900000
 O      16.92400000      25.48700000      12.22800000
 H      15.94700000      25.32000000      12.35300000
 H      17.51300000      24.79200000      12.75600000
 O      16.35100000      22.13200000      10.85500000
 H      17.26600000      22.08200000      10.50400000
 H      16.08600000      23.05000000      10.94900000
 O      14.43700000      22.67000000      16.67000000
 H      15.38200000      22.79600000      16.88300000
 H      14.20800000      22.81700000      15.62600000
 O      11.51000000      25.49400000      12.03500000
 H      10.62100000      25.83100000      12.02800000
 H      11.48400000      24.83400000      11.32300000
 O      11.79100000      22.85700000      14.75200000
 H      12.02000000      21.98900000      14.34700000
 H      11.40700000      22.52700000      15.60800000
 O      16.77000000      23.94400000      17.70400000
 H      17.63700000      24.03500000      18.14600000
 H      16.12900000      24.10700000      18.46400000
 O      12.44600000      22.32700000      11.35000000
 H      12.32600000      21.60300000      12.04500000
 H      11.57300000      22.51700000      10.95700000
 O      14.73800000      23.09700000      13.99000000
 H      13.88800000      23.42600000      13.58000000
 H      15.21900000      22.54000000      13.28300000
 O      10.96700000      23.66700000      17.81400000
 H      11.65900000      24.29700000      18.11900000
 H      11.35800000      22.79500000      17.93400000
 O      17.58300000      22.65200000      15.34800000
 H      17.02400000      21.80300000      15.36400000
 H      17.41600000      23.12500000      16.23100000
 O      11.41600000      25.53300000      15.19300000
 H      11.70000000      24.67100000      15.47300000
 H      11.54400000      25.47900000      14.18800000
