39
XYZ file of cluster: frame_19000_9b245.24be2.4ea62 - created by MolEdiTo
 O      17.67600000       8.58800000       9.85300000
 H      18.52100000       8.37600000       9.46700000
 H      17.82500000       8.81300000      10.77200000
 O      16.92400000       4.09800000      12.22800000
 H      15.94700000       3.93100000      12.35300000
 H      17.51300000       3.40300000      12.75600000
 O      18.05900000       4.87900000       9.52400000
 H      17.47700000       5.65800000       9.53400000
 H      17.73600000       4.34400000      10.32100000
 O      19.65800000       5.94800000      13.26200000
 H      20.54300000       5.63600000      13.04300000
 H      19.10800000       5.09400000      13.44200000
 O      16.51000000       7.97100000      14.50600000
 H      15.65400000       8.17400000      14.11200000
 H      16.47200000       8.57000000      15.23600000
 O      14.27300000       4.60800000      11.35800000
 H      14.52100000       5.54400000      11.65800000
 H      13.31100000       4.56600000      11.45300000
 O      14.25700000       4.20500000       7.70900000
 H      13.81700000       4.47800000       8.54300000
 H      14.23800000       4.99000000       7.18600000
 O      15.99200000       6.61200000      11.96400000
 H      16.57500000       7.15900000      12.57100000
 H      16.52000000       5.73900000      11.97800000
 O      18.23400000      10.29000000      12.32800000
 H      19.08400000      10.61300000      11.96700000
 H      17.55500000      11.00000000      12.23800000
 O      15.05700000       9.15800000       8.61500000
 H      15.74500000       8.96800000       9.18900000
 H      15.30900000       8.76300000       7.76600000
 O      14.42900000      10.66600000      13.65100000
 H      13.64800000      10.05700000      13.58200000
 H      14.77300000      10.78400000      12.72900000
 O      18.46600000       3.79400000       6.98800000
 H      19.22800000       3.21900000       7.26600000
 H      18.29800000       4.23600000       7.89400000
 O      19.90600000       8.51800000      13.80000000
 H      18.94800000       8.69300000      13.57600000
 H      20.03800000       7.56000000      13.52100000
