27
XYZ file of cluster: frame_19000_455f2.a483b.cecee - created by MolEdiTo
 O       6.09300000      19.07300000      19.00600000
 H       5.95200000      19.74500000      19.72900000
 H       7.03200000      18.79900000      19.19500000
 O      10.21200000      14.79100000      18.37500000
 H       9.61600000      14.52100000      19.11600000
 H      11.04700000      15.06100000      18.84200000
 O       8.05800000      16.89400000      19.12300000
 H       8.78400000      17.11100000      19.76800000
 H       8.41200000      16.17600000      18.51400000
 O      10.13500000      17.29500000      23.07800000
 H      10.15600000      16.66400000      23.77700000
 H      10.92100000      17.91400000      23.14800000
 O       8.81100000      20.10000000      23.45200000
 H       7.88800000      20.40400000      23.46600000
 H       8.92000000      19.42200000      24.19700000
 O       6.75700000      17.77400000      24.22800000
 H       6.33700000      18.58400000      23.83400000
 H       7.20500000      18.01200000      25.03100000
 O      13.08100000      14.41300000      22.71300000
 H      13.70300000      15.00400000      22.17900000
 H      13.25200000      14.57900000      23.63000000
 O      11.42800000      19.85500000      22.87500000
 H      11.90200000      20.21900000      22.09800000
 H      10.51000000      19.96000000      22.72100000
 O      11.85700000      20.33000000      25.54200000
 H      11.25800000      20.85500000      26.07000000
 H      11.69600000      20.55800000      24.57700000
