36
XYZ file of cluster: frame_19000_7e12f.9ad2e.7c3b3 - created by MolEdiTo
 O      12.02300000      19.68500000      17.56500000
 H      12.12700000      18.74900000      17.77700000
 H      12.87800000      19.97900000      17.66400000
 O      11.96300000      16.49800000      12.28500000
 H      12.08300000      15.90200000      13.08100000
 H      11.13200000      16.15200000      11.89900000
 O      12.84000000      18.79800000      13.86700000
 H      12.76500000      18.32400000      13.02900000
 H      12.15600000      18.26300000      14.36500000
 O      12.06200000      16.13600000      14.96700000
 H      11.08500000      15.97400000      15.08800000
 H      12.51300000      15.30600000      15.02700000
 O      15.75300000      16.16500000      14.11400000
 H      15.10200000      16.58800000      14.69100000
 H      15.30900000      15.31700000      14.26000000
 O      15.87300000      14.72900000      17.81300000
 H      15.42000000      13.90600000      18.05300000
 H      15.23800000      15.35700000      18.18500000
 O      15.34300000      18.12800000      11.49300000
 H      15.49500000      17.61700000      12.30000000
 H      15.86000000      18.98600000      11.59000000
 O      17.99400000      13.56400000      15.97400000
 H      18.49200000      14.29400000      16.38200000
 H      17.08000000      13.95100000      16.25800000
 O      16.75400000      18.41900000      15.50400000
 H      17.69200000      18.22700000      15.79700000
 H      16.78400000      18.20700000      14.53800000
 O      11.69900000      17.07800000      18.02800000
 H      10.81700000      16.81100000      17.77400000
 H      12.22600000      16.68400000      17.32600000
 O      16.54100000      14.63900000      11.05200000
 H      17.01500000      13.80000000      11.03800000
 H      16.52900000      14.84600000      11.98400000
 O      14.14500000      17.54500000      16.75500000
 H      13.89900000      17.99400000      15.95000000
 H      15.09300000      17.41300000      16.61900000
