51
XYZ file of cluster: frame_19000_1158.49ffc.73375 - created by MolEdiTo
 O       2.75700000       7.66000000      11.20100000
 H       3.24600000       6.82700000      10.89100000
 H       2.43700000       7.39400000      12.06400000
 O       6.60200000      10.10800000      14.11800000
 H       6.50800000      10.79500000      14.80600000
 H       5.87000000      10.33900000      13.45300000
 O       7.05800000       7.26100000      16.69600000
 H       7.55800000       6.48300000      16.94700000
 H       6.73500000       7.67800000      17.62300000
 O       5.33200000      10.69200000      18.16600000
 H       5.63100000      11.57700000      17.81900000
 H       4.35900000      10.73200000      17.90700000
 O       3.96200000      13.26500000      18.13100000
 H       3.73300000      13.55900000      19.01300000
 H       3.50700000      14.00200000      17.62700000
 O       5.88400000       7.49000000      14.37600000
 H       6.21400000       7.28800000      15.30700000
 H       5.79100000       8.49400000      14.46500000
 O       4.70500000      13.42000000      10.84900000
 H       3.94700000      13.12100000      10.23700000
 H       4.89100000      12.66700000      11.41300000
 O       0.76000000       9.86700000      15.93500000
 H       0.28300000       9.35600000      15.30300000
 H       0.09300000       9.82400000      16.65100000
 O       1.01800000       9.98800000      10.80100000
 H       1.73700000       9.35400000      10.51300000
 H       0.59700000       9.45000000      11.49400000
 O       2.86800000       6.54700000      14.18900000
 H       2.39600000       7.22900000      14.73400000
 H       3.77700000       6.78600000      14.32700000
 O       1.51900000      13.33600000      12.03900000
 H       1.62300000      12.40400000      11.99500000
 H       0.60800000      13.44800000      11.70900000
 O       3.37000000       9.43400000      15.26700000
 H       2.37300000       9.72400000      15.55800000
 H       3.74200000       9.00500000      16.05800000
 O       3.44300000      10.89700000      12.87500000
 H       2.82100000      10.67600000      13.53200000
 H       3.45200000      10.05400000      12.40900000
 O       6.59300000      12.83700000      14.15700000
 H       7.27500000      12.35500000      14.70800000
 H       7.18300000      13.37600000      13.64500000
 O       5.79300000       8.68000000      11.63600000
 H       6.11000000       9.58000000      11.37400000
 H       6.57700000       8.25000000      12.05900000
 O       4.13000000      13.80900000      14.08500000
 H       4.78000000      13.10800000      14.27900000
 H       3.55300000      13.22400000      13.62400000
 O       6.86300000      13.79500000      17.39500000
 H       6.22900000      14.56000000      17.13200000
 H       6.88800000      13.79200000      18.40300000
