76
XYZ file of cluster: frame_19000_1ba86.49ffc.61498 - created by MolEdiTo
 O       3.96200000      13.26500000      18.13100000
 H       3.73300000      13.55900000      19.01300000
 H       3.50700000      14.00200000      17.62700000
 O      10.17300000       8.68600000      17.05000000
 H       9.39700000       8.46100000      16.47400000
 H      10.68100000       7.85000000      17.00200000
 O       8.46000000      13.92300000      12.28000000
 H       8.38500000      13.02800000      11.85700000
 H       9.08100000      14.42500000      11.68900000
 O       6.59300000      12.83700000      14.15700000
 H       7.27500000      12.35500000      14.70800000
 H       7.18300000      13.37600000      13.64500000
 O       5.33200000      10.69200000      18.16600000
 H       5.63100000      11.57700000      17.81900000
 H       4.35900000      10.73200000      17.90700000
 O       5.88400000       7.49000000      14.37600000
 H       6.21400000       7.28800000      15.30700000
 H       5.79100000       8.49400000      14.46500000
 O       2.86800000       6.54700000      14.18900000
 H       2.39600000       7.22900000      14.73400000
 H       3.77700000       6.78600000      14.32700000
 O       9.88800000      14.08900000      15.03900000
 H       9.92000000      14.28900000      16.00500000
 H       9.03700000      14.49200000      14.72500000
 O       4.70500000      13.42000000      10.84900000
 H       3.94700000      13.12100000      10.23700000
 H       4.89100000      12.66700000      11.41300000
 O      10.48500000       6.90700000      11.86700000
 H       9.58300000       7.19900000      11.45100000
 H      10.40800000       7.16500000      12.79000000
 O       5.79300000       8.68000000      11.63600000
 H       6.11000000       9.58000000      11.37400000
 H       6.57700000       8.25000000      12.05900000
 O       4.13000000      13.80900000      14.08500000
 H       4.78000000      13.10800000      14.27900000
 H       3.55300000      13.22400000      13.62400000
 O      10.13300000      11.21700000      18.32100000
 H      10.25200000      10.37800000      17.84300000
 H      11.05100000      11.49900000      18.55000000
 O       6.60200000      10.10800000      14.11800000
 H       6.50800000      10.79500000      14.80600000
 H       5.87000000      10.33900000      13.45300000
 O       7.05800000       7.26100000      16.69600000
 H       7.55800000       6.48300000      16.94700000
 H       6.73500000       7.67800000      17.62300000
 O       7.95800000      11.61800000      16.30400000
 H       7.32100000      12.34500000      16.62900000
 H       8.80900000      11.70900000      16.77500000
 O       8.84700000       8.05300000      14.63100000
 H       9.21100000       7.11400000      14.62300000
 H       7.95400000       7.88800000      14.98400000
 O      11.33200000      11.21300000      15.23400000
 H      10.39800000      11.54100000      15.21000000
 H      11.78100000      11.78200000      14.60200000
 C       9.55000000      10.46600000      12.19400000
 C       9.71400000      11.44900000      10.97500000
 C      11.66400000       9.94500000      10.36300000
 H       9.80000000       9.87800000       9.49600000
 H       8.42700000      10.38200000      13.77100000
 O      10.67000000      11.47500000       8.65900000
 O       8.67100000       9.37000000      11.76100000
 O       8.92000000      11.08800000      13.32300000
 C      10.41800000      10.65900000       9.81600000
 O       8.51100000      11.99600000      10.46800000
 H      10.42600000      12.24100000      11.33500000
 O      12.66800000      10.94900000      10.59300000
 O      12.13300000       9.14900000       9.33700000
 H      13.15700000       9.21600000       9.31400000
 H       7.83000000      11.26800000      10.20300000
 H       9.97200000      12.21400000       8.64400000
 O       3.37000000       9.43400000      15.26700000
 H       2.37300000       9.72400000      15.55800000
 H       3.74200000       9.00500000      16.05800000
 O       6.86300000      13.79500000      17.39500000
 H       6.22900000      14.56000000      17.13200000
 H       6.88800000      13.79200000      18.40300000
