51
XYZ file of cluster: frame_2500_76d07.979aa.461b4 - created by MolEdiTo
 O      11.29300000      16.02400000       9.90200000
 H      10.87600000      15.21000000      10.15400000
 H      11.07500000      16.10000000       8.98400000
 O      16.00200000      14.89900000      12.15800000
 H      16.18700000      14.61800000      13.08800000
 H      15.47800000      15.73300000      12.21600000
 O      14.09400000      19.34000000      12.61300000
 H      15.01500000      18.94500000      12.72000000
 H      13.66300000      18.44700000      12.49700000
 O      13.25500000      16.89800000      11.43600000
 H      13.91800000      16.99200000      10.71600000
 H      12.48200000      16.53500000      10.93700000
 O      12.38300000      18.07800000       7.94100000
 H      12.78900000      17.44000000       7.35400000
 H      13.06500000      18.29600000       8.66500000
 O      12.65200000      16.57900000      13.96200000
 H      12.92400000      16.47900000      13.06200000
 H      13.41200000      16.63100000      14.64700000
 O      18.37800000      16.22800000       8.45400000
 H      18.53700000      15.64800000       9.21100000
 H      17.62700000      16.80400000       8.76800000
 O      14.47500000      19.20000000       9.55000000
 H      14.95200000      20.10200000       9.56000000
 H      15.20900000      18.48600000       9.55200000
 O      16.19100000      17.55700000      12.74000000
 H      17.12900000      17.52100000      12.48300000
 H      16.16400000      17.11600000      13.62800000
 O      15.72100000      14.73700000       8.40700000
 H      15.20800000      13.98500000       8.10600000
 H      16.57700000      14.78800000       7.86900000
 O      10.50900000      18.99300000      10.72500000
 H      10.80900000      18.58700000       9.85400000
 H      11.29700000      19.28900000      11.09100000
 O      12.80900000      13.74700000       7.64900000
 H      12.92400000      14.19000000       8.47800000
 H      12.17700000      14.32300000       7.09700000
 O      17.50200000      19.46000000       9.13000000
 H      17.45400000      20.48500000       9.17800000
 H      18.30100000      19.24700000       9.65000000
 O      15.75100000      16.90700000      10.10800000
 H      15.93400000      16.10500000       9.57300000
 H      16.28500000      16.70800000      10.90500000
 O      15.46700000      18.10100000       6.71200000
 H      15.08000000      18.84900000       6.17500000
 H      16.13100000      18.49800000       7.33300000
 O      16.60200000      14.30500000      14.63400000
 H      16.81300000      14.33400000      15.61400000
 H      17.57200000      14.43100000      14.31100000
 O      13.45200000      13.49200000      13.13800000
 H      13.59100000      14.43200000      13.44500000
 H      12.62200000      13.13600000      13.57800000
