58
XYZ file of cluster: frame_2500_221c3.5ab0a.2984d - created by MolEdiTo
 O       7.56800000      14.06000000       9.84000000
 H       8.43900000      14.48500000       9.61300000
 H       7.26300000      13.69300000       8.99700000
 O       7.35200000      13.83300000       4.75800000
 H       7.40500000      13.15300000       4.04900000
 H       7.01300000      13.37300000       5.52500000
 O      10.10000000      14.97900000       7.40200000
 H      10.04100000      14.92000000       6.32700000
 H       9.62200000      15.84900000       7.51500000
 O       5.68000000      15.91900000       5.83500000
 H       6.08700000      15.28900000       5.14700000
 H       4.79800000      16.07800000       5.43600000
 O       9.98100000      15.14900000       4.61900000
 H       8.98000000      14.86200000       4.65400000
 H      10.22300000      14.94100000       3.71500000
 C      12.21500000       9.62800000      10.84300000
 C      11.04500000      10.39100000      11.42700000
 C      10.48200000      12.02700000       9.65500000
 H       9.81400000       9.93200000       9.66600000
 H      12.94400000       7.85800000      10.41600000
 O       8.59100000      11.00700000      11.04900000
 O      13.35200000       9.71100000      11.71900000
 O      12.00500000       8.23500000      10.64200000
 C       9.92700000      10.76500000      10.40400000
 O      10.59000000       9.62500000      12.49000000
 H      11.40800000      11.34500000      11.83600000
 O      10.42900000      13.22600000      10.50600000
 O       9.67700000      12.29200000       8.50200000
 H       9.97900000      13.13600000       8.16800000
 H      10.96500000       8.77600000      12.36200000
 H       8.28000000      11.91300000      10.77600000
 O       3.84100000      13.75000000       7.06300000
 H       4.27100000      14.57200000       7.19200000
 H       3.01700000      13.86600000       7.54200000
 O       7.47000000      10.99800000       4.40100000
 H       7.99000000      11.28200000       3.65700000
 H       7.85300000      11.40700000       5.17600000
 O       5.94400000      18.20900000       7.27900000
 H       5.11400000      18.65900000       6.93100000
 H       5.87400000      17.41500000       6.69200000
 O       5.05100000      18.09700000      10.60100000
 H       5.65200000      17.52700000      11.18600000
 H       5.61700000      18.85400000      10.28000000
 O       8.87900000      17.50000000       7.36800000
 H       7.96500000      17.80300000       7.14600000
 H       9.44200000      17.81400000       6.62900000
 O       5.26900000      11.78200000      10.86500000
 H       5.41500000      10.80700000      10.82400000
 H       4.53700000      12.02400000      10.21100000
 O      10.48500000      11.76300000       4.76200000
 H      10.93900000      11.70700000       5.66100000
 H      10.99400000      11.15100000       4.23800000
 O       6.69000000      12.70000000       7.48000000
 H       7.00800000      12.03800000       8.15900000
 H       5.73100000      12.67700000       7.59600000
 O       8.34700000      17.09700000      10.86400000
 H       8.35200000      17.51900000      10.01200000
 H       8.98100000      17.72200000      11.39500000
