76
XYZ file of cluster: frame_2500_5d9d0.5ab0a.1e7bc - created by MolEdiTo
 O      12.28700000      16.95500000       5.44400000
 H      12.03000000      17.89300000       5.27100000
 H      11.52900000      16.54000000       4.93300000
 O      17.63100000      13.76300000       5.85400000
 H      17.27300000      14.56800000       5.35500000
 H      18.61400000      13.80300000       5.97900000
 O      15.35400000      11.77900000       2.92200000
 H      16.05300000      11.65700000       3.64500000
 H      15.53100000      12.74900000       2.68500000
 O      13.25500000      16.89800000      11.43600000
 H      13.91800000      16.99200000      10.71600000
 H      12.48200000      16.53500000      10.93700000
 O      17.57600000      16.71100000       4.02400000
 H      16.82400000      16.15600000       4.47100000
 H      17.10400000      17.10600000       3.26100000
 O      17.97200000      11.28300000       8.08300000
 H      17.04300000      11.02500000       8.26200000
 H      17.98100000      12.21100000       8.35600000
 O      12.80900000      13.74700000       7.64900000
 H      12.92400000      14.19000000       8.47800000
 H      12.17700000      14.32300000       7.09700000
 O      11.29300000      16.02400000       9.90200000
 H      10.87600000      15.21000000      10.15400000
 H      11.07500000      16.10000000       8.98400000
 O      15.75100000      16.90700000      10.10800000
 H      15.93400000      16.10500000       9.57300000
 H      16.28500000      16.70800000      10.90500000
 O      18.18600000      13.66300000      10.73500000
 H      17.26500000      13.88900000      11.08300000
 H      18.33300000      12.75600000      10.96100000
 O      12.38300000      18.07800000       7.94100000
 H      12.78900000      17.44000000       7.35400000
 H      13.06500000      18.29600000       8.66500000
 O      15.72100000      14.73700000       8.40700000
 H      15.20800000      13.98500000       8.10600000
 H      16.57700000      14.78800000       7.86900000
 O      15.83000000      10.37600000       9.57000000
 H      15.85700000      11.10500000      10.22800000
 H      15.06700000      10.53300000       8.96700000
 O      16.68100000      11.00700000       5.23000000
 H      17.17100000      11.77400000       4.87200000
 H      17.11600000      10.68700000       5.99000000
 O      10.48500000      11.76300000       4.76200000
 H      10.93900000      11.70700000       5.66100000
 H      10.99400000      11.15100000       4.23800000
 O      12.73400000      14.03600000       4.40600000
 H      12.53600000      13.11000000       4.44200000
 H      11.87600000      14.46300000       4.50500000
 O      14.42400000      11.69400000       6.89000000
 H      13.67200000      12.29900000       7.23400000
 H      14.98100000      12.34000000       6.43000000
 O      15.22400000      15.71600000       5.16900000
 H      15.11300000      16.36100000       5.91500000
 H      14.34200000      15.25500000       4.94800000
 O      18.37800000      16.22800000       8.45400000
 H      18.53700000      15.64800000       9.21100000
 H      17.62700000      16.80400000       8.76800000
 C      12.21500000       9.62800000      10.84300000
 C      11.04500000      10.39100000      11.42700000
 C      10.48200000      12.02700000       9.65500000
 H       9.81400000       9.93200000       9.66600000
 H      12.94400000       7.85800000      10.41600000
 O       8.59100000      11.00700000      11.04900000
 O      13.35200000       9.71100000      11.71900000
 O      12.00500000       8.23500000      10.64200000
 C       9.92700000      10.76500000      10.40400000
 O      10.59000000       9.62500000      12.49000000
 H      11.40800000      11.34500000      11.83600000
 O      10.42900000      13.22600000      10.50600000
 O       9.67700000      12.29200000       8.50200000
 H       9.97900000      13.13600000       8.16800000
 H      10.96500000       8.77600000      12.36200000
 H       8.28000000      11.91300000      10.77600000
 O      14.38200000      13.10100000      10.34600000
 H      14.77500000      13.99800000      10.51100000
 H      14.15500000      12.81200000      11.23300000
