36
XYZ file of cluster: frame_2500_9672c.9e60f.c33e0 - created by MolEdiTo
 O      20.33200000      16.67200000      19.92700000
 H      20.87200000      16.33100000      20.67800000
 H      20.25800000      15.90900000      19.27400000
 O      20.30900000      14.38900000      17.49200000
 H      19.43900000      14.09700000      17.19700000
 H      20.84600000      13.72300000      18.03500000
 O      14.54300000      16.45100000      18.72900000
 H      14.68200000      16.51600000      19.70400000
 H      14.06500000      15.62100000      18.61900000
 O      15.63000000      19.09700000      19.50900000
 H      14.64600000      19.28800000      19.31800000
 H      15.91500000      18.85300000      18.64200000
 O      17.20100000      15.29500000      17.45900000
 H      17.28400000      16.26400000      17.67400000
 H      17.01400000      14.84400000      18.31700000
 O      18.30500000      18.19700000      18.27100000
 H      19.30500000      18.35400000      18.30800000
 H      18.09100000      18.12200000      17.32800000
 O      13.68900000      14.73500000      22.72100000
 H      13.30700000      14.34300000      23.50900000
 H      14.64100000      14.32700000      22.69600000
 O      19.85700000      18.28800000      24.96600000
 H      18.90200000      18.47700000      24.80200000
 H      19.73000000      17.27000000      25.03700000
 O      16.38300000      14.26500000      23.22000000
 H      16.98800000      14.70600000      22.49400000
 H      16.97600000      14.45500000      23.98400000
 O      17.54300000      16.89100000      22.40500000
 H      16.96700000      17.41100000      21.75500000
 H      18.37300000      16.80100000      21.88700000
 O      17.57600000      16.71100000      25.52800000
 H      16.82400000      16.15600000      25.97500000
 H      17.10400000      17.10600000      24.76500000
 O      18.02300000      19.88000000      23.05100000
 H      17.34600000      19.31800000      22.52000000
 H      18.82500000      19.60200000      22.69100000
