33
XYZ file of cluster: frame_14000_4bdf2.cc1db.9ed20 - created by MolEdiTo
 O       7.64600000      19.50300000      17.12100000
 H       8.44900000      19.11200000      17.36400000
 H       7.86200000      20.38000000      16.76000000
 O      10.18300000      18.70200000      17.62800000
 H      10.63800000      18.06200000      17.09900000
 H      10.58900000      18.67600000      18.48300000
 O      14.02200000      20.54400000      17.70000000
 H      13.42200000      19.82100000      18.00300000
 H      14.17700000      21.18000000      18.46200000
 O      12.54800000      18.44600000      20.36500000
 H      12.68700000      17.83900000      21.11800000
 H      12.20300000      19.24100000      20.84700000
 O       7.58400000      18.44300000      20.64000000
 H       7.40200000      18.88800000      21.50100000
 H       6.60200000      18.16500000      20.32700000
 O      13.77000000      23.61600000      20.18400000
 H      12.98500000      23.65200000      20.81300000
 H      14.23600000      24.47100000      20.11800000
 O      14.65600000      25.63700000      13.98700000
 H      14.98600000      25.84100000      14.89400000
 H      14.14000000      24.76500000      14.19200000
 O       9.30200000      22.64700000      15.95100000
 H      10.05600000      23.18700000      15.64800000
 H       9.78200000      21.80200000      15.95400000
 O      13.11000000      24.64500000      16.55400000
 H      13.11300000      24.27700000      17.46400000
 H      14.07700000      24.61300000      16.27200000
 O       7.71400000      23.85200000      17.97400000
 H       7.29100000      24.49600000      17.35800000
 H       8.42200000      23.35300000      17.44000000
 O      10.87400000      23.74100000      18.87200000
 H      10.72500000      24.38200000      18.04200000
 H      10.88200000      24.37000000      19.63700000
