36
XYZ file of cluster: frame_14000_2082f.976fc.18fdf - created by MolEdiTo
 O      11.02700000      16.10300000       6.41100000
 H      10.99600000      15.69300000       7.28000000
 H      10.41200000      16.90800000       6.36100000
 O       6.70900000      15.91900000       6.94000000
 H       7.24200000      15.49500000       7.61600000
 H       6.84400000      15.35700000       6.19700000
 O       9.71300000      19.87300000       3.52700000
 H       9.50200000      20.75700000       4.11300000
 H       9.86600000      20.23900000       2.64000000
 O       3.65700000      13.65600000       3.60000000
 H       3.32100000      14.54200000       3.97300000
 H       2.82900000      13.23500000       3.18500000
 O       4.23000000      17.30600000       4.32700000
 H       4.98900000      17.81300000       4.65600000
 H       3.74700000      16.94200000       5.12200000
 O       6.90300000      16.36700000       2.82900000
 H       7.67800000      16.45200000       2.20100000
 H       6.46400000      17.22200000       2.88300000
 O       8.31000000      17.84000000       5.80600000
 H       7.96200000      17.94900000       4.91000000
 H       7.61900000      17.30600000       6.31400000
 O       4.82500000      18.02400000       7.09400000
 H       5.19500000      18.44500000       7.92300000
 H       5.02700000      17.06200000       7.15100000
 O      11.39400000      19.20100000       6.95700000
 H      10.48900000      19.33400000       6.72700000
 H      11.28200000      18.58900000       7.73500000
 O       7.12600000      13.97100000       4.45600000
 H       6.42200000      13.79500000       3.84300000
 H       7.43400000      14.82000000       4.05100000
 O       3.60200000      20.17400000       3.06300000
 H       2.96000000      19.92600000       3.70900000
 H       3.11300000      20.35200000       2.20600000
 O       6.26300000      19.49100000       3.00700000
 H       6.67100000      20.29600000       3.30400000
 H       5.29600000      19.62900000       2.96300000
