36
XYZ file of cluster: frame_14000_c01a9.792c1.242a5 - created by MolEdiTo
 O      20.33200000      16.09300000       7.48300000
 H      20.96500000      16.74200000       7.91900000
 H      20.28200000      15.52700000       8.28800000
 O      18.26200000      13.65100000       6.86300000
 H      18.09000000      13.58500000       5.90000000
 H      17.96200000      14.53400000       7.21700000
 O      19.83300000      15.23000000      10.47100000
 H      19.27000000      14.41200000      10.54400000
 H      19.58700000      15.81800000      11.20000000
 O      17.42000000      12.20800000       4.45800000
 H      17.96300000      11.85000000       3.63800000
 H      16.71600000      12.73500000       4.04000000
 O      18.49700000      13.16900000       9.96100000
 H      19.23800000      12.98000000       9.48600000
 H      17.95300000      12.36700000       9.93700000
 O      17.42800000      15.87900000       8.42200000
 H      18.19800000      15.81000000       8.95400000
 H      16.99700000      16.66500000       8.68300000
 O      24.90100000      13.65600000       3.60000000
 H      24.56500000      14.54200000       3.97300000
 H      24.07300000      13.23500000       3.18500000
 O      22.78500000      15.52200000       5.05700000
 H      22.49100000      15.99300000       5.91300000
 H      21.96100000      15.12400000       4.80300000
 O      24.85400000      16.30900000      10.46100000
 H      25.28300000      15.57600000       9.97100000
 H      24.31300000      15.66500000      11.00400000
 O      22.79400000      10.59000000       4.80500000
 H      22.78600000      11.26100000       5.59500000
 H      21.91600000      10.68200000       4.31900000
 O      22.17000000      12.66600000       6.73600000
 H      21.24400000      13.10600000       6.82200000
 H      22.79000000      13.39800000       6.35900000
 O      23.28500000      13.41700000       9.34700000
 H      24.14000000      13.82800000       9.06300000
 H      23.00800000      12.83800000       8.61100000
