36
XYZ file of cluster: frame_5000_23174.c5528.c6f69 - created by MolEdiTo
 O      10.40800000      18.77900000      19.63000000
 H       9.65100000      18.46800000      20.20200000
 H      11.17300000      18.68400000      20.23400000
 O       4.28500000      19.67800000      19.99700000
 H       4.39700000      20.39900000      19.37800000
 H       3.57000000      19.96900000      20.48300000
 O       6.31200000      17.76800000      18.79000000
 H       5.59900000      18.46000000      18.86100000
 H       7.01300000      17.94000000      19.46400000
 O       6.43300000      18.13700000      23.74800000
 H       5.45200000      18.14900000      23.58200000
 H       6.58200000      17.33900000      24.33300000
 O       8.38600000      19.77700000      23.78600000
 H       7.88800000      20.55900000      23.41700000
 H       7.63700000      19.14700000      23.76700000
 O       3.58500000      17.91400000      23.85300000
 H       3.07500000      18.56800000      23.22800000
 H       3.09700000      17.93000000      24.62100000
 O      10.85100000      22.25900000      17.04800000
 H      10.00200000      22.49000000      17.54300000
 H      11.15700000      21.45300000      17.52000000
 O       8.67400000      23.28900000      18.68100000
 H       8.29800000      24.23200000      18.63300000
 H       8.10300000      22.93000000      17.99400000
 O       5.09500000      23.55800000      18.02400000
 H       5.06700000      24.58600000      18.18500000
 H       5.89400000      23.37000000      17.41100000
 O       9.35100000      24.37300000      22.20200000
 H       8.88700000      24.03500000      21.36300000
 H      10.27700000      24.21100000      21.87600000
 O       5.39700000      22.81600000      24.14800000
 H       5.53000000      23.59800000      24.78700000
 H       4.42300000      22.70700000      24.12000000
 O       5.08900000      25.25600000      22.71100000
 H       5.47500000      24.38300000      22.66100000
 H       5.38000000      25.64700000      21.84800000
