33
XYZ file of cluster: frame_5000_9abdf.46a6.28eaf - created by MolEdiTo
 O      16.02500000       5.36300000       9.42400000
 H      15.27700000       5.80200000       9.00900000
 H      16.57600000       6.11000000       9.77300000
 O      14.37400000       2.84800000       9.96000000
 H      15.17400000       3.47500000       9.68400000
 H      14.81900000       1.96400000       9.80500000
 O      18.12200000       2.94400000       6.79700000
 H      17.44000000       3.64900000       6.93200000
 H      18.87100000       3.31000000       7.29500000
 O      20.43300000       1.03400000       4.01400000
 H      20.15200000       0.93600000       5.00600000
 H      19.69100000       1.36800000       3.50600000
 O      19.25400000       1.90100000      10.82700000
 H      20.01100000       1.87600000      11.48800000
 H      19.65600000       1.51100000      10.05300000
 O      16.90600000       5.51900000       6.87100000
 H      16.69300000       5.68100000       7.83200000
 H      17.37400000       6.25000000       6.47900000
 O      19.96400000       4.55600000       8.88200000
 H      19.88900000       4.98700000       7.93400000
 H      20.13200000       5.38000000       9.38500000
 O      17.76700000       0.65900000       5.16600000
 H      17.22900000       0.38800000       5.93700000
 H      18.31800000       1.48700000       5.35000000
 O      14.31900000       3.56000000       3.89900000
 H      14.38300000       4.08800000       4.72100000
 H      13.56000000       2.95400000       3.97300000
 O      20.72700000       6.81200000      10.55400000
 H      21.32100000       7.52700000      10.23900000
 H      20.58700000       7.14500000      11.45300000
 O      16.83700000       1.89900000       9.31300000
 H      17.19400000       2.10200000       8.43000000
 H      17.58600000       1.92700000       9.99200000
