42
XYZ file of cluster: frame_5000_1cd9.75549.8f39 - created by MolEdiTo
 O       0.89000000      15.56500000       4.77100000
 H       0.15800000      16.21200000       4.66200000
 H       1.59600000      16.23500000       4.83100000
 O       6.52900000      11.27200000       3.42000000
 H       6.21200000      12.09400000       2.91200000
 H       6.29900000      10.59700000       2.77400000
 O       7.82600000      14.43200000       1.20500000
 H       6.92800000      14.45200000       1.55900000
 H       7.98900000      13.45600000       1.35400000
 O       5.39900000      13.54700000       1.76400000
 H       5.02000000      12.92600000       1.13800000
 H       4.75000000      13.89100000       2.36000000
 O       3.95100000      11.23600000       5.97700000
 H       3.24800000      11.76700000       5.59000000
 H       3.60900000      10.31000000       5.94700000
 O       2.46400000      17.81400000       5.48000000
 H       2.62200000      18.69500000       5.92600000
 H       2.65400000      17.21900000       6.26400000
 O       6.62900000      13.37900000       5.39300000
 H       7.52400000      13.53900000       5.16700000
 H       6.60800000      12.48700000       5.11600000
 O       5.38500000      16.83800000       7.04700000
 H       5.59300000      17.52400000       6.36100000
 H       6.19300000      16.70900000       7.60600000
 O       6.43300000      18.13700000       2.82900000
 H       5.45200000      18.14900000       2.66300000
 H       6.58200000      17.33900000       3.41400000
 O       1.07300000      16.27300000       1.73400000
 H       0.77400000      17.17200000       1.90900000
 H       1.15800000      16.25400000       0.76700000
 O       3.37500000      15.01300000       3.01100000
 H       3.76600000      15.89200000       3.06100000
 H       2.49500000      15.16200000       2.70800000
 O       1.93100000      12.80500000       5.04500000
 H       1.02700000      12.52900000       4.69500000
 H       2.08700000      13.74700000       4.72900000
 O       2.11400000      12.44800000       2.16000000
 H       1.64900000      11.69400000       2.52200000
 H       1.72500000      13.12900000       2.72900000
 O       6.85100000      15.66900000       3.76500000
 H       6.31700000      14.92500000       4.05500000
 H       7.72500000      15.37900000       4.10500000
