39
XYZ file of cluster: frame_5000_4f3e1.750eb.a4055 - created by MolEdiTo
 O       9.71000000      18.16500000      14.35900000
 H       9.93600000      17.21700000      14.05400000
 H      10.24600000      18.36000000      15.11100000
 O      12.59700000      12.22300000      19.27400000
 H      11.60800000      12.08800000      19.52700000
 H      12.73900000      13.15700000      19.07800000
 O      14.31900000      17.16700000      17.14800000
 H      15.11200000      17.53700000      16.77200000
 H      13.55900000      17.56200000      16.64500000
 O       9.62300000      11.78900000      14.76100000
 H       8.63200000      11.81400000      14.48100000
 H       9.68700000      12.52700000      15.41700000
 O      13.26100000      14.85300000      18.42500000
 H      13.53700000      15.38700000      19.20800000
 H      13.72100000      15.21900000      17.69800000
 O       9.97600000      14.45100000      16.08600000
 H      10.84600000      14.85800000      15.74400000
 H       9.60600000      15.14700000      16.60700000
 O       7.54200000      10.28600000      18.69300000
 H       8.34800000      10.33000000      18.15100000
 H       6.94400000      10.89200000      18.21600000
 O      11.35000000      17.18000000      16.95300000
 H      12.12300000      16.71200000      17.16700000
 H      10.82900000      17.19100000      17.78800000
 O      10.42800000      15.90800000      18.99300000
 H       9.85900000      16.56900000      19.47900000
 H      11.28800000      15.87000000      19.46700000
 O       9.50900000      13.11300000      19.04600000
 H       9.71200000      13.95200000      18.65500000
 H       9.33100000      13.32000000      20.01200000
 O      12.87400000      15.08300000      15.17200000
 H      13.80500000      14.81700000      15.34100000
 H      12.96800000      16.02200000      15.10400000
 O      13.64800000      10.41700000      14.78200000
 H      12.78000000      10.82500000      14.68700000
 H      14.38100000      10.99800000      15.11000000
 O      10.30800000      10.58300000      17.89400000
 H      10.54000000      10.81700000      16.94900000
 H      10.32300000      11.48400000      18.28400000
