114
XYZ file of cluster: frame_10000_79fa4.0.c0d0c - created by MolEdiTo
 O      20.07500000       3.05300000      28.95900000
 H      19.12100000       3.24100000      29.04800000
 H      20.04800000       2.05000000      29.10000000
 O      20.50800000       5.88500000      30.10400000
 H      19.77000000       5.97700000      29.42600000
 H      20.83600000       5.11800000      29.66900000
 O      19.85700000       7.59700000      27.65200000
 H      20.44100000       8.38700000      27.32900000
 H      20.23100000       6.85400000      27.19800000
 O      17.46100000       1.97800000      27.25900000
 H      16.55900000       1.73000000      27.54100000
 H      17.34000000       2.88000000      27.02900000
 O      26.28500000       3.14000000      27.19300000
 H      26.43800000       3.94600000      27.68900000
 H      26.32300000       3.41400000      26.24900000
 O      17.16200000       8.97700000      28.02900000
 H      17.93900000       8.61400000      27.63500000
 H      17.25800000       9.95400000      27.71800000
 O      22.13300000       4.56500000      28.06400000
 H      21.37300000       3.89000000      28.19000000
 H      22.98200000       4.04700000      28.16800000
 O      25.28100000       4.49200000      29.77700000
 H      26.10300000       4.94400000      30.06200000
 H      24.74100000       5.27000000      29.49900000
 O      20.36400000       0.78800000      26.24700000
 H      20.83200000       0.68300000      27.12400000
 H      19.36300000       0.85100000      26.50300000
 O      17.26500000       4.10800000      29.85300000
 H      17.14600000       4.90900000      30.41200000
 H      16.49500000       3.57200000      29.98800000
 O      24.17700000       6.63400000      28.45500000
 H      23.27400000       6.43300000      28.09200000
 H      24.71600000       6.92500000      27.66600000
 O      24.00000000       1.99900000      29.02700000
 H      24.70500000       2.66900000      29.10900000
 H      24.40000000       1.52300000      28.27900000
 O      19.82300000       9.02200000      30.19500000
 H      19.35200000       8.71400000      29.35500000
 H      19.24900000       9.69700000      30.56100000
 O      23.48600000       9.56300000      26.98900000
 H      23.96500000       9.38200000      26.14800000
 H      22.52000000       9.42000000      26.90400000
 O      16.69500000       4.75800000      26.62300000
 H      16.76900000       5.16600000      25.74700000
 H      17.52000000       5.12500000      27.06500000
 O      23.28000000       0.97800000      26.11300000
 H      22.79200000       0.10100000      26.18300000
 H      23.79000000       0.81600000      25.23300000
 O      21.41000000       5.90900000      25.79000000
 H      21.22200000       5.72700000      24.78700000
 H      21.44700000       5.06000000      26.30100000
 O      20.08900000       5.37900000      36.05900000
 H      19.14400000       5.53100000      35.95000000
 H      20.44900000       5.53400000      35.18500000
 O      22.48700000       9.44900000      35.20500000
 H      22.82800000       8.88300000      35.94100000
 H      22.30700000       8.74500000      34.49100000
 O      26.88900000      10.40000000      33.43800000
 H      27.63200000       9.91500000      33.03400000
 H      26.33900000       9.78200000      34.00300000
 O      26.06300000       6.38700000      34.71100000
 H      25.37400000       6.98900000      34.31800000
 H      26.80800000       6.54200000      34.10600000
 O      21.01000000       2.67200000      36.55200000
 H      20.53500000       3.52800000      36.50000000
 H      21.70600000       2.48300000      35.83100000
 O      22.58000000       8.66200000      32.08600000
 H      23.04300000       9.35900000      31.69300000
 H      21.64300000       8.78900000      31.73800000
 O      23.29800000       0.86500000      34.98800000
 H      23.00400000       0.00000000      35.29800000
 H      23.71000000       0.71500000      34.09800000
 O      17.54200000      11.21000000      36.33900000
 H      17.96700000      10.40800000      35.93900000
 H      18.29400000      11.76900000      36.50700000
 O      18.96300000       8.31200000      36.13600000
 H      19.35200000       8.17700000      35.23300000
 H      18.75500000       7.38000000      36.46500000
 O      25.17800000       7.93300000      32.57100000
 H      24.26100000       8.34700000      32.58200000
 H      25.29300000       7.83900000      31.65700000
 O      19.13000000       2.80100000      33.33600000
 H      18.31500000       3.36200000      33.25300000
 H      19.81400000       3.15800000      32.69900000
 O      23.59100000       6.87100000      36.63200000
 H      23.62200000       6.92800000      35.64100000
 H      23.48600000       5.94400000      36.87100000
 O      25.84600000       9.37600000      35.82400000
 H      26.66700000       9.01200000      36.23100000
 H      25.42200000       9.88200000      36.56600000
 O      16.49000000       9.52000000      32.98800000
 H      16.18200000       8.92200000      33.63100000
 H      15.79700000       9.52500000      32.20300000
 O      26.05400000       3.53200000      34.86200000
 H      25.24600000       3.29300000      34.40600000
 H      25.90200000       4.42100000      35.16300000
 O      19.89400000       7.25400000      33.78800000
 H      20.08800000       8.04500000      33.20500000
 H      19.89800000       6.54300000      33.07700000
 O      17.43500000       6.09500000      33.10200000
 H      16.70300000       6.60600000      33.47300000
 H      18.27500000       6.52900000      33.40800000
 O      16.99000000       3.16400000      35.91000000
 H      16.97300000       4.06800000      36.36900000
 H      17.83500000       2.75800000      36.16100000
 O      17.42500000       6.12000000      36.87800000
 H      16.66800000       6.32300000      36.27400000
 H      17.07500000       6.05500000      37.80600000
 O      23.76200000       3.43200000      33.14800000
 H      24.48300000       3.67500000      32.49800000
 H      23.40900000       2.59300000      32.87700000
 O      22.72500000       6.45400000      33.97700000
 H      22.68700000       7.00600000      33.10300000
 H      22.74900000       5.52100000      33.64500000
