105
XYZ file of cluster: frame_10000_7f18e.c99f1.c0d0c - created by MolEdiTo
 O      16.82100000      30.49000000      30.56700000
 H      16.46000000      30.39500000      29.67700000
 H      17.76500000      30.56600000      30.34600000
 O      19.51400000      30.15300000      29.50300000
 H      19.33600000      29.38900000      28.93400000
 H      20.40100000      29.99800000      29.89400000
 O      19.56200000      26.89200000      29.58000000
 H      19.77200000      26.10400000      30.05800000
 H      18.74400000      27.15200000      30.06200000
 O      17.52300000      27.92000000      27.87900000
 H      18.21400000      27.54300000      28.40800000
 H      16.89800000      27.20100000      27.71300000
 O      22.11400000      29.50100000      28.85800000
 H      22.50900000      30.33100000      28.58800000
 H      22.53100000      28.89300000      28.18800000
 O      25.22200000      28.55200000      28.95400000
 H      26.05000000      28.37300000      29.43600000
 H      25.40200000      27.79200000      28.28700000
 O      17.54700000      29.59700000      25.67400000
 H      17.28900000      29.04100000      26.45700000
 H      17.02700000      30.45100000      25.79500000
 O      21.78300000      27.84400000      26.52800000
 H      20.87500000      28.08600000      26.42100000
 H      21.76700000      26.84900000      26.34200000
 O      24.72800000      26.78100000      33.04400000
 H      24.89800000      27.61800000      33.25500000
 H      24.10800000      26.87600000      32.30600000
 O      22.78600000      27.78800000      35.53300000
 H      23.63900000      27.28000000      35.58500000
 H      22.37200000      27.66500000      34.61200000
 O      25.86700000      30.40000000      36.33000000
 H      26.67700000      30.04800000      35.83800000
 H      25.04200000      29.99400000      35.92500000
 O      17.55700000      29.15700000      36.05900000
 H      18.34700000      29.33300000      35.51900000
 H      17.24900000      30.05800000      36.34100000
 O      19.76400000      30.30400000      34.55800000
 H      20.64800000      30.27200000      34.23300000
 H      19.40200000      31.25000000      34.39300000
 O      25.49700000      27.57200000      36.58200000
 H      25.74500000      27.63100000      37.50000000
 H      26.24800000      27.30000000      35.99100000
 O      24.53200000      30.26300000      32.63600000
 H      25.23400000      30.86200000      32.41800000
 H      24.39700000      29.70900000      31.85100000
 O      21.48800000      27.60100000      33.22800000
 H      21.59100000      26.75000000      32.79300000
 H      21.60200000      28.28100000      32.54300000
 O      18.94500000      27.07000000      34.36600000
 H      18.45700000      27.93000000      34.42900000
 H      19.89500000      27.27500000      34.14700000
 O      20.07500000      34.66200000      28.95900000
 H      19.12100000      34.85000000      29.04800000
 H      20.04800000      33.65900000      29.10000000
 O      20.50800000      37.49400000      30.10400000
 H      19.77000000      37.58600000      29.42600000
 H      20.83600000      36.72700000      29.66900000
 O      17.46100000      33.58700000      27.25900000
 H      16.55900000      33.33900000      27.54100000
 H      17.34000000      34.48900000      27.02900000
 O      26.28500000      34.74900000      27.19300000
 H      26.43800000      35.55500000      27.68900000
 H      26.32300000      35.02300000      26.24900000
 O      22.13300000      36.17400000      28.06400000
 H      21.37300000      35.49900000      28.19000000
 H      22.98200000      35.65600000      28.16800000
 O      25.28100000      36.10100000      29.77700000
 H      26.10300000      36.55300000      30.06200000
 H      24.74100000      36.87900000      29.49900000
 O      20.36400000      32.39700000      26.24700000
 H      20.83200000      32.29200000      27.12400000
 H      19.36300000      32.46000000      26.50300000
 O      17.26500000      35.71700000      29.85300000
 H      17.14600000      36.51800000      30.41200000
 H      16.49500000      35.18100000      29.98800000
 O      24.00000000      33.60800000      29.02700000
 H      24.70500000      34.27800000      29.10900000
 H      24.40000000      33.13200000      28.27900000
 O      16.69500000      36.36700000      26.62300000
 H      16.76900000      36.77500000      25.74700000
 H      17.52000000      36.73400000      27.06500000
 O      23.28000000      32.58700000      26.11300000
 H      22.79200000      31.71000000      26.18300000
 H      23.79000000      32.42500000      25.23300000
 O      21.41000000      37.51800000      25.79000000
 H      21.22200000      37.33600000      24.78700000
 H      21.44700000      36.66900000      26.30100000
 O      16.99000000      34.77300000      35.91000000
 H      16.97300000      35.67700000      36.36900000
 H      17.83500000      34.36700000      36.16100000
 O      21.01000000      34.28100000      36.55200000
 H      20.53500000      35.13700000      36.50000000
 H      21.70600000      34.09200000      35.83100000
 O      26.05400000      35.14100000      34.86200000
 H      25.24600000      34.90200000      34.40600000
 H      25.90200000      36.03000000      35.16300000
 O      23.76200000      35.04100000      33.14800000
 H      24.48300000      35.28400000      32.49800000
 H      23.40900000      34.20200000      32.87700000
 O      19.13000000      34.41000000      33.33600000
 H      18.31500000      34.97100000      33.25300000
 H      19.81400000      34.76700000      32.69900000
 O      23.29800000      32.47400000      34.98800000
 H      23.00400000      31.60900000      35.29800000
 H      23.71000000      32.32400000      34.09800000
