117
XYZ file of cluster: frame_10000_452f.f14.96f31 - created by MolEdiTo
 O       8.53700000       6.16100000      27.61000000
 H       7.76700000       6.67900000      27.90200000
 H       8.55200000       5.44900000      28.25900000
 O      10.18800000       7.81800000      29.14400000
 H       9.87100000       6.94800000      28.78600000
 H       9.50700000       7.93200000      29.89100000
 O       7.62400000       4.62500000      24.31700000
 H       6.91800000       5.18300000      24.35800000
 H       7.31300000       3.95900000      25.03400000
 O       4.76400000       1.99800000      30.12200000
 H       4.30000000       2.91500000      30.30800000
 H       5.68000000       2.18000000      30.43100000
 O       6.30500000       4.28100000      29.01500000
 H       6.48400000       4.48900000      29.96400000
 H       5.48900000       4.65600000      28.72100000
 O       3.25500000       4.28200000      30.52000000
 H       2.79400000       4.10400000      31.38500000
 H       3.19100000       5.22400000      30.21300000
 O       7.48100000       2.69100000      26.59200000
 H       6.85400000       2.24000000      27.18500000
 H       7.38700000       2.26000000      25.69900000
 O       8.69200000      10.11800000      29.75700000
 H       7.97100000       9.54500000      29.53500000
 H       9.30300000      10.03900000      29.02900000
 O       5.09600000       4.08600000      22.25800000
 H       6.11800000       4.01100000      22.12600000
 H       4.94300000       3.28100000      22.83100000
 O       8.49700000      10.76000000      23.35600000
 H       8.26200000       9.82500000      23.69900000
 H       8.67900000      11.16000000      24.23900000
 O       1.36700000       4.92100000      26.35400000
 H       0.56000000       5.47400000      26.51700000
 H       1.89200000       5.48100000      25.76200000
 O       8.42000000       1.94500000      29.66300000
 H       8.99300000       1.20200000      29.90700000
 H       8.62000000       2.05400000      28.78300000
 O      10.17300000       9.60900000      20.96600000
 H      10.21500000      10.51200000      21.32300000
 H      10.34400000       9.74200000      20.02900000
 O       7.76200000       8.41800000      21.05100000
 H       8.65500000       8.81700000      21.14000000
 H       7.45900000       8.89200000      20.24600000
 O      10.18500000       3.85600000      23.36900000
 H      10.33900000       3.36600000      24.28100000
 H       9.20600000       4.08300000      23.41000000
 O       2.93800000       9.59700000      29.87900000
 H       3.24200000       9.89600000      30.74600000
 H       2.71200000      10.48400000      29.39300000
 O       2.82200000       2.66900000      28.09000000
 H       3.54900000       2.13200000      27.63000000
 H       3.15300000       2.83200000      29.00300000
 O       5.84600000       9.05100000      22.77000000
 H       5.65000000       9.67500000      21.95700000
 H       6.54400000       8.39300000      22.48400000
 O       7.64100000       3.30800000      21.85100000
 H       8.53200000       3.04400000      21.48800000
 H       7.49100000       3.05400000      22.76200000
 O       5.96200000       9.42000000      27.95100000
 H       5.43200000      10.13800000      28.29100000
 H       6.12800000       9.63800000      26.97500000
 O      10.76800000       6.39800000      25.54800000
 H      10.22500000       5.76400000      25.98400000
 H      10.82500000       7.15000000      26.21000000
 O       3.80900000       9.92500000      20.67300000
 H       3.56300000       9.24700000      21.32200000
 H       3.36100000      10.76400000      20.93600000
 O       7.40800000       1.48500000      24.20000000
 H       8.11700000       0.79400000      23.94100000
 H       6.63800000       0.96400000      23.99900000
 O       4.70700000       1.08900000      26.84600000
 H       4.91000000       1.16900000      25.85200000
 H       4.76300000       0.12200000      27.11400000
 O       3.93300000       9.79600000      25.02000000
 H       4.00400000      10.77600000      25.20200000
 H       4.79900000       9.57200000      24.57200000
 O       1.78500000       3.62300000      22.78200000
 H       1.70300000       3.11300000      21.88100000
 H       1.98000000       4.60200000      22.60100000
 O       7.72500000       5.64200000      20.38500000
 H       7.53400000       5.12800000      21.15700000
 H       7.95600000       6.42800000      20.90000000
 O       6.67000000       7.78100000      29.93400000
 H       6.37900000       8.30300000      29.19100000
 H       5.98700000       7.86600000      30.63500000
 O       5.05400000       4.34400000      26.15700000
 H       5.59200000       3.77900000      26.76600000
 H       4.23000000       3.85600000      26.15100000
 O       4.47900000       1.55400000      23.54100000
 H       3.53400000       1.78200000      23.65300000
 H       4.44000000       0.66700000      23.10400000
 O       1.61400000       1.58300000      24.38300000
 H       1.00400000       1.70400000      25.17800000
 H       1.64000000       2.43200000      23.89900000
 O       2.84100000       5.68900000      20.31100000
 H       3.11600000       6.05500000      19.40500000
 H       3.52800000       5.87300000      21.03600000
 O       2.80800000       6.56600000      28.79300000
 H       2.36600000       6.47700000      27.93500000
 H       3.03700000       7.48600000      28.74300000
 O       8.44500000       7.75600000      24.18000000
 H       8.76800000       6.85200000      24.31400000
 H       7.61800000       7.80000000      24.65100000
 O       9.29300000       4.74600000      29.84900000
 H       8.77600000       3.87200000      29.85500000
 H      10.00400000       4.67400000      29.09200000
 O      10.11900000       2.00100000      21.02500000
 H      10.64200000       2.57400000      20.41700000
 H      10.74000000       1.96000000      21.84900000
 O       2.26900000       8.83600000      22.87800000
 H       2.76600000       8.12600000      23.22500000
 H       2.47500000       9.48800000      23.57600000
 O       3.38300000       5.98000000      23.25200000
 H       3.77800000       5.91900000      24.17700000
 H       4.03300000       5.49100000      22.76000000
 O       2.53700000       7.46800000      25.85500000
 H       1.88200000       7.81900000      26.59000000
 H       3.21700000       8.14200000      25.82500000
