123
XYZ file of cluster: frame_6000_2187b.9e510.c52ba - created by MolEdiTo
 O      12.14100000      26.68600000      27.53600000
 H      12.49900000      26.02100000      27.04800000
 H      11.70000000      26.25300000      28.25900000
 O      15.19600000      27.77400000      28.97900000
 H      16.13800000      27.91300000      29.23700000
 H      15.21100000      27.22600000      28.14900000
 O       6.86700000      28.21500000      29.33300000
 H       7.19800000      28.49800000      28.44700000
 H       5.89800000      28.36200000      29.37900000
 O       5.14600000      22.30500000      28.17400000
 H       5.84400000      21.82300000      28.68900000
 H       4.84700000      23.10200000      28.65200000
 O      12.73500000      23.69600000      28.11300000
 H      12.02300000      24.04700000      27.51300000
 H      12.35800000      22.84600000      28.46800000
 O       5.99500000      27.00600000      26.54000000
 H       6.78000000      27.49400000      26.94700000
 H       5.19200000      27.54600000      26.69600000
 O      11.87100000      21.26100000      28.83200000
 H      10.93900000      21.13700000      28.51400000
 H      12.34600000      20.46100000      28.49500000
 O       7.30600000      24.62100000      26.94900000
 H       8.21100000      24.53600000      27.22800000
 H       7.13700000      25.55200000      26.70600000
 O       5.62800000      30.29600000      26.06800000
 H       6.22400000      29.54200000      26.07800000
 H       5.88300000      30.75100000      25.25800000
 O      14.69200000      30.49700000      27.89500000
 H      15.62900000      30.58400000      27.59400000
 H      14.48500000      29.58100000      28.15500000
 O      14.79000000      24.67000000      29.96300000
 H      14.01900000      24.32900000      29.49400000
 H      14.62800000      25.64700000      30.12600000
 O       5.16700000      21.24300000      25.52100000
 H       5.91500000      20.53500000      25.49600000
 H       4.90200000      21.65200000      26.36600000
 O       8.20500000      28.82200000      26.95200000
 H       8.74300000      28.47700000      26.27600000
 H       8.90000000      29.41700000      27.41800000
 O      10.10100000      24.02100000      26.94300000
 H      10.10400000      23.09800000      27.41000000
 H      10.52700000      23.94300000      26.04000000
 O      15.30900000      22.10800000      26.98400000
 H      15.39000000      23.04400000      27.15000000
 H      15.72200000      21.76900000      27.87000000
 O       8.06000000      23.69400000      30.41600000
 H       7.94200000      24.62900000      30.64800000
 H       8.92700000      23.31200000      30.64600000
 O      12.10800000      29.18400000      26.28500000
 H      12.16400000      28.21200000      26.54800000
 H      11.68100000      29.57900000      27.02700000
 O       5.01500000      25.01600000      29.75300000
 H       5.78800000      24.78600000      29.21300000
 H       4.36300000      25.41900000      29.04800000
 O      16.00400000      25.64900000      27.46000000
 H      15.61600000      25.01200000      28.16300000
 H      16.90400000      25.40200000      27.49100000
 O      11.70900000      26.29500000      35.55000000
 H      11.60300000      25.37500000      35.91700000
 H      10.81000000      26.56300000      35.14700000
 O      13.51100000      22.63000000      34.96900000
 H      12.67200000      22.14800000      35.03400000
 H      13.76200000      22.53200000      34.04800000
 O       6.94800000      26.09700000      33.42700000
 H       6.07100000      25.61600000      33.38300000
 H       6.78500000      26.96400000      32.96800000
 O      13.95000000      21.59400000      32.40300000
 H      13.33300000      21.96800000      31.69600000
 H      14.19300000      20.72600000      31.99700000
 O      10.95700000      22.90100000      32.23800000
 H      11.19800000      23.86300000      32.32400000
 H      11.65300000      22.71800000      31.60300000
 O      10.71700000      21.71400000      35.46000000
 H      10.28600000      21.36700000      34.59500000
 H       9.90500000      21.66400000      36.06900000
 O       6.73700000      22.70400000      33.75300000
 H       7.14900000      22.75500000      32.83300000
 H       7.35000000      22.04400000      34.14000000
 O      16.73900000      26.07600000      33.78800000
 H      15.82800000      26.48600000      33.76400000
 H      17.03400000      25.83400000      34.69200000
 O       5.57500000      26.80900000      36.29600000
 H       6.00500000      26.03800000      36.70000000
 H       5.35000000      26.52600000      35.38000000
 O      14.02200000      26.76800000      33.83400000
 H      13.37700000      26.46200000      34.52500000
 H      14.57800000      27.30300000      34.37800000
 O      12.89800000      29.12900000      32.17200000
 H      12.14000000      28.95200000      32.76700000
 H      13.48300000      28.37100000      32.19400000
 O      14.12100000      25.10800000      36.52800000
 H      13.51900000      25.78000000      36.21800000
 H      14.13000000      24.54300000      35.73500000
 O       8.41600000      29.59500000      32.30300000
 H       7.79100000      30.35500000      32.26600000
 H       7.79400000      29.00100000      31.81600000
 O      10.18100000      27.30900000      31.86500000
 H       9.95000000      27.41200000      32.75500000
 H       9.61800000      28.04000000      31.55900000
 O      14.82400000      28.37200000      36.18800000
 H      15.66500000      28.60500000      36.64700000
 H      14.10500000      28.23100000      36.83300000
 O       5.97400000      28.77800000      33.60900000
 H       6.29200000      29.35100000      34.28800000
 H       4.97900000      28.90900000      33.49900000
 O       7.52500000      24.70700000      36.02500000
 H       7.03500000      24.62200000      35.15700000
 H       6.89600000      24.10500000      36.55900000
 O      16.56700000      23.03600000      35.73100000
 H      15.80300000      22.79200000      36.35800000
 H      16.15500000      22.74500000      34.83300000
 O       9.16200000      27.37200000      34.82700000
 H       8.52700000      26.79400000      34.34000000
 H       8.64200000      27.47500000      35.69400000
 O       9.25700000      30.09400000      35.28700000
 H       8.46400000      30.59300000      35.56800000
 H       8.98400000      29.40200000      34.56300000
 O       5.55700000      22.70700000      36.39100000
 H       5.79800000      22.04700000      35.69100000
 H       4.56500000      22.57700000      36.37400000
 O      12.05600000      25.41800000      32.15300000
 H      12.57500000      26.13900000      32.58000000
 H      11.21200000      25.85500000      31.82500000
