154
XYZ file of cluster: frame_6000_4e247.6c532.6b640 - created by MolEdiTo
 O      19.39900000      18.86300000      16.23500000
 H      18.84200000      19.54800000      16.62000000
 H      19.99400000      18.67400000      16.95600000
 O      11.29900000      21.59000000      21.80100000
 H      11.12500000      22.09700000      21.02300000
 H      11.97900000      21.04800000      21.39600000
 O      14.97800000      25.48100000      20.27100000
 H      15.44100000      26.31800000      20.19600000
 H      15.18700000      25.18500000      19.39300000
 O      13.65500000      21.60500000      25.07900000
 H      14.27400000      21.96300000      25.75900000
 H      13.89700000      20.63600000      24.96000000
 O      13.02700000      17.72300000      23.22700000
 H      13.53300000      18.05500000      23.96100000
 H      12.06600000      17.83900000      23.52800000
 O      18.82100000      19.06400000      20.63900000
 H      19.09600000      18.94400000      21.53700000
 H      17.94900000      19.46800000      20.63800000
 O      14.90900000      21.35300000      17.81700000
 H      15.38100000      22.24200000      17.66800000
 H      15.22500000      21.08200000      18.74100000
 O      16.13300000      25.56600000      24.24600000
 H      16.50600000      24.90500000      23.61300000
 H      15.69800000      26.30200000      23.70500000
 O      20.35500000      24.32500000      17.73600000
 H      20.41100000      25.26100000      18.16400000
 H      19.47700000      24.27800000      17.32000000
 O      15.99300000      18.71500000      25.43400000
 H      16.00900000      18.98000000      26.38300000
 H      16.72200000      19.24600000      24.96000000
 O      15.29600000      18.13800000      21.96600000
 H      14.68700000      17.80000000      22.68300000
 H      15.87500000      18.80900000      22.36000000
 O      12.64700000      17.60100000      14.92400000
 H      13.59100000      17.93000000      14.94200000
 H      12.32800000      17.71900000      15.82100000
 O      12.51100000      19.45900000      20.66000000
 H      13.25700000      19.68700000      21.32100000
 H      12.34300000      18.50800000      20.79200000
 O      17.55000000      20.88400000      17.06900000
 H      18.02000000      21.02700000      17.92700000
 H      16.59300000      20.71000000      17.30200000
 O      13.43900000      25.49100000      25.30300000
 H      13.26200000      25.38300000      24.31400000
 H      14.42200000      25.24200000      25.30900000
 O      10.95900000      21.02900000      18.54000000
 H      11.83700000      20.71500000      18.87300000
 H      10.29500000      20.82800000      19.21600000
 O      14.89100000      16.30100000      26.06000000
 H      15.44500000      16.84700000      25.50000000
 H      14.49300000      15.56300000      25.50400000
 O      10.16800000      15.35200000      17.83000000
 H      10.97000000      15.90400000      17.74700000
 H      10.42400000      14.44100000      17.69200000
 C      14.63500000      14.72500000      15.45900000
 C      15.93400000      15.20500000      14.75100000
 C      16.22700000      17.34800000      16.11600000
 H      17.26100000      15.62900000      16.58300000
 H      14.07700000      14.38200000      13.75700000
 O      18.00000000      16.45800000      14.78000000
 O      14.41100000      14.80700000      16.64900000
 O      13.69700000      14.25000000      14.62200000
 C      16.90500000      16.07500000      15.61600000
 O      16.61200000      14.00000000      14.41500000
 H      15.64500000      15.83900000      13.86900000
 O      15.41400000      17.97100000      15.43300000
 O      16.38600000      17.72700000      17.42200000
 H      16.94000000      17.01000000      17.80900000
 H      17.48800000      14.25400000      14.03800000
 H      18.61100000      17.04600000      15.37200000
 O      16.37300000      19.71300000      19.83100000
 H      15.70100000      19.72200000      20.56400000
 H      16.22900000      18.85400000      19.39200000
 O      17.83500000      16.41800000      19.35800000
 H      17.10300000      16.33800000      20.01600000
 H      18.46400000      16.96600000      19.80300000
 O      12.38700000      20.81100000      16.02000000
 H      13.19200000      21.09900000      16.47200000
 H      11.81800000      20.89900000      16.79800000
 O      19.73700000      22.13300000      19.05700000
 H      20.13700000      22.49100000      18.25800000
 H      20.24400000      21.29400000      19.35900000
 O      19.10400000      18.34300000      24.77200000
 H      19.18700000      17.83400000      25.59300000
 H      18.69200000      19.15800000      25.10400000
 O      18.11000000      23.94900000      16.13300000
 H      18.11100000      23.01800000      15.86800000
 H      17.28600000      24.22600000      16.46200000
 O      10.76100000      21.47300000      24.84100000
 H      11.63600000      21.68800000      25.22600000
 H      11.00300000      21.44500000      23.81700000
 O      20.89500000      16.29900000      21.51300000
 H      19.91100000      16.29100000      21.76000000
 H      21.09600000      15.52000000      20.98100000
 O      18.12700000      16.48900000      22.40800000
 H      17.48400000      15.77500000      22.23300000
 H      17.87100000      16.77000000      23.30800000
 O      15.32000000      24.17200000      17.48200000
 H      14.34200000      24.16700000      17.55200000
 H      15.42700000      25.04900000      17.07300000
 O      12.35500000      17.26800000      17.97700000
 H      12.42100000      18.05900000      18.49200000
 H      13.19700000      16.81000000      18.23100000
 O      16.87800000      24.02200000      22.13200000
 H      17.77900000      23.80600000      21.82800000
 H      16.53800000      24.53800000      21.37000000
 O      10.89700000      23.97500000      20.11100000
 H      11.13500000      24.93700000      20.05600000
 H      10.61000000      24.03300000      19.16700000
 O      14.32500000      16.41000000      19.78400000
 H      14.23700000      15.45200000      19.88800000
 H      14.20000000      16.89300000      20.66900000
 O      17.05600000      20.34400000      22.95400000
 H      16.78400000      21.26500000      22.72900000
 H      17.85600000      20.59400000      23.37800000
 O      20.80600000      18.00800000      18.71600000
 H      20.43600000      18.70300000      19.28100000
 H      21.35800000      17.47400000      19.35100000
 O      17.73000000      15.59300000      25.20600000
 H      18.11600000      16.30900000      25.76700000
 H      18.49600000      14.98100000      25.08300000
 O      10.70500000      18.58400000      24.58100000
 H      10.81100000      19.48500000      24.92500000
 H      10.49200000      18.08500000      25.43200000
 O      19.33200000      24.51100000      20.94700000
 H      19.48200000      25.47700000      20.77900000
 H      19.63700000      24.02800000      20.17600000
 O      19.14900000      25.46700000      26.54400000
 H      18.87800000      25.50800000      25.66900000
 H      18.91700000      24.51600000      26.58900000
 O      20.79600000      16.08300000      15.84700000
 H      20.79000000      16.16700000      14.93700000
 H      20.71600000      17.01300000      16.16900000
 O      12.02600000      26.18200000      15.82900000
 H      11.63000000      26.90500000      16.32300000
 H      12.51100000      26.69000000      15.19300000
 O      12.71900000      23.73600000      16.73500000
 H      12.68900000      24.51200000      16.11700000
 H      11.81400000      23.59800000      17.09000000
 O      10.58300000      16.62000000      20.57400000
 H      10.21800000      16.86600000      19.70000000
 H      11.40500000      16.10000000      20.50200000
 O      20.04900000      20.89800000      24.99000000
 H      20.54800000      20.03000000      25.20800000
 H      20.72600000      21.49800000      24.57900000
 O      13.08800000      24.89600000      22.66400000
 H      12.70800000      24.01200000      22.50700000
 H      13.70000000      25.06100000      21.88100000
 O      14.55300000      21.84200000      22.30600000
 H      15.26500000      22.44200000      22.57600000
 H      14.09800000      21.63400000      23.08800000
 O      19.83100000      21.83700000      22.21700000
 H      19.65900000      22.42500000      21.55400000
 H      19.58400000      20.99100000      21.86500000
