114
XYZ file of cluster: frame_6000_c8b84.4c0f3.c4c7b - created by MolEdiTo
 O      28.44000000      11.95200000      28.04700000
 H      27.47500000      11.77400000      28.04400000
 H      28.46400000      12.87100000      27.79100000
 O      27.49700000      14.01400000      26.13500000
 H      27.39600000      14.98600000      26.35600000
 H      27.81800000      14.03000000      25.20800000
 O      30.50500000      18.51100000      26.04500000
 H      30.48800000      19.17400000      26.71900000
 H      29.78600000      18.90800000      25.48100000
 O      29.75900000      15.38400000      28.29600000
 H      29.85100000      16.38300000      28.48000000
 H      28.81600000      15.33400000      27.91800000
 O      27.61200000      16.75800000      27.09900000
 H      27.60300000      17.26500000      26.24900000
 H      28.06500000      17.32200000      27.78600000
 O      27.30200000      20.82200000      28.04800000
 H      27.13900000      21.28600000      27.15400000
 H      26.94600000      21.59400000      28.63000000
 O      26.51100000      13.35900000      30.45300000
 H      27.46400000      13.62300000      30.55900000
 H      26.11800000      13.94900000      29.83000000
 O      28.92300000      18.39400000      28.97700000
 H      28.58000000      19.10600000      28.36700000
 H      28.27000000      18.43600000      29.69400000
 O      29.37500000      15.08700000      34.85200000
 H      28.90400000      15.11800000      35.64400000
 H      28.84700000      14.57000000      34.19000000
 O      27.21600000      17.15400000      34.04000000
 H      28.21800000      17.03100000      33.96400000
 H      26.90800000      16.26200000      34.06000000
 O      27.47900000      11.49100000      35.11700000
 H      27.13800000      10.53000000      35.13700000
 H      28.10200000      11.60900000      35.89500000
 O      29.74000000      11.54700000      36.73000000
 H      30.32100000      10.89100000      36.25300000
 H      29.50200000      11.17400000      37.60100000
 O      26.97700000      14.47000000      36.65900000
 H      26.63800000      13.57300000      36.39900000
 H      27.23200000      14.30500000      37.60300000
 O      30.04200000      11.80200000      33.51200000
 H      30.54000000      10.91300000      33.49900000
 H      29.29400000      11.68200000      34.09600000
 O      26.17300000      21.59700000      32.28300000
 H      26.60600000      21.76900000      33.10800000
 H      26.14700000      20.62300000      32.28300000
 O      27.45300000      20.14000000      34.91200000
 H      27.35700000      19.19900000      34.61200000
 H      27.41600000      20.19100000      35.86800000
 O      29.21900000      14.24700000      32.29100000
 H      29.50100000      13.28000000      32.24400000
 H      29.82500000      14.80300000      31.71300000
 O      29.05700000      21.85000000      32.96300000
 H      28.35700000      21.62400000      32.27800000
 H      29.25900000      20.94800000      33.39500000
 O      34.36200000      10.61900000      27.35500000
 H      34.04600000      11.30400000      27.95000000
 H      34.02200000       9.83000000      27.81700000
 O      34.15500000      20.81900000      28.94900000
 H      35.08300000      20.94600000      28.55800000
 H      33.46800000      21.16400000      28.27000000
 O      36.93500000      21.24300000      25.52100000
 H      37.68300000      20.53500000      25.49600000
 H      36.67000000      21.65200000      26.36600000
 O      36.01600000      14.39600000      27.25700000
 H      35.11300000      14.78300000      27.49600000
 H      36.59700000      15.15000000      26.88200000
 O      32.75100000      12.51300000      29.21100000
 H      32.17500000      11.86400000      28.86500000
 H      32.41600000      13.38200000      28.85200000
 O      34.38600000      18.09900000      29.57500000
 H      33.73800000      17.58400000      29.05000000
 H      34.64300000      18.93300000      29.11800000
 O      33.57600000      16.44700000      26.98600000
 H      32.78900000      15.81200000      27.01000000
 H      33.30200000      17.31400000      26.57800000
 O      34.79400000      14.63000000      30.19600000
 H      34.16800000      15.45000000      30.52700000
 H      34.15500000      13.90900000      30.46100000
 O      36.91100000      17.31400000      28.56800000
 H      37.41800000      17.24500000      29.39600000
 H      36.02000000      17.35200000      28.97900000
 O      37.22400000      12.49800000      28.97900000
 H      37.09100000      12.13000000      28.06900000
 H      36.73100000      13.35100000      29.03800000
 O      36.07300000      19.51300000      35.50900000
 H      35.61000000      18.70800000      35.49000000
 H      36.23300000      19.83300000      34.58700000
 O      34.34300000      12.80700000      34.09300000
 H      34.47100000      12.43900000      34.93900000
 H      33.33200000      12.75600000      34.02700000
 O      37.12900000      12.47500000      33.08500000
 H      36.17700000      12.25800000      33.30000000
 H      37.09300000      12.54900000      32.07900000
 O      34.09100000      16.77800000      35.69900000
 H      33.80500000      16.63700000      34.76000000
 H      35.03300000      16.56900000      35.63500000
 O      33.14600000      16.21200000      32.99200000
 H      32.96900000      17.15200000      32.72100000
 H      32.30300000      15.91400000      33.49800000
 O      36.81200000      16.62900000      35.09300000
 H      37.03700000      16.03600000      34.33200000
 H      37.68400000      16.76100000      35.45000000
 O      37.77300000      13.13300000      35.80700000
 H      37.02100000      12.66500000      35.31200000
 H      37.35400000      13.35900000      36.71300000
 O      37.31100000      15.33600000      32.56200000
 H      37.40000000      14.66800000      33.27200000
 H      36.52100000      14.99700000      32.11700000
 O      32.94900000      19.55500000      33.26100000
 H      33.56700000      19.89000000      33.91400000
 H      33.47900000      19.15200000      32.56000000
 O      33.22900000      13.87900000      36.67800000
 H      33.16000000      14.63600000      36.12000000
 H      32.56900000      13.25100000      36.24600000
