138
XYZ file of cluster: frame_6000_48b38.c2de5.48852 - created by MolEdiTo
 O      14.97800000      25.48100000      20.27100000
 H      15.44100000      26.31800000      20.19600000
 H      15.18700000      25.18500000      19.39300000
 O      14.91800000      28.31700000       9.85500000
 H      15.40300000      27.69600000       9.29000000
 H      15.24100000      28.06600000      10.75500000
 O      14.68800000      25.72600000      13.69100000
 H      14.38300000      26.58700000      14.02900000
 H      13.81100000      25.49600000      13.19600000
 O      13.39100000      28.23200000      14.59400000
 H      13.00000000      28.99400000      15.05100000
 H      13.72400000      28.66600000      13.74500000
 O      19.51900000      29.18100000      11.51900000
 H      19.16400000      28.24000000      11.44400000
 H      19.08500000      29.53900000      12.29300000
 O      13.19800000      28.50000000      18.95100000
 H      12.74400000      27.73700000      19.27800000
 H      12.94400000      29.35500000      19.40700000
 O       9.99700000      26.43700000       9.99500000
 H      10.78700000      26.23300000      10.48000000
 H       9.87100000      25.68200000       9.39900000
 O      16.98700000      27.42400000      21.34800000
 H      17.34700000      27.41800000      20.45700000
 H      17.77600000      27.63900000      21.86700000
 O      19.51500000      30.78500000      15.79700000
 H      20.38200000      30.92800000      16.26400000
 H      18.92500000      31.18000000      16.52200000
 O      12.41900000      26.24300000      12.08800000
 H      12.76200000      27.16400000      11.89600000
 H      11.62700000      26.42400000      12.63800000
 O      16.80400000      30.79100000       9.81700000
 H      17.36900000      31.02000000      10.59100000
 H      15.90800000      30.54200000      10.19500000
 O      12.87500000      30.56700000      20.68900000
 H      11.94600000      30.31200000      20.99100000
 H      12.69500000      31.52200000      20.52600000
 O      17.13900000      29.96600000      18.06300000
 H      17.07400000      30.65800000      18.79500000
 H      16.32000000      30.28000000      17.48000000
 O      15.24400000      26.84300000      16.96900000
 H      15.75900000      27.60900000      16.87600000
 H      14.40700000      26.83600000      16.54700000
 O      17.95800000      27.17300000      18.59200000
 H      17.80300000      28.11800000      18.38300000
 H      17.71300000      26.80400000      17.72600000
 O      13.65400000      30.80800000      17.16800000
 H      12.70600000      31.18800000      17.24100000
 H      13.40700000      29.98000000      17.56600000
 O      18.11900000      30.30800000      13.56500000
 H      18.73800000      30.45200000      14.37200000
 H      17.15100000      30.11700000      13.88100000
 O      16.36700000      27.51700000      12.23400000
 H      15.86400000      27.06300000      12.99100000
 H      17.11000000      26.88100000      12.06400000
 O      11.01200000      26.90300000      20.01200000
 H      10.14800000      26.50500000      20.32100000
 H      10.69500000      27.70000000      19.53500000
 O      20.82300000      27.00900000      18.61000000
 H      21.42600000      27.70000000      19.07700000
 H      20.01200000      27.47200000      18.32700000
 O      12.02600000      26.18200000      15.82900000
 H      11.63000000      26.90500000      16.32300000
 H      12.51100000      26.69000000      15.19300000
 O      13.19500000      28.90900000      11.97800000
 H      13.46600000      28.70900000      11.04400000
 H      12.96200000      29.89800000      11.95800000
 O      11.35600000      28.97800000      16.34400000
 H      10.94800000      28.99800000      17.26600000
 H      10.98400000      29.91900000      15.99900000
 O      18.23200000      27.83000000      15.65700000
 H      18.42600000      27.71400000      14.74600000
 H      18.85500000      28.54400000      15.93300000
 O      14.14800000      33.05400000      11.22100000
 H      14.84000000      33.72900000      11.37800000
 H      13.87200000      33.10700000      10.23900000
 O      18.60400000      36.67000000      13.38500000
 H      19.41600000      36.64800000      13.82600000
 H      17.86900000      36.87800000      14.05200000
 O      20.35200000      36.29200000      15.91000000
 H      21.12900000      36.14800000      16.55000000
 H      20.75500000      35.74900000      15.18500000
 O      12.30700000      34.79500000      19.85000000
 H      12.87600000      35.52600000      20.07700000
 H      11.37600000      35.12100000      19.79500000
 O      10.08200000      32.71000000      14.46800000
 H      10.91200000      33.25700000      14.50000000
 H       9.46000000      33.43300000      14.76800000
 O      11.14700000      33.13900000      18.11300000
 H      11.63200000      33.74100000      18.70700000
 H      10.37900000      33.61100000      17.91300000
 O      19.22600000      34.18400000      18.18800000
 H      18.46000000      34.18200000      18.72200000
 H      19.95200000      33.77900000      18.72000000
 O      13.65500000      36.04200000      13.61400000
 H      13.87800000      36.69800000      14.38200000
 H      14.36500000      36.11800000      12.98300000
 O      15.84200000      36.65600000      11.65500000
 H      16.60900000      37.23700000      11.83500000
 H      16.32600000      35.83600000      11.59000000
 O      14.81900000      35.27600000      18.10100000
 H      15.10500000      35.43300000      19.03900000
 H      14.09400000      34.63100000      18.11400000
 O      20.73100000      34.00000000      13.94400000
 H      19.80500000      33.88500000      14.30500000
 H      20.56800000      34.14000000      13.04600000
 O      16.77000000      33.53900000      20.00900000
 H      17.23400000      33.19300000      20.75800000
 H      16.00900000      34.02100000      20.41300000
 O      11.05900000      37.33900000      11.45800000
 H      10.38800000      36.71200000      11.76500000
 H      11.63500000      36.81400000      10.87500000
 O      13.36100000      36.04300000      10.22300000
 H      13.81400000      36.06900000       9.37700000
 H      14.04400000      36.13500000      10.92100000
 O      17.38100000      34.03000000      12.15000000
 H      17.80400000      33.24700000      12.47100000
 H      17.86000000      34.72500000      12.64600000
 O      14.29400000      36.95100000      16.10100000
 H      14.57700000      36.33700000      16.81900000
 H      15.03000000      37.58800000      16.10900000
 O      11.00800000      35.21300000      16.08900000
 H      11.71000000      35.19800000      15.41400000
 H      11.22100000      35.96100000      16.68400000
 O      20.36500000      34.80100000      11.41000000
 H      20.23600000      34.27200000      10.54500000
 H      21.34400000      34.90000000      11.46900000
 O      15.64400000      32.63300000      15.48100000
 H      15.22200000      32.95500000      14.65200000
 H      14.97100000      32.77500000      16.21900000
 O      18.49300000      36.34200000       9.98200000
 H      19.34300000      36.77500000       9.66600000
 H      19.03800000      35.74500000      10.63200000
 O      17.72300000      36.86000000      18.06700000
 H      18.45100000      36.18000000      17.91000000
 H      17.73900000      36.98600000      19.01500000
 O      12.35700000      33.66100000      13.14600000
 H      12.78400000      33.33000000      12.35000000
 H      12.82000000      34.54900000      13.32800000
