120
XYZ file of cluster: frame_6000_97dd9.4cb1a.2ff6 - created by MolEdiTo
 O      27.21600000      17.15400000       2.76500000
 H      28.21800000      17.03100000       2.68900000
 H      26.90800000      16.26200000       2.78500000
 O      22.61600000      17.54300000       6.85900000
 H      22.96700000      16.68600000       7.01200000
 H      21.86500000      17.69400000       7.40900000
 O      26.97700000      14.47000000       5.38400000
 H      26.63800000      13.57300000       5.12400000
 H      27.23200000      14.30500000       6.32800000
 O      27.45300000      20.14000000       3.63700000
 H      27.35700000      19.19900000       3.33700000
 H      27.41600000      20.19100000       4.59300000
 O      23.40000000      19.36300000       9.70400000
 H      22.96000000      20.22500000       9.70800000
 H      23.02400000      18.94300000       8.98200000
 O      23.50400000      17.24300000       3.76300000
 H      23.06300000      16.82900000       2.97500000
 H      22.69200000      17.19600000       4.38500000
 O      29.05700000      21.85000000       1.68800000
 H      28.35700000      21.62400000       1.00300000
 H      29.25900000      20.94800000       2.12000000
 O      22.74500000      20.09800000       4.72900000
 H      22.76000000      19.29900000       5.24200000
 H      23.63500000      20.53900000       4.85900000
 O      28.52900000      20.63300000       6.39200000
 H      28.74800000      21.43200000       6.91100000
 H      29.33300000      20.01600000       6.43500000
 O      25.18500000      18.53600000       5.68400000
 H      25.00200000      18.52000000       4.72300000
 H      24.31900000      18.28100000       6.01600000
 O      27.47900000      11.49100000       3.84200000
 H      27.13800000      10.53000000       3.86200000
 H      28.10200000      11.60900000       4.62000000
 O      21.50200000      13.38200000       2.46200000
 H      20.77500000      12.85000000       2.66800000
 H      21.94600000      12.97400000       1.65800000
 O      21.07200000      20.57100000       7.34000000
 H      21.54800000      20.96300000       8.11400000
 H      21.62000000      20.72800000       6.46800000
 O      28.98400000      21.55400000      11.09800000
 H      28.30100000      20.83900000      11.21200000
 H      29.04900000      21.71300000      10.08300000
 O      30.44900000      18.44500000       5.87000000
 H      29.61500000      17.88200000       5.81400000
 H      31.03700000      17.91500000       5.27000000
 O      26.18700000      10.53200000       0.62600000
 H      26.04600000      11.51100000       0.38400000
 H      25.61100000      10.39600000       1.41200000
 O      29.88600000      13.22700000       8.76400000
 H      29.73400000      12.34000000       8.42400000
 H      30.26400000      13.74900000       7.98700000
 O      27.85000000      17.38700000       6.37800000
 H      27.92700000      17.66200000       7.31000000
 H      26.94700000      17.48200000       6.23400000
 O      27.40500000      19.83000000       8.93100000
 H      27.57900000      20.10400000       8.02600000
 H      28.11200000      19.20000000       9.19900000
 O      29.37500000      15.08700000       3.57700000
 H      28.90400000      15.11800000       4.36900000
 H      28.84700000      14.57000000       2.91500000
 O      23.38900000      10.76500000       6.42500000
 H      23.45700000      11.81800000       6.37700000
 H      24.02500000      10.64000000       7.11600000
 O      24.62000000      21.19800000       7.33400000
 H      24.36600000      20.95700000       8.27000000
 H      25.10500000      20.37200000       7.09500000
 O      26.17300000      21.59700000       1.00800000
 H      26.60600000      21.76900000       1.83300000
 H      26.14700000      20.62300000       1.00800000
 O      22.56200000      15.78600000       1.47500000
 H      23.01200000      14.97300000       1.20700000
 H      21.71600000      15.47100000       1.74700000
 O      28.11600000      10.78900000       7.72000000
 H      28.76700000      10.62000000       8.37900000
 H      27.74600000       9.91200000       7.67200000
 O      28.79600000      13.51400000      11.17700000
 H      29.02900000      13.90500000      10.35000000
 H      28.47900000      14.18100000      11.83600000
 O      26.06400000      16.43200000      10.33800000
 H      25.83000000      16.18700000       9.36300000
 H      25.82500000      17.41000000      10.34600000
 O      23.34000000      10.80400000      10.54500000
 H      22.82100000      11.10400000       9.76400000
 H      24.17900000      11.27800000      10.48600000
 O      24.11700000      10.69300000       2.55200000
 H      24.34300000      10.58000000       3.47100000
 H      23.37700000      11.27800000       2.60000000
 O      29.74000000      11.54700000       5.45500000
 H      30.32100000      10.89100000       4.97800000
 H      29.50200000      11.17400000       6.32600000
 O      25.94700000      12.89100000       8.09100000
 H      26.45200000      12.07500000       8.12400000
 H      25.77600000      13.05700000       9.03600000
 O      30.04200000      11.80200000       2.23700000
 H      30.54000000      10.91300000       2.22400000
 H      29.29400000      11.68200000       2.82100000
 O      29.21900000      14.24700000       1.01600000
 H      29.50100000      13.28000000       0.96900000
 H      29.82500000      14.80300000       0.43800000
 O      23.43400000      13.35600000       5.21900000
 H      23.92800000      13.61800000       4.37000000
 H      22.91400000      14.20700000       5.25400000
 O      29.38300000      17.71100000       9.10500000
 H      28.97900000      17.04800000       9.77500000
 H      30.32000000      17.70400000       9.28600000
 O      20.65000000      19.78600000       1.55400000
 H      21.32000000      20.36200000       1.95000000
 H      19.76100000      20.18500000       1.69400000
 O      25.22600000      13.22500000       3.17500000
 H      26.08600000      12.78900000       3.23700000
 H      25.31300000      13.81000000       2.30900000
 O      25.14000000      15.47000000       7.60000000
 H      25.80500000      15.48700000       6.91800000
 H      25.00200000      14.56400000       7.87000000
 O      23.19400000      18.85400000       1.55500000
 H      22.16300000      18.93500000       1.55100000
 H      23.41600000      18.33800000       2.36500000
 O      25.96000000      18.63100000       0.83800000
 H      24.95000000      18.65000000       0.96000000
 H      26.30800000      17.98600000       1.58600000
