93
XYZ file of cluster: frame_6000_21f0.c75b3.9eeb7 - created by MolEdiTo
 O       5.62800000      30.29600000      26.06800000
 H       6.22400000      29.54200000      26.07800000
 H       5.88300000      30.75100000      25.25800000
 O       1.07500000      29.57700000      26.29400000
 H       0.27600000      29.03600000      26.33400000
 H       0.98400000      30.25100000      26.97900000
 O       6.86700000      28.21500000      29.33300000
 H       7.19800000      28.49800000      28.44700000
 H       5.89800000      28.36200000      29.37900000
 O       8.20500000      28.82200000      26.95200000
 H       8.74300000      28.47700000      26.27600000
 H       8.90000000      29.41700000      27.41800000
 O       5.99500000      27.00600000      26.54000000
 H       6.78000000      27.49400000      26.94700000
 H       5.19200000      27.54600000      26.69600000
 O       2.94900000      27.15700000      24.85100000
 H       3.15800000      27.95000000      25.29900000
 H       3.13900000      27.46000000      23.96100000
 O      10.42500000      29.32000000      24.03900000
 H      11.09300000      29.46200000      24.80600000
 H      10.87100000      28.60600000      23.48700000
 O      10.24600000      30.72600000      21.68400000
 H       9.51500000      31.26600000      21.69900000
 H      10.24200000      30.28100000      22.56700000
 O       7.43600000      29.34800000      24.06100000
 H       8.38900000      29.27600000      24.06000000
 H       7.17800000      29.62900000      23.19200000
 O       4.42900000      28.03500000      22.17300000
 H       3.65800000      27.75200000      21.68400000
 H       4.94400000      28.25700000      21.36300000
 O       1.98500000      26.94900000      21.40000000
 H       1.20800000      27.48200000      21.30700000
 H       1.57400000      26.04700000      21.35500000
 O       4.09200000      28.67300000      28.15800000
 H       3.70400000      28.61800000      29.09400000
 H       3.69100000      29.48800000      27.82700000
 O       7.80400000      26.42100000      23.31800000
 H       7.37700000      27.19200000      23.68400000
 H       7.14700000      25.91700000      22.76900000
 O      10.01600000      26.55400000      25.22400000
 H       9.19800000      26.26100000      24.79600000
 H      10.56800000      25.76500000      25.46200000
 O       9.28000000      34.88500000      23.07700000
 H       8.67600000      34.77800000      23.89200000
 H       8.71100000      35.37000000      22.44600000
 O       9.79500000      32.85000000      27.78100000
 H      10.63100000      32.88500000      28.29400000
 H      10.03700000      33.20000000      26.85500000
 O       1.78700000      36.50800000      24.22500000
 H       2.58900000      37.03000000      23.96300000
 H       2.15100000      35.61800000      24.42500000
 O       4.70800000      32.42900000      22.15600000
 H       4.23900000      32.24600000      21.32100000
 H       4.64700000      31.55300000      22.68200000
 O       2.01400000      32.75100000      20.74700000
 H       1.69300000      32.70600000      21.64000000
 H       1.66200000      33.59400000      20.45700000
 O       5.02700000      34.62100000      26.06900000
 H       4.61600000      33.76400000      25.93300000
 H       5.83900000      34.31100000      26.56800000
 O       1.11200000      34.62800000      26.90500000
 H       1.44800000      35.38200000      27.39000000
 H       1.67600000      34.46500000      26.16400000
 O       7.66400000      34.41300000      27.30100000
 H       8.38500000      33.81800000      27.53300000
 H       7.98500000      34.97400000      26.53300000
 O       4.68900000      35.12300000      21.43400000
 H       4.58300000      34.49500000      22.21200000
 H       4.00100000      35.85900000      21.58400000
 O       2.19400000      32.44300000      28.56500000
 H       2.17100000      32.20800000      29.52500000
 H       1.78900000      33.33000000      28.45900000
 O       7.21000000      32.47000000      21.10900000
 H       7.03400000      31.81100000      20.35800000
 H       6.22400000      32.53200000      21.52700000
 O       6.82600000      36.59000000      23.10800000
 H       5.92900000      36.45600000      23.38900000
 H       6.75700000      37.09100000      22.27900000
 O       2.90900000      35.38900000      29.87700000
 H       2.12100000      35.72800000      30.39800000
 H       2.95300000      35.94100000      29.03200000
 O      10.09000000      34.30700000      30.50300000
 H      10.53700000      33.41300000      30.63900000
 H       9.16300000      34.09500000      30.54500000
 O       4.56800000      36.78800000      24.50200000
 H       4.64400000      37.41600000      25.22100000
 H       4.71500000      35.92200000      24.98500000
 O       2.12200000      33.71000000      24.29200000
 H       2.77400000      33.03900000      24.16900000
 H       1.24600000      33.28300000      24.13800000
 O       5.78700000      33.17300000      28.89100000
 H       6.38700000      33.86900000      28.41900000
 H       5.70900000      32.48500000      28.21200000
