114
XYZ file of cluster: frame_6000_47fc8.a2a64.22d0e - created by MolEdiTo
 O      21.49900000      22.57100000      15.08600000
 H      21.14800000      21.77700000      14.76500000
 H      21.01300000      23.26600000      14.67000000
 O      21.38600000      21.27400000      10.33100000
 H      21.47500000      21.55300000      11.24500000
 H      20.47100000      21.44600000      10.08300000
 O      14.91800000      28.31700000       9.85500000
 H      15.40300000      27.69600000       9.29000000
 H      15.24100000      28.06600000      10.75500000
 O      14.68800000      25.72600000      13.69100000
 H      14.38300000      26.58700000      14.02900000
 H      13.81100000      25.49600000      13.19600000
 O      11.90500000      23.07400000       6.42000000
 H      12.86800000      23.25700000       6.21700000
 H      11.68500000      22.46900000       5.70700000
 O      13.76500000      24.68200000       9.64400000
 H      13.50500000      25.44800000      10.33300000
 H      14.71400000      24.76500000       9.39300000
 O      13.39100000      28.23200000      14.59400000
 H      13.00000000      28.99400000      15.05100000
 H      13.72400000      28.66600000      13.74500000
 O      10.02200000      24.43900000       8.04900000
 H      10.67500000      23.94200000       7.40200000
 H       9.36700000      23.83500000       8.34700000
 O      18.04600000      22.07700000      13.26600000
 H      17.33100000      22.74800000      13.27300000
 H      17.85600000      21.35800000      12.66500000
 O      12.30700000      26.39600000       7.99800000
 H      12.86300000      25.65700000       8.43900000
 H      11.41200000      26.05700000       7.82200000
 O      19.51900000      29.18100000      11.51900000
 H      19.16400000      28.24000000      11.44400000
 H      19.08500000      29.53900000      12.29300000
 O      10.64200000      23.03800000      14.13200000
 H      11.43100000      22.45100000      14.16900000
 H      10.97700000      23.69100000      14.84100000
 O       9.99700000      26.43700000       9.99500000
 H      10.78700000      26.23300000      10.48000000
 H       9.87100000      25.68200000       9.39900000
 O      12.41900000      26.24300000      12.08800000
 H      12.76200000      27.16400000      11.89600000
 H      11.62700000      26.42400000      12.63800000
 O      16.80400000      30.79100000       9.81700000
 H      17.36900000      31.02000000      10.59100000
 H      15.90800000      30.54200000      10.19500000
 O      18.87900000      21.62000000       9.83800000
 H      18.16400000      21.02100000      10.16600000
 H      18.29900000      22.32200000       9.40600000
 O      14.12100000      25.10800000       5.25300000
 H      13.51900000      25.78000000       4.94300000
 H      14.13000000      24.54300000       4.46000000
 O      18.79300000      26.16800000      11.59700000
 H      19.11700000      25.57900000      12.34300000
 H      19.11800000      25.76500000      10.81700000
 O      19.44300000      29.74600000       6.64400000
 H      20.03800000      29.24500000       7.33200000
 H      19.88600000      29.54300000       5.81100000
 O      18.11900000      30.30800000      13.56500000
 H      18.73800000      30.45200000      14.37200000
 H      17.15100000      30.11700000      13.88100000
 O      16.31300000      23.97300000      12.11500000
 H      15.72600000      24.43500000      12.81400000
 H      16.28800000      24.46400000      11.28800000
 O      14.57100000      21.83700000       6.27300000
 H      13.86900000      21.26900000       5.93900000
 H      14.49200000      21.59600000       7.22100000
 O      16.36700000      27.51700000      12.23400000
 H      15.86400000      27.06300000      12.99100000
 H      17.11000000      26.88100000      12.06400000
 O      14.82400000      28.37200000       4.91300000
 H      15.66500000      28.60500000       5.37200000
 H      14.10500000      28.23100000       5.55800000
 O      17.89000000      27.18800000       5.28600000
 H      18.19200000      26.40800000       4.75600000
 H      18.67800000      27.73300000       5.39200000
 O      14.17900000      21.60500000      12.55200000
 H      14.71600000      21.77200000      11.78200000
 H      14.79200000      21.13900000      13.18000000
 O      12.17000000      22.18200000      10.03900000
 H      12.67400000      23.01400000      10.26600000
 H      12.43800000      21.78700000       9.18700000
 O      19.57900000      24.57600000      13.75000000
 H      19.20200000      25.13700000      14.55200000
 H      19.19700000      23.66300000      13.77100000
 O      10.70900000      29.16400000       9.40800000
 H      10.74900000      28.22500000       9.63700000
 H      10.58000000      29.21900000       8.47900000
 O      16.44600000      25.11700000       9.33400000
 H      16.77600000      25.70700000       8.59900000
 H      17.00900000      24.30900000       9.15800000
 O      12.02600000      26.18200000      15.82900000
 H      11.63000000      26.90500000      16.32300000
 H      12.51100000      26.69000000      15.19300000
 O      16.71000000      30.26800000       6.54200000
 H      16.33000000      30.23900000       7.35300000
 H      17.66400000      30.07800000       6.71800000
 O      19.57200000      24.31800000       9.48000000
 H      20.39600000      23.83900000       9.33900000
 H      19.18900000      23.95800000       8.69700000
 O      13.19500000      28.90900000      11.97800000
 H      13.46600000      28.70900000      11.04400000
 H      12.96200000      29.89800000      11.95800000
 O      18.00700000      22.87100000       7.42000000
 H      18.71900000      22.23500000       7.05900000
 H      17.15600000      22.46200000       7.10500000
 O      16.00100000      26.96900000       7.31900000
 H      16.70900000      27.01200000       6.58300000
 H      15.28400000      26.51200000       6.87900000
 O      18.23200000      27.83000000      15.65700000
 H      18.42600000      27.71400000      14.74600000
 H      18.85500000      28.54400000      15.93300000
 O      13.18100000      29.00800000       7.12500000
 H      13.98000000      28.60300000       7.56500000
 H      12.51200000      28.27300000       7.41200000
