105
XYZ file of cluster: frame_6000_9b841.1abe.52512 - created by MolEdiTo
 O      22.80500000       4.19000000      17.32100000
 H      23.01200000       3.23500000      17.07400000
 H      23.69200000       4.63400000      17.49400000
 O      30.40900000       9.93600000      11.49400000
 H      29.54700000      10.44000000      11.46600000
 H      31.03900000      10.60200000      11.93400000
 O      25.36600000       4.63400000      18.94700000
 H      25.63200000       3.66700000      18.90100000
 H      25.35000000       4.93700000      19.85300000
 O      27.49300000      10.38300000      17.09400000
 H      26.61800000      10.15700000      16.75800000
 H      28.05100000      10.70100000      16.35300000
 O      29.97500000       1.20400000      11.66600000
 H      30.84200000       1.71400000      11.50600000
 H      29.38600000       1.34800000      10.84500000
 O      22.52000000       6.38100000      14.24500000
 H      23.39700000       6.56600000      13.87500000
 H      22.62300000       5.84000000      15.07400000
 O      23.01300000       7.63600000      10.97600000
 H      23.69800000       7.13400000      11.45800000
 H      23.02700000       8.59100000      11.27900000
 O      28.80600000       4.51900000      17.29900000
 H      27.87600000       4.15500000      17.27000000
 H      29.07300000       4.57300000      16.36700000
 O      27.62800000       4.21300000      11.94100000
 H      27.54500000       3.26900000      12.16200000
 H      28.47700000       4.29200000      11.44300000
 O      24.34100000       9.76700000      18.78100000
 H      23.37300000       9.92900000      18.89900000
 H      24.51800000       8.81300000      19.04600000
 O      26.73400000       4.12200000      14.59500000
 H      27.37900000       4.19300000      13.86500000
 H      26.69600000       4.97100000      15.05900000
 O      29.34900000       6.14400000      13.75000000
 H      29.81300000       5.26600000      13.47800000
 H      28.96800000       6.55200000      12.89500000
 O      23.87400000       3.51400000      14.32200000
 H      24.81200000       3.73500000      14.16900000
 H      23.80800000       3.07800000      15.24600000
 O      25.52600000       9.17700000      12.76000000
 H      25.50100000       8.25700000      12.45500000
 H      26.39900000       9.41400000      12.35800000
 O      23.30900000       1.66700000      16.89000000
 H      23.06200000       1.18600000      16.04600000
 H      24.00200000       1.14900000      17.29900000
 O      29.53300000       6.32500000      20.86200000
 H      29.74600000       6.94800000      21.67400000
 H      30.14300000       6.45200000      20.14600000
 O      28.49900000       7.59100000      11.66400000
 H      28.27900000       8.46700000      11.96400000
 H      28.95500000       7.83200000      10.85300000
 O      25.83900000       1.67300000      15.35700000
 H      25.82700000       1.02400000      14.57700000
 H      26.07900000       2.60500000      15.04900000
 O      21.74600000       9.59900000      17.79400000
 H      21.25800000       8.71400000      17.94800000
 H      20.98100000      10.17500000      17.73200000
 O      26.39500000       6.76000000      15.54000000
 H      26.39900000       6.94100000      16.48500000
 H      27.12800000       7.27300000      15.24400000
 O      21.08600000       6.90500000      17.83700000
 H      20.47700000       6.44400000      17.17300000
 H      21.91900000       6.81200000      17.30900000
 O      28.89600000       9.04000000      19.29900000
 H      28.74500000       8.71800000      18.36200000
 H      29.62000000       9.69400000      19.18100000
 O      22.33900000       3.01200000      21.06600000
 H      21.91000000       3.51100000      21.79700000
 H      21.99700000       3.53600000      20.31800000
 O      29.85700000       2.79400000      14.29500000
 H      30.02000000       3.26000000      13.40400000
 H      29.28000000       1.99500000      14.15900000
 O      20.36500000       3.24800000      11.41000000
 H      20.23600000       2.71900000      10.54500000
 H      21.34400000       3.34700000      11.46900000
 O      26.32800000       7.25900000      18.45300000
 H      25.93100000       6.29400000      18.44200000
 H      26.99000000       7.43900000      19.21100000
 O      23.66200000       7.38100000      16.84800000
 H      24.54300000       7.52300000      16.57800000
 H      23.33900000       8.16700000      17.33000000
 O      30.62100000       4.18800000      11.92400000
 H      31.38600000       4.48500000      12.51700000
 H      31.00900000       4.04300000      11.01700000
 O      22.32500000       9.38700000      14.87000000
 H      22.90300000       9.28300000      15.70200000
 H      22.18900000       8.53400000      14.45700000
 O      26.47100000       9.54100000      20.99000000
 H      27.16700000       9.48900000      20.29300000
 H      26.35100000      10.49900000      21.11000000
 O      24.92000000       6.05000000      12.62600000
 H      25.60500000       5.66200000      12.06100000
 H      25.38000000       6.24700000      13.43300000
 O      26.13300000       1.90700000      18.18900000
 H      26.06000000       1.88400000      17.21100000
 H      26.86500000       1.18000000      18.24400000
 O      25.64800000       1.17300000      12.60600000
 H      25.43900000       0.21600000      12.53100000
 H      24.79100000       1.61200000      12.41400000
 O      23.49300000       3.57600000      11.63600000
 H      23.47100000       3.72200000      12.60300000
 H      24.36600000       4.01900000      11.30000000
 O      23.18500000       7.10200000      20.88700000
 H      22.37000000       6.61500000      20.58400000
 H      23.85500000       6.44100000      20.69900000
