315
XYZ file of cluster: frame_10000_23419.e26.75b4f - created by MolEdiTo
 O      21.61000000       5.99000000      24.66000000
 H      21.86000000       6.87200000      24.27600000
 H      20.73000000       6.20400000      25.03000000
 O       9.66500000       1.05600000      24.89900000
 H       9.61800000       0.15100000      24.45800000
 H       9.41000000       0.80900000      25.85800000
 O      17.93100000       8.67100000      28.46400000
 H      18.20700000       9.53700000      28.04000000
 H      18.62900000       8.59200000      29.17800000
 O      11.63900000      14.44100000      25.84900000
 H      11.79400000      13.74900000      26.57800000
 H      12.30500000      15.09500000      26.16700000
 O      11.43800000      14.11300000      20.95600000
 H      11.37900000      14.64800000      21.78400000
 H      11.11900000      13.27200000      21.29300000
 O      17.31800000      12.30800000      24.84000000
 H      16.87900000      12.03900000      25.67000000
 H      16.53500000      12.72700000      24.40000000
 O      18.56100000      11.31000000      22.24900000
 H      17.86900000      11.58100000      22.85200000
 H      19.23400000      11.91000000      22.43500000
 O      15.82200000      13.69500000      33.50500000
 H      15.72500000      13.30500000      34.39200000
 H      16.72400000      13.25900000      33.26600000
 O      17.10900000      11.82500000      29.86900000
 H      16.15600000      11.97900000      29.76900000
 H      17.26100000      11.93500000      30.77800000
 O       6.92400000       1.91000000      34.46900000
 H       7.75300000       2.10400000      35.00400000
 H       6.77900000       2.74800000      33.97800000
 O       7.45400000      11.43300000      28.12100000
 H       7.95400000      11.20800000      27.32900000
 H       8.21900000      11.48200000      28.79200000
 O       8.38800000      11.99200000      23.77100000
 H       7.47200000      11.61300000      23.62300000
 H       8.21100000      12.91900000      23.48100000
 O      17.79200000       4.50200000      35.34200000
 H      17.13700000       4.66000000      34.65000000
 H      18.30200000       5.39400000      35.32400000
 O       8.99900000      10.77700000      25.95100000
 H       9.55300000      10.14400000      25.38700000
 H       8.76600000      11.43900000      25.23600000
 O       6.81600000       3.47100000      27.29300000
 H       7.36600000       3.56900000      28.07000000
 H       6.09600000       2.91600000      27.69100000
 O      14.89400000       5.13100000      27.87500000
 H      15.50000000       5.51800000      28.54700000
 H      14.08800000       5.05200000      28.41600000
 O      15.98000000       4.68400000      33.35300000
 H      15.80100000       3.71200000      33.16000000
 H      15.21700000       4.91400000      33.95200000
 O      15.40800000       9.62300000      24.19300000
 H      15.35700000      10.07000000      23.32800000
 H      16.25600000       9.13400000      24.06500000
 O      21.05800000       7.74500000      27.90500000
 H      20.34200000       7.38400000      27.31800000
 H      21.79200000       7.53000000      27.33800000
 O      11.36200000       5.63300000      22.52000000
 H      11.18000000       4.83100000      23.07500000
 H      11.26600000       5.20900000      21.66100000
 O       9.57100000       8.90000000      30.37400000
 H       9.27800000       9.05200000      31.22800000
 H       8.85600000       8.47500000      29.89800000
 O      16.51300000       6.41200000      22.04600000
 H      16.69300000       6.55300000      21.11900000
 H      15.58600000       6.62500000      22.13400000
 O       8.63800000      14.36500000      26.56500000
 H       9.17900000      15.15800000      26.63700000
 H       9.31900000      13.63100000      26.50700000
 O      10.99600000       6.63500000      27.11300000
 H      10.36600000       6.14400000      26.54400000
 H      10.78900000       6.27300000      28.02400000
 O      20.84000000      14.51600000      33.33200000
 H      21.53800000      13.86300000      33.20100000
 H      20.21800000      14.36500000      32.63300000
 O      14.22400000      14.53800000      30.14100000
 H      14.37500000      13.57000000      29.99600000
 H      13.54700000      14.40700000      30.80100000
 O       9.42700000       8.04500000      21.80000000
 H       8.66500000       7.39200000      21.72800000
 H      10.17200000       7.41900000      21.77600000
 O      20.98100000      14.09400000      27.57000000
 H      20.38400000      13.29400000      27.49500000
 H      20.22700000      14.79400000      27.59500000
 O      14.34600000      12.96900000      26.94800000
 H      13.40300000      12.81400000      27.20900000
 H      14.76300000      12.11800000      26.97600000
 O      19.30800000       6.54900000      26.01200000
 H      18.87200000       7.19300000      25.44600000
 H      18.54200000       5.88300000      26.08300000
 O      17.87300000       8.14000000      23.94800000
 H      18.47300000       8.51800000      23.30900000
 H      17.43000000       7.45800000      23.35900000
 O       7.33100000       1.18700000      22.02300000
 H       8.03600000       1.81900000      22.29400000
 H       6.64300000       1.87300000      21.81200000
 O      10.61200000       4.78100000      29.41200000
 H       9.67100000       4.81100000      29.77300000
 H      11.05400000       5.26700000      30.09000000
 O      19.77900000       9.61600000      31.11900000
 H      20.53400000       9.88700000      30.50600000
 H      20.06400000      10.00900000      31.97100000
 O       8.40000000      10.52400000      21.18400000
 H       8.77000000       9.59300000      21.11200000
 H       7.57900000      10.38600000      21.60300000
 O       9.49100000      13.38300000      34.22700000
 H       9.10000000      13.41500000      35.07600000
 H      10.46500000      13.66400000      34.36700000
 O      20.96300000       5.69400000      32.46000000
 H      20.08200000       5.21000000      32.64400000
 H      20.69200000       5.95700000      31.54100000
 O      14.45500000      11.86900000      30.06000000
 H      13.82300000      11.32700000      29.57900000
 H      14.66000000      11.29100000      30.84900000
 O       9.98200000      11.44400000      29.41500000
 H      10.30400000      11.78300000      30.26800000
 H      10.00900000      10.47200000      29.60600000
 O      12.17000000       9.87700000      33.92200000
 H      11.46500000      10.11800000      34.54300000
 H      12.95600000      10.05700000      34.50000000
 O      11.75000000       5.10700000      32.36500000
 H      12.33500000       5.88700000      32.47800000
 H      10.97200000       5.36100000      32.88500000
 O      18.84300000       1.71800000      25.12600000
 H      18.91100000       2.64400000      24.77600000
 H      17.94500000       1.83100000      25.54400000
 O      12.35800000       2.82500000      33.82100000
 H      12.96300000       3.44100000      34.36200000
 H      11.91200000       3.46600000      33.23700000
 O      18.67700000       4.53600000      28.62300000
 H      18.05100000       3.86200000      29.03600000
 H      18.27900000       4.55600000      27.71700000
 O      13.54400000       9.56500000      29.35300000
 H      13.05100000       8.74800000      29.48500000
 H      14.35100000       9.34700000      29.87400000
 O      18.97100000       4.02700000      32.39500000
 H      19.00300000       3.35800000      31.70900000
 H      18.00100000       4.14900000      32.59600000
 O      11.93000000       3.00000000      27.49300000
 H      12.26100000       3.47200000      26.66700000
 H      11.54900000       3.78700000      27.99000000
 O      15.01700000       4.23300000      22.64200000
 H      15.83900000       4.71700000      22.40400000
 H      14.36700000       5.00400000      22.74800000
 O       9.55100000       6.61900000      32.99700000
 H       8.64700000       6.57500000      32.74000000
 H       9.65600000       7.61400000      33.18700000
 O      11.57800000      11.61300000      31.64700000
 H      12.27900000      11.20100000      32.22500000
 H      11.80400000      12.55400000      31.75300000
 O       7.68800000       5.53500000      20.71500000
 H       6.90600000       4.92700000      20.96200000
 H       8.16100000       4.89200000      20.13700000
 O      13.32700000       1.25500000      30.55600000
 H      12.35400000       1.24000000      30.85200000
 H      13.46900000       0.31500000      30.39900000
 O      10.74600000      11.81300000      22.01000000
 H      10.16500000      11.33200000      21.41200000
 H      10.17800000      11.85200000      22.80700000
 O      21.33400000       9.56400000      21.53600000
 H      21.59900000      10.47100000      21.37500000
 H      20.84700000       9.60200000      22.38700000
 O      15.26200000       2.14400000      32.76600000
 H      15.66500000       1.48500000      32.17500000
 H      14.34200000       2.20000000      32.52300000
 O      19.54300000       1.75800000      30.36800000
 H      19.40900000       1.58400000      29.39300000
 H      19.74800000       0.99100000      30.79700000
 O      18.94200000      11.73500000      27.61900000
 H      18.34600000      12.03400000      28.35000000
 H      19.69200000      11.37700000      28.14000000
 O      15.97100000       8.01400000      33.81200000
 H      16.78000000       8.16800000      33.25100000
 H      16.12500000       7.04700000      33.99000000
 O      19.79700000       6.31700000      30.13300000
 H      20.34700000       6.84900000      29.48700000
 H      19.42700000       5.60300000      29.49500000
 O      19.21900000      14.03200000      23.29900000
 H      18.79100000      13.66900000      24.09000000
 H      18.47500000      14.63300000      23.01200000
 O      19.70500000       4.07300000      23.33200000
 H      20.49600000       4.50400000      23.68500000
 H      19.27600000       4.85800000      22.91200000
 O      15.30900000      10.99400000      32.71300000
 H      15.29800000      10.97800000      33.67200000
 H      15.52500000      11.91400000      32.47700000
 O      17.01200000       5.13500000      26.27500000
 H      16.75300000       4.23400000      26.08300000
 H      16.14900000       5.39200000      26.71600000
 O      15.62800000      10.78400000      26.81200000
 H      15.56500000      10.24900000      26.05100000
 H      16.18800000      10.26600000      27.41700000
 O      13.37300000       7.76500000      32.52200000
 H      14.31300000       8.00900000      32.68900000
 H      12.97200000       8.57700000      32.94700000
 O      12.56100000      13.22500000      23.67000000
 H      11.78000000      12.77500000      23.36300000
 H      12.20900000      13.81200000      24.33700000
 O      12.82800000       9.77300000      21.75300000
 H      12.68700000       9.64500000      22.73100000
 H      12.31200000      10.60100000      21.65200000
 O      10.83800000       1.90500000      31.08500000
 H      11.03000000       2.85700000      30.94900000
 H       9.97900000       1.84200000      30.63100000
 O      16.50200000       3.26000000      29.82100000
 H      16.16300000       4.08100000      30.33900000
 H      15.61600000       2.97400000      29.53500000
 O      15.18000000       1.72400000      23.74200000
 H      15.05200000       2.63200000      23.31600000
 H      16.00500000       1.48300000      23.22200000
 O      20.10200000       1.44800000      21.73100000
 H      19.95500000       2.20200000      22.35500000
 H      20.70800000       1.89900000      21.04700000
 O      12.81400000       9.19500000      24.51400000
 H      12.80000000       9.67300000      25.40300000
 H      13.78100000       9.22400000      24.36100000
 O       7.30800000       7.62300000      28.53000000
 H       7.48800000       7.75800000      27.56400000
 H       6.60800000       8.29100000      28.70600000
 O      11.87800000       7.68300000      30.01100000
 H      11.95100000       7.41600000      30.93400000
 H      11.04700000       8.26600000      30.09800000
 O      21.41500000       9.22500000      24.30200000
 H      22.02400000       9.19400000      24.95100000
 H      20.78100000       9.89700000      24.73800000
 O      20.90800000       3.26900000      27.78100000
 H      21.33400000       4.00100000      27.40400000
 H      20.15300000       3.74900000      28.23500000
 O       8.16600000       7.62000000      25.83700000
 H       8.50600000       6.74200000      25.62400000
 H       8.76800000       8.15700000      25.26900000
 O       7.82900000       5.17500000      30.13000000
 H       7.49400000       5.55400000      30.96000000
 H       7.64700000       5.90400000      29.47300000
 O       9.62000000       4.90300000      25.41900000
 H       9.01300000       4.14400000      25.61000000
 H       9.90600000       4.62900000      24.52500000
 O      19.89400000       7.25000000      21.96600000
 H      19.27400000       7.31800000      21.16400000
 H      20.51900000       7.98600000      21.75300000
 O      13.10500000       3.10000000      21.07000000
 H      13.68800000       3.36600000      21.87100000
 H      13.87300000       2.75000000      20.54400000
 O       7.79800000      12.22500000      32.45300000
 H       8.41800000      12.81600000      32.90100000
 H       8.09300000      12.38900000      31.53500000
 O      12.88200000       4.93600000      25.82300000
 H      13.79700000       5.20700000      26.08200000
 H      12.41600000       5.71700000      26.14500000
 O      13.86600000       7.32700000      21.87800000
 H      13.05000000       6.98700000      22.36700000
 H      13.54800000       8.23100000      21.64300000
 O      15.21200000       5.50700000      30.68000000
 H      14.95500000       5.34000000      31.61700000
 H      15.36700000       6.46400000      30.72100000
 O      19.89900000      11.04300000      25.25300000
 H      19.04200000      11.31900000      24.95100000
 H      19.88800000      11.36600000      26.17600000
 O       9.54100000      10.11000000      32.93600000
 H       8.76900000      10.71800000      32.75400000
 H      10.33200000      10.64200000      32.81000000
 O       6.84900000      13.78100000      20.52500000
 H       7.17900000      13.93800000      21.39300000
 H       6.57000000      14.75000000      20.33500000
 O      15.87600000       8.66500000      30.56700000
 H      16.52400000       8.44600000      29.87800000
 H      16.44300000       9.08500000      31.23700000
 O       6.54600000      10.08300000      31.76700000
 H       7.04900000      10.79100000      32.26600000
 H       6.02200000       9.74900000      32.54500000
 O       7.55500000       2.92200000      24.80500000
 H       7.23700000       2.98300000      25.70200000
 H       8.03600000       2.12300000      24.83700000
 O      16.98300000       1.25600000      22.02100000
 H      16.86700000       0.79600000      21.15000000
 H      17.85600000       1.66200000      21.92600000
 O      15.16700000      12.95200000      22.98100000
 H      14.23600000      12.88900000      23.29700000
 H      15.03100000      12.54300000      22.10800000
 O      16.36600000       2.15800000      26.07600000
 H      15.76500000       1.87700000      25.33200000
 H      15.86600000       1.87900000      26.85600000
 O       8.18500000       2.24000000      29.95900000
 H       7.95300000       3.18100000      30.09000000
 H       7.47800000       1.77900000      30.43900000
 O      10.62600000       3.15900000      23.37400000
 H      10.88900000       2.43500000      22.80200000
 H      10.17500000       2.63700000      24.10500000
 O      18.07300000      12.24800000      32.44300000
 H      18.91600000      11.88400000      32.96100000
 H      18.47100000      12.94000000      31.95200000
 O      14.43900000       1.62700000      28.22100000
 H      13.79100000       2.13300000      27.69300000
 H      14.04000000       1.73700000      29.14400000
 O      16.04900000      10.21000000      21.76300000
 H      16.91000000      10.32300000      21.39400000
 H      15.39500000      10.46500000      21.08900000
 O      12.07300000       9.79200000      27.09400000
 H      11.87600000       8.89800000      26.95600000
 H      12.55600000       9.82600000      27.99800000
 O      10.22900000       8.98300000      24.32900000
 H      11.12600000       8.98200000      24.54100000
 H      10.20400000       8.62400000      23.40700000
 O      20.49000000      11.13100000      33.31600000
 H      21.32300000      11.56500000      33.18800000
 H      20.60600000      10.64600000      34.15500000
 O       8.85600000       4.68800000      34.77700000
 H       9.17700000       5.23900000      34.08200000
 H       7.99200000       5.20200000      34.95000000
 O      11.65300000      12.45600000      27.64700000
 H      10.85300000      12.43400000      28.20400000
 H      11.71100000      11.51600000      27.39200000
 O      18.12500000       7.70600000      32.29500000
 H      18.83700000       8.36600000      31.94600000
 H      18.38800000       6.92000000      31.80000000
