762
XYZ file of cluster: frame_10000_9a57f.cef.9c194 - created by MolEdiTo
 O      31.10700000      36.69500000      34.08200000
 H      31.03700000      37.68800000      33.83800000
 H      30.24400000      36.53100000      34.46200000
 O      33.54600000       7.50200000      27.36900000
 H      33.81900000       8.15600000      26.70500000
 H      33.04500000       8.12100000      27.99600000
 O      40.08800000      33.26100000      30.61900000
 H      40.50200000      32.86600000      29.77800000
 H      40.85300000      33.18500000      31.20800000
 O      37.99500000      13.63500000      33.04000000
 H      37.94500000      13.81300000      33.99400000
 H      38.72700000      14.19900000      32.79000000
 O      39.40000000      26.87500000      38.04700000
 H      38.82800000      26.46000000      37.35900000
 H      38.62100000      27.19700000      38.60600000
 O      36.27500000       1.08500000      35.45700000
 H      36.45700000       1.89600000      34.88500000
 H      36.64100000       0.40900000      34.81500000
 O      37.09400000      27.69500000      38.91600000
 H      36.19700000      27.31200000      38.99000000
 H      36.90000000      28.61500000      39.15000000
 O      31.67400000      28.66100000      37.64100000
 H      32.30500000      29.37200000      37.60300000
 H      31.86500000      28.25900000      36.76000000
 O      37.91900000      18.82400000      35.97600000
 H      37.44400000      19.59800000      35.56600000
 H      37.43900000      18.11300000      35.51300000
 O      40.39800000      34.58100000      36.24100000
 H      41.30200000      34.75800000      35.82500000
 H      39.80700000      35.11800000      35.64300000
 O      33.43400000      38.17500000      27.81100000
 H      33.32300000      37.37700000      28.30900000
 H      34.36600000      38.32500000      27.89100000
 O      29.66600000      26.52400000      35.07500000
 H      28.98200000      26.20600000      35.67300000
 H      29.16900000      26.91700000      34.31300000
 O      38.82200000      18.83600000      27.72100000
 H      38.09900000      18.95300000      28.38100000
 H      38.89400000      19.76100000      27.37800000
 O      37.40800000      26.70000000      34.86800000
 H      36.44200000      26.68100000      34.68600000
 H      37.74200000      27.10000000      34.02600000
 O      28.43900000      24.70100000      38.41500000
 H      27.83300000      25.50500000      38.22400000
 H      28.37300000      24.32900000      37.46600000
 O      34.52300000      24.00500000      34.45800000
 H      34.34000000      23.25700000      33.89300000
 H      33.62200000      24.28800000      34.69700000
 O      38.60700000      27.97100000      32.71800000
 H      38.47100000      28.73500000      32.14600000
 H      38.92300000      27.29700000      32.08000000
 O      30.20400000      15.34300000      34.55700000
 H      29.60500000      16.14400000      34.40700000
 H      29.79600000      14.79300000      33.83300000
 O      34.06300000       5.81100000      31.64700000
 H      34.27600000       5.93500000      30.69500000
 H      33.39900000       6.51700000      31.73500000
 O      34.93000000       9.83600000      30.61600000
 H      35.28100000      10.59800000      31.18100000
 H      35.67600000       9.72800000      29.98400000
 O      40.70700000      20.64300000      39.96100000
 H      41.10000000      19.75000000      39.77300000
 H      40.13000000      20.77200000      39.14700000
 O      28.94900000       4.12800000      40.42400000
 H      28.44300000       3.41600000      40.89300000
 H      29.82700000       3.98100000      40.78000000
 O      32.31000000      12.60200000      36.33400000
 H      32.75200000      11.75300000      36.65500000
 H      31.86100000      12.18300000      35.54900000
 O      33.62000000       2.95700000      32.67900000
 H      33.52000000       3.69000000      32.09300000
 H      32.82000000       3.07000000      33.25800000
 O      33.74300000      30.27200000      38.73000000
 H      34.39400000      30.20000000      39.43500000
 H      33.25500000      31.08500000      39.07700000
 O      39.01600000       3.32100000      35.38200000
 H      39.31500000       2.45700000      35.55200000
 H      38.15600000       3.15100000      34.90400000
 O      30.61200000       9.75400000      39.15200000
 H      31.23800000       9.90000000      39.90700000
 H      30.45200000       8.81600000      39.18500000
 O      30.10200000      36.53400000      28.28000000
 H      31.06200000      36.56600000      28.46900000
 H      30.18700000      35.94300000      27.49400000
 O      27.30500000      20.93900000      35.08000000
 H      26.56200000      21.14800000      34.52200000
 H      28.10100000      21.31800000      34.61600000
 O      36.27600000      30.94700000      30.55600000
 H      35.78900000      31.25000000      31.38100000
 H      36.95200000      30.37200000      30.97400000
 O      40.03400000      10.70200000      35.03800000
 H      39.60300000      10.23300000      35.82200000
 H      39.25400000      10.65300000      34.43800000
 O      38.89700000      36.37000000      34.64800000
 H      38.16400000      36.21600000      33.92900000
 H      38.30100000      36.66800000      35.35000000
 O      33.97100000       5.48800000      35.48300000
 H      33.44000000       5.62300000      36.31700000
 H      33.37900000       5.00400000      34.94400000
 O      36.33200000      30.45600000      33.50100000
 H      37.18300000      30.07400000      33.82200000
 H      35.73100000      30.36100000      34.27900000
 O      37.58900000      29.22700000      36.16800000
 H      37.55300000      28.37900000      35.65700000
 H      36.67400000      29.32300000      36.49700000
 O      32.02800000      35.47000000      40.34100000
 H      32.00900000      36.10700000      39.62100000
 H      31.02200000      35.30100000      40.46800000
 O      29.49100000       8.03900000      37.00000000
 H      29.21100000       8.96900000      37.08700000
 H      28.68400000       7.66400000      36.56700000
 O      36.88300000      19.45100000      29.40500000
 H      36.15000000      20.09400000      29.32200000
 H      36.73300000      19.16400000      30.32900000
 O      30.00400000      10.48100000      27.56000000
 H      30.03600000      10.33000000      28.57100000
 H      29.48700000      11.34800000      27.58200000
 O      32.68900000      35.03400000      32.35000000
 H      31.72400000      34.73700000      32.06200000
 H      32.46800000      35.76600000      32.92000000
 O      39.90800000      37.40600000      38.27400000
 H      40.19800000      37.38000000      37.27000000
 H      40.36800000      38.24600000      38.46800000
 O      30.42400000       1.55200000      31.61200000
 H      29.77100000       2.09400000      32.16300000
 H      29.82500000       1.46000000      30.81700000
 O      37.10000000       4.05200000      39.50600000
 H      37.10800000       3.12400000      39.18500000
 H      37.05300000       4.53700000      38.65100000
 O      40.73900000      37.23500000      32.91000000
 H      40.05600000      36.83200000      33.50200000
 H      40.17600000      37.79800000      32.33200000
 O      27.92400000      29.35400000      37.24000000
 H      27.30000000      29.71800000      37.92800000
 H      28.65200000      29.08000000      37.86200000
 O      40.17500000       1.30600000      37.84400000
 H      39.96700000       1.15300000      36.89600000
 H      40.85300000       1.95800000      37.72900000
 O      39.55600000      30.83900000      35.88100000
 H      38.79500000      30.18200000      35.94100000
 H      39.93900000      30.48800000      35.02900000
 O      38.19000000      32.92100000      36.60600000
 H      38.55800000      32.06900000      36.26700000
 H      38.88400000      33.51400000      36.55000000
 O      32.55700000      15.14900000      29.73100000
 H      33.26300000      14.45200000      29.68900000
 H      32.01200000      14.75200000      30.45900000
 O      34.46700000      29.24000000      29.52500000
 H      35.05500000      30.04200000      29.75700000
 H      33.86600000      29.66700000      28.92100000
 O      33.68000000       1.43400000      35.76200000
 H      34.58100000       1.08100000      35.65000000
 H      33.58000000       1.57800000      36.71000000
 O      37.16300000      17.40000000      31.99700000
 H      38.12000000      17.35300000      31.72000000
 H      36.71800000      17.05800000      31.22800000
 O      35.00300000      27.02800000      36.74300000
 H      34.65900000      27.02800000      35.83900000
 H      34.24500000      27.40400000      37.28400000
 O      35.89400000      35.46100000      38.37600000
 H      35.15800000      36.04200000      38.20300000
 H      36.08800000      35.07900000      37.49700000
 O      32.12100000       6.67700000      37.66300000
 H      31.23200000       6.65000000      37.38500000
 H      32.21100000       5.89800000      38.19400000
 O      32.32200000      23.58700000      40.76700000
 H      32.94400000      22.94100000      41.10000000
 H      32.92400000      24.35100000      40.52800000
 O      37.98800000      23.60600000      37.78700000
 H      37.15300000      24.05700000      37.51500000
 H      37.61700000      22.66800000      37.64500000
 O      36.30000000      16.86300000      34.63900000
 H      36.55400000      17.04900000      33.71500000
 H      36.97100000      16.14200000      34.80500000
 O      33.37100000      34.84800000      35.31700000
 H      33.63200000      34.35200000      34.49700000
 H      34.16300000      34.67100000      35.85400000
 O      34.29200000       8.48400000      34.83100000
 H      35.18300000       8.63400000      35.19100000
 H      34.23000000       7.52900000      35.11700000
 O      36.36000000      20.93400000      32.13100000
 H      36.83800000      20.78200000      33.00400000
 H      35.41900000      21.05200000      32.48000000
 O      33.98600000      39.74400000      32.51400000
 H      33.94900000      39.22300000      33.35000000
 H      34.08800000      40.66700000      32.87900000
 O      37.37400000      39.39500000      33.58800000
 H      38.23200000      39.44800000      33.11500000
 H      36.88300000      38.85100000      33.03600000
 O      38.66700000       9.82700000      37.10400000
 H      37.84200000      10.33800000      37.35800000
 H      39.01100000       9.57400000      37.96600000
 O      32.96100000      33.01300000      39.71700000
 H      32.01200000      32.80200000      39.47600000
 H      32.75800000      33.87400000      40.20900000
 O      29.83600000      20.34300000      37.91400000
 H      30.03000000      21.19400000      38.24500000
 H      30.61700000      20.04200000      37.44600000
 O      27.94800000      13.00400000      40.07300000
 H      28.27800000      12.40500000      39.37000000
 H      28.69700000      13.64300000      40.10600000
 O      40.46300000      29.13300000      34.13600000
 H      39.77800000      28.52800000      33.77300000
 H      41.14100000      29.02500000      33.41500000
 O      32.88500000      15.52100000      33.85600000
 H      33.14800000      15.87600000      34.76700000
 H      31.92400000      15.48200000      34.08400000
 O      36.36400000      32.90100000      28.63800000
 H      37.35200000      32.94800000      28.58100000
 H      36.24800000      32.38800000      29.41600000
 O      28.65800000      21.00100000      29.98500000
 H      28.91900000      20.30000000      29.29000000
 H      28.27100000      20.42300000      30.67600000
 O      30.49100000      22.85900000      38.89800000
 H      31.19500000      23.20600000      39.42800000
 H      30.03100000      23.70700000      38.66500000
 O      33.30700000      19.57500000      29.77700000
 H      32.82600000      18.97500000      29.18200000
 H      33.50500000      18.87500000      30.48300000
 O      37.72300000      14.68900000      35.55600000
 H      38.47300000      14.32400000      36.12500000
 H      36.98300000      14.25400000      36.07500000
 O      39.25800000      16.54200000      38.06500000
 H      38.33000000      16.75500000      38.30200000
 H      39.17700000      15.61200000      37.83300000
 O      28.62900000      23.69600000      36.05300000
 H      27.98700000      24.12100000      35.48800000
 H      28.95400000      22.94100000      35.51700000
 O      31.99500000      18.80400000      37.21300000
 H      32.59600000      18.23600000      36.69000000
 H      32.59500000      19.00500000      37.96900000
 O      35.14700000      24.59200000      37.79200000
 H      34.70500000      23.86600000      37.30000000
 H      35.11700000      25.33300000      37.13400000
 O      35.01500000      15.72600000      38.43200000
 H      35.62600000      16.34300000      38.86300000
 H      34.28200000      15.70900000      39.04800000
 O      27.19800000       8.99300000      39.90600000
 H      26.96900000       9.40700000      40.74300000
 H      27.95600000       8.46800000      40.21500000
 O      30.03400000      32.23000000      39.56300000
 H      29.66400000      32.99500000      40.05800000
 H      29.66600000      31.49000000      40.06700000
 O      28.98700000      27.21800000      28.97300000
 H      28.43800000      27.13800000      28.10100000
 H      29.41900000      28.06300000      28.71600000
 O      27.43900000       4.89800000      38.12200000
 H      26.81800000       4.19600000      37.98800000
 H      27.95200000       4.64200000      38.88800000
 O      34.72100000      30.16200000      36.09300000
 H      33.83000000      30.55000000      35.87200000
 H      34.55500000      29.98200000      37.03400000
 O      36.87800000      40.16900000      30.85200000
 H      37.23200000      41.04700000      31.06000000
 H      36.01900000      40.45600000      30.41600000
 O      40.36800000      21.87300000      32.97000000
 H      41.15100000      22.29000000      32.53100000
 H      40.03100000      21.32700000      32.25900000
 O      36.24500000       4.97600000      37.06900000
 H      35.45000000       5.26400000      36.51400000
 H      36.02100000       4.02500000      37.08200000
 O      32.49300000      38.93000000      30.58400000
 H      33.20700000      38.97700000      29.92300000
 H      33.05800000      39.10400000      31.35800000
 O      31.64100000      37.22900000      38.39200000
 H      30.76000000      37.69600000      38.21400000
 H      31.48000000      36.40300000      37.79800000
 O      35.00500000       8.46600000      40.61700000
 H      35.12000000       8.89500000      41.47000000
 H      35.18600000       7.53700000      40.87900000
 O      27.74700000       4.68400000      32.13200000
 H      28.37600000       4.64500000      31.39300000
 H      27.90600000       3.77400000      32.57000000
 O      39.25300000      10.87900000      31.49600000
 H      39.70700000      11.69300000      31.47500000
 H      39.92900000      10.29800000      31.91800000
 O      28.41600000       1.76200000      38.03600000
 H      28.31700000       1.39600000      37.07000000
 H      27.70300000       1.20100000      38.43500000
 O      29.70400000      17.84900000      39.86600000
 H      29.42100000      18.53500000      40.39900000
 H      30.22300000      18.26700000      39.17000000
 O      33.18100000       4.69000000      39.12900000
 H      33.33400000       3.72300000      38.90900000
 H      34.07100000       5.01200000      38.76200000
 O      35.41400000       7.09600000      29.27100000
 H      35.95200000       7.88900000      29.35900000
 H      34.68900000       7.44200000      28.68700000
 O      39.05100000      12.71200000      40.33300000
 H      39.13300000      12.15000000      41.12100000
 H      38.07600000      12.97900000      40.42200000
 O      40.34800000      28.78700000      40.02100000
 H      39.95900000      28.25500000      39.29000000
 H      41.19100000      29.16300000      39.63200000
 O      39.50600000      14.14200000      29.02000000
 H      40.00200000      13.69000000      29.69300000
 H      39.17500000      14.91500000      29.53200000
 O      33.05400000      15.57000000      40.34600000
 H      32.93500000      14.66400000      40.63100000
 H      32.26100000      15.98900000      40.57400000
 O      28.90200000      24.32700000      28.09500000
 H      28.21900000      24.11600000      28.77100000
 H      28.93500000      25.29100000      28.16000000
 O      34.26800000      27.36900000      39.60900000
 H      33.51900000      27.97300000      39.37100000
 H      33.85700000      26.89200000      40.38000000
 O      33.96600000      37.66100000      34.62100000
 H      34.48200000      37.03500000      34.05500000
 H      33.11100000      37.25400000      34.50100000
 O      36.09200000       5.65500000      33.31000000
 H      35.17100000       5.79800000      32.96900000
 H      36.19600000       6.39700000      33.90400000
 O      37.11400000       9.69000000      29.22800000
 H      37.83800000       9.92200000      29.84300000
 H      37.48600000      10.03600000      28.41200000
 O      31.66500000      21.78100000      30.78400000
 H      30.84700000      21.39200000      31.11100000
 H      32.10400000      20.94600000      30.46800000
 O      34.00600000      16.69900000      36.13200000
 H      34.86600000      16.80300000      35.64800000
 H      34.36600000      16.17000000      36.92700000
 O      30.52800000      29.52100000      30.91100000
 H      30.47500000      30.33400000      30.41100000
 H      30.36500000      28.92000000      30.09100000
 O      33.12000000       9.04800000      32.38800000
 H      33.52000000       8.86400000      33.24100000
 H      33.96700000       9.30100000      31.93000000
 O      36.78100000      20.82000000      34.71000000
 H      36.97400000      21.81500000      34.79200000
 H      35.94400000      20.89500000      35.30600000
 O      40.57800000      24.60000000      30.01400000
 H      41.09900000      23.81000000      30.18100000
 H      40.39700000      24.41600000      29.05700000
 O      38.97700000      30.05600000      30.91000000
 H      39.53200000      30.75900000      31.29300000
 H      39.64000000      29.67600000      30.28100000
 O      35.84600000      25.12700000      31.70100000
 H      36.14300000      25.56400000      30.83900000
 H      36.41100000      24.36400000      31.70300000
 O      38.68300000      31.05200000      40.06300000
 H      39.24500000      31.35400000      39.33100000
 H      39.18400000      30.25000000      40.41300000
 O      33.78900000      17.80800000      31.97200000
 H      34.19400000      17.26500000      32.68400000
 H      32.90900000      17.86800000      32.36400000
 O      39.42900000      20.19100000      37.80600000
 H      38.97400000      19.55100000      37.25400000
 H      39.99200000      20.63500000      37.14400000
 O      29.68300000      10.36700000      30.25000000
 H      28.75200000      10.21800000      30.18400000
 H      29.95300000       9.65300000      30.84100000
 O      32.50900000      27.73700000      35.18600000
 H      33.13900000      27.62000000      34.55400000
 H      31.73600000      28.13400000      34.71600000
 O      30.51700000      17.46800000      30.86700000
 H      31.05600000      16.89700000      30.31200000
 H      29.73900000      17.63400000      30.25300000
 O      27.22300000      11.31200000      35.93300000
 H      27.85500000      11.68400000      36.57500000
 H      26.65700000      10.79600000      36.53300000
 O      27.50500000      28.60100000      34.78200000
 H      26.52400000      28.59700000      34.99900000
 H      27.85400000      28.72600000      35.66700000
 O      28.46800000      36.74400000      39.78500000
 H      28.88000000      37.43700000      39.16700000
 H      27.63600000      37.24600000      40.03100000
 O      34.66400000      27.10400000      33.67900000
 H      34.79700000      26.29800000      33.18400000
 H      34.42600000      27.75400000      32.94300000
 O      30.56800000      32.40500000      37.04600000
 H      29.61700000      32.20800000      36.69700000
 H      30.39700000      32.25300000      37.97900000
 O      36.51900000       3.17000000      34.16200000
 H      36.55200000       4.16000000      34.06100000
 H      35.77900000       3.01700000      33.47900000
 O      35.68000000      33.80700000      36.26700000
 H      35.32100000      32.95700000      36.20700000
 H      36.64400000      33.68000000      36.12400000
 O      30.95500000       1.54200000      39.48400000
 H      30.13100000       1.14900000      39.20700000
 H      30.69100000       2.42400000      39.83300000
 O      36.82700000      35.73300000      32.96500000
 H      36.69800000      35.92200000      31.99300000
 H      36.28300000      35.05700000      33.14400000
 O      31.54300000      20.41100000      40.49900000
 H      31.80500000      20.83000000      41.32900000
 H      30.93600000      21.02800000      40.10700000
 O      31.06500000      35.15500000      36.69500000
 H      30.91800000      34.21300000      36.95600000
 H      31.98700000      35.09000000      36.31700000
 O      33.44900000      25.25400000      27.55000000
 H      32.67500000      24.80000000      27.97600000
 H      32.94600000      25.47300000      26.72200000
 O      34.82700000      24.74200000      40.54400000
 H      35.17900000      23.87500000      40.74900000
 H      34.82800000      24.71100000      39.59600000
 O      36.33900000      38.32000000      28.57500000
 H      36.65600000      38.73600000      27.69300000
 H      36.57000000      39.03300000      29.19400000
 O      40.08600000      24.70900000      32.69100000
 H      39.72000000      23.85400000      33.05300000
 H      40.07200000      24.55800000      31.73400000
 O      34.14700000      19.72100000      39.12700000
 H      33.38100000      20.11500000      39.70500000
 H      34.64300000      19.33600000      39.87900000
 O      34.53900000      13.24400000      29.92200000
 H      35.05100000      12.97800000      30.71700000
 H      34.69200000      12.56800000      29.27100000
 O      31.96700000      32.21400000      30.27200000
 H      32.56900000      31.94000000      30.98700000
 H      31.28400000      32.70100000      30.80800000
 O      36.15400000      11.92000000      32.05600000
 H      36.88900000      12.51700000      32.29500000
 H      35.41900000      12.33000000      32.55800000
 O      32.97000000      28.51700000      31.88000000
 H      32.21700000      28.77700000      31.32600000
 H      33.66700000      28.35600000      31.17100000
 O      27.04200000      27.74900000      40.26800000
 H      27.34400000      27.38600000      41.10700000
 H      27.87900000      28.07700000      39.92600000
 O      40.20600000       4.56200000      38.93600000
 H      40.33000000       4.84500000      37.99700000
 H      39.59300000       5.24300000      39.22000000
 O      28.05800000      17.26300000      34.13100000
 H      27.02000000      17.00300000      34.18000000
 H      28.08400000      17.74400000      34.95700000
 O      35.99600000      30.50700000      40.37300000
 H      35.88800000      31.54500000      40.17700000
 H      37.00300000      30.53200000      40.29700000
 O      31.87800000      40.16700000      27.70000000
 H      31.69400000      40.07600000      28.64700000
 H      32.31800000      39.30400000      27.48200000
 O      30.19400000      15.14700000      27.75800000
 H      31.07800000      14.99500000      28.11900000
 H      30.25100000      15.98900000      27.36300000
 O      38.96000000       5.73600000      36.59700000
 H      38.08700000       5.48800000      36.81500000
 H      39.30400000       4.92600000      36.14300000
 O      36.92100000       7.89400000      35.42100000
 H      37.81200000       7.75100000      35.75600000
 H      37.12600000       8.59700000      34.76100000
 O      36.95100000      17.09600000      39.81900000
 H      37.67700000      17.41500000      40.46900000
 H      36.23400000      17.43800000      40.38200000
 O      36.03300000      13.49400000      37.14100000
 H      35.81400000      14.36700000      37.47800000
 H      35.50100000      12.88900000      37.71300000
 O      34.87000000      11.52400000      38.69400000
 H      35.69200000      10.91900000      38.78900000
 H      34.43600000      11.04000000      37.92800000
 O      39.64700000       1.55600000      32.71600000
 H      40.36800000       1.10000000      32.13600000
 H      39.10200000       1.90300000      31.99400000
 O      36.97400000      20.55100000      40.37000000
 H      37.21400000      20.54600000      39.45800000
 H      37.62800000      19.92200000      40.73600000
 O      30.94100000      11.64400000      34.04200000
 H      30.31500000      12.35900000      33.74000000
 H      30.60600000      10.87800000      33.57800000
 O      36.73400000      37.60300000      35.98900000
 H      36.26000000      37.45200000      36.81600000
 H      36.69900000      38.51400000      35.84700000
 O      40.78800000       4.26900000      29.05600000
 H      40.51300000       5.14200000      29.50800000
 H      41.65800000       4.52000000      28.75800000
 O      28.41200000      23.24000000      32.21600000
 H      27.93100000      22.74800000      31.52600000
 H      28.69000000      24.04500000      31.70500000
 O      30.34200000      33.84200000      32.06800000
 H      29.88700000      33.64400000      32.93300000
 H      29.70800000      34.39500000      31.65400000
 O      28.66700000       2.46800000      33.63000000
 H      29.13500000       2.68600000      34.47000000
 H      28.03600000       1.79500000      33.98000000
 O      31.81400000      32.47100000      27.53700000
 H      32.76500000      32.69100000      27.35200000
 H      31.82100000      32.13200000      28.42500000
 O      40.76500000      21.95300000      36.06000000
 H      40.85200000      21.83300000      35.07600000
 H      40.51000000      22.86900000      36.09900000
 O      34.92900000       0.83400000      40.66200000
 H      34.31900000       0.13800000      40.82300000
 H      35.77400000       0.46900000      40.99300000
 O      36.37000000      12.92800000      40.71600000
 H      36.18300000      12.37200000      41.53000000
 H      35.76200000      12.46400000      40.10700000
 O      28.70700000      36.16500000      35.84200000
 H      28.49100000      35.36100000      35.29400000
 H      29.56800000      35.82400000      36.17700000
 O      28.14800000      21.79100000      40.03600000
 H      27.48600000      21.26000000      39.39000000
 H      28.58400000      22.32100000      39.36600000
 O      32.55300000       2.18700000      29.85200000
 H      32.04100000       1.86100000      30.60800000
 H      32.44300000       3.14800000      29.91900000
 O      33.49800000      31.21100000      32.33500000
 H      33.12600000      31.20400000      33.26700000
 H      33.39400000      30.28200000      32.08100000
 O      34.74400000      21.21500000      36.59600000
 H      34.06300000      21.95000000      36.64600000
 H      34.54200000      20.71400000      37.38200000
 O      35.14300000      21.53600000      29.65700000
 H      34.41900000      20.85400000      29.73700000
 H      35.46100000      21.52400000      30.61400000
 O      30.88400000      40.12700000      36.43100000
 H      31.86200000      40.18600000      36.44500000
 H      30.70400000      40.10200000      35.49200000
 O      35.87300000      16.42900000      27.27600000
 H      35.39400000      17.25100000      27.05300000
 H      35.71900000      16.40200000      28.26900000
 O      27.04900000      22.96200000      29.44300000
 H      27.84000000      22.42000000      29.62100000
 H      26.36300000      22.30600000      29.26500000
 O      32.83500000      12.38600000      40.20200000
 H      33.39700000      11.94600000      39.55700000
 H      31.93900000      12.08700000      40.01400000
 O      39.84600000       6.80700000      30.02600000
 H      39.55600000       7.36900000      29.30900000
 H      39.01400000       6.26600000      30.20900000
 O      38.07200000      26.89800000      27.91700000
 H      38.26600000      26.38900000      27.05700000
 H      37.15300000      26.60000000      28.01300000
 O      39.35100000      38.67700000      30.59900000
 H      38.51200000      39.15800000      30.42400000
 H      39.22700000      37.83500000      30.07500000
 O      39.19900000      13.68800000      37.73900000
 H      39.83900000      13.18400000      37.18100000
 H      39.12900000      13.11000000      38.48800000
 O      32.64900000      23.15200000      36.76500000
 H      31.82300000      22.99600000      37.19600000
 H      32.37200000      23.63900000      35.96800000
 O      31.15900000      39.56900000      33.60300000
 H      31.60000000      40.25800000      33.04100000
 H      30.18600000      39.72400000      33.44400000
 O      39.78800000      17.17800000      35.45700000
 H      39.87100000      17.03500000      36.38900000
 H      38.97000000      17.70800000      35.42200000
 O      27.31600000      32.83300000      30.54900000
 H      26.43000000      33.26700000      30.69600000
 H      27.83900000      33.62900000      30.30900000
 O      28.82900000      25.55900000      31.07800000
 H      29.18000000      26.06400000      30.26100000
 H      28.88000000      26.31500000      31.70000000
 O      38.23900000       2.65500000      30.91300000
 H      37.93400000       3.61800000      30.87800000
 H      38.42600000       2.59700000      29.94300000
 O      35.81200000      23.75700000      27.78400000
 H      35.69300000      22.99900000      28.41800000
 H      34.89200000      24.17700000      27.88800000
 O      28.20500000      38.55500000      32.77900000
 H      28.87600000      38.56800000      32.02700000
 H      27.52200000      39.17800000      32.47900000
 O      31.68400000       3.36800000      34.88400000
 H      32.16300000       2.63700000      35.25000000
 H      30.85700000       3.37500000      35.56600000
 O      32.27000000      20.54100000      34.20200000
 H      32.20100000      20.12100000      35.05900000
 H      31.71700000      19.97200000      33.63400000
 O      36.59100000      36.07600000      30.09700000
 H      35.87300000      35.67300000      29.63600000
 H      36.68700000      36.90400000      29.50400000
 O      38.65600000      22.35300000      29.28800000
 H      38.37200000      23.08900000      28.76400000
 H      38.52600000      21.62800000      28.62400000
 O      37.78100000      23.20600000      31.69500000
 H      37.20900000      22.43000000      31.76900000
 H      38.28900000      23.00800000      30.92900000
 O      40.53000000      34.23100000      39.22900000
 H      40.89200000      33.33200000      39.01500000
 H      40.32800000      34.60600000      38.34900000
 O      27.87500000      18.94700000      36.80200000
 H      28.53200000      19.51600000      37.25300000
 H      27.60200000      19.60000000      36.09100000
 O      29.59800000      28.28700000      39.21100000
 H      29.97600000      27.53000000      39.66800000
 H      30.43200000      28.60900000      38.80500000
 O      30.29700000      19.17900000      33.11800000
 H      29.31900000      19.20800000      33.31400000
 H      30.40500000      18.39700000      32.58500000
 O      29.77400000      25.86300000      40.53200000
 H      29.22800000      26.10600000      41.29800000
 H      29.22100000      25.08300000      40.23200000
 O      28.84600000       6.63800000      33.65400000
 H      28.15400000       6.20300000      33.18300000
 H      28.73200000       7.58400000      33.62200000
 O      34.96500000      33.73900000      32.85400000
 H      34.06000000      34.02500000      32.64300000
 H      34.93200000      32.81100000      32.63200000
 O      37.32800000       9.72400000      33.49000000
 H      36.60100000      10.25700000      33.86300000
 H      37.53500000      10.26200000      32.70700000
 O      38.03200000      36.16900000      40.36200000
 H      37.60800000      35.52400000      39.72100000
 H      38.72400000      36.47800000      39.68400000
 O      38.10000000      29.86600000      28.17000000
 H      38.15000000      30.16000000      29.10800000
 H      37.95300000      28.90900000      28.31500000
 O      39.19200000      35.73300000      29.81800000
 H      38.26000000      35.70000000      30.11600000
 H      39.43500000      34.82000000      30.16700000
 O      40.19900000      15.64000000      33.44300000
 H      40.11200000      16.11500000      34.37000000
 H      41.07200000      15.21700000      33.73500000
 O      35.43600000      16.39600000      30.02900000
 H      34.72400000      16.86700000      30.57700000
 H      35.05600000      15.51600000      30.02100000
 O      30.67900000       8.44300000      31.66800000
 H      31.54900000       8.60900000      32.06900000
 H      30.46100000       7.69600000      32.27800000
 O      29.74600000       4.51300000      30.26100000
 H      30.16100000       4.79700000      29.41100000
 H      30.29600000       4.93900000      30.91200000
 O      30.06700000      29.55200000      28.21500000
 H      29.78500000      30.45500000      27.99900000
 H      30.92700000      29.51500000      27.73700000
 O      30.67400000      29.57000000      33.73700000
 H      30.89900000      29.28600000      32.81100000
 H      29.70500000      29.59500000      33.62600000
 O      40.03000000      40.66100000      35.24000000
 H      40.36300000      39.76500000      35.01300000
 H      39.76000000      41.00500000      34.37100000
 O      39.17500000       2.45700000      28.18200000
 H      39.83700000       3.07400000      28.59100000
 H      38.82800000       3.03600000      27.48100000
 O      31.54800000      23.57300000      28.67000000
 H      30.66600000      23.91400000      28.68000000
 H      31.68800000      23.11000000      29.48600000
 O      29.40300000      11.71900000      37.75500000
 H      30.24500000      11.96300000      37.30600000
 H      29.67400000      11.04100000      38.39000000
 O      29.42000000       7.01600000      40.84100000
 H      29.31500000       6.05500000      40.99000000
 H      29.97200000       7.25500000      41.62600000
 O      30.85900000      14.83900000      37.06000000
 H      31.57400000      14.17500000      36.78500000
 H      30.50700000      15.04200000      36.13200000
 O      32.73100000      35.65300000      29.15600000
 H      32.66600000      35.60600000      30.12000000
 H      32.79000000      34.73900000      28.88100000
 O      29.38500000      13.72600000      32.75300000
 H      28.47500000      14.02100000      32.78200000
 H      29.50600000      13.58700000      31.76800000
 O      40.02600000      20.36300000      30.78200000
 H      39.97500000      21.22000000      30.31600000
 H      39.47900000      19.78200000      30.26400000
 O      36.44900000       1.74600000      37.97600000
 H      36.36200000       0.94000000      38.46500000
 H      36.32700000       1.50700000      37.03600000
 O      35.68800000      33.27100000      40.00600000
 H      35.78000000      34.06600000      39.45100000
 H      34.69000000      33.28200000      40.14100000
 O      29.54900000       3.50700000      36.50500000
 H      29.20300000       2.89900000      37.15300000
 H      28.92400000       4.22400000      36.57000000
 O      33.30300000       1.96400000      38.46800000
 H      33.83100000       1.60900000      39.25200000
 H      32.39100000       1.73500000      38.84100000
 O      33.62000000      12.93100000      32.94400000
 H      33.47400000      13.87400000      33.21400000
 H      32.71100000      12.55400000      33.00900000
 O      32.31200000      31.14700000      35.48100000
 H      31.66300000      30.51200000      35.15400000
 H      31.70800000      31.71500000      36.05800000
 O      27.67900000      14.89100000      29.08600000
 H      27.67300000      14.09200000      29.55000000
 H      28.48000000      14.88700000      28.57400000
 O      36.84400000       9.96400000      39.34000000
 H      36.18900000       9.27900000      39.55800000
 H      37.36000000       9.92600000      40.21000000
 O      28.64800000      33.69800000      34.38600000
 H      27.73600000      33.99600000      34.19000000
 H      28.42100000      32.75500000      34.70400000
 O      34.83600000       0.87500000      29.18000000
 H      34.84600000       1.36100000      28.33800000
 H      33.95800000       1.15300000      29.48800000
 O      32.34700000       9.30400000      28.94000000
 H      31.71200000       9.78000000      29.45500000
 H      33.14100000       9.38000000      29.52400000
 O      29.64800000      22.00700000      34.32600000
 H      30.62000000      21.77700000      34.26200000
 H      29.54900000      22.47900000      33.48200000
 O      32.08100000      24.73500000      34.76700000
 H      31.23100000      24.69900000      34.29100000
 H      32.12300000      25.76900000      34.90300000
 O      32.47200000      17.46800000      28.25100000
 H      31.83300000      17.26900000      27.54900000
 H      32.87700000      16.58600000      28.41500000
 O      31.00200000       5.19200000      32.90700000
 H      30.25600000       5.65900000      33.30800000
 H      31.14200000       4.42500000      33.58200000
 O      27.84800000      30.52900000      32.26300000
 H      27.72000000      31.26400000      31.66000000
 H      27.41900000      30.84800000      33.10200000
 O      28.01000000      27.73600000      32.39900000
 H      27.65900000      27.94500000      33.35300000
 H      28.31800000      28.62100000      32.18200000
 O      39.47300000      27.07300000      30.20600000
 H      38.87200000      26.94100000      29.35400000
 H      40.14400000      26.40900000      29.88600000
 O      38.56400000      34.98700000      27.12600000
 H      38.99000000      35.20000000      27.95700000
 H      38.71000000      34.00300000      27.10400000
 O      37.63700000       5.42700000      30.70400000
 H      37.19400000       5.44300000      31.60600000
 H      36.85600000       5.72600000      30.16500000
 O      28.08500000      31.74700000      36.19300000
 H      27.14600000      31.82600000      36.48000000
 H      28.28600000      30.84900000      36.54300000
 O      29.79200000      38.64500000      30.31100000
 H      30.73300000      38.85000000      30.55600000
 H      29.88400000      38.17800000      29.44700000
 O      37.20700000      23.36800000      34.31300000
 H      37.53600000      23.58300000      33.43300000
 H      36.32100000      23.77300000      34.30900000
 O      33.08100000       9.78100000      37.36000000
 H      33.48600000       9.42400000      36.56500000
 H      32.63900000       8.98100000      37.71200000
 O      34.24800000      37.31700000      37.20200000
 H      34.07900000      37.50500000      36.23100000
 H      33.37800000      37.41200000      37.53500000
 O      30.01500000      15.18800000      39.90300000
 H      29.82600000      16.14500000      39.94700000
 H      30.32500000      15.13700000      38.95100000
 O      33.90600000      22.17600000      32.75100000
 H      33.16100000      22.54500000      32.21200000
 H      33.36200000      21.68200000      33.38500000
 O      27.45400000      16.34400000      37.64900000
 H      28.29000000      16.01200000      37.34300000
 H      27.68500000      17.34000000      37.67200000
 O      28.45300000      18.68600000      28.69300000
 H      27.77600000      18.75700000      27.97800000
 H      27.95200000      18.20800000      29.38800000
 O      39.32100000       1.68900000      40.52900000
 H      39.54600000       2.63500000      40.40900000
 H      39.53300000       1.33100000      39.61100000
 O      28.56600000       2.13600000      29.64600000
 H      28.92300000       3.03000000      29.74700000
 H      29.10000000       1.85000000      28.82600000
 O      30.38800000      13.11500000      30.30200000
 H      30.24000000      12.10300000      30.34800000
 H      30.62500000      13.20500000      29.36800000
 O      29.35400000      38.49500000      37.96600000
 H      29.82900000      39.17400000      37.40200000
 H      28.43400000      38.62200000      37.65200000
 O      39.53200000      16.12400000      31.10300000
 H      40.20500000      16.80200000      30.97500000
 H      39.67000000      15.86400000      32.06000000
 O      28.69700000      35.20400000      30.08200000
 H      29.35700000      35.75500000      29.54500000
 H      27.91500000      35.40000000      29.43800000
 O      39.79900000      24.56500000      35.50900000
 H      38.93000000      24.16500000      35.46700000
 H      39.62200000      25.50300000      35.32700000
 O      35.28300000      11.40900000      35.03000000
 H      35.41800000      12.13100000      35.64800000
 H      34.87700000      11.87400000      34.27300000
 O      35.44200000      26.71800000      28.75900000
 H      34.70100000      26.28800000      28.30500000
 H      35.05000000      27.56100000      28.99900000
 O      39.72500000      24.45800000      39.68500000
 H      39.96600000      25.30100000      39.24100000
 H      39.15800000      24.05300000      38.98400000
