288
XYZ file of cluster: frame_10000_17e3.e26.4b9a6 - created by MolEdiTo
 O       9.66500000       1.05600000      24.89900000
 H       9.61800000       0.15100000      24.45800000
 H       9.41000000       0.80900000      25.85800000
 O      11.63900000      14.44100000      25.84900000
 H      11.79400000      13.74900000      26.57800000
 H      12.30500000      15.09500000      26.16700000
 O       6.25200000       8.20200000      20.12500000
 H       6.80100000       7.36400000      20.14400000
 H       6.77000000       8.69600000      19.44300000
 O      11.43800000      14.11300000      20.95600000
 H      11.37900000      14.64800000      21.78400000
 H      11.11900000      13.27200000      21.29300000
 O       7.45400000      11.43300000      28.12100000
 H       7.95400000      11.20800000      27.32900000
 H       8.21900000      11.48200000      28.79200000
 O      12.39600000      11.80100000      18.11900000
 H      11.73100000      11.78800000      17.30800000
 H      12.18300000      12.64200000      18.47000000
 O       8.38800000      11.99200000      23.77100000
 H       7.47200000      11.61300000      23.62300000
 H       8.21100000      12.91900000      23.48100000
 O       2.63800000       9.34800000      21.59700000
 H       2.31700000      10.27500000      21.79100000
 H       3.60500000       9.50700000      21.78100000
 O       8.99900000      10.77700000      25.95100000
 H       9.55300000      10.14400000      25.38700000
 H       8.76600000      11.43900000      25.23600000
 O       5.29600000      11.77400000      23.87300000
 H       5.10800000      11.50500000      24.80200000
 H       4.95600000      10.97300000      23.41300000
 O       6.81600000       3.47100000      27.29300000
 H       7.36600000       3.56900000      28.07000000
 H       6.09600000       2.91600000      27.69100000
 O       3.74400000      10.51800000      18.99100000
 H       3.89300000      11.29600000      19.59700000
 H       2.89800000      10.18700000      19.32800000
 O      10.61900000       7.77300000      17.78400000
 H      11.52600000       7.89900000      18.18500000
 H      10.79600000       7.02600000      17.16600000
 O      14.47600000      11.92900000      19.82100000
 H      15.01100000      12.33600000      19.10000000
 H      13.61800000      11.74900000      19.38200000
 O       4.56000000       2.31700000      17.40700000
 H       4.87200000       3.20700000      17.25100000
 H       4.02100000       2.13900000      16.60700000
 O       6.12000000      10.70600000      13.86400000
 H       6.17700000      10.38600000      14.81800000
 H       6.84900000      10.17100000      13.51200000
 O      11.36200000       5.63300000      22.52000000
 H      11.18000000       4.83100000      23.07500000
 H      11.26600000       5.20900000      21.66100000
 O       8.56900000      12.46800000      18.86900000
 H       8.52600000      11.52100000      19.09600000
 H       7.98500000      12.80600000      19.64900000
 O       8.63800000      14.36500000      26.56500000
 H       9.17900000      15.15800000      26.63700000
 H       9.31900000      13.63100000      26.50700000
 O      10.99600000       6.63500000      27.11300000
 H      10.36600000       6.14400000      26.54400000
 H      10.78900000       6.27300000      28.02400000
 O       4.30600000       1.91300000      24.31900000
 H       4.60800000       1.02800000      23.91900000
 H       3.57400000       2.08700000      23.69100000
 O       3.58100000       8.77300000      27.43800000
 H       2.84600000       9.06200000      28.13400000
 H       4.31100000       9.28000000      27.86400000
 O      13.00900000       8.98400000      18.94200000
 H      12.58700000       9.70000000      18.44100000
 H      12.62800000       9.10200000      19.83600000
 O      12.97600000       9.81800000      15.94300000
 H      13.35500000      10.35500000      15.27700000
 H      12.14900000      10.30300000      16.15900000
 O       9.42700000       8.04500000      21.80000000
 H       8.66500000       7.39200000      21.72800000
 H      10.17200000       7.41900000      21.77600000
 O       1.06100000       1.14900000      17.93800000
 H       1.80300000       1.06700000      17.28500000
 H       0.32800000       0.76200000      17.42600000
 O      14.34600000      12.96900000      26.94800000
 H      13.40300000      12.81400000      27.20900000
 H      14.76300000      12.11800000      26.97600000
 O       1.33600000       4.82300000      22.61200000
 H       1.91700000       5.04400000      21.82200000
 H       0.92700000       5.73500000      22.71100000
 O      11.73700000       4.65800000      19.59300000
 H      12.24900000       4.21000000      20.29300000
 H      12.38700000       4.55700000      18.83100000
 O       7.33100000       1.18700000      22.02300000
 H       8.03600000       1.81900000      22.29400000
 H       6.64300000       1.87300000      21.81200000
 O       5.18500000       9.61000000      22.02400000
 H       5.67100000       9.19300000      21.29500000
 H       5.38400000       9.01400000      22.77100000
 O       8.40000000      10.52400000      21.18400000
 H       8.77000000       9.59300000      21.11200000
 H       7.57900000      10.38600000      21.60300000
 O       5.30500000      11.18800000      16.63300000
 H       4.57900000      11.89300000      16.66700000
 H       5.18300000      10.69700000      17.44900000
 O       4.24600000      12.80500000      20.24200000
 H       5.22500000      12.92000000      20.12700000
 H       4.16800000      13.28000000      21.10100000
 O      11.75300000       5.37400000      15.32000000
 H      12.63400000       5.55900000      14.93600000
 H      11.20600000       5.93900000      14.81100000
 O      11.93000000       3.00000000      27.49300000
 H      12.26100000       3.47200000      26.66700000
 H      11.54900000       3.78700000      27.99000000
 O       7.96500000      12.46400000      16.23400000
 H       8.13700000      12.52600000      17.19000000
 H       7.03200000      12.25400000      16.19200000
 O       8.69600000       3.76000000      14.78500000
 H       9.28800000       4.47700000      14.57600000
 H       7.86700000       4.03000000      14.39000000
 O       7.68800000       5.53500000      20.71500000
 H       6.90600000       4.92700000      20.96200000
 H       8.16100000       4.89200000      20.13700000
 O      10.74600000      11.81300000      22.01000000
 H      10.16500000      11.33200000      21.41200000
 H      10.17800000      11.85200000      22.80700000
 O       5.04400000       1.48900000      13.57700000
 H       5.83700000       1.22700000      14.06200000
 H       4.91500000       0.82000000      12.93400000
 O      14.25800000       7.07500000      15.18500000
 H      13.68500000       7.86500000      15.23300000
 H      15.18400000       7.46500000      15.04800000
 O       7.55300000       1.23600000      14.50500000
 H       7.80100000       0.79100000      15.35200000
 H       8.25800000       1.91400000      14.41900000
 O       5.84400000       3.48900000      22.00500000
 H       5.02900000       3.16600000      21.50700000
 H       5.64800000       3.13900000      22.89700000
 O       3.97400000      13.83900000      22.88400000
 H       3.72300000      14.49300000      23.60700000
 H       4.51600000      13.21200000      23.45500000
 O       6.81100000       8.17500000      16.37400000
 H       6.00500000       8.03100000      15.85100000
 H       7.19800000       7.26700000      16.37700000
 O       5.78200000       8.18500000      24.18500000
 H       6.53800000       8.17600000      24.82400000
 H       5.67300000       7.26700000      23.99000000
 O      11.78200000      13.94600000      14.55000000
 H      11.87900000      14.60800000      15.22400000
 H      10.96400000      13.49400000      14.71700000
 O      13.88300000       5.86300000      17.97200000
 H      13.95500000       6.78400000      18.10200000
 H      13.80200000       5.82200000      17.03100000
 O       4.83800000       5.17800000      17.58600000
 H       4.48500000       5.66800000      16.84300000
 H       5.81000000       5.15900000      17.30600000
 O      12.56100000      13.22500000      23.67000000
 H      11.78000000      12.77500000      23.36300000
 H      12.20900000      13.81200000      24.33700000
 O      12.82800000       9.77300000      21.75300000
 H      12.68700000       9.64500000      22.73100000
 H      12.31200000      10.60100000      21.65200000
 O       9.26800000       3.96200000      18.86500000
 H       9.76900000       3.12800000      18.91000000
 H      10.04600000       4.59100000      18.96000000
 O       9.39500000       6.70200000      14.76800000
 H       9.16800000       6.82400000      13.84600000
 H       8.93200000       7.37300000      15.21800000
 O       5.14900000      12.28700000      26.76300000
 H       5.98700000      12.04300000      27.26900000
 H       5.30600000      13.25300000      26.65900000
 O      12.81400000       9.19500000      24.51400000
 H      12.80000000       9.67300000      25.40300000
 H      13.78100000       9.22400000      24.36100000
 O       2.67800000      12.53000000      27.81300000
 H       3.62800000      12.41400000      27.70900000
 H       2.52000000      13.47200000      27.63800000
 O       3.47300000       6.53300000      20.77000000
 H       4.15100000       6.98700000      20.21100000
 H       3.03500000       7.34400000      21.14100000
 O       7.30800000       7.62300000      28.53000000
 H       7.48800000       7.75800000      27.56400000
 H       6.60800000       8.29100000      28.70600000
 O       1.08300000       0.81300000      28.32600000
 H       1.63500000       1.20500000      27.62300000
 H       0.26500000       1.34700000      28.18400000
 O       3.11900000       9.28100000      24.75800000
 H       3.92000000       8.77300000      24.48500000
 H       3.24300000       9.19700000      25.72500000
 O       8.16600000       7.62000000      25.83700000
 H       8.50600000       6.74200000      25.62400000
 H       8.76800000       8.15700000      25.26900000
 O       4.72600000       6.77500000      14.77600000
 H       4.83200000       6.20000000      14.04500000
 H       4.05000000       7.41300000      14.40400000
 O       9.62000000       4.90300000      25.41900000
 H       9.01300000       4.14400000      25.61000000
 H       9.90600000       4.62900000      24.52500000
 O       1.55800000      11.83000000      22.38200000
 H       0.84100000      12.29300000      21.89200000
 H       2.07300000      12.56700000      22.66100000
 O       1.53400000      11.04700000      15.63300000
 H       0.77000000      10.71400000      15.07700000
 H       2.12800000      11.30200000      14.92500000
 O       7.56200000       4.96900000      16.91000000
 H       8.17500000       4.69100000      17.66100000
 H       8.08900000       4.45000000      16.22200000
 O       3.04400000       1.61300000      15.33800000
 H       3.88700000       1.69300000      14.82900000
 H       2.76800000       0.69300000      15.07200000
 O      13.10500000       3.10000000      21.07000000
 H      13.68800000       3.36600000      21.87100000
 H      13.87300000       2.75000000      20.54400000
 O       1.23200000       2.18500000      23.13400000
 H       1.20100000       1.98400000      22.13200000
 H       1.00900000       3.18200000      23.03100000
 O      12.88200000       4.93600000      25.82300000
 H      13.79700000       5.20700000      26.08200000
 H      12.41600000       5.71700000      26.14500000
 O      13.69100000       2.91500000      17.93800000
 H      13.96000000       3.33900000      17.08400000
 H      14.31600000       3.42900000      18.52100000
 O      13.86600000       7.32700000      21.87800000
 H      13.05000000       6.98700000      22.36700000
 H      13.54800000       8.23100000      21.64300000
 O       1.15700000       4.09500000      25.72300000
 H       0.25500000       4.40600000      25.96900000
 H       1.30600000       4.49600000      24.83700000
 O       6.84900000      13.78100000      20.52500000
 H       7.17900000      13.93800000      21.39300000
 H       6.57000000      14.75000000      20.33500000
 O       1.35600000       4.04400000      15.27200000
 H       1.91800000       4.24900000      14.44700000
 H       1.50600000       3.06400000      15.30900000
 O       4.85800000       1.78800000      28.33400000
 H       5.25100000       0.94100000      27.98400000
 H       4.06800000       1.89100000      27.72300000
 O      10.54100000       1.64200000      18.49000000
 H      11.24000000       1.51600000      19.20900000
 H      11.02500000       2.17400000      17.83300000
 O       7.55500000       2.92200000      24.80500000
 H       7.23700000       2.98300000      25.70200000
 H       8.03600000       2.12300000      24.83700000
 O      14.60100000      12.98900000      14.95500000
 H      15.13400000      13.65400000      14.40300000
 H      13.70000000      13.38200000      14.88400000
 O      10.62600000       3.15900000      23.37400000
 H      10.88900000       2.43500000      22.80200000
 H      10.17500000       2.63700000      24.10500000
 O       3.20500000       4.25400000      19.72700000
 H       3.81500000       4.36200000      18.89700000
 H       3.31000000       5.18900000      20.07100000
 O       4.03300000       5.73500000      28.04900000
 H       3.81800000       6.69200000      27.84400000
 H       4.13100000       5.43600000      27.13300000
 O       2.91700000       2.14900000      26.55800000
 H       3.53400000       2.11900000      25.80700000
 H       2.43200000       2.98600000      26.33200000
 O      14.43900000       1.62700000      28.22100000
 H      13.79100000       2.13300000      27.69300000
 H      14.04000000       1.73700000      29.14400000
 O       3.65500000       2.12200000      21.09600000
 H       2.76100000       1.73000000      20.83700000
 H       3.52500000       2.95300000      20.52500000
 O      11.13600000       2.81300000      16.04700000
 H      10.20900000       3.11300000      15.87800000
 H      11.65200000       3.54000000      15.64300000
 O       2.77000000       8.64100000      16.68600000
 H       2.38800000       9.52400000      16.47700000
 H       3.34700000       8.84400000      17.42100000
 O      10.48100000      11.44500000      16.04700000
 H       9.65800000      11.88600000      16.35200000
 H      10.20400000      11.07200000      15.23100000
 O      12.07300000       9.79200000      27.09400000
 H      11.87600000       8.89800000      26.95600000
 H      12.55600000       9.82600000      27.99800000
 O      10.22900000       8.98300000      24.32900000
 H      11.12600000       8.98200000      24.54100000
 H      10.20400000       8.62400000      23.40700000
 O       2.09500000      13.41600000      16.62200000
 H       1.49900000      13.64300000      15.85000000
 H       1.63600000      12.54100000      16.82300000
 O       5.49100000       4.82700000      25.06600000
 H       5.90800000       4.21200000      24.42200000
 H       6.00500000       4.60000000      25.85500000
 O       8.98400000      14.34200000      14.54900000
 H       8.96400000      15.14500000      15.12100000
 H       8.66900000      13.68000000      15.23900000
 O       8.35800000       9.09600000      18.47400000
 H       9.18800000       8.65100000      18.17200000
 H       7.85000000       9.16900000      17.68500000
 O      11.65300000      12.45600000      27.64700000
 H      10.85300000      12.43400000      28.20400000
 H      11.71100000      11.51600000      27.39200000
