39
XYZ file of cluster: frame_17500_18ee.4d046.9b6b6 - created by MolEdiTo
 O       1.09400000       7.36500000      14.27400000
 H       1.79300000       6.70200000      14.40800000
 H       1.52400000       7.88800000      13.55700000
 O       1.04700000      12.46000000      15.35400000
 H       0.13400000      12.30000000      15.35700000
 H       1.38600000      11.63700000      15.74800000
 O       6.21200000      12.59800000      19.59100000
 H       6.33400000      12.58400000      20.58000000
 H       6.52000000      13.49500000      19.24100000
 O       7.52500000       9.87800000      14.31200000
 H       6.99300000       9.24200000      14.77900000
 H       6.87600000      10.13300000      13.62300000
 O       5.36200000       8.83400000      16.36600000
 H       4.97300000       8.48400000      17.15600000
 H       4.75800000       9.55200000      16.12600000
 O       0.72600000       9.26600000      19.01800000
 H       0.80800000       8.36400000      18.71100000
 H       1.26100000       9.77500000      18.34500000
 O       1.13300000      12.40300000      18.82000000
 H       2.10400000      12.23600000      19.12400000
 H       0.98700000      11.85700000      18.09100000
 O       5.47500000       9.62300000      19.18000000
 H       6.34400000      10.08900000      19.12600000
 H       5.74900000       8.66800000      19.07700000
 O       4.39100000      11.40500000      15.04500000
 H       4.70800000      10.85200000      14.26100000
 H       4.88200000      12.19400000      15.02100000
 O       7.21300000       7.73300000      20.52400000
 H       7.88200000       7.44800000      19.83000000
 H       6.85100000       6.83800000      20.79900000
 O       3.65800000      11.59500000      19.16400000
 H       4.40300000      12.08600000      19.60400000
 H       4.05700000      10.68600000      19.21100000
 O       2.95100000      14.30500000      16.79500000
 H       2.29900000      13.56000000      16.75900000
 H       2.71100000      14.82800000      16.00600000
 O       2.31800000      10.49200000      16.71100000
 H       2.91900000      10.55400000      17.48200000
 H       2.90800000      10.84600000      16.00800000
