%chk=cluster_405.chk
%mem=1GB
%nproc=4
#b3lyp/6-311++G** scrf=(cpcm,Solvent=Water) nosymm freq
iop(2/11=1) 
 Geom=(NoDistance,NoAngle)

cluster_405

0 1
 O      18.86400000       2.08200000      19.64900000
 H      17.91700000       2.27300000      19.93600000
 H      19.14400000       2.76400000      18.96700000
 O      14.03300000       7.30300000      19.59700000
 H      13.84200000       7.19000000      18.62600000
 H      14.99800000       7.55400000      19.73100000
 O      16.45400000       2.41700000      20.78900000
 H      15.61000000       2.92800000      20.63800000
 H      16.66000000       2.96100000      21.57100000
 O      17.31400000       5.33600000      18.77000000
 H      16.57200000       4.68500000      18.62500000
 H      17.62500000       4.99000000      19.63500000
 O      17.31200000       4.84200000      23.73500000
 H      16.94200000       5.62800000      24.15500000
 H      18.30300000       5.04800000      23.60800000
 O      14.20700000       4.51300000      24.66300000
 H      14.07600000       4.45800000      23.67300000
 H      13.92200000       5.43800000      24.79000000
 O      19.88400000       5.05200000      22.73000000
 H      19.93800000       5.36400000      21.75300000
 H      20.82000000       4.81200000      22.96600000
 O      14.67500000       1.59200000      24.51700000
 H      13.87600000       1.31300000      25.01900000
 H      14.83500000       2.54500000      24.47200000

