114
XYZ file of cluster: frame_6000_99ee4.2717c.a0f2d - created by MolEdiTo
 O      28.94800000      10.64200000      26.73200000
 H      29.28600000      11.05100000      25.98600000
 H      29.58200000      10.94700000      27.45000000
 O      22.42600000      14.70300000      26.83400000
 H      21.77000000      15.48300000      26.72400000
 H      21.89500000      13.82700000      26.77800000
 O      23.19900000       6.43900000      26.32100000
 H      23.84800000       7.21800000      26.32400000
 H      23.15800000       6.05200000      25.40300000
 O      30.46700000      12.50300000      25.48100000
 H      29.98000000      13.31300000      25.17200000
 H      31.37300000      12.78500000      25.27600000
 O      24.94700000      15.91600000      26.61800000
 H      25.47400000      15.42000000      25.92600000
 H      24.26500000      15.21300000      26.82300000
 O      30.00300000      12.27700000      22.00400000
 H      29.49200000      12.72300000      22.70800000
 H      29.22600000      11.86800000      21.60000000
 O      27.66100000      16.45100000      21.10100000
 H      27.38000000      17.41300000      21.18900000
 H      26.96900000      15.78000000      21.33200000
 O      29.29000000      14.85900000      24.57200000
 H      29.78600000      15.24800000      23.84400000
 H      29.07700000      15.64100000      25.08200000
 O      25.08200000       9.04600000      26.53400000
 H      25.80500000       8.39800000      26.74400000
 H      25.26200000       9.12000000      25.57700000
 O      25.44700000      14.40400000      30.29100000
 H      25.66500000      13.59800000      29.90500000
 H      24.50900000      14.72200000      30.28800000
 O      23.01000000      15.56300000      30.05100000
 H      22.65900000      15.11900000      29.22800000
 H      23.15100000      16.53100000      29.83900000
 O      24.40000000      13.00000000      23.96300000
 H      24.40100000      12.24700000      24.61900000
 H      23.54200000      13.12600000      23.57000000
 O      23.83600000       5.25300000      29.15700000
 H      23.88100000       6.14000000      29.60500000
 H      23.67000000       5.61900000      28.24700000
 O      26.43000000      10.21400000      24.01700000
 H      26.02400000      10.27200000      23.08900000
 H      27.29100000      10.75800000      23.92600000
 O      21.90600000      14.77100000      22.90800000
 H      21.37300000      13.94100000      22.76300000
 H      22.39300000      14.75300000      21.98500000
 O      20.93400000      12.18400000      22.54500000
 H      20.15900000      11.93700000      23.05400000
 H      21.41200000      11.33800000      22.45000000
 O      27.78200000       8.39600000      27.99200000
 H      28.16200000       9.21300000      27.58700000
 H      27.51000000       7.89700000      27.17700000
 O      20.34700000       8.36900000      28.72600000
 H      19.83300000       9.12100000      28.26700000
 H      21.36400000       8.59400000      28.68900000
 O      21.99400000      10.64200000      30.20300000
 H      22.77700000      10.73700000      30.85900000
 H      21.53900000      11.48700000      30.19500000
 O      27.61800000      10.60100000      20.97800000
 H      28.04100000       9.69900000      21.22800000
 H      26.67600000      10.29500000      20.90400000
 O      25.14100000      12.24900000      28.67000000
 H      26.01700000      12.51700000      28.34700000
 H      25.34000000      11.29600000      28.92000000
 O      26.86200000       6.96600000      25.72100000
 H      26.64200000       6.00900000      25.91400000
 H      26.86600000       6.91500000      24.70200000
 O      30.35700000      14.48800000      27.98000000
 H      29.53300000      14.84600000      28.20600000
 H      30.74800000      15.11300000      27.26500000
 O      21.66300000       9.24900000      22.78400000
 H      21.85100000       8.35000000      23.22500000
 H      22.02200000       9.13900000      21.91100000
 O      27.36700000      13.29700000      26.95500000
 H      27.90800000      12.48900000      27.17000000
 H      28.01800000      13.87900000      26.66300000
 O      23.15800000       8.71200000      28.61100000
 H      24.11700000       8.98400000      28.57900000
 H      22.72300000       9.55500000      28.76000000
 O      27.70300000      11.82700000      29.93400000
 H      27.52300000      11.99100000      30.89700000
 H      28.68700000      11.79600000      29.91900000
 O      26.43300000       5.77700000      22.86000000
 H      27.17100000       5.08200000      22.99700000
 H      26.75900000       6.46600000      22.30000000
 O      27.58900000      12.77200000      23.96400000
 H      27.98900000      13.35600000      24.62000000
 H      26.61700000      12.95200000      24.05000000
 O      20.75300000      12.14200000      26.13400000
 H      20.26400000      11.26600000      26.28600000
 H      21.65400000      11.81000000      26.12600000
 O      23.58000000       6.22600000      23.39800000
 H      23.24700000       6.20300000      22.47800000
 H      24.54000000       6.08700000      23.28000000
 O      23.41500000      11.46100000      26.58500000
 H      23.93200000      10.68100000      26.77300000
 H      23.82600000      12.19200000      27.03800000
 O      25.87900000      14.37600000      21.30000000
 H      25.42300000      14.07500000      22.15900000
 H      26.43100000      13.66000000      21.14700000
 O      29.17200000       8.50400000      22.10000000
 H      30.02800000       8.76900000      21.87400000
 H      29.21000000       7.64300000      22.57800000
 O      30.26600000       6.52100000      24.16000000
 H      30.39400000       7.42800000      24.44000000
 H      31.11800000       6.03100000      24.21500000
 O      26.05200000       9.65300000      29.80400000
 H      26.48600000       9.16800000      29.00800000
 H      26.75100000      10.18900000      30.09500000
 O      28.76700000       7.14500000      30.76200000
 H      28.59100000       7.53200000      29.86600000
 H      29.66200000       7.44400000      30.96300000
 O      30.64100000       5.35500000      28.47600000
 H      31.24100000       5.24000000      29.30000000
 H      31.28700000       5.60900000      27.82500000
