147
XYZ file of cluster: frame_6000_7004f.70357.0 - created by MolEdiTo
 O      18.30700000      21.72900000       4.96900000
 H      18.83900000      22.55200000       4.75800000
 H      17.73200000      22.04400000       5.67100000
 O      23.88800000      22.18600000       1.70700000
 H      23.17100000      21.72200000       2.19800000
 H      24.36200000      22.60400000       2.38200000
 O      19.02300000      18.43200000       6.43600000
 H      18.09700000      18.11200000       6.52400000
 H      19.14100000      18.46100000       5.47900000
 O      26.00600000      20.81700000       5.82600000
 H      25.26200000      20.38700000       6.30600000
 H      26.65400000      21.09800000       6.48000000
 O      24.10200000      16.73600000       2.77000000
 H      24.51000000      17.56500000       3.15200000
 H      23.16500000      16.98900000       2.75400000
 O      15.76000000      20.27200000       5.17300000
 H      16.60500000      20.63200000       5.58800000
 H      15.31300000      20.96900000       4.70700000
 O      16.65200000      17.26200000       6.94200000
 H      16.22400000      17.35200000       6.04400000
 H      16.52900000      16.30800000       7.11300000
 O      16.50300000      17.04200000       4.62400000
 H      16.17300000      17.84900000       4.10500000
 H      16.39100000      16.42400000       3.95100000
 O      24.40500000      19.31900000       3.77100000
 H      24.55500000      19.85400000       4.54500000
 H      23.45000000      19.53300000       3.61100000
 O      20.27800000      24.03300000       4.13300000
 H      20.99200000      24.47500000       4.66900000
 H      20.80000000      23.97100000       3.30500000
 O      21.45100000      24.80500000       2.50000000
 H      21.66200000      25.62300000       2.98400000
 H      22.28300000      24.62500000       2.07000000
 O      16.49200000      25.24700000       3.10400000
 H      16.29400000      25.52000000       4.00000000
 H      16.27900000      24.31100000       2.98500000
 O      24.12700000      23.82700000       7.21300000
 H      23.87000000      23.06500000       6.64100000
 H      24.04800000      23.61000000       8.16400000
 O      16.07600000      15.74100000       8.77600000
 H      15.95300000      16.49800000       9.45700000
 H      15.65800000      15.10200000       9.32800000
 O      15.62200000      19.69400000       8.71200000
 H      14.63700000      19.61500000       8.65300000
 H      15.96400000      18.79800000       8.45800000
 O      17.77000000      16.02800000       3.87900000
 H      17.24900000      16.15100000       4.73300000
 H      18.12600000      16.89400000       3.70300000
 O      15.15700000      25.15000000       3.20000000
 H      14.43300000      25.28300000       3.95500000
 H      16.00500000      24.90000000       3.61200000
 O      21.76100000      16.07600000       9.16500000
 H      21.10800000      16.29200000       9.84100000
 H      22.49300000      16.69800000       9.28600000
 O      25.78700000      19.39100000       9.46800000
 H      25.84800000      18.42600000       9.76900000
 H      26.34000000      19.45800000       8.69300000
 O      23.66100000      20.19900000       7.41100000
 H      22.79100000      20.21800000       7.80500000
 H      24.35000000      20.23700000       8.14100000
 O      16.53000000      24.39300000       8.93900000
 H      17.15800000      24.67000000       9.63900000
 H      15.74800000      23.95700000       9.43300000
 O      21.52000000      18.20100000       2.94200000
 H      21.72700000      18.96900000       2.29300000
 H      20.56000000      18.26400000       3.20800000
 O      17.07500000      19.62400000       2.55200000
 H      17.38600000      20.03400000       1.73600000
 H      16.19700000      20.00600000       2.74600000
 O      17.71600000      17.05500000       1.08600000
 H      18.63500000      16.99500000       1.48300000
 H      17.16400000      17.50800000       1.73200000
 O      25.81500000      17.04900000       7.55000000
 H      26.71200000      16.83400000       7.21200000
 H      25.21200000      16.63500000       6.83700000
 O      20.85800000      18.69800000       8.80100000
 H      20.11200000      18.66100000       8.10300000
 H      21.52500000      18.00400000       8.63100000
 O      18.97100000      25.85000000       2.64700000
 H      19.55100000      25.09400000       2.74500000
 H      18.44200000      25.99800000       3.49700000
 O      23.48100000      17.49000000       9.33100000
 H      24.05000000      17.78200000      10.07100000
 H      24.06100000      17.62600000       8.54300000
 O      16.34400000      16.63900000      10.59700000
 H      16.12900000      17.57400000      10.62600000
 H      15.49600000      16.30100000      10.24500000
 O      19.62100000      23.32600000       9.59100000
 H      19.79600000      24.03200000       8.94000000
 H      18.64300000      23.50100000       9.88700000
 O      24.09800000      17.06500000       5.57500000
 H      24.00700000      17.75100000       4.94100000
 H      23.88100000      16.18900000       5.14600000
 O      20.77700000      25.74400000       8.19500000
 H      21.10300000      25.47600000       7.29300000
 H      21.61300000      26.07500000       8.60300000
 O      21.99200000      15.69500000       3.24500000
 H      22.83000000      16.15100000       2.83600000
 H      21.98500000      15.68700000       4.19500000
 O      23.68300000      24.46000000       3.83500000
 H      23.54800000      23.55500000       4.09900000
 H      24.42500000      24.81300000       4.31200000
 O      22.89200000      23.73000000      10.22500000
 H      22.58500000      22.79100000      10.02100000
 H      22.24700000      24.03100000      10.95300000
 O      21.80500000      21.25100000       9.86900000
 H      21.11300000      21.95300000       9.84000000
 H      21.32300000      20.36800000      10.00800000
 O      16.17300000      21.96700000       7.02900000
 H      16.02800000      21.22600000       7.66500000
 H      15.55300000      22.71000000       7.43600000
 O      15.29600000      18.03000000       3.37300000
 H      15.77500000      18.11200000       2.51500000
 H      14.45400000      18.53800000       3.14500000
 O      24.97000000      25.63700000      10.56700000
 H      24.25100000      26.16200000      11.01300000
 H      24.33000000      24.85100000      10.28900000
 O      25.10800000      26.01200000       5.75700000
 H      24.19700000      26.38200000       5.99600000
 H      25.40100000      25.38800000       6.48100000
 O      16.03500000      22.70300000       2.55600000
 H      16.64400000      22.05100000       2.94600000
 H      15.11000000      22.32600000       2.75500000
 O      22.76500000      22.04700000       5.30500000
 H      22.86700000      21.24600000       5.91400000
 H      21.79400000      22.21500000       5.37500000
 O      18.19600000      21.30800000       0.84500000
 H      18.79900000      20.71400000       0.42800000
 H      17.85100000      21.79000000       0.00000000
 O      19.60800000      21.70600000       3.26500000
 H      18.84800000      21.69200000       2.53100000
 H      19.15500000      22.07500000       4.03400000
 O      21.90600000      20.51900000       2.23400000
 H      21.15000000      20.98400000       2.72300000
 H      21.46600000      20.10400000       1.41300000
 O      15.82000000      26.02100000       5.92900000
 H      15.37400000      26.91300000       6.13900000
 H      16.73500000      26.12000000       6.39400000
 O      26.82100000      16.24700000       2.72500000
 H      25.83500000      16.25800000       2.65500000
 H      27.04200000      17.22100000       2.59300000
 O      18.95200000      18.85500000       3.47000000
 H      18.21100000      18.97000000       2.80000000
 H      18.93200000      19.75800000       3.89400000
 O      26.20600000      15.14900000       7.99300000
 H      25.43700000      14.58700000       8.40900000
 H      26.19700000      16.00100000       8.53100000
