123
XYZ file of cluster: frame_6000_c66f2.7962c.520b8 - created by MolEdiTo
 O      29.68900000      26.65800000      11.64100000
 H      29.68700000      26.44700000      10.65600000
 H      28.88700000      26.14600000      11.94700000
 O      27.32400000      19.52400000      13.49100000
 H      27.03200000      20.38700000      13.92500000
 H      27.90500000      19.13100000      14.12000000
 O      30.06000000      18.96100000      15.38500000
 H      30.88500000      18.95300000      14.74600000
 H      30.41300000      18.82700000      16.27300000
 O      27.25600000      25.10700000      12.13700000
 H      26.42500000      24.68300000      12.44900000
 H      26.91900000      25.65900000      11.40000000
 O      29.90000000      25.98900000      16.31600000
 H      30.48300000      26.23000000      15.61300000
 H      29.68500000      26.81800000      16.79600000
 O      28.15700000      22.83800000      13.65600000
 H      27.95300000      23.80600000      13.33300000
 H      28.21300000      22.93700000      14.63900000
 O      28.03000000      17.07200000      14.90600000
 H      28.00900000      16.47300000      15.67400000
 H      28.83100000      17.59700000      15.12400000
 O      27.80700000      16.58200000      12.51400000
 H      28.21900000      17.01000000      13.32900000
 H      27.27100000      15.86600000      12.88300000
 O      26.08300000      21.04500000      21.11100000
 H      26.80700000      20.77400000      21.70000000
 H      25.89300000      22.03000000      21.26000000
 O      26.49400000      26.30900000      15.92500000
 H      26.22600000      26.30500000      16.86200000
 H      25.72400000      26.11100000      15.41100000
 O      27.50900000      17.08700000      17.77900000
 H      27.77600000      16.90200000      18.75400000
 H      26.93900000      17.78600000      17.98300000
 O      29.98800000      22.28300000      18.35600000
 H      30.75100000      22.29500000      17.75800000
 H      29.26800000      22.70800000      17.79500000
 O      27.66100000      16.45100000      21.10100000
 H      27.38000000      17.41300000      21.18900000
 H      26.96900000      15.78000000      21.33200000
 O      29.64900000      19.66800000      12.02500000
 H      28.63900000      19.77900000      12.20700000
 H      29.96900000      20.48000000      12.50400000
 O      28.42200000      23.51600000      16.70500000
 H      28.85000000      24.38300000      16.66700000
 H      27.42400000      23.63300000      16.80200000
 O      26.20000000      23.06400000      18.25700000
 H      25.57200000      23.37300000      18.95800000
 H      26.81200000      22.39300000      18.72600000
 O      25.86900000      17.32900000      11.27100000
 H      26.43500000      17.12100000      11.98000000
 H      25.56700000      16.48000000      10.93000000
 O      30.49900000      19.10800000      20.60700000
 H      31.07800000      19.83000000      20.82900000
 H      29.82900000      19.15400000      21.28200000
 O      35.48800000      20.30200000      17.74700000
 H      36.09600000      19.57600000      17.67700000
 H      34.62300000      19.88000000      17.71200000
 O      32.70700000      15.80300000      10.79100000
 H      33.38000000      16.58700000      10.78500000
 H      32.27300000      15.91200000      11.63900000
 O      32.81000000      22.86700000      21.86100000
 H      31.90300000      23.22000000      21.69500000
 H      33.08900000      22.62200000      20.94000000
 O      35.03000000      24.67300000      18.07800000
 H      34.25100000      24.99400000      18.57200000
 H      35.41100000      25.54200000      17.94100000
 O      32.81700000      23.34700000      16.02000000
 H      32.46700000      24.05500000      16.56600000
 H      33.32300000      23.78800000      15.30000000
 O      36.74000000      17.83800000      15.91100000
 H      36.06500000      17.38900000      16.44700000
 H      37.24500000      17.11700000      15.51100000
 O      36.67700000      16.35300000      14.73800000
 H      36.58900000      15.93800000      13.84200000
 H      35.87300000      16.80700000      14.91500000
 O      33.49300000      26.00400000      19.86800000
 H      32.58600000      25.93300000      20.25400000
 H      34.03200000      26.41400000      20.56200000
 O      35.96400000      22.94800000      16.10200000
 H      36.53000000      22.22200000      16.52500000
 H      35.37700000      23.42100000      16.74500000
 O      37.21400000      26.19400000      19.93800000
 H      36.55400000      26.70200000      20.45300000
 H      37.57000000      25.62600000      20.70300000
 O      34.00300000      16.52700000      14.85800000
 H      33.77700000      17.33200000      14.37000000
 H      33.24600000      15.99900000      14.57800000
 O      33.71400000      20.81100000      15.60700000
 H      33.44400000      21.74100000      15.73800000
 H      34.66400000      20.87200000      15.92600000
 O      35.14900000      16.98500000      18.43900000
 H      34.66900000      17.24900000      19.21500000
 H      34.49500000      16.37700000      17.98200000
 O      32.59500000      17.12400000      20.01800000
 H      33.22900000      16.40900000      20.28200000
 H      32.51100000      17.56000000      20.87600000
 O      34.78100000      22.44000000      20.08100000
 H      35.18100000      21.59900000      19.65500000
 H      34.92900000      23.13800000      19.38400000
 O      33.33400000      18.71100000      13.43800000
 H      32.85200000      19.23000000      12.71000000
 H      34.11800000      19.28300000      13.70300000
 O      37.62200000      21.30200000      20.72000000
 H      37.92300000      21.85600000      19.89900000
 H      36.68100000      21.34700000      20.47300000
 O      34.31500000      20.82600000      11.36900000
 H      35.06000000      21.47100000      11.30100000
 H      33.78300000      21.27900000      12.02500000
 O      33.49500000      15.79700000      17.48800000
 H      33.19700000      15.78300000      16.56000000
 H      32.73500000      16.19900000      17.98400000
 O      32.18100000      18.10800000      17.91700000
 H      32.34200000      17.52900000      18.67700000
 H      31.77700000      18.92200000      18.30300000
 O      36.75900000      22.51000000      13.37300000
 H      36.51100000      22.76500000      14.30000000
 H      36.80500000      21.54700000      13.35800000
 O      32.36000000      21.97900000      12.99500000
 H      32.52900000      21.87700000      13.94800000
 H      31.45600000      22.40100000      12.93600000
 O      36.24500000      19.76700000      13.96100000
 H      36.40900000      19.08600000      14.69200000
 H      36.02200000      19.36000000      13.07800000
