180
XYZ file of cluster: frame_6000_1ee3e.484cf.43c1 - created by MolEdiTo
 O       6.35300000      13.40000000      10.35000000
 H       5.77300000      12.84600000       9.70800000
 H       6.88700000      13.97500000       9.80300000
 O      14.95700000      14.27100000       5.50600000
 H      14.52900000      14.84800000       6.21600000
 H      15.07300000      14.78200000       4.62200000
 O      13.81400000      11.87800000       3.88500000
 H      13.67100000      10.85300000       3.96400000
 H      13.83000000      12.23400000       4.77400000
 O      15.04100000      12.51100000       8.09400000
 H      15.62200000      13.03000000       7.48700000
 H      15.75700000      12.24200000       8.72200000
 O      10.07400000      16.94000000       2.54800000
 H       9.30100000      16.72600000       3.09900000
 H      10.64600000      17.57300000       3.02500000
 O      15.63800000      12.76800000       4.48200000
 H      16.26100000      13.20300000       5.02200000
 H      14.83800000      13.17000000       4.79400000
 O       7.28400000      12.35500000       2.59500000
 H       7.75300000      12.36800000       3.42600000
 H       8.01000000      11.96700000       2.06300000
 O      12.86100000      19.63900000       2.29300000
 H      12.00800000      19.95300000       1.79900000
 H      13.42100000      19.31400000       1.51900000
 O      10.52500000      10.79700000       4.91600000
 H      10.17200000      11.11100000       4.05800000
 H       9.79300000      10.88700000       5.53300000
 O      12.71900000      10.48500000       1.47600000
 H      13.69000000      10.73600000       1.66300000
 H      12.60700000      10.98800000       0.61900000
 O       8.88800000      11.81800000       7.19900000
 H       8.45300000      12.66600000       6.86800000
 H       9.10200000      12.21200000       8.03600000
 O      11.23700000      16.49300000       7.46900000
 H      11.60300000      15.93000000       6.73500000
 H      10.60300000      17.08600000       6.99700000
 O      15.76000000      20.27200000       5.17300000
 H      16.60500000      20.63200000       5.58800000
 H      15.31300000      20.96900000       4.70700000
 O       5.76700000      16.92300000       5.60600000
 H       5.83500000      17.12700000       4.64200000
 H       5.86000000      15.92000000       5.68900000
 O       5.58700000      17.15600000       9.26900000
 H       6.30500000      16.60600000       9.13800000
 H       5.86500000      17.96600000       8.85200000
 O       6.14900000      18.26100000      11.21500000
 H       5.63800000      17.42600000      11.18700000
 H       6.15400000      18.58500000      10.33800000
 O      14.76400000      15.72500000       1.78400000
 H      13.89400000      16.18400000       1.86900000
 H      14.95000000      15.66700000       0.83900000
 O       4.62600000      11.66300000       3.70900000
 H       3.98000000      11.77900000       2.92500000
 H       5.40800000      11.35200000       3.25400000
 O      13.10200000      19.31400000       6.29300000
 H      14.03900000      19.31400000       5.99900000
 H      13.06600000      19.84000000       7.11800000
 O      13.31300000      17.22400000       3.43300000
 H      13.52500000      16.80700000       4.30300000
 H      13.77100000      18.11400000       3.37400000
 O       7.18800000      15.40800000       3.41600000
 H       6.93900000      16.14600000       2.80500000
 H       6.29100000      15.00000000       3.57800000
 O       8.50800000      16.36500000       5.96300000
 H       7.53100000      16.33800000       5.76500000
 H       8.54900000      17.35200000       5.88500000
 O       6.61500000      18.80700000       8.04800000
 H       6.80600000      18.88400000       7.06300000
 H       5.84700000      19.40300000       8.15200000
 O       6.02500000      14.49800000       1.29700000
 H       6.76500000      15.13200000       1.62700000
 H       6.31600000      13.67300000       1.63500000
 O      15.79200000      14.15700000      10.63600000
 H      15.78000000      13.29900000      10.23200000
 H      14.99900000      14.10600000      11.21500000
 O      16.07600000      15.74100000       8.77600000
 H      15.95300000      16.49800000       9.45700000
 H      15.65800000      15.10200000       9.32800000
 O      15.62200000      19.69400000       8.71200000
 H      14.63700000      19.61500000       8.65300000
 H      15.96400000      18.79800000       8.45800000
 O       5.37700000      19.98500000       4.99300000
 H       4.48300000      20.06800000       4.80500000
 H       5.76200000      20.65300000       4.49000000
 O      12.10800000      11.77400000       8.67500000
 H      11.93900000      11.88200000       7.68900000
 H      13.06200000      12.04600000       8.82400000
 O       8.68700000      21.18500000       7.28200000
 H       7.96400000      21.81600000       7.32300000
 H       8.23400000      20.38200000       6.89100000
 O       8.22200000      18.04400000       1.91000000
 H       8.38200000      17.20800000       1.35000000
 H       8.11700000      18.69600000       1.20500000
 O      15.17100000      11.82500000       2.54100000
 H      15.71600000      12.43700000       1.95800000
 H      15.01300000      12.29900000       3.40800000
 O       8.22900000      16.56200000       8.49600000
 H       9.05500000      16.07100000       8.81700000
 H       8.45800000      16.86900000       7.59900000
 O       8.87300000      18.35100000       9.69700000
 H       8.64900000      18.97100000       8.99500000
 H       8.52900000      17.47300000       9.38300000
 O      10.76200000      10.16900000      10.51700000
 H      11.28300000      10.87100000      10.02000000
 H      10.58500000       9.39900000       9.84300000
 O      13.54600000      17.05100000       8.92000000
 H      13.02000000      17.51700000       9.62900000
 H      12.81600000      16.71200000       8.25300000
 O      11.19700000      18.80800000       4.12000000
 H      11.46800000      19.24000000       3.35100000
 H      12.05400000      18.77800000       4.61700000
 O       6.24700000      17.00200000       2.63000000
 H       6.79800000      17.81100000       2.72900000
 H       5.35800000      17.41600000       2.90700000
 O       8.27300000      12.99000000       4.09700000
 H       9.14700000      13.18100000       3.91100000
 H       7.96700000      13.76000000       4.47700000
 O       5.26100000      12.35400000       7.99600000
 H       4.96800000      13.29100000       7.80500000
 H       5.65200000      12.17500000       7.15500000
 O       9.72700000      12.33700000       0.86300000
 H      10.08500000      12.67500000       1.70700000
 H       9.49700000      11.42700000       1.11600000
 O      12.02100000      13.60700000       6.02100000
 H      12.34700000      14.35500000       5.44200000
 H      12.13000000      12.84200000       5.47300000
 O      16.34400000      16.63900000      10.59700000
 H      16.12900000      17.57400000      10.62600000
 H      15.49600000      16.30100000      10.24500000
 O      12.00500000      18.54700000       9.55900000
 H      11.14500000      18.16000000       9.65200000
 H      11.69000000      19.32900000       9.14400000
 O      16.60100000      10.18000000       3.38000000
 H      16.49100000      11.16200000       3.24700000
 H      15.72100000       9.77600000       3.14400000
 O      12.44300000      14.37000000       3.23500000
 H      13.30600000      13.90200000       3.19400000
 H      12.80400000      15.30300000       3.03200000
 O      11.01300000      20.99500000       8.76800000
 H      10.12800000      21.08200000       8.31400000
 H      10.99100000      21.73000000       9.41900000
 O       8.27200000      16.22700000       1.19700000
 H       8.77400000      16.42200000       2.06900000
 H       8.89100000      15.84800000       0.55000000
 O       9.38700000      13.75400000       9.50600000
 H       8.84100000      13.87800000      10.27700000
 H      10.26500000      13.43200000       9.83800000
 O       6.98900000      19.97100000       3.30900000
 H       7.11700000      19.27100000       2.66500000
 H       7.77100000      20.48000000       3.18400000
 O      10.93400000      12.08100000       3.42000000
 H      11.49700000      12.65800000       4.04900000
 H      11.40000000      11.26700000       3.20400000
 O      12.12100000      16.47500000       1.38200000
 H      12.22600000      17.33900000       0.95200000
 H      11.45200000      16.62200000       2.06600000
 O      16.33800000      14.48400000       1.66700000
 H      15.71400000      14.46800000       0.93900000
 H      17.22900000      14.43500000       1.29900000
 O       8.26800000      21.83700000      10.98200000
 H       8.10500000      21.11400000      11.65300000
 H       8.31800000      21.47700000      10.01100000
 O      15.29600000      18.03000000       3.37300000
 H      15.77500000      18.11200000       2.51500000
 H      14.45400000      18.53800000       3.14500000
 O      12.74600000      14.28000000       9.86700000
 H      11.95400000      14.62600000       9.40500000
 H      13.42600000      14.43800000       9.21500000
 O       6.01600000      11.43400000       5.37100000
 H       5.32100000      11.70500000       4.70700000
 H       6.88400000      11.64900000       4.96200000
 O      14.30600000      11.13400000      11.04800000
 H      14.43300000      10.48000000      11.78600000
 H      14.67500000      10.62900000      10.34400000
 O       8.53400000      19.07200000       5.33600000
 H       7.95600000      19.60800000       4.78900000
 H       9.46600000      19.39000000       5.22300000
 O      14.24200000      17.04900000       6.15900000
 H      15.15800000      17.48400000       5.85900000
 H      14.19500000      17.13000000       7.12100000
