48
XYZ file of cluster: frame_16500_c1521.1b2b5.9da32 - created by MolEdiTo
 O      19.12500000       4.82700000      20.64000000
 H      18.47800000       4.07900000      20.29500000
 H      18.61500000       5.56400000      20.36700000
 O      19.90600000       9.18700000      16.80900000
 H      20.86900000       8.84500000      16.57100000
 H      19.36100000       8.42900000      16.45000000
 O      19.86700000      11.32600000      19.41400000
 H      20.34000000      10.45500000      19.47200000
 H      18.97600000      11.17100000      19.78900000
 O      18.33300000       7.59800000      15.22300000
 H      18.92600000       7.51300000      14.45400000
 H      17.60800000       8.27400000      15.03000000
 O      20.61300000       8.24300000      19.51800000
 H      20.28900000       8.24100000      18.59200000
 H      19.81400000       7.82700000      19.94500000
 O      18.43800000       6.46500000      18.25800000
 H      17.79900000       7.11000000      18.54900000
 H      18.33900000       6.35100000      17.26800000
 O      19.00500000      10.65600000      14.67200000
 H      19.62600000      10.20500000      15.27900000
 H      19.28300000      11.61000000      14.88900000
 O      20.19900000       2.99500000      15.79600000
 H      20.15500000       3.91400000      16.28800000
 H      20.55500000       2.35200000      16.46100000
 O      17.59100000      10.99700000      17.21900000
 H      16.88600000      10.64700000      16.60300000
 H      18.29700000      10.32400000      17.05700000
 O      23.01500000       4.91000000      19.18800000
 H      22.80800000       5.88500000      19.19000000
 H      22.13900000       4.60400000      19.51300000
 O      25.54600000       3.23700000      19.66600000
 H      26.34200000       3.67300000      19.22700000
 H      24.68500000       3.61200000      19.19300000
 O      23.08000000       7.98400000      15.28700000
 H      24.06500000       8.04100000      15.52400000
 H      23.01800000       7.27600000      14.65300000
 O      25.15400000       5.84900000      14.20400000
 H      24.37200000       5.33600000      13.95900000
 H      25.17600000       5.67700000      15.18900000
 O      24.52700000       8.40300000      20.42700000
 H      23.63600000       8.44800000      19.88400000
 H      25.26800000       8.34000000      19.70900000
 O      24.67800000      10.38800000      17.26600000
 H      23.87700000      10.41600000      16.67800000
 H      25.20300000       9.56900000      17.11400000
 O      24.96200000       5.32500000      17.18500000
 H      24.20200000       5.06100000      17.74700000
 H      25.64600000       5.36000000      17.94100000
