64
XYZ file of cluster: frame_16500_22e24.1e6a4.4fcba - created by MolEdiTo
 O       9.54900000       4.58200000       7.11600000
 H       9.19000000       5.21600000       7.72800000
 H      10.01400000       3.97700000       7.80600000
 O       5.15800000       7.77700000       7.24400000
 H       4.25200000       7.65200000       7.06600000
 H       5.08400000       8.67800000       7.66100000
 O       4.67900000       8.97400000      11.45500000
 H       3.85700000       9.34100000      11.13900000
 H       4.75700000       8.14700000      10.90000000
 O       4.98400000       3.62300000      10.62500000
 H       5.02500000       3.99700000       9.70400000
 H       5.81100000       3.80600000      11.16000000
 O      11.14800000       6.33000000      12.86500000
 H      11.62400000       6.06400000      13.72400000
 H      10.48700000       5.56000000      12.66500000
 O       9.64500000       5.29200000      10.29400000
 H      10.52400000       5.73600000      10.47500000
 H       9.08600000       6.00500000       9.87800000
 O       3.82900000       5.84900000      14.20400000
 H       3.04700000       5.33600000      13.95900000
 H       3.85100000       5.67700000      15.18900000
 O       8.08000000       8.52300000      12.95000000
 H       7.48900000       9.20300000      12.52500000
 H       8.72600000       8.27400000      12.22400000
 O      10.64100000       3.13000000       9.05300000
 H      11.38000000       2.63300000       8.81200000
 H      10.85200000       3.70400000       9.81000000
 O       6.57200000       9.92000000       9.44700000
 H       7.18900000       9.17500000       9.59100000
 H       6.48600000      10.50200000      10.24600000
 C      10.43100000      11.96900000       9.80000000
 C      10.25400000      11.32600000      11.20500000
 C      10.55200000       9.03300000      10.03900000
 H      12.00900000      10.23700000      10.90100000
 H      10.41300000      13.90200000       9.62800000
 O      11.01100000       9.30200000      12.52700000
 O      11.83400000      12.38800000       9.78400000
 O       9.73700000      13.18600000       9.75600000
 C      11.02400000       9.96100000      11.24000000
 O      10.78700000      12.14200000      12.33300000
 H       9.16600000      11.06800000      11.34800000
 O       9.23900000       8.51000000      10.29300000
 O      11.36100000       7.90000000       9.88800000
 H      12.02700000       8.13700000       9.20900000
 H      11.80200000      12.04100000      12.29100000
 H      11.33700000       8.38700000      12.38800000
 O       8.33800000       5.80500000      13.62200000
 H       7.89600000       5.71900000      14.55400000
 H       8.88300000       6.60000000      13.75400000
 O       5.73600000       6.26400000      12.03400000
 H       6.15600000       7.09100000      12.38000000
 H       5.06700000       6.02800000      12.66300000
 O       6.85200000       6.05400000       8.45500000
 H       6.09400000       6.04700000       7.84900000
 H       6.50400000       6.66300000       9.14100000
 O       7.54200000       3.98300000      11.66600000
 H       8.43600000       4.42900000      11.64600000
 H       7.09600000       4.71600000      12.18700000
 O       4.71900000       4.02600000       7.52700000
 H       5.65000000       4.12600000       7.19100000
 H       4.51900000       3.04400000       7.33700000
 O       4.37500000       8.94900000      14.53100000
 H       4.19000000       9.92100000      14.55500000
 H       4.56200000       8.74500000      13.57800000
