36
XYZ file of cluster: frame_16500_2677a.7f58.be14e - created by MolEdiTo
 O       4.22100000       3.23700000      19.66600000
 H       5.01700000       3.67300000      19.22700000
 H       3.36000000       3.61200000      19.19300000
 O       8.59000000       2.99600000      17.30000000
 H       8.54500000       3.48100000      18.15800000
 H       7.75500000       3.28800000      16.83200000
 O       8.13400000       3.11400000      20.69000000
 H       7.81400000       2.21600000      20.69100000
 H       7.51300000       3.59200000      21.28100000
 O      10.92500000       4.36500000      20.44900000
 H      10.53200000       4.46800000      21.32700000
 H      10.20300000       3.69700000      20.05900000
 O       5.67800000       5.73000000      19.39100000
 H       6.54200000       6.09200000      19.11000000
 H       5.63500000       6.16600000      20.29100000
 O       7.60600000       0.68900000      19.24100000
 H       6.70400000       0.72100000      18.83700000
 H       8.11300000       1.00500000      18.45500000
 O       3.72300000       1.58500000      24.21800000
 H       3.77400000       2.50600000      23.87700000
 H       4.08600000       1.64900000      25.10400000
 O       8.90200000       7.20900000      23.29100000
 H       8.04000000       7.25200000      23.81700000
 H       9.36900000       6.44900000      23.73100000
 O       6.46400000       3.95700000      24.36000000
 H       6.84300000       4.27200000      25.20500000
 H       5.82200000       4.65600000      24.19200000
 O       5.36000000       6.66000000      23.57700000
 H       5.67200000       7.01000000      24.48600000
 H       4.57700000       7.24500000      23.39600000
 O       9.52800000       4.78400000      24.47200000
 H      10.46600000       4.80600000      24.70200000
 H       9.17300000       3.99800000      24.91800000
 O       8.67800000       2.15600000      25.56000000
 H       7.99200000       1.80800000      25.01500000
 H       8.37200000       2.05800000      26.53100000
