36
XYZ file of cluster: frame_16500_a7ad0.c91.821dd - created by MolEdiTo
 O      14.70500000       3.93600000      11.97300000
 H      15.00100000       3.80800000      12.92100000
 H      15.39600000       3.35500000      11.52200000
 O      17.75200000       2.17500000      14.46000000
 H      17.73500000       1.20700000      14.25900000
 H      18.66500000       2.27200000      14.81000000
 O      18.84100000       7.76900000      12.14900000
 H      19.68900000       7.45400000      11.88400000
 H      18.33200000       6.91700000      11.96400000
 O      14.97500000       6.71600000      15.81300000
 H      14.64600000       7.21800000      15.04000000
 H      15.76600000       6.32500000      15.44200000
 O      18.83100000       2.52300000      11.62300000
 H      18.32200000       2.22700000      12.42600000
 H      19.66000000       2.13100000      11.75100000
 O      18.52700000       4.83000000      13.02300000
 H      19.01600000       4.02900000      12.63900000
 H      17.77100000       5.00500000      12.34400000
 O      16.00000000       4.61000000      14.28500000
 H      16.22800000       3.70100000      14.52700000
 H      16.90800000       5.02800000      14.30800000
 O      15.43400000       7.59600000      13.19800000
 H      15.55900000       6.74800000      12.70800000
 H      14.74200000       7.98800000      12.69600000
 O      18.43800000       6.46500000      18.25800000
 H      17.79900000       7.11000000      18.54900000
 H      18.33900000       6.35100000      17.26800000
 O      15.04500000       1.61400000      13.67200000
 H      15.13700000       1.14700000      14.57100000
 H      15.94000000       1.85700000      13.48000000
 O      20.19900000       2.99500000      15.79600000
 H      20.15500000       3.91400000      16.28800000
 H      20.55500000       2.35200000      16.46100000
 O      16.22500000       0.99800000      18.31700000
 H      15.46700000       1.04700000      17.72200000
 H      16.28800000       0.06800000      18.64000000
