39
XYZ file of cluster: frame_16500_20f00.cac0.6d960 - created by MolEdiTo
 O       7.63000000       6.62700000      16.30900000
 H       7.72300000       7.64600000      16.28400000
 H       8.35600000       6.52800000      16.91800000
 O       8.59000000       2.99600000      17.30000000
 H       8.54500000       3.48100000      18.15800000
 H       7.75500000       3.28800000      16.83200000
 O      11.14800000       6.33000000      12.86500000
 H      11.62400000       6.06400000      13.72400000
 H      10.48700000       5.56000000      12.66500000
 O       4.98400000       3.62300000      10.62500000
 H       5.02500000       3.99700000       9.70400000
 H       5.81100000       3.80600000      11.16000000
 O       3.35900000       1.76300000      11.66300000
 H       3.88300000       1.09700000      11.22600000
 H       3.68200000       2.62600000      11.27900000
 O       3.82900000       5.84900000      14.20400000
 H       3.04700000       5.33600000      13.95900000
 H       3.85100000       5.67700000      15.18900000
 O       6.32900000       4.20300000      16.16500000
 H       6.65700000       5.06000000      16.40500000
 H       5.39500000       4.33300000      15.68600000
 O       8.33800000       5.80500000      13.62200000
 H       7.89600000       5.71900000      14.55400000
 H       8.88300000       6.60000000      13.75400000
 O       5.73600000       6.26400000      12.03400000
 H       6.15600000       7.09100000      12.38000000
 H       5.06700000       6.02800000      12.66300000
 O       7.54200000       3.98300000      11.66600000
 H       8.43600000       4.42900000      11.64600000
 H       7.09600000       4.71600000      12.18700000
 O       9.46600000       2.36900000      14.08200000
 H       8.81100000       2.79500000      13.60100000
 H       9.12400000       2.37300000      15.00400000
 O       6.76400000       1.79300000      13.00700000
 H       5.76800000       1.75900000      12.79700000
 H       7.12200000       2.40900000      12.25400000
 O       3.63700000       5.32500000      17.18500000
 H       2.87700000       5.06100000      17.74700000
 H       4.32100000       5.36000000      17.94100000
