48
XYZ file of cluster: frame_16500_92eb6.6dd1f.4f552 - created by MolEdiTo
 O      17.98400000      14.74900000       9.18300000
 H      17.17400000      14.61400000       9.66100000
 H      17.70600000      14.91700000       8.24700000
 O      20.49900000      13.39300000       9.36900000
 H      21.09900000      14.07800000       8.88200000
 H      20.05600000      14.05700000       9.91500000
 O      17.04100000      11.93600000       7.43000000
 H      16.08300000      12.20700000       7.43800000
 H      17.31200000      12.82800000       7.02500000
 O      13.54200000      17.22000000      12.29200000
 H      14.39100000      17.75700000      12.17600000
 H      12.83300000      17.85400000      11.97900000
 O      15.51100000      10.20100000      10.64900000
 H      15.76200000      10.53700000       9.76200000
 H      16.19200000      10.60400000      11.26500000
 O      20.09200000      10.69200000       8.74600000
 H      20.07100000      11.64000000       9.12000000
 H      19.23700000      10.61400000       8.23400000
 O      15.54400000      13.74500000      10.99100000
 H      16.20700000      13.22800000      11.44800000
 H      15.95600000      14.65300000      11.27700000
 O      16.22200000      13.66100000      15.10400000
 H      16.53000000      14.55600000      15.44100000
 H      16.27800000      13.79800000      14.10200000
 O      18.25500000      17.40900000      12.06500000
 H      19.17300000      17.28000000      12.48400000
 H      18.18700000      16.78100000      11.35100000
 O      14.46300000      12.33100000       8.77100000
 H      13.47900000      12.21300000       8.96400000
 H      14.74300000      12.87300000       9.52000000
 O      19.89400000      17.03500000       9.41600000
 H      20.23600000      16.38300000       8.73600000
 H      19.91400000      16.54900000      10.22000000
 O      15.93300000      15.41900000       7.55100000
 H      14.99400000      15.10800000       7.70100000
 H      16.13800000      16.26200000       8.03600000
 O      15.73400000      16.59300000      10.54500000
 H      15.67900000      17.53200000      10.78000000
 H      14.81300000      16.32200000      10.87400000
 O      19.98400000      15.01400000      11.60700000
 H      19.53000000      14.71400000      12.36700000
 H      20.55000000      15.65300000      12.06900000
 O      18.33400000      10.46900000      11.48000000
 H      19.31900000      10.61100000      11.45900000
 H      18.17300000       9.50700000      11.59800000
 O      17.27400000      12.59700000      12.80200000
 H      18.00400000      12.01500000      12.46300000
 H      16.75000000      12.04800000      13.48200000
