45
XYZ file of cluster: frame_6000_2419c.9bfd2.1ccfa - created by MolEdiTo
 O       4.11900000      15.62000000       5.83400000
 H       4.55500000      16.36800000       6.13600000
 H       3.15300000      15.86500000       6.06700000
 O       7.12900000      19.48600000       4.87500000
 H       7.31900000      18.96400000       5.65800000
 H       8.01200000      19.51600000       4.50300000
 O       3.52900000      18.80200000      11.31500000
 H       4.27400000      18.64700000      11.95700000
 H       4.02500000      19.13800000      10.51800000
 O       8.27500000      17.48100000       6.78500000
 H       9.16900000      17.92900000       6.59900000
 H       8.40500000      16.53300000       6.70800000
 O      10.36900000      17.73800000       9.19600000
 H      11.04800000      18.40100000       8.92800000
 H      10.36300000      16.96000000       8.54900000
 O       6.77000000      14.58100000       5.03400000
 H       6.29700000      14.10400000       4.23800000
 H       5.90900000      14.88900000       5.43700000
 O       4.46500000      17.83400000       2.96800000
 H       3.73400000      17.67500000       3.55900000
 H       4.31600000      18.69800000       2.50900000
 O       9.24900000      14.64400000       7.40600000
 H       8.73200000      13.89800000       7.77000000
 H      10.15100000      14.43200000       7.60900000
 O       6.10600000      20.59500000       9.83100000
 H       6.66200000      21.25900000      10.24200000
 H       6.49800000      19.68900000       9.97600000
 O       7.43400000      14.64400000      10.19700000
 H       7.96300000      14.68800000      10.98800000
 H       7.83300000      15.46700000       9.73100000
 O      10.62200000      20.60300000       3.71900000
 H      10.64000000      19.93800000       4.43900000
 H       9.94100000      20.24600000       3.06500000
 O       9.19100000      18.02700000       3.58900000
 H       8.91200000      17.15000000       4.05200000
 H       9.73200000      17.62000000       2.87100000
 O       4.32400000      18.56900000       7.38800000
 H       5.18500000      19.03600000       7.17500000
 H       3.65800000      19.23100000       7.52800000
 O       7.62000000      17.77600000       9.71800000
 H       7.38900000      17.90800000       8.73800000
 H       8.64300000      17.65700000       9.64300000
 O       9.37000000      15.13000000       4.39700000
 H       8.40400000      14.79000000       4.44300000
 H       9.80400000      15.02900000       5.25900000
