45
XYZ file of cluster: frame_6000_0.538cd.10487 - created by MolEdiTo
 O       4.90100000       8.21600000       1.74200000
 H       5.45600000       7.44400000       1.90800000
 H       4.67100000       8.46600000       2.62800000
 O       6.47500000      14.18100000       1.72600000
 H       5.75400000      14.23100000       2.40500000
 H       6.93800000      15.10900000       1.88100000
 O       0.85900000      14.97200000       4.52700000
 H       0.72900000      15.90200000       4.86800000
 H       0.69200000      14.45800000       5.33500000
 O       0.75900000       9.59600000       4.31200000
 H       0.30700000      10.07600000       5.03400000
 H       0.42900000       8.66000000       4.43300000
 O       6.95300000      12.00900000       5.81600000
 H       6.84400000      12.95600000       5.58400000
 H       6.67300000      11.51300000       5.00100000
 O       6.77000000      14.58100000       5.03400000
 H       6.29700000      14.10400000       4.23800000
 H       5.90900000      14.88900000       5.43700000
 O       6.25200000      10.56300000       3.32400000
 H       6.70100000       9.66100000       3.02900000
 H       5.23500000      10.42500000       3.31800000
 O       6.68900000       8.51600000       5.44300000
 H       7.34800000       8.99300000       4.91300000
 H       5.81600000       8.64500000       4.98200000
 O       2.57000000      11.90400000       5.23500000
 H       1.60300000      12.24300000       5.43700000
 H       2.42900000      10.91500000       5.08600000
 O       0.90400000      10.02200000       1.58300000
 H       0.00000000      10.43000000       1.41800000
 H       0.79500000       9.92800000       2.56300000
 O       3.74100000      10.72800000       1.97200000
 H       3.76800000       9.88800000       1.55400000
 H       2.95100000      10.70300000       2.59800000
 O       4.70300000      13.57000000       3.74200000
 H       3.92500000      13.80800000       4.27600000
 H       4.38500000      12.71100000       3.39600000
 O       4.23700000       9.06500000       4.46900000
 H       3.44800000       8.53700000       4.74400000
 H       4.32400000       9.63800000       5.29700000
 O       5.15900000      10.40900000       7.07400000
 H       5.74200000      11.13000000       6.80300000
 H       5.31500000      10.15400000       8.00300000
 O       4.30000000      13.40100000       7.28400000
 H       4.12300000      12.75500000       6.63800000
 H       3.94900000      14.30600000       7.01100000
