42
XYZ file of cluster: frame_6000_2570c.0.5084e - created by MolEdiTo
 O       7.39000000       3.28900000      10.28900000
 H       7.78000000       3.03300000       9.46300000
 H       7.39500000       4.21100000      10.08300000
 O       8.70700000       6.69800000      11.09600000
 H       9.63700000       6.39200000      11.36500000
 H       8.62000000       6.52600000      10.17600000
 O       5.88600000       4.71600000       7.72800000
 H       6.40800000       5.42500000       7.37200000
 H       5.00800000       4.73400000       7.29100000
 O       5.24300000       6.11400000      11.59400000
 H       5.96600000       6.71300000      11.95400000
 H       4.37100000       6.56800000      11.89800000
 O       9.53900000       3.69300000      12.59800000
 H       9.09700000       3.31100000      11.80400000
 H      10.07500000       3.00800000      13.06500000
 O       4.89900000       2.22900000       8.07600000
 H       5.26400000       1.46700000       8.56900000
 H       5.54500000       2.94000000       8.33300000
 O       3.27000000       3.47500000      10.33800000
 H       3.93100000       2.83600000       9.99100000
 H       3.28100000       3.32600000      11.32100000
 O       9.72900000       6.13200000      14.06400000
 H       9.89000000       6.18500000      14.97700000
 H       9.32600000       5.18400000      13.96000000
 O       8.71300000       2.93200000       7.72800000
 H       9.14200000       3.69000000       7.35000000
 H       7.87000000       2.98100000       7.18300000
 O      10.39900000       5.47900000       8.61600000
 H      10.47400000       5.44800000       9.57400000
 H      11.12000000       4.89900000       8.39600000
 O       8.14700000       0.92800000      12.40400000
 H       9.05400000       0.78700000      12.09400000
 H       8.01500000       0.00000000      12.57000000
 O       5.52200000       3.49000000      12.40800000
 H       6.09600000       3.19700000      11.70900000
 H       5.22100000       4.43500000      12.13200000
 O      10.07500000       1.78400000       9.94000000
 H       9.18300000       1.61400000       9.63500000
 H      10.26200000       1.10100000      10.60200000
 O      11.38600000       1.03300000       7.20000000
 H      11.70500000       1.37700000       8.07900000
 H      10.56300000       1.53000000       7.01200000
