52
XYZ file of cluster: frame_6000_42975.4b10a.21bfa - created by MolEdiTo
 O      11.67300000      12.89400000       6.09300000
 H      11.90200000      12.45700000       5.18300000
 H      10.83400000      12.40800000       6.41700000
 O      10.63300000       7.25800000       3.24100000
 H      11.34200000       6.68800000       2.93900000
 H      11.21900000       7.83000000       3.80200000
 O      12.07500000       8.71800000       5.31000000
 H      11.42900000       9.33500000       5.59300000
 H      12.56500000       8.49200000       6.14000000
 O       7.18900000       7.88900000       8.30100000
 H       6.60800000       7.25400000       7.98600000
 H       6.88600000       8.69700000       7.82500000
 O      13.13900000       7.73100000       7.57200000
 H      12.55100000       7.70300000       8.30200000
 H      13.27400000       6.71200000       7.47600000
 O       9.24900000      14.64400000       7.40600000
 H       8.73200000      13.89800000       7.77000000
 H      10.15100000      14.43200000       7.60900000
 C       9.00100000      11.00300000      10.92500000
 C      10.31000000      11.81300000      10.67300000
 C      11.36600000       9.51100000      10.71700000
 H      11.32300000      10.81400000       8.92800000
 H       8.05200000      11.82100000       9.48100000
 O      12.68900000      11.50100000      10.29200000
 O       8.19900000      11.77600000      11.83700000
 O       8.15600000      10.90200000       9.77500000
 C      11.45800000      10.95300000      10.07100000
 O       9.97900000      13.01800000       9.91800000
 H      10.60300000      12.06200000      11.67500000
 O      12.36200000       8.71100000      10.10800000
 O      11.81300000       9.43800000      12.06900000
 H      12.19300000       8.54500000      12.12700000
 H      10.73800000      13.67200000      10.05900000
 H      13.21000000      10.70400000      10.13000000
 O       6.68900000       8.51600000       5.44300000
 H       7.34800000       8.99300000       4.91300000
 H       5.81600000       8.64500000       4.98200000
 O      14.55500000      10.61800000       5.77800000
 H      14.79000000       9.70900000       6.06200000
 H      14.14600000      10.50500000       4.84900000
 O      14.85300000      13.48500000      11.07700000
 H      13.92800000      13.05000000      10.92400000
 H      15.19500000      13.92600000      10.21100000
 O      12.24000000      14.88100000       8.15000000
 H      12.18700000      15.55700000       7.47000000
 H      12.93400000      14.17900000       7.82500000
 O       9.88100000       8.46300000       8.16300000
 H      10.14500000       7.58900000       7.79000000
 H       8.90100000       8.25300000       8.33600000
 O       9.61500000      11.34800000       6.80900000
 H       9.47700000      10.42900000       7.12400000
 H       8.72000000      11.58300000       6.57300000
