48
XYZ file of cluster: frame_6000_74b1e.a4e68.6ed88 - created by MolEdiTo
 O      11.43400000      15.24300000      18.34900000
 H      10.66400000      14.69200000      18.69200000
 H      11.29800000      15.39700000      17.33800000
 O      15.32900000      16.26400000      12.60200000
 H      14.70000000      16.62700000      11.98800000
 H      15.02200000      15.39300000      12.92400000
 O      14.31600000      20.83300000      15.22200000
 H      14.06000000      21.75200000      14.98300000
 H      13.62600000      20.32200000      14.75000000
 O      12.95500000      18.58900000      13.68600000
 H      13.82300000      18.51500000      14.13700000
 H      12.44400000      17.78900000      14.01000000
 O      17.68700000      18.91300000      16.94400000
 H      18.21000000      18.77600000      17.76700000
 H      18.13700000      18.44100000      16.24000000
 O      16.40000000      19.83500000      10.33800000
 H      16.87300000      19.35700000      11.07800000
 H      16.06200000      19.17300000       9.65300000
 O      11.62800000      16.28000000      15.42700000
 H      12.47100000      16.10400000      15.91400000
 H      11.37600000      17.17100000      15.85600000
 O      14.20200000      15.51800000      16.36500000
 H      14.61300000      14.95400000      15.72800000
 H      14.50500000      15.19600000      17.26500000
 O      12.39400000      14.89600000      12.59000000
 H      12.91400000      15.42500000      11.92000000
 H      12.39800000      15.31200000      13.47500000
 O      10.65700000      19.73300000      11.79500000
 H      11.56200000      19.39100000      11.74500000
 H      10.19200000      18.89200000      12.17200000
 O      11.17500000      18.48400000      17.30100000
 H      11.46400000      19.39400000      17.26000000
 H      11.55700000      18.16400000      18.12500000
 O      17.16500000      20.18300000      14.17100000
 H      16.93800000      19.68800000      14.96100000
 H      16.34400000      20.54000000      13.85900000
 O      15.15200000      17.87900000      15.00100000
 H      14.72100000      17.60400000      15.84700000
 H      15.52200000      17.04000000      14.64200000
 O      13.07400000      17.18400000      10.81300000
 H      12.71900000      18.07300000      10.64300000
 H      12.55100000      16.74700000      10.05600000
 O      17.40100000      15.80500000      10.57200000
 H      18.03000000      16.31400000      11.10300000
 H      16.64000000      15.64400000      11.18400000
 O      15.19500000      20.62300000      17.92400000
 H      16.14700000      20.29400000      17.76900000
 H      14.87700000      20.53900000      16.96900000
