48
XYZ file of cluster: frame_6000_9d42c.713f9.2f3dc - created by MolEdiTo
 O      18.29700000      10.11400000       5.64300000
 H      17.71900000      10.09000000       4.88500000
 H      18.01500000      10.89000000       6.22200000
 O      16.86000000      14.09400000       4.64500000
 H      16.33400000      14.77600000       4.26800000
 H      17.62300000      14.07400000       4.11400000
 O      17.91700000      11.88500000       9.16900000
 H      17.02800000      11.53400000       9.04300000
 H      17.92700000      12.74000000       8.67600000
 O      19.22800000      17.53100000       6.04100000
 H      18.33000000      17.47800000       6.44800000
 H      19.42700000      18.49300000       6.13600000
 O      16.69400000      12.16200000       6.50500000
 H      15.71100000      11.78400000       6.58000000
 H      16.60500000      12.99500000       6.03900000
 O      20.38600000      13.25900000       9.33700000
 H      19.54400000      12.82900000       9.64500000
 H      21.00200000      12.60600000       9.75400000
 O      15.15000000      14.56300000       8.54600000
 H      15.93200000      15.13600000       8.26800000
 H      14.40800000      15.18800000       8.60800000
 O      16.79900000      16.97800000       8.44700000
 H      17.03800000      16.85200000       9.42600000
 H      17.32000000      17.75100000       8.04400000
 O      14.43300000      18.47700000       7.61400000
 H      14.88900000      18.58000000       6.71000000
 H      14.93600000      17.82600000       8.16800000
 O      20.50400000      18.23800000      10.18000000
 H      20.63200000      17.25700000      10.00100000
 H      21.32300000      18.72000000      10.03100000
 O      18.43700000      14.55900000       7.67600000
 H      18.36900000      15.44100000       8.13800000
 H      17.85700000      14.53900000       6.88300000
 O      16.13500000      18.37800000       5.43600000
 H      16.51900000      19.29900000       5.38000000
 H      16.28900000      18.04900000       4.52600000
 O      14.85300000      13.48500000      11.07700000
 H      13.92800000      13.05000000      10.92400000
 H      15.19500000      13.92600000      10.21100000
 O      17.40100000      15.80500000      10.57200000
 H      18.03000000      16.31400000      11.10300000
 H      16.64000000      15.64400000      11.18400000
 O      13.75700000      16.61900000       5.14900000
 H      13.73500000      15.76700000       4.56600000
 H      14.65800000      16.98000000       5.12300000
 O      19.88600000      12.60800000       6.14400000
 H      20.26500000      12.06900000       6.81700000
 H      19.12700000      12.99800000       6.56400000
