135
XYZ file of cluster: frame_9000_4ecbb.7143e.9ad80 - created by MolEdiTo
 O      21.36900000      23.86800000      26.63200000
 H      20.40600000      24.11400000      26.68300000
 H      21.41500000      23.59000000      25.71000000
 O      18.87700000      22.13500000      27.61700000
 H      18.04200000      21.67300000      27.35900000
 H      19.57000000      21.43200000      27.69500000
 O      14.31900000      24.35900000      27.64400000
 H      14.55800000      24.88600000      26.82800000
 H      15.11200000      24.39000000      28.19700000
 O      14.11300000      24.67300000      22.76700000
 H      13.52100000      25.29600000      22.31600000
 H      15.01500000      24.73100000      22.35800000
 O      16.25400000      18.93200000      25.48500000
 H      15.30500000      19.11500000      25.38900000
 H      16.51400000      19.84400000      25.70200000
 O      13.52600000      19.87600000      23.38500000
 H      13.05700000      19.56500000      24.21700000
 H      12.85200000      19.55200000      22.69900000
 O      11.95800000      26.50900000      26.49400000
 H      12.38100000      27.10700000      27.13300000
 H      11.93900000      25.60600000      26.99400000
 O      16.44000000      20.81200000      28.56800000
 H      15.91600000      21.26900000      27.86600000
 H      15.79800000      20.62000000      29.30800000
 O      10.10100000      22.28100000      25.04000000
 H      10.11100000      21.96700000      24.09300000
 H      10.99100000      22.76500000      24.98400000
 O      15.62600000      22.78400000      20.90300000
 H      15.41000000      21.86600000      21.24000000
 H      15.01000000      23.11700000      20.19800000
 O      18.90300000      24.40100000      21.81600000
 H      18.36900000      25.05300000      22.35700000
 H      18.76400000      24.77000000      20.91100000
 O      20.36300000      18.06100000      22.59000000
 H      21.31200000      17.91400000      22.31300000
 H      20.18900000      18.99500000      22.22000000
 O      16.51300000      22.15600000      24.56300000
 H      16.63600000      21.43600000      23.95800000
 H      17.28600000      22.77200000      24.38900000
 O      12.63600000      16.10000000      25.55000000
 H      13.04700000      16.02700000      24.65100000
 H      13.24500000      15.68800000      26.19900000
 O      19.64200000      22.04100000      22.89700000
 H      19.19300000      22.95200000      22.87000000
 H      20.58500000      22.15300000      23.16600000
 O      15.38800000      16.10400000      20.51000000
 H      16.39600000      16.11100000      20.41300000
 H      15.34200000      16.66400000      21.27100000
 O      13.34600000      16.75700000      22.93300000
 H      12.46800000      17.06900000      23.12700000
 H      13.13300000      16.47600000      21.90700000
 O      14.51000000      20.41300000      30.85700000
 H      14.27900000      19.60800000      31.32600000
 H      13.90300000      21.06700000      31.34200000
 O      12.81900000      22.72200000      24.41600000
 H      13.27700000      21.84600000      24.17100000
 H      13.25500000      23.44400000      23.89500000
 O      11.33100000      26.41600000      29.84600000
 H      10.47600000      26.35000000      30.32000000
 H      11.33100000      25.57600000      29.30100000
 O      14.80500000      25.89900000      25.32800000
 H      14.31100000      26.46300000      24.73500000
 H      14.98500000      25.14500000      24.73500000
 O      11.83200000      24.07600000      28.40900000
 H      11.30500000      23.41200000      27.89400000
 H      12.76700000      23.77800000      28.29300000
 O      18.73500000      18.75700000      28.80300000
 H      18.72200000      18.94500000      29.75100000
 H      18.09700000      19.40600000      28.48900000
 O      16.02900000      25.97900000      29.62700000
 H      16.65700000      25.59000000      28.95600000
 H      15.68200000      25.14400000      30.10400000
 O      19.70200000      15.86100000      28.85800000
 H      20.55900000      16.04600000      29.22900000
 H      19.53700000      16.59000000      28.21500000
 O      21.10600000      22.79400000      29.92600000
 H      20.49500000      23.21600000      30.55700000
 H      20.55400000      22.17100000      29.41300000
 O      20.31200000      26.26600000      27.79100000
 H      20.98000000      25.55500000      27.65700000
 H      20.88600000      27.12300000      27.72100000
 O      11.08800000      21.45000000      27.45500000
 H      10.61100000      21.53300000      26.53400000
 H      10.53300000      20.89200000      27.99400000
 O      20.22900000      17.17400000      26.04200000
 H      21.20500000      17.27100000      25.75100000
 H      19.87800000      18.10600000      26.21000000
 O      11.65900000      19.38600000      29.74700000
 H      11.21000000      19.86300000      29.05500000
 H      12.49100000      19.80800000      30.01000000
 O      14.13900000      21.19300000      27.07300000
 H      13.74200000      22.05600000      26.73900000
 H      13.33400000      20.87600000      27.47000000
 O      16.69100000      17.23500000      27.58200000
 H      16.65800000      17.98400000      26.86000000
 H      17.27600000      17.63700000      28.21700000
 O      11.48600000      16.57200000      30.17200000
 H      11.82100000      17.51200000      30.43400000
 H      10.59000000      16.63000000      30.63900000
 O      16.25100000      17.14100000      22.17600000
 H      15.43400000      17.24900000      22.71900000
 H      16.86700000      16.73500000      22.76900000
 O      12.77600000      15.80000000      21.53700000
 H      12.63300000      14.89100000      21.23800000
 H      13.57700000      15.99000000      21.01500000
 O      20.05800000      20.38500000      20.70500000
 H      19.30700000      20.88500000      20.29100000
 H      19.94600000      20.80900000      21.51600000
 O      18.07000000      24.84000000      28.30000000
 H      18.78600000      25.50800000      28.17100000
 H      18.54700000      23.99500000      28.23900000
 O      12.43500000      19.70800000      21.66200000
 H      13.12400000      20.44800000      21.48400000
 H      12.77600000      18.95400000      21.13100000
 O      15.33900000      23.41700000      30.83800000
 H      15.46500000      22.48300000      30.59900000
 H      15.50200000      23.33100000      31.84600000
 O      18.29100000      15.65200000      20.59700000
 H      18.67400000      16.11100000      21.26200000
 H      18.59100000      14.71600000      20.64900000
 O      17.90000000      17.04800000      24.51100000
 H      17.24200000      17.73700000      24.82700000
 H      18.72900000      17.13800000      25.04300000
 O      20.60000000      20.03200000      24.49900000
 H      20.29400000      20.86300000      24.06300000
 H      20.42100000      19.36200000      23.84400000
 O      11.98100000      18.70500000      25.62400000
 H      12.33800000      17.75500000      25.49900000
 H      11.31100000      18.66900000      26.37100000
 O      18.64400000      24.18500000      24.94600000
 H      18.44900000      25.13900000      24.77500000
 H      18.29300000      24.04400000      25.81000000
 O      15.98600000      20.14300000      22.06100000
 H      15.26900000      20.18500000      22.72000000
 H      16.10600000      19.14700000      21.84900000
