126
XYZ file of cluster: frame_9000_c45c6.9c190.75b35 - created by MolEdiTo
 O      29.14500000      29.52900000      20.47700000
 H      28.28000000      29.42400000      20.05000000
 H      29.07600000      29.15500000      21.36600000
 O      27.19400000      22.61100000      25.64900000
 H      27.39400000      22.25400000      26.56700000
 H      26.89800000      23.51100000      25.85700000
 O      30.35600000      21.89200000      26.49900000
 H      30.19000000      20.95200000      26.51300000
 H      31.22300000      22.00300000      26.95500000
 O      25.95300000      25.81000000      16.44100000
 H      26.64800000      25.19400000      16.27400000
 H      26.50600000      26.60100000      16.61300000
 O      28.39600000      21.66100000      17.60700000
 H      28.70300000      22.56500000      17.23800000
 H      28.39000000      21.04600000      16.87900000
 O      28.66400000      27.33200000      22.56700000
 H      28.44800000      26.75500000      21.77500000
 H      27.97400000      27.03800000      23.26400000
 O      26.68000000      27.70100000      23.84300000
 H      26.78500000      28.34100000      24.54100000
 H      25.83500000      27.90000000      23.33300000
 O      29.16100000      27.55900000      18.27300000
 H      29.02700000      28.02000000      17.43500000
 H      28.28100000      27.59800000      18.67000000
 O      26.41000000      21.23900000      21.51600000
 H      26.82600000      20.35700000      21.62200000
 H      26.99700000      21.73400000      20.93400000
 O      26.67100000      29.18600000      19.32200000
 H      25.98200000      29.79600000      19.63000000
 H      26.49300000      28.85400000      18.35300000
 O      25.89400000      22.63900000      24.16100000
 H      26.59800000      22.07300000      24.63800000
 H      26.10700000      22.50500000      23.19300000
 O      30.21000000      24.09900000      21.95400000
 H      30.74000000      23.34900000      22.37700000
 H      29.95900000      24.61900000      22.73900000
 O      26.57400000      22.30300000      18.12900000
 H      26.07200000      21.96300000      17.34100000
 H      27.52300000      22.21600000      17.83100000
 O      29.41400000      20.70600000      20.25600000
 H      29.26800000      21.26400000      19.52900000
 H      29.53000000      21.38000000      20.98400000
 O      28.19200000      27.44000000      26.52300000
 H      29.03400000      26.94300000      26.44200000
 H      28.46700000      28.32800000      26.89000000
 O      29.90000000      29.51800000      24.43700000
 H      29.46000000      30.30100000      24.16700000
 H      29.67100000      28.81700000      23.74400000
 O      29.30300000      25.16200000      16.99900000
 H      29.45500000      26.02900000      17.49300000
 H      30.21200000      24.91600000      16.84100000
 O      26.51900000      28.20700000      16.13700000
 H      25.94300000      29.00600000      16.22500000
 H      27.36000000      28.47600000      15.75800000
 O      26.78600000      25.06700000      26.46500000
 H      26.23000000      25.26700000      25.62600000
 H      27.28100000      25.94900000      26.56300000
 O      26.03900000      30.58800000      23.75400000
 H      26.71100000      30.91300000      23.16500000
 H      25.17200000      30.91900000      23.35900000
 O      26.11600000      30.51800000      16.03600000
 H      26.87100000      31.18100000      16.14000000
 H      25.35900000      30.89600000      16.64700000
 O      27.67000000      24.70300000      20.79100000
 H      28.56800000      24.68800000      21.02900000
 H      27.30300000      24.25500000      21.51200000
 O      28.38900000      20.76600000      23.38200000
 H      28.61800000      20.28100000      24.21300000
 H      28.17100000      21.71100000      23.72900000
 O      36.35100000      22.63100000      18.80500000
 H      37.06400000      22.50600000      19.48200000
 H      36.46800000      23.53100000      18.38900000
 O      33.01000000      27.91000000      19.37500000
 H      33.04300000      28.87100000      19.57800000
 H      32.15600000      27.93000000      18.96000000
 O      33.42600000      22.29400000      23.11900000
 H      34.34700000      22.01900000      22.88700000
 H      33.06000000      21.50300000      23.47600000
 O      33.60700000      26.30600000      22.00800000
 H      33.51000000      27.30900000      21.94600000
 H      33.17300000      25.94200000      22.80400000
 O      32.74800000      22.08000000      19.12100000
 H      33.69300000      22.10000000      19.28200000
 H      32.50500000      23.09100000      19.25800000
 O      36.91500000      24.34900000      21.15800000
 H      36.36000000      23.51300000      21.55200000
 H      36.30000000      25.00300000      20.68300000
 O      34.18100000      30.22000000      19.98600000
 H      34.86400000      30.67400000      20.49800000
 H      34.68000000      29.44900000      19.57900000
 O      35.04300000      28.93600000      24.81300000
 H      35.88100000      28.78700000      24.41300000
 H      34.86600000      28.23800000      25.44800000
 O      32.24000000      24.90300000      20.10500000
 H      32.50000000      25.83700000      19.96000000
 H      32.19200000      24.80500000      21.06600000
 O      35.32600000      30.75500000      16.51100000
 H      35.94500000      31.21600000      15.91500000
 H      35.55300000      31.06700000      17.36800000
 O      33.68900000      25.20800000      16.37800000
 H      33.38900000      26.16200000      16.41400000
 H      34.58000000      25.20200000      16.81300000
 O      32.77600000      24.87100000      24.55800000
 H      32.41600000      25.00300000      25.49300000
 H      33.42200000      24.22500000      24.72900000
 O      34.82900000      22.56900000      21.33400000
 H      35.68500000      22.46600000      20.85100000
 H      34.21600000      23.22400000      20.91400000
 O      33.01100000      29.87700000      26.87800000
 H      33.83700000      29.87500000      26.35400000
 H      32.25900000      29.87700000      26.18100000
 O      35.49200000      26.65700000      20.98200000
 H      35.21800000      27.56700000      20.62400000
 H      35.05800000      26.53300000      21.86600000
 O      32.35200000      21.58200000      15.48800000
 H      33.07200000      22.17000000      15.35300000
 H      32.68900000      20.76800000      16.04300000
 O      35.23700000      25.67200000      18.39700000
 H      34.70900000      24.85200000      18.56100000
 H      35.35100000      26.03700000      19.22900000
 O      33.50700000      30.73900000      21.81100000
 H      32.96800000      30.85200000      22.66100000
 H      33.19500000      31.42100000      21.17100000
 O      34.06200000      28.22900000      16.48100000
 H      34.05800000      28.31000000      17.44800000
 H      34.47600000      29.05600000      16.23500000
