42
XYZ file of cluster: frame_16000_a5a03.19b95.2d9a0 - created by MolEdiTo
 O      20.30800000       4.60400000       4.19900000
 H      21.17900000       5.06200000       4.20100000
 H      20.50000000       3.66300000       3.98000000
 O      18.26200000       4.80600000       7.19900000
 H      18.26100000       3.90600000       6.79300000
 H      19.18400000       5.15100000       7.32100000
 O      19.97500000      10.44600000      11.00200000
 H      19.39900000       9.98500000      10.37800000
 H      20.77700000      10.10700000      10.49700000
 O      15.34400000       8.37000000       4.81200000
 H      15.20700000       7.48900000       4.47200000
 H      14.49000000       8.61900000       5.18200000
 O      17.14700000       7.07300000       7.90800000
 H      16.16100000       7.05800000       7.70800000
 H      17.50500000       6.19200000       7.56100000
 O      19.96600000       6.58200000       8.54800000
 H      20.49700000       7.16700000       9.15600000
 H      19.12500000       7.07000000       8.42300000
 O      15.96400000       8.96900000       9.62000000
 H      16.60000000       8.17900000       9.59900000
 H      15.18800000       8.68900000       9.08000000
 O      17.32100000       2.78700000       4.94300000
 H      17.27400000       2.23100000       4.11200000
 H      17.45000000       3.61200000       4.51200000
 O      17.93000000       9.72700000       4.56400000
 H      18.63900000       9.30100000       4.06800000
 H      17.24300000       9.07300000       4.54900000
 O      15.97600000      10.91900000       6.31500000
 H      15.21200000      10.27900000       6.31600000
 H      16.58300000      10.67600000       5.56800000
 O      15.03500000       3.71000000       9.01300000
 H      14.51500000       2.95000000       8.58700000
 H      15.04100000       4.22800000       8.20200000
 O      19.46300000      10.37500000       6.76500000
 H      18.79100000      10.68200000       7.42500000
 H      18.97300000      10.01500000       6.08100000
 O      17.72500000       6.10700000       4.63600000
 H      18.60200000       5.90800000       4.29300000
 H      17.72400000       5.78400000       5.54800000
 O      17.66400000       4.71300000      10.13600000
 H      18.29500000       4.52900000       9.48300000
 H      16.83800000       4.47900000       9.66800000
