36
XYZ file of cluster: frame_16000_64f4.a0f92.2ef13 - created by MolEdiTo
 O       6.57200000      16.44900000       8.19100000
 H       5.91100000      15.83900000       8.48800000
 H       6.43700000      16.56700000       7.21400000
 O       2.25900000      17.56300000       7.13800000
 H       1.87300000      16.71700000       7.41700000
 H       3.05300000      17.60800000       7.67800000
 O       1.50700000      19.87900000       5.83300000
 H       1.95300000      19.03900000       6.20400000
 H       0.95600000      20.24900000       6.52200000
 O       3.88400000      17.18500000       4.82100000
 H       3.35000000      16.56000000       5.38000000
 H       4.00900000      18.10100000       5.15600000
 O       4.36600000      16.17400000      10.75700000
 H       3.80200000      15.87500000       9.98800000
 H       4.32800000      15.36700000      11.33800000
 O       1.08000000      16.98200000      10.35000000
 H       1.99600000      17.44100000      10.32900000
 H       0.55200000      17.44100000      11.06000000
 O       6.84100000      16.60900000       5.33200000
 H       7.20900000      16.03500000       4.61800000
 H       5.99000000      16.88200000       4.90000000
 O       5.04500000      20.36900000       4.65800000
 H       4.24400000      20.35000000       4.09700000
 H       5.00700000      21.07300000       5.33100000
 O       3.56000000      15.20000000       8.38500000
 H       2.86500000      14.51700000       8.53600000
 H       4.10500000      14.68300000       7.71800000
 O       4.92500000      19.28500000       7.34200000
 H       5.73300000      18.86800000       7.03900000
 H       4.91800000      20.19200000       7.00200000
 O       3.41000000      18.82200000       9.53200000
 H       3.97900000      18.22900000      10.10700000
 H       4.09400000      19.00700000       8.89900000
 O       1.83000000      14.79600000       5.49500000
 H       1.67800000      14.61400000       4.55400000
 H       2.24600000      13.96100000       5.74900000
