52
XYZ file of cluster: frame_16000_4677d.4e35a.6636d - created by MolEdiTo
 O       7.53300000      11.92400000      13.05600000
 H       8.25200000      11.59000000      12.50400000
 H       7.84200000      11.47200000      13.97500000
 O       6.93900000      13.54200000      16.63900000
 H       6.42100000      14.31500000      16.19900000
 H       7.82400000      13.92800000      16.37100000
 O      11.87200000      11.01000000      15.29900000
 H      11.29500000      10.21300000      15.13500000
 H      12.47300000      10.78300000      16.04700000
 O       8.47300000      10.98700000      15.31500000
 H       8.99000000      11.80400000      15.44900000
 H       8.53200000      10.49300000      16.14200000
 O       6.81100000       7.21800000      13.68400000
 H       7.74100000       6.89500000      13.32700000
 H       6.16500000       6.78300000      13.11600000
 O      12.91100000       9.89700000      17.64800000
 H      13.49600000      10.35600000      18.32900000
 H      12.26600000       9.36800000      18.13900000
 C       9.33700000      11.70700000       9.61100000
 C       9.42900000      10.15800000       9.99900000
 C      11.82000000      10.36600000      10.78800000
 H      10.19400000      10.33300000      12.03400000
 H       9.90700000      12.90200000      11.13300000
 O      10.47900000       8.35600000      11.38300000
 O      10.54800000      12.18400000       8.92100000
 O       9.05500000      12.50700000      10.76300000
 C      10.42900000       9.81700000      11.13000000
 O       8.11200000       9.69400000      10.44900000
 H       9.66200000       9.61900000       9.09600000
 O      12.51000000       9.13700000      10.18400000
 O      12.61800000      10.72400000      11.83400000
 H      13.16000000       9.92400000      12.00900000
 H       8.13200000       8.69600000      10.30800000
 H      11.17500000       7.95700000      10.80600000
 O      14.58300000      13.41600000      10.04200000
 H      13.69900000      13.78600000      10.06800000
 H      14.86000000      13.30800000      11.00800000
 O      10.27200000       8.23300000      14.33800000
 H       9.76200000       8.10600000      13.47300000
 H      10.82500000       7.45500000      14.40900000
 O      11.23100000      13.43500000      12.27300000
 H      11.74700000      12.71300000      12.58900000
 H      11.92100000      14.14800000      12.10000000
 O      13.32900000       7.82900000      15.67300000
 H      13.70200000       8.44400000      14.95100000
 H      13.33600000       8.52100000      16.39400000
 O      11.91600000      13.91000000      15.33300000
 H      11.54600000      13.00000000      15.43500000
 H      12.79700000      13.82100000      15.67800000
 O       8.84400000       8.90100000      17.13100000
 H       8.03000000       8.32000000      17.22300000
 H       9.16800000       8.58500000      16.28200000
