45
XYZ file of cluster: frame_16000_bdf5f.44a6a.76e87 - created by MolEdiTo
 O      19.56800000      11.38400000      17.55000000
 H      18.75900000      11.64000000      17.98100000
 H      19.79500000      10.58100000      17.97300000
 O      19.97500000      10.44600000      11.00200000
 H      19.39900000       9.98500000      10.37800000
 H      20.77700000      10.10700000      10.49700000
 O      19.19200000      12.93000000      12.39900000
 H      18.42500000      12.43500000      12.72400000
 H      19.67400000      12.16300000      11.90700000
 O      17.39700000       8.69100000      16.07700000
 H      18.07500000       8.98500000      15.43400000
 H      16.61900000       9.30600000      16.02100000
 O      19.62800000      10.08100000      14.92600000
 H      20.06600000       9.34300000      15.37800000
 H      19.65400000      10.68500000      15.69600000
 O      17.63200000      10.65400000      13.04900000
 H      18.02600000      10.05800000      12.37200000
 H      18.19000000      10.37100000      13.77800000
 O      17.84300000       7.23400000      11.67300000
 H      17.56900000       6.55400000      11.03700000
 H      18.84600000       7.25700000      11.46300000
 O      22.01600000       7.76900000      16.39000000
 H      22.02600000       7.07600000      15.71800000
 H      21.35900000       7.49000000      17.11300000
 O      25.05200000       6.75900000      12.79200000
 H      24.43800000       7.43200000      13.15200000
 H      24.51600000       5.95400000      12.59000000
 O      22.89300000      12.98700000      14.89500000
 H      23.44000000      12.18100000      14.89800000
 H      22.67700000      12.98500000      13.95700000
 O      24.57100000       6.82000000      16.87500000
 H      25.32400000       7.25600000      16.42600000
 H      23.86600000       7.46500000      17.17200000
 O      22.61800000      14.31300000      17.30500000
 H      22.59500000      13.72400000      16.44800000
 H      23.35800000      14.91300000      17.09100000
 O      23.01000000       9.10500000      12.80200000
 H      23.39400000       9.43600000      13.64500000
 H      22.15000000       9.58500000      12.86100000
 O      24.18500000      10.26300000      15.26100000
 H      25.10500000      10.17700000      15.07000000
 H      23.90300000      10.13800000      16.22500000
 O      22.03900000       7.32000000      11.09000000
 H      22.65200000       6.68100000      11.41400000
 H      22.58200000       8.13500000      11.36000000
