%chk=cluster_015.chk
%mem=1GB
%nproc=4
#b3lyp/6-311++G** scrf=(cpcm,Solvent=Water) nosymm force
iop(2/11=1) 
 Geom=(NoDistance,NoAngle)

cluster_015

0 1
 O       2.19200000      10.67500000      20.59400000
 H       1.29200000      10.78900000      20.13800000
 H       2.43700000       9.89900000      20.04600000
 O       0.85200000       5.23200000      18.56300000
 H       0.99400000       5.18400000      17.56900000
 H       1.73500000       4.99900000      18.88700000
 O       5.96100000      10.70300000      19.57600000
 H       5.40900000      10.31800000      18.90100000
 H       6.79100000      10.59200000      19.06200000
 O       1.59700000       7.74200000      19.84600000
 H       1.82300000       7.43100000      20.73000000
 H       0.61200000       7.70900000      19.89000000
 O       6.72400000       3.81000000      18.49600000
 H       7.65600000       3.79900000      18.25800000
 H       6.35700000       3.01400000      18.00800000
 O       5.77100000       7.45000000      18.69900000
 H       4.94500000       7.67400000      19.25600000
 H       6.36900000       8.15600000      18.91500000
 O       3.97200000       4.25200000      19.42300000
 H       3.72000000       4.72300000      20.19500000
 H       4.80200000       4.67100000      19.27000000
 O       0.91000000       7.98600000      17.14400000
 H       0.98700000       7.90300000      18.11800000
 H       0.45800000       7.13000000      16.95700000
 O       6.96000000       7.11300000      23.69100000
 H       6.32800000       7.87500000      23.53300000
 H       7.01300000       6.61100000      22.88200000
 O       3.90600000       5.68100000      23.52900000
 H       4.05700000       6.47900000      24.04300000
 H       4.71200000       5.18500000      23.78800000
 O       1.85400000       8.02800000      25.24500000
 H       1.24400000       8.48000000      24.58200000
 H       2.00500000       8.67000000      25.98000000
 O       5.88500000       3.86500000      24.21100000
 H       5.90100000       4.16100000      25.18600000
 H       6.59800000       3.12200000      24.20200000
 O       4.61800000       8.76900000      22.97100000
 H       4.97200000       9.46700000      22.42000000
 H       4.77100000       9.06900000      23.90100000

