90
XYZ file of cluster: frame_19000_8af2.a3434.a2584 - created by MolEdiTo
 O       2.50600000      21.88700000      30.83400000
 H       2.80500000      21.12500000      31.37400000
 H       3.31000000      21.91000000      30.26600000
 O       9.23700000      27.60600000      21.81500000
 H       9.71200000      28.37200000      22.07300000
 H       8.85500000      28.11700000      21.08400000
 O       8.27100000      27.58700000      24.65100000
 H       8.51400000      27.51600000      23.75500000
 H       7.77200000      26.77300000      24.94000000
 O       7.11400000      25.14300000      25.33100000
 H       7.35100000      24.48100000      26.08400000
 H       6.27100000      24.71900000      25.20800000
 O       3.83100000      29.51100000      26.36700000
 H       4.70200000      29.22700000      26.05200000
 H       3.30400000      29.15300000      25.66100000
 O       1.82900000      23.32900000      27.66200000
 H       2.11200000      23.48700000      26.76100000
 H       1.25900000      24.11200000      27.77200000
 O       8.07000000      26.55400000      29.30100000
 H       7.26200000      26.03900000      29.51300000
 H       8.78900000      25.88300000      29.38000000
 O       2.12100000      23.78900000      21.73800000
 H       2.96300000      23.38700000      21.33200000
 H       1.68000000      23.01000000      21.95500000
 O       3.48200000      26.37700000      22.13000000
 H       3.08700000      25.76200000      22.83000000
 H       4.37800000      25.95300000      21.99600000
 O       1.12400000      30.71500000      26.96400000
 H       1.79900000      30.31800000      26.34200000
 H       1.52900000      31.59000000      27.24000000
 O       6.58300000      21.63400000      30.22900000
 H       7.03400000      22.29100000      30.88000000
 H       5.66000000      21.78500000      30.39100000
 O       4.27800000      27.01300000      29.08800000
 H       4.94000000      26.41800000      29.50400000
 H       4.50800000      27.91200000      29.37700000
 O       4.34100000      29.91700000      29.09000000
 H       4.35900000      30.24500000      28.13200000
 H       3.43000000      29.99000000      29.50700000
 O       8.98600000      24.43700000      22.73900000
 H       8.88200000      24.50400000      21.74400000
 H       9.29500000      25.33800000      22.99300000
 O       2.75700000      26.50200000      26.77700000
 H       3.38400000      26.79100000      27.51900000
 H       1.81400000      26.50000000      27.21100000
 O       9.21900000      24.14700000      29.40000000
 H       9.55400000      23.30400000      29.01300000
 H       9.25700000      23.91400000      30.35400000
 O       7.27600000      29.84700000      25.53000000
 H       7.61500000      29.66900000      26.48100000
 H       7.73600000      29.11000000      25.08900000
 O      10.26800000      27.97600000      30.94600000
 H       9.84300000      27.41000000      31.58500000
 H      10.41600000      27.36400000      30.12400000
 O       4.36500000      22.23200000      28.22100000
 H       3.41100000      22.53600000      28.09500000
 H       4.93100000      22.83100000      27.71200000
 O       6.05300000      25.03300000      30.27200000
 H       6.18700000      24.19700000      29.72600000
 H       6.33100000      24.77400000      31.22500000
 O       9.38600000      30.47300000      21.99600000
 H       9.42200000      31.04700000      22.74500000
 H       9.86700000      31.03500000      21.34600000
 O       5.49100000      28.95100000      21.66400000
 H       4.77800000      28.87700000      22.32900000
 H       6.08200000      29.72900000      21.99800000
 O       6.44900000      22.14800000      23.01300000
 H       7.38400000      22.29900000      23.36500000
 H       6.37200000      22.97200000      22.55800000
 O       4.26300000      24.43000000      25.35800000
 H       4.00200000      25.14300000      25.95100000
 H       3.48900000      24.23600000      24.85600000
 O       7.32100000      23.59000000      27.62500000
 H       8.09800000      23.88600000      28.19400000
 H       7.33400000      22.66100000      27.85100000
 O      10.21100000      22.45600000      27.06900000
 H       9.87800000      21.84200000      27.70300000
 H      10.87900000      21.83000000      26.78500000
 O      10.53900000      25.47300000      25.82700000
 H      10.96000000      25.05700000      25.01800000
 H       9.69200000      25.62300000      25.35800000
 O       8.81300000      28.84200000      27.74300000
 H       8.71800000      28.24700000      28.54400000
 H       8.93500000      28.13000000      27.04500000
 O       3.17500000      29.13300000      23.53000000
 H       3.40900000      28.18100000      23.47500000
 H       2.59000000      29.37000000      22.87600000
 O       8.76900000      22.11900000      24.32300000
 H       9.37300000      22.44800000      25.05300000
 H       8.87400000      22.95400000      23.79600000
