132
XYZ file of cluster: frame_19000_780bd.991d8.77db5 - created by MolEdiTo
 O      24.11300000      23.74600000      26.09700000
 H      23.55000000      23.08600000      25.52600000
 H      24.80100000      24.01400000      25.45500000
 O      19.71900000      30.68600000      17.71700000
 H      19.16800000      30.01900000      18.27100000
 H      19.40200000      31.55100000      18.00400000
 O      19.10900000      21.64400000      24.57200000
 H      19.20500000      21.30700000      23.62900000
 H      18.83900000      22.56800000      24.51800000
 O      20.86800000      27.31800000      19.80100000
 H      21.76700000      27.63100000      19.89800000
 H      20.91800000      26.35500000      20.06300000
 O      22.30200000      21.76900000      20.69200000
 H      22.74600000      21.94700000      21.53700000
 H      21.96600000      20.84800000      20.79800000
 O      23.85100000      29.24200000      20.59900000
 H      23.55000000      29.06500000      19.65800000
 H      23.43000000      28.57000000      21.13100000
 O      20.26400000      24.15300000      25.57700000
 H      20.49300000      24.93900000      26.15300000
 H      19.98400000      23.51500000      26.25300000
 O      21.00500000      24.99600000      17.03600000
 H      20.23900000      25.51700000      16.67100000
 H      21.10900000      24.19500000      16.47100000
 O      25.77400000      26.57100000      17.66000000
 H      25.47300000      27.29400000      17.04600000
 H      26.74100000      26.61600000      17.51200000
 O      23.78600000      24.52600000      18.26100000
 H      24.11500000      25.44400000      18.30000000
 H      22.81400000      24.67500000      18.08800000
 O      16.76400000      28.01700000      20.23100000
 H      16.50300000      27.19200000      20.64900000
 H      15.95300000      28.30700000      19.76700000
 O      24.99600000      29.25900000      16.50100000
 H      24.74000000      30.16600000      16.56100000
 H      25.64900000      29.20100000      17.25200000
 O      20.95100000      28.29300000      24.86800000
 H      21.25700000      29.13800000      24.47900000
 H      21.52700000      27.67800000      24.30300000
 O      20.51000000      24.34300000      19.88000000
 H      19.66800000      23.87300000      20.18800000
 H      20.60600000      24.31100000      18.92200000
 O      26.59700000      24.87500000      20.03900000
 H      27.53100000      25.08600000      19.81600000
 H      26.23200000      24.97100000      19.15600000
 O      20.71000000      25.40400000      22.45000000
 H      20.05900000      24.85900000      22.93200000
 H      21.18400000      24.66100000      22.06000000
 O      26.21500000      23.51400000      16.75900000
 H      25.33900000      23.76300000      17.18500000
 H      25.93700000      23.07000000      15.95200000
 O      22.43300000      29.23700000      17.78200000
 H      21.66200000      29.79600000      17.66900000
 H      22.48700000      28.81700000      16.96800000
 O      25.89000000      27.02100000      22.78000000
 H      24.89300000      27.30200000      22.65800000
 H      25.85900000      26.00800000      22.68300000
 O      22.02900000      22.56200000      23.61300000
 H      21.87000000      21.61100000      23.66800000
 H      21.15800000      22.90600000      23.93600000
 O      22.85500000      25.73400000      24.64300000
 H      23.37400000      25.96100000      25.44100000
 H      22.40500000      24.88300000      24.81100000
 O      24.56800000      24.37000000      22.10200000
 H      24.98800000      23.77400000      22.79300000
 H      25.17700000      24.29600000      21.29400000
 O      18.05700000      24.04700000      22.88100000
 H      17.38800000      23.50100000      23.36200000
 H      18.16700000      24.82900000      23.51700000
 O      16.31000000      24.88600000      16.12000000
 H      16.60500000      25.22100000      16.98700000
 H      17.11600000      24.50100000      15.71500000
 O      18.80500000      28.19000000      18.51100000
 H      17.96500000      28.25900000      19.13000000
 H      19.54400000      27.93200000      19.09900000
 O      20.37500000      20.93800000      18.98900000
 H      19.46300000      21.19700000      18.92000000
 H      20.84000000      21.61000000      19.50600000
 O      16.62200000      28.52500000      26.80800000
 H      16.68800000      28.84700000      25.85400000
 H      15.69800000      28.21000000      26.97600000
 O      16.74300000      28.80900000      23.84000000
 H      17.71500000      28.73900000      23.91900000
 H      16.66800000      29.65900000      23.32500000
 O      18.65400000      22.65100000      17.59300000
 H      18.62000000      23.66100000      17.65200000
 H      19.39500000      22.57500000      17.08800000
 O      22.61000000      30.65300000      23.70100000
 H      22.82900000      31.52200000      24.09900000
 H      22.21400000      30.79800000      22.79600000
 O      19.51700000      27.49500000      16.05600000
 H      19.45900000      27.70100000      17.08200000
 H      18.81100000      28.05600000      15.65700000
 O      18.00900000      25.52300000      18.27000000
 H      18.13800000      26.46600000      18.28400000
 H      17.92200000      25.30700000      19.22900000
 O      24.85500000      22.46700000      19.78700000
 H      23.97800000      22.00000000      19.90300000
 H      24.42800000      23.34200000      19.68400000
 O      18.37000000      22.95200000      27.27100000
 H      18.11700000      22.24500000      27.87100000
 H      18.56100000      22.39200000      26.42000000
 O      21.13700000      22.44800000      16.19500000
 H      20.43700000      22.56900000      15.56600000
 H      21.94500000      22.63700000      15.62300000
 O      17.33500000      20.37200000      18.18100000
 H      17.59800000      21.31400000      17.94600000
 H      16.96000000      20.06300000      17.29500000
 O      20.00200000      20.60400000      22.12100000
 H      19.52500000      19.81200000      21.73300000
 H      19.85600000      21.28400000      21.41500000
 O      18.53600000      22.78600000      20.66000000
 H      18.28200000      23.41600000      21.39500000
 H      17.66700000      22.76000000      20.25700000
 O      18.19600000      26.02800000      24.67600000
 H      18.99000000      26.57100000      24.73800000
 H      17.61100000      26.69300000      24.14900000
 O      17.74000000      25.53400000      27.30400000
 H      17.76900000      25.80500000      26.33000000
 H      17.91300000      24.58600000      27.22400000
 O      24.56000000      28.66100000      24.84400000
 H      24.16200000      29.33300000      24.24700000
 H      25.48100000      28.58600000      24.67600000
 O      22.92600000      27.06500000      22.01900000
 H      22.23200000      26.49900000      22.50400000
 H      23.65700000      26.40100000      21.87800000
 O      15.53800000      26.41800000      22.62600000
 H      16.08400000      27.23300000      22.96600000
 H      15.56900000      25.90000000      23.43100000
 O      19.30500000      28.34200000      22.15600000
 H      19.97200000      27.78400000      22.63900000
 H      19.55200000      28.32800000      21.23000000
