148
XYZ file of cluster: frame_19000_4c927.4a789.4b63c - created by MolEdiTo
 O      11.55400000      20.92000000      12.58000000
 H      10.88000000      20.43900000      13.13700000
 H      11.89000000      20.28500000      11.92200000
 O      15.69600000      12.31500000      18.08200000
 H      15.17200000      12.61700000      18.84200000
 H      16.42600000      11.79000000      18.44800000
 O      20.53900000      11.68400000      17.67500000
 H      21.42500000      12.03400000      17.95000000
 H      20.32000000      10.79200000      18.11500000
 O      13.70100000      20.45700000      18.08400000
 H      13.86300000      21.27500000      18.60300000
 H      14.26300000      20.62400000      17.31600000
 O      16.73300000      10.99700000      13.33000000
 H      17.69100000      10.88000000      13.22300000
 H      16.62300000      11.28700000      14.28400000
 O      12.03900000      10.30900000      15.29500000
 H      12.66000000       9.63600000      15.73300000
 H      12.54800000      11.12000000      15.13200000
 O      16.15900000      19.93700000      11.63500000
 H      16.21500000      19.18600000      10.96400000
 H      16.81500000      20.55200000      11.24100000
 O      12.75600000      11.89000000      11.83500000
 H      13.28800000      11.13600000      11.53200000
 H      13.19800000      12.63900000      11.35800000
 O      14.65200000      11.60900000      15.49600000
 H      14.62400000      12.59500000      15.24200000
 H      14.84500000      11.61900000      16.48600000
 O      18.59200000      17.75000000      12.10300000
 H      17.86100000      18.18800000      11.58200000
 H      18.97100000      17.28400000      11.35100000
 O      19.85500000      13.22900000      21.05000000
 H      19.92100000      13.68400000      21.88900000
 H      19.60100000      12.34700000      21.29700000
 O      19.93200000      11.16800000      11.96500000
 H      19.78900000      10.28900000      12.42800000
 H      20.88000000      11.22400000      11.78400000
 O      11.99500000      16.50700000      13.98000000
 H      12.19000000      17.27700000      14.60800000
 H      12.70600000      16.63000000      13.35600000
 C      15.90100000      16.20900000      17.59900000
 C      16.74500000      16.00600000      16.38600000
 C      14.74300000      15.04700000      14.96600000
 H      15.46000000      17.01500000      15.03000000
 H      17.31700000      15.44400000      18.46500000
 O      16.87200000      15.81500000      13.88300000
 O      14.79300000      16.80100000      17.62400000
 O      16.40200000      15.71500000      18.72500000
 C      15.93800000      16.02300000      15.00900000
 O      17.84800000      16.88900000      16.28900000
 H      17.12900000      15.01500000      16.52300000
 O      14.49000000      14.37500000      15.91500000
 O      14.42900000      14.60500000      13.68200000
 H      14.90100000      15.22900000      13.14300000
 H      17.47900000      17.82900000      16.23400000
 H      17.20700000      16.64800000      13.53000000
 O      20.09500000      18.84100000      17.06600000
 H      20.36300000      19.76000000      17.37400000
 H      19.82300000      18.88700000      16.23100000
 O      11.06800000      15.38000000      11.63000000
 H      11.28400000      14.74400000      12.37600000
 H      11.90200000      15.44700000      11.16300000
 O      14.54900000      19.45200000      14.09100000
 H      15.03800000      19.96900000      13.37400000
 H      14.11700000      20.14200000      14.65500000
 O      12.24100000      15.43800000      21.48400000
 H      12.00700000      15.24200000      20.51500000
 H      11.67300000      14.79500000      21.97500000
 O      18.35800000      12.91900000      14.78400000
 H      18.47700000      13.92200000      14.67300000
 H      19.22800000      12.49000000      14.79200000
 O      13.36100000      19.51500000      10.99200000
 H      14.27800000      19.78300000      11.29100000
 H      13.10900000      18.67700000      11.62000000
 O      17.21500000      13.49100000      11.67400000
 H      17.20300000      14.13300000      12.39500000
 H      16.63000000      12.76600000      12.04100000
 O      10.43600000      11.16900000      21.37100000
 H      10.17500000      10.31400000      21.80300000
 H      11.25400000      10.94900000      20.87100000
 O      11.14600000      14.19400000      16.07800000
 H      11.77100000      14.89500000      16.18600000
 H      11.30500000      13.78800000      15.14200000
 O      12.63200000      10.37100000      19.76600000
 H      13.51100000       9.94100000      19.68700000
 H      12.81300000      11.39800000      19.80800000
 O      20.37500000      20.93800000      18.98900000
 H      19.46300000      21.19700000      18.92000000
 H      20.84000000      21.61000000      19.50600000
 O      19.66800000      13.06600000       9.83100000
 H      18.74700000      13.28700000       9.79100000
 H      19.67600000      12.51900000      10.64300000
 O      18.72900000      15.76600000      21.12700000
 H      18.78600000      16.41200000      20.39000000
 H      18.31900000      14.91800000      20.76900000
 O      18.62900000      20.02700000      14.06000000
 H      19.53100000      19.65000000      13.99000000
 H      18.13900000      19.41000000      13.47000000
 O      20.19800000      15.79000000      15.22400000
 H      19.38800000      16.12400000      15.72300000
 H      20.94500000      16.42300000      15.46200000
 O      18.98200000      17.69800000      19.38300000
 H      19.45500000      17.79300000      18.49400000
 H      18.36900000      18.49000000      19.43900000
 O      10.07300000      11.31900000      10.89400000
 H      11.07400000      11.57700000      10.93900000
 H       9.91100000      10.69200000      11.62500000
 O      11.80100000      14.90900000      18.60600000
 H      11.35900000      14.33300000      17.94200000
 H      12.11900000      15.78000000      18.24400000
 O      12.78800000      18.02500000      15.94900000
 H      12.71300000      18.95300000      16.28500000
 H      13.53500000      17.73600000      16.49900000
 O      16.16000000      13.79300000      21.36300000
 H      15.91400000      13.68400000      20.48100000
 H      16.02400000      12.83600000      21.76900000
 O      16.30700000      19.69500000      20.90200000
 H      15.38400000      19.48400000      20.74200000
 H      16.60300000      19.81200000      19.91900000
 O      17.33500000      20.37200000      18.18100000
 H      17.59800000      21.31400000      17.94600000
 H      16.96000000      20.06300000      17.29500000
 O      11.11700000      13.20100000      13.47400000
 H      11.81500000      12.74000000      13.00900000
 H      10.40400000      12.50200000      13.67800000
 O      21.08400000      14.94300000      12.74600000
 H      20.78500000      13.96800000      12.83000000
 H      20.73900000      15.39100000      13.59500000
 O      11.68100000      18.72400000      19.15600000
 H      11.75800000      18.46300000      20.06900000
 H      12.36300000      19.38300000      19.11600000
 O      13.69000000      16.42800000      11.20200000
 H      13.74900000      15.55400000      10.81800000
 H      13.90100000      16.95800000      10.36300000
 O      10.16700000      17.05700000      16.90200000
 H      10.83800000      17.38100000      16.29600000
 H      10.38600000      17.44000000      17.76300000
 O      13.60900000      13.16500000      19.93700000
 H      13.45800000      13.86500000      19.28300000
 H      13.31400000      13.45700000      20.77600000
 O      16.65300000      19.21100000      15.92300000
 H      15.86700000      19.59400000      15.61400000
 H      17.31200000      19.63900000      15.35600000
 O      20.86100000      11.29900000      14.96600000
 H      21.83100000      11.55300000      15.05400000
 H      20.62500000      11.19600000      15.91500000
 O      18.75400000      14.27200000      18.21300000
 H      19.36500000      14.00400000      18.91200000
 H      19.08500000      14.13100000      17.33900000
