93
XYZ file of cluster: frame_19000_c692a.3d75.8393 - created by MolEdiTo
 O      27.65900000       2.08300000       8.05500000
 H      28.40500000       1.50800000       7.75400000
 H      27.61200000       1.89900000       9.07600000
 O      29.68500000       4.85800000       9.74800000
 H      28.75700000       5.07400000      10.10100000
 H      29.55900000       4.22700000       9.00600000
 O      29.27100000       7.71500000       3.21000000
 H      28.53800000       7.36300000       3.83000000
 H      28.98100000       7.29700000       2.33900000
 O      29.84900000       7.76800000       9.36200000
 H      29.21300000       7.17700000       9.05600000
 H      30.28000000       8.30100000       8.61200000
 O      27.48900000       5.07000000       7.72400000
 H      27.72700000       4.96200000       6.77400000
 H      27.51100000       4.13700000       8.03500000
 O      27.01200000      10.27100000       3.79800000
 H      27.62700000       9.55800000       3.65700000
 H      26.06700000       9.96600000       3.57300000
 O      29.24900000       9.60700000       5.70200000
 H      30.07000000       9.48000000       5.36900000
 H      29.03800000      10.39400000       5.16700000
 O      26.40800000       5.39800000       2.46900000
 H      26.00600000       5.66200000       1.59300000
 H      25.70200000       5.63300000       3.05300000
 O      28.32200000       4.46400000       5.06500000
 H      28.11100000       3.56300000       5.25100000
 H      27.47300000       4.89900000       4.80100000
 O      26.90000000       7.84800000       8.57600000
 H      27.29500000       7.02800000       8.21500000
 H      26.46600000       7.46100000       9.37600000
 O      29.12200000       4.21900000       2.58300000
 H      28.87400000       3.67500000       3.39400000
 H      28.23500000       4.62200000       2.47800000
 O      28.51200000      11.43600000      10.08400000
 H      28.26000000      10.50900000       9.80100000
 H      29.14900000      11.64000000       9.39100000
 O      27.95800000       1.40100000       4.19300000
 H      27.03300000       1.47000000       4.06000000
 H      28.14300000       0.49700000       4.10000000
 O      27.23400000       7.58500000       5.35800000
 H      26.80000000       7.34800000       6.18300000
 H      27.81500000       8.34400000       5.54600000
 O      30.54700000       1.51300000       3.34200000
 H      29.59300000       1.52000000       3.24600000
 H      30.75100000       2.00700000       2.49600000
 O      34.12500000       2.14700000       5.42700000
 H      34.00800000       2.97300000       5.89800000
 H      33.26500000       2.15900000       4.92800000
 O      35.87500000      10.06300000       9.65100000
 H      35.57800000      10.97900000       9.47400000
 H      36.53300000       9.91700000       8.88400000
 O      36.24200000       8.56800000       5.07400000
 H      35.72300000       7.78800000       5.06800000
 H      35.80200000       9.05900000       5.80400000
 O      35.61900000       6.31500000       6.59000000
 H      36.59000000       6.40800000       6.63200000
 H      35.39300000       5.43600000       6.99300000
 O      35.79400000       2.72500000       2.48100000
 H      35.31600000       1.87200000       2.39100000
 H      36.29300000       2.82000000       1.62600000
 O      33.29500000       7.52600000       5.76600000
 H      33.32300000       8.25800000       6.47400000
 H      34.10900000       7.05800000       6.14000000
 O      36.49500000       4.79900000       9.60800000
 H      37.10300000       5.47400000       9.91200000
 H      35.61800000       5.12600000       9.60300000
 O      36.57400000       7.33000000       1.82200000
 H      36.74300000       6.56700000       2.46400000
 H      36.02100000       7.87100000       2.34700000
 O      35.30600000      10.24100000       2.57400000
 H      35.18200000       9.46000000       3.08300000
 H      35.03900000      10.14400000       1.64400000
 O      33.43700000       9.30000000       7.99300000
 H      33.99400000       9.68600000       7.22800000
 H      34.07800000       9.04900000       8.64600000
 O      36.23300000       3.33500000       6.84600000
 H      36.63300000       2.65500000       6.28500000
 H      36.89300000       3.39500000       7.56400000
 O      35.78500000       5.38600000       3.73200000
 H      35.81100000       4.45700000       3.30000000
 H      35.24700000       5.20900000       4.52800000
 O      32.60600000       4.69300000       5.57400000
 H      32.86200000       5.67900000       5.64300000
 H      31.60000000       4.71400000       5.47500000
 O      33.36500000       5.84700000       1.06800000
 H      33.59300000       6.58700000       1.72600000
 H      32.55400000       5.44100000       1.42400000
 O      33.90800000       2.72000000       8.31500000
 H      34.56900000       2.89900000       7.67100000
 H      33.44700000       3.60100000       8.31100000
 O      33.49200000       7.95700000       3.04000000
 H      32.60600000       7.92300000       2.60900000
 H      33.26400000       7.85800000       4.01500000
