120
XYZ file of cluster: frame_19000_1f69f.3a7d.9d6ab - created by MolEdiTo
 O       4.85500000       6.39600000      27.08500000
 H       5.67700000       6.48900000      27.68500000
 H       4.06600000       6.34200000      27.67900000
 O       7.32700000       2.12400000      21.07500000
 H       7.77100000       1.38900000      21.54900000
 H       6.46900000       2.22800000      21.57700000
 O       7.13300000       6.47500000      28.40400000
 H       7.83700000       7.15900000      28.46900000
 H       7.68500000       5.73000000      28.62500000
 O       6.25400000       1.05600000      23.33400000
 H       6.61700000       0.64300000      24.15800000
 H       5.64800000       1.94700000      23.42400000
 O      13.44300000       6.33900000      22.84800000
 H      13.84600000       5.52800000      22.49100000
 H      12.50000000       6.27400000      22.49700000
 O       8.65600000       1.46500000      28.32400000
 H       7.72200000       1.64800000      28.01400000
 H       8.80700000       0.47300000      28.16500000
 O      12.15300000       3.11200000      30.24800000
 H      12.40900000       3.28100000      29.25900000
 H      11.87900000       2.19900000      30.27500000
 O      16.05800000       1.52900000      23.18900000
 H      15.60100000       1.25100000      24.02500000
 H      16.86800000       2.10200000      23.49600000
 O      14.42300000       5.46300000      29.89400000
 H      13.91100000       4.66500000      29.60300000
 H      14.43000000       5.57500000      30.89000000
 O      15.03300000       4.07800000      21.96700000
 H      15.61100000       3.26700000      22.16100000
 H      15.37000000       4.51500000      21.10400000
 O       8.96600000       8.61200000      29.76100000
 H       8.11300000       9.04900000      29.87000000
 H       9.40500000       9.34300000      29.26500000
 O      11.89000000       4.25900000      25.13200000
 H      11.56700000       5.03300000      25.69300000
 H      12.76800000       4.63200000      24.76800000
 O      14.68600000       1.91200000      26.51000000
 H      15.50500000       2.02700000      27.04900000
 H      13.97900000       1.42400000      26.99500000
 O      12.04600000      10.94500000      27.60200000
 H      11.51000000      10.25200000      27.18900000
 H      12.38400000      11.42900000      26.82000000
 O       7.80200000       3.70200000      24.90500000
 H       8.12000000       4.20000000      24.19300000
 H       8.08100000       4.25700000      25.71900000
 O      13.05200000       4.05700000      27.74500000
 H      13.45600000       4.93900000      27.45400000
 H      13.71600000       3.43500000      27.44700000
 O       5.07700000       3.77900000      24.16300000
 H       6.03000000       3.73700000      24.47500000
 H       5.15600000       4.53500000      23.57800000
 O       9.96100000       9.27800000      26.19100000
 H       9.40900000      10.03600000      25.98000000
 H       9.78900000       8.74300000      25.41400000
 O      15.61200000       8.65200000      25.34700000
 H      16.53200000       8.97300000      25.67800000
 H      15.12300000       8.80200000      26.16200000
 O      14.60100000       5.44800000      25.85300000
 H      14.66900000       6.12900000      25.20900000
 H      15.56800000       5.32900000      26.00000000
 O      14.66500000       8.60700000      30.13600000
 H      14.17900000       8.19800000      30.81600000
 H      14.87900000       9.44700000      30.58000000
 O       7.09200000       7.19400000      25.53000000
 H       6.52000000       6.47300000      25.90900000
 H       7.35900000       7.69600000      26.35800000
 O      11.92400000       2.09100000      21.42100000
 H      12.40900000       1.37600000      21.00400000
 H      12.06900000       1.95600000      22.36600000
 O       6.92100000      10.26200000      27.62000000
 H       6.18800000      10.23600000      28.29300000
 H       6.82300000      11.10000000      27.08100000
 O      13.83800000       7.28500000      28.09500000
 H      13.90900000       6.38800000      28.48200000
 H      14.19900000       7.90100000      28.85700000
 O       5.93400000       9.25300000      24.18000000
 H       6.32200000       8.39600000      24.43500000
 H       5.27500000       9.48900000      24.87900000
 O      12.56300000       1.58100000      24.03400000
 H      13.05600000       2.41400000      24.13500000
 H      11.68600000       1.83100000      24.45000000
 O       9.09900000       3.87900000      29.54300000
 H       9.18500000       2.95600000      29.28500000
 H       9.21100000       3.90900000      30.53200000
 O       5.35400000       2.81700000      26.87000000
 H       5.33400000       3.75200000      26.59600000
 H       5.82800000       2.44200000      26.13900000
 O       9.32800000       4.65100000      22.71000000
 H      10.09700000       4.18600000      22.17700000
 H       8.86300000       5.10900000      21.93900000
 O      15.97100000       7.62700000      22.68800000
 H      15.15600000       7.17100000      22.65300000
 H      15.83600000       7.82900000      23.62500000
 O       8.24400000       9.43300000      22.48300000
 H       8.81700000       8.65200000      22.63800000
 H       7.62400000       9.26800000      23.20000000
 O      12.91500000       9.12400000      24.37200000
 H      12.93100000       8.36900000      23.75400000
 H      13.85600000       9.14600000      24.57000000
 O      10.28000000       7.59200000      21.22000000
 H      10.67500000       7.13900000      20.44400000
 H       9.39100000       7.29300000      21.21600000
 O      11.31300000       6.82800000      27.19900000
 H      12.15200000       7.03600000      27.68600000
 H      11.11400000       7.72000000      26.87600000
 O      11.55700000       7.97200000      30.62700000
 H      11.26800000       7.83500000      31.51900000
 H      11.09500000       7.30300000      30.14700000
 O       9.98200000       1.84900000      25.13600000
 H       9.11300000       1.36800000      25.16500000
 H       9.78100000       2.79600000      25.36000000
 O       9.22500000       5.14200000      27.02000000
 H       9.44300000       4.49800000      27.74800000
 H       9.87600000       5.83500000      27.18500000
 O      10.43600000      11.16900000      21.37100000
 H      10.17500000      10.31400000      21.80300000
 H      11.25400000      10.94900000      20.87100000
 O       9.45100000       6.96500000      24.19800000
 H       8.78700000       6.78700000      24.94200000
 H       9.66800000       5.99200000      23.93700000
