114
XYZ file of cluster: frame_3500_762f2.a2140.4b6dd - created by MolEdiTo
 O      24.25500000      26.73100000      15.90500000
 H      23.32700000      26.38300000      15.76900000
 H      24.59400000      26.43200000      15.02200000
 O      22.83700000      24.11800000      15.34400000
 H      23.76400000      23.81100000      15.32500000
 H      22.55400000      24.20300000      14.40800000
 O      17.23500000      27.31100000      11.49000000
 H      18.02800000      27.67700000      11.93000000
 H      17.62500000      26.54100000      11.08200000
 O      22.33500000      24.03200000      12.03400000
 H      21.48900000      24.19200000      12.51000000
 H      22.39000000      24.74900000      11.34300000
 O      23.92600000      28.81200000      17.93200000
 H      24.31200000      27.89000000      17.86700000
 H      24.58700000      29.26700000      18.56300000
 O      18.07600000      22.86200000      12.12900000
 H      18.06800000      21.87600000      11.93000000
 H      18.19300000      23.26800000      11.24100000
 O      22.81400000      26.46800000      10.60300000
 H      23.51600000      26.85700000      10.15300000
 H      21.96300000      26.68100000      10.16500000
 O      23.28700000      29.43800000      14.29600000
 H      23.45400000      28.53700000      14.63900000
 H      24.14300000      30.02000000      14.38100000
 O      20.24100000      27.07900000      15.45400000
 H      19.49600000      27.66000000      15.79200000
 H      19.86800000      26.81000000      14.55700000
 O      25.49500000      29.95900000      19.66200000
 H      25.78200000      30.89300000      19.54400000
 H      26.35700000      29.49600000      19.71400000
 O      25.06100000      28.50000000      10.64900000
 H      24.78000000      29.02900000       9.83600000
 H      25.44500000      29.16300000      11.28900000
 O      23.72800000      21.35900000      12.90600000
 H      22.96500000      20.96800000      13.37900000
 H      23.37000000      21.82400000      12.14800000
 O      20.51400000      23.81500000      19.94000000
 H      19.93900000      23.91300000      20.70800000
 H      20.33700000      24.63600000      19.43500000
 O      16.75800000      24.03200000      21.31000000
 H      15.85100000      24.46700000      21.31000000
 H      16.47900000      23.30200000      20.69900000
 O      25.40600000      23.04400000      14.68500000
 H      26.00400000      23.53700000      14.08700000
 H      24.74200000      22.55200000      14.09600000
 O      23.76200000      29.18900000      21.83600000
 H      23.63200000      28.15400000      21.60500000
 H      24.38300000      29.47600000      21.10900000
 O      15.84100000      22.01300000      19.33600000
 H      16.53800000      22.08300000      18.62200000
 H      15.16000000      22.56900000      19.03700000
 O      15.93900000      27.46500000      15.58000000
 H      15.91200000      26.55500000      15.98600000
 H      16.52700000      27.99600000      16.21200000
 O      18.06200000      28.53200000      15.60900000
 H      18.07600000      29.12400000      14.80500000
 H      17.16900000      28.65600000      15.97500000
 O      20.61900000      29.49700000      10.80900000
 H      21.41800000      29.78900000      11.18300000
 H      20.68800000      29.48600000       9.79300000
 O      20.21100000      23.23800000      16.86500000
 H      21.06400000      23.07500000      16.47600000
 H      20.21500000      24.09600000      17.28200000
 O      17.71700000      24.35700000      18.43600000
 H      17.95800000      23.96200000      19.26800000
 H      18.07500000      23.73300000      17.70000000
 O      19.26400000      27.06900000      12.22300000
 H      19.38700000      26.59800000      11.31700000
 H      19.39200000      28.00600000      12.00600000
 O      16.93000000      30.48200000      13.49400000
 H      16.94000000      30.84100000      14.38600000
 H      17.86600000      30.24800000      13.17700000
 O      17.68300000      28.73100000      17.67200000
 H      17.53100000      28.05100000      18.37600000
 H      17.63500000      29.52400000      18.25300000
 O      19.53000000      25.77500000      18.16000000
 H      18.68300000      26.22400000      18.37400000
 H      19.92900000      26.33000000      17.41100000
 O      15.46400000      25.70900000      17.99800000
 H      16.31200000      25.14200000      18.13400000
 H      15.75100000      26.57400000      18.41800000
 O      17.67600000      21.94100000      17.63200000
 H      17.35300000      21.57500000      16.76900000
 H      18.46400000      22.44200000      17.49200000
 O      18.11100000      29.81200000      13.17400000
 H      18.41100000      29.87400000      12.23400000
 H      18.60000000      30.64800000      13.40100000
 O      17.15000000      27.34300000      19.94400000
 H      16.40400000      27.60500000      20.55700000
 H      17.44200000      26.54500000      20.43600000
 O      16.78700000      25.13400000      13.31300000
 H      17.59900000      24.69600000      12.97900000
 H      17.28800000      25.64000000      13.96300000
 O      22.64200000      25.13000000      18.19200000
 H      23.16200000      24.67700000      17.55400000
 H      23.23000000      25.79800000      18.57500000
 O      22.32000000      21.54300000      19.35200000
 H      22.51500000      21.13800000      20.20000000
 H      22.04300000      22.41300000      19.60600000
 O      22.12300000      30.29900000      19.39300000
 H      22.46300000      29.55900000      19.92900000
 H      22.24500000      29.98800000      18.49700000
 O      26.33600000      25.62800000      17.57000000
 H      25.56400000      26.02200000      17.07500000
 H      27.15400000      25.77800000      16.99600000
 O      24.53900000      26.50500000      12.98300000
 H      24.44300000      27.46700000      12.88200000
 H      23.77800000      26.22000000      12.42100000
 O      19.21800000      23.55300000      13.32700000
 H      19.39600000      22.96100000      14.10100000
 H      18.32500000      23.11800000      12.96500000
 O      19.71500000      21.26800000      14.89100000
 H      18.79500000      20.90600000      15.07300000
 H      19.98300000      21.61300000      15.76200000
