166
XYZ file of cluster: frame_3500_69404.4da0c.680ef - created by MolEdiTo
 O      25.00500000      14.17800000      22.99300000
 H      25.38200000      15.05500000      23.40800000
 H      24.77900000      13.67800000      23.83500000
 O      18.03900000      15.52800000      24.34400000
 H      17.67100000      14.66100000      24.61800000
 H      17.17900000      15.92100000      24.03300000
 O      17.85500000      18.87400000      21.49300000
 H      17.29900000      19.36800000      20.82800000
 H      17.73500000      19.26100000      22.42800000
 O      25.09300000      16.15500000      20.41400000
 H      25.57500000      15.91100000      21.23600000
 H      24.18800000      16.51400000      20.68300000
 O      20.84600000      16.24400000      17.54500000
 H      19.90600000      16.54300000      17.40000000
 H      21.26800000      16.93600000      18.10700000
 O      22.10800000      20.94800000      22.27500000
 H      21.73600000      20.09100000      22.10700000
 H      22.87900000      20.73400000      22.86200000
 O      16.12800000      15.96900000      23.27700000
 H      15.37500000      16.48300000      22.83000000
 H      15.95900000      15.07600000      23.13700000
 O      24.58200000      11.70200000      15.74300000
 H      25.24200000      11.51300000      16.46600000
 H      24.87600000      11.14600000      14.95900000
 O      18.22300000      19.27900000      24.93000000
 H      17.67700000      20.14400000      25.04700000
 H      17.74700000      18.66200000      25.51800000
 O      20.52400000      15.86700000      20.42200000
 H      20.12700000      15.02100000      20.08200000
 H      20.12000000      16.03500000      21.30000000
 O      25.89400000      16.03300000      23.22500000
 H      25.52700000      15.78600000      24.08500000
 H      25.71200000      17.03100000      23.17800000
 O      24.34600000      10.86900000      23.55100000
 H      24.81800000      10.01300000      23.26200000
 H      23.88800000      11.24900000      22.71000000
 O      24.77900000      16.16000000      25.39000000
 H      23.98600000      15.62400000      25.64400000
 H      25.19200000      16.68000000      26.12500000
 O      17.84700000      16.36300000      20.85300000
 H      17.03100000      16.64100000      21.32300000
 H      18.45600000      17.09000000      21.02400000
 O      23.51300000      17.80500000      18.49900000
 H      23.67100000      18.71300000      18.22500000
 H      24.07900000      17.18800000      17.92700000
 O      24.09500000      20.45000000      17.72900000
 H      23.66600000      20.81700000      16.90800000
 H      23.55500000      20.88300000      18.50500000
 O      20.82600000      18.74600000      21.02500000
 H      21.10900000      18.13300000      20.38100000
 H      19.89300000      18.65900000      20.98500000
 O      15.73500000      10.45100000      24.29100000
 H      16.01400000      11.27800000      23.90100000
 H      14.82300000      10.50100000      24.67200000
 O      25.74300000      17.14000000      16.47800000
 H      25.73500000      17.00500000      15.52600000
 H      25.95500000      16.24200000      16.72900000
 O      24.30100000      20.05500000      24.12600000
 H      25.21500000      19.84200000      23.86800000
 H      24.14400000      19.30700000      24.76000000
 O      21.99800000      14.50100000      24.18300000
 H      22.04700000      15.43300000      23.88600000
 H      21.39600000      14.11000000      23.53100000
 O      20.32800000      16.78300000      23.35500000
 H      19.35600000      16.71400000      23.54700000
 H      20.38400000      17.75200000      23.33200000
 O      18.52200000      15.53500000      15.62000000
 H      18.02800000      15.98900000      16.31700000
 H      18.68500000      14.71300000      16.16900000
 O      17.08700000      20.90600000      23.38700000
 H      17.59400000      20.87600000      24.24000000
 H      16.18200000      21.00700000      23.79000000
 O      20.38700000      11.59900000      18.84000000
 H      19.68500000      11.49000000      18.16300000
 H      21.15700000      11.77800000      18.23300000
 O      23.94600000      12.83900000      25.46500000
 H      23.37000000      13.50300000      25.16800000
 H      23.91200000      12.05400000      24.78900000
 O      17.19300000      12.70700000      22.09400000
 H      16.55700000      13.41900000      22.34300000
 H      18.07100000      12.97100000      22.46200000
 O      20.70500000      18.63400000      25.89700000
 H      20.58600000      17.82900000      26.40500000
 H      19.86100000      18.75200000      25.45500000
 O      22.86200000      16.58400000      21.94800000
 H      22.21600000      16.27500000      21.26900000
 H      22.28400000      17.03100000      22.55500000
 O      23.40600000      15.17500000      16.73200000
 H      22.77200000      15.22700000      17.49300000
 H      23.14700000      15.89700000      16.04000000
 O      17.53500000      12.07600000      18.03900000
 H      16.82800000      11.61000000      17.70000000
 H      17.12200000      12.97000000      18.20300000
 O      23.04400000      14.06800000      21.18500000
 H      22.27500000      14.29100000      21.75100000
 H      23.80000000      14.01500000      21.86300000
 O      16.87000000      16.16000000      26.03500000
 H      16.57200000      16.76300000      26.73800000
 H      16.45100000      16.49000000      25.25000000
 O      15.47600000      14.24300000      25.61800000
 H      15.82600000      15.05900000      26.01500000
 H      15.51300000      13.68100000      26.41500000
 C      16.58800000      15.29500000      17.48700000
 C      15.36800000      16.05200000      16.86700000
 C      15.71500000      15.84200000      14.26800000
 H      16.92200000      16.89900000      15.56400000
 H      15.50400000      15.05100000      19.16800000
 O      15.14700000      17.95300000      15.28300000
 O      17.43100000      14.78500000      16.83000000
 O      16.36000000      14.75200000      18.74100000
 C      15.86300000      16.70000000      15.49900000
 O      14.24300000      15.13300000      16.63100000
 H      15.06400000      16.85800000      17.50800000
 O      14.76000000      15.73500000      13.51000000
 O      16.85200000      15.09300000      14.05400000
 H      17.47600000      15.04600000      14.79900000
 H      13.50100000      15.71100000      16.26000000
 H      14.14500000      17.77900000      15.38200000
 O      24.44400000      13.51400000      18.78800000
 H      23.81100000      13.90600000      19.33900000
 H      24.78900000      12.85600000      19.31500000
 O      19.27500000      14.39100000      19.73600000
 H      19.81800000      13.60500000      19.59100000
 H      18.61400000      14.29300000      18.98000000
 O      26.77000000      12.37600000      17.30400000
 H      26.07300000      11.80600000      17.84500000
 H      26.41000000      13.29800000      17.48200000
 O      20.50900000      19.99300000      17.78700000
 H      21.05000000      20.24000000      18.56600000
 H      19.61300000      20.33900000      18.07400000
 O      20.26500000      13.64700000      22.36200000
 H      20.10700000      12.71700000      22.21900000
 H      19.81500000      14.01800000      21.63900000
 O      19.37200000      11.32200000      21.32900000
 H      20.00800000      11.17900000      20.55100000
 H      18.55000000      11.21200000      20.86200000
 O      15.23500000      11.04000000      20.74700000
 H      14.52700000      11.13300000      21.41300000
 H      15.99900000      11.55500000      21.11200000
 O      16.48400000      18.23600000      18.34500000
 H      16.49900000      19.01000000      17.78300000
 H      16.24300000      18.54800000      19.24500000
 O      17.10800000      16.40200000      18.07500000
 H      16.45000000      17.18600000      18.22700000
 H      16.92200000      15.89200000      18.91900000
 O      18.75400000      14.09200000      16.64700000
 H      17.97500000      13.51700000      16.57000000
 H      19.35100000      13.88900000      15.94100000
 O      15.81100000      19.80000000      20.95100000
 H      15.74300000      20.51300000      20.24100000
 H      16.51300000      19.96800000      21.57400000
 O      26.07700000      15.27400000      16.70000000
 H      26.45100000      15.51700000      17.60600000
 H      25.07100000      15.38800000      16.66600000
 O      25.57100000      10.87900000      19.18100000
 H      24.90900000      10.24600000      19.27800000
 H      25.99300000      10.82500000      19.99200000
 O      21.54500000      15.59800000      27.29000000
 H      21.34700000      14.78200000      27.83100000
 H      21.39900000      15.40000000      26.33400000
 O      23.55200000      18.08400000      26.00200000
 H      23.35800000      17.49400000      26.82800000
 H      22.72300000      18.22700000      25.66500000
 O      22.14000000      12.42500000      17.06200000
 H      22.04000000      13.34400000      16.82900000
 H      23.13100000      12.31400000      17.00700000
