135
XYZ file of cluster: frame_3500_c3d88.4d96d.20dfa - created by MolEdiTo
 O      30.59500000      19.01800000      10.53500000
 H      30.71600000      19.68400000      11.24400000
 H      29.92200000      18.34300000      11.04100000
 O      25.13600000      10.15000000      13.55000000
 H      25.12200000      10.92300000      12.89800000
 H      26.12800000      10.00800000      13.60700000
 O      28.10500000      10.94800000      15.24500000
 H      27.93400000      10.16100000      15.84000000
 H      27.58900000      11.66600000      15.73700000
 O      28.86300000      14.20000000      10.63500000
 H      29.01800000      13.76200000      11.52800000
 H      27.95500000      14.05100000      10.21200000
 O      29.26700000      19.15100000       5.83900000
 H      30.05700000      19.74800000       5.68700000
 H      29.16300000      19.23100000       6.79200000
 O      26.19400000      16.79100000       8.06900000
 H      26.22100000      15.83400000       7.97900000
 H      27.13100000      17.00700000       8.08100000
 O      29.91100000      16.09500000      10.54200000
 H      30.54200000      15.31700000      10.54200000
 H      29.70400000      16.10900000       9.53300000
 O      26.36700000      13.90400000       9.08400000
 H      25.80700000      13.19200000       8.72700000
 H      25.79900000      14.35100000       9.74500000
 O      29.31000000      16.38000000      13.31200000
 H      29.73200000      16.16300000      12.45100000
 H      29.89100000      16.06000000      14.06800000
 O      26.49900000      20.31900000      12.87800000
 H      26.81700000      20.99000000      12.16400000
 H      25.53300000      20.41000000      12.73000000
 O      28.43800000      13.96000000      15.01500000
 H      27.67100000      14.29400000      15.49000000
 H      29.02900000      13.98800000      15.82500000
 O      29.16800000      18.21600000      16.12200000
 H      28.99800000      18.32700000      15.15200000
 H      28.42600000      18.59100000      16.62800000
 O      27.69800000      15.67100000       5.72800000
 H      27.96700000      16.59900000       5.44800000
 H      27.62200000      15.10900000       4.88200000
 O      28.51000000      13.55800000       7.38200000
 H      27.88800000      14.31400000       7.14400000
 H      28.59000000      13.43400000       8.37800000
 O      26.38100000      20.45700000       7.87500000
 H      27.15800000      19.87300000       7.88400000
 H      25.86900000      19.97600000       8.55600000
 O      27.77600000      18.33100000      11.38500000
 H      27.11700000      19.06600000      11.62400000
 H      27.65900000      17.78500000      12.15700000
 O      29.21000000      20.02100000       8.49600000
 H      29.91300000      19.46600000       8.93800000
 H      28.98500000      20.68700000       9.17300000
 O      27.80200000      11.62200000       5.28200000
 H      27.32700000      10.99200000       5.88100000
 H      28.43100000      12.08500000       5.87900000
 O      28.70600000      12.17700000      12.80500000
 H      28.18500000      12.93100000      13.05600000
 H      28.46400000      11.46400000      13.45700000
 O      30.71600000      11.91200000       6.66300000
 H      30.12000000      12.69700000       6.74400000
 H      31.25600000      11.91400000       7.49300000
 O      26.63300000      15.57200000      13.48100000
 H      27.04100000      14.86400000      13.99000000
 H      27.44000000      16.04300000      13.24300000
 O      29.24000000      16.29900000       7.78400000
 H      29.99000000      16.59600000       7.16700000
 H      28.91300000      15.43700000       7.39600000
 O      26.56300000      20.52900000       4.52800000
 H      27.48000000      20.25000000       4.26800000
 H      26.58000000      20.16700000       5.42400000
 O      33.38500000      14.36400000       5.06500000
 H      33.45500000      13.38500000       5.28500000
 H      32.46400000      14.63500000       5.39500000
 O      33.86800000      16.86100000       8.61700000
 H      33.72800000      15.85800000       8.43900000
 H      33.29700000      17.17900000       9.31500000
 O      32.80900000      11.49900000      15.11500000
 H      32.39400000      12.08000000      14.48100000
 H      31.96000000      11.32100000      15.61000000
 O      32.23500000      14.00200000      13.35200000
 H      31.31700000      13.93700000      13.82300000
 H      32.77300000      14.55500000      13.97900000
 O      37.10900000      17.18900000       9.35500000
 H      36.84500000      17.03200000       8.41900000
 H      36.28800000      17.29900000       9.86400000
 O      36.50400000      10.84800000       5.49700000
 H      36.63800000      10.91800000       6.43800000
 H      36.01400000      11.65600000       5.18300000
 O      35.19800000      16.91700000      12.85300000
 H      36.11700000      17.22600000      12.78500000
 H      34.64400000      17.59900000      13.30600000
 O      32.62300000      20.90200000       5.57000000
 H      33.50400000      21.11300000       5.40600000
 H      32.36000000      21.73500000       5.93700000
 O      33.97700000      14.81000000      14.37000000
 H      34.62100000      15.28000000      13.79000000
 H      33.59500000      15.55300000      14.94900000
 O      36.45700000      13.39400000      13.82200000
 H      35.80700000      12.69400000      13.90100000
 H      37.27800000      12.82100000      13.60800000
 O      33.10300000      15.23800000       9.91200000
 H      32.26800000      14.60600000       9.92800000
 H      33.67200000      14.89900000      10.63900000
 O      35.91000000      11.62200000      11.38800000
 H      36.35700000      11.39600000      12.28600000
 H      35.80400000      12.61300000      11.54800000
 O      36.32100000      15.56100000       6.35700000
 H      35.77000000      14.83800000       5.96400000
 H      36.98600000      15.07400000       6.91600000
 O      34.50500000      18.22500000      16.17900000
 H      35.05300000      18.99300000      16.55100000
 H      35.12000000      17.94800000      15.47900000
 O      33.45500000      11.82400000       9.25700000
 H      33.03300000      11.46900000      10.07000000
 H      34.41400000      11.65800000       9.51700000
 O      36.77400000      20.12100000       7.79900000
 H      37.37700000      20.89600000       7.76100000
 H      36.17800000      20.14400000       8.58500000
 O      35.22900000      18.11100000       5.39800000
 H      34.76200000      18.35400000       6.19700000
 H      35.82300000      17.35400000       5.59600000
 O      32.62600000      16.32200000       5.96200000
 H      33.22000000      17.07500000       5.76000000
 H      33.06800000      15.49900000       5.68900000
 O      34.01400000      20.44300000       9.13800000
 H      34.52800000      20.54700000       9.93000000
 H      33.48500000      19.61300000       9.44100000
 O      35.15500000      15.24100000      11.72700000
 H      35.75000000      14.86700000      12.41600000
 H      35.09400000      16.15500000      11.97700000
 O      33.17400000      20.52300000      12.81900000
 H      34.01000000      20.97400000      12.63900000
 H      32.92900000      20.63700000      13.80600000
 O      32.56100000      11.56600000      11.91500000
 H      31.60500000      11.56700000      12.19600000
 H      32.94800000      12.54200000      12.12400000
