120
XYZ file of cluster: frame_3500_c372c.4994c.74b4a - created by MolEdiTo
 O      26.86800000      18.90800000      23.64800000
 H      27.53200000      18.96700000      22.83600000
 H      27.50200000      18.92000000      24.35400000
 O      27.03500000      18.10800000      20.04200000
 H      26.75100000      18.75500000      19.34300000
 H      26.46200000      17.39800000      19.86600000
 O      27.48600000      10.36400000      21.21400000
 H      28.13200000      10.15500000      21.98400000
 H      27.47200000      11.37200000      21.15100000
 O      29.09700000      19.77000000      22.00100000
 H      30.06000000      19.62100000      22.08100000
 H      28.92500000      19.71300000      21.07100000
 O      29.71700000      14.38700000      17.44900000
 H      29.86100000      13.49200000      17.83200000
 H      29.24100000      14.76200000      18.24800000
 O      30.24700000      15.16700000      23.52100000
 H      30.65600000      16.08500000      23.72800000
 H      29.45700000      15.12500000      24.01300000
 O      29.35600000      20.54900000      19.13800000
 H      28.60000000      20.39100000      18.67100000
 H      29.87400000      19.65600000      19.03200000
 O      30.45500000      14.35600000      20.55000000
 H      29.94500000      14.95500000      21.15600000
 H      31.23800000      14.93700000      20.35200000
 O      27.61300000      20.89000000      25.87800000
 H      27.78900000      21.85000000      25.63100000
 H      26.75100000      21.00900000      26.29300000
 O      29.19800000      16.64800000      24.56400000
 H      29.57500000      16.64300000      23.59900000
 H      28.27400000      16.32000000      24.46300000
 O      29.16800000      18.21600000      16.12200000
 H      28.99800000      18.32700000      15.15200000
 H      28.42600000      18.59100000      16.62800000
 O      27.11600000      19.56100000      17.55300000
 H      26.43000000      20.28800000      17.44300000
 H      26.61600000      18.74700000      17.13700000
 O      27.21500000      15.76200000      19.35900000
 H      28.06800000      16.30600000      19.54300000
 H      26.48100000      16.29400000      19.69000000
 O      26.77000000      12.37600000      17.30400000
 H      26.07300000      11.80600000      17.84500000
 H      26.41000000      13.29800000      17.48200000
 O      28.99900000      16.46100000      21.72200000
 H      29.61500000      16.28100000      21.02100000
 H      28.28600000      17.08800000      21.39000000
 O      26.07700000      15.27400000      16.70000000
 H      26.45100000      15.51700000      17.60600000
 H      25.07100000      15.38800000      16.66600000
 O      30.19800000      11.61100000      18.75500000
 H      31.16600000      11.45400000      19.02600000
 H      29.88100000      12.30200000      19.38400000
 O      27.05200000      13.13100000      20.74000000
 H      27.30000000      13.92900000      20.28000000
 H      26.64800000      13.49000000      21.57000000
 O      29.65400000      16.07000000      18.74100000
 H      30.19100000      16.87400000      18.63300000
 H      29.71100000      15.77900000      17.80800000
 O      35.67100000      10.89900000      24.36000000
 H      35.57300000      11.20800000      25.28300000
 H      36.27200000      11.61700000      24.02200000
 O      36.13000000      13.94500000      18.55200000
 H      35.40300000      13.68300000      19.24300000
 H      35.63000000      14.36200000      17.83700000
 O      36.28700000      15.97600000      18.73600000
 H      37.13900000      15.65100000      18.35500000
 H      36.28400000      16.92400000      18.42600000
 O      32.49200000      16.48600000      16.06400000
 H      33.13800000      17.21900000      16.20600000
 H      31.62600000      16.95000000      16.05900000
 O      34.19400000      13.49300000      26.08900000
 H      34.26600000      12.69200000      26.67000000
 H      34.80100000      14.09700000      26.56100000
 O      33.31600000      11.12400000      23.04500000
 H      34.14900000      11.40800000      23.37000000
 H      32.96100000      11.87600000      22.48900000
 O      32.33600000      18.74700000      25.54600000
 H      33.13300000      18.18700000      25.26700000
 H      31.60900000      18.30200000      25.07300000
 O      32.74100000      18.39900000      18.87100000
 H      32.94400000      18.91900000      19.72800000
 H      33.42800000      18.54100000      18.24600000
 O      32.42900000      11.06300000      26.63600000
 H      32.68400000      11.79300000      25.95200000
 H      32.50300000      11.52900000      27.50500000
 O      33.66600000      15.44300000      20.34900000
 H      34.29200000      15.60800000      19.67600000
 H      32.86000000      15.93500000      19.99900000
 O      33.75700000      14.28600000      16.73000000
 H      32.77500000      14.26600000      16.79900000
 H      33.94000000      14.96000000      16.08300000
 O      35.79800000       9.83500000      18.62800000
 H      35.18900000      10.58300000      18.40700000
 H      35.40800000       9.49100000      19.45500000
 O      34.07700000      11.59600000      17.50300000
 H      33.63400000      11.31300000      16.69600000
 H      34.15800000      12.56000000      17.47500000
 O      34.81800000      13.55700000      22.16800000
 H      34.50000000      14.28100000      22.66300000
 H      35.67800000      13.96000000      21.90600000
 O      36.06100000      20.17500000      17.29200000
 H      36.52900000      20.74300000      17.91600000
 H      36.81100000      19.64800000      16.84700000
 O      36.60200000      15.17700000      25.55100000
 H      36.19300000      16.09800000      25.61700000
 H      35.88500000      14.63800000      25.98200000
 O      34.50500000      18.22500000      16.17900000
 H      35.05300000      18.99300000      16.55100000
 H      35.12000000      17.94800000      15.47900000
 O      34.74600000      18.16700000      24.54600000
 H      35.31300000      18.19700000      25.37400000
 H      35.01600000      17.34600000      24.16100000
 O      33.29700000      18.89100000      22.18500000
 H      32.93000000      19.06400000      23.08300000
 H      34.20100000      18.47900000      22.33400000
 O      36.98400000      18.44000000      21.10000000
 H      36.05000000      18.71200000      20.83000000
 H      37.01800000      17.47900000      20.90600000
 O      35.21600000      15.34900000      23.32900000
 H      35.72400000      14.92200000      22.62200000
 H      35.76600000      15.05600000      24.12100000
