138
XYZ file of cluster: frame_3500_4f488.c2eb3.72087 - created by MolEdiTo
 O      14.78600000      28.62600000      19.65600000
 H      13.85500000      28.41700000      19.86800000
 H      14.76700000      29.38000000      19.02000000
 O      10.43700000      27.09600000      25.60500000
 H      10.38600000      26.05200000      25.66500000
 H      11.10200000      27.27200000      26.34300000
 O      10.75300000      29.04000000      23.78100000
 H      10.22700000      28.38900000      24.32400000
 H      10.29400000      29.83600000      24.06500000
 O      21.06700000      29.34500000      22.81200000
 H      21.99300000      29.34700000      22.56800000
 H      20.82800000      29.16400000      23.77200000
 O      16.91400000      28.31700000      22.66900000
 H      15.99300000      28.12900000      22.98300000
 H      17.36800000      27.93200000      23.43100000
 O      17.96000000      29.58700000      21.46700000
 H      18.70600000      29.09800000      21.91400000
 H      17.27400000      28.86300000      21.53200000
 O      15.81000000      26.68800000      25.00800000
 H      15.41800000      26.16300000      24.20800000
 H      15.07400000      26.65500000      25.60100000
 O      12.09100000      28.65700000      20.95400000
 H      11.91200000      27.71800000      20.86500000
 H      11.72600000      28.95800000      21.79700000
 O      18.95000000      26.10700000      25.71100000
 H      19.37000000      26.89900000      26.09700000
 H      18.32300000      25.90500000      26.43900000
 O      16.30300000      29.29100000      25.94800000
 H      15.79700000      29.79700000      25.25900000
 H      16.17500000      28.32100000      25.71300000
 O      15.93900000      27.46500000      15.58000000
 H      15.91200000      26.55500000      15.98600000
 H      16.52700000      27.99600000      16.21200000
 O      13.60800000      28.00800000      23.51100000
 H      12.63500000      28.25800000      23.60600000
 H      13.99400000      28.97400000      23.42400000
 O      18.06200000      28.53200000      15.60900000
 H      18.07600000      29.12400000      14.80500000
 H      17.16900000      28.65600000      15.97500000
 O      18.69600000      26.89700000      22.91800000
 H      18.19000000      26.03400000      22.84100000
 H      19.01600000      26.86900000      23.92600000
 O      17.68300000      28.73100000      17.67200000
 H      17.53100000      28.05100000      18.37600000
 H      17.63500000      29.52400000      18.25300000
 O      18.28300000      29.07000000      24.95400000
 H      18.47000000      30.02800000      24.67200000
 H      17.32900000      29.07800000      25.13100000
 O      19.53000000      25.77500000      18.16000000
 H      18.68300000      26.22400000      18.37400000
 H      19.92900000      26.33000000      17.41100000
 O      15.46400000      25.70900000      17.99800000
 H      16.31200000      25.14200000      18.13400000
 H      15.75100000      26.57400000      18.41800000
 O      17.15000000      27.34300000      19.94400000
 H      16.40400000      27.60500000      20.55700000
 H      17.44200000      26.54500000      20.43600000
 O      18.57700000      33.09400000      17.97400000
 H      19.07900000      32.21200000      17.92800000
 H      18.61500000      33.31800000      18.91700000
 O      19.66700000      33.07600000      20.45700000
 H      19.76600000      32.38600000      21.17200000
 H      20.44400000      32.75400000      19.88900000
 O      20.53000000      35.71100000      19.67200000
 H      19.76000000      36.29300000      19.83800000
 H      20.33100000      34.85100000      20.03100000
 O      17.92800000      33.00900000      15.99800000
 H      18.76200000      32.66000000      16.29100000
 H      17.79600000      33.82100000      16.64200000
 O      12.23400000      35.98300000      21.43900000
 H      11.42100000      35.61600000      21.09100000
 H      12.15900000      36.88200000      21.03100000
 O      21.16200000      32.48700000      16.49300000
 H      20.43800000      31.85000000      16.26500000
 H      21.95300000      32.11400000      16.04300000
 O      13.65100000      35.89600000      23.76700000
 H      12.98400000      36.02100000      23.03100000
 H      14.46300000      35.40800000      23.34800000
 O      19.14300000      37.05100000      15.36200000
 H      20.02100000      36.84800000      15.64200000
 H      18.50100000      36.60400000      15.97700000
 O      13.15500000      34.34700000      15.46500000
 H      13.11900000      34.32800000      16.47400000
 H      13.42200000      35.25400000      15.29400000
 O      18.77300000      36.05600000      25.53300000
 H      18.07500000      36.80700000      25.46100000
 H      18.96000000      35.84300000      24.55700000
 O      10.17000000      35.60200000      23.94600000
 H      10.79900000      35.36400000      23.19800000
 H      10.45700000      36.59600000      23.97100000
 O      14.88100000      32.32900000      23.47500000
 H      14.90900000      33.30100000      23.67800000
 H      15.28800000      32.37900000      22.60400000
 O      17.63800000      35.78600000      17.62100000
 H      17.40200000      35.90700000      18.56300000
 H      18.30900000      35.04500000      17.57500000
 O      16.00700000      34.08500000      26.15600000
 H      15.69300000      34.66000000      26.87400000
 H      15.87900000      33.18500000      26.46900000
 O      15.51900000      36.25400000      20.35700000
 H      15.00200000      35.44900000      20.28800000
 H      15.32400000      36.61400000      19.49800000
 O      14.44700000      35.49700000      17.98800000
 H      14.99300000      35.71300000      17.14800000
 H      13.60700000      36.13300000      17.89800000
 O      19.63400000      32.97800000      24.20800000
 H      19.61400000      33.85400000      23.77200000
 H      20.25300000      32.52800000      23.67100000
 O      17.86400000      33.13000000      20.47500000
 H      17.74200000      32.76200000      19.55000000
 H      18.47000000      32.44400000      20.93500000
 O      11.20100000      33.29200000      20.02200000
 H      10.87400000      32.53700000      20.48600000
 H      11.63500000      32.96300000      19.17400000
 O      12.24100000      36.95100000      17.21100000
 H      11.67100000      37.74600000      17.30000000
 H      11.82600000      36.35300000      16.52000000
 O      20.53900000      36.46200000      23.11400000
 H      20.85000000      36.35800000      22.20600000
 H      21.45900000      36.52100000      23.59600000
 O      16.25500000      35.15300000      23.67100000
 H      16.46000000      34.83400000      24.61700000
 H      16.85500000      35.89700000      23.64000000
 O      18.40100000      35.86200000      20.41300000
 H      18.48300000      34.89700000      20.68700000
 H      17.48200000      36.06500000      20.73100000
 O      11.35700000      33.23100000      17.23500000
 H      11.35000000      33.84400000      16.43100000
 H      10.42100000      32.95300000      17.39700000
 O      15.47100000      32.92500000      18.32900000
 H      15.17100000      33.60800000      17.74900000
 H      15.60000000      33.32100000      19.20600000
 O      13.01600000      35.20900000      26.40200000
 H      12.96900000      36.20400000      26.59600000
 H      13.49800000      35.10700000      25.52000000
 O      11.21300000      33.17700000      27.06100000
 H      10.93400000      33.10400000      26.11000000
 H      11.82200000      33.95000000      27.00900000
