129
XYZ file of cluster: frame_3500_c3d88.26b79.259a5 - created by MolEdiTo
 O      25.13600000      10.15000000      13.55000000
 H      25.12200000      10.92300000      12.89800000
 H      26.12800000      10.00800000      13.60700000
 O      28.10500000      10.94800000      15.24500000
 H      27.93400000      10.16100000      15.84000000
 H      27.58900000      11.66600000      15.73700000
 O      28.86300000      14.20000000      10.63500000
 H      29.01800000      13.76200000      11.52800000
 H      27.95500000      14.05100000      10.21200000
 O      29.13200000       6.74300000       8.00200000
 H      29.45500000       7.46500000       7.44400000
 H      29.09600000       7.13900000       8.91600000
 O      29.63100000       7.91700000      10.61300000
 H      30.50100000       8.36300000      10.61300000
 H      28.94100000       8.48000000      11.12000000
 O      27.48900000       9.93700000       7.72100000
 H      27.33500000       9.82900000       8.73100000
 H      28.13000000       9.34300000       7.37200000
 O      29.91100000      16.09500000      10.54200000
 H      30.54200000      15.31700000      10.54200000
 H      29.70400000      16.10900000       9.53300000
 O      30.60400000       8.92400000       6.99900000
 H      30.61300000       9.48500000       7.80400000
 H      30.91000000       9.56800000       6.31900000
 O      30.71100000       8.83500000      14.28700000
 H      31.30300000       9.21300000      14.90900000
 H      31.31700000       8.60900000      13.53700000
 O      27.98800000       9.12800000      12.99300000
 H      28.10300000       8.20200000      13.27700000
 H      28.12900000       9.55800000      13.90500000
 O      26.36700000      13.90400000       9.08400000
 H      25.80700000      13.19200000       8.72700000
 H      25.79900000      14.35100000       9.74500000
 O      26.74400000       9.48700000      10.32200000
 H      26.28200000      10.32300000      10.60100000
 H      26.90200000       9.08700000      11.21000000
 O      28.43800000      13.96000000      15.01500000
 H      27.67100000      14.29400000      15.49000000
 H      29.02900000      13.98800000      15.82500000
 O      27.69800000      15.67100000       5.72800000
 H      27.96700000      16.59900000       5.44800000
 H      27.62200000      15.10900000       4.88200000
 O      28.51000000      13.55800000       7.38200000
 H      27.88800000      14.31400000       7.14400000
 H      28.59000000      13.43400000       8.37800000
 O      27.92000000       6.02400000      13.56600000
 H      27.01500000       5.70900000      13.45500000
 H      28.23100000       5.68600000      14.39600000
 O      27.28700000       6.10500000       6.11400000
 H      27.91200000       6.50700000       6.75100000
 H      27.54500000       5.21500000       6.00200000
 O      27.80200000      11.62200000       5.28200000
 H      27.32700000      10.99200000       5.88100000
 H      28.43100000      12.08500000       5.87900000
 O      28.70600000      12.17700000      12.80500000
 H      28.18500000      12.93100000      13.05600000
 H      28.46400000      11.46400000      13.45700000
 O      30.71600000      11.91200000       6.66300000
 H      30.12000000      12.69700000       6.74400000
 H      31.25600000      11.91400000       7.49300000
 O      27.35500000       4.99400000      10.83500000
 H      26.90600000       5.79900000      10.76800000
 H      27.94900000       5.03500000      11.57600000
 O      26.63300000      15.57200000      13.48100000
 H      27.04100000      14.86400000      13.99000000
 H      27.44000000      16.04300000      13.24300000
 O      29.24000000      16.29900000       7.78400000
 H      29.99000000      16.59600000       7.16700000
 H      28.91300000      15.43700000       7.39600000
 O      33.38500000      14.36400000       5.06500000
 H      33.45500000      13.38500000       5.28500000
 H      32.46400000      14.63500000       5.39500000
 O      34.59500000       6.05500000      12.50100000
 H      34.38200000       6.57300000      11.67100000
 H      34.71900000       5.14400000      12.19300000
 O      32.80900000      11.49900000      15.11500000
 H      32.39400000      12.08000000      14.48100000
 H      31.96000000      11.32100000      15.61000000
 O      32.23500000      14.00200000      13.35200000
 H      31.31700000      13.93700000      13.82300000
 H      32.77300000      14.55500000      13.97900000
 O      36.50400000      10.84800000       5.49700000
 H      36.63800000      10.91800000       6.43800000
 H      36.01400000      11.65600000       5.18300000
 O      36.70100000       7.82700000      13.15400000
 H      35.91600000       7.31800000      13.48500000
 H      36.89100000       7.32000000      12.31000000
 O      34.68200000       7.76000000      15.24000000
 H      35.39500000       7.20000000      15.65800000
 H      33.86000000       7.60900000      15.79100000
 O      36.98200000       6.32400000      10.44200000
 H      36.17000000       6.02300000       9.97400000
 H      37.13500000       7.04000000       9.90200000
 O      33.97700000      14.81000000      14.37000000
 H      34.62100000      15.28000000      13.79000000
 H      33.59500000      15.55300000      14.94900000
 O      36.45700000      13.39400000      13.82200000
 H      35.80700000      12.69400000      13.90100000
 H      37.27800000      12.82100000      13.60800000
 O      33.10300000      15.23800000       9.91200000
 H      32.26800000      14.60600000       9.92800000
 H      33.67200000      14.89900000      10.63900000
 O      35.91000000      11.62200000      11.38800000
 H      36.35700000      11.39600000      12.28600000
 H      35.80400000      12.61300000      11.54800000
 O      36.32100000      15.56100000       6.35700000
 H      35.77000000      14.83800000       5.96400000
 H      36.98600000      15.07400000       6.91600000
 O      35.36600000      10.42400000      14.17500000
 H      34.66800000      10.45200000      14.77300000
 H      35.43400000       9.44300000      13.84100000
 O      33.45500000      11.82400000       9.25700000
 H      33.03300000      11.46900000      10.07000000
 H      34.41400000      11.65800000       9.51700000
 O      33.57300000       8.95500000      11.27200000
 H      33.40600000       9.98800000      11.20300000
 H      34.60600000       8.95300000      11.24900000
 O      32.62600000      16.32200000       5.96200000
 H      33.22000000      17.07500000       5.76000000
 H      33.06800000      15.49900000       5.68900000
 O      32.49400000       5.58200000      10.23900000
 H      32.02400000       6.36500000      10.66000000
 H      31.94400000       5.21400000       9.47300000
 O      35.15500000      15.24100000      11.72700000
 H      35.75000000      14.86700000      12.41600000
 H      35.09400000      16.15500000      11.97700000
 O      32.56100000      11.56600000      11.91500000
 H      31.60500000      11.56700000      12.19600000
 H      32.94800000      12.54200000      12.12400000
