753
XYZ file of cluster: frame_2000_49beb.73ec0.c484d - created by MolEdiTo
 O      21.57800000      40.81200000      40.72300000
 H      22.47700000      40.99600000      40.97600000
 H      21.58900000      39.83700000      41.00600000
 O      25.60800000      35.25300000      39.41100000
 H      26.20400000      34.51100000      39.17800000
 H      26.18500000      35.65400000      40.10600000
 O      29.95400000      20.93400000      38.90300000
 H      29.08700000      21.13500000      38.66800000
 H      30.52400000      21.30300000      38.24200000
 O      30.80300000      38.73900000      38.50900000
 H      31.08700000      38.54700000      37.58700000
 H      30.85000000      39.71700000      38.54300000
 O      30.51000000      34.53800000      35.12600000
 H      30.86600000      34.11600000      34.35800000
 H      31.19900000      35.19000000      35.34300000
 O      40.59600000      20.87500000      38.35100000
 H      41.16500000      21.65100000      38.62900000
 H      41.28600000      20.31700000      37.94800000
 O      27.05800000      30.43600000      39.46000000
 H      26.02200000      30.49300000      39.48400000
 H      27.22100000      30.21100000      40.40300000
 O      14.20800000      24.91900000      39.29000000
 H      13.58100000      24.18200000      39.52100000
 H      14.05400000      25.00800000      38.38200000
 O      23.14600000      33.74800000      39.10800000
 H      23.62600000      34.60800000      38.91400000
 H      23.20000000      33.86100000      40.11200000
 O      35.13100000      20.27000000      36.66900000
 H      35.76500000      19.82500000      36.04300000
 H      34.82400000      20.98800000      36.07700000
 O      16.75000000      25.19300000      35.50500000
 H      16.91500000      25.86400000      34.74700000
 H      15.86500000      24.91300000      35.21500000
 O      22.97500000      29.90500000      37.40800000
 H      21.99300000      29.87900000      37.18700000
 H      23.11300000      30.84300000      37.08000000
 O      30.37900000      33.32200000      40.84200000
 H      30.65800000      33.78400000      41.69000000
 H      29.89900000      32.58300000      41.16800000
 O      23.92400000      32.29700000      36.38300000
 H      24.82600000      32.29600000      36.08600000
 H      23.76300000      33.29300000      36.49200000
 O      32.20200000      24.96500000      35.58400000
 H      31.61500000      24.37600000      35.11600000
 H      31.72100000      25.08500000      36.42800000
 O      26.47100000      31.79200000      35.51900000
 H      27.01300000      32.49900000      35.90200000
 H      26.84600000      31.70100000      34.65300000
 O      34.94000000      24.49800000      37.64300000
 H      34.89900000      25.02000000      38.43800000
 H      34.04400000      24.61900000      37.22100000
 O      16.98800000      40.40900000      40.55300000
 H      17.02700000      39.43900000      40.43400000
 H      17.77500000      40.71700000      40.06400000
 O      14.23400000      39.64500000      39.35500000
 H      14.01400000      40.05800000      40.25400000
 H      15.14700000      40.01600000      39.26100000
 O      27.88400000      27.51300000      36.81500000
 H      28.49000000      28.27000000      36.92900000
 H      27.02000000      27.96700000      36.72300000
 O      22.93100000      40.30500000      38.13800000
 H      23.38000000      40.51900000      37.25500000
 H      22.64600000      41.21800000      38.39000000
 O      15.48300000      28.24400000      37.43500000
 H      14.78500000      27.57200000      37.40800000
 H      15.51600000      28.49500000      38.37200000
 O      19.71200000      21.26800000      38.01900000
 H      19.38800000      20.34800000      38.22500000
 H      19.03700000      21.50300000      37.31500000
 O      24.26500000      30.65800000      39.83800000
 H      23.62800000      31.35100000      39.79300000
 H      23.90800000      30.16200000      39.02700000
 O      22.32800000      30.80200000      34.08200000
 H      22.26600000      31.42000000      34.83400000
 H      23.03600000      31.22200000      33.55800000
 O      39.08600000      36.61100000      35.46800000
 H      39.87000000      36.78900000      36.03000000
 H      39.46600000      36.04600000      34.76000000
 O      27.26900000      22.59800000      37.07700000
 H      27.70200000      23.48600000      37.28600000
 H      26.42700000      22.99200000      36.65200000
 O      37.57000000      38.40000000      36.81700000
 H      38.16100000      37.78200000      36.36400000
 H      36.70600000      37.97700000      36.67000000
 O      19.71900000      20.87400000      34.27700000
 H      19.29500000      21.33800000      35.02700000
 H      18.94100000      20.59100000      33.74700000
 O      24.29600000      20.46000000      36.65900000
 H      23.85800000      21.15900000      37.24000000
 H      23.57800000      20.39300000      35.97300000
 O      15.27900000      22.56200000      36.30800000
 H      14.93400000      22.46800000      35.38400000
 H      14.98800000      23.46800000      36.45400000
 O      16.80700000      24.34800000      38.93800000
 H      15.88700000      24.68200000      38.77400000
 H      17.30100000      25.18400000      38.70000000
 O      27.18700000      21.01800000      39.16200000
 H      26.44100000      20.34700000      39.13800000
 H      27.02000000      21.58500000      38.44900000
 O      17.04900000      36.34400000      37.36600000
 H      16.97100000      35.36900000      37.12800000
 H      17.37500000      36.69000000      36.50100000
 O      21.14400000      34.53100000      35.80900000
 H      22.06200000      34.38600000      36.08000000
 H      21.03900000      35.45200000      36.07000000
 O      15.51300000      30.11300000      35.48300000
 H      15.72100000      30.62500000      36.26000000
 H      15.68800000      29.21000000      35.80200000
 O      17.92300000      26.29500000      37.58100000
 H      17.54800000      27.25100000      37.46900000
 H      17.40500000      25.91900000      36.79200000
 O      15.18300000      30.45300000      40.36900000
 H      15.05000000      29.48100000      40.25700000
 H      15.02600000      30.71200000      39.42300000
 O      28.15700000      40.84700000      40.28300000
 H      27.83100000      41.74000000      40.33400000
 H      28.99100000      40.94100000      39.74300000
 O      37.29600000      34.36100000      37.06500000
 H      38.18700000      34.30600000      36.67100000
 H      37.45300000      34.35400000      37.99300000
 O      40.71100000      29.09900000      39.80000000
 H      40.72300000      30.01600000      40.24600000
 H      41.63200000      28.86400000      40.17600000
 O      33.00400000      31.54700000      39.63900000
 H      33.51500000      31.49500000      38.78900000
 H      32.41000000      30.82500000      39.56700000
 O      39.72000000      32.64300000      36.69100000
 H      40.04000000      33.17800000      37.42200000
 H      39.16500000      32.00200000      37.17600000
 O      36.19400000      30.66300000      35.37400000
 H      37.04300000      30.10600000      35.38400000
 H      35.69300000      30.14800000      34.66600000
 O      20.50700000      34.89000000      40.77100000
 H      20.77700000      34.75000000      39.81600000
 H      21.33100000      34.50800000      41.15700000
 O      22.59000000      22.76700000      40.24200000
 H      23.33800000      23.25700000      40.56500000
 H      22.31400000      22.35800000      41.09100000
 O      28.17900000      25.05200000      37.86000000
 H      28.11600000      25.83500000      37.21600000
 H      27.64400000      25.54600000      38.54200000
 O      28.03300000      37.35900000      37.89200000
 H      28.74900000      37.83600000      38.39200000
 H      27.50300000      36.95300000      38.60100000
 O      27.44100000      33.12300000      39.18800000
 H      27.33400000      32.17200000      39.25400000
 H      27.92500000      33.23900000      38.40200000
 O      29.93800000      23.25000000      35.14200000
 H      29.58500000      24.15800000      35.19200000
 H      30.11400000      23.14100000      34.19100000
 O      39.98500000      39.00800000      38.52200000
 H      39.97100000      39.76400000      37.87500000
 H      39.30400000      38.44900000      38.14200000
 O      23.11900000      37.02600000      34.55200000
 H      22.38500000      36.64700000      34.02100000
 H      22.54300000      37.53300000      35.18100000
 O      40.38300000      24.21600000      34.68700000
 H      39.95500000      24.14300000      33.83700000
 H      40.31700000      23.33200000      35.08800000
 O      23.56900000      36.97300000      38.76200000
 H      23.73500000      37.62000000      38.09300000
 H      24.39500000      36.42700000      38.59200000
 O      18.09600000      22.65500000      36.09500000
 H      17.73700000      23.53500000      35.80400000
 H      17.29400000      22.21800000      36.28200000
 O      34.61600000      38.71600000      38.91900000
 H      34.98100000      38.84500000      38.07000000
 H      33.91900000      38.01800000      38.67300000
 O      15.87200000      21.67500000      38.88700000
 H      16.25000000      22.56700000      38.77600000
 H      15.77600000      21.43600000      37.91300000
 O      37.23200000      27.05100000      37.82000000
 H      36.86300000      27.64500000      38.47500000
 H      38.07600000      26.78100000      38.32500000
 O      33.05700000      28.55200000      39.08100000
 H      32.12200000      28.44600000      38.73000000
 H      33.53800000      27.87900000      38.58800000
 O      35.97700000      40.76900000      36.79600000
 H      35.86100000      40.76900000      37.71800000
 H      36.66200000      40.07400000      36.64100000
 O      32.66400000      35.47100000      36.52200000
 H      33.38400000      34.87100000      36.23300000
 H      32.26800000      34.83600000      37.18200000
 O      29.59700000      30.31100000      35.29900000
 H      29.12600000      30.21300000      36.16600000
 H      30.49900000      30.03000000      35.49100000
 O      13.81300000      38.29700000      35.40500000
 H      14.71300000      38.63900000      35.56400000
 H      13.93700000      37.71600000      34.63800000
 O      33.83400000      22.62000000      35.93700000
 H      34.51400000      22.95200000      36.50400000
 H      33.64400000      23.34300000      35.31200000
 O      17.00300000      33.52200000      36.18900000
 H      17.69800000      33.39000000      35.55000000
 H      16.97900000      32.65200000      36.62400000
 O      16.70400000      33.04500000      40.18700000
 H      16.60700000      33.83700000      40.79900000
 H      15.73600000      32.85100000      40.09800000
 O      28.57400000      34.03000000      36.91500000
 H      27.88100000      34.57800000      36.57200000
 H      29.28500000      34.21000000      36.27300000
 O      38.57500000      29.06600000      35.47100000
 H      39.12500000      29.03500000      34.65400000
 H      38.25700000      28.12400000      35.37100000
 O      20.10900000      29.03400000      34.53200000
 H      20.89400000      29.55200000      34.14800000
 H      20.09300000      29.38300000      35.44300000
 O      25.80000000      39.30400000      39.32400000
 H      26.59300000      39.75300000      39.71100000
 H      25.21500000      40.01900000      39.07000000
 O      36.38800000      36.31400000      34.06700000
 H      37.26200000      36.38800000      34.54800000
 H      35.81500000      36.63900000      34.74500000
 O      34.44500000      25.37500000      40.55500000
 H      33.84800000      24.66000000      40.92100000
 H      35.29500000      25.02700000      40.83800000
 O      14.71300000      35.25000000      38.49000000
 H      15.60800000      35.44600000      38.43600000
 H      14.52000000      35.33800000      39.42500000
 O      25.11300000      23.82600000      36.22200000
 H      24.43200000      23.21000000      36.66000000
 H      24.52800000      24.64900000      36.44600000
 O      22.46300000      26.74400000      38.36900000
 H      22.91900000      26.38600000      37.61300000
 H      23.18500000      26.86500000      39.00200000
 O      18.71500000      37.37000000      35.30200000
 H      19.25300000      36.96600000      34.65300000
 H      17.96800000      37.64400000      34.68000000
 O      39.87700000      26.74600000      38.77900000
 H      40.06600000      26.13500000      39.45100000
 H      40.26700000      27.58700000      39.10000000
 O      25.45600000      38.72600000      36.81700000
 H      26.35700000      38.40500000      36.62500000
 H      25.51700000      38.88800000      37.76300000
 O      20.83100000      32.41300000      38.55400000
 H      21.62200000      32.96400000      38.71800000
 H      20.39100000      32.50800000      39.39700000
 O      34.65500000      33.87500000      35.91000000
 H      34.79000000      33.97900000      34.94300000
 H      35.55900000      33.97800000      36.25500000
 O      19.57900000      32.55300000      34.67100000
 H      20.08900000      33.27100000      35.08000000
 H      19.67200000      31.83100000      35.30800000
 O      37.57600000      23.03300000      36.92300000
 H      37.21700000      23.84300000      37.37800000
 H      37.16800000      22.41100000      37.56600000
 O      23.97500000      40.59300000      35.44700000
 H      24.06100000      40.38000000      34.42300000
 H      24.48100000      39.85400000      35.79600000
 O      16.13900000      39.59000000      36.62500000
 H      16.50200000      38.74600000      36.94300000
 H      16.98600000      40.03600000      36.29600000
 O      23.75400000      26.10900000      35.94000000
 H      23.63300000      25.69400000      35.08000000
 H      24.03800000      27.03000000      35.67100000
 O      16.77400000      31.28300000      37.73500000
 H      16.92700000      31.96200000      38.46300000
 H      17.42700000      30.61700000      37.98000000
 O      33.71100000      36.13400000      39.04100000
 H      33.85900000      35.31900000      39.49200000
 H      33.24600000      35.79000000      38.24000000
 O      37.73200000      31.40200000      40.23400000
 H      38.07900000      30.89700000      39.53400000
 H      38.05500000      32.30300000      39.99400000
 O      40.70500000      40.90000000      40.40300000
 H      40.50300000      40.21200000      39.64900000
 H      41.66700000      40.65600000      40.39200000
 O      29.69100000      35.87500000      39.90300000
 H      30.07600000      35.66300000      39.04700000
 H      29.99900000      35.19300000      40.50000000
 O      24.88600000      26.81800000      39.73400000
 H      24.86800000      27.27500000      40.60000000
 H      25.84300000      26.54900000      39.78100000
 O      20.92100000      24.33700000      36.74400000
 H      19.92700000      24.19100000      36.84300000
 H      20.89700000      25.18700000      36.31400000
 O      31.48100000      39.02200000      35.82600000
 H      32.07600000      39.73600000      36.25100000
 H      30.80900000      39.63800000      35.46300000
 O      20.23500000      28.47300000      38.12400000
 H      19.53700000      27.95500000      38.58200000
 H      21.00200000      27.85500000      38.12600000
 O      23.01500000      22.64200000      37.44700000
 H      22.37800000      23.28300000      37.09300000
 H      22.69800000      22.55100000      38.36900000
 O      31.34600000      21.66400000      36.68100000
 H      32.17200000      22.15300000      36.38100000
 H      30.64900000      22.19200000      36.22700000
 O      13.12100000      28.83000000      35.05300000
 H      12.61400000      29.00700000      35.91100000
 H      14.00600000      29.26500000      35.29400000
 O      14.48100000      27.79000000      40.11700000
 H      13.60100000      27.84300000      40.61600000
 H      14.49600000      26.84000000      39.94500000
 O      18.54100000      40.45000000      36.15900000
 H      18.96600000      40.57800000      37.01900000
 H      19.31900000      40.27600000      35.56800000
 O      36.20100000      24.16800000      34.76600000
 H      37.01100000      24.65000000      34.63300000
 H      36.53800000      23.45500000      35.37700000
 O      17.25200000      37.91600000      39.74200000
 H      17.73100000      37.40000000      40.40400000
 H      17.01200000      37.29600000      39.07100000
 O      20.88200000      24.79900000      39.81800000
 H      21.25500000      23.92900000      39.54400000
 H      21.23700000      25.43800000      39.12100000
 O      28.73100000      25.70700000      34.91400000
 H      28.52200000      26.45500000      35.49900000
 H      27.84200000      25.42200000      34.63100000
 O      27.87300000      21.10100000      35.05800000
 H      28.84800000      20.95300000      35.18500000
 H      27.74000000      21.66100000      35.84300000
 O      34.38200000      31.33400000      37.16600000
 H      35.09000000      31.01100000      36.55100000
 H      34.58500000      32.28600000      37.10700000
 O      19.87400000      26.42100000      35.29600000
 H      19.64700000      26.78600000      36.13800000
 H      20.01300000      27.24400000      34.74900000
 O      31.32000000      33.96500000      38.41000000
 H      31.27700000      33.44900000      39.29300000
 H      30.67600000      33.42800000      37.89500000
 O      39.68900000      21.90600000      36.00200000
 H      38.86900000      22.36900000      36.35100000
 H      39.94500000      21.45800000      36.81500000
 O      31.00600000      24.87300000      40.80400000
 H      31.91600000      24.67000000      41.15300000
 H      30.46100000      24.60600000      41.57900000
 O      20.25600000      30.70900000      36.63300000
 H      20.51100000      31.50100000      37.23200000
 H      20.07300000      30.05700000      37.34200000
 O      40.69000000      34.62600000      38.32400000
 H      40.85000000      35.21600000      37.50900000
 H      41.60000000      34.63000000      38.68500000
 O      32.28500000      30.19200000      35.92700000
 H      33.05600000      30.56800000      36.37400000
 H      32.57200000      29.22600000      35.93700000
 O      38.47000000      33.86100000      39.73700000
 H      39.35000000      34.05300000      39.44600000
 H      38.48300000      34.14800000      40.64700000
 O      27.53500000      25.97000000      40.48100000
 H      27.84300000      25.06000000      40.68200000
 H      28.18700000      26.50000000      41.02900000
 O      19.80100000      36.68100000      37.79200000
 H      18.95300000      36.63200000      38.30800000
 H      19.46800000      36.80800000      36.91100000
 O      21.80600000      38.26200000      36.33800000
 H      21.14000000      37.77100000      36.92200000
 H      22.15900000      38.83800000      37.04100000
 O      38.38000000      30.55700000      37.72900000
 H      37.47200000      30.17200000      37.67300000
 H      38.85400000      29.85500000      37.17100000
 O      23.85800000      35.09400000      36.16200000
 H      24.81300000      35.33100000      36.34100000
 H      23.64300000      35.84200000      35.50000000
 O      17.63800000      28.64100000      39.55600000
 H      17.55400000      29.50600000      40.04900000
 H      17.64300000      28.05000000      40.31100000
 O      14.12600000      33.52700000      36.64800000
 H      14.12500000      34.38300000      37.25900000
 H      14.96600000      33.62000000      36.17300000
 O      29.10700000      29.72500000      38.05000000
 H      28.28900000      29.86400000      38.62100000
 H      29.34100000      28.80300000      38.42400000
 O      33.11300000      40.67400000      36.89000000
 H      34.04400000      40.51100000      36.71800000
 H      33.02800000      41.62800000      36.80500000
 O      30.97200000      24.80300000      38.12800000
 H      31.03400000      24.63300000      39.08400000
 H      29.94400000      24.77600000      37.99300000
 O      34.22400000      33.77500000      40.49900000
 H      33.61300000      33.06300000      40.23200000
 H      35.12900000      33.33000000      40.32200000
 O      34.68800000      37.72100000      36.05200000
 H      34.01700000      37.00400000      36.14200000
 H      34.29300000      38.25500000      35.30500000
 O      35.53600000      29.03400000      39.80600000
 H      35.75500000      29.90400000      40.07600000
 H      34.56100000      29.08400000      39.71100000
 O      26.51500000      35.71600000      36.32600000
 H      26.82300000      35.78200000      35.40300000
 H      26.93100000      36.43300000      36.81200000
 O      35.39000000      26.70300000      35.60900000
 H      35.54900000      25.74200000      35.44300000
 H      35.79100000      26.73400000      36.52000000
 O      25.33100000      29.25200000      35.80800000
 H      24.62200000      29.63900000      36.42800000
 H      25.92000000      30.07000000      35.83800000
 O      35.91200000      21.61900000      38.94400000
 H      36.53400000      20.83500000      38.95200000
 H      35.32900000      21.34400000      38.20500000
 O      30.26900000      27.53500000      39.26300000
 H      29.95600000      27.30400000      40.15500000
 H      30.93900000      26.79900000      39.22100000
 O      40.25300000      26.75000000      36.09100000
 H      39.76700000      26.70100000      36.95600000
 H      40.01100000      25.92000000      35.63500000
 O      20.90200000      40.38300000      34.63000000
 H      21.08900000      40.18200000      33.68300000
 H      21.31300000      39.62700000      35.03700000
 O      32.89900000      27.56700000      35.35600000
 H      33.80900000      27.29200000      35.30300000
 H      32.50000000      26.67300000      35.38500000
 O      31.61300000      39.20500000      43.11600000
 H      32.04200000      38.40000000      43.26100000
 H      31.23400000      39.06900000      42.20100000
 O      40.38800000      29.27300000      46.12700000
 H      39.83100000      29.70000000      45.48300000
 H      40.89200000      28.64700000      45.63800000
 O      21.48300000      32.18400000      48.94100000
 H      21.83000000      32.49500000      48.14200000
 H      20.54900000      32.54800000      48.92400000
 O      29.22800000      32.91300000      48.05700000
 H      29.69000000      32.08800000      48.35800000
 H      28.30000000      32.62700000      48.17100000
 O      27.40500000      36.75600000      42.66100000
 H      27.46900000      37.55000000      43.19300000
 H      28.31100000      36.64900000      42.34600000
 O      38.22200000      34.80600000      43.99300000
 H      38.94000000      35.40500000      44.42600000
 H      37.61400000      35.53200000      43.76800000
 O      17.98600000      30.55300000      43.06200000
 H      17.34800000      30.59000000      43.83100000
 H      17.78900000      31.43800000      42.67600000
 O      27.12900000      39.35800000      48.30400000
 H      26.89800000      38.41700000      48.36500000
 H      26.83500000      39.53900000      47.38800000
 O      14.34400000      33.78200000      46.28800000
 H      14.17100000      34.44600000      45.61200000
 H      13.78600000      33.04300000      45.91900000
 O      20.48000000      22.01200000      46.52600000
 H      20.07900000      21.90700000      47.39700000
 H      19.81500000      22.64700000      46.15500000
 O      24.60900000      28.79500000      43.70700000
 H      23.66800000      28.63800000      44.04100000
 H      24.43300000      29.55500000      43.14100000
 O      22.04900000      39.27500000      45.37500000
 H      21.50400000      40.08000000      45.49800000
 H      21.51900000      38.63500000      44.92600000
 O      27.29900000      36.41700000      48.32700000
 H      27.25300000      35.56200000      47.79600000
 H      26.34600000      36.58100000      48.43900000
 O      28.83400000      29.10600000      47.78000000
 H      28.88600000      28.84500000      46.88500000
 H      29.75300000      29.39500000      47.97900000
 O      28.68400000      32.22600000      45.40200000
 H      29.56000000      31.79100000      45.40000000
 H      28.69000000      32.69400000      46.25000000
 O      29.48600000      22.02700000      46.37200000
 H      28.65000000      21.49600000      46.29400000
 H      30.03300000      21.42900000      46.91500000
 O      34.06800000      38.63700000      48.56300000
 H      33.21800000      38.54800000      49.03800000
 H      33.89300000      39.48700000      48.11400000
 O      30.37200000      39.19100000      45.47100000
 H      30.72800000      38.41900000      45.99000000
 H      30.79600000      38.96100000      44.58500000
 O      40.09200000      21.56100000      47.19400000
 H      41.06900000      21.48200000      47.09800000
 H      39.94600000      20.73300000      47.73600000
 O      22.28600000      33.18300000      46.26600000
 H      22.92900000      32.77300000      45.66600000
 H      21.45800000      32.68000000      45.95200000
 O      20.73800000      25.89400000      44.00300000
 H      20.35000000      25.36200000      44.70800000
 H      20.70900000      25.34100000      43.23700000
 O      39.94900000      23.83600000      49.03600000
 H      39.96800000      24.44200000      48.28000000
 H      40.14700000      23.01700000      48.51400000
 O      18.72500000      36.53500000      43.33400000
 H      19.24100000      36.96800000      44.05100000
 H      19.43200000      35.89200000      43.07000000
 O      35.57500000      27.45700000      43.71700000
 H      34.91200000      26.89800000      43.20400000
 H      35.79400000      28.09000000      43.00500000
 O      25.75400000      39.77400000      45.96800000
 H      25.83300000      40.63000000      45.49200000
 H      25.70000000      39.13000000      45.21200000
 O      16.33800000      30.59600000      47.91300000
 H      16.92000000      30.43800000      48.72300000
 H      16.35400000      31.56300000      47.82100000
 O      30.78500000      35.26600000      48.47700000
 H      31.35800000      34.75100000      49.09900000
 H      30.02900000      34.67500000      48.39900000
 O      17.31700000      27.39500000      45.81400000
 H      17.84100000      27.21900000      45.01000000
 H      16.40800000      27.47400000      45.41300000
 O      36.09900000      38.57100000      45.75700000
 H      36.19200000      38.58000000      44.78700000
 H      35.59100000      39.42200000      45.86700000
 O      24.53000000      20.79000000      44.00500000
 H      23.55900000      20.90200000      44.22600000
 H      24.90200000      21.51300000      44.61300000
 O      36.20700000      38.19400000      42.99700000
 H      35.58900000      38.52500000      42.32000000
 H      35.90000000      37.28400000      43.07600000
 O      14.14900000      31.08500000      44.35300000
 H      14.51600000      30.65000000      43.54800000
 H      14.11200000      32.01100000      43.90300000
 O      39.81700000      25.65600000      46.85900000
 H      39.29500000      26.42000000      47.17700000
 H      39.41400000      25.50800000      46.02200000
 O      25.85600000      27.02900000      45.26400000
 H      25.57700000      27.73100000      44.59600000
 H      25.65400000      27.61100000      46.06100000
 O      17.41900000      21.86500000      46.92700000
 H      16.80400000      22.45700000      47.34800000
 H      16.83900000      21.48000000      46.24400000
 O      31.92900000      28.43700000      47.71400000
 H      32.20100000      29.06200000      48.36900000
 H      32.68400000      28.41700000      47.08400000
 O      14.72600000      27.20100000      45.08400000
 H      14.94500000      26.24800000      45.15100000
 H      14.08400000      27.18500000      44.33000000
 O      39.87900000      23.07100000      43.90200000
 H      40.43400000      22.28500000      43.92900000
 H      39.21600000      22.84000000      44.58400000
 O      38.61200000      27.89300000      47.94500000
 H      39.39100000      27.73500000      48.50000000
 H      38.93700000      28.50900000      47.25200000
 O      40.39800000      25.39300000      42.80200000
 H      39.87100000      26.02600000      43.27800000
 H      40.22500000      24.62000000      43.41300000
 O      25.69600000      29.88800000      46.33200000
 H      26.12300000      30.49900000      47.04300000
 H      24.89400000      29.62100000      46.77200000
 O      39.29500000      32.55800000      45.30200000
 H      38.92100000      33.34600000      44.80900000
 H      40.14300000      32.96800000      45.56000000
 O      16.19600000      38.61800000      45.83300000
 H      15.38000000      38.41700000      45.28400000
 H      15.90700000      38.29900000      46.68800000
 O      19.02100000      28.48100000      47.99600000
 H      19.78400000      28.74500000      47.43600000
 H      18.49400000      27.98400000      47.31700000
 O      27.43400000      24.24200000      48.67300000
 H      28.17500000      24.39400000      49.28900000
 H      27.88500000      24.49800000      47.80300000
 O      34.97700000      21.23600000      42.99400000
 H      35.34100000      21.32000000      42.09200000
 H      34.43900000      20.45200000      42.88200000
 O      24.81000000      23.75100000      42.85200000
 H      25.29300000      24.38000000      42.28200000
 H      25.16600000      23.98700000      43.71400000
 O      26.78200000      20.98000000      47.10700000
 H      26.36100000      20.11800000      47.12800000
 H      26.21500000      21.45600000      47.74200000
 O      16.44700000      33.28400000      48.14700000
 H      16.31800000      33.93400000      48.79400000
 H      15.70800000      33.49500000      47.48100000
 O      32.78600000      32.45600000      47.53600000
 H      32.19900000      32.14800000      46.81300000
 H      32.06900000      32.79400000      48.12800000
 O      28.23000000      38.95400000      44.10400000
 H      28.34900000      39.78500000      43.62000000
 H      29.05200000      39.00800000      44.72100000
 O      38.99700000      27.57200000      44.24900000
 H      38.00800000      27.41100000      44.42100000
 H      38.87100000      28.57700000      44.26300000
 O      32.92100000      23.04900000      46.36500000
 H      32.30900000      22.96200000      47.18100000
 H      33.09300000      22.07700000      46.24800000
 O      35.21600000      34.39900000      45.95900000
 H      35.84900000      35.04800000      46.29500000
 H      34.79500000      34.15300000      46.83700000
 O      23.32200000      30.16200000      47.81100000
 H      22.69800000      29.49500000      47.43600000
 H      22.76900000      30.59600000      48.47900000
 O      20.62700000      30.36300000      43.03700000
 H      19.67400000      30.31300000      42.86900000
 H      20.62200000      31.09700000      43.72600000
 O      35.00900000      30.95800000      47.86200000
 H      34.29400000      31.64200000      47.88800000
 H      35.20500000      30.92300000      46.88500000
 O      18.30400000      26.77400000      43.32600000
 H      19.21900000      27.05900000      43.51200000
 H      18.30400000      25.83300000      43.19300000
 O      35.28300000      21.69600000      48.54100000
 H      35.03800000      22.59900000      48.57500000
 H      34.51200000      21.27200000      48.18900000
 O      33.29700000      30.71900000      44.31900000
 H      33.12800000      31.17600000      43.51400000
 H      34.16300000      31.15800000      44.58000000
 O      40.20900000      36.23100000      44.91300000
 H      39.73600000      37.12200000      44.92900000
 H      41.08700000      36.52000000      45.08100000
 O      16.32400000      24.46800000      47.95500000
 H      15.51600000      24.15200000      48.46400000
 H      15.88300000      24.71900000      47.10600000
 O      40.20600000      38.57000000      48.18600000
 H      40.32300000      37.65600000      48.51000000
 H      40.74900000      38.60300000      47.38000000
 O      18.68800000      38.92700000      45.20900000
 H      17.75400000      38.72400000      45.42800000
 H      19.10400000      38.11000000      45.54300000
 O      21.40700000      28.63000000      46.74000000
 H      21.75600000      27.71200000      46.97200000
 H      21.77800000      28.67800000      45.84600000
 O      31.61400000      22.80700000      48.59500000
 H      30.83200000      22.34300000      48.91400000
 H      31.96900000      23.07500000      49.51700000
 O      29.35100000      24.63200000      46.98800000
 H      30.04300000      24.37100000      47.61600000
 H      29.17000000      23.72300000      46.61200000
 O      23.74800000      38.96600000      47.37900000
 H      24.52000000      39.32800000      46.93600000
 H      23.10000000      39.00400000      46.65300000
 O      29.69000000      40.59000000      47.97500000
 H      29.70800000      40.55500000      46.98700000
 H      28.88600000      40.00200000      48.04400000
 O      21.96300000      28.22800000      44.20600000
 H      21.36100000      28.81800000      43.68600000
 H      21.46100000      27.38800000      44.06800000
 O      37.50200000      24.22200000      42.69300000
 H      38.34900000      23.82800000      42.97400000
 H      37.42000000      23.91500000      41.80100000
 O      26.50100000      32.58000000      43.67500000
 H      27.18100000      31.89000000      43.86900000
 H      26.79000000      32.91100000      42.79700000
 O      26.39700000      24.30200000      45.01100000
 H      25.74000000      23.78800000      45.59400000
 H      26.10500000      25.19600000      45.26200000
 O      30.39100000      26.93300000      45.84600000
 H      29.94600000      26.21800000      46.34600000
 H      30.99400000      27.26500000      46.55900000
 O      22.74900000      26.27800000      47.12800000
 H      23.35700000      26.05900000      47.86200000
 H      22.92800000      25.52300000      46.53400000
 O      24.34800000      22.50100000      46.47200000
 H      24.50800000      22.16400000      47.38300000
 H      23.44200000      22.21600000      46.36400000
 O      28.53000000      23.58300000      43.47700000
 H      28.36200000      22.64400000      43.55600000
 H      27.81000000      23.98800000      43.99800000
 O      24.70300000      38.38700000      43.52800000
 H      25.15100000      38.43500000      42.64600000
 H      23.77200000      38.62400000      43.20800000
 O      27.95300000      29.75800000      44.66300000
 H      28.11300000      30.69400000      44.90700000
 H      27.14300000      29.59200000      45.21200000
 O      26.69600000      34.50200000      46.42400000
 H      26.85300000      33.83000000      45.75500000
 H      26.11200000      35.09900000      45.96400000
 O      18.88700000      23.97300000      45.30500000
 H      18.13900000      23.53800000      45.66500000
 H      18.75100000      23.98900000      44.36400000
 O      35.37700000      35.63700000      43.47100000
 H      35.31000000      35.02400000      42.70600000
 H      35.15400000      35.05800000      44.22100000
 O      33.28700000      23.63500000      43.69000000
 H      32.92200000      23.50300000      44.59900000
 H      33.80200000      22.77600000      43.60200000
 O      22.01700000      21.49100000      44.55900000
 H      21.62300000      20.63400000      44.32200000
 H      21.39200000      21.73400000      45.29900000
 O      19.95900000      32.01700000      45.07900000
 H      19.29300000      31.37100000      44.77200000
 H      19.47400000      32.44200000      45.84700000
 O      35.33000000      32.07600000      44.91300000
 H      36.23700000      32.19600000      45.33400000
 H      35.11300000      33.08800000      44.95900000
 O      33.61400000      27.92500000      45.71300000
 H      33.02600000      28.32000000      45.01700000
 H      34.46600000      27.89000000      45.28900000
 O      29.22900000      27.50600000      43.53400000
 H      28.88500000      28.36900000      43.79100000
 H      29.67500000      27.28100000      44.39500000
 O      25.16300000      35.86200000      44.45100000
 H      25.84300000      35.77300000      43.79800000
 H      24.96900000      36.83600000      44.23400000
 O      19.00100000      33.17700000      47.37100000
 H      18.08700000      33.01200000      47.59800000
 H      19.19500000      33.97400000      47.96700000
 O      38.04700000      22.45200000      45.84100000
 H      37.65400000      23.10500000      46.47300000
 H      38.77500000      22.16100000      46.43300000
 O      22.74500000      36.01800000      46.21800000
 H      22.64300000      35.02600000      46.29400000
 H      23.70900000      36.02900000      46.25100000
 O      21.93900000      38.07400000      42.58000000
 H      21.03900000      37.82500000      42.23100000
 H      22.49100000      37.81800000      41.79900000
 O      14.90900000      24.55800000      45.33300000
 H      14.04000000      24.13100000      45.39700000
 H      15.38500000      23.74000000      44.94400000
 O      33.02300000      36.94300000      43.15700000
 H      33.81700000      36.38400000      43.33800000
 H      33.02600000      36.88700000      42.19600000
 O      25.84300000      27.82800000      48.39600000
 H      25.50800000      28.47700000      49.02500000
 H      26.80600000      27.87500000      48.50100000
 O      36.03800000      26.44200000      48.67000000
 H      36.82100000      26.85100000      48.25100000
 H      35.61700000      26.13000000      47.84400000
 O      24.28500000      32.08700000      44.89700000
 H      24.62800000      31.18300000      45.19900000
 H      25.13700000      32.40800000      44.52900000
 O      31.66900000      36.97600000      46.75300000
 H      32.48600000      37.34800000      47.08100000
 H      31.51300000      36.20500000      47.26000000
 O      18.54700000      24.04000000      42.64200000
 H      19.29100000      24.10300000      41.95000000
 H      17.79300000      23.90500000      42.03300000
 O      39.22600000      38.67600000      44.28200000
 H      38.36300000      39.09500000      43.87600000
 H      39.72300000      39.49800000      44.48700000
 O      31.27800000      35.01900000      44.43600000
 H      31.64400000      35.65400000      43.81300000
 H      31.22800000      35.51300000      45.29300000
 O      36.78500000      25.11900000      45.58800000
 H      35.96400000      25.41600000      45.95000000
 H      36.62300000      25.07000000      44.66900000
 O      14.63100000      28.20200000      47.56500000
 H      14.80600000      27.79000000      46.71700000
 H      15.47700000      28.75800000      47.68100000
 O      31.00300000      31.15900000      45.81500000
 H      31.69700000      30.79300000      45.17900000
 H      30.65800000      30.38800000      46.16700000
 O      26.97500000      31.13300000      48.31700000
 H      27.70500000      30.52300000      48.51300000
 H      26.31000000      30.80000000      49.00900000
 O      16.75300000      30.89000000      45.32000000
 H      15.83000000      30.93900000      45.21500000
 H      16.81400000      30.67800000      46.25100000
 O      37.06000000      20.24300000      44.56600000
 H      36.24800000      20.55300000      44.04900000
 H      37.25400000      21.10800000      45.04600000
 O      37.77100000      33.53800000      47.56800000
 H      37.83600000      34.37300000      47.01700000
 H      38.32000000      32.95200000      46.99800000
 O      38.49800000      30.17900000      44.34800000
 H      38.29300000      30.42600000      43.42700000
 H      38.87600000      31.03300000      44.66800000
 O      36.77900000      36.29800000      47.06500000
 H      36.54900000      36.71100000      47.95100000
 H      36.52800000      37.10600000      46.48800000
 O      16.46100000      35.24400000      43.38400000
 H      17.32300000      35.67200000      43.36000000
 H      16.06200000      35.72400000      44.15500000
 O      24.82700000      25.17000000      48.73100000
 H      25.32000000      25.94800000      48.34600000
 H      25.55400000      24.54400000      48.88200000
 O      15.91500000      22.22800000      44.43500000
 H      16.32700000      21.85000000      43.63200000
 H      15.55500000      21.42100000      44.88100000
 O      20.28800000      36.79400000      45.88100000
 H      21.30500000      36.63200000      45.99100000
 H      19.94800000      35.95600000      46.21200000
 O      22.97500000      34.27000000      43.53000000
 H      23.34800000      35.05100000      43.94500000
 H      23.51100000      33.61000000      43.99100000
 O      34.45600000      25.54500000      46.58900000
 H      33.84700000      26.15700000      46.12900000
 H      34.05400000      24.67300000      46.41300000
