129
XYZ file of cluster: frame_2000_4dd04.9d72d.23958 - created by MolEdiTo
 O      15.21300000      28.00700000      13.03900000
 H      14.98000000      27.38100000      12.33000000
 H      15.75800000      27.49400000      13.64800000
 O      11.74900000      22.58500000      10.22600000
 H      12.61400000      22.14500000      10.23300000
 H      11.21000000      21.76100000      10.46500000
 O      19.73500000      24.42100000       5.53300000
 H      19.24300000      25.01100000       4.92400000
 H      20.36700000      25.06400000       5.78500000
 O      15.99300000      22.65100000      13.99100000
 H      16.87500000      22.98800000      13.93500000
 H      15.61000000      22.59900000      13.08800000
 O      19.44700000      21.65200000      15.60100000
 H      18.63000000      21.27000000      15.19300000
 H      19.99100000      20.85100000      15.62000000
 O      17.40400000      26.99800000      12.23900000
 H      18.21800000      26.92200000      11.74100000
 H      16.78100000      27.41400000      11.53500000
 O      16.22800000      30.24000000      15.03200000
 H      17.04100000      29.92200000      15.62900000
 H      16.35500000      29.76500000      14.17000000
 O      14.22400000      29.38600000      10.84700000
 H      13.52300000      30.05500000      10.90400000
 H      14.23700000      28.92200000      11.72800000
 O      21.53300000      28.12300000      12.55800000
 H      22.24000000      27.47900000      12.80400000
 H      21.02100000      27.58300000      11.88900000
 O      15.30800000      22.56600000      10.60600000
 H      15.75900000      21.85600000      10.07700000
 H      15.21100000      23.34800000      10.00400000
 O      10.69100000      23.69000000      12.39700000
 H      11.25300000      23.42800000      11.58300000
 H      10.97200000      24.64700000      12.37000000
 O      12.56100000      27.24700000      15.64600000
 H      11.68200000      27.57800000      15.34100000
 H      12.42900000      26.29500000      15.90000000
 O      16.11200000      25.81100000       5.57500000
 H      15.73100000      25.69700000       6.45800000
 H      15.39600000      26.04600000       4.91400000
 O      13.01300000      22.58100000      13.42100000
 H      12.67300000      23.53100000      13.52300000
 H      13.89500000      22.50100000      13.78800000
 O      17.23700000      29.57500000       7.98100000
 H      17.59600000      29.22200000       7.16400000
 H      18.03100000      30.11100000       8.36500000
 O      12.71200000      22.39800000       6.84600000
 H      12.83000000      23.28400000       7.25400000
 H      12.25800000      22.67300000       6.00500000
 O      13.39500000      26.65600000       6.71900000
 H      12.85100000      27.37700000       7.12800000
 H      13.10900000      25.92600000       7.23800000
 O      16.24500000      23.52600000       7.55000000
 H      16.95700000      22.88100000       7.83400000
 H      16.28200000      23.58200000       6.53700000
 O      13.55500000      20.34000000      11.53900000
 H      14.32900000      20.85800000      11.17400000
 H      13.02800000      21.02600000      11.93200000
 O      20.27900000      27.93500000      15.41800000
 H      20.89100000      28.03600000      14.64300000
 H      19.72300000      28.72000000      15.44700000
 O      12.66700000      26.25000000      12.76400000
 H      12.97100000      26.76900000      13.57700000
 H      12.07200000      26.84700000      12.27500000
 O      20.57500000      29.25200000       6.74200000
 H      20.27600000      29.77100000       7.60100000
 H      19.92600000      28.86000000       6.18700000
 O      14.06200000      30.11600000       5.11900000
 H      15.01100000      30.15000000       5.14400000
 H      13.77400000      30.09100000       6.02700000
 O      11.22900000      28.24500000      10.72900000
 H      10.41200000      28.71300000      10.87700000
 H      11.64900000      28.83300000      10.11900000
 O      16.31100000      27.89800000      10.10600000
 H      15.57500000      28.49600000      10.37100000
 H      16.84800000      28.52700000       9.69000000
 O      18.44000000      21.38900000      12.62200000
 H      18.24400000      22.36200000      12.49300000
 H      18.68200000      21.19000000      11.69600000
 O      14.05600000      29.17500000       7.75200000
 H      14.85300000      29.77500000       7.93700000
 H      14.26300000      28.39400000       8.28500000
 O      20.43000000      23.21100000       7.79600000
 H      21.05700000      22.71300000       7.28800000
 H      19.91400000      23.65900000       7.03000000
 O      17.31800000      24.44800000      14.04300000
 H      17.88500000      24.59400000      14.83600000
 H      17.55600000      25.02500000      13.25100000
 O      15.85700000      26.41600000      15.22600000
 H      16.75700000      26.48200000      15.72700000
 H      15.76500000      25.50700000      14.89900000
 O      18.86000000      26.17900000       7.66300000
 H      18.47100000      27.09900000       7.59800000
 H      18.06400000      25.71400000       7.88900000
 O      11.03300000      29.38700000      14.34900000
 H      11.98100000      29.55200000      14.21800000
 H      10.88600000      29.39900000      15.29700000
 O      21.58200000      23.46100000      15.71300000
 H      21.20000000      24.43200000      15.57200000
 H      20.74400000      22.95300000      15.62300000
 O      13.48200000      29.95500000      15.42800000
 H      13.34600000      28.95900000      15.45700000
 H      14.46600000      30.08400000      15.22500000
 O      10.05000000      21.23800000       6.46100000
 H      10.16800000      20.50500000       5.84900000
 H      10.94300000      21.60100000       6.74800000
 O      15.47100000      25.03500000       9.18400000
 H      15.70400000      25.98500000       9.15800000
 H      16.05200000      24.67000000       8.52900000
 O      17.20600000      27.39100000       5.59400000
 H      16.51000000      26.65800000       5.64700000
 H      17.41900000      27.34100000       4.60400000
 O      12.83200000      24.63300000       8.53000000
 H      13.76100000      24.62800000       8.91400000
 H      12.31400000      24.06000000       9.07300000
 O      18.55000000      20.77900000       8.51600000
 H      19.10600000      20.25400000       9.13300000
 H      19.17600000      21.57300000       8.36100000
 O      17.46800000      28.46500000      14.94300000
 H      17.61200000      27.94000000      14.09900000
 H      17.54000000      27.84300000      15.71000000
 O      18.43400000      23.61800000       9.93500000
 H      19.15200000      23.88300000       9.34000000
 H      18.00800000      22.83500000       9.57400000
 O      19.93000000      26.45400000      10.80800000
 H      20.37200000      25.61200000      10.67700000
 H      19.71100000      26.66900000       9.81600000
 O      10.70100000      20.61400000      13.12400000
 H      10.75400000      20.61000000      14.12400000
 H      10.83300000      21.60900000      13.00100000
