114
XYZ file of cluster: frame_2000_1fa2f.9e5fa.9d9d9 - created by MolEdiTo
 O       7.21200000      21.07800000      25.95800000
 H       6.33200000      20.70900000      25.83600000
 H       7.14000000      21.29300000      26.90400000
 O      13.17000000      22.42000000      28.88900000
 H      14.04300000      22.19400000      28.52300000
 H      12.65600000      21.65300000      28.68800000
 O       7.04000000      21.19200000      28.85800000
 H       7.95300000      20.87900000      29.10800000
 H       6.55700000      20.89200000      29.65300000
 O       9.95300000      22.59100000      28.04400000
 H       9.97900000      21.88300000      28.78600000
 H      10.15000000      23.41300000      28.37600000
 O      16.13400000      25.80300000      20.98600000
 H      16.79200000      26.37400000      21.47200000
 H      15.66100000      26.41000000      20.39300000
 O      12.88900000      26.74300000      23.10000000
 H      13.05300000      27.40800000      22.44100000
 H      12.14400000      26.18800000      22.72800000
 O      16.06600000      21.04700000      23.01600000
 H      15.13900000      20.96700000      23.24800000
 H      16.16500000      20.37300000      22.29000000
 O      12.48800000      27.97400000      26.53800000
 H      13.11200000      27.33900000      26.03800000
 H      12.14800000      27.32100000      27.16600000
 O      10.18200000      29.69200000      28.68200000
 H      11.05600000      29.37500000      28.90700000
 H       9.91600000      29.36200000      27.75900000
 O      12.64400000      23.32800000      26.04100000
 H      13.03800000      22.50300000      25.77100000
 H      13.18500000      23.38400000      26.86500000
 O       4.84100000      23.82200000      24.10100000
 H       4.08600000      23.15000000      24.03900000
 H       5.46200000      23.56600000      23.37400000
 O      10.24900000      22.37000000      24.19400000
 H      11.09200000      22.17400000      24.61200000
 H       9.60400000      22.54200000      24.86700000
 O       9.87200000      24.64700000      30.46000000
 H       9.89600000      25.16200000      31.35500000
 H       9.34500000      25.25800000      30.11500000
 O       5.52700000      29.57700000      24.28300000
 H       5.08500000      30.23300000      23.69700000
 H       5.96200000      30.03700000      25.03000000
 O       5.60200000      27.97600000      27.80600000
 H       5.73500000      27.13100000      27.33700000
 H       5.28100000      28.49000000      26.95400000
 O      16.11000000      28.64700000      29.36800000
 H      16.78900000      28.13600000      28.87700000
 H      15.58000000      28.03400000      29.88400000
 O       5.89600000      25.67300000      25.75100000
 H       5.60800000      25.15000000      24.99100000
 H       5.37300000      25.29300000      26.50000000
 O      10.37000000      29.43800000      25.50900000
 H      11.11400000      28.89000000      25.86700000
 H       9.75000000      28.82400000      25.07400000
 O      14.85400000      21.84300000      26.85400000
 H      15.16000000      20.94700000      26.55700000
 H      15.60200000      22.38600000      26.56000000
 O       6.83700000      24.10600000      28.71800000
 H       6.27900000      23.39900000      28.27700000
 H       7.47500000      23.50800000      29.22300000
 O      14.55700000      29.75900000      24.93800000
 H      14.47100000      30.43300000      25.55700000
 H      13.61100000      29.74100000      24.53200000
 O       8.32700000      27.09300000      25.97200000
 H       8.83700000      26.18800000      26.11600000
 H       7.66500000      26.86200000      25.17900000
 O      12.55000000      26.42700000      29.08100000
 H      12.04700000      25.70500000      29.44200000
 H      13.24900000      26.43900000      29.71100000
 O       9.93000000      21.34700000      30.28200000
 H      10.71400000      20.92100000      30.79900000
 H       9.91600000      22.29000000      30.66200000
 O       7.39300000      22.85300000      21.63200000
 H       7.78800000      23.65000000      22.06800000
 H       7.19400000      22.25700000      22.36600000
 O      13.93800000      25.58600000      25.36900000
 H      13.35300000      24.74700000      25.26400000
 H      13.86400000      26.03300000      24.39800000
 O       8.03200000      28.16000000      22.55300000
 H       8.53200000      29.01900000      22.25700000
 H       7.42500000      28.45000000      23.23900000
 O      11.97300000      30.56000000      23.26600000
 H      11.65800000      29.87000000      22.69900000
 H      11.27100000      30.60800000      24.04900000
 O      11.66500000      21.13500000      21.31200000
 H      10.86900000      20.57200000      21.08200000
 H      12.14700000      21.14800000      20.47600000
 O       7.54700000      30.23600000      26.29500000
 H       8.07000000      29.42600000      26.47100000
 H       8.08800000      30.91800000      26.73500000
 O      12.85800000      20.89900000      24.16400000
 H      12.14800000      20.57100000      24.72900000
 H      12.44600000      20.93900000      23.26500000
 O      10.45200000      20.62500000      26.25800000
 H       9.75400000      20.58400000      25.58300000
 H      10.37600000      21.43500000      26.80400000
 O      11.18700000      24.64000000      22.87600000
 H      11.65000000      24.72100000      23.76200000
 H      10.58200000      23.91600000      22.96700000
 O       5.32200000      26.67300000      21.47700000
 H       6.15400000      26.89600000      20.93400000
 H       5.18200000      27.49300000      22.06200000
 O      14.13800000      23.81800000      21.68700000
 H      14.57800000      24.70800000      21.59500000
 H      13.45100000      23.89400000      22.38400000
 O       8.04000000      26.89100000      29.16800000
 H       7.78600000      27.70400000      28.69000000
 H       7.39000000      26.21200000      28.85700000
 O      15.29400000      25.67200000      27.62900000
 H      14.52400000      26.03700000      28.06700000
 H      14.99000000      25.57900000      26.69000000
 O       7.54900000      25.24700000      23.30700000
 H       8.03900000      26.09900000      23.30800000
 H       6.62500000      25.50900000      23.17100000
