147
XYZ file of cluster: frame_2000_49ff1.9b795.7691b - created by MolEdiTo
 O      20.41100000      24.11700000      22.12700000
 H      20.43700000      25.05700000      22.30400000
 H      21.40500000      23.86400000      22.08600000
 O      15.75600000      28.68700000      19.58200000
 H      15.64200000      29.29200000      20.37900000
 H      16.25500000      29.24600000      18.98600000
 O      13.06400000      28.34800000      20.86900000
 H      13.61600000      29.04600000      20.36000000
 H      12.66800000      27.87200000      20.09900000
 O      16.13400000      25.80300000      20.98600000
 H      16.79200000      26.37400000      21.47200000
 H      15.66100000      26.41000000      20.39300000
 O      13.22500000      21.55300000      16.46800000
 H      13.27800000      20.67600000      15.98200000
 H      12.31800000      21.83500000      16.27100000
 O      17.51300000      27.44700000      16.55500000
 H      16.79300000      27.49700000      17.21400000
 H      18.25000000      27.96900000      16.97200000
 O      16.06600000      21.04700000      23.01600000
 H      15.13900000      20.96700000      23.24800000
 H      16.16500000      20.37300000      22.29000000
 O      12.48800000      27.97400000      26.53800000
 H      13.11200000      27.33900000      26.03800000
 H      12.14800000      27.32100000      27.16600000
 O      17.55300000      22.57700000      18.68300000
 H      18.29700000      23.13300000      18.52200000
 H      17.44200000      22.60400000      19.59600000
 O      16.73700000      23.14400000      24.87100000
 H      16.63800000      22.49000000      24.12400000
 H      17.22500000      23.80500000      24.32800000
 O      12.88900000      26.74300000      23.10000000
 H      13.05300000      27.40800000      22.44100000
 H      12.14400000      26.18800000      22.72800000
 O      14.14200000      28.19500000      17.80600000
 H      13.16500000      28.24500000      17.93700000
 H      14.19400000      27.97000000      16.82400000
 O      20.80000000      26.94600000      22.05200000
 H      21.70700000      27.33200000      22.09500000
 H      20.59300000      26.90400000      23.00100000
 O      12.64400000      23.32800000      26.04100000
 H      13.03800000      22.50300000      25.77100000
 H      13.18500000      23.38400000      26.86500000
 O      19.92500000      24.95900000      18.63300000
 H      19.96300000      25.91700000      18.45100000
 H      20.92500000      24.69400000      18.60200000
 O      20.83800000      21.92200000      20.22600000
 H      20.56400000      21.53000000      21.12700000
 H      20.57500000      22.80300000      20.31500000
 O      15.93200000      21.98300000      19.04000000
 H      15.32800000      22.76600000      18.95800000
 H      16.72400000      22.33700000      18.63300000
 O      17.98700000      29.70200000      25.57600000
 H      17.13600000      29.17000000      25.68300000
 H      18.35900000      29.58800000      26.45600000
 O      10.24900000      22.37000000      24.19400000
 H      11.09200000      22.17400000      24.61200000
 H       9.60400000      22.54200000      24.86700000
 O      16.50100000      28.08500000      21.76000000
 H      16.93400000      27.87700000      20.91500000
 H      17.14200000      28.80800000      22.08600000
 O      13.10800000      24.02100000      18.23400000
 H      12.92200000      24.55000000      17.37000000
 H      13.77000000      24.62100000      18.54900000
 O      12.56100000      27.24700000      15.64600000
 H      11.68200000      27.57800000      15.34100000
 H      12.42900000      26.29500000      15.90000000
 O      19.27800000      25.61000000      16.29100000
 H      18.73300000      25.98400000      17.05500000
 H      19.78700000      26.37600000      15.94700000
 O      15.26100000      23.73400000      16.96700000
 H      15.82300000      23.52300000      16.21200000
 H      14.54000000      23.03200000      16.84400000
 O      16.76200000      28.49500000      25.87900000
 H      15.97600000      28.96400000      25.55900000
 H      16.63300000      28.38000000      26.79400000
 O      12.91800000      20.95500000      18.30300000
 H      12.62600000      21.38800000      17.48300000
 H      13.86400000      21.29100000      18.34700000
 O      10.37000000      29.43800000      25.50900000
 H      11.11400000      28.89000000      25.86700000
 H       9.75000000      28.82400000      25.07400000
 O      14.55700000      29.75900000      24.93800000
 H      14.47100000      30.43300000      25.55700000
 H      13.61100000      29.74100000      24.53200000
 O      11.70400000      26.40100000      17.36400000
 H      11.14700000      26.22300000      16.60500000
 H      11.17700000      26.04600000      18.06200000
 O      17.35700000      23.45700000      21.35100000
 H      16.59100000      24.04600000      21.29300000
 H      17.07700000      22.54800000      21.45100000
 O      17.04300000      20.29900000      26.08200000
 H      16.39700000      20.00000000      25.45300000
 H      16.90800000      21.29000000      26.16100000
 O      15.36300000      25.79500000      17.99200000
 H      15.11100000      26.76500000      17.73000000
 H      15.27700000      25.27300000      17.14200000
 O      13.93800000      25.58600000      25.36900000
 H      13.35300000      24.74700000      25.26400000
 H      13.86400000      26.03300000      24.39800000
 O      10.11000000      23.35100000      17.41400000
 H      10.97400000      23.28300000      17.75400000
 H       9.55700000      23.29700000      18.25400000
 O      11.24300000      24.74500000      16.08900000
 H      11.08700000      24.07100000      16.78100000
 H      10.38600000      25.17900000      15.81300000
 O      11.97300000      30.56000000      23.26600000
 H      11.65800000      29.87000000      22.69900000
 H      11.27100000      30.60800000      24.04900000
 O      17.94600000      26.81700000      19.89300000
 H      17.57100000      25.94300000      19.88900000
 H      18.76200000      26.73700000      20.40500000
 O      11.66500000      21.13500000      21.31200000
 H      10.86900000      20.57200000      21.08200000
 H      12.14700000      21.14800000      20.47600000
 O      18.28900000      29.92000000      22.57100000
 H      18.15200000      29.84900000      23.52600000
 H      19.22600000      30.15000000      22.40300000
 O      12.85800000      20.89900000      24.16400000
 H      12.14800000      20.57100000      24.72900000
 H      12.44600000      20.93900000      23.26500000
 O      16.83800000      25.21500000      23.43200000
 H      16.54900000      26.13900000      23.53600000
 H      16.50900000      24.86500000      22.55000000
 O      18.98700000      29.44500000      17.81600000
 H      19.27100000      28.87300000      18.60700000
 H      19.88200000      29.64100000      17.48200000
 O      11.18700000      24.64000000      22.87600000
 H      11.65000000      24.72100000      23.76200000
 H      10.58200000      23.91600000      22.96700000
 O      19.03200000      23.85000000      24.76400000
 H      19.62800000      23.68500000      24.01600000
 H      18.30600000      24.33700000      24.35100000
 O      14.13800000      23.81800000      21.68700000
 H      14.57800000      24.70800000      21.59500000
 H      13.45100000      23.89400000      22.38400000
 O      20.63400000      28.37400000      19.74200000
 H      20.62100000      28.03700000      20.65300000
 H      21.62800000      28.50700000      19.65500000
 O      21.52800000      30.26000000      17.48400000
 H      22.36600000      30.50300000      17.05500000
 H      21.01700000      31.07300000      17.32900000
 O      10.58700000      25.56600000      19.75400000
 H      11.52900000      25.26400000      20.04000000
 H      10.11400000      24.71000000      19.82000000
 O      20.66900000      26.07100000      25.07100000
 H      20.41700000      26.72500000      25.79500000
 H      20.00800000      25.39200000      25.31700000
