129
XYZ file of cluster: frame_2000_7093f.9dfa2.4bddf - created by MolEdiTo
 O      15.75600000      28.68700000      19.58200000
 H      15.64200000      29.29200000      20.37900000
 H      16.25500000      29.24600000      18.98600000
 O      16.13400000      25.80300000      20.98600000
 H      16.79200000      26.37400000      21.47200000
 H      15.66100000      26.41000000      20.39300000
 O      17.51300000      27.44700000      16.55500000
 H      16.79300000      27.49700000      17.21400000
 H      18.25000000      27.96900000      16.97200000
 O      24.14000000      30.37400000      16.12900000
 H      23.77800000      30.31600000      15.23400000
 H      24.78300000      31.17700000      16.02200000
 O      17.55300000      22.57700000      18.68300000
 H      18.29700000      23.13300000      18.52200000
 H      17.44200000      22.60400000      19.59600000
 O      24.13800000      23.88700000      14.44200000
 H      23.14800000      23.76900000      14.52500000
 H      24.25000000      24.47300000      13.67400000
 O      15.99300000      22.65100000      13.99100000
 H      16.87500000      22.98800000      13.93500000
 H      15.61000000      22.59900000      13.08800000
 O      19.44700000      21.65200000      15.60100000
 H      18.63000000      21.27000000      15.19300000
 H      19.99100000      20.85100000      15.62000000
 O      17.40400000      26.99800000      12.23900000
 H      18.21800000      26.92200000      11.74100000
 H      16.78100000      27.41400000      11.53500000
 O      22.92400000      24.54000000      17.96200000
 H      22.54600000      24.13200000      17.09200000
 H      23.01200000      25.46600000      17.77900000
 O      19.92500000      24.95900000      18.63300000
 H      19.96300000      25.91700000      18.45100000
 H      20.92500000      24.69400000      18.60200000
 O      20.83800000      21.92200000      20.22600000
 H      20.56400000      21.53000000      21.12700000
 H      20.57500000      22.80300000      20.31500000
 O      16.22800000      30.24000000      15.03200000
 H      17.04100000      29.92200000      15.62900000
 H      16.35500000      29.76500000      14.17000000
 O      15.93200000      21.98300000      19.04000000
 H      15.32800000      22.76600000      18.95800000
 H      16.72400000      22.33700000      18.63300000
 O      24.51200000      20.61600000      12.39000000
 H      24.40000000      21.63900000      12.38100000
 H      24.87400000      20.32200000      13.21900000
 O      21.53300000      28.12300000      12.55800000
 H      22.24000000      27.47900000      12.80400000
 H      21.02100000      27.58300000      11.88900000
 O      16.50100000      28.08500000      21.76000000
 H      16.93400000      27.87700000      20.91500000
 H      17.14200000      28.80800000      22.08600000
 O      19.27800000      25.61000000      16.29100000
 H      18.73300000      25.98400000      17.05500000
 H      19.78700000      26.37600000      15.94700000
 O      15.26100000      23.73400000      16.96700000
 H      15.82300000      23.52300000      16.21200000
 H      14.54000000      23.03200000      16.84400000
 O      22.69600000      30.18800000      13.92000000
 H      22.32700000      29.67800000      13.15300000
 H      22.08800000      30.96500000      14.11500000
 O      20.27900000      27.93500000      15.41800000
 H      20.89100000      28.03600000      14.64300000
 H      19.72300000      28.72000000      15.44700000
 O      26.46600000      23.46600000      16.49200000
 H      26.65500000      23.35300000      15.52100000
 H      25.86100000      24.22700000      16.41800000
 O      25.25800000      26.29700000      16.45000000
 H      24.43400000      26.92100000      16.46100000
 H      25.53100000      26.27600000      17.37000000
 O      24.91700000      28.71200000      17.46800000
 H      25.05500000      28.91600000      16.49600000
 H      25.48800000      29.36000000      17.94200000
 O      24.49400000      23.46500000      10.68700000
 H      23.59300000      23.14600000      10.55700000
 H      25.06900000      22.98200000      10.13900000
 O      22.03600000      27.16600000      16.62500000
 H      22.32800000      27.37400000      17.60500000
 H      21.74600000      28.05600000      16.21900000
 O      25.08300000      21.13600000      15.26700000
 H      25.09000000      22.05800000      15.56400000
 H      25.97200000      21.17100000      14.87100000
 O      23.40100000      27.62600000      19.36400000
 H      23.91600000      28.06000000      18.56600000
 H      24.19700000      27.22200000      19.85200000
 O      18.44000000      21.38900000      12.62200000
 H      18.24400000      22.36200000      12.49300000
 H      18.68200000      21.19000000      11.69600000
 O      17.31800000      24.44800000      14.04300000
 H      17.88500000      24.59400000      14.83600000
 H      17.55600000      25.02500000      13.25100000
 O      15.85700000      26.41600000      15.22600000
 H      16.75700000      26.48200000      15.72700000
 H      15.76500000      25.50700000      14.89900000
 O      23.21900000      30.65200000      19.28800000
 H      22.82600000      30.06800000      18.54100000
 H      23.64100000      31.40600000      18.80800000
 O      17.94600000      26.81700000      19.89300000
 H      17.57100000      25.94300000      19.88900000
 H      18.76200000      26.73700000      20.40500000
 O      21.58200000      23.46100000      15.71300000
 H      21.20000000      24.43200000      15.57200000
 H      20.74400000      22.95300000      15.62300000
 O      18.98700000      29.44500000      17.81600000
 H      19.27100000      28.87300000      18.60700000
 H      19.88200000      29.64100000      17.48200000
 O      25.10800000      22.50100000      17.69700000
 H      25.90600000      22.83700000      17.28800000
 H      24.38500000      23.13700000      17.61400000
 O      23.90900000      25.62800000      12.34400000
 H      23.96300000      25.01700000      11.61000000
 H      24.86000000      25.96400000      12.34600000
 O      20.63400000      28.37400000      19.74200000
 H      20.62100000      28.03700000      20.65300000
 H      21.62800000      28.50700000      19.65500000
 O      25.82900000      28.04100000      13.81500000
 H      26.09600000      28.65200000      14.47600000
 H      24.90400000      27.64300000      14.06400000
 O      17.46800000      28.46500000      14.94300000
 H      17.61200000      27.94000000      14.09900000
 H      17.54000000      27.84300000      15.71000000
 O      21.52800000      30.26000000      17.48400000
 H      22.36600000      30.50300000      17.05500000
 H      21.01700000      31.07300000      17.32900000
 O      19.93000000      26.45400000      10.80800000
 H      20.37200000      25.61200000      10.67700000
 H      19.71100000      26.66900000       9.81600000
 O      22.89700000      20.77900000      18.43900000
 H      22.14800000      21.32400000      18.83000000
 H      23.52500000      21.49400000      18.09000000
