114
XYZ file of cluster: frame_2000_98fc9.4be30.9d760 - created by MolEdiTo
 O      29.63200000      16.14100000      22.45500000
 H      29.11300000      15.36300000      22.23800000
 H      28.91700000      16.85700000      22.72200000
 O      20.91300000      13.13400000      25.74800000
 H      21.74200000      12.96100000      25.39700000
 H      20.75300000      13.88000000      25.10300000
 O      24.71400000      17.25400000      28.61400000
 H      25.18700000      17.73300000      29.32100000
 H      24.25300000      17.96100000      28.18300000
 O      26.45100000      16.39600000      21.21100000
 H      26.85800000      17.03500000      21.81400000
 H      25.58300000      16.89200000      21.03900000
 O      21.38900000      16.03600000      24.62500000
 H      21.95000000      15.64900000      23.89200000
 H      21.17100000      16.98100000      24.38200000
 O      20.62800000       9.84000000      25.52500000
 H      19.75900000      10.14000000      25.21100000
 H      21.17900000      10.51400000      25.23400000
 O      22.78100000      11.95300000      20.82500000
 H      22.65800000      12.81700000      21.26300000
 H      22.19800000      11.38800000      21.40900000
 O      29.86800000      18.39200000      24.83800000
 H      29.89100000      18.05500000      25.76500000
 H      30.51600000      17.76900000      24.38200000
 O      29.84800000      14.23100000      27.90100000
 H      30.15100000      15.09800000      27.60300000
 H      30.45500000      14.02800000      28.65800000
 O      24.56900000      19.88500000      29.14700000
 H      24.26000000      19.20200000      29.76200000
 H      24.09100000      19.68800000      28.33900000
 O      22.90500000      18.16000000      27.27500000
 H      21.97300000      18.04900000      27.39300000
 H      23.04200000      18.82100000      26.54800000
 O      21.76500000      17.26400000      22.72900000
 H      22.31500000      17.53000000      21.98500000
 H      21.08500000      17.90900000      22.80800000
 O      27.17100000      15.01500000      29.59000000
 H      27.92400000      14.55400000      30.03100000
 H      26.38000000      14.41700000      29.50600000
 O      25.32600000      13.20500000      27.04400000
 H      24.85800000      14.05100000      26.90000000
 H      25.62100000      13.20400000      27.99200000
 O      25.89200000      12.34700000      29.50500000
 H      25.04800000      11.87900000      29.45600000
 H      26.10100000      12.11600000      30.43500000
 O      27.98100000      10.17300000      27.80900000
 H      27.34300000      10.17900000      28.58600000
 H      28.78100000      10.55200000      28.15500000
 O      24.02800000      20.66500000      26.02100000
 H      24.47500000      20.72400000      25.13200000
 H      23.51300000      21.55100000      26.04200000
 O      25.36100000      21.65000000      22.12800000
 H      25.14600000      22.42100000      22.63900000
 H      25.12300000      20.87000000      22.69100000
 O      28.35800000      13.25000000      25.70100000
 H      28.63900000      13.68700000      26.53000000
 H      27.36800000      13.24300000      25.70900000
 O      23.85500000      11.13800000      25.82000000
 H      24.37900000      11.77000000      26.37400000
 H      24.25700000      10.24400000      25.75200000
 O      25.44600000      15.05200000      24.12200000
 H      25.18900000      14.23100000      23.81800000
 H      25.15800000      14.92700000      25.08700000
 O      21.02300000      13.67700000      22.51300000
 H      20.23800000      13.41400000      23.11500000
 H      20.54000000      13.81200000      21.67300000
 O      23.27500000      11.29600000      29.74800000
 H      22.82900000      10.69800000      29.03700000
 H      22.77200000      11.05800000      30.55800000
 O      23.81400000      19.61700000      23.32400000
 H      24.05100000      18.66100000      23.25700000
 H      23.16200000      19.61300000      22.68200000
 O      24.77400000      18.06500000      24.46500000
 H      24.27100000      17.87600000      25.27600000
 H      24.92800000      17.11400000      24.07600000
 O      23.85600000      15.44400000      26.63600000
 H      23.07600000      15.89000000      26.25900000
 H      24.18200000      16.01500000      27.43600000
 O      27.49300000      17.92700000      23.14600000
 H      26.49900000      18.03500000      23.15700000
 H      27.84200000      18.57200000      23.78700000
 O      28.92300000      11.36900000      22.56700000
 H      28.62800000      12.31500000      22.36200000
 H      28.49600000      11.08100000      23.40600000
 O      26.76000000      10.59700000      25.22100000
 H      27.31100000      10.99000000      25.98100000
 H      26.43300000       9.76200000      25.42100000
 O      25.04100000      12.05700000      23.44800000
 H      24.62900000      11.90600000      24.39100000
 H      25.98600000      11.86600000      23.59500000
 O      20.44400000      19.99900000      23.11600000
 H      21.05500000      20.66600000      23.44800000
 H      20.33400000      19.44700000      23.94100000
 O      26.19400000      19.43900000      20.78000000
 H      27.09100000      19.70500000      20.37300000
 H      25.69300000      20.22000000      21.07900000
 O      29.81100000      17.47200000      29.39600000
 H      28.89800000      17.03400000      29.41800000
 H      29.66100000      18.40200000      29.15900000
 O      28.01700000      13.73200000      21.62000000
 H      28.27900000      13.59900000      20.73400000
 H      27.14200000      14.18600000      21.58200000
 O      29.85300000      10.75100000      25.52400000
 H      29.77300000      11.67100000      25.21700000
 H      29.01400000      10.59800000      25.99600000
 O      30.33100000      11.31800000      29.03000000
 H      30.20800000      12.22000000      28.44900000
 H      31.32600000      11.18600000      28.80400000
 O      29.33800000      21.39900000      23.10100000
 H      28.78200000      21.28000000      22.27300000
 H      29.90100000      20.53400000      23.13600000
 O      28.80300000      19.22700000      28.74200000
 H      28.31800000      20.02300000      28.78800000
 H      29.72900000      19.59300000      28.70200000
