105
XYZ file of cluster: frame_11500_a3045.73b02.4100 - created by MolEdiTo
 O      24.37100000      21.10700000       8.84400000
 H      23.90200000      20.34000000       8.38500000
 H      24.57800000      20.66400000       9.71000000
 O      30.08500000      21.06300000       8.78900000
 H      30.95900000      21.09600000       8.38500000
 H      30.36300000      20.88200000       9.72700000
 O      25.32800000      24.93200000       3.25700000
 H      24.68900000      25.55000000       2.69600000
 H      24.99000000      24.01200000       3.09300000
 O      30.28700000      22.36300000       1.39500000
 H      30.32200000      22.77300000       0.52500000
 H      31.03500000      21.74200000       1.39800000
 O      21.51400000      22.29500000       3.98500000
 H      21.19600000      21.36400000       4.22900000
 H      22.40500000      22.18000000       3.59100000
 O      28.58100000      18.83700000       7.78500000
 H      28.98400000      19.71700000       7.97100000
 H      27.83800000      18.95200000       8.38100000
 O      22.51800000      26.38000000      11.27100000
 H      23.00900000      27.16000000      11.00600000
 H      22.23000000      25.86800000      10.47600000
 O      28.51700000      17.61000000       5.29600000
 H      29.44200000      17.55700000       4.98000000
 H      28.63700000      17.94500000       6.29500000
 O      27.48600000      22.38500000       7.24100000
 H      26.83900000      22.05000000       7.91700000
 H      28.26700000      22.57200000       7.83300000
 O      23.81500000      18.39400000       7.79400000
 H      24.58600000      18.32300000       7.20000000
 H      23.08000000      18.82900000       7.24300000
 O      26.69800000      19.03000000       9.60600000
 H      26.13000000      18.17300000       9.61500000
 H      26.17700000      19.70500000      10.09000000
 O      22.31500000      23.08300000       9.83900000
 H      22.30900000      23.26800000      10.78100000
 H      22.89000000      22.27200000       9.74000000
 O      22.20100000      25.02800000       3.50100000
 H      21.83900000      24.17500000       3.35500000
 H      22.12900000      25.12000000       4.43700000
 O      26.59900000      22.27000000       4.53500000
 H      27.53800000      22.02600000       4.51400000
 H      26.61600000      22.54400000       5.48300000
 O      25.38300000      19.00600000       3.07200000
 H      24.96300000      18.21800000       2.64000000
 H      25.32900000      18.72900000       3.96500000
 O      30.52800000      20.54100000       5.33800000
 H      30.73400000      20.36700000       4.39300000
 H      29.74700000      21.11500000       5.09200000
 O      26.54400000      15.41100000       8.07300000
 H      25.94300000      15.24500000       8.82100000
 H      26.27300000      16.22300000       7.47600000
 O      23.31000000      24.87800000       6.02600000
 H      23.20000000      25.80500000       6.15900000
 H      23.94400000      24.92400000       5.23200000
 O      23.44200000      17.80300000      10.37700000
 H      24.24500000      17.21400000      10.61100000
 H      23.49600000      18.10600000       9.45600000
 O      27.10500000      27.30200000       4.56100000
 H      26.98400000      26.48500000       5.13200000
 H      26.51500000      27.21400000       3.79800000
 O      24.47300000      22.01000000       3.13500000
 H      24.67800000      21.37900000       2.37600000
 H      25.28800000      22.18200000       3.67300000
 O      28.06000000      18.54500000       1.93100000
 H      27.57000000      18.33000000       1.18600000
 H      27.40500000      18.84100000       2.57400000
 O      28.02500000      25.22600000       6.61800000
 H      28.71300000      25.98200000       6.64100000
 H      28.51700000      24.37100000       6.38100000
 O      27.09100000      25.17000000      10.87900000
 H      26.68300000      25.37200000      10.00100000
 H      27.94900000      24.95700000      10.57600000
 O      29.33400000      23.74100000       9.61200000
 H      30.07700000      24.33700000       9.24300000
 H      29.57200000      22.87100000       9.41000000
 O      30.14600000      16.79300000       9.08100000
 H      29.61000000      17.48900000       8.74100000
 H      29.98500000      16.77500000      10.01000000
 O      22.22500000      21.12000000       6.94400000
 H      22.59700000      21.40500000       6.09700000
 H      22.82000000      21.62500000       7.55400000
 O      28.18000000      15.47900000       2.12700000
 H      28.41300000      16.38800000       2.22200000
 H      28.90500000      15.08100000       1.59600000
 O      24.85900000      23.72100000       8.26200000
 H      24.87800000      22.87600000       8.77700000
 H      23.83400000      24.00200000       8.30400000
 O      28.32600000      25.29800000       2.43800000
 H      27.44500000      25.56900000       2.72700000
 H      28.42600000      24.47000000       2.91200000
 O      29.48500000      23.01500000       4.17200000
 H      29.58000000      22.73200000       3.21100000
 H      30.08900000      23.78200000       4.17500000
 O      26.22200000      26.46700000       8.10400000
 H      25.43300000      25.91100000       8.01400000
 H      26.82100000      25.94100000       7.49700000
 O      25.69900000      17.36500000       6.20000000
 H      26.63300000      17.16000000       6.05500000
 H      25.22900000      16.55800000       5.84900000
 O      22.20200000      26.90300000       1.31400000
 H      23.03100000      27.35300000       1.60100000
 H      22.27800000      26.11300000       1.86600000
 O      22.85500000      17.64900000       3.76200000
 H      22.53500000      16.76100000       3.62600000
 H      23.06100000      17.62600000       4.71900000
