129
XYZ file of cluster: frame_11500_77161.0.1e80d - created by MolEdiTo
 O      16.54300000       0.85800000      13.54300000
 H      16.33100000       1.34600000      14.31300000
 H      16.77600000       0.00000000      13.85000000
 O      24.45500000       9.21000000       6.10600000
 H      24.94900000       8.45300000       6.37400000
 H      25.20100000       9.62700000       5.50000000
 O      22.99500000       6.09600000       8.78700000
 H      23.63100000       6.01200000       8.03200000
 H      22.78900000       5.12600000       8.95600000
 O      21.67400000      10.10100000       6.08000000
 H      21.43700000      10.37400000       7.00300000
 H      22.66700000       9.74900000       6.10500000
 O      18.72100000       2.48600000      15.46200000
 H      18.86600000       1.84400000      16.20100000
 H      19.33300000       2.20100000      14.80500000
 O      23.95500000       6.47500000      11.39700000
 H      24.00400000       7.44200000      11.41800000
 H      23.49700000       6.30000000      10.50600000
 O      16.57000000      11.00200000       9.50500000
 H      17.25400000      11.70800000       9.75200000
 H      16.79900000      10.17100000       9.97300000
 O      20.33000000      10.95600000       8.46000000
 H      19.41900000      10.81800000       8.04800000
 H      20.32800000      10.28100000       9.17400000
 O      20.17200000       4.54500000       6.85700000
 H      20.86800000       5.17900000       6.58900000
 H      19.61500000       4.43700000       6.08100000
 O      19.97800000       2.27900000       9.69400000
 H      20.04000000       1.33900000      10.05000000
 H      20.29400000       2.18600000       8.75900000
 O      17.91700000       5.57900000      16.00400000
 H      18.81400000       5.81900000      15.56800000
 H      17.93600000       4.68200000      15.89800000
 O      26.47400000       8.81500000      10.65600000
 H      27.10800000       8.60500000       9.90500000
 H      26.07900000       8.00200000      10.98500000
 O      25.54200000       1.45800000       7.30000000
 H      24.56400000       1.31100000       7.36600000
 H      25.89100000       1.70200000       8.21500000
 O      20.69000000       8.12500000      10.30500000
 H      20.05400000       7.37700000      10.40400000
 H      21.39700000       7.68800000       9.81100000
 O      23.97500000      10.36400000      11.09600000
 H      24.86200000      10.04900000      10.77300000
 H      23.96000000      10.41300000      12.04000000
 O      22.93100000       8.73400000      14.83100000
 H      22.10200000       8.43100000      15.32400000
 H      23.31100000       9.47300000      15.44000000
 O      27.16700000       2.07900000      13.93700000
 H      27.80100000       1.69500000      14.59000000
 H      26.34700000       2.38200000      14.56800000
 O      16.49200000       4.85800000       5.95200000
 H      17.34200000       4.95300000       5.54200000
 H      15.91700000       4.41000000       5.33400000
 O      24.96900000       3.55800000      15.26800000
 H      24.56600000       4.41500000      15.09400000
 H      25.35400000       3.72500000      16.18900000
 O      21.52600000       1.89200000      13.94000000
 H      22.35500000       1.39500000      14.10400000
 H      21.87200000       2.83800000      13.79100000
 O      16.72400000      10.49600000      12.96700000
 H      17.07600000      10.21100000      13.81000000
 H      16.06900000       9.87900000      12.59800000
 O      18.25300000       3.03600000      12.19700000
 H      18.79900000       2.88600000      11.38200000
 H      18.71800000       2.56800000      12.96300000
 O      16.61500000       1.50800000       5.72800000
 H      16.33400000       1.55900000       6.68500000
 H      15.76200000       1.88700000       5.30400000
 O      16.03500000       8.70100000       4.75200000
 H      15.89100000       8.04600000       5.45700000
 H      15.79500000       8.20500000       3.94200000
 O      21.99200000       4.92800000      13.43400000
 H      21.08900000       5.29000000      13.62900000
 H      22.48400000       5.80100000      13.36700000
 O      25.99300000       6.67000000       7.55500000
 H      25.94200000       5.86500000       8.11000000
 H      25.80000000       6.20700000       6.64700000
 O      18.55300000       9.43400000      15.32200000
 H      19.14700000      10.16800000      15.34200000
 H      19.05000000       8.59200000      15.55200000
 O      17.04600000       2.49900000       9.33700000
 H      16.58300000       2.18100000      10.15600000
 H      17.94600000       2.03400000       9.31600000
 O      19.13300000       5.53400000      13.32500000
 H      18.57500000       4.74400000      13.32300000
 H      19.48200000       5.60900000      12.37200000
 O      23.76200000       4.16600000       6.64000000
 H      24.16200000       3.39400000       7.02800000
 H      22.84200000       3.88000000       6.52200000
 O      26.18600000       8.08100000      14.50100000
 H      25.22300000       7.88500000      14.30700000
 H      26.55000000       7.14200000      14.56600000
 O      26.13400000       4.55400000       9.26100000
 H      27.06500000       4.86300000       9.47900000
 H      25.73700000       4.69900000      10.11300000
 O      20.97100000       2.03000000       4.63300000
 H      21.61200000       1.47200000       5.05900000
 H      20.24400000       1.90100000       5.35600000
 O      22.23400000       1.42700000       7.94700000
 H      22.46400000       0.97500000       8.82900000
 H      22.09000000       2.35100000       8.25500000
 O      17.70800000       5.16500000       8.56000000
 H      17.26900000       4.28300000       8.68500000
 H      17.61200000       5.26100000       7.65300000
 O      15.70300000       4.02000000      12.11700000
 H      15.48400000       3.20300000      12.59800000
 H      16.74400000       3.85500000      11.93200000
 O      17.17000000       8.55800000      10.65600000
 H      17.14500000       8.12800000      11.55600000
 H      17.19800000       7.78600000      10.11200000
 O      19.71900000       5.59300000      10.58400000
 H      20.28900000       5.03900000      10.04100000
 H      18.87100000       5.54600000      10.07900000
 O      17.07500000       7.24400000      13.20500000
 H      17.84100000       6.72400000      13.42200000
 H      16.56400000       7.24300000      14.04500000
 O      22.88100000       3.49300000       9.91400000
 H      22.02400000       3.69100000      10.31400000
 H      23.54400000       3.18500000      10.60900000
 O      19.52400000       9.89700000      11.93200000
 H      19.98100000       8.98200000      11.76700000
 H      18.55500000       9.62000000      11.97800000
 O      17.75400000      10.42300000       6.30200000
 H      16.95200000      10.33400000       5.73300000
 H      18.27100000       9.65800000       6.02000000
 O      24.88400000       2.89300000      11.67200000
 H      25.66500000       2.39400000      11.28000000
 H      25.26700000       3.63800000      12.20500000
