90
XYZ file of cluster: frame_11500_c5f0f.478e.de - created by MolEdiTo
 O      26.13400000       4.55400000       9.26100000
 H      27.06500000       4.86300000       9.47900000
 H      25.73700000       4.69900000      10.11300000
 O      28.52900000       5.66000000       9.97400000
 H      28.31800000       6.04500000      10.94600000
 H      28.84400000       6.47400000       9.57400000
 O      27.56800000       3.23800000       6.44100000
 H      26.85000000       2.75500000       6.93500000
 H      27.00000000       3.72900000       5.84100000
 O      30.53500000       4.33100000       1.16000000
 H      29.69300000       4.14700000       0.72400000
 H      30.81800000       3.41300000       0.95400000
 O      30.35900000       1.13000000       6.14600000
 H      30.29400000       1.87900000       5.59800000
 H      29.62200000       0.58300000       5.75500000
 O      26.98900000       1.66700000       9.94900000
 H      27.35300000       0.93900000      10.49000000
 H      27.78000000       2.12200000       9.47300000
 O      27.20000000      11.30900000       8.37000000
 H      27.27800000      11.09800000       7.42500000
 H      27.34000000      10.52700000       8.95500000
 O      26.47400000       8.81500000      10.65600000
 H      27.10800000       8.60500000       9.90500000
 H      26.07900000       8.00200000      10.98500000
 O      28.55700000       1.61800000       3.25900000
 H      28.17100000       1.03700000       3.85300000
 H      28.27400000       1.31000000       2.38200000
 O      27.67300000      10.49200000       5.55800000
 H      27.74300000      11.35800000       5.09100000
 H      28.39600000       9.95800000       5.24200000
 O      28.04700000       8.25800000       8.39900000
 H      28.81100000       8.25100000       7.75400000
 H      27.30400000       7.82200000       7.95400000
 O      26.85200000       8.06800000       1.54500000
 H      27.74100000       8.46000000       1.45500000
 H      26.73700000       7.56400000       0.72600000
 O      29.43600000       2.38100000       8.60300000
 H      28.81300000       2.87900000       7.95900000
 H      30.09300000       2.03500000       7.94500000
 O      30.02200000       3.40600000       4.67900000
 H      29.56100000       2.78800000       4.10000000
 H      29.38200000       3.58400000       5.40300000
 O      29.22400000       9.39400000       1.78300000
 H      30.07700000       9.15200000       1.35400000
 H      29.58000000       9.79000000       2.59000000
 O      30.76800000       9.93200000       8.73600000
 H      30.54500000      10.81400000       8.34000000
 H      31.74400000       9.76200000       8.72500000
 O      34.14500000       8.23200000       3.72300000
 H      33.44000000       7.60600000       3.59300000
 H      33.90300000       8.47100000       4.66800000
 O      33.32700000       5.17500000       8.97900000
 H      32.69600000       5.13400000       9.68900000
 H      34.00600000       4.49300000       9.24400000
 O      36.50600000       4.58400000       7.71600000
 H      36.09100000       4.41000000       8.63400000
 H      35.73500000       4.58400000       7.17700000
 O      37.80500000       3.59500000       2.92500000
 H      37.67800000       2.66400000       3.20500000
 H      36.93200000       3.94300000       3.20000000
 O      32.81100000       5.87100000       3.45800000
 H      32.23000000       5.33700000       4.00400000
 H      32.75500000       5.29400000       2.68600000
 O      36.58700000       7.27700000       2.15600000
 H      37.16700000       6.59400000       2.68100000
 H      35.98400000       7.67700000       2.78700000
 O      34.76900000       2.91200000       9.53900000
 H      35.33800000       3.02800000      10.37100000
 H      33.88300000       2.66300000       9.88300000
 O      34.07200000       4.52200000       6.32700000
 H      33.21700000       4.26100000       5.83000000
 H      33.76100000       5.10400000       7.06300000
 O      35.07700000       3.16800000       1.83900000
 H      35.41700000       2.25000000       1.85700000
 H      34.71200000       3.33400000       2.72300000
 O      33.58800000       8.74500000       0.81400000
 H      33.99900000       8.31900000       0.00700000
 H      34.23300000       8.49100000       1.48900000
 O      36.00500000       2.26900000       5.94400000
 H      35.22000000       1.77300000       6.30000000
 H      36.21500000       2.89300000       6.60100000
 O      35.60300000       4.59200000       4.18200000
 H      34.89100000       5.26700000       4.08200000
 H      35.57800000       4.24900000       5.14700000
 O      35.65700000      10.61300000       3.95900000
 H      35.55700000       9.64600000       4.07700000
 H      35.82500000      10.78700000       4.89500000
 O      35.78600000       9.56600000       8.43800000
 H      35.67500000      10.13200000       9.29700000
 H      36.76300000       9.43500000       8.31200000
