117
XYZ file of cluster: frame_9500_49a45.73886.992bf - created by MolEdiTo
 O      14.81800000      23.10100000      27.53000000
 H      15.52400000      22.69600000      26.91500000
 H      15.12400000      24.05100000      27.62800000
 O      17.14600000      25.67400000      20.28900000
 H      17.60900000      25.47700000      21.11700000
 H      17.76700000      26.28600000      19.81300000
 O      19.86200000      24.25900000      25.97300000
 H      19.43200000      25.12200000      25.69600000
 H      19.35600000      23.73300000      25.31000000
 O      12.76000000      14.96800000      24.94200000
 H      13.20400000      15.83000000      24.80200000
 H      11.87700000      15.25900000      25.33100000
 O      15.90800000      16.28600000      23.32000000
 H      15.13800000      16.22400000      22.64600000
 H      16.16600000      17.21800000      23.41200000
 O      21.54800000      22.35500000      24.33900000
 H      21.82100000      22.91700000      25.13700000
 H      20.86300000      21.75600000      24.66200000
 O      18.37400000      18.67500000      29.65300000
 H      17.54000000      18.50600000      30.16700000
 H      18.97000000      19.03200000      30.34700000
 O      18.09800000      22.92000000      24.19000000
 H      17.21200000      22.60900000      24.13600000
 H      18.23000000      23.13500000      23.22300000
 O      16.14300000      21.35400000      25.67700000
 H      16.60500000      20.48700000      25.72100000
 H      15.20100000      21.10000000      25.60200000
 O      15.84600000      17.53700000      26.78700000
 H      16.66000000      17.13300000      26.41600000
 H      15.74300000      17.23900000      27.69800000
 O      17.21700000      18.97400000      21.07400000
 H      17.94200000      18.51700000      20.67800000
 H      16.81800000      19.55500000      20.39600000
 O      19.96500000      15.92600000      23.37400000
 H      19.05700000      15.51300000      23.43200000
 H      19.86000000      16.85900000      23.16800000
 O      10.24600000      22.94500000      30.14700000
 H      11.19400000      23.16800000      30.10200000
 H      10.26100000      21.92900000      30.09000000
 O      13.14800000      18.79300000      26.47900000
 H      12.45900000      18.10300000      26.65300000
 H      14.03800000      18.45700000      26.69800000
 O      14.53000000      20.54500000      29.15400000
 H      15.32700000      20.51400000      29.72300000
 H      14.74000000      21.34300000      28.55000000
 O      14.71900000      26.70700000      25.29900000
 H      14.59700000      27.38100000      24.57100000
 H      13.86800000      26.21900000      25.24200000
 O      10.68900000      16.99600000      29.99400000
 H       9.92200000      17.48700000      30.28000000
 H      11.46100000      17.65200000      29.89800000
 O      14.19700000      19.35600000      23.56600000
 H      13.78800000      18.92500000      22.81000000
 H      13.70500000      19.11300000      24.41400000
 O      11.85200000      22.37300000      26.31800000
 H      12.50300000      22.04900000      26.98400000
 H      12.46300000      22.39700000      25.51300000
 O      18.40700000      16.13800000      27.93200000
 H      18.37100000      15.30900000      28.46100000
 H      18.05900000      16.78400000      28.51200000
 O      15.66400000      16.33900000      29.26900000
 H      14.82700000      16.84100000      29.38700000
 H      15.78800000      15.98100000      30.14800000
 O      12.01600000      26.03700000      25.19600000
 H      11.10400000      26.18300000      25.60500000
 H      12.09100000      25.07100000      25.25900000
 O      19.82300000      19.22900000      23.59400000
 H      18.86600000      19.35900000      23.94800000
 H      19.85500000      18.82200000      22.72600000
 O      21.30500000      16.29400000      29.75500000
 H      22.11500000      16.61000000      29.35100000
 H      20.58900000      16.38000000      29.14400000
 O      21.41400000      23.28800000      28.23600000
 H      21.89200000      23.98400000      27.82100000
 H      20.76200000      23.01000000      27.51500000
 O      15.14300000      24.22000000      23.11000000
 H      14.33200000      24.82100000      22.97700000
 H      15.57900000      24.76800000      23.82800000
 O      14.41200000      17.01400000      21.14700000
 H      15.24100000      17.39000000      20.76700000
 H      13.78800000      17.55000000      20.51700000
 O      12.91700000      25.61200000      22.52900000
 H      12.25000000      25.21900000      21.94000000
 H      12.54300000      26.30000000      23.08600000
 O      12.70200000      23.99600000      28.76600000
 H      13.06500000      24.91700000      29.05200000
 H      13.47800000      23.41400000      28.65700000
 O      20.28400000      17.84900000      25.92200000
 H      19.85700000      18.53400000      25.38200000
 H      19.71900000      17.68200000      26.69700000
 O      13.57800000      22.20000000      24.18300000
 H      13.52300000      21.29400000      23.87100000
 H      14.24000000      22.66600000      23.55500000
 O      20.71100000      26.33200000      29.01500000
 H      20.48100000      25.38900000      28.74400000
 H      20.18400000      26.36800000      29.86300000
 O      12.73800000      18.78700000      29.92300000
 H      12.04000000      19.50600000      30.08100000
 H      13.39500000      19.29000000      29.40200000
 O      11.39300000      19.07900000      23.26600000
 H      10.81400000      19.66400000      23.87600000
 H      10.99500000      18.19200000      23.22500000
 O      12.21100000      22.21800000      21.81600000
 H      12.40400000      21.66100000      22.54200000
 H      12.11300000      22.97000000      22.37400000
 O      16.84600000      19.04000000      23.85500000
 H      15.79400000      18.97100000      23.72100000
 H      17.02800000      19.29600000      22.88200000
 O      10.98500000      16.71400000      26.90000000
 H      10.40100000      17.22900000      26.31300000
 H      10.59800000      16.95700000      27.76900000
 O      10.89000000      18.31700000      20.19000000
 H      11.28300000      18.55100000      21.08500000
 H       9.99700000      18.13200000      20.46800000
 O      10.36900000      16.16000000      22.87200000
 H       9.54500000      15.86100000      22.35700000
 H      11.08600000      15.51600000      22.75100000
