148
XYZ file of cluster: frame_9500_67fa6.68631.491e5 - created by MolEdiTo
 O      24.09100000      22.44100000      18.73500000
 H      23.88900000      23.29700000      19.18900000
 H      25.03500000      22.14500000      19.02500000
 O      24.34100000      15.77600000      20.31800000
 H      24.36200000      15.44300000      21.17100000
 H      24.51300000      16.80000000      20.54100000
 O      18.79600000      24.82100000      17.91900000
 H      18.21600000      24.41700000      17.23100000
 H      18.28400000      25.69100000      18.12200000
 O      18.54700000      19.28600000      15.06700000
 H      19.33300000      18.99300000      14.57800000
 H      18.96900000      19.18800000      15.92000000
 O      17.14600000      25.67400000      20.28900000
 H      17.60900000      25.47700000      21.11700000
 H      17.76700000      26.28600000      19.81300000
 O      19.66300000      19.52200000      11.57100000
 H      19.96400000      18.54700000      11.80600000
 H      19.75400000      19.51300000      10.61800000
 O      24.51700000      18.88800000      10.57100000
 H      24.70400000      19.82400000      10.45100000
 H      23.90500000      18.62100000       9.84300000
 O      23.10400000      19.94000000      18.07000000
 H      23.73600000      19.69900000      17.39700000
 H      23.21500000      20.92500000      18.31700000
 O      22.49800000      26.57600000      13.34300000
 H      22.65300000      25.60100000      13.65900000
 H      23.07900000      26.68300000      12.56300000
 O      26.45800000      22.63300000      16.89000000
 H      26.23400000      23.12200000      17.77000000
 H      25.97300000      23.00400000      16.15900000
 O      22.33200000      18.95000000      21.10900000
 H      23.03800000      19.51100000      20.77000000
 H      21.45100000      19.31700000      20.74400000
 O      17.21700000      18.97400000      21.07400000
 H      17.94200000      18.51700000      20.67800000
 H      16.81800000      19.55500000      20.39600000
 O      20.34000000      19.74900000      19.33100000
 H      21.21900000      19.48500000      18.92200000
 H      20.32200000      20.66200000      19.11300000
 O      20.80400000      18.17900000      16.20600000
 H      20.25600000      17.41000000      16.68100000
 H      21.63100000      18.28200000      16.70900000
 O      26.92100000      19.84600000      11.09400000
 H      26.10900000      19.31400000      10.95000000
 H      27.64800000      19.17500000      11.24600000
 O      22.70100000      26.99100000      10.52100000
 H      22.54900000      25.97600000      10.80800000
 H      23.40800000      27.03500000       9.82100000
 O      17.07800000      19.95100000      12.10200000
 H      17.19500000      20.16600000      13.09100000
 H      17.98700000      19.71600000      11.85000000
 O      20.76400000      22.47700000      12.08300000
 H      20.89700000      21.52000000      12.41400000
 H      21.71300000      22.84800000      12.02400000
 O      17.88500000      22.95300000      14.92900000
 H      18.68100000      22.37100000      15.12100000
 H      18.26800000      23.85100000      15.01500000
 O      16.41700000      20.49900000      18.66800000
 H      17.05500000      20.88900000      18.09300000
 H      15.61300000      21.15700000      18.82300000
 O      25.09100000      21.78000000      11.64200000
 H      25.36100000      22.64600000      11.31300000
 H      25.94300000      21.42300000      11.88100000
 O      25.30700000      18.29000000      21.09600000
 H      26.06000000      18.68000000      20.61000000
 H      25.36000000      18.66100000      22.08500000
 O      24.77200000      19.89400000      15.36000000
 H      24.98200000      19.68800000      14.37700000
 H      24.37100000      20.77300000      15.45800000
 O      21.79200000      25.28200000      16.61700000
 H      21.20400000      24.96200000      17.34500000
 H      21.22700000      25.98800000      16.21800000
 O      23.51100000      24.01500000      14.67100000
 H      22.97900000      24.27600000      15.50000000
 H      23.38600000      22.97200000      14.54300000
 O      22.62700000      20.99100000      13.80200000
 H      23.27800000      21.18500000      13.13400000
 H      22.29400000      20.03800000      13.69100000
 O      25.41400000      25.49700000      12.77500000
 H      24.91600000      26.06600000      13.32700000
 H      25.37300000      24.62700000      13.22300000
 O      16.54100000      25.73100000      11.98900000
 H      16.40400000      26.04200000      11.09200000
 H      17.49900000      26.03600000      12.17200000
 O      23.76400000      16.95600000      16.13000000
 H      23.23100000      16.56500000      15.43200000
 H      24.68300000      16.88700000      15.81400000
 O      20.70700000      22.02100000      16.14800000
 H      20.55000000      21.80200000      17.06600000
 H      21.19000000      21.30400000      15.80100000
 O      19.52300000      16.81400000      13.57600000
 H      19.34600000      15.86400000      13.32900000
 H      19.48800000      16.72000000      14.54500000
 O      20.08800000      22.87300000      19.27700000
 H      19.85800000      23.76600000      18.92000000
 H      19.26600000      22.53500000      19.68800000
 O      21.87500000      17.00200000      18.95400000
 H      22.03600000      17.74300000      19.60200000
 H      22.82100000      16.74700000      18.71200000
 O      19.46300000      25.13900000      12.01200000
 H      19.02500000      24.46900000      11.40300000
 H      20.15100000      24.65100000      12.50500000
 O      17.27900000      22.88700000      20.55800000
 H      17.09800000      23.83800000      20.66200000
 H      16.48000000      22.58700000      20.10500000
 O      17.08000000      16.72300000      11.43600000
 H      17.00100000      17.61800000      11.19500000
 H      17.96300000      16.71400000      11.75100000
 C      15.89600000      16.29500000      17.15600000
 C      16.27300000      16.80900000      15.74600000
 C      16.09100000      14.58300000      14.59000000
 H      15.75000000      16.34600000      13.67900000
 H      15.03400000      17.81700000      17.11900000
 O      14.12600000      16.07800000      15.08600000
 O      16.24600000      15.24100000      17.63600000
 O      15.14200000      17.12300000      17.84100000
 C      15.47700000      15.99300000      14.68100000
 O      16.07300000      18.22900000      15.53300000
 H      17.32300000      16.62200000      15.64800000
 O      17.24300000      14.36900000      14.31800000
 O      15.23000000      13.52400000      14.67000000
 H      14.34100000      13.98600000      14.74000000
 H      16.94400000      18.66300000      15.20200000
 H      13.47700000      16.09600000      14.33700000
 O      19.51800000      15.87100000      17.17800000
 H      20.14600000      16.17700000      17.90700000
 H      19.10000000      15.11000000      17.57100000
 O      18.10500000      23.01100000      10.82400000
 H      17.23000000      23.26700000      11.19600000
 H      18.45100000      22.40200000      11.54900000
 O      22.83400000      24.10900000      11.36800000
 H      22.50200000      23.79500000      10.53000000
 H      23.75500000      23.89800000      11.25500000
 O      21.84600000      18.48600000      13.30100000
 H      21.09200000      17.88400000      13.22900000
 H      22.68400000      17.89500000      13.37000000
 O      25.90300000      24.14500000      10.25000000
 H      26.10400000      24.77400000      11.01000000
 H      26.36900000      24.51500000       9.45800000
 O      26.57300000      16.70500000      16.58700000
 H      25.86400000      16.14200000      16.86800000
 H      27.29300000      16.00100000      16.38500000
 O      26.69200000      26.18500000      16.64500000
 H      26.81900000      25.90300000      17.55500000
 H      25.85000000      26.61000000      16.69600000
 O      18.79800000      25.45500000      14.70000000
 H      19.15400000      25.71900000      13.84600000
 H      19.35100000      25.92800000      15.33400000
