111
XYZ file of cluster: frame_9500_9e040.4b538.668b - created by MolEdiTo
 O      29.09900000      12.14800000       4.89300000
 H      29.18000000      11.79700000       3.91000000
 H      28.56800000      11.46600000       5.39300000
 O      28.96400000      19.36000000       5.64300000
 H      29.83100000      18.93500000       5.63200000
 H      28.85800000      19.48000000       6.57600000
 O      24.51700000      18.88800000      10.57100000
 H      24.70400000      19.82400000      10.45100000
 H      23.90500000      18.62100000       9.84300000
 O      23.68600000      17.81700000       6.00800000
 H      23.06700000      17.20500000       5.53800000
 H      24.24600000      18.07600000       5.17200000
 O      24.83200000      14.52100000       7.05500000
 H      24.24500000      14.98000000       7.75800000
 H      24.40400000      14.73400000       6.22700000
 O      29.86700000      19.02900000       2.12300000
 H      30.36600000      19.62400000       1.56700000
 H      30.39400000      18.80400000       2.87200000
 O      29.99500000      14.34200000       7.41200000
 H      29.27400000      13.69700000       7.35100000
 H      29.97600000      14.63900000       6.48800000
 O      23.44700000      13.21400000       3.52700000
 H      23.27100000      12.23100000       3.48100000
 H      23.65800000      13.49800000       2.58600000
 O      23.56800000      21.00800000       4.65200000
 H      24.47300000      21.24100000       4.46100000
 H      23.61500000      19.97700000       4.57300000
 O      20.86000000      12.02700000       7.45600000
 H      21.50700000      11.36900000       7.05200000
 H      21.27600000      12.87600000       7.51500000
 O      26.42500000      19.03300000       4.91000000
 H      27.37200000      19.34600000       5.06500000
 H      26.25200000      19.26200000       4.08300000
 O      25.97000000      12.99800000       9.19400000
 H      25.64200000      13.64600000       8.58400000
 H      25.26900000      12.27900000       9.26300000
 O      28.28600000      16.58100000       5.66200000
 H      28.11200000      17.32900000       5.07700000
 H      27.75800000      16.72200000       6.42000000
 O      25.04500000      11.82300000       1.40000000
 H      25.59600000      12.14500000       2.17400000
 H      24.67100000      12.63100000       0.95400000
 O      21.74800000      17.15700000       2.25800000
 H      20.97600000      16.67900000       2.36100000
 H      21.92400000      16.85000000       1.35300000
 O      23.70200000      21.11700000       8.28400000
 H      24.15900000      21.96700000       8.41500000
 H      24.32000000      20.58000000       7.76800000
 O      25.07200000       9.98900000       4.90500000
 H      24.75900000      10.03900000       3.98800000
 H      25.31400000      10.94300000       5.13300000
 O      26.65700000      12.29800000       3.53500000
 H      26.79000000      13.21700000       3.71100000
 H      26.22400000      12.09400000       4.40200000
 O      20.82700000      20.27100000       9.08100000
 H      21.73100000      20.35200000       8.60900000
 H      20.48100000      19.62600000       8.45600000
 O      27.79900000      13.03600000      11.35800000
 H      27.00300000      13.50600000      11.07300000
 H      28.23200000      12.82500000      10.46200000
 O      28.62500000      12.11300000       8.77700000
 H      27.69800000      12.53800000       8.87200000
 H      28.52100000      11.32600000       8.15800000
 O      29.69300000      14.21300000       2.66600000
 H      30.61800000      14.20000000       2.41100000
 H      29.29800000      13.44100000       2.15600000
 O      27.51500000      14.63700000       3.77700000
 H      28.27200000      14.80200000       3.11700000
 H      27.75800000      15.09500000       4.61200000
 O      25.81600000      16.42200000       2.24700000
 H      25.92100000      16.48600000       3.18200000
 H      26.08400000      15.47700000       2.13200000
 O      22.53100000      15.71000000       4.28600000
 H      21.89400000      16.29500000       3.78500000
 H      22.55400000      14.91400000       3.70200000
 O      25.96300000      12.51600000       5.43200000
 H      25.52700000      12.99600000       6.20000000
 H      26.38600000      13.24700000       4.95400000
 O      20.98400000      20.03900000       6.00200000
 H      21.98100000      20.17100000       5.97800000
 H      20.76300000      20.71400000       5.33700000
 O      23.52300000      18.40900000       4.08500000
 H      23.66900000      18.93200000       3.20400000
 H      23.11900000      17.58400000       3.59000000
 O      23.31400000      16.37300000       9.22400000
 H      22.44600000      16.73000000       8.99100000
 H      23.15800000      15.88700000      10.08000000
 O      30.26900000      19.68600000       8.62400000
 H      30.52800000      19.16000000       9.50000000
 H      30.77800000      19.11600000       7.93400000
 O      26.13200000      17.59500000       8.24300000
 H      25.29900000      17.41000000       7.84500000
 H      25.86300000      17.81500000       9.17600000
 O      22.48900000      10.69200000       3.81600000
 H      21.58300000      11.01700000       3.66100000
 H      22.54900000      10.22900000       4.69200000
 O      21.74500000      13.23000000      10.70100000
 H      22.03200000      13.12000000      11.68300000
 H      21.89900000      12.41300000      10.23200000
 O      29.91100000      10.67800000       3.71400000
 H      30.62000000      11.09600000       3.19900000
 H      30.01400000       9.75900000       3.38000000
 O      23.86400000      20.10500000       1.85600000
 H      24.73800000      20.48100000       1.81900000
 H      23.76100000      20.02300000       0.82900000
 O      26.83600000      20.31400000       8.10400000
 H      27.20600000      20.38600000       8.98100000
 H      26.66900000      19.30200000       7.98700000
 O      23.83300000      11.29200000       9.92500000
 H      23.88000000      10.31200000      10.08300000
 H      23.86700000      11.71000000      10.81700000
