114
XYZ file of cluster: frame_9500_9e040.4f984.1e3a5 - created by MolEdiTo
 O      28.55400000      15.86500000      12.48700000
 H      28.82800000      15.09900000      11.96400000
 H      28.25000000      15.47600000      13.35400000
 O      29.09900000      12.14800000       4.89300000
 H      29.18000000      11.79700000       3.91000000
 H      28.56800000      11.46600000       5.39300000
 O      28.96400000      19.36000000       5.64300000
 H      29.83100000      18.93500000       5.63200000
 H      28.85800000      19.48000000       6.57600000
 O      24.51700000      18.88800000      10.57100000
 H      24.70400000      19.82400000      10.45100000
 H      23.90500000      18.62100000       9.84300000
 O      23.68600000      17.81700000       6.00800000
 H      23.06700000      17.20500000       5.53800000
 H      24.24600000      18.07600000       5.17200000
 O      30.24500000      17.80600000      11.66300000
 H      29.50900000      17.27600000      12.04500000
 H      30.70600000      17.20900000      11.09600000
 O      24.83200000      14.52100000       7.05500000
 H      24.24500000      14.98000000       7.75800000
 H      24.40400000      14.73400000       6.22700000
 O      30.63900000      20.98400000      11.39100000
 H      30.55900000      21.89200000      11.79000000
 H      29.78300000      20.79400000      10.94400000
 O      29.99500000      14.34200000       7.41200000
 H      29.27400000      13.69700000       7.35100000
 H      29.97600000      14.63900000       6.48800000
 O      20.86000000      12.02700000       7.45600000
 H      21.50700000      11.36900000       7.05200000
 H      21.27600000      12.87600000       7.51500000
 O      30.72400000      10.52500000      14.29300000
 H      30.42600000      10.85100000      13.46000000
 H      30.65900000      11.40700000      14.76900000
 O      26.92100000      19.84600000      11.09400000
 H      26.10900000      19.31400000      10.95000000
 H      27.64800000      19.17500000      11.24600000
 O      25.97000000      12.99800000       9.19400000
 H      25.64200000      13.64600000       8.58400000
 H      25.26900000      12.27900000       9.26300000
 O      28.28600000      16.58100000       5.66200000
 H      28.11200000      17.32900000       5.07700000
 H      27.75800000      16.72200000       6.42000000
 O      29.69900000      20.03600000      14.19200000
 H      29.35200000      19.92500000      13.28900000
 H      30.59900000      20.35400000      13.92900000
 O      23.70200000      21.11700000       8.28400000
 H      24.15900000      21.96700000       8.41500000
 H      24.32000000      20.58000000       7.76800000
 O      20.82700000      20.27100000       9.08100000
 H      21.73100000      20.35200000       8.60900000
 H      20.48100000      19.62600000       8.45600000
 O      27.79900000      13.03600000      11.35800000
 H      27.00300000      13.50600000      11.07300000
 H      28.23200000      12.82500000      10.46200000
 O      28.62500000      12.11300000       8.77700000
 H      27.69800000      12.53800000       8.87200000
 H      28.52100000      11.32600000       8.15800000
 O      24.77200000      19.89400000      15.36000000
 H      24.98200000      19.68800000      14.37700000
 H      24.37100000      20.77300000      15.45800000
 O      26.23200000      13.70400000      16.31600000
 H      26.09300000      12.78200000      16.74600000
 H      26.67500000      13.57600000      15.42400000
 O      22.16800000      15.25000000      13.91100000
 H      22.44800000      14.41300000      14.32500000
 H      21.38500000      15.19100000      13.24900000
 O      22.62700000      20.99100000      13.80200000
 H      23.27800000      21.18500000      13.13400000
 H      22.29400000      20.03800000      13.69100000
 O      23.76400000      16.95600000      16.13000000
 H      23.23100000      16.56500000      15.43200000
 H      24.68300000      16.88700000      15.81400000
 O      25.96300000      12.51600000       5.43200000
 H      25.52700000      12.99600000       6.20000000
 H      26.38600000      13.24700000       4.95400000
 O      24.24700000      12.13700000      12.58000000
 H      25.13100000      12.31300000      12.97100000
 H      23.73400000      11.84400000      13.34800000
 O      20.98400000      20.03900000       6.00200000
 H      21.98100000      20.17100000       5.97800000
 H      20.76300000      20.71400000       5.33700000
 O      21.84600000      18.48600000      13.30100000
 H      21.09200000      17.88400000      13.22900000
 H      22.68400000      17.89500000      13.37000000
 O      23.31400000      16.37300000       9.22400000
 H      22.44600000      16.73000000       8.99100000
 H      23.15800000      15.88700000      10.08000000
 O      27.81000000      13.29700000      14.12100000
 H      28.60200000      12.91700000      14.60200000
 H      27.92400000      13.13100000      13.17300000
 O      26.13200000      17.59500000       8.24300000
 H      25.29900000      17.41000000       7.84500000
 H      25.86300000      17.81500000       9.17600000
 O      30.32700000      12.98700000      15.30700000
 H      30.07900000      13.89900000      15.58300000
 H      31.23900000      12.81100000      15.78200000
 O      30.26900000      19.68600000       8.62400000
 H      30.52800000      19.16000000       9.50000000
 H      30.77800000      19.11600000       7.93400000
 O      21.74500000      13.23000000      10.70100000
 H      22.03200000      13.12000000      11.68300000
 H      21.89900000      12.41300000      10.23200000
 O      22.12500000      12.63800000      14.58400000
 H      22.03000000      12.42500000      15.58000000
 H      21.21200000      12.29500000      14.20800000
 O      26.83600000      20.31400000       8.10400000
 H      27.20600000      20.38600000       8.98100000
 H      26.66900000      19.30200000       7.98700000
 O      23.83300000      11.29200000       9.92500000
 H      23.88000000      10.31200000      10.08300000
 H      23.86700000      11.71000000      10.81700000
 O      30.71200000      17.80100000      15.61200000
 H      30.06000000      18.48300000      15.45000000
 H      31.30600000      17.95000000      14.79600000
