120
XYZ file of cluster: frame_9500_9b40e.4ab77.c7c00 - created by MolEdiTo
 O      26.12500000      20.89900000      29.80700000
 H      26.47400000      21.36600000      28.99300000
 H      26.81400000      20.21900000      29.83700000
 O      23.28900000      17.53700000      28.45100000
 H      24.23100000      17.25600000      28.60000000
 H      23.43100000      18.40900000      28.74700000
 O      26.10300000      18.27100000      28.00000000
 H      26.53300000      17.56600000      27.58000000
 H      26.52300000      18.48300000      28.86000000
 O      26.41000000      15.09100000      28.49700000
 H      26.90600000      14.82300000      27.66500000
 H      27.02700000      15.38600000      29.14300000
 O      22.92100000      20.57900000      29.22700000
 H      22.14700000      21.19300000      29.35000000
 H      23.45100000      20.93000000      28.49800000
 O      22.73300000      11.70100000      27.21300000
 H      22.30100000      10.87900000      27.60300000
 H      23.17700000      11.35900000      26.42300000
 O      30.53200000      10.95400000      28.12000000
 H      29.68900000      11.34000000      28.54000000
 H      30.66200000      11.30000000      27.21600000
 O      26.37900000       9.68000000      28.34300000
 H      26.67500000      10.58100000      28.42200000
 H      25.94600000       9.73300000      27.47000000
 O      24.24200000      14.40900000      30.71100000
 H      23.41100000      13.87500000      30.47200000
 H      24.38400000      15.05600000      29.91300000
 O      23.98200000      14.00300000      26.75300000
 H      23.57000000      13.20000000      27.15900000
 H      23.43100000      14.18800000      25.94600000
 O      30.15400000      18.31200000      26.14800000
 H      30.69300000      18.97600000      26.59500000
 H      29.39700000      18.20700000      26.71900000
 O      21.30500000      16.29400000      29.75500000
 H      22.11500000      16.61000000      29.35100000
 H      20.58900000      16.38000000      29.14400000
 O      26.34800000      12.38800000      26.64000000
 H      27.08900000      12.95400000      26.36400000
 H      25.49100000      12.89000000      26.90100000
 O      20.91300000      14.88600000      26.91200000
 H      21.68700000      15.50900000      26.99600000
 H      20.12300000      15.39800000      26.83900000
 O      24.22100000      19.84200000      26.44900000
 H      23.77200000      19.17100000      25.83800000
 H      24.67200000      19.23100000      27.09700000
 O      21.62600000      12.75500000      29.51500000
 H      21.18900000      13.63800000      29.47700000
 H      21.99400000      12.50600000      28.68400000
 O      28.16000000      12.62400000      30.16700000
 H      27.76000000      13.48000000      30.29400000
 H      28.05000000      12.14000000      30.93900000
 O      28.52600000      15.83200000      30.20600000
 H      28.27000000      16.81700000      29.97700000
 H      29.49300000      15.69700000      30.24800000
 O      27.34000000      18.38100000      30.63200000
 H      27.07400000      17.66900000      31.28300000
 H      27.90500000      18.90600000      31.22400000
 O      30.19800000      18.50500000      28.89000000
 H      30.25700000      19.37800000      29.07100000
 H      31.11300000      18.26600000      28.73000000
 O      29.09900000      12.14800000      36.47300000
 H      29.18000000      11.79700000      35.49000000
 H      28.56800000      11.46600000      36.97300000
 O      23.68600000      17.81700000      37.58800000
 H      23.06700000      17.20500000      37.11800000
 H      24.24600000      18.07600000      36.75200000
 O      29.86700000      19.02900000      33.70300000
 H      30.36600000      19.62400000      33.14700000
 H      30.39400000      18.80400000      34.45200000
 O      23.44700000      13.21400000      35.10700000
 H      23.27100000      12.23100000      35.06100000
 H      23.65800000      13.49800000      34.16600000
 O      23.56800000      21.00800000      36.23200000
 H      24.47300000      21.24100000      36.04100000
 H      23.61500000      19.97700000      36.15300000
 O      26.42500000      19.03300000      36.49000000
 H      27.37200000      19.34600000      36.64500000
 H      26.25200000      19.26200000      35.66300000
 O      28.28600000      16.58100000      37.24200000
 H      28.11200000      17.32900000      36.65700000
 H      27.75800000      16.72200000      38.00000000
 O      25.04500000      11.82300000      32.98000000
 H      25.59600000      12.14500000      33.75400000
 H      24.67100000      12.63100000      32.53400000
 O      21.74800000      17.15700000      33.83800000
 H      20.97600000      16.67900000      33.94100000
 H      21.92400000      16.85000000      32.93300000
 O      25.07200000       9.98900000      36.48500000
 H      24.75900000      10.03900000      35.56800000
 H      25.31400000      10.94300000      36.71300000
 O      26.65700000      12.29800000      35.11500000
 H      26.79000000      13.21700000      35.29100000
 H      26.22400000      12.09400000      35.98200000
 O      29.69300000      14.21300000      34.24600000
 H      30.61800000      14.20000000      33.99100000
 H      29.29800000      13.44100000      33.73600000
 O      27.51500000      14.63700000      35.35700000
 H      28.27200000      14.80200000      34.69700000
 H      27.75800000      15.09500000      36.19200000
 O      25.81600000      16.42200000      33.82700000
 H      25.92100000      16.48600000      34.76200000
 H      26.08400000      15.47700000      33.71200000
 O      22.53100000      15.71000000      35.86600000
 H      21.89400000      16.29500000      35.36500000
 H      22.55400000      14.91400000      35.28200000
 O      25.96300000      12.51600000      37.01200000
 H      25.52700000      12.99600000      37.78000000
 H      26.38600000      13.24700000      36.53400000
 O      23.52300000      18.40900000      35.66500000
 H      23.66900000      18.93200000      34.78400000
 H      23.11900000      17.58400000      35.17000000
 O      22.48900000      10.69200000      35.39600000
 H      21.58300000      11.01700000      35.24100000
 H      22.54900000      10.22900000      36.27200000
 O      29.91100000      10.67800000      35.29400000
 H      30.62000000      11.09600000      34.77900000
 H      30.01400000       9.75900000      34.96000000
 O      23.86400000      20.10500000      33.43600000
 H      24.73800000      20.48100000      33.39900000
 H      23.76100000      20.02300000      32.40900000
