%chk=cluster_005.chk
%mem=8GB
%nproc=8
#b3lyp/6-31G** scrf=(cpcm,Solvent=Water) nosymm force
iop(2/11=1)
 Geom=(NoDistance,NoAngle)
guess=checkpoint

cluster_005

0 1
 O       7.20208458     7.74017777    20.50751854
 H       7.84002951     7.44181505    19.84644302
 H       7.05455742     6.94381763    21.04914476
 O       4.37963817     3.11072504    19.47350297
 H       5.11909302     2.74362678    18.97147245
 H       3.65837755     3.16602747    18.81628659
 O       3.76077469     6.96759909    18.94162186
 H       3.02246274     6.82250413    18.33509335
 H       3.96405077     6.07256614    19.24937672
 O       2.18789404     3.13648828    17.32936102
 H       1.54786013     3.85720444    17.27626667
 H       1.64472120     2.36045692    17.52781629
 O       6.06088484     3.76827590    24.82720274
 H       5.41208751     4.43044248    25.14564705
 H       6.85399065     3.93389338    25.35429339
 O       4.67173165     6.64671648    25.15224509
 H       4.08080385     6.93129302    25.86339240
 H       4.05881697     6.18954308    24.52642904
 O       0.67103329     6.78862500    23.37360415
 H       0.03403567     6.47775805    22.71372135
 H       1.09868579     7.54187313    22.94254835
 O       2.99779104     5.20857658    23.46077273
 H       2.09206177     5.57141021    23.46158493
 H       2.93923755     4.23107929    23.46094351
 O       6.03201321     1.41299319    23.29310503
 H       6.09249977     2.15406173    23.92387090
 H       6.41354354     1.78214861    22.48361316
 O       3.05330041     2.48436788    23.03330102
 H       3.93616182     2.10232960    23.17946516
 H       3.00606893     2.57369877    22.06604969
 O       6.74486896     4.93263447    22.10208160
 H       6.47558200     4.69602241    23.00805343
 H       6.06768701     4.52431943    21.54506953

