114
XYZ file of cluster: frame_3000_27ce.c0bd4.510b - created by MolEdiTo
 O       7.03400000      29.28100000       7.10100000
 H       7.00600000      28.83100000       6.21900000
 H       7.97300000      29.37800000       7.30300000
 O      10.60200000      27.26100000       8.82400000
 H       9.93000000      27.90100000       9.18900000
 H      11.37000000      27.79900000       8.88800000
 O       3.68000000      27.08800000       1.78900000
 H       4.25700000      27.86600000       1.75600000
 H       2.87400000      27.52000000       2.23000000
 O       9.82800000      29.96300000       5.43700000
 H       9.82000000      30.72900000       4.86700000
 H      10.09300000      30.21200000       6.33600000
 O       0.76100000      29.20900000       9.15500000
 H       0.49600000      29.56600000       8.27900000
 H       0.41800000      28.32400000       9.11400000
 O       5.63600000      25.38400000       5.85600000
 H       5.87500000      26.27300000       6.08700000
 H       6.15400000      24.85300000       6.51100000
 O       3.64000000      28.89100000       6.06300000
 H       3.22100000      29.63200000       5.65900000
 H       3.33600000      29.01300000       6.95200000
 O      11.22500000      28.98000000       2.58300000
 H      11.35500000      28.30300000       3.18300000
 H      10.30700000      28.85500000       2.15900000
 O       3.57400000      30.19800000       8.48200000
 H       2.76700000      30.43800000       9.10900000
 H       4.18400000      30.87700000       8.74300000
 O       2.04000000      29.11300000       3.61800000
 H       1.41400000      29.59300000       3.13000000
 H       2.83500000      29.65200000       3.38400000
 O       8.91600000      29.10600000      10.06700000
 H       8.17900000      29.75100000       9.90800000
 H       9.38300000      29.45700000      10.86500000
 O       6.26200000      28.56100000       4.49400000
 H       5.34400000      28.35800000       4.46600000
 H       6.79000000      28.05200000       3.80000000
 O       5.06400000      27.53900000       8.53400000
 H       5.13200000      28.55100000       8.36700000
 H       4.55100000      27.12800000       7.75400000
 O      10.62400000      30.78900000       7.98800000
 H      11.52700000      30.75200000       8.29000000
 H      10.23600000      31.28700000       8.78700000
 O       9.28400000      27.36100000       5.70800000
 H       9.41300000      27.30700000       6.68100000
 H       9.46100000      28.30600000       5.54800000
 O       2.36300000      27.78200000      11.00300000
 H       2.35700000      28.06300000      10.01000000
 H       1.46000000      28.03800000      11.34800000
 O       8.10000000      27.15900000       2.70400000
 H       7.64000000      26.30600000       2.43000000
 H       8.39800000      26.89500000       3.59600000
 O       7.26700000      26.41300000      10.65000000
 H       6.54600000      26.43000000       9.91100000
 H       7.90900000      27.07600000      10.38200000
 O       9.68100000      34.19700000       2.26100000
 H       9.39000000      33.94700000       1.39100000
 H       9.86000000      35.13300000       2.21500000
 O       1.89500000      34.80000000       8.79300000
 H       1.34000000      35.31500000       8.22700000
 H       1.38500000      34.03900000       9.07300000
 O       2.26900000      37.23800000      10.07900000
 H       2.03500000      36.84900000      10.96200000
 H       2.46200000      36.37000000       9.57200000
 O       9.88500000      34.46500000       5.18200000
 H       9.07100000      34.98700000       5.27200000
 H      10.02600000      34.55900000       4.21100000
 O       5.28400000      37.06200000       9.52300000
 H       5.57200000      36.11800000       9.36700000
 H       6.03400000      37.49600000       9.98100000
 O       8.33000000      35.70400000      10.42200000
 H       9.19200000      36.22300000      10.39200000
 H       7.93000000      35.30700000       9.52600000
 O       8.09700000      33.82400000       7.90100000
 H       8.66200000      32.98700000       8.03400000
 H       7.33500000      33.36900000       7.63100000
 O       7.01000000      32.80300000       3.59800000
 H       7.87300000      32.85600000       3.21700000
 H       7.09500000      31.99000000       4.15700000
 O      10.94800000      35.65700000       7.79300000
 H      10.36500000      36.47800000       7.88100000
 H      10.39100000      35.04700000       7.22400000
 O       2.13900000      37.47900000       2.63500000
 H       2.00300000      36.55700000       2.88700000
 H       3.11800000      37.39200000       2.61900000
 O       0.95500000      34.19200000       4.76100000
 H       0.32000000      34.83500000       4.43900000
 H       1.67300000      34.27900000       4.09800000
 O       5.59800000      34.87700000       1.01800000
 H       6.45900000      34.87900000       1.49600000
 H       5.49600000      33.93500000       0.64800000
 O       2.91700000      34.72400000       1.76500000
 H       3.29000000      33.92700000       2.22700000
 H       3.77900000      35.20400000       1.49300000
 O       4.03800000      32.56600000       3.46500000
 H       4.93300000      32.68000000       3.12700000
 H       3.99200000      32.98800000       4.33900000
 O       2.16900000      36.46300000       6.53900000
 H       2.01800000      37.44200000       6.55000000
 H       1.40000000      36.18600000       6.08600000
 O       3.82900000      33.83400000       6.15100000
 H       3.12500000      34.63200000       6.15900000
 H       3.68700000      33.62800000       7.03700000
 O      10.20700000      33.37700000      10.20300000
 H      11.00800000      33.40300000      10.80400000
 H       9.55900000      33.97200000      10.62800000
 O       7.36000000      35.95300000       4.54100000
 H       7.20100000      35.16700000       3.97700000
 H       6.72300000      35.93400000       5.34700000
 O       5.51500000      36.25700000       6.61000000
 H       5.53900000      37.03200000       7.16400000
 H       4.54700000      36.16500000       6.71000000
 O       5.14000000      34.18300000       9.59600000
 H       4.26000000      34.33800000      10.12100000
 H       5.40000000      33.38600000      10.12400000
