138
XYZ file of cluster: frame_3000_716fd.99145.731e1 - created by MolEdiTo
 O      19.68200000      30.28500000      19.88500000
 H      19.14100000      30.21400000      19.07500000
 H      19.24000000      29.71900000      20.47900000
 O      15.39600000      27.22100000      21.78000000
 H      15.31000000      27.11900000      22.77300000
 H      16.34200000      27.17900000      21.74200000
 O      17.97000000      25.64200000      25.62800000
 H      18.09200000      24.70200000      25.33200000
 H      16.99800000      25.67300000      25.86700000
 O      18.32400000      23.54900000      23.26700000
 H      19.04700000      22.86500000      23.10800000
 H      17.56500000      22.86400000      23.31300000
 O      20.40500000      21.50600000      21.45500000
 H      20.58800000      21.42900000      20.49000000
 H      21.29700000      21.35900000      21.92600000
 O      16.58700000      21.93700000      16.34900000
 H      16.98200000      21.79800000      17.24600000
 H      16.08000000      22.74500000      16.61100000
 O      19.31600000      21.16800000      18.36500000
 H      19.71500000      21.59700000      17.50100000
 H      19.03600000      20.27300000      18.05100000
 O      15.66600000      30.67700000      15.33800000
 H      16.21300000      29.90400000      15.68100000
 H      16.17200000      31.48100000      15.58200000
 O      22.11900000      24.86700000      15.87500000
 H      21.97700000      24.90300000      14.89500000
 H      22.58700000      24.02900000      15.90700000
 O      20.05800000      25.98200000      17.53800000
 H      20.71400000      25.51700000      16.98600000
 H      19.18700000      25.69700000      17.19000000
 O      26.47100000      29.15700000      17.19300000
 H      27.32600000      28.81100000      17.24400000
 H      26.02900000      28.56900000      17.73300000
 O      15.95800000      21.83900000      23.88200000
 H      15.26300000      22.43900000      23.98900000
 H      15.48100000      21.13200000      23.27200000
 O      20.02300000      26.14400000      20.15800000
 H      20.97100000      26.29400000      20.19100000
 H      19.89400000      25.92900000      19.19000000
 O      24.92900000      27.71100000      19.20500000
 H      24.58600000      27.35200000      18.36400000
 H      25.47900000      26.97300000      19.55600000
 O      15.17000000      22.26500000      19.69200000
 H      14.59100000      22.12700000      20.46300000
 H      16.05200000      22.27000000      20.08800000
 O      22.86000000      20.07800000      26.42100000
 H      22.66100000      19.73900000      25.51600000
 H      23.03200000      21.05700000      26.22400000
 O      22.88000000      22.37500000      16.92900000
 H      23.36500000      21.57200000      16.59300000
 H      21.97300000      22.08300000      16.76500000
 O      18.89800000      28.96200000      22.20600000
 H      18.72900000      27.97100000      21.99600000
 H      18.50900000      29.11800000      23.05500000
 O      15.97000000      24.47100000      15.19500000
 H      16.15100000      24.73500000      16.13400000
 H      15.11500000      24.86200000      14.97000000
 O      24.19200000      26.43900000      16.65200000
 H      24.28600000      26.41200000      15.73700000
 H      23.25700000      26.22200000      16.81300000
 O      18.04300000      26.39900000      21.99700000
 H      17.99500000      25.55500000      22.46200000
 H      18.69200000      26.21200000      21.29100000
 O      26.30700000      30.75600000      24.19000000
 H      25.60800000      30.88500000      24.88300000
 H      27.21200000      30.76300000      24.56800000
 O      17.39500000      28.30000000      19.33200000
 H      16.89800000      27.46000000      19.17100000
 H      18.27500000      27.88400000      19.57400000
 O      18.56300000      28.47500000      25.23800000
 H      18.21200000      27.60300000      24.92600000
 H      17.94500000      28.55600000      26.00500000
 O      26.80100000      25.41300000      16.31000000
 H      27.50800000      25.10900000      16.92300000
 H      25.99400000      25.07500000      16.65000000
 O      23.64200000      22.70400000      25.19100000
 H      24.59100000      22.63800000      25.39400000
 H      23.51500000      23.66600000      25.43900000
 O      15.40000000      30.51300000      19.50600000
 H      16.04600000      31.24700000      19.62500000
 H      15.87700000      29.71600000      19.74300000
 O      17.53000000      23.79300000      20.50300000
 H      17.76800000      23.94600000      21.48400000
 H      18.37300000      23.32300000      20.17100000
 O      17.47900000      29.01800000      16.44800000
 H      17.40900000      28.88700000      17.43000000
 H      17.94100000      28.22200000      16.02200000
 O      17.14600000      25.00900000      17.92900000
 H      17.04100000      24.72200000      18.87200000
 H      16.24500000      25.43500000      17.81900000
 O      23.36900000      22.75900000      22.14700000
 H      22.52200000      23.31500000      22.05000000
 H      23.53400000      22.77100000      23.13100000
 O      24.81700000      23.32400000      15.07700000
 H      24.60300000      23.06500000      15.96500000
 H      25.28600000      22.52900000      14.72700000
 O      21.07500000      24.49100000      22.14400000
 H      20.45400000      24.57200000      21.39700000
 H      21.12400000      25.41500000      22.37000000
 O      24.65100000      27.52300000      23.38600000
 H      23.79600000      27.69500000      22.93800000
 H      24.67400000      26.49600000      23.41100000
 O      22.70100000      26.26900000      20.40300000
 H      23.23900000      25.69500000      20.98600000
 H      23.37500000      26.79000000      19.78300000
 O      26.12600000      21.72000000      21.84800000
 H      25.95900000      21.51600000      22.81300000
 H      25.29800000      22.13900000      21.50500000
 O      23.92700000      29.58900000      21.61500000
 H      24.41400000      29.26300000      22.40300000
 H      24.08200000      28.94300000      20.89100000
 O      16.11400000      30.40300000      23.23600000
 H      15.53300000      29.68200000      23.49700000
 H      16.12800000      30.81900000      24.12200000
 O      25.90200000      25.13700000      20.24400000
 H      25.18400000      24.37000000      20.10100000
 H      26.53200000      24.89000000      19.49300000
 O      19.83500000      30.83200000      16.47900000
 H      19.36000000      30.03600000      16.38900000
 H      20.56400000      30.47100000      17.00300000
 O      23.83700000      23.67900000      19.33600000
 H      23.65900000      22.87100000      19.89600000
 H      23.19300000      23.61300000      18.63100000
 O      20.18600000      21.68600000      15.69400000
 H      19.72700000      22.34700000      15.18300000
 H      20.26100000      20.93500000      15.02300000
 O      25.52500000      24.61100000      23.40900000
 H      26.38100000      24.78300000      23.87600000
 H      25.80300000      24.89000000      22.48900000
 O      22.25700000      27.62900000      26.00000000
 H      22.33300000      27.10300000      25.26600000
 H      23.06500000      27.43400000      26.51800000
 O      21.66600000      24.64700000      26.77300000
 H      21.36000000      24.44800000      25.85400000
 H      20.98200000      24.33600000      27.37100000
 O      21.71900000      28.00700000      22.81800000
 H      20.92300000      27.84900000      23.39900000
 H      21.47500000      28.92700000      22.53400000
