102
XYZ file of cluster: frame_3000_9b09b.99145.c57f8 - created by MolEdiTo
 O      21.07400000      28.41200000      30.32700000
 H      21.63700000      28.50400000      29.54900000
 H      21.18600000      29.22400000      30.85000000
 O      28.34800000      29.13900000      30.18600000
 H      27.95000000      28.63200000      30.96900000
 H      27.65200000      28.98000000      29.51600000
 O      29.80800000      28.18500000      26.51100000
 H      29.63300000      27.58300000      27.24800000
 H      30.72400000      28.01500000      26.27800000
 O      24.94100000      28.21200000      30.31100000
 H      25.40200000      27.39200000      30.69500000
 H      24.67600000      28.62000000      31.15700000
 O      24.94700000      25.62400000      26.53600000
 H      24.97300000      26.55500000      26.78700000
 H      25.91700000      25.45000000      26.45100000
 O      28.27800000      20.38400000      30.32000000
 H      28.01700000      21.14000000      30.94500000
 H      28.68700000      20.61300000      29.46800000
 O      26.33100000      22.80400000      29.22200000
 H      25.41200000      23.15300000      29.30600000
 H      26.27700000      21.90200000      29.30500000
 O      24.73500000      28.33200000      27.48800000
 H      25.73000000      28.28200000      27.40200000
 H      24.67400000      28.24100000      28.50600000
 O      29.40300000      22.69800000      26.85300000
 H      29.70500000      22.94400000      25.91100000
 H      28.85200000      23.44200000      27.21100000
 O      27.88200000      24.80700000      28.05300000
 H      28.18900000      25.37900000      28.81900000
 H      27.45900000      23.98100000      28.44800000
 O      23.91300000      24.22100000      29.21300000
 H      24.11400000      24.37600000      28.26200000
 H      22.96900000      24.26400000      29.21100000
 O      26.25100000      22.33300000      25.88800000
 H      26.72300000      22.76200000      26.63900000
 H      26.94700000      21.98200000      25.36300000
 O      22.86000000      20.07800000      26.42100000
 H      22.66100000      19.73900000      25.51600000
 H      23.03200000      21.05700000      26.22400000
 O      21.66600000      24.64700000      26.77300000
 H      21.36000000      24.44800000      25.85400000
 H      20.98200000      24.33600000      27.37100000
 O      28.84800000      26.08200000      30.25600000
 H      28.98600000      26.63800000      31.00500000
 H      29.35800000      25.35600000      30.63600000
 O      22.25700000      27.62900000      26.00000000
 H      22.33300000      27.10300000      25.26600000
 H      23.06500000      27.43400000      26.51800000
 O      27.20600000      28.55800000      27.31400000
 H      26.81000000      29.40600000      26.96200000
 H      28.05800000      28.39200000      26.87500000
 O      21.33700000      25.03200000      29.70700000
 H      21.00700000      25.55100000      28.96200000
 H      20.45300000      24.75700000      30.06900000
 O      20.83500000      29.06500000      34.71300000
 H      21.11800000      28.09000000      34.73500000
 H      20.96300000      29.36200000      33.73500000
 O      27.27400000      23.14600000      33.06700000
 H      26.78300000      23.19800000      32.27300000
 H      26.80700000      23.45400000      33.82400000
 O      22.65000000      26.17500000      34.21300000
 H      22.30300000      26.15000000      33.28700000
 H      23.51400000      26.58300000      34.07900000
 O      24.43300000      23.77600000      34.31400000
 H      23.67700000      24.42200000      34.43800000
 H      25.12300000      24.29300000      33.79800000
 O      29.82000000      23.56100000      31.85800000
 H      29.04400000      23.34700000      32.48400000
 H      30.69400000      23.70500000      32.33800000
 O      28.77000000      26.11300000      35.34200000
 H      28.29400000      25.24900000      35.65500000
 H      29.13700000      26.40200000      36.17800000
 O      20.51400000      21.31300000      35.82900000
 H      21.31900000      20.87500000      35.52700000
 H      19.94200000      20.57200000      35.81500000
 O      29.56200000      20.74700000      34.92000000
 H      30.22600000      20.00100000      34.75300000
 H      29.51400000      21.21400000      34.03700000
 O      22.13800000      21.96900000      32.68400000
 H      22.27000000      22.58500000      31.90100000
 H      22.13100000      22.54500000      33.45900000
 O      23.75100000      21.93500000      36.22700000
 H      23.82300000      22.61100000      35.55800000
 H      24.44800000      21.27800000      36.04500000
 O      25.64100000      25.19500000      32.33600000
 H      25.14500000      25.19000000      31.49200000
 H      26.48100000      25.59300000      32.18600000
 O      20.52100000      25.27100000      35.78200000
 H      21.27900000      25.42600000      35.25800000
 H      20.61400000      24.29700000      35.98600000
 O      27.28000000      23.71400000      35.92200000
 H      26.41200000      24.06600000      36.32400000
 H      26.96700000      22.79700000      35.90400000
 O      30.53900000      27.63100000      37.17800000
 H      30.79000000      27.95000000      36.25000000
 H      31.32000000      27.14800000      37.49100000
 O      24.59200000      28.81300000      34.49900000
 H      24.41600000      28.47800000      35.40700000
 H      25.19200000      29.48800000      34.70400000
 O      27.10700000      27.37000000      33.75300000
 H      26.67900000      28.06500000      34.21900000
 H      27.74500000      26.99100000      34.44300000
