145
XYZ file of cluster: frame_3000_492a5.4a31a.486a1 - created by MolEdiTo
 O      15.03900000      17.66800000       9.81900000
 H      15.51700000      18.03500000      10.61700000
 H      14.67700000      18.45000000       9.26400000
 O      16.74700000      13.11800000      12.17700000
 H      17.19300000      12.21200000      11.99100000
 H      16.69600000      13.33100000      13.12200000
 O      19.11300000      14.44700000      20.61900000
 H      18.54700000      15.27300000      20.59300000
 H      19.59900000      14.62500000      19.75600000
 O      11.49100000      16.12600000      17.22600000
 H      12.05300000      16.03300000      18.08400000
 H      12.12100000      16.49200000      16.51200000
 O      17.63500000      16.86500000      20.06800000
 H      16.71200000      16.67900000      19.75600000
 H      17.59100000      17.79400000      20.43400000
 O      16.36600000      19.75400000      14.61500000
 H      17.13800000      19.36000000      15.14800000
 H      16.44700000      20.71100000      14.81300000
 O      12.31000000      13.11700000      20.83100000
 H      12.91500000      13.71400000      20.36200000
 H      11.83000000      13.57400000      21.59000000
 O      11.35000000      19.76000000      17.62300000
 H      10.64500000      19.54900000      18.26000000
 H      11.47400000      20.65400000      17.74800000
 O      19.31600000      21.16800000      18.36500000
 H      19.71500000      21.59700000      17.50100000
 H      19.03600000      20.27300000      18.05100000
 O      10.60400000      12.02300000      16.78100000
 H      11.08000000      11.19500000      16.88400000
 H      11.24200000      12.70000000      16.38700000
 O       9.98800000      16.75000000      14.14500000
 H      10.80800000      16.42700000      13.84900000
 H       9.41100000      16.63800000      13.36000000
 O      18.47200000      19.27100000      16.02800000
 H      19.09700000      19.50000000      15.31300000
 H      18.82300000      18.45700000      16.46900000
 O      13.19100000      20.42400000      14.36300000
 H      13.88500000      19.71400000      14.55100000
 H      13.52100000      21.00700000      13.59000000
 O      19.50600000      17.30200000      13.08600000
 H      19.16900000      17.34400000      12.16000000
 H      19.82000000      16.34500000      13.08900000
 O      14.20900000      11.07400000      15.88900000
 H      14.40400000      10.71300000      15.00300000
 H      13.79900000      11.96200000      15.74900000
 C      15.85200000      14.96300000      16.88600000
 C      16.26000000      14.97700000      15.41800000
 C      14.39400000      16.74800000      14.92900000
 H      16.53200000      17.09600000      15.52600000
 H      17.12400000      16.26100000      17.23600000
 O      16.32700000      16.45600000      13.49900000
 O      14.98300000      14.21400000      17.25500000
 O      16.51600000      15.69900000      17.74800000
 C      15.95400000      16.43400000      14.91000000
 O      17.66400000      14.77500000      15.18900000
 H      15.66200000      14.21400000      14.90100000
 O      13.49600000      16.21900000      15.54100000
 O      14.08800000      17.85100000      14.23200000
 H      15.04100000      18.12600000      13.88100000
 H      17.91400000      13.95600000      15.78500000
 H      17.28600000      16.21500000      13.43000000
 O      20.28500000      11.08700000      20.27400000
 H      20.08000000      10.45200000      19.49300000
 H      20.88800000      10.49000000      20.75400000
 O      17.04800000      12.83400000      19.42100000
 H      17.59200000      13.49900000      19.82200000
 H      17.27900000      11.95600000      19.87100000
 O      10.53800000      19.93800000      13.89200000
 H      10.24100000      19.50500000      14.67000000
 H      11.51100000      20.10200000      14.02600000
 O      10.92200000      12.01900000      10.11100000
 H      10.22800000      12.47600000      10.55800000
 H      10.99600000      11.12500000      10.54500000
 O      11.88800000      10.36600000      21.05100000
 H      12.50000000      10.19300000      20.30100000
 H      11.85100000      11.33100000      20.92100000
 O      13.98200000      10.45500000      18.72200000
 H      14.58600000      10.97100000      19.28900000
 H      13.88800000      10.97200000      17.83200000
 O      20.15100000      19.97900000      13.62000000
 H      19.91000000      20.50300000      12.86400000
 H      19.95700000      18.99500000      13.38800000
 O      21.33100000      15.23600000      10.80600000
 H      20.60200000      15.88300000      10.80500000
 H      21.02700000      14.47000000      10.29100000
 O      18.06200000      12.53200000      16.79600000
 H      18.84800000      12.00800000      17.00600000
 H      17.60100000      12.51900000      17.67600000
 O      20.38200000      17.56100000      19.74500000
 H      20.55200000      16.64000000      19.97000000
 H      20.38100000      17.82600000      20.66000000
 O      19.99800000      14.38200000      13.28600000
 H      19.10600000      13.93800000      13.23100000
 H      20.09200000      14.40100000      14.20000000
 O      17.62600000      19.49100000      20.57500000
 H      18.51400000      19.76200000      20.23000000
 H      17.41300000      20.13000000      21.23900000
 O      12.82200000      13.35100000      15.49000000
 H      12.94100000      13.59600000      14.55900000
 H      13.08300000      14.15400000      16.00100000
 O      14.89700000      11.16100000      11.68700000
 H      14.13500000      10.61600000      11.96700000
 H      15.71600000      10.70100000      12.10100000
 O      15.26400000      14.22100000       9.95300000
 H      15.60800000      13.53300000      10.59500000
 H      16.12000000      14.74800000       9.70900000
 O      11.99400000      15.65700000      11.06800000
 H      12.50600000      16.58100000      11.05900000
 H      12.43600000      14.97500000      11.56700000
 O      14.52200000      17.09100000      19.95500000
 H      14.37100000      17.36200000      20.85200000
 H      14.39400000      17.82600000      19.31800000
 O      13.83500000      18.66800000      17.23000000
 H      14.22600000      19.52500000      17.24600000
 H      12.88600000      18.90600000      16.95800000
 O      14.79300000      14.37000000      20.25000000
 H      15.01900000      15.28500000      19.82000000
 H      15.58800000      13.79700000      19.96900000
 O      13.81700000      14.12500000      12.62200000
 H      13.74300000      13.28300000      12.10600000
 H      14.69000000      14.53600000      12.35300000
 O      20.82500000      14.10500000      15.79500000
 H      21.57000000      14.65000000      16.16200000
 H      21.14600000      13.15400000      15.82400000
 O      16.01800000      18.89000000      12.02400000
 H      16.58900000      18.33200000      12.66000000
 H      16.33900000      19.77400000      12.22400000
 O      20.18600000      21.68600000      15.69400000
 H      19.72700000      22.34700000      15.18300000
 H      20.26100000      20.93500000      15.02300000
 O      19.43500000      16.28800000      17.08400000
 H      19.73500000      15.62200000      16.44500000
 H      20.30800000      16.55200000      17.52900000
 O      21.13800000      11.30700000      16.68200000
 H      20.58700000      10.71700000      17.22600000
 H      21.95300000      11.38900000      17.23700000
 O      18.26900000      11.62700000      14.21700000
 H      18.13400000      11.85300000      15.18000000
 H      18.90300000      10.87200000      14.32700000
 O      16.63100000       9.89900000      17.12400000
 H      16.03700000       9.56700000      17.79400000
 H      16.04700000      10.64000000      16.75400000
 O      12.13300000      21.47400000      11.62700000
 H      11.52600000      21.93800000      11.06500000
 H      11.53000000      20.92600000      12.13500000
