135
XYZ file of cluster: frame_3000_474aa.98e2b.4787f - created by MolEdiTo
 O      14.90300000      26.77200000      17.30000000
 H      14.26000000      26.04500000      17.25100000
 H      14.56300000      27.30200000      16.54900000
 O      11.53700000      28.81600000      11.76800000
 H      12.36200000      28.43700000      12.07800000
 H      10.99900000      28.06300000      11.43900000
 O      19.68200000      30.28500000      19.88500000
 H      19.14100000      30.21400000      19.07500000
 H      19.24000000      29.71900000      20.47900000
 O      10.37300000      24.87700000      11.55200000
 H      11.15700000      24.68800000      10.96600000
 H       9.65400000      25.09000000      10.91600000
 O      12.29300000      28.96900000      16.28300000
 H      12.85000000      29.17700000      17.05100000
 H      12.84500000      28.55300000      15.62500000
 O      17.09900000      24.30500000      10.74100000
 H      17.51000000      24.01200000       9.79500000
 H      16.50500000      23.59200000      11.06800000
 O      18.65400000      24.19600000      14.55800000
 H      18.86900000      24.73800000      13.73900000
 H      17.71900000      24.56100000      14.67400000
 O      20.40500000      21.50600000      21.45500000
 H      20.58800000      21.42900000      20.49000000
 H      21.29700000      21.35900000      21.92600000
 O      12.57300000      25.23200000      15.33600000
 H      12.99500000      25.52000000      14.50700000
 H      12.27000000      24.32800000      15.11200000
 O      19.97600000      29.48800000      12.56400000
 H      20.07500000      30.35800000      12.00800000
 H      19.32300000      29.00000000      12.10000000
 O      12.94500000      27.67000000      20.93200000
 H      13.67500000      27.82100000      21.56300000
 H      12.73600000      28.54700000      20.57600000
 O      16.58700000      21.93700000      16.34900000
 H      16.98200000      21.79800000      17.24600000
 H      16.08000000      22.74500000      16.61100000
 O      19.31600000      21.16800000      18.36500000
 H      19.71500000      21.59700000      17.50100000
 H      19.03600000      20.27300000      18.05100000
 O      15.66600000      30.67700000      15.33800000
 H      16.21300000      29.90400000      15.68100000
 H      16.17200000      31.48100000      15.58200000
 O      21.15500000      22.88200000      10.51900000
 H      20.31200000      22.40200000      10.53700000
 H      21.69000000      22.34400000       9.91700000
 O      17.34700000      22.27100000      12.83000000
 H      16.46800000      22.62400000      12.72300000
 H      17.63400000      22.72700000      13.68300000
 O      13.19100000      20.42400000      14.36300000
 H      13.88500000      19.71400000      14.55100000
 H      13.52100000      21.00700000      13.59000000
 O      20.05800000      25.98200000      17.53800000
 H      20.71400000      25.51700000      16.98600000
 H      19.18700000      25.69700000      17.19000000
 O      13.30600000      25.48600000      12.55100000
 H      12.39200000      25.69100000      12.25600000
 H      13.96500000      26.21300000      12.35500000
 O       9.86400000      25.98000000      16.31600000
 H      10.82700000      26.02300000      15.98200000
 H       9.43100000      26.84600000      16.06600000
 O      15.17000000      22.26500000      19.69200000
 H      14.59100000      22.12700000      20.46300000
 H      16.05200000      22.27000000      20.08800000
 O      20.02300000      26.14400000      20.15800000
 H      20.97100000      26.29400000      20.19100000
 H      19.89400000      25.92900000      19.19000000
 O      17.28500000      27.24000000       9.72700000
 H      17.41900000      26.72800000      10.52300000
 H      17.04200000      26.49100000       9.15100000
 O      12.26300000      22.14500000      16.47700000
 H      12.60700000      21.48600000      15.81400000
 H      11.25600000      22.08700000      16.33400000
 O      15.97000000      24.47100000      15.19500000
 H      16.15100000      24.73500000      16.13400000
 H      15.11500000      24.86200000      14.97000000
 O      17.39500000      28.30000000      19.33200000
 H      16.89800000      27.46000000      19.17100000
 H      18.27500000      27.88400000      19.57400000
 O      15.40000000      30.51300000      19.50600000
 H      16.04600000      31.24700000      19.62500000
 H      15.87700000      29.71600000      19.74300000
 O       9.95000000      27.99500000      14.52500000
 H      10.68200000      28.63600000      14.54900000
 H       9.17000000      28.61700000      14.24000000
 O      14.58200000      22.94400000      11.83800000
 H      13.84200000      22.37700000      11.63500000
 H      14.13500000      23.82200000      12.02900000
 O      17.53000000      23.79300000      20.50300000
 H      17.76800000      23.94600000      21.48400000
 H      18.37300000      23.32300000      20.17100000
 O      16.68500000      29.89900000      12.33500000
 H      15.96200000      30.59100000      12.39400000
 H      17.30700000      30.25400000      13.00500000
 O      19.15100000      25.55500000      12.31600000
 H      19.62500000      25.74400000      11.44800000
 H      18.44600000      24.85900000      12.19300000
 O      17.47900000      29.01800000      16.44800000
 H      17.40900000      28.88700000      17.43000000
 H      17.94100000      28.22200000      16.02200000
 O      17.14600000      25.00900000      17.92900000
 H      17.04100000      24.72200000      18.87200000
 H      16.24500000      25.43500000      17.81900000
 O      15.31200000      27.55000000      11.92900000
 H      15.47000000      27.63700000      10.97300000
 H      15.81900000      28.30200000      12.22400000
 O      14.58400000      28.25800000      14.91800000
 H      15.10800000      28.10900000      14.09900000
 H      14.63200000      29.20000000      15.11700000
 O      10.75800000      23.15400000      20.01700000
 H      10.16600000      22.88700000      19.26600000
 H      10.83100000      24.08000000      19.71900000
 O      19.08600000      27.36200000      14.41000000
 H      19.66800000      28.10400000      14.19500000
 H      18.96900000      26.94600000      13.51800000
 O      11.73300000      25.64200000      19.28600000
 H      12.31200000      25.89400000      20.08400000
 H      12.39500000      25.32000000      18.59500000
 O      19.83500000      30.83200000      16.47900000
 H      19.36000000      30.03600000      16.38900000
 H      20.56400000      30.47100000      17.00300000
 O      20.18600000      21.68600000      15.69400000
 H      19.72700000      22.34700000      15.18300000
 H      20.26100000      20.93500000      15.02300000
 O      18.79900000      21.58300000      10.82000000
 H      18.15700000      21.20600000      10.20300000
 H      18.21600000      21.84800000      11.65300000
 O      12.67000000      21.06400000      20.71700000
 H      11.81400000      21.16800000      21.21400000
 H      12.49700000      21.77200000      20.02600000
 O      12.13300000      21.47400000      11.62700000
 H      11.52600000      21.93800000      11.06500000
 H      11.53000000      20.92600000      12.13500000
 O      14.02600000      24.16300000      17.92900000
 H      14.44900000      23.46700000      18.52200000
 H      13.24300000      23.63500000      17.55500000
