138
XYZ file of cluster: frame_3000_97d1b.7037a.1f265 - created by MolEdiTo
 O      21.83600000      26.44200000       7.02700000
 H      21.24000000      25.85700000       6.41200000
 H      21.77000000      26.04300000       7.89100000
 O      27.42600000      21.90200000      15.90300000
 H      27.15700000      21.81400000      16.87100000
 H      27.29500000      20.93400000      15.53100000
 O      28.53900000      23.52400000      10.27600000
 H      28.28600000      23.66600000      11.24800000
 H      27.80900000      23.12600000       9.80600000
 O      30.46300000      16.96300000       9.66300000
 H      31.01800000      16.81900000      10.38700000
 H      30.66600000      16.25500000       9.04800000
 O      28.24100000      15.50500000      11.54400000
 H      29.09100000      15.74500000      11.97500000
 H      28.24700000      16.26300000      10.88700000
 O      24.82700000      18.62600000       6.99800000
 H      25.76100000      18.29500000       7.21300000
 H      24.74400000      19.57200000       7.31200000
 O      27.43500000      23.78000000      13.57700000
 H      27.18900000      23.53800000      14.52600000
 H      27.45600000      22.93400000      13.14200000
 O      22.11900000      24.86700000      15.87500000
 H      21.97700000      24.90300000      14.89500000
 H      22.58700000      24.02900000      15.90700000
 O      21.15500000      22.88200000      10.51900000
 H      20.31200000      22.40200000      10.53700000
 H      21.69000000      22.34400000       9.91700000
 O      22.63100000      23.60500000      13.46300000
 H      22.80700000      24.16400000      12.77800000
 H      23.47900000      23.50700000      13.96600000
 O      29.82200000      21.65000000      14.03800000
 H      30.05200000      22.40800000      13.51400000
 H      28.97800000      21.87900000      14.48300000
 O      27.34800000      19.68000000       7.86100000
 H      27.40700000      19.91600000       8.81000000
 H      28.28300000      19.78800000       7.57700000
 O      23.43700000      24.48400000       8.64300000
 H      22.59100000      24.81400000       8.87400000
 H      23.85600000      24.43300000       9.56000000
 O      26.58700000      20.96800000      11.61300000
 H      25.84300000      20.44900000      11.98200000
 H      27.18600000      20.27000000      11.38400000
 O      23.18400000      16.26000000       7.11600000
 H      23.42800000      17.20000000       7.22500000
 H      22.83800000      16.20800000       6.20900000
 O      27.42000000      22.91100000       7.57900000
 H      26.49300000      22.71500000       7.73200000
 H      27.88500000      22.16700000       7.16300000
 O      28.35900000      18.67800000      10.72300000
 H      28.99600000      18.18200000      10.18200000
 H      28.80300000      18.73700000      11.58100000
 O      27.29800000      15.96800000      14.25400000
 H      28.19900000      16.26100000      14.45700000
 H      27.53300000      15.33600000      13.50100000
 O      27.68200000      16.64800000       9.00300000
 H      26.72400000      16.33200000       9.25200000
 H      27.65700000      17.56500000       8.98300000
 O      21.33100000      15.23600000      10.80600000
 H      20.60200000      15.88300000      10.80500000
 H      21.02700000      14.47000000      10.29100000
 O      28.27200000      25.47800000       7.29000000
 H      27.99200000      24.50700000       7.33500000
 H      29.26300000      25.59700000       7.46900000
 O      24.78500000      22.40200000       7.54600000
 H      24.36800000      21.87500000       6.82600000
 H      24.12400000      23.11900000       7.70800000
 O      20.38100000      23.78500000       7.21700000
 H      19.52800000      23.53200000       7.66400000
 H      21.09300000      23.29800000       7.73300000
 O      25.18800000      26.52900000      13.77300000
 H      25.66200000      26.45400000      12.89300000
 H      25.65900000      25.82000000      14.30200000
 O      24.46300000      25.32500000       5.70600000
 H      23.65700000      25.75000000       5.52900000
 H      24.38600000      25.49500000       6.66300000
 O      23.95400000      19.38700000      13.02900000
 H      23.57400000      19.45800000      13.90600000
 H      23.26100000      19.59100000      12.39400000
 O      30.49000000      25.75900000       8.82300000
 H      30.01600000      25.03300000       9.36300000
 H      31.40300000      25.94600000       9.19800000
 O      29.94400000      17.07300000      13.15300000
 H      30.55300000      17.83100000      12.95100000
 H      30.16800000      16.75400000      14.10600000
 O      22.02000000      18.71300000      15.08600000
 H      21.44700000      19.22800000      14.42600000
 H      21.76100000      19.03700000      15.92400000
 O      26.40500000      20.57400000       5.13300000
 H      26.55500000      19.75600000       5.68000000
 H      26.34200000      20.28600000       4.15800000
 O      27.92600000      16.77100000       4.73200000
 H      28.46800000      16.67400000       5.52100000
 H      28.50500000      16.48100000       3.98500000
 O      22.49100000      17.79600000      11.50700000
 H      22.15600000      18.00400000      10.59300000
 H      22.64900000      16.81200000      11.58300000
 O      24.94100000      23.52000000      10.86000000
 H      25.53200000      24.30900000      11.05500000
 H      25.48900000      22.80300000      11.20400000
 O      25.46200000      15.41300000       9.56600000
 H      25.13900000      16.12500000      10.18200000
 H      24.59300000      15.40000000       9.05900000
 O      21.51300000      18.81000000       6.33100000
 H      22.17000000      19.45800000       6.07300000
 H      21.73700000      18.11400000       5.68800000
 O      26.33100000      26.02000000      11.22900000
 H      27.19700000      25.77500000      11.60200000
 H      26.52100000      26.47900000      10.40700000
 O      21.57100000      25.51100000      10.01000000
 H      21.75900000      26.20300000      10.64500000
 H      21.24100000      24.64200000      10.39000000
 O      23.31200000      20.22100000       9.48800000
 H      23.72400000      21.12900000       9.31400000
 H      22.49000000      20.14900000       8.86400000
 O      27.11400000      19.26800000      14.74600000
 H      27.74000000      18.60000000      14.92000000
 H      26.26700000      18.78500000      14.83400000
 O      24.81700000      23.32400000      15.07700000
 H      24.60300000      23.06500000      15.96500000
 H      25.28600000      22.52900000      14.72700000
 O      25.20900000      17.08700000      15.40900000
 H      24.53700000      17.11700000      14.65500000
 H      26.00100000      16.65400000      14.98200000
 O      25.27400000      18.10700000      10.65000000
 H      24.65800000      18.59000000       9.99800000
 H      24.74100000      18.28000000      11.45800000
 O      29.62700000      22.49700000       5.82000000
 H      28.84900000      23.08800000       5.56700000
 H      29.41400000      21.68100000       5.29100000
 O      21.32100000      21.42800000       7.77200000
 H      21.62100000      21.69000000       6.81700000
 H      20.61700000      20.79400000       7.59000000
 O      30.34700000      19.42400000       8.28500000
 H      30.96400000      19.76700000       7.59500000
 H      30.57300000      18.62900000       8.71300000
 O      23.47400000      15.69700000      13.46200000
 H      23.32300000      14.84200000      13.98900000
 H      22.54600000      15.83900000      13.18300000
