1095
XYZ file of cluster: frame_14000_9de14.735d7.0 - created by MolEdiTo
 O      36.29600000      28.02500000      19.96000000
 H      35.71200000      28.72600000      20.38300000
 H      35.94200000      27.19300000      20.32000000
 O      36.31000000      22.71600000      15.49800000
 H      35.94300000      23.55000000      15.06700000
 H      36.27300000      23.03100000      16.43400000
 O      38.27900000      25.92300000      10.04300000
 H      38.99400000      25.20500000      10.04500000
 H      37.91400000      25.70600000       9.17700000
 O      39.75800000      22.05700000      22.90900000
 H      40.19600000      22.00700000      21.98800000
 H      40.59800000      22.31400000      23.35400000
 O      32.79400000      24.18200000      11.07100000
 H      33.09600000      24.89500000      10.48600000
 H      33.27200000      23.42700000      10.67800000
 O      35.40000000      25.08800000      23.92900000
 H      35.84800000      25.99900000      23.98900000
 H      36.16900000      24.52100000      23.75800000
 O      35.00600000      28.11800000      22.79900000
 H      34.80300000      27.87500000      23.69900000
 H      35.90500000      28.55700000      22.92000000
 O      31.10200000      34.79400000      16.61400000
 H      30.37500000      34.89500000      17.27100000
 H      31.45600000      33.91500000      16.81000000
 O      34.15600000      31.94300000       4.85400000
 H      34.39300000      31.49800000       3.96900000
 H      34.69500000      31.26500000       5.40300000
 O      30.27600000      31.91400000      14.85000000
 H      30.11300000      31.54800000      15.70800000
 H      29.34500000      32.09300000      14.51300000
 O      28.23200000      23.83700000      12.69100000
 H      28.83000000      23.15400000      13.11800000
 H      27.70200000      24.08600000      13.52200000
 O      35.13100000      38.94100000       2.81600000
 H      35.20900000      39.42000000       3.70200000
 H      34.70500000      38.12300000       3.15300000
 O      27.82900000      25.60600000      27.10200000
 H      28.44500000      25.35600000      27.82700000
 H      28.15900000      24.95600000      26.42800000
 O      30.59800000      20.22000000      33.58700000
 H      29.98000000      20.19500000      34.38900000
 H      30.63300000      21.17900000      33.47900000
 O      36.43000000      30.95200000      18.22100000
 H      36.23500000      30.86500000      19.16000000
 H      37.14000000      31.57800000      18.24900000
 O      37.08700000      31.13400000      12.43200000
 H      37.33100000      30.30800000      12.98200000
 H      36.95100000      30.57800000      11.58700000
 O      35.60900000      28.25500000       8.53100000
 H      34.77400000      28.63300000       8.20600000
 H      35.99500000      27.84300000       7.71000000
 O      29.60100000      26.01900000      24.65100000
 H      28.87800000      26.67000000      24.87100000
 H      30.40800000      26.52200000      24.80200000
 O      29.11200000      33.33600000      37.55900000
 H      29.30600000      34.29500000      37.79600000
 H      29.64500000      32.88400000      38.22500000
 O      32.99000000      21.32400000       2.76600000
 H      33.75700000      21.85800000       2.62600000
 H      33.33300000      20.45700000       2.39600000
 O      38.05500000      25.86900000      40.25200000
 H      37.65700000      25.13500000      40.77200000
 H      39.00500000      25.68100000      40.32800000
 O      35.74600000      35.25000000      23.28300000
 H      36.28400000      35.73000000      22.63800000
 H      34.85100000      35.37000000      22.97300000
 O      33.55800000      24.09700000       5.09700000
 H      34.25600000      23.50800000       5.50800000
 H      32.76800000      23.76600000       5.50500000
 O      35.46400000      34.59100000      33.58900000
 H      35.45100000      33.74600000      34.12300000
 H      34.54700000      34.90300000      33.72900000
 O      28.39200000      22.61600000      37.25900000
 H      27.52600000      23.00600000      36.82200000
 H      28.34500000      23.14900000      38.06500000
 O      40.20500000      23.74200000       9.76900000
 H      40.89500000      24.44400000       9.68800000
 H      40.79700000      23.00300000      10.07900000
 O      33.47900000      34.10300000      18.94600000
 H      32.78100000      34.58000000      19.42200000
 H      33.03100000      33.42800000      18.48300000
 O      38.69300000      38.20600000      25.76900000
 H      37.92900000      37.56200000      25.67200000
 H      38.22100000      38.92100000      26.22300000
 O      34.95900000      26.66400000      17.36600000
 H      34.84300000      25.85200000      16.90000000
 H      35.87500000      26.93300000      17.18100000
 O      32.09100000      32.50100000      23.24000000
 H      32.30700000      32.59500000      24.23000000
 H      33.01300000      32.59400000      22.86400000
 O      36.21700000      28.54000000      31.47200000
 H      35.53700000      27.88400000      31.44800000
 H      36.99000000      27.98100000      31.08300000
 O      34.36500000      28.77500000      33.96300000
 H      34.94800000      28.37700000      34.53300000
 H      34.78800000      28.70200000      33.08700000
 O      39.88000000      20.55400000      18.42800000
 H      39.54300000      20.20800000      17.60200000
 H      39.59000000      21.51300000      18.38900000
 O      37.36200000      29.74000000       9.99800000
 H      36.80700000      29.09300000       9.48000000
 H      37.47400000      30.42800000       9.29100000
 O      35.29400000      27.53700000      14.35600000
 H      35.89600000      28.03500000      14.96800000
 H      35.22800000      28.20300000      13.62700000
 O      36.72800000      33.53900000      11.00900000
 H      37.18200000      32.94400000      11.69300000
 H      37.41800000      33.42300000      10.28900000
 O      32.89900000      21.10400000      16.56800000
 H      32.12000000      20.57000000      16.79400000
 H      33.47400000      20.98600000      17.33100000
 O      27.76800000      37.84900000      30.58500000
 H      27.85300000      38.80700000      30.32100000
 H      28.72200000      37.58300000      30.55800000
 O      36.45000000      20.20500000      14.61300000
 H      36.10100000      20.97400000      15.08000000
 H      37.29200000      20.62600000      14.21300000
 O      28.71200000      28.38100000      30.54400000
 H      29.61100000      28.70800000      30.64100000
 H      28.56600000      28.49000000      29.57100000
 O      37.98300000      36.31000000      32.26000000
 H      38.84500000      36.14500000      32.70800000
 H      37.87700000      35.40700000      31.82300000
 O      29.75500000      26.95100000      19.73900000
 H      29.39600000      26.01900000      19.71700000
 H      30.70900000      26.80400000      19.46600000
 O      28.40300000      21.49200000      15.44400000
 H      27.80400000      22.22900000      15.41200000
 H      29.05900000      21.79900000      14.81400000
 O      37.39400000      34.70100000      17.39200000
 H      37.26600000      34.71900000      18.33500000
 H      38.36900000      34.62600000      17.29700000
 O      29.15800000      39.07700000      27.88800000
 H      29.90600000      39.21700000      28.50800000
 H      29.48100000      39.38900000      27.03700000
 O      40.29200000      28.74300000       1.21000000
 H      40.43000000      28.98200000       0.29100000
 H      39.81400000      29.50300000       1.56800000
 O      36.20400000      21.99400000      30.71000000
 H      36.74400000      21.91900000      29.91100000
 H      35.93500000      21.03900000      30.81000000
 O      33.30600000      28.30900000      25.25000000
 H      32.84500000      29.06600000      25.57500000
 H      33.26200000      27.72900000      26.01200000
 O      32.56600000      30.89200000      10.09500000
 H      33.17600000      31.67700000       9.74000000
 H      32.79500000      30.33500000       9.34800000
 O      31.56100000      35.32800000      20.35100000
 H      30.92700000      35.93600000      19.95400000
 H      30.99700000      34.88400000      20.99700000
 O      31.71400000      40.04100000      28.91500000
 H      31.66600000      40.86100000      28.35700000
 H      32.06000000      40.45300000      29.73400000
 O      39.89500000      24.96900000      29.45500000
 H      39.82800000      23.97300000      29.69100000
 H      40.11300000      25.27700000      30.37200000
 O      35.56000000      26.86600000      28.32500000
 H      35.70400000      27.81500000      28.08300000
 H      36.35400000      26.69100000      28.88500000
 O      34.97300000      38.41900000      29.45800000
 H      35.86200000      38.43900000      29.87700000
 H      34.93400000      39.34800000      29.12300000
 O      35.43100000      26.54600000      39.44300000
 H      35.12300000      25.75300000      40.02600000
 H      36.37500000      26.56600000      39.79900000
 O      37.97700000      29.61900000      36.45900000
 H      38.58800000      30.17000000      36.99200000
 H      38.17100000      28.69800000      36.83900000
 O      32.06200000      28.94200000      31.28200000
 H      32.08200000      29.75500000      30.71100000
 H      32.28800000      28.27200000      30.65600000
 O      32.83800000      30.81800000      39.83100000
 H      33.10700000      30.62500000      40.71100000
 H      33.44400000      30.27900000      39.28700000
 O      38.81400000      34.06600000      37.63700000
 H      38.16200000      34.40100000      36.96100000
 H      38.40700000      34.34500000      38.45000000
 O      40.46300000      26.17600000      37.77700000
 H      40.77900000      25.26000000      38.04300000
 H      41.30800000      26.67800000      37.88100000
 O      32.40300000      39.47600000      33.16700000
 H      31.69300000      38.86500000      32.85200000
 H      33.15000000      38.83600000      33.06500000
 O      27.53800000      21.64600000      21.68800000
 H      27.17500000      21.90500000      20.83200000
 H      28.44300000      21.94900000      21.65100000
 O      39.60800000      31.38700000      21.76500000
 H      39.16900000      30.51400000      21.84400000
 H      39.35300000      31.75700000      22.63600000
 O      35.18200000      39.92600000      21.35400000
 H      34.97300000      40.60700000      20.74700000
 H      35.74900000      39.33600000      20.98600000
 O      35.70300000      34.73200000       2.80400000
 H      35.54200000      33.97300000       2.17900000
 H      34.86200000      34.65400000       3.30300000
 O      31.10200000      37.78600000      38.96500000
 H      30.76800000      38.32500000      39.70800000
 H      31.65300000      38.44000000      38.48100000
 O      40.26800000      25.24200000      15.93600000
 H      41.09400000      25.61900000      15.57600000
 H      39.89800000      24.78200000      15.12000000
 O      39.09100000      25.95000000      19.38800000
 H      39.72700000      25.81900000      20.12100000
 H      39.29200000      26.90200000      19.20000000
 O      30.94400000      36.96600000      24.50800000
 H      31.11100000      36.42600000      23.74200000
 H      31.03000000      36.26500000      25.22300000
 O      40.68900000      29.09000000      28.77900000
 H      41.53700000      29.56000000      28.64800000
 H      40.13600000      29.80100000      29.20600000
 O      35.43300000      40.88100000      27.98100000
 H      36.26400000      40.75800000      27.64400000
 H      35.56700000      41.42000000      28.79500000
 O      37.61700000      21.34800000      12.02600000
 H      37.53000000      20.35300000      12.04700000
 H      37.73200000      21.48300000      11.11100000
 O      29.49200000      21.93400000       3.84100000
 H      29.90400000      21.06600000       3.83900000
 H      28.63100000      21.65300000       3.50700000
 O      31.84500000      28.09300000      13.53900000
 H      31.78200000      27.11700000      13.58300000
 H      32.01400000      28.35700000      14.41000000
 O      36.77100000      28.94100000      16.13300000
 H      36.89000000      29.49500000      16.88700000
 H      37.37700000      28.16900000      16.42500000
 O      34.57600000      26.98800000      10.51600000
 H      34.50800000      27.71700000      11.20600000
 H      35.06800000      27.42100000       9.79000000
 O      31.93800000      24.22400000      29.51600000
 H      32.22600000      24.60300000      30.33300000
 H      32.71000000      23.76000000      29.19800000
 O      38.72600000      30.61800000      29.96100000
 H      37.80300000      30.89000000      30.18900000
 H      39.18600000      31.02500000      30.70300000
 O      28.11700000      39.25000000      15.22700000
 H      28.30700000      38.62500000      14.49900000
 H      27.25700000      38.90800000      15.56000000
 O      31.35000000      23.04000000       6.26400000
 H      30.75800000      22.96800000       5.46700000
 H      30.65200000      23.33700000       6.96500000
 O      30.08600000      37.89900000      19.35200000
 H      29.77200000      37.13700000      18.76500000
 H      29.39300000      37.91700000      19.97000000
 O      36.05100000      40.26300000       5.20100000
 H      36.36400000      40.64200000       6.03100000
 H      36.48900000      40.93800000       4.58500000
 O      28.74700000      37.02000000       1.35500000
 H      29.33000000      37.71600000       1.44400000
 H      29.09200000      36.40900000       0.67400000
 O      30.18400000      31.78200000      21.16500000
 H      31.10900000      31.93700000      21.51600000
 H      29.68400000      31.70000000      22.00500000
 O      31.98900000      33.90000000      11.14000000
 H      32.86800000      33.63300000      10.78400000
 H      32.03600000      33.53700000      12.01200000
 O      35.14500000      32.58300000      23.36200000
 H      35.68000000      33.41100000      23.52100000
 H      35.39400000      32.09700000      24.15500000
 O      40.41000000      35.35800000       8.06800000
 H      40.10400000      36.22500000       7.75500000
 H      41.40700000      35.51100000       8.18800000
 O      28.84200000      28.71000000       1.19400000
 H      28.35600000      28.44200000       1.99600000
 H      29.68100000      28.22700000       1.44500000
 O      29.41300000      28.50300000      34.81500000
 H      30.29300000      28.04300000      34.91200000
 H      29.65700000      29.27300000      34.34200000
 O      40.41400000      35.53400000      33.14300000
 H      41.25300000      36.05500000      32.90800000
 H      40.66300000      35.15300000      34.00300000
 O      28.38300000      28.39600000      24.78300000
 H      27.75400000      29.17800000      24.65800000
 H      28.76600000      28.39000000      23.91600000
 O      36.43500000      23.63000000      18.08100000
 H      36.55600000      23.88100000      19.03900000
 H      35.42600000      23.65400000      18.03700000
 O      32.62400000      28.38000000      16.24100000
 H      33.25800000      27.75700000      16.22300000
 H      33.07300000      29.12800000      16.64400000
 O      37.31800000      22.97300000      28.25500000
 H      38.01000000      22.86200000      28.85500000
 H      37.83100000      22.90800000      27.36300000
 O      39.22900000      39.20800000      19.83300000
 H      38.38900000      38.85700000      19.43500000
 H      38.77600000      40.01500000      20.25300000
 O      27.79800000      29.78100000      12.47900000
 H      28.37500000      29.03200000      12.70400000
 H      28.55300000      30.41800000      12.15200000
 O      32.61500000      39.41200000      22.85800000
 H      32.60500000      40.06500000      23.58300000
 H      33.34600000      39.70200000      22.29700000
 O      32.92800000      36.61600000      22.43600000
 H      32.57500000      36.35900000      21.57400000
 H      32.65600000      37.54800000      22.48900000
 O      28.03300000      28.41400000      18.40600000
 H      28.69300000      27.71200000      18.70000000
 H      28.51800000      29.20100000      18.74700000
 O      30.37900000      22.99800000      18.07300000
 H      30.59900000      23.73700000      17.47100000
 H      29.94300000      23.48900000      18.82400000
 O      32.94700000      22.93900000      21.16900000
 H      33.77100000      22.43500000      21.45300000
 H      33.15700000      23.83200000      21.51900000
 O      28.02600000      33.72200000      22.23400000
 H      27.30200000      33.04100000      22.29000000
 H      27.70500000      34.20100000      21.40900000
 O      31.84400000      29.47400000       3.82200000
 H      31.41600000      28.68600000       4.13700000
 H      31.07400000      30.14100000       3.83500000
 O      30.86200000      33.56100000       2.11700000
 H      31.45900000      34.13200000       1.65300000
 H      30.48200000      32.96500000       1.46300000
 O      30.95700000      21.23000000      29.54300000
 H      31.32500000      21.02600000      30.46100000
 H      30.67000000      20.29500000      29.34700000
 O      34.86300000      23.61900000       8.59100000
 H      35.65400000      24.08000000       8.32200000
 H      34.11700000      24.27600000       8.42300000
 O      39.95900000      31.64600000      37.57600000
 H      39.76200000      32.59100000      37.66400000
 H      39.93800000      31.55700000      36.58400000
 O      35.18200000      32.04900000      34.14800000
 H      35.42100000      31.57000000      34.99800000
 H      35.86500000      31.57600000      33.59700000
 O      31.53000000      38.87500000       3.08800000
 H      32.22200000      38.14600000       3.24300000
 H      31.75200000      39.19000000       2.21400000
 O      30.91300000      39.66100000      12.09400000
 H      31.09300000      38.98300000      12.84900000
 H      29.92100000      39.51100000      12.01800000
 O      37.05700000      40.83700000      14.36800000
 H      37.59100000      41.64500000      14.52500000
 H      36.96000000      40.53000000      15.25800000
 O      28.64500000      25.06500000       0.94500000
 H      27.86700000      25.66000000       0.99400000
 H      28.31000000      24.41200000       0.25500000
 O      34.92500000      35.61800000      37.41200000
 H      35.90100000      35.66200000      37.11700000
 H      34.73600000      34.67300000      37.11600000
 O      27.80300000      27.36500000       6.01300000
 H      27.44800000      26.62400000       5.48700000
 H      28.77200000      27.27000000       5.83900000
 O      40.67300000      30.42800000      13.71300000
 H      41.12700000      30.48100000      12.83300000
 H      39.78500000      30.16900000      13.48800000
 O      38.94500000      25.18900000       3.49700000
 H      39.43200000      25.56800000       2.74400000
 H      39.52900000      25.17600000       4.25900000
 O      36.48100000      37.44900000      15.83700000
 H      35.95200000      36.64000000      16.14300000
 H      36.57100000      37.23900000      14.85300000
 O      35.80700000      30.63900000      29.76300000
 H      35.30700000      31.46800000      29.99000000
 H      35.45300000      29.99800000      30.38300000
 O      30.64700000      30.45800000      33.11200000
 H      31.24300000      29.80800000      32.60800000
 H      31.25700000      31.24700000      33.06500000
 O      33.40800000      34.35500000       4.61900000
 H      33.92200000      34.66100000       5.41800000
 H      33.44400000      33.41200000       4.77300000
 O      37.36100000      36.85500000       2.70300000
 H      37.15400000      36.96400000       3.67400000
 H      36.58400000      36.26900000       2.49400000
 O      28.98900000      22.48300000      28.26000000
 H      29.73800000      21.92200000      28.75300000
 H      29.10400000      23.33500000      28.75900000
 O      39.00400000      28.59000000      26.32900000
 H      39.56400000      29.11700000      26.93200000
 H      39.23200000      27.68100000      26.71900000
 O      39.93200000      32.83000000      19.45900000
 H      39.83300000      33.70300000      19.96700000
 H      39.82300000      32.22100000      20.28100000
 O      31.07600000      22.61900000      24.49200000
 H      31.65800000      22.27600000      25.20800000
 H      31.43700000      23.51200000      24.49400000
 O      34.81800000      24.07900000       0.90900000
 H      34.82900000      23.55300000       0.00000000
 H      35.36100000      23.42700000       1.44300000
 O      32.48300000      32.46000000      33.02500000
 H      33.37800000      32.23800000      33.53000000
 H      32.09400000      33.08100000      33.68400000
 O      29.62200000      34.19700000      31.57600000
 H      29.46000000      33.87800000      32.49200000
 H      30.14800000      33.47100000      31.17900000
 O      30.17600000      36.76900000      30.82800000
 H      29.97000000      35.96300000      31.34300000
 H      31.12800000      36.70200000      30.72500000
 O      37.83900000      26.53200000      12.73700000
 H      37.50000000      25.72100000      13.14100000
 H      37.69400000      26.39200000      11.80400000
 O      31.25900000      25.16300000      16.75700000
 H      32.01500000      24.94900000      16.21600000
 H      31.64100000      25.73200000      17.42900000
 O      27.32800000      37.38700000       4.19600000
 H      27.81400000      36.84700000       4.85100000
 H      27.72600000      37.03000000       3.39300000
 O      39.16100000      21.46000000       4.67200000
 H      39.99700000      21.88400000       4.97000000
 H      38.96500000      20.95600000       5.49500000
 O      36.92200000      40.39000000      32.96900000
 H      36.95100000      39.73700000      32.20900000
 H      36.76100000      39.72100000      33.67500000
 O      35.79000000      25.01400000      13.95300000
 H      35.10600000      25.00600000      13.26000000
 H      35.58500000      25.97100000      14.35200000
 O      40.66900000      34.97100000      21.13100000
 H      41.21900000      34.57300000      21.86000000
 H      40.11500000      35.58800000      21.64900000
 O      30.06800000      37.85400000       9.09400000
 H      30.45200000      38.66300000       9.45500000
 H      30.11000000      37.34000000       9.96400000
 O      35.73700000      30.06400000       5.94500000
 H      35.93300000      29.17400000       5.54500000
 H      36.54500000      30.24800000       6.44800000
 O      31.27100000      34.99200000       6.83100000
 H      31.53900000      34.11800000       6.60800000
 H      31.89300000      35.40500000       7.36300000
 O      37.10600000      34.45800000      39.65500000
 H      37.24600000      34.16800000      40.55400000
 H      36.50000000      35.20000000      39.71500000
 O      33.25200000      25.80800000       8.40100000
 H      32.30500000      25.97400000       8.20400000
 H      33.45700000      26.58600000       8.92900000
 O      30.51600000      36.06600000      11.07800000
 H      30.56600000      36.06100000      12.02700000
 H      30.92700000      35.21200000      10.77400000
 O      27.98800000      34.53900000      29.40600000
 H      28.43100000      35.21600000      28.85500000
 H      28.52100000      34.68300000      30.24400000
 O      40.81300000      38.66600000      33.85400000
 H      40.97700000      38.42900000      32.93100000
 H      41.53600000      39.25300000      34.09200000
 O      38.59600000      33.38000000       4.62300000
 H      38.43400000      32.39800000       4.60000000
 H      37.70800000      33.66900000       4.34500000
 O      36.52400000      24.77000000      20.68300000
 H      37.39800000      24.90100000      20.27900000
 H      36.76100000      24.21900000      21.43300000
 O      36.78900000      27.45500000      35.13800000
 H      37.07300000      28.22100000      35.66400000
 H      37.70600000      27.16200000      34.83800000
 O      35.08800000      34.80300000      29.95000000
 H      34.70800000      34.01000000      30.30500000
 H      34.60700000      35.53000000      30.35600000
 O      30.93000000      22.79200000      40.73700000
 H      31.32200000      23.58900000      41.10400000
 H      31.01800000      22.18000000      41.51300000
 O      36.65300000      33.39600000       7.77200000
 H      36.07100000      34.13100000       7.39300000
 H      37.43600000      33.56200000       7.28600000
 O      38.84600000      34.70800000      12.87500000
 H      39.70800000      34.72700000      13.22600000
 H      38.97000000      34.41500000      11.93400000
 O      29.30600000      27.35900000      37.44900000
 H      29.42200000      27.71100000      36.56900000
 H      28.31300000      27.22600000      37.50200000
 O      27.39000000      33.37200000      33.71900000
 H      27.82500000      32.50100000      33.81700000
 H      26.91400000      33.39800000      34.60500000
 O      37.92300000      27.03200000      29.99800000
 H      38.62800000      27.68600000      29.73700000
 H      38.48600000      26.21400000      29.81100000
 O      28.06200000      34.48900000       9.27200000
 H      28.58200000      35.34100000       9.20100000
 H      27.29500000      34.69400000       8.75100000
 O      29.41200000      24.92800000      29.06800000
 H      30.32900000      24.72500000      29.20900000
 H      29.22700000      25.34800000      29.95200000
 O      27.43800000      27.58100000      33.00600000
 H      27.97800000      28.00900000      33.69600000
 H      27.83700000      27.95600000      32.19600000
 O      29.38400000      28.17100000      22.12700000
 H      30.35600000      28.11700000      22.30700000
 H      29.33800000      27.65100000      21.31800000
 O      38.49300000      22.47700000      25.63900000
 H      37.92600000      21.84400000      26.04300000
 H      38.72500000      22.01200000      24.78000000
 O      33.40400000      36.79500000       3.13400000
 H      33.04200000      36.54800000       2.26500000
 H      33.07700000      36.04500000       3.69300000
 O      39.45500000      35.52300000       1.42800000
 H      40.25100000      35.38100000       1.97300000
 H      38.87400000      35.96400000       2.06900000
 O      33.50300000      26.50600000      37.03200000
 H      34.16000000      26.51800000      37.72000000
 H      32.68600000      26.35000000      37.53600000
 O      39.84800000      28.67400000      18.96600000
 H      40.76500000      28.57600000      18.60000000
 H      39.42900000      29.18000000      18.22000000
 O      31.30100000      26.25100000      38.64600000
 H      31.16500000      26.62800000      39.51800000
 H      30.54400000      26.63200000      38.11700000
 O      33.78200000      32.40900000      30.81700000
 H      33.31800000      32.61200000      31.65700000
 H      33.08300000      31.98000000      30.31200000
 O      32.92900000      37.03500000      30.74100000
 H      33.46600000      37.07900000      31.62700000
 H      33.60200000      37.57300000      30.22200000
 O      29.52100000      31.72300000      25.82900000
 H      29.77200000      32.59300000      25.54300000
 H      28.94400000      31.45000000      25.07800000
 O      32.89000000      29.39600000       7.41800000
 H      33.15800000      29.94700000       6.69100000
 H      31.93600000      29.45800000       7.41600000
 O      35.35000000      25.33100000      35.36400000
 H      35.70600000      26.27400000      35.41600000
 H      34.54100000      25.42700000      35.97600000
 O      34.64300000      24.09400000      28.36600000
 H      35.52800000      23.74900000      28.47300000
 H      34.79000000      24.94800000      27.94400000
 O      37.53000000      33.45100000      32.10500000
 H      36.58200000      33.77200000      32.35200000
 H      37.45200000      32.48600000      32.20600000
 O      28.00300000      38.61000000       7.27700000
 H      28.69800000      38.26000000       7.89700000
 H      28.56400000      38.56900000       6.45500000
 O      40.59900000      40.39400000       7.93000000
 H      41.25100000      40.06700000       8.59800000
 H      40.49900000      41.30600000       8.22600000
 O      37.14600000      30.79600000      32.74400000
 H      37.99800000      30.39600000      33.04800000
 H      36.68900000      29.91700000      32.51400000
 O      29.80500000      38.83300000       5.46300000
 H      29.69700000      38.44300000       4.54000000
 H      30.65000000      39.35400000       5.31400000
 O      28.61400000      37.01700000      13.79100000
 H      27.95300000      36.32500000      13.94600000
 H      29.43200000      36.60900000      14.16900000
 O      27.89100000      40.66900000      29.99100000
 H      27.39900000      41.05600000      29.20500000
 H      28.49300000      41.39400000      30.23400000
 O      34.56400000      36.64700000      27.19000000
 H      34.80000000      37.28700000      27.90200000
 H      33.56000000      36.70100000      27.23700000
 O      30.47600000      34.65700000      22.85200000
 H      29.63200000      34.18000000      22.76100000
 H      31.06400000      33.91500000      23.09600000
 O      33.45900000      36.20300000      16.33700000
 H      33.49300000      37.08200000      16.71100000
 H      32.55100000      35.94200000      16.50300000
 O      31.37500000      40.56700000       9.21300000
 H      31.45500000      41.49700000       9.09000000
 H      31.91500000      40.15900000       8.55300000
 O      40.82900000      21.85000000      15.76100000
 H      40.32000000      22.32100000      15.09500000
 H      40.49500000      20.90800000      15.56700000
 O      30.18600000      20.13300000      17.18700000
 H      29.52300000      20.24200000      16.47800000
 H      30.41000000      21.08200000      17.38100000
 O      38.41600000      34.64900000      28.76800000
 H      37.58100000      34.71300000      29.12100000
 H      38.49600000      33.63400000      28.59200000
 O      32.74800000      35.24700000      34.61200000
 H      33.03700000      35.45000000      35.53200000
 H      31.95200000      35.79400000      34.52400000
 O      29.00800000      35.50200000      18.43000000
 H      28.44100000      35.90200000      17.73000000
 H      28.34500000      34.85200000      18.81400000
 O      31.79600000      27.69700000      22.98500000
 H      32.19700000      28.08900000      23.77900000
 H      32.53500000      27.65800000      22.38800000
 O      30.80200000      35.35800000      13.99000000
 H      30.95200000      35.34400000      14.95500000
 H      31.24600000      34.47800000      13.79400000
 O      30.53000000      26.28400000       7.86500000
 H      29.93100000      25.53900000       7.88700000
 H      30.28200000      26.64800000       8.75400000
 O      29.59200000      20.28200000      40.23400000
 H      30.12700000      21.11700000      40.27200000
 H      29.83100000      19.93000000      39.35600000
 O      34.56600000      32.93900000       9.52600000
 H      35.04600000      33.11300000       8.64400000
 H      35.33000000      33.06300000      10.14500000
 O      37.40200000      29.57600000      40.08300000
 H      37.78200000      29.05600000      39.38500000
 H      38.18600000      30.03600000      40.46500000
 O      30.53800000      30.32000000      11.97200000
 H      31.23700000      30.54300000      11.30400000
 H      30.97200000      30.63100000      12.80900000
 O      36.49600000      38.51500000      34.77500000
 H      37.37900000      38.15100000      34.96900000
 H      36.11000000      38.40700000      35.66600000
 O      33.49400000      33.10500000      36.80000000
 H      34.27800000      32.48300000      36.82500000
 H      32.81000000      32.57000000      36.43700000
 O      28.81700000      24.31700000      19.95900000
 H      28.52700000      24.45100000      20.87700000
 H      28.08400000      23.76100000      19.61500000
 O      29.76700000      39.51800000      40.47500000
 H      29.55200000      40.16300000      41.21800000
 H      29.03600000      39.70700000      39.88000000
 O      32.52800000      39.64400000      37.55300000
 H      32.38700000      40.09200000      36.69700000
 H      32.82900000      40.44200000      38.10100000
 O      34.26900000      36.70800000      12.41000000
 H      33.79200000      35.86000000      12.38600000
 H      35.05700000      36.45200000      12.91000000
 O      32.42000000      30.97800000      35.60100000
 H      32.87000000      30.45400000      34.94100000
 H      31.58400000      31.17000000      35.10900000
 O      40.40600000      31.51700000       8.41100000
 H      40.81000000      30.99300000       9.14600000
 H      39.87900000      32.16200000       8.89700000
 O      28.20900000      25.00600000       4.24200000
 H      28.54500000      24.11100000       4.52900000
 H      28.32100000      24.93900000       3.28300000
 O      32.98200000      27.46800000      29.39200000
 H      33.92500000      27.39200000      29.05300000
 H      32.44300000      27.19600000      28.60400000
 O      37.04100000      20.93900000      35.56100000
 H      37.45300000      21.81400000      35.69700000
 H      36.16700000      21.07400000      35.99000000
 O      29.98000000      35.76800000      35.06000000
 H      30.01600000      35.79500000      35.99500000
 H      29.14400000      36.21900000      34.85200000
 O      38.23800000      29.12400000      13.77400000
 H      37.90700000      28.98000000      14.64100000
 H      38.36200000      28.18400000      13.43800000
 O      30.08700000      27.06300000      10.26100000
 H      30.55900000      27.97400000      10.32900000
 H      29.48200000      27.10300000      11.00200000
 O      32.36500000      33.76700000      39.05700000
 H      32.80100000      33.64600000      38.16800000
 H      32.50200000      32.87700000      39.41300000
 O      35.14400000      35.44600000       6.67200000
 H      34.65300000      35.84000000       7.42000000
 H      35.69400000      36.17500000       6.43100000
 O      40.49800000      25.43500000      22.05800000
 H      39.97300000      25.23400000      22.84800000
 H      40.78700000      24.53300000      21.79100000
 O      33.10100000      36.60600000       8.75200000
 H      33.62200000      36.79600000       9.56200000
 H      32.35300000      37.23900000       8.88100000
 O      39.51400000      37.60800000      21.80700000
 H      38.71200000      37.07600000      21.55000000
 H      39.50000000      38.28700000      21.05000000
 O      30.51100000      21.92500000      21.99300000
 H      30.69200000      22.20200000      22.94800000
 H      31.45500000      22.14000000      21.68100000
 O      39.17400000      37.81700000      10.56000000
 H      38.72700000      38.54500000      11.07300000
 H      38.37600000      37.18900000      10.59500000
 O      39.73900000      24.76800000       6.62100000
 H      40.33100000      24.00800000       6.31300000
 H      40.28800000      25.55700000       6.38400000
 O      35.58100000      29.58100000      27.13200000
 H      35.76800000      30.21000000      26.33200000
 H      35.80900000      30.21900000      27.84700000
 O      28.22200000      39.18100000      11.56200000
 H      27.57400000      39.43700000      10.85100000
 H      27.85600000      38.29000000      11.77200000
 O      28.78900000      30.58800000      22.96600000
 H      29.13200000      29.78000000      22.53100000
 H      27.91400000      30.39600000      23.13000000
 O      32.97000000      40.65900000       1.18800000
 H      32.76600000      41.46800000       1.70900000
 H      33.67100000      40.27700000       1.67700000
 O      31.93000000      27.50600000      35.01500000
 H      32.63900000      27.97700000      34.48400000
 H      32.40400000      26.72100000      35.33600000
 O      39.63400000      28.30500000      10.12400000
 H      39.27200000      27.42300000      10.31500000
 H      38.90800000      28.87000000      10.34800000
 O      38.35400000      31.93800000      27.63300000
 H      39.18400000      31.89500000      27.18500000
 H      38.44900000      31.15600000      28.27600000
 O      37.98300000      22.17300000       9.53300000
 H      38.80000000      22.61100000       9.82400000
 H      37.42200000      22.85800000       9.19300000
 O      38.93100000      32.22800000      24.20700000
 H      38.90000000      33.17300000      24.45000000
 H      39.32100000      31.80500000      24.98700000
 O      34.79200000      37.05200000      19.36700000
 H      34.11100000      37.60600000      19.01000000
 H      34.29500000      36.23300000      19.53000000
 O      34.76600000      22.95600000      38.38300000
 H      34.75400000      22.35000000      37.56800000
 H      33.81700000      23.22400000      38.24400000
 O      38.65700000      28.74300000       4.94800000
 H      39.57900000      28.89200000       4.64000000
 H      38.17500000      28.73400000       4.10100000
 O      38.81600000      34.66400000      25.69300000
 H      38.39700000      34.35600000      26.44600000
 H      38.16400000      35.32400000      25.36900000
 O      39.61200000      23.31300000      18.28100000
 H      38.81100000      23.86800000      18.17500000
 H      40.16300000      23.60400000      17.51800000
 O      27.32500000      27.78500000      15.01800000
 H      27.92600000      27.59100000      15.77400000
 H      27.95000000      27.82600000      14.26600000
 O      34.21600000      25.99900000      20.79200000
 H      34.56100000      26.42400000      21.54400000
 H      35.04000000      25.49800000      20.43000000
 O      32.82900000      22.64000000      14.33600000
 H      32.78600000      22.15400000      15.14700000
 H      33.67600000      22.30900000      13.93300000
 O      29.90000000      32.08500000       8.86400000
 H      30.69500000      32.26800000       9.41800000
 H      29.25900000      32.61400000       9.42200000
 O      34.13600000      21.62600000      10.20700000
 H      34.41600000      22.24100000       9.49600000
 H      33.17800000      21.62100000      10.08100000
 O      35.96200000      22.01600000       5.56500000
 H      36.55500000      22.63100000       6.02100000
 H      35.90100000      21.34900000       6.28200000
 O      39.81200000      37.90200000       7.54700000
 H      39.69400000      38.01600000       8.48000000
 H      39.92000000      38.84500000       7.30000000
 O      31.80700000      30.24800000      26.45400000
 H      30.90200000      30.53200000      26.26200000
 H      32.26200000      31.13400000      26.51000000
 O      27.85800000      37.75800000      24.48700000
 H      28.69700000      38.00500000      24.93200000
 H      27.58500000      37.00300000      25.13600000
 O      35.58400000      30.93200000      36.65300000
 H      36.54200000      30.70500000      36.69500000
 H      35.18700000      30.14500000      37.06000000
 O      32.66000000      25.03400000       2.44400000
 H      33.38400000      24.50600000       1.96500000
 H      32.90500000      24.90000000       3.35500000
 O      27.96700000      30.21900000      39.24100000
 H      28.27900000      29.71500000      40.06300000
 H      28.52700000      29.79500000      38.59600000
 O      36.04400000      30.98400000      21.02800000
 H      35.53400000      31.05900000      21.85200000
 H      36.74600000      30.38300000      21.24400000
 O      29.27800000      25.41700000      31.79900000
 H      29.13000000      26.36700000      31.96300000
 H      28.28900000      25.17500000      31.80400000
 O      32.39800000      32.70500000      26.12800000
 H      32.94300000      32.93200000      26.88300000
 H      31.62500000      33.32700000      26.25300000
 O      39.41100000      25.02100000      24.33700000
 H      39.65700000      25.10400000      25.30500000
 H      38.81300000      24.28100000      24.36700000
 O      31.90100000      35.76100000      40.73800000
 H      31.55100000      36.33800000      39.97600000
 H      32.05600000      34.97500000      40.11900000
 O      28.92100000      36.81700000      21.96700000
 H      29.27100000      36.04900000      22.49700000
 H      28.84300000      37.48300000      22.64800000
 O      36.52000000      26.00200000       3.34800000
 H      37.41800000      25.59800000       3.33900000
 H      35.93900000      25.24600000       3.18000000
 O      34.87800000      21.80100000      12.82000000
 H      35.82600000      21.68400000      12.55200000
 H      34.55200000      21.73200000      11.88600000
 O      34.55900000      33.99000000      27.27800000
 H      34.71500000      34.88600000      26.99100000
 H      34.98900000      33.95000000      28.13200000
 O      28.21300000      21.03700000      11.09400000
 H      27.87000000      21.14100000      10.16600000
 H      27.63600000      21.67900000      11.51700000
 O      36.18100000      34.03900000      19.86200000
 H      36.16600000      33.28900000      20.50700000
 H      35.32700000      33.92200000      19.49000000
 O      28.37500000      25.16500000      22.50200000
 H      28.97900000      25.40500000      23.22100000
 H      27.65500000      24.83600000      23.06100000
 O      33.43100000      23.50400000      34.30400000
 H      32.60300000      23.97900000      34.51400000
 H      34.10700000      24.22300000      34.28100000
 O      32.26800000      33.05300000      13.55900000
 H      31.65300000      32.53800000      14.06100000
 H      33.08700000      32.59300000      13.73300000
 O      32.36400000      26.98100000      19.04500000
 H      32.77400000      26.59200000      19.85800000
 H      33.16600000      27.24300000      18.59000000
 O      36.64600000      36.48700000      25.47200000
 H      36.27800000      35.94900000      24.73200000
 H      35.84000000      36.62900000      25.98600000
 O      37.10400000      25.18200000      33.09700000
 H      36.54400000      25.20100000      33.86200000
 H      36.68600000      25.85400000      32.50900000
 O      36.88700000      28.57300000       2.89700000
 H      36.96200000      28.67500000       1.94500000
 H      36.84000000      27.58900000       2.96100000
 O      29.91900000      29.67100000       7.66900000
 H      29.05900000      29.30200000       8.05700000
 H      29.99500000      30.50200000       8.16000000
 O      34.24000000      23.90500000      31.15800000
 H      35.06200000      23.49600000      30.80000000
 H      33.88100000      23.14000000      31.68300000
 O      37.93900000      40.42900000      27.43200000
 H      38.47600000      41.18000000      27.66700000
 H      38.46600000      39.69800000      27.83800000
 O      31.05000000      32.12400000       4.65100000
 H      32.02400000      32.02400000       4.77800000
 H      31.09900000      32.70000000       3.81900000
 O      30.15100000      40.34700000      21.90400000
 H      31.00200000      39.88300000      22.04500000
 H      30.53600000      41.28000000      21.91600000
 O      38.22000000      30.41700000       7.08600000
 H      38.34300000      29.88200000       6.30200000
 H      39.06400000      30.53400000       7.50400000
 O      36.45100000      27.12400000       5.95000000
 H      37.25500000      27.30100000       5.44300000
 H      35.87200000      26.73100000       5.29500000
 O      32.46600000      38.55200000      18.25300000
 H      32.26700000      39.03900000      17.41900000
 H      31.60300000      38.27300000      18.49600000
 O      30.00700000      23.81000000      10.38600000
 H      30.74100000      24.33300000      10.73600000
 H      29.41400000      23.73200000      11.18500000
 O      30.91400000      26.91700000       1.58300000
 H      31.65400000      26.30200000       1.91600000
 H      30.33000000      26.32600000       1.20300000
 O      29.26100000      31.20100000      28.53900000
 H      29.40500000      31.21000000      27.59500000
 H      28.36500000      31.48500000      28.65800000
 O      30.03900000      32.80000000      34.96200000
 H      30.09300000      33.81500000      34.90700000
 H      29.64300000      32.77900000      35.88600000
 O      35.78000000      38.16700000      40.31500000
 H      34.79000000      37.90700000      40.26500000
 H      35.82000000      38.48300000      41.23700000
 O      29.16600000      24.02200000       7.98600000
 H      28.34200000      23.51200000       8.03500000
 H      29.53500000      23.75100000       8.88500000
 O      30.32000000      30.18900000      18.89500000
 H      30.96500000      29.58800000      19.31100000
 H      30.16700000      30.82500000      19.65500000
 O      34.25500000      21.51300000      36.12000000
 H      34.00700000      22.06500000      35.34300000
 H      33.60800000      20.79400000      35.95500000
 O      38.34900000      37.21200000      39.40300000
 H      37.45200000      37.56900000      39.61900000
 H      38.49900000      36.69800000      40.20900000
 O      38.03300000      39.78400000      12.00400000
 H      37.60900000      40.12200000      12.82500000
 H      38.33900000      40.60500000      11.65700000
 O      36.92800000      38.51600000      18.46000000
 H      36.82400000      38.17200000      17.53500000
 H      36.10600000      38.10400000      18.83900000
 O      36.48500000      31.33100000      25.43800000
 H      36.98200000      31.86500000      26.13900000
 H      37.03900000      31.59300000      24.64600000
 O      28.11600000      30.45100000      32.49200000
 H      28.15300000      30.08700000      31.55600000
 H      29.10600000      30.55200000      32.61500000
 O      39.88000000      39.65400000      38.70800000
 H      40.54100000      39.30400000      38.17900000
 H      39.28300000      38.87700000      38.92000000
 O      38.86100000      22.64500000      39.29700000
 H      38.43700000      21.77200000      39.06100000
 H      38.63000000      22.71600000      40.23000000
 O      37.76700000      29.01200000      22.35300000
 H      38.38100000      28.47000000      22.91600000
 H      37.71300000      28.48800000      21.56000000
 O      30.84800000      24.65400000      33.75400000
 H      30.93000000      25.49100000      34.18200000
 H      30.18200000      24.85800000      33.03700000
 O      32.68500000      40.22200000      16.05200000
 H      32.58700000      39.46300000      15.40100000
 H      32.64100000      40.97900000      15.54700000
 O      28.96900000      35.52300000       5.33700000
 H      28.60200000      34.78500000       5.86100000
 H      29.85300000      35.67800000       5.79800000
 O      40.66600000      38.17200000      14.44200000
 H      41.32500000      38.61000000      13.91700000
 H      40.41100000      37.41100000      13.83600000
 O      34.64100000      30.32500000       2.47900000
 H      35.31200000      29.66200000       2.64800000
 H      33.81900000      29.96400000       2.89500000
 O      39.69600000      30.25700000      33.39900000
 H      40.27600000      29.43200000      33.49600000
 H      40.32500000      30.86600000      33.88300000
 O      32.88700000      21.26600000       7.37600000
 H      32.47200000      22.02200000       6.85700000
 H      32.32000000      21.24300000       8.16700000
 O      33.77600000      39.52300000       8.40700000
 H      34.49800000      38.90000000       8.19300000
 H      33.71300000      39.45500000       9.35300000
 O      40.09900000      34.61000000      17.09600000
 H      40.82000000      34.13100000      16.63600000
 H      40.32300000      35.52100000      16.92400000
 O      37.18700000      35.79900000      36.16300000
 H      37.84500000      36.49100000      36.04700000
 H      36.96000000      35.56500000      35.27700000
 O      38.55100000      40.26500000      22.78500000
 H      38.98600000      39.45000000      22.55600000
 H      38.04900000      40.49400000      21.99300000
 O      29.99600000      34.48900000      26.11200000
 H      29.06100000      34.16600000      25.98100000
 H      29.83100000      35.06700000      26.89300000
 O      34.95500000      38.43000000      37.04400000
 H      34.10400000      38.90500000      37.28500000
 H      34.63000000      37.51000000      37.20800000
 O      36.44700000      35.59100000      13.54500000
 H      37.31600000      35.15200000      13.32300000
 H      36.17500000      35.03700000      14.30300000
 O      28.28200000      34.37500000       2.92200000
 H      29.21900000      33.96300000       2.85800000
 H      28.40200000      34.81700000       3.77300000
 O      31.76200000      26.26800000      27.16400000
 H      31.93000000      25.97300000      26.22500000
 H      31.63200000      25.36800000      27.59500000
 O      37.21900000      36.34700000      21.05000000
 H      36.52500000      36.78000000      20.57700000
 H      37.05300000      35.42500000      20.74000000
 O      33.46000000      23.30300000      18.42400000
 H      33.47100000      23.05800000      19.36800000
 H      32.57000000      23.14600000      18.24800000
 O      33.61400000      39.23900000      11.19600000
 H      32.93300000      39.69600000      11.68100000
 H      33.79400000      38.41400000      11.75800000
 O      28.61000000      20.11800000      36.03700000
 H      28.64600000      21.08600000      36.24600000
 H      27.76400000      20.14800000      35.56100000
 O      30.60200000      27.70000000       5.42100000
 H      30.25000000      28.17800000       6.16200000
 H      30.97700000      26.92100000       5.91000000
 O      37.10100000      23.65100000      36.54200000
 H      36.62400000      23.14600000      37.21000000
 H      36.37200000      24.22000000      36.23100000
 O      38.08400000      23.47100000       1.71400000
 H      38.51100000      23.86500000       2.50100000
 H      37.37600000      22.93500000       2.19500000
 O      37.16200000      23.15800000      22.85900000
 H      36.59200000      22.55300000      22.42100000
 H      38.01600000      22.72100000      22.86800000
 O      40.15700000      26.03400000      26.85500000
 H      40.22700000      25.64200000      27.75400000
 H      41.13100000      26.28800000      26.70500000
 O      28.78600000      23.12700000      25.51200000
 H      29.63800000      22.99600000      25.05300000
 H      29.08500000      22.93500000      26.43300000
 O      38.52200000      39.52800000       2.52300000
 H      37.84400000      40.09100000       2.87100000
 H      38.07500000      38.66900000       2.46000000
 O      35.91600000      22.23300000       2.70100000
 H      36.33700000      21.37300000       2.58000000
 H      35.70400000      22.21000000       3.67600000
 O      38.74500000      31.19600000       1.81700000
 H      38.02100000      31.86000000       1.82600000
 H      39.50400000      31.65300000       1.46200000
 O      38.40500000      27.73500000      38.23500000
 H      39.25100000      27.24500000      38.15200000
 H      37.91700000      27.05800000      38.83300000
 O      40.60400000      31.38400000      26.36400000
 H      41.47800000      31.76700000      26.62500000
 H      40.80100000      30.72400000      25.69700000
 O      39.40100000      26.55000000      35.27300000
 H      39.09700000      25.61300000      35.36900000
 H      40.04300000      26.60600000      36.01600000
 O      37.86700000      22.34200000      32.79000000
 H      37.15200000      21.92600000      32.26000000
 H      37.48000000      23.18900000      33.10600000
 O      31.72100000      31.10400000      29.65200000
 H      32.21200000      30.75900000      28.93700000
 H      30.79000000      31.22000000      29.19500000
 O      37.30800000      24.76900000       7.71900000
 H      37.13400000      25.52700000       7.07300000
 H      38.28100000      24.65700000       7.49000000
 O      31.67100000      25.00400000      13.30200000
 H      32.06900000      24.97400000      12.37100000
 H      31.94000000      24.12100000      13.64800000
 O      35.04000000      29.28100000      38.90000000
 H      34.96500000      28.34400000      39.15800000
 H      35.90900000      29.44800000      39.36600000
 O      29.31700000      36.45000000      27.93300000
 H      30.33000000      36.56500000      28.04300000
 H      29.07300000      37.38100000      27.96700000
 O      32.48500000      25.12600000      24.62100000
 H      33.45200000      25.14600000      24.38800000
 H      32.12300000      25.47900000      23.78600000
 O      40.12300000      33.39400000      31.35600000
 H      40.21600000      34.24100000      31.93600000
 H      39.12400000      33.35600000      31.38800000
 O      39.37200000      30.85900000      17.49300000
 H      39.82500000      30.97100000      16.67800000
 H      39.62600000      31.65500000      17.96400000
 O      36.48300000      27.60700000      25.28600000
 H      35.86700000      27.98000000      25.96600000
 H      37.27600000      28.13300000      25.57400000
 O      33.84500000      29.19500000      12.06200000
 H      33.09400000      28.72500000      12.51900000
 H      33.32800000      29.92400000      11.60000000
 O      36.04700000      32.36900000       1.34600000
 H      36.08300000      32.46000000       0.38000000
 H      35.67300000      31.49500000       1.44700000
 O      29.93100000      32.01500000      40.18300000
 H      29.13000000      31.57200000      40.05700000
 H      30.62700000      31.39100000      40.16900000
 O      27.91400000      37.98900000      38.21000000
 H      27.84400000      38.94300000      38.41500000
 H      27.12000000      37.61800000      38.63900000
 O      28.62400000      32.82500000       6.30600000
 H      29.28900000      32.66900000       5.64200000
 H      28.94100000      32.37600000       7.06900000
 O      39.48200000      23.59500000      35.19700000
 H      39.23900000      23.27600000      34.33200000
 H      38.67100000      23.41400000      35.72300000
 O      39.37100000      34.03600000      10.17700000
 H      39.65400000      34.49300000       9.28200000
 H      40.27400000      33.99900000      10.54300000
 O      29.60800000      35.97700000      37.74500000
 H      28.96100000      36.62900000      37.98000000
 H      30.43300000      36.43800000      38.10000000
 O      39.30400000      37.52500000      35.98300000
 H      39.77600000      37.83200000      35.14700000
 H      40.12000000      37.49000000      36.56800000
 O      33.07600000      40.77600000      25.74000000
 H      33.15300000      41.74700000      25.77600000
 H      33.66700000      40.58200000      26.54600000
 O      31.94600000      32.30900000      17.66300000
 H      31.34000000      31.67900000      18.14100000
 H      32.53700000      31.65500000      17.25700000
 O      40.70000000      36.40800000      28.85700000
 H      39.91400000      35.85100000      28.83300000
 H      41.07000000      36.25200000      27.96200000
 O      39.57700000      27.77300000      23.91500000
 H      39.37100000      28.12700000      24.79200000
 H      39.46600000      26.84300000      24.05400000
 O      31.92500000      37.32300000      28.16900000
 H      31.81400000      38.30100000      28.28500000
 H      32.23800000      37.07400000      29.06400000
 O      40.03700000      33.18300000      40.31600000
 H      39.79100000      34.02600000      40.73100000
 H      39.84900000      33.45700000      39.38900000
 O      29.46500000      25.85900000      14.79800000
 H      29.97800000      25.70100000      15.60700000
 H      29.97900000      25.23900000      14.18100000
 O      37.40200000      38.58300000      30.93800000
 H      37.70100000      37.74000000      31.35700000
 H      38.05900000      38.64300000      30.21800000
 O      36.19900000      37.66000000       8.73100000
 H      36.90500000      38.26500000       8.69300000
 H      36.40000000      37.02300000       9.43000000
 O      30.97000000      21.88400000      36.21800000
 H      30.16200000      22.33900000      36.50300000
 H      31.64100000      22.38100000      36.80400000
 O      34.57000000      26.50700000      31.58400000
 H      34.50700000      25.50900000      31.48400000
 H      33.86000000      26.76600000      30.97700000
 O      37.17200000      37.49500000       5.49300000
 H      36.58300000      38.22500000       5.58600000
 H      37.88000000      37.75100000       6.07600000
 O      38.94300000      22.87900000      14.29500000
 H      38.58900000      22.58600000      13.44100000
 H      38.17100000      22.69000000      14.87100000
 O      35.67900000      21.78400000      20.99500000
 H      35.89800000      22.05300000      20.11900000
 H      35.76000000      20.83600000      20.97000000
 O      34.25800000      30.57400000      17.11200000
 H      35.14000000      30.64500000      17.59400000
 H      34.53500000      30.78900000      16.18600000
 O      31.47000000      21.48500000       9.96200000
 H      30.75100000      22.12100000      10.18400000
 H      31.13600000      20.75400000      10.55600000
 O      27.86500000      28.20300000      27.82000000
 H      27.64900000      27.29100000      27.55500000
 H      28.32300000      28.52500000      26.99600000
 O      30.17600000      21.85700000      13.41700000
 H      31.12700000      21.73200000      13.67900000
 H      30.21400000      21.29300000      12.59800000
 O      35.09200000      37.27200000      32.63600000
 H      35.76300000      36.55700000      32.70600000
 H      35.46900000      37.79900000      33.40400000
 O      32.16200000      38.33700000      14.35700000
 H      31.60600000      37.55000000      14.12800000
 H      33.04400000      38.08700000      13.98800000
 O      39.27800000      38.58400000      29.00600000
 H      39.68400000      37.71000000      29.04800000
 H      40.11800000      39.07000000      28.69900000
 O      34.72400000      31.45400000      14.28500000
 H      35.10900000      32.27900000      14.60100000
 H      35.22400000      31.21400000      13.47800000
 O      38.21300000      26.85400000      16.82000000
 H      39.08900000      26.58700000      16.45600000
 H      38.20300000      26.37400000      17.66300000
 O      39.25800000      22.63400000      30.55100000
 H      38.60100000      22.59900000      31.27600000
 H      40.08600000      22.70900000      31.04600000
 O      29.24200000      27.46700000      12.79700000
 H      29.17100000      26.79300000      13.51300000
 H      30.15500000      27.78900000      13.02100000
 O      38.77400000      20.23600000       7.34400000
 H      38.21700000      19.76000000       7.92500000
 H      38.81400000      21.13900000       7.74300000
 O      32.83400000      22.26900000      26.70600000
 H      33.39300000      22.98600000      27.02600000
 H      32.59400000      21.88400000      27.60000000
 O      36.91500000      36.19400000      10.68200000
 H      36.52200000      36.39800000      11.56300000
 H      36.72700000      35.22300000      10.68600000
 O      35.27600000      33.76500000      15.49100000
 H      36.01000000      34.08500000      16.11100000
 H      34.47900000      34.11300000      15.91800000
 O      30.56600000      39.45500000      25.23100000
 H      31.53300000      39.65700000      25.37500000
 H      30.64100000      38.56100000      24.85200000
 O      32.02600000      23.62500000      38.20300000
 H      31.59200000      23.14200000      39.00500000
 H      31.77600000      24.52800000      38.37400000
