1482
XYZ file of cluster: frame_14000_4a8ed.181a.9a399 - created by MolEdiTo
 O      25.62800000       9.78800000      29.68200000
 H      25.33700000      10.73200000      29.61500000
 H      26.26100000       9.80800000      28.88800000
 O      14.46400000      12.66900000      30.45600000
 H      14.00900000      13.34900000      29.94400000
 H      14.34600000      13.09900000      31.37500000
 O      20.63600000      17.88700000      29.86800000
 H      20.49700000      16.92600000      29.73500000
 H      20.68000000      17.91500000      30.86400000
 O      17.02300000      27.68400000      32.29500000
 H      17.15900000      28.44300000      32.89200000
 H      17.91300000      27.56100000      31.93800000
 O      16.82300000      34.08500000      39.75400000
 H      17.10400000      33.20600000      40.09200000
 H      17.22800000      34.68600000      40.41100000
 O      36.04500000      10.76900000      33.80400000
 H      36.31400000      11.52900000      34.32200000
 H      35.16600000      10.56900000      34.09000000
 O      23.92200000      17.76400000      37.83600000
 H      23.50200000      18.64600000      37.56600000
 H      23.32900000      17.20500000      37.29400000
 O      21.85100000      25.13400000      30.33300000
 H      21.07200000      24.93600000      30.84200000
 H      22.30400000      24.27900000      30.32500000
 O      19.80500000      15.41800000      29.89100000
 H      19.57800000      14.46700000      30.02800000
 H      19.22900000      15.55600000      29.11900000
 O      27.82900000      25.60600000      27.10200000
 H      28.44500000      25.35600000      27.82700000
 H      28.15900000      24.95600000      26.42800000
 O      21.01200000       2.63900000      37.90700000
 H      21.51500000       3.36000000      38.29900000
 H      20.29400000       2.51600000      38.54900000
 O      30.59800000      20.22000000      33.58700000
 H      29.98000000      20.19500000      34.38900000
 H      30.63300000      21.17900000      33.47900000
 O      25.67500000      34.37200000      31.78100000
 H      25.05100000      34.34800000      32.55600000
 H      26.46800000      33.91100000      32.16800000
 O      22.98500000       8.44900000      38.69400000
 H      23.75700000       7.89600000      38.78300000
 H      22.66200000       8.52800000      39.63100000
 O      14.80600000      21.58100000      37.23800000
 H      14.33900000      22.47000000      37.35600000
 H      15.40600000      21.57600000      38.01900000
 O      25.51300000      35.62600000      36.55600000
 H      26.24800000      36.18900000      36.08600000
 H      25.36500000      36.32700000      37.30200000
 O      35.58200000       7.49500000      40.45100000
 H      36.53700000       7.80500000      40.47800000
 H      35.22300000       8.33600000      40.88400000
 O      19.34200000      27.55000000      39.05400000
 H      19.18500000      27.54500000      39.99500000
 H      18.50000000      27.89500000      38.70500000
 O      35.65500000       7.17300000      27.55500000
 H      35.51800000       7.48900000      26.69200000
 H      35.24300000       7.84400000      28.15400000
 O      29.11200000      33.33600000      37.55900000
 H      29.30600000      34.29500000      37.79600000
 H      29.64500000      32.88400000      38.22500000
 O      22.45800000      15.74900000      36.14600000
 H      21.70300000      15.35500000      35.67800000
 H      22.75300000      15.01300000      36.70900000
 O      36.18800000      16.45800000      30.68500000
 H      36.51500000      15.61800000      30.96400000
 H      35.61400000      16.22700000      29.94600000
 O      16.78900000      33.50000000      37.10100000
 H      17.05000000      33.70900000      38.04700000
 H      17.09400000      34.33400000      36.70500000
 O      35.72400000       2.85600000      29.76900000
 H      35.72000000       3.44100000      28.98700000
 H      36.65400000       2.99800000      30.05700000
 O      38.05500000      25.86900000      40.25200000
 H      37.65700000      25.13500000      40.77200000
 H      39.00500000      25.68100000      40.32800000
 O      35.46400000      34.59100000      33.58900000
 H      35.45100000      33.74600000      34.12300000
 H      34.54700000      34.90300000      33.72900000
 O      20.01600000      31.50200000      36.90500000
 H      20.06300000      30.85100000      36.13700000
 H      20.73600000      31.09300000      37.40900000
 O      28.39200000      22.61600000      37.25900000
 H      27.52600000      23.00600000      36.82200000
 H      28.34500000      23.14900000      38.06500000
 O      37.92900000       8.54000000      40.42800000
 H      37.87800000       8.90300000      39.47300000
 H      38.54900000       9.23400000      40.79000000
 O      20.53600000      24.96600000      36.10400000
 H      21.22400000      24.90800000      35.41300000
 H      20.18500000      24.06400000      36.03500000
 O      17.85300000      31.29700000      40.47600000
 H      18.48900000      30.82500000      41.05500000
 H      17.26100000      31.61800000      41.26600000
 O      33.44600000      14.54300000      36.82000000
 H      33.87100000      14.06600000      37.53200000
 H      32.92300000      15.29000000      37.29000000
 O      19.47800000      35.49400000      40.42800000
 H      19.85200000      36.40100000      40.51700000
 H      18.74600000      35.66500000      39.86700000
 O      28.65400000       6.25500000      36.35000000
 H      28.16100000       5.52000000      36.74700000
 H      29.36600000       6.47300000      37.01200000
 O      36.21700000      28.54000000      31.47200000
 H      35.53700000      27.88400000      31.44800000
 H      36.99000000      27.98100000      31.08300000
 O      23.19300000      16.25000000      40.21000000
 H      23.92000000      16.17900000      40.82000000
 H      23.66500000      16.68300000      39.47500000
 O      34.36500000      28.77500000      33.96300000
 H      34.94800000      28.37700000      34.53300000
 H      34.78800000      28.70200000      33.08700000
 O      23.85100000      11.15700000      32.50900000
 H      24.68600000      11.63200000      32.20700000
 H      23.25500000      11.91400000      32.48800000
 O      15.74200000      22.98300000      34.94000000
 H      14.94400000      23.54000000      34.99500000
 H      15.45500000      22.16100000      35.36800000
 O      27.76800000      37.84900000      30.58500000
 H      27.85300000      38.80700000      30.32100000
 H      28.72200000      37.58300000      30.55800000
 O      21.63200000      26.24800000      38.31600000
 H      21.05700000      25.66900000      37.72200000
 H      20.90400000      26.90600000      38.52400000
 O      22.76800000      38.43900000      36.96000000
 H      21.94900000      38.70000000      36.47200000
 H      23.08200000      37.77400000      36.39600000
 O      28.71200000      28.38100000      30.54400000
 H      29.61100000      28.70800000      30.64100000
 H      28.56600000      28.49000000      29.57100000
 O      37.98300000      36.31000000      32.26000000
 H      38.84500000      36.14500000      32.70800000
 H      37.87700000      35.40700000      31.82300000
 O      16.86000000       6.53700000      39.62600000
 H      16.47900000       6.18100000      40.48100000
 H      16.90500000       5.69500000      39.10900000
 O      20.29600000      39.77200000      32.74600000
 H      19.44100000      40.21200000      32.98000000
 H      20.05900000      39.53500000      31.81600000
 O      19.88700000      17.14700000      36.20000000
 H      19.61000000      16.96800000      37.13500000
 H      20.00200000      16.22500000      35.89200000
 O      39.30800000       1.62200000      32.22700000
 H      39.73500000       0.86400000      31.75000000
 H      38.79800000       1.14600000      32.90800000
 O      14.22800000      15.83700000      31.24200000
 H      14.39500000      15.89400000      32.21900000
 H      15.16800000      15.96500000      30.98700000
 O      20.15300000      14.58600000      32.37900000
 H      19.79900000      15.08000000      31.64500000
 H      19.66800000      13.73500000      32.29200000
 O      29.05800000      12.20400000      30.99400000
 H      29.97200000      11.84500000      30.99500000
 H      28.97400000      12.37200000      31.95600000
 O      37.42200000       1.25900000      40.33100000
 H      36.94200000       1.89200000      40.89100000
 H      36.69300000       0.63700000      40.06900000
 O      15.14800000       3.80700000      35.91800000
 H      15.81800000       3.68900000      35.22200000
 H      14.42800000       4.17700000      35.44200000
 O      29.15800000      39.07700000      27.88800000
 H      29.90600000      39.21700000      28.50800000
 H      29.48100000      39.38900000      27.03700000
 O      19.08900000      24.12200000      28.38300000
 H      19.79300000      24.55600000      27.93800000
 H      19.42700000      23.32200000      28.78900000
 O      36.94900000       8.26100000      33.53600000
 H      36.71900000       9.22500000      33.49300000
 H      36.17000000       7.88300000      34.02000000
 O      32.09300000      16.33000000      38.40200000
 H      31.52700000      17.06900000      38.06700000
 H      32.56100000      16.79700000      39.12300000
 O      31.07600000      13.59000000      35.38800000
 H      31.52500000      13.43600000      34.50400000
 H      31.86700000      13.84800000      35.86400000
 O      36.20400000      21.99400000      30.71000000
 H      36.74400000      21.91900000      29.91100000
 H      35.93500000      21.03900000      30.81000000
 O      22.08200000      16.69000000      33.45900000
 H      21.25200000      17.12500000      33.21300000
 H      22.06600000      16.76600000      34.43700000
 O      18.32600000      33.73100000      34.26800000
 H      18.84900000      33.77800000      35.06300000
 H      18.16200000      34.68400000      34.08400000
 O      39.83700000      11.18800000      37.02600000
 H      39.89600000      11.57500000      36.17500000
 H      40.44400000      11.72300000      37.53900000
 O      39.40100000      17.50800000      38.85300000
 H      39.18000000      18.28700000      38.29400000
 H      38.51300000      17.25500000      39.22100000
 O      18.53800000       2.80700000      30.11100000
 H      18.25600000       2.70800000      29.15900000
 H      19.45700000       2.58800000      30.10000000
 O      39.89500000      24.96900000      29.45500000
 H      39.82800000      23.97300000      29.69100000
 H      40.11300000      25.27700000      30.37200000
 O      31.71400000      40.04100000      28.91500000
 H      31.66600000      40.86100000      28.35700000
 H      32.06000000      40.45300000      29.73400000
 O      35.56000000      26.86600000      28.32500000
 H      35.70400000      27.81500000      28.08300000
 H      36.35400000      26.69100000      28.88500000
 O      34.97300000      38.41900000      29.45800000
 H      35.86200000      38.43900000      29.87700000
 H      34.93400000      39.34800000      29.12300000
 O      22.37300000      27.64500000      31.27300000
 H      22.60300000      26.77600000      30.99800000
 H      23.17800000      27.91000000      31.75500000
 O      33.53800000       3.82300000      31.37500000
 H      34.29000000       3.57700000      30.81900000
 H      33.00700000       2.98200000      31.31400000
 O      13.75700000      31.63100000      34.12700000
 H      14.44100000      32.26700000      33.94700000
 H      12.94200000      32.14000000      34.18900000
 O      35.43100000      26.54600000      39.44300000
 H      35.12300000      25.75300000      40.02600000
 H      36.37500000      26.56600000      39.79900000
 O      15.87300000      29.50700000      30.75900000
 H      15.88900000      29.17400000      29.82100000
 H      16.36200000      28.75300000      31.14200000
 O      18.05100000      22.59700000      40.74400000
 H      18.30200000      22.72700000      41.68400000
 H      17.93200000      23.54600000      40.50700000
 O      16.64500000      40.05800000      28.39000000
 H      17.05800000      40.26500000      27.50600000
 H      16.85200000      39.15600000      28.58900000
 O      37.97700000      29.61900000      36.45900000
 H      38.58800000      30.17000000      36.99200000
 H      38.17100000      28.69800000      36.83900000
 O      19.59600000      18.53400000      40.59700000
 H      20.32600000      18.27500000      41.17500000
 H      19.90600000      19.41000000      40.29600000
 O      26.99000000      18.02100000      37.66600000
 H      27.30800000      18.49200000      36.89700000
 H      26.01500000      18.12300000      37.56900000
 O      32.06200000      28.94200000      31.28200000
 H      32.08200000      29.75500000      30.71100000
 H      32.28800000      28.27200000      30.65600000
 O      32.83800000      30.81800000      39.83100000
 H      33.10700000      30.62500000      40.71100000
 H      33.44400000      30.27900000      39.28700000
 O      18.55000000       1.01100000      38.85600000
 H      18.24000000       1.38200000      38.01100000
 H      17.86100000       1.29300000      39.47900000
 O      38.81400000      34.06600000      37.63700000
 H      38.16200000      34.40100000      36.96100000
 H      38.40700000      34.34500000      38.45000000
 O      40.46300000      26.17600000      37.77700000
 H      40.77900000      25.26000000      38.04300000
 H      41.30800000      26.67800000      37.88100000
 O      32.40300000      39.47600000      33.16700000
 H      31.69300000      38.86500000      32.85200000
 H      33.15000000      38.83600000      33.06500000
 O      18.86200000      20.77800000      37.82500000
 H      18.62800000      21.50100000      37.19100000
 H      17.96600000      20.39200000      37.91200000
 O      32.40900000      12.95000000      32.98100000
 H      33.14700000      12.61800000      32.43900000
 H      31.85200000      12.19800000      33.08600000
 O      23.53100000      13.82100000      32.74800000
 H      22.71700000      14.39300000      32.89400000
 H      24.11400000      14.52700000      32.32500000
 O      22.17700000      30.22000000      29.09900000
 H      21.35600000      30.75500000      28.93500000
 H      21.88600000      29.51300000      29.69400000
 O      31.10200000      37.78600000      38.96500000
 H      30.76800000      38.32500000      39.70800000
 H      31.65300000      38.44000000      38.48100000
 O      38.45000000       3.26100000      30.30500000
 H      38.68900000       2.65700000      31.03000000
 H      38.90100000       2.78000000      29.54800000
 O      14.19200000      38.43400000      35.18600000
 H      14.25800000      38.07600000      36.11500000
 H      13.28100000      38.71500000      35.14800000
 O      26.52100000      15.47500000      38.70900000
 H      26.67600000      16.07500000      37.98000000
 H      27.12200000      14.72700000      38.52100000
 O      40.68900000      29.09000000      28.77900000
 H      41.53700000      29.56000000      28.64800000
 H      40.13600000      29.80100000      29.20600000
 O      35.43300000      40.88100000      27.98100000
 H      36.26400000      40.75800000      27.64400000
 H      35.56700000      41.42000000      28.79500000
 O      22.19900000      24.35400000      33.39500000
 H      22.87200000      23.79900000      32.88200000
 H      21.43500000      24.23500000      32.79800000
 O      14.28000000      31.35200000      39.95300000
 H      13.29600000      31.30500000      40.06200000
 H      14.31200000      31.30000000      39.00800000
 O      26.76200000      20.70800000      27.74600000
 H      27.45200000      21.29900000      28.19200000
 H      26.27200000      20.28300000      28.40600000
 O      19.32800000       8.55100000      31.24100000
 H      19.59700000       7.58800000      31.06100000
 H      19.71500000       8.59300000      32.12600000
 O      16.86900000       5.32300000      28.55400000
 H      16.75700000       5.09800000      29.50900000
 H      16.06600000       4.88200000      28.18000000
 O      32.06000000      13.71500000      29.95000000
 H      31.56400000      13.13500000      29.33500000
 H      32.54500000      13.09300000      30.50100000
 O      31.93800000      24.22400000      29.51600000
 H      32.22600000      24.60300000      30.33300000
 H      32.71000000      23.76000000      29.19800000
 O      38.72600000      30.61800000      29.96100000
 H      37.80300000      30.89000000      30.18900000
 H      39.18600000      31.02500000      30.70300000
 O      17.73100000       1.45200000      36.42100000
 H      17.38800000       2.25200000      35.95200000
 H      17.43700000       0.78100000      35.77600000
 O      21.98700000      28.62200000      35.26800000
 H      22.64400000      27.85400000      35.16000000
 H      22.51700000      29.20800000      35.82600000
 O      19.80700000      34.24500000      36.63100000
 H      19.87300000      33.24500000      36.68400000
 H      20.76300000      34.41400000      36.74100000
 O      35.43900000       2.40200000      34.24900000
 H      35.74900000       1.95600000      35.07000000
 H      35.95200000       1.85100000      33.59900000
 O      17.56500000       9.16500000      39.28000000
 H      16.78000000       9.33100000      39.84600000
 H      17.46400000       8.15700000      39.22300000
 O      35.02100000       7.12900000      34.90700000
 H      35.12600000       6.91200000      35.84500000
 H      34.74100000       6.23300000      34.56700000
 O      38.30600000      13.29600000      27.75900000
 H      38.88400000      13.50300000      27.02600000
 H      38.16500000      14.11300000      28.27200000
 O      16.42500000       2.18700000      39.99500000
 H      15.82000000       2.70700000      40.56300000
 H      15.80400000       1.85000000      39.31600000
 O      21.69700000      11.56500000      27.17300000
 H      20.73700000      11.84000000      27.08700000
 H      21.76200000      11.62800000      28.13500000
 O      29.41300000      28.50300000      34.81500000
 H      30.29300000      28.04300000      34.91200000
 H      29.65700000      29.27300000      34.34200000
 O      31.40500000      15.60400000      31.80000000
 H      31.74100000      15.14600000      30.98200000
 H      31.69400000      14.96900000      32.46600000
 O      40.41400000      35.53400000      33.14300000
 H      41.25300000      36.05500000      32.90800000
 H      40.66300000      35.15300000      34.00300000
 O      19.52000000      28.21000000      29.00900000
 H      19.43300000      29.19100000      28.85300000
 H      19.32800000      28.11600000      29.93000000
 O      21.13700000      33.92800000      27.37300000
 H      22.06000000      34.20500000      27.71500000
 H      20.65400000      34.06900000      28.22100000
 O      23.53200000      24.05900000      37.37800000
 H      23.55100000      23.70300000      38.27900000
 H      23.00800000      24.87000000      37.53700000
 O      33.48000000      10.18800000      37.62000000
 H      34.15000000      10.80800000      37.49200000
 H      33.40300000       9.77500000      36.64400000
 O      37.31600000      20.58100000      38.96200000
 H      36.41400000      20.89000000      38.67300000
 H      37.08300000      19.59800000      39.00700000
 O      19.30900000      24.60100000      39.34300000
 H      19.19100000      25.56700000      39.33400000
 H      19.94500000      24.50800000      40.08500000
 O      37.31800000      22.97300000      28.25500000
 H      38.01000000      22.86200000      28.85500000
 H      37.83100000      22.90800000      27.36300000
 O      24.82400000      28.10700000      32.51800000
 H      25.78300000      27.86000000      32.59800000
 H      24.92600000      29.06100000      32.82500000
 O      14.55200000       1.85800000      37.85600000
 H      13.55100000       1.86400000      37.76100000
 H      14.79600000       2.55300000      37.18400000
 O      25.71700000      19.02700000      29.77500000
 H      24.78200000      18.88100000      29.43100000
 H      25.96400000      18.10500000      29.91400000
 O      27.15800000       3.24700000      39.59100000
 H      27.77200000       3.61500000      40.23600000
 H      26.36800000       3.03400000      40.11600000
 O      22.56000000       1.00800000      31.64000000
 H      22.74900000       1.49300000      32.47300000
 H      21.69500000       0.60500000      31.90000000
 O      28.91200000       8.92200000      31.22700000
 H      28.44300000       9.64700000      31.81400000
 H      28.27600000       8.21900000      31.46000000
 O      21.00000000       7.51400000      37.07400000
 H      20.76900000       6.70800000      37.64100000
 H      21.68800000       7.88200000      37.65000000
 O      14.67400000      13.27900000      33.15400000
 H      15.12200000      12.70000000      33.85200000
 H      14.91900000      14.18800000      33.46500000
 O      25.81200000      30.34200000      33.82600000
 H      26.66200000      30.36000000      33.34000000
 H      26.10800000      30.73200000      34.68300000
 O      28.24600000      19.98800000      30.69400000
 H      28.86700000      19.35000000      30.35800000
 H      27.39900000      19.53400000      30.49600000
 O      29.84500000       2.87700000      31.83300000
 H      29.06600000       3.15000000      32.27700000
 H      29.79500000       3.17500000      30.91800000
 O      26.80800000      32.04400000      29.09200000
 H      27.19500000      32.92700000      29.16500000
 H      25.97400000      32.25600000      29.64300000
 O      30.95700000      21.23000000      29.54300000
 H      31.32500000      21.02600000      30.46100000
 H      30.67000000      20.29500000      29.34700000
 O      13.72900000      36.10400000      29.40300000
 H      14.54300000      35.55600000      29.63400000
 H      14.12400000      36.99800000      29.64700000
 O      20.34000000      21.57800000      39.78000000
 H      19.63300000      22.17700000      40.13600000
 H      19.87200000      21.36900000      38.91900000
 O      39.95900000      31.64600000      37.57600000
 H      39.76200000      32.59100000      37.66400000
 H      39.93800000      31.55700000      36.58400000
 O      35.18200000      32.04900000      34.14800000
 H      35.42100000      31.57000000      34.99800000
 H      35.86500000      31.57600000      33.59700000
 O      19.93200000      10.08700000      40.61000000
 H      19.81900000       9.48000000      41.39800000
 H      19.14800000       9.74700000      40.07200000
 O      31.09000000      11.63300000      28.70200000
 H      30.74700000      10.73100000      28.77800000
 H      30.23600000      12.10400000      28.42300000
 O      17.11700000      18.79300000      31.86600000
 H      17.15800000      18.65100000      32.83300000
 H      17.25500000      17.87100000      31.53800000
 O      38.05200000       3.85300000      35.13500000
 H      37.29700000       3.50000000      34.58700000
 H      37.59200000       4.33300000      35.84300000
 O      35.83900000       1.20400000      36.59200000
 H      35.78600000       0.25800000      36.70100000
 H      36.73700000       1.37500000      36.95800000
 O      34.92500000      35.61800000      37.41200000
 H      35.90100000      35.66200000      37.11700000
 H      34.73600000      34.67300000      37.11600000
 O      25.51800000       4.64300000      34.53700000
 H      25.19500000       5.60000000      34.34000000
 H      25.96300000       4.76200000      35.38400000
 O      21.47100000      33.78000000      39.33700000
 H      20.93900000      34.52900000      39.58400000
 H      21.74100000      33.98800000      38.41800000
 O      22.36700000      33.92000000      31.98600000
 H      22.83600000      33.03600000      31.86100000
 H      22.35100000      33.95500000      32.95500000
 O      19.92800000       5.13500000      34.08000000
 H      20.10600000       6.05800000      34.36800000
 H      20.43400000       5.17800000      33.24800000
 O      14.60100000      16.05300000      33.84000000
 H      15.06100000      15.78900000      34.67300000
 H      14.38300000      16.96500000      34.03000000
 O      29.03400000      16.90100000      31.52700000
 H      28.46800000      16.67900000      32.27900000
 H      29.79300000      16.34500000      31.72100000
 O      39.94100000       2.00700000      28.31300000
 H      40.27200000       2.81300000      27.89000000
 H      40.64600000       1.36400000      28.18700000
 O      35.80700000      30.63900000      29.76300000
 H      35.30700000      31.46800000      29.99000000
 H      35.45300000      29.99800000      30.38300000
 O      30.64700000      30.45800000      33.11200000
 H      31.24300000      29.80800000      32.60800000
 H      31.25700000      31.24700000      33.06500000
 O      38.12700000       1.68800000      37.91300000
 H      37.71500000       1.64900000      38.85000000
 H      38.73600000       0.92700000      38.08400000
 O      21.39700000      31.03300000      33.34400000
 H      20.62400000      31.45500000      32.90400000
 H      20.96100000      30.26500000      33.72800000
 O      26.68600000      24.37800000      31.48400000
 H      25.72500000      24.13400000      31.33400000
 H      27.00800000      23.50300000      31.68000000
 O      28.94700000      12.85700000      33.66500000
 H      29.68900000      13.16900000      34.28900000
 H      28.21500000      13.10700000      34.28200000
 O      23.48700000      39.16500000      27.08600000
 H      24.41100000      39.44800000      27.08500000
 H      23.21200000      39.04600000      28.01700000
 O      28.98900000      22.48300000      28.26000000
 H      29.73800000      21.92200000      28.75300000
 H      29.10400000      23.33500000      28.75900000
 O      17.24800000      13.66800000      31.62400000
 H      16.45200000      13.16400000      31.65300000
 H      17.84800000      13.15100000      32.21800000
 O      31.06900000      10.75700000      32.59800000
 H      31.40200000       9.84200000      32.64000000
 H      30.15300000      10.49800000      32.90800000
 O      32.92900000       7.86800000      39.23100000
 H      33.83900000       7.63300000      39.64000000
 H      33.24000000       8.70000000      38.77500000
 O      32.48300000      32.46000000      33.02500000
 H      33.37800000      32.23800000      33.53000000
 H      32.09400000      33.08100000      33.68400000
 O      29.62200000      34.19700000      31.57600000
 H      29.46000000      33.87800000      32.49200000
 H      30.14800000      33.47100000      31.17900000
 O      30.17600000      36.76900000      30.82800000
 H      29.97000000      35.96300000      31.34300000
 H      31.12800000      36.70200000      30.72500000
 O      32.77200000       1.98700000      38.85700000
 H      31.86400000       2.41900000      38.74500000
 H      32.61300000       1.44500000      39.62900000
 O      23.34500000      30.51700000      36.69400000
 H      23.34600000      31.22000000      36.05100000
 H      24.27000000      30.50100000      36.98400000
 O      18.63200000      22.03100000      30.48400000
 H      17.83900000      22.48500000      30.12600000
 H      18.60100000      21.24300000      29.94100000
 O      18.07800000      18.40800000      34.40700000
 H      17.42000000      19.04500000      34.85500000
 H      18.34800000      17.87600000      35.14400000
 O      24.91000000       9.39200000      36.30500000
 H      24.01800000       9.14700000      36.56600000
 H      25.31700000       9.70600000      37.16200000
 O      27.34100000       6.80200000      32.07100000
 H      28.12700000       6.47300000      32.52700000
 H      26.83800000       7.23100000      32.74900000
 O      37.81600000      16.69200000      27.90000000
 H      38.58900000      16.08500000      28.04300000
 H      37.50800000      16.40000000      27.03500000
 O      36.92200000      40.39000000      32.96900000
 H      36.95100000      39.73700000      32.20900000
 H      36.76100000      39.72100000      33.67500000
 O      16.17300000      22.39400000      29.25500000
 H      15.82900000      21.51200000      29.59200000
 H      15.47700000      22.97600000      29.62700000
 O      39.95000000      16.00500000      36.74100000
 H      40.76000000      16.44200000      36.36400000
 H      39.67200000      16.62400000      37.44100000
 O      24.63200000       2.78000000      37.74100000
 H      24.18200000       1.91900000      37.77000000
 H      23.91900000       3.34500000      38.12500000
 O      31.89700000       2.92600000      28.09500000
 H      32.28700000       3.72500000      28.40300000
 H      31.98700000       3.04500000      27.09900000
 O      37.10600000      34.45800000      39.65500000
 H      37.24600000      34.16800000      40.55400000
 H      36.50000000      35.20000000      39.71500000
 O      17.61000000       3.75600000      34.52900000
 H      17.51800000       3.82200000      33.55200000
 H      18.52600000       4.17800000      34.58100000
 O      23.79300000      26.66400000      39.79100000
 H      22.99600000      26.69100000      39.18600000
 H      23.82200000      27.65200000      39.95200000
 O      27.98800000      34.53900000      29.40600000
 H      28.43100000      35.21600000      28.85500000
 H      28.52100000      34.68300000      30.24400000
 O      20.12300000      14.76300000      35.21500000
 H      19.70500000      13.88900000      35.42600000
 H      20.08200000      14.82400000      34.28500000
 O      40.81300000      38.66600000      33.85400000
 H      40.97700000      38.42900000      32.93100000
 H      41.53600000      39.25300000      34.09200000
 O      19.21400000       9.98900000      37.40600000
 H      19.73800000       9.20400000      37.35300000
 H      18.60700000       9.79900000      38.13400000
 O      15.58600000      11.19100000      34.91500000
 H      16.40500000      10.87800000      34.66800000
 H      15.67900000      11.49500000      35.83900000
 O      40.30500000       8.16800000      31.62900000
 H      40.12500000       7.50100000      30.94600000
 H      40.85200000       7.70100000      32.26400000
 O      19.68700000      30.95000000      28.93000000
 H      18.83900000      30.93800000      28.36600000
 H      19.59800000      31.84300000      29.32700000
 O      36.78900000      27.45500000      35.13800000
 H      37.07300000      28.22100000      35.66400000
 H      37.70600000      27.16200000      34.83800000
 O      25.38500000      14.52000000      30.85100000
 H      25.80900000      13.71400000      31.29800000
 H      24.62000000      14.03000000      30.41500000
 O      31.56300000       8.01400000      27.11500000
 H      31.56100000       8.76900000      26.49000000
 H      30.98600000       8.44500000      27.81600000
 O      35.08800000      34.80300000      29.95000000
 H      34.70800000      34.01000000      30.30500000
 H      34.60700000      35.53000000      30.35600000
 O      37.61400000      19.36200000      29.15100000
 H      37.62300000      18.50900000      28.78700000
 H      36.88100000      19.41000000      29.76300000
 O      30.93000000      22.79200000      40.73700000
 H      31.32200000      23.58900000      41.10400000
 H      31.01800000      22.18000000      41.51300000
 O      24.18400000      40.05900000      38.73600000
 H      23.14100000      40.15500000      38.87100000
 H      24.11200000      39.36900000      38.03200000
 O      28.75100000       6.11000000      28.29800000
 H      28.58900000       6.17300000      27.31500000
 H      28.26500000       6.85600000      28.71300000
 O      24.16500000      34.50200000      28.14900000
 H      24.11700000      33.86500000      28.90100000
 H      24.63000000      35.22900000      28.65100000
 O      40.82800000      12.06800000      32.34800000
 H      40.30500000      11.55700000      31.66200000
 H      41.61900000      12.22800000      31.86000000
 O      23.39300000      26.52200000      34.51600000
 H      24.00300000      26.84000000      33.79900000
 H      23.00000000      25.70200000      34.08800000
 O      29.30600000      27.35900000      37.44900000
 H      29.42200000      27.71100000      36.56900000
 H      28.31300000      27.22600000      37.50200000
 O      27.39000000      33.37200000      33.71900000
 H      27.82500000      32.50100000      33.81700000
 H      26.91400000      33.39800000      34.60500000
 O      38.40800000      19.08200000      34.11400000
 H      37.77500000      19.60000000      34.68700000
 H      38.71000000      19.80900000      33.57300000
 O      17.87400000      14.08100000      37.66300000
 H      18.24500000      14.94300000      38.00300000
 H      17.40900000      13.76200000      38.47500000
 O      32.59100000       0.90300000      35.20400000
 H      32.57200000       0.36100000      34.41700000
 H      33.40700000       1.42600000      35.06500000
 O      35.19000000       6.12700000      37.55500000
 H      35.41900000       6.59100000      38.35200000
 H      35.24300000       5.19700000      37.82300000
 O      37.92300000      27.03200000      29.99800000
 H      38.62800000      27.68600000      29.73700000
 H      38.48600000      26.21400000      29.81100000
 O      17.26100000      15.98800000      28.31900000
 H      16.85200000      15.26500000      27.69900000
 H      17.11700000      16.76500000      27.72100000
 O      24.64200000      13.29700000      39.17500000
 H      25.13900000      14.16700000      39.09600000
 H      25.39600000      12.83400000      39.66300000
 O      15.64100000      29.01400000      37.44500000
 H      15.28300000      29.81100000      37.03100000
 H      16.58700000      29.33300000      37.59900000
 O      21.32900000      31.13400000      39.71100000
 H      21.34100000      32.09300000      39.76600000
 H      22.30000000      30.90100000      39.57700000
 O      29.41200000      24.92800000      29.06800000
 H      30.32900000      24.72500000      29.20900000
 H      29.22700000      25.34800000      29.95200000
 O      27.43800000      27.58100000      33.00600000
 H      27.97800000      28.00900000      33.69600000
 H      27.83700000      27.95600000      32.19600000
 O      26.62400000      24.98000000      34.24500000
 H      26.80700000      25.91000000      34.02400000
 H      26.47800000      24.60600000      33.31400000
 O      24.88900000       8.65500000      32.19200000
 H      25.42300000       8.99700000      31.46300000
 H      24.37300000       9.41900000      32.43600000
 O      17.00900000      31.81000000      30.72700000
 H      17.57600000      31.70300000      31.50300000
 H      16.54800000      30.96100000      30.73500000
 O      24.39700000      29.24800000      40.46200000
 H      25.00100000      28.87200000      41.09500000
 H      24.30300000      30.16700000      40.65400000
 O      15.15400000      28.51600000      40.36300000
 H      14.91200000      29.50200000      40.35500000
 H      15.13500000      28.43600000      39.37400000
 O      21.76900000      19.20000000      36.66500000
 H      20.95800000      19.74700000      36.72900000
 H      21.32500000      18.32000000      36.43200000
 O      17.55900000      36.64200000      33.35700000
 H      16.62400000      36.82500000      33.49500000
 H      17.63400000      36.90100000      32.41800000
 O      37.58500000      14.43300000      31.71900000
 H      37.64600000      14.14700000      32.71200000
 H      37.64700000      13.53600000      31.34800000
 O      36.67700000      11.55100000      39.93700000
 H      37.47400000      12.06400000      40.18700000
 H      37.07300000      10.96400000      39.26600000
 O      33.50300000      26.50600000      37.03200000
 H      34.16000000      26.51800000      37.72000000
 H      32.68600000      26.35000000      37.53600000
 O      21.67200000       9.79500000      33.19700000
 H      22.44900000       9.98600000      32.64100000
 H      21.87000000      10.38600000      33.93400000
 O      32.16500000       1.50400000      31.30900000
 H      31.36000000       1.90500000      31.71100000
 H      32.34900000       0.80400000      32.00600000
 O      31.30100000      26.25100000      38.64600000
 H      31.16500000      26.62800000      39.51800000
 H      30.54400000      26.63200000      38.11700000
 O      33.78200000      32.40900000      30.81700000
 H      33.31800000      32.61200000      31.65700000
 H      33.08300000      31.98000000      30.31200000
 O      15.30400000      26.33100000      37.57200000
 H      16.08100000      26.16000000      37.01300000
 H      15.15700000      27.25800000      37.50400000
 O      32.92900000      37.03500000      30.74100000
 H      33.46600000      37.07900000      31.62700000
 H      33.60200000      37.57300000      30.22200000
 O      16.68700000      33.27000000      28.31100000
 H      16.81000000      32.86800000      29.25600000
 H      16.71900000      32.39900000      27.81700000
 O      25.58500000       7.54800000      34.59800000
 H      25.23300000       8.19800000      35.30200000
 H      25.26300000       8.00600000      33.82300000
 O      24.18800000       1.89800000      28.78700000
 H      24.23000000       1.68700000      29.76800000
 H      24.32400000       2.89400000      28.85800000
 O      35.35000000      25.33100000      35.36400000
 H      35.70600000      26.27400000      35.41600000
 H      34.54100000      25.42700000      35.97600000
 O      34.64300000      24.09400000      28.36600000
 H      35.52800000      23.74900000      28.47300000
 H      34.79000000      24.94800000      27.94400000
 O      19.66800000      38.90300000      37.69000000
 H      19.99500000      39.21900000      36.81300000
 H      19.14600000      39.67900000      37.89800000
 O      37.53000000      33.45100000      32.10500000
 H      36.58200000      33.77200000      32.35200000
 H      37.45200000      32.48600000      32.20600000
 O      37.14600000      30.79600000      32.74400000
 H      37.99800000      30.39600000      33.04800000
 H      36.68900000      29.91700000      32.51400000
 O      28.53900000      13.92400000      38.00900000
 H      28.95800000      13.06400000      37.85700000
 H      29.04600000      14.31000000      38.73100000
 O      27.89100000      40.66900000      29.99100000
 H      27.39900000      41.05600000      29.20500000
 H      28.49300000      41.39400000      30.23400000
 O      33.78800000      13.35500000      39.31100000
 H      34.70000000      13.05700000      39.40500000
 H      33.34600000      12.94400000      40.08700000
 O      30.00400000       2.92600000      35.03000000
 H      29.16400000       3.18500000      34.61300000
 H      30.29600000       2.21400000      34.45200000
 O      34.56400000      36.64700000      27.19000000
 H      34.80000000      37.28700000      27.90200000
 H      33.56000000      36.70100000      27.23700000
 O      27.45800000      22.72800000      40.11800000
 H      27.39500000      22.82400000      41.04000000
 H      27.17400000      21.83600000      39.96100000
 O      30.47300000      18.38400000      29.50800000
 H      30.49900000      17.88400000      30.30400000
 H      30.52700000      17.65000000      28.86100000
 O      24.89100000      12.21600000      28.35000000
 H      24.66800000      13.05300000      27.88200000
 H      25.18200000      11.74500000      27.51600000
 O      38.41600000      34.64900000      28.76800000
 H      37.58100000      34.71300000      29.12100000
 H      38.49600000      33.63400000      28.59200000
 O      31.68700000       5.80400000      28.39700000
 H      30.72300000       5.96400000      28.43700000
 H      31.92000000       6.65300000      27.90200000
 O      32.74800000      35.24700000      34.61200000
 H      33.03700000      35.45000000      35.53200000
 H      31.95200000      35.79400000      34.52400000
 O      29.59200000      20.28200000      40.23400000
 H      30.12700000      21.11700000      40.27200000
 H      29.83100000      19.93000000      39.35600000
 O      37.40200000      29.57600000      40.08300000
 H      37.78200000      29.05600000      39.38500000
 H      38.18600000      30.03600000      40.46500000
 O      14.40500000       7.56500000      38.04400000
 H      14.95000000       7.37700000      37.28200000
 H      15.02100000       7.74600000      38.75300000
 O      13.76400000      24.38600000      38.49400000
 H      14.38900000      25.10700000      38.22800000
 H      13.09100000      24.51100000      37.79600000
 O      15.42800000      25.61000000      32.06400000
 H      16.15900000      26.29600000      32.13700000
 H      14.91300000      26.05700000      32.82200000
 O      15.39700000      15.34900000      36.55000000
 H      15.37500000      16.12600000      37.12300000
 H      16.27200000      14.96900000      36.75400000
 O      17.36500000      37.59000000      30.62100000
 H      17.40400000      36.92400000      29.84100000
 H      18.14300000      38.08400000      30.33700000
 O      19.86800000       5.85200000      31.63700000
 H      18.96500000       5.47100000      31.77000000
 H      20.18300000       5.29200000      30.89900000
 O      33.49400000      33.10500000      36.80000000
 H      34.27800000      32.48300000      36.82500000
 H      32.81000000      32.57000000      36.43700000
 O      36.49600000      38.51500000      34.77500000
 H      37.37900000      38.15100000      34.96900000
 H      36.11000000      38.40700000      35.66600000
 O      17.37900000      38.30300000      39.53200000
 H      18.08400000      39.00700000      39.62000000
 H      17.86800000      37.71500000      38.91000000
 O      29.76700000      39.51800000      40.47500000
 H      29.55200000      40.16300000      41.21800000
 H      29.03600000      39.70700000      39.88000000
 O      21.63000000      11.49200000      35.25500000
 H      20.66800000      11.74100000      35.28100000
 H      21.92200000      12.28800000      35.76400000
 O      32.52800000      39.64400000      37.55300000
 H      32.38700000      40.09200000      36.69700000
 H      32.82900000      40.44200000      38.10100000
 O      24.08000000      27.63400000      28.49300000
 H      23.45800000      28.07700000      27.90500000
 H      24.06300000      28.23300000      29.26300000
 O      32.42000000      30.97800000      35.60100000
 H      32.87000000      30.45400000      34.94100000
 H      31.58400000      31.17000000      35.10900000
 O      21.13600000       2.74000000      35.23100000
 H      21.14500000       2.99900000      36.18800000
 H      20.66600000       3.51000000      34.90600000
 O      14.54300000      27.31800000      34.68800000
 H      14.80900000      28.13600000      34.16100000
 H      15.46600000      27.19000000      35.12500000
 O      19.94400000      27.04300000      34.53900000
 H      20.18500000      26.33600000      35.21300000
 H      20.74700000      27.60000000      34.65700000
 O      26.42900000      12.26400000      32.00400000
 H      27.14800000      12.12300000      31.37100000
 H      26.90300000      11.94600000      32.86000000
 O      18.99100000      12.33100000      35.96700000
 H      19.06300000      11.47500000      36.42700000
 H      18.66200000      12.87900000      36.72100000
 O      23.92000000      21.37500000      35.93800000
 H      23.34800000      22.21300000      36.10700000
 H      23.27600000      20.73300000      36.19800000
 O      32.98200000      27.46800000      29.39200000
 H      33.92500000      27.39200000      29.05300000
 H      32.44300000      27.19600000      28.60400000
 O      37.04100000      20.93900000      35.56100000
 H      37.45300000      21.81400000      35.69700000
 H      36.16700000      21.07400000      35.99000000
 O      29.98000000      35.76800000      35.06000000
 H      30.01600000      35.79500000      35.99500000
 H      29.14400000      36.21900000      34.85200000
 O      29.87200000      18.42400000      38.06700000
 H      29.63900000      18.80700000      37.21200000
 H      29.15500000      17.79100000      38.15500000
 O      21.96300000      10.95900000      38.80100000
 H      22.22900000      10.02200000      38.49100000
 H      21.29900000      10.73200000      39.52000000
 O      26.86900000      16.57600000      29.56400000
 H      26.46700000      15.83900000      29.96300000
 H      27.70500000      16.73000000      30.04000000
 O      25.59000000      37.36100000      32.70800000
 H      26.23600000      37.71600000      32.06800000
 H      25.47100000      36.44300000      32.49600000
 O      14.44200000      24.44800000      29.91900000
 H      13.84300000      25.26200000      29.88500000
 H      14.92600000      24.64700000      30.74200000
 O      26.11200000       9.77600000      38.83000000
 H      27.06600000       9.78400000      38.98800000
 H      25.75100000       9.41100000      39.61000000
 O      32.36500000      33.76700000      39.05700000
 H      32.80100000      33.64600000      38.16800000
 H      32.50200000      32.87700000      39.41300000
 O      24.19800000      31.93200000      40.58100000
 H      24.17400000      32.60900000      41.27800000
 H      24.53100000      32.43200000      39.81900000
 O      18.80000000      12.25900000      33.24900000
 H      18.61900000      11.28900000      33.13600000
 H      18.66700000      12.39700000      34.23600000
 O      28.41400000       6.04000000      39.58100000
 H      28.52800000       6.98600000      39.30000000
 H      27.48100000       5.98500000      39.55700000
 O      35.58100000      29.58100000      27.13200000
 H      35.76800000      30.21000000      26.33200000
 H      35.80900000      30.21900000      27.84700000
 O      31.93000000      27.50600000      35.01500000
 H      32.63900000      27.97700000      34.48400000
 H      32.40400000      26.72100000      35.33600000
 O      38.35400000      31.93800000      27.63300000
 H      39.18400000      31.89500000      27.18500000
 H      38.44900000      31.15600000      28.27600000
 O      22.92600000      15.65000000      28.86500000
 H      22.74200000      14.73400000      29.24000000
 H      23.53400000      15.40600000      28.11800000
 O      34.76600000      22.95600000      38.38300000
 H      34.75400000      22.35000000      37.56800000
 H      33.81700000      23.22400000      38.24400000
 O      15.04100000      20.36300000      30.76100000
 H      15.77900000      19.92000000      31.27800000
 H      14.42700000      19.60600000      30.64400000
 O      29.85400000       8.69600000      35.30900000
 H      29.99100000       8.27700000      36.15600000
 H      29.66200000       7.91400000      34.70600000
 O      16.24900000      28.28900000      27.94800000
 H      16.03600000      28.06300000      27.01400000
 H      16.44700000      27.37700000      28.25200000
 O      19.22100000      16.43400000      38.69700000
 H      18.96800000      17.25700000      39.18200000
 H      19.75600000      16.00900000      39.43500000
 O      29.72700000       9.39000000      28.70000000
 H      29.37300000       9.12400000      29.57200000
 H      29.02400000       9.37700000      28.09200000
 O      24.39100000      34.34400000      34.42000000
 H      23.93300000      35.18000000      34.23100000
 H      24.41100000      34.29500000      35.37300000
 O      37.31000000      14.19300000      34.47900000
 H      36.90300000      15.03600000      34.23300000
 H      37.38200000      14.35700000      35.46100000
 O      23.51500000       2.09600000      33.73500000
 H      22.88900000       2.23800000      34.43800000
 H      24.30000000       2.65500000      33.98400000
 O      20.83500000      22.32400000      35.40200000
 H      19.91300000      22.06800000      35.21900000
 H      21.19700000      22.54800000      34.50500000
 O      35.15900000       3.39900000      38.42600000
 H      34.21700000       2.99300000      38.62200000
 H      35.52900000       2.61800000      37.92300000
 O      39.59400000      19.84000000      36.85300000
 H      38.66700000      19.99600000      36.53700000
 H      40.11100000      19.96500000      36.02200000
 O      18.63400000      31.52400000      32.76600000
 H      18.55300000      32.42500000      33.12500000
 H      18.36500000      31.05300000      33.60800000
 O      31.81800000       4.97200000      35.25700000
 H      31.37100000       4.10500000      35.15500000
 H      32.73500000       4.73900000      34.98400000
 O      27.25900000      13.91800000      35.32000000
 H      27.55200000      13.82400000      36.24000000
 H      26.29200000      13.81000000      35.40700000
 O      15.61800000      13.89000000      39.61800000
 H      16.18600000      14.44000000      40.25000000
 H      15.37800000      13.19400000      40.28900000
 O      35.58400000      30.93200000      36.65300000
 H      36.54200000      30.70500000      36.69500000
 H      35.18700000      30.14500000      37.06000000
 O      36.65600000      17.80500000      39.18300000
 H      36.31100000      16.97200000      39.56000000
 H      35.91400000      18.03300000      38.54700000
 O      27.96700000      30.21900000      39.24100000
 H      28.27900000      29.71500000      40.06300000
 H      28.52700000      29.79500000      38.59600000
 O      34.83300000      19.07100000      37.86000000
 H      34.91700000      18.39200000      37.16400000
 H      33.90300000      19.42100000      37.60500000
 O      29.27800000      25.41700000      31.79900000
 H      29.13000000      26.36700000      31.96300000
 H      28.28900000      25.17500000      31.80400000
 O      29.67300000      16.13700000      36.03200000
 H      29.51200000      15.45800000      36.71300000
 H      30.46100000      15.77200000      35.55300000
 O      23.29000000      18.26500000      28.40300000
 H      22.79200000      17.43900000      28.56500000
 H      22.54600000      18.92600000      28.61000000
 O      25.03600000      33.12900000      37.85900000
 H      25.34700000      33.81300000      37.18800000
 H      25.85200000      32.63200000      37.93500000
 O      17.91400000       9.59800000      33.93400000
 H      17.15300000       9.07300000      33.65400000
 H      18.53800000       8.88800000      34.22200000
 O      37.57800000      10.66600000      28.33600000
 H      37.54300000      10.64700000      29.28900000
 H      37.78000000      11.63600000      28.14300000
 O      31.90100000      35.76100000      40.73800000
 H      31.55100000      36.33800000      39.97600000
 H      32.05600000      34.97500000      40.11900000
 O      22.60100000      12.96100000      29.84200000
 H      23.33800000      12.46800000      29.41400000
 H      21.93700000      12.25100000      29.89200000
 O      26.44700000      26.38900000      40.24700000
 H      26.65400000      26.65100000      39.34700000
 H      25.49500000      26.17200000      40.15900000
 O      19.53000000      27.59200000      31.88600000
 H      19.65600000      27.32800000      32.84300000
 H      20.52800000      27.70100000      31.66100000
 O      15.20500000      10.12200000      31.03500000
 H      15.63000000       9.89400000      30.16500000
 H      14.97900000      11.08100000      30.81700000
 O      22.50100000      36.62100000      30.68200000
 H      22.24200000      35.76400000      31.11900000
 H      23.29500000      36.45800000      30.22500000
 O      23.05500000       4.35000000      39.39800000
 H      22.48400000       5.07900000      39.66700000
 H      23.77300000       4.43200000      40.10600000
 O      19.53500000      39.43000000      30.20500000
 H      20.42400000      39.15200000      29.79400000
 H      19.20600000      39.95400000      29.44700000
 O      17.38900000      12.38600000      28.59400000
 H      16.86600000      13.08200000      28.92600000
 H      16.79700000      11.83300000      28.08900000
 O      15.18600000       4.08200000      30.59100000
 H      14.85200000       3.19400000      30.91000000
 H      14.51400000       4.64100000      30.94400000
 O      21.06800000       6.91600000      28.41900000
 H      21.67700000       7.01400000      27.65500000
 H      21.63900000       7.11900000      29.14500000
 O      39.75600000      14.66700000      30.07100000
 H      40.35600000      14.97800000      30.79700000
 H      38.93500000      14.89300000      30.40800000
 O      34.55900000      33.99000000      27.27800000
 H      34.71500000      34.88600000      26.99100000
 H      34.98900000      33.95000000      28.13200000
 O      37.81700000       9.75100000      38.19200000
 H      38.64800000      10.19600000      37.85900000
 H      37.09000000      10.15400000      37.74000000
 O      33.43100000      23.50400000      34.30400000
 H      32.60300000      23.97900000      34.51400000
 H      34.10700000      24.22300000      34.28100000
 O      40.62500000      15.63600000      27.79500000
 H      41.40800000      15.09900000      27.64300000
 H      40.40800000      15.40900000      28.71800000
 O      26.99200000      21.93800000      32.34400000
 H      27.34200000      21.15800000      31.81900000
 H      27.30100000      21.72500000      33.26500000
 O      20.12200000      33.77700000      29.86500000
 H      20.76300000      34.16100000      30.48700000
 H      19.31800000      34.42400000      30.04100000
 O      17.86400000      35.76700000      28.63700000
 H      18.54500000      35.91100000      27.93000000
 H      17.36400000      35.01500000      28.21600000
 O      28.03800000       9.65600000      33.57000000
 H      27.46900000      10.22200000      34.14500000
 H      28.71000000       9.42800000      34.23000000
 O      15.63700000      33.58800000      33.74200000
 H      15.34800000      34.52700000      33.68400000
 H      16.57900000      33.67200000      34.04500000
 O      37.10400000      25.18200000      33.09700000
 H      36.54400000      25.20100000      33.86200000
 H      36.68600000      25.85400000      32.50900000
 O      24.36400000       2.17800000      40.68100000
 H      24.24400000       1.38900000      40.06100000
 H      23.36900000       2.27000000      40.85300000
 O      16.39500000      39.95300000      34.46200000
 H      16.33100000      39.93400000      33.46400000
 H      15.52600000      39.50600000      34.66000000
 O      27.87800000      14.99500000      27.45900000
 H      27.43300000      15.61900000      28.10800000
 H      28.78600000      15.34600000      27.51100000
 O      17.64500000      30.62200000      35.20200000
 H      16.69800000      30.40800000      35.20800000
 H      17.70300000      31.08000000      36.00300000
 O      30.29300000      14.59200000      40.51200000
 H      29.69400000      15.40400000      40.73200000
 H      31.03500000      15.05600000      40.09100000
 O      26.20300000      20.30300000      35.12000000
 H      25.69100000      19.84200000      34.43800000
 H      25.46600000      20.84600000      35.50600000
 O      34.24000000      23.90500000      31.15800000
 H      35.06200000      23.49600000      30.80000000
 H      33.88100000      23.14000000      31.68300000
 O      20.70500000      15.10900000      40.47500000
 H      21.67600000      15.37500000      40.28700000
 H      20.88700000      14.16800000      40.75300000
 O      37.93900000      40.42900000      27.43200000
 H      38.47600000      41.18000000      27.66700000
 H      38.46600000      39.69800000      27.83800000
 O      17.53700000       4.42300000      31.94300000
 H      17.83800000       3.74600000      31.29300000
 H      16.62200000       4.50400000      31.68800000
 O      35.08400000      15.69600000      40.27800000
 H      34.44000000      15.05000000      39.91600000
 H      35.35700000      15.39500000      41.12000000
 O      35.38900000      19.39900000      31.09100000
 H      35.62200000      18.43900000      31.05000000
 H      34.39300000      19.31900000      31.32700000
 O      30.42600000       3.44000000      37.89600000
 H      30.41300000       2.71000000      37.33800000
 H      30.08000000       4.17800000      37.41500000
 O      24.32300000      22.64500000      31.96400000
 H      25.23000000      22.26700000      32.02600000
 H      23.82700000      21.81200000      31.75900000
 O      27.99900000      16.20400000      33.98400000
 H      27.65800000      15.29900000      34.35800000
 H      28.60700000      16.37000000      34.75500000
 O      34.72200000      15.28500000      28.78000000
 H      33.90500000      14.80600000      28.96200000
 H      34.75700000      15.16400000      27.83400000
 O      24.64100000      13.01200000      35.02800000
 H      23.91200000      12.96500000      35.71700000
 H      24.16600000      13.01200000      34.21900000
 O      33.26900000       6.61400000      30.41300000
 H      32.61000000       6.30100000      29.78700000
 H      33.58500000       5.82900000      30.83400000
 O      13.10000000      30.37300000      29.62900000
 H      14.02200000      30.09800000      29.80500000
 H      13.30200000      31.33300000      29.35700000
 O      18.68600000       8.14500000      28.56500000
 H      19.58100000       7.71500000      28.48900000
 H      18.73200000       8.54000000      29.46300000
 O      29.26100000      31.20100000      28.53900000
 H      29.40500000      31.21000000      27.59500000
 H      28.36500000      31.48500000      28.65800000
 O      30.03900000      32.80000000      34.96200000
 H      30.09300000      33.81500000      34.90700000
 H      29.64300000      32.77900000      35.88600000
 O      19.54800000      21.00700000      33.27800000
 H      18.73600000      20.58600000      33.64800000
 H      19.43400000      20.95100000      32.36400000
 O      36.17500000       4.57200000      27.80400000
 H      35.81300000       5.51200000      27.69900000
 H      36.78400000       4.60400000      27.09300000
 O      35.78000000      38.16700000      40.31500000
 H      34.79000000      37.90700000      40.26500000
 H      35.82000000      38.48300000      41.23700000
 O      25.23800000      36.92000000      39.12800000
 H      24.46400000      37.19600000      39.56200000
 H      25.62400000      36.33600000      39.84000000
 O      25.64800000      30.27500000      38.12400000
 H      25.15600000      29.77800000      38.84400000
 H      26.52600000      30.22600000      38.55400000
 O      21.14900000      22.06000000      27.92900000
 H      21.06000000      21.65000000      27.02600000
 H      22.10000000      22.01500000      28.04300000
 O      34.25500000      21.51300000      36.12000000
 H      34.00700000      22.06500000      35.34300000
 H      33.60800000      20.79400000      35.95500000
 O      38.34900000      37.21200000      39.40300000
 H      37.45200000      37.56900000      39.61900000
 H      38.49900000      36.69800000      40.20900000
 O      15.56400000      17.89600000      38.13200000
 H      14.60400000      17.89600000      38.31800000
 H      15.86200000      18.14200000      39.06900000
 O      28.11600000      30.45100000      32.49200000
 H      28.15300000      30.08700000      31.55600000
 H      29.10600000      30.55200000      32.61500000
 O      34.34400000       4.69700000      33.76600000
 H      34.76000000       3.76400000      33.78600000
 H      34.00900000       4.64000000      32.85600000
 O      25.95400000      30.05200000      27.49700000
 H      26.09500000      30.86000000      28.07400000
 H      26.55000000      29.39400000      27.98600000
 O      26.17900000      23.86700000      36.56600000
 H      25.22900000      23.91600000      36.78600000
 H      26.14200000      24.12000000      35.59100000
 O      15.33900000      29.65400000      33.36400000
 H      14.63500000      30.28100000      33.74300000
 H      15.10800000      29.69600000      32.39700000
 O      22.53200000      36.42200000      34.46700000
 H      22.90000000      37.30400000      34.14400000
 H      21.63800000      36.42900000      34.10700000
 O      39.88000000      39.65400000      38.70800000
 H      40.54100000      39.30400000      38.17900000
 H      39.28300000      38.87700000      38.92000000
 O      31.11200000      11.02000000      38.70600000
 H      30.50400000      11.12000000      37.95200000
 H      32.01100000      10.75100000      38.25900000
 O      31.04400000       6.94100000      37.48900000
 H      31.68200000       6.45700000      36.96100000
 H      31.69900000       7.35900000      38.18600000
 O      38.86100000      22.64500000      39.29700000
 H      38.43700000      21.77200000      39.06100000
 H      38.63000000      22.71600000      40.23000000
 O      27.14100000      31.64500000      36.10400000
 H      27.74000000      32.15700000      36.63000000
 H      26.79900000      30.93900000      36.68100000
 O      20.77400000      37.75800000      40.71300000
 H      20.07000000      38.13200000      41.27600000
 H      21.00000000      38.56400000      40.15100000
 O      30.84800000      24.65400000      33.75400000
 H      30.93000000      25.49100000      34.18200000
 H      30.18200000      24.85800000      33.03700000
 O      25.65600000       6.74600000      38.59600000
 H      25.94400000       6.00800000      38.04000000
 H      25.95600000       7.54400000      38.10400000
 O      28.60500000       9.42000000      40.00900000
 H      29.43500000       9.95300000      39.85700000
 H      28.26600000       9.88100000      40.79000000
 O      27.38000000       3.41600000      32.98800000
 H      26.59600000       3.61400000      33.56700000
 H      27.15200000       3.84900000      32.19800000
 O      39.69600000      30.25700000      33.39900000
 H      40.27600000      29.43200000      33.49600000
 H      40.32500000      30.86600000      33.88300000
 O      26.80900000       4.26900000      37.05300000
 H      25.95500000       3.80200000      37.29500000
 H      27.38600000       3.80400000      37.75100000
 O      28.75800000      12.58400000      27.84000000
 H      28.37300000      13.48000000      27.95400000
 H      28.08000000      12.16100000      27.36100000
 O      17.08300000      26.30800000      35.42500000
 H      17.82100000      26.87400000      35.37000000
 H      17.21600000      25.61700000      34.75500000
 O      22.86800000      20.00200000      31.63800000
 H      23.42500000      19.19700000      31.38500000
 H      23.10600000      20.02400000      32.59700000
 O      22.37300000      34.59100000      37.02600000
 H      22.78300000      35.28200000      36.53100000
 H      23.03900000      34.14500000      37.46000000
 O      26.69300000      19.81600000      40.01400000
 H      27.61500000      19.54200000      40.13700000
 H      26.49700000      19.47400000      39.11200000
 O      23.32800000       7.15300000      30.31300000
 H      23.40200000       7.46100000      31.23800000
 H      23.88500000       7.79800000      29.86800000
 O      37.18700000      35.79900000      36.16300000
 H      37.84500000      36.49100000      36.04700000
 H      36.96000000      35.56500000      35.27700000
 O      35.46000000      12.18500000      36.56300000
 H      36.25300000      12.79200000      36.49800000
 H      34.74900000      12.87400000      36.31500000
 O      32.40400000      19.55500000      36.22900000
 H      31.82200000      20.34100000      36.35900000
 H      32.09700000      19.21400000      35.38000000
 O      14.76100000      31.53800000      36.80600000
 H      15.25500000      32.39300000      36.80100000
 H      14.30700000      31.57900000      35.96600000
 O      34.95500000      38.43000000      37.04400000
 H      34.10400000      38.90500000      37.28500000
 H      34.63000000      37.51000000      37.20800000
 O      39.51500000      16.94100000      31.60900000
 H      39.54500000      17.03100000      32.56700000
 H      40.45300000      16.49400000      31.53800000
 O      37.15600000      11.63000000      31.20500000
 H      36.38500000      11.53300000      30.56600000
 H      36.74700000      11.20500000      32.02600000
 O      27.27000000      37.22400000      35.37800000
 H      27.43700000      37.89700000      36.06200000
 H      27.02700000      37.70800000      34.63300000
 O      14.63300000      39.25700000      39.12000000
 H      14.79200000      40.05200000      38.60600000
 H      15.55600000      39.04300000      39.39800000
 O      14.83800000      24.48200000      27.12000000
 H      15.70300000      24.77500000      26.78200000
 H      15.12500000      24.21600000      28.03700000
 O      39.90500000      13.17900000      34.58000000
 H      40.15900000      12.64000000      33.77400000
 H      39.01200000      13.45300000      34.30400000
 O      15.83300000       8.04900000      32.87000000
 H      15.74700000       8.80700000      32.21700000
 H      16.10500000       7.38000000      32.19800000
 O      28.61000000      20.11800000      36.03700000
 H      28.64600000      21.08600000      36.24600000
 H      27.76400000      20.14800000      35.56100000
 O      26.70000000      11.15600000      35.23000000
 H      26.25300000      10.36500000      35.62000000
 H      25.96900000      11.76300000      35.09100000
 O      37.10100000      23.65100000      36.54200000
 H      36.62400000      23.14600000      37.21000000
 H      36.37200000      24.22000000      36.23100000
 O      23.69800000       4.48100000      29.51900000
 H      23.58100000       5.42400000      29.51600000
 H      24.52700000       4.39600000      30.01800000
 O      25.80600000      36.27200000      29.50300000
 H      26.34400000      35.52900000      29.95900000
 H      26.30100000      37.04400000      29.87600000
 O      40.69300000       5.03200000      39.35600000
 H      39.83200000       5.48900000      39.49800000
 H      40.45500000       4.39500000      38.65800000
 O      16.94800000      16.19600000      30.87300000
 H      17.04900000      16.10100000      29.89400000
 H      17.12100000      15.27600000      31.15000000
 O      20.08900000      18.26700000      32.42200000
 H      19.24200000      17.96900000      32.84600000
 H      20.15100000      19.16200000      32.75300000
 O      18.88900000      19.85100000      28.96300000
 H      19.00400000      19.02600000      29.46200000
 H      19.72600000      19.87400000      28.46100000
 O      20.82300000      40.05200000      35.54000000
 H      21.03100000      39.99900000      34.57300000
 H      20.99000000      41.01700000      35.65200000
 O      14.61900000      36.55100000      33.34000000
 H      14.39300000      37.20700000      34.03900000
 H      14.08600000      36.96300000      32.58600000
 O      22.24100000      39.02900000      29.51800000
 H      22.31700000      38.16900000      29.96500000
 H      22.46900000      39.61600000      30.24200000
 O      23.80000000      23.87200000      40.30000000
 H      23.85900000      24.81300000      40.01400000
 H      24.33200000      23.95200000      41.18800000
 O      25.53500000      18.06600000      33.27900000
 H      25.03700000      17.60500000      32.56100000
 H      26.38500000      17.64000000      33.23000000
 O      20.02200000      37.15300000      33.61200000
 H      20.04600000      38.12700000      33.47000000
 H      19.07300000      36.95800000      33.70500000
 O      38.40500000      27.73500000      38.23500000
 H      39.25100000      27.24500000      38.15200000
 H      37.91700000      27.05800000      38.83300000
 O      19.54000000       5.87000000      38.93600000
 H      18.59200000       5.68900000      39.04700000
 H      19.67400000       6.58400000      39.63700000
 O      21.41800000      40.27700000      39.59200000
 H      20.94600000      40.55200000      38.79700000
 H      20.88000000      40.61600000      40.31100000
 O      39.40100000      26.55000000      35.27300000
 H      39.09700000      25.61300000      35.36900000
 H      40.04300000      26.60600000      36.01600000
 O      37.86700000      22.34200000      32.79000000
 H      37.15200000      21.92600000      32.26000000
 H      37.48000000      23.18900000      33.10600000
 O      31.72100000      31.10400000      29.65200000
 H      32.21200000      30.75900000      28.93700000
 H      30.79000000      31.22000000      29.19500000
 O      35.04000000      29.28100000      38.90000000
 H      34.96500000      28.34400000      39.15800000
 H      35.90900000      29.44800000      39.36600000
 O      40.75000000      12.06300000      40.00900000
 H      41.14600000      12.80200000      39.46000000
 H      41.53100000      11.42800000      39.92800000
 O      17.94800000      30.03300000      38.19300000
 H      17.76200000      30.50100000      39.07700000
 H      18.59000000      30.61900000      37.88200000
 O      39.64100000       9.18000000      34.43300000
 H      38.72100000       9.32900000      34.76200000
 H      39.40100000       8.85100000      33.53900000
 O      15.60500000       6.94700000      35.71800000
 H      15.81800000       7.26700000      34.82000000
 H      16.19100000       6.16400000      35.80200000
 O      29.31700000      36.45000000      27.93300000
 H      30.33000000      36.56500000      28.04300000
 H      29.07300000      37.38100000      27.96700000
 O      29.27400000       3.41900000      29.01700000
 H      29.17100000       4.34700000      28.64800000
 H      30.08300000       3.16400000      28.45600000
 O      16.77500000       4.35400000      38.15800000
 H      16.92600000       3.38800000      38.50700000
 H      15.95000000       4.18500000      37.63700000
 O      20.23300000       7.72300000      34.51400000
 H      20.48600000       7.86700000      35.45200000
 H      20.68400000       8.47100000      34.09000000
 O      32.32100000       7.92200000      32.82400000
 H      33.00600000       7.70000000      32.17900000
 H      31.72900000       7.17000000      32.74900000
 O      40.12300000      33.39400000      31.35600000
 H      40.21600000      34.24100000      31.93600000
 H      39.12400000      33.35600000      31.38800000
 O      18.25300000      23.24500000      36.64400000
 H      17.40600000      23.55100000      36.34800000
 H      18.43300000      23.83500000      37.41200000
 O      21.31100000       2.62100000      29.67100000
 H      21.85400000       2.14100000      30.33700000
 H      22.03600000       3.30700000      29.48900000
 O      18.28400000      36.32500000      37.77800000
 H      18.95000000      37.06600000      37.62700000
 H      18.76300000      35.61800000      37.32500000
 O      29.93100000      32.01500000      40.18300000
 H      29.13000000      31.57200000      40.05700000
 H      30.62700000      31.39100000      40.16900000
 O      27.91400000      37.98900000      38.21000000
 H      27.84400000      38.94300000      38.41500000
 H      27.12000000      37.61800000      38.63900000
 O      39.48200000      23.59500000      35.19700000
 H      39.23900000      23.27600000      34.33200000
 H      38.67100000      23.41400000      35.72300000
 O      40.01600000      10.50300000      30.49100000
 H      39.03300000      10.37200000      30.71900000
 H      40.35000000       9.62100000      30.81800000
 O      15.45700000      12.01900000      37.39500000
 H      15.48200000      11.23700000      38.04900000
 H      15.39700000      12.79100000      38.01400000
 O      16.11200000      21.37800000      39.70300000
 H      16.86100000      21.90100000      40.11600000
 H      16.18200000      20.55800000      40.32900000
 O      29.60800000      35.97700000      37.74500000
 H      28.96100000      36.62900000      37.98000000
 H      30.43300000      36.43800000      38.10000000
 O      15.98300000       9.50700000      28.65900000
 H      15.52900000       9.43600000      27.83200000
 H      16.92500000       9.34700000      28.44400000
 O      17.58200000      24.31000000      33.37400000
 H      16.78000000      24.51900000      32.84400000
 H      17.12300000      23.68000000      34.00600000
 O      40.08900000       3.49400000      36.99800000
 H      40.37700000       3.46200000      36.06000000
 H      39.32400000       2.91200000      36.90000000
 O      29.21100000      11.26100000      36.67400000
 H      29.65200000      10.62900000      36.08000000
 H      28.31100000      11.20900000      36.22800000
 O      39.30400000      37.52500000      35.98300000
 H      39.77600000      37.83200000      35.14700000
 H      40.12000000      37.49000000      36.56800000
 O      14.02600000      39.00200000      29.02500000
 H      14.28000000      38.48300000      28.23600000
 H      14.51600000      39.87800000      28.77300000
 O      40.25400000      19.25900000      30.13200000
 H      39.35900000      19.45100000      29.74600000
 H      39.97500000      18.57700000      30.81700000
 O      15.74800000      39.46500000      31.72000000
 H      16.42100000      38.92900000      31.21600000
 H      15.02700000      38.82800000      31.68500000
 O      14.42100000      35.28000000      39.22400000
 H      15.29200000      34.81200000      39.15700000
 H      14.04500000      34.84700000      40.00900000
 O      37.35900000       8.17600000      30.85300000
 H      37.28600000       8.11700000      31.81100000
 H      38.04800000       7.49600000      30.66300000
 O      40.70000000      36.40800000      28.85700000
 H      39.91400000      35.85100000      28.83300000
 H      41.07000000      36.25200000      27.96200000
 O      14.38300000       1.92500000      28.65700000
 H      14.41600000       2.88400000      28.66200000
 H      15.28100000       1.69000000      28.89300000
 O      16.42100000      19.88000000      36.19500000
 H      15.83200000      20.57200000      36.35900000
 H      16.19600000      19.21600000      36.86200000
 O      22.92300000      12.91100000      37.15000000
 H      22.48500000      12.22400000      37.75900000
 H      23.53900000      13.27700000      37.79800000
 O      29.74600000       6.22800000      33.74700000
 H      30.53200000       5.74100000      33.99600000
 H      29.21500000       6.07800000      34.61800000
 O      26.38900000       4.79500000      30.58500000
 H      27.17600000       4.55700000      30.09200000
 H      26.66500000       5.68000000      30.88300000
 O      31.92500000      37.32300000      28.16900000
 H      31.81400000      38.30100000      28.28500000
 H      32.23800000      37.07400000      29.06400000
 O      40.03700000      33.18300000      40.31600000
 H      39.79100000      34.02600000      40.73100000
 H      39.84900000      33.45700000      39.38900000
 O      16.75400000      18.56700000      40.54600000
 H      16.41900000      17.94100000      41.23600000
 H      17.69600000      18.62500000      40.78300000
 O      21.35100000      26.57700000      28.09400000
 H      20.59600000      27.03300000      28.49400000
 H      21.68800000      26.09000000      28.86400000
 O      37.40200000      38.58300000      30.93800000
 H      37.70100000      37.74000000      31.35700000
 H      38.05900000      38.64300000      30.21800000
 O      13.54300000       6.59200000      28.03800000
 H      12.71000000       6.90800000      27.65800000
 H      14.06100000       7.46500000      27.89500000
 O      30.97000000      21.88400000      36.21800000
 H      30.16200000      22.33900000      36.50300000
 H      31.64100000      22.38100000      36.80400000
 O      17.11700000      25.93000000      29.06800000
 H      17.68000000      26.19500000      29.85100000
 H      17.69600000      25.17300000      28.81900000
 O      26.59900000      26.66700000      37.50700000
 H      26.08700000      27.01900000      36.74600000
 H      26.56900000      25.68500000      37.26300000
 O      34.57000000      26.50700000      31.58400000
 H      34.50700000      25.50900000      31.48400000
 H      33.86000000      26.76600000      30.97700000
 O      36.40800000      16.55700000      33.65100000
 H      36.24000000      16.58300000      32.68500000
 H      37.11700000      17.24700000      33.70000000
 O      15.20000000      34.34000000      30.64500000
 H      15.29200000      34.35100000      31.64800000
 H      15.60000000      33.46200000      30.46000000
 O      27.86500000      28.20300000      27.82000000
 H      27.64900000      27.29100000      27.55500000
 H      28.32300000      28.52500000      26.99600000
 O      37.68300000      14.32800000      37.07900000
 H      37.61900000      14.05400000      38.08400000
 H      38.53300000      14.79400000      37.15100000
 O      33.55200000       9.47400000      34.91600000
 H      33.95800000       8.60000000      34.77800000
 H      32.76200000       9.38300000      34.32600000
 O      23.53800000      38.87300000      33.50900000
 H      23.61100000      39.71400000      33.10600000
 H      24.35500000      38.36300000      33.12000000
 O      35.09200000      37.27200000      32.63600000
 H      35.76300000      36.55700000      32.70600000
 H      35.46900000      37.79900000      33.40400000
 O      35.00100000       8.80900000      29.66300000
 H      34.49100000       7.99200000      29.92900000
 H      35.85200000       8.66800000      30.06000000
 O      20.55400000      10.74100000      29.80500000
 H      20.36100000      10.07300000      30.51000000
 H      19.62600000      11.01100000      29.57700000
 O      33.64800000      11.18800000      30.81100000
 H      33.98900000      10.24700000      30.71500000
 H      32.86200000      11.04300000      30.24600000
 O      34.98200000      16.90700000      36.08700000
 H      35.46800000      17.02800000      35.29000000
 H      34.67800000      15.96800000      36.07300000
 O      14.37200000       1.79500000      31.98800000
 H      13.84000000       1.76700000      32.81000000
 H      14.78600000       0.94600000      31.95700000
 O      21.81900000      22.22200000      30.66500000
 H      22.02000000      21.28500000      30.96200000
 H      21.11200000      22.13800000      30.04200000
 O      39.27800000      38.58400000      29.00600000
 H      39.68400000      37.71000000      29.04800000
 H      40.11800000      39.07000000      28.69900000
 O      40.43100000       3.24700000      33.96600000
 H      39.74100000       3.94100000      34.01200000
 H      40.04300000       2.58100000      33.37700000
 O      39.25800000      22.63400000      30.55100000
 H      38.60100000      22.59900000      31.27600000
 H      40.08600000      22.70900000      31.04600000
 O      23.93300000      31.62500000      32.38300000
 H      24.64700000      31.32500000      33.04600000
 H      23.11700000      31.28900000      32.89900000
 O      32.52500000      18.68400000      32.01700000
 H      32.13200000      17.78100000      31.84800000
 H      31.78400000      19.01500000      32.60400000
 O      27.27800000      40.54000000      39.26100000
 H      27.29500000      41.50300000      39.12000000
 H      26.32400000      40.37600000      39.42300000
 O      13.90200000      37.28300000      37.55100000
 H      14.05200000      38.05500000      38.26700000
 H      14.29300000      36.59900000      38.11800000
 O      39.07700000       5.85200000      30.35600000
 H      38.82200000       4.89600000      30.49400000
 H      38.96200000       5.88500000      29.37200000
 O      19.90600000      24.26100000      32.13300000
 H      19.67200000      23.38000000      31.91900000
 H      19.05000000      24.50000000      32.60700000
 O      24.03500000      32.33300000      29.64500000
 H      24.14900000      32.17200000      30.55700000
 H      23.36000000      31.71700000      29.33200000
 O      38.38900000      13.75500000      39.65000000
 H      39.22400000      13.40800000      39.99800000
 H      38.23700000      14.51000000      40.32200000
 O      23.86800000      17.14500000      31.59300000
 H      23.59500000      16.50100000      30.91400000
 H      23.19700000      16.94400000      32.31200000
 O      32.02600000      23.62500000      38.20300000
 H      31.59200000      23.14200000      39.00500000
 H      31.77600000      24.52800000      38.37400000
