345
XYZ file of cluster: frame_14000_75bb8.c5050.9e15b - created by MolEdiTo
 O      24.18400000      40.05900000      38.73600000
 H      23.14100000      40.15500000      38.87100000
 H      24.11200000      39.36900000      38.03200000
 O      24.16500000      34.50200000      28.14900000
 H      24.11700000      33.86500000      28.90100000
 H      24.63000000      35.22900000      28.65100000
 O      31.71400000      40.04100000      28.91500000
 H      31.66600000      40.86100000      28.35700000
 H      32.06000000      40.45300000      29.73400000
 O      30.17600000      36.76900000      30.82800000
 H      29.97000000      35.96300000      31.34300000
 H      31.12800000      36.70200000      30.72500000
 O      34.97300000      38.41900000      29.45800000
 H      35.86200000      38.43900000      29.87700000
 H      34.93400000      39.34800000      29.12300000
 O      37.93900000      40.42900000      27.43200000
 H      38.47600000      41.18000000      27.66700000
 H      38.46600000      39.69800000      27.83800000
 O      20.77400000      37.75800000      40.71300000
 H      20.07000000      38.13200000      41.27600000
 H      21.00000000      38.56400000      40.15100000
 O      27.91400000      37.98900000      38.21000000
 H      27.84400000      38.94300000      38.41500000
 H      27.12000000      37.61800000      38.63900000
 O      32.92900000      37.03500000      30.74100000
 H      33.46600000      37.07900000      31.62700000
 H      33.60200000      37.57300000      30.22200000
 O      27.89100000      40.66900000      29.99100000
 H      27.39900000      41.05600000      29.20500000
 H      28.49300000      41.39400000      30.23400000
 O      23.53800000      38.87300000      33.50900000
 H      23.61100000      39.71400000      33.10600000
 H      24.35500000      38.36300000      33.12000000
 O      35.09200000      37.27200000      32.63600000
 H      35.76300000      36.55700000      32.70600000
 H      35.46900000      37.79900000      33.40400000
 O      25.80600000      36.27200000      29.50300000
 H      26.34400000      35.52900000      29.95900000
 H      26.30100000      37.04400000      29.87600000
 O      36.49600000      38.51500000      34.77500000
 H      37.37900000      38.15100000      34.96900000
 H      36.11000000      38.40700000      35.66600000
 O      29.60800000      35.97700000      37.74500000
 H      28.96100000      36.62900000      37.98000000
 H      30.43300000      36.43800000      38.10000000
 O      32.40300000      39.47600000      33.16700000
 H      31.69300000      38.86500000      32.85200000
 H      33.15000000      38.83600000      33.06500000
 O      31.90100000      35.76100000      40.73800000
 H      31.55100000      36.33800000      39.97600000
 H      32.05600000      34.97500000      40.11900000
 O      34.92500000      35.61800000      37.41200000
 H      35.90100000      35.66200000      37.11700000
 H      34.73600000      34.67300000      37.11600000
 O      27.76800000      37.84900000      30.58500000
 H      27.85300000      38.80700000      30.32100000
 H      28.72200000      37.58300000      30.55800000
 O      39.30400000      37.52500000      35.98300000
 H      39.77600000      37.83200000      35.14700000
 H      40.12000000      37.49000000      36.56800000
 O      20.82300000      40.05200000      35.54000000
 H      21.03100000      39.99900000      34.57300000
 H      20.99000000      41.01700000      35.65200000
 O      29.76700000      39.51800000      40.47500000
 H      29.55200000      40.16300000      41.21800000
 H      29.03600000      39.70700000      39.88000000
 O      36.92200000      40.39000000      32.96900000
 H      36.95100000      39.73700000      32.20900000
 H      36.76100000      39.72100000      33.67500000
 O      22.24100000      39.02900000      29.51800000
 H      22.31700000      38.16900000      29.96500000
 H      22.46900000      39.61600000      30.24200000
 O      32.52800000      39.64400000      37.55300000
 H      32.38700000      40.09200000      36.69700000
 H      32.82900000      40.44200000      38.10100000
 O      24.39100000      34.34400000      34.42000000
 H      23.93300000      35.18000000      34.23100000
 H      24.41100000      34.29500000      35.37300000
 O      22.76800000      38.43900000      36.96000000
 H      21.94900000      38.70000000      36.47200000
 H      23.08200000      37.77400000      36.39600000
 O      22.50100000      36.62100000      30.68200000
 H      22.24200000      35.76400000      31.11900000
 H      23.29500000      36.45800000      30.22500000
 O      39.27800000      38.58400000      29.00600000
 H      39.68400000      37.71000000      29.04800000
 H      40.11800000      39.07000000      28.69900000
 O      31.10200000      37.78600000      38.96500000
 H      30.76800000      38.32500000      39.70800000
 H      31.65300000      38.44000000      38.48100000
 O      34.56400000      36.64700000      27.19000000
 H      34.80000000      37.28700000      27.90200000
 H      33.56000000      36.70100000      27.23700000
 O      40.70000000      36.40800000      28.85700000
 H      39.91400000      35.85100000      28.83300000
 H      41.07000000      36.25200000      27.96200000
 O      22.37300000      34.59100000      37.02600000
 H      22.78300000      35.28200000      36.53100000
 H      23.03900000      34.14500000      37.46000000
 O      40.41400000      35.53400000      33.14300000
 H      41.25300000      36.05500000      32.90800000
 H      40.66300000      35.15300000      34.00300000
 O      37.98300000      36.31000000      32.26000000
 H      38.84500000      36.14500000      32.70800000
 H      37.87700000      35.40700000      31.82300000
 O      25.51300000      35.62600000      36.55600000
 H      26.24800000      36.18900000      36.08600000
 H      25.36500000      36.32700000      37.30200000
 O      37.18700000      35.79900000      36.16300000
 H      37.84500000      36.49100000      36.04700000
 H      36.96000000      35.56500000      35.27700000
 O      35.78000000      38.16700000      40.31500000
 H      34.79000000      37.90700000      40.26500000
 H      35.82000000      38.48300000      41.23700000
 O      37.10600000      34.45800000      39.65500000
 H      37.24600000      34.16800000      40.55400000
 H      36.50000000      35.20000000      39.71500000
 O      25.23800000      36.92000000      39.12800000
 H      24.46400000      37.19600000      39.56200000
 H      25.62400000      36.33600000      39.84000000
 O      21.41800000      40.27700000      39.59200000
 H      20.94600000      40.55200000      38.79700000
 H      20.88000000      40.61600000      40.31100000
 O      34.55900000      33.99000000      27.27800000
 H      34.71500000      34.88600000      26.99100000
 H      34.98900000      33.95000000      28.13200000
 O      27.98800000      34.53900000      29.40600000
 H      28.43100000      35.21600000      28.85500000
 H      28.52100000      34.68300000      30.24400000
 O      27.27800000      40.54000000      39.26100000
 H      27.29500000      41.50300000      39.12000000
 H      26.32400000      40.37600000      39.42300000
 O      35.43300000      40.88100000      27.98100000
 H      36.26400000      40.75800000      27.64400000
 H      35.56700000      41.42000000      28.79500000
 O      31.92500000      37.32300000      28.16900000
 H      31.81400000      38.30100000      28.28500000
 H      32.23800000      37.07400000      29.06400000
 O      29.98000000      35.76800000      35.06000000
 H      30.01600000      35.79500000      35.99500000
 H      29.14400000      36.21900000      34.85200000
 O      34.95500000      38.43000000      37.04400000
 H      34.10400000      38.90500000      37.28500000
 H      34.63000000      37.51000000      37.20800000
 O      40.81300000      38.66600000      33.85400000
 H      40.97700000      38.42900000      32.93100000
 H      41.53600000      39.25300000      34.09200000
 O      37.40200000      38.58300000      30.93800000
 H      37.70100000      37.74000000      31.35700000
 H      38.05900000      38.64300000      30.21800000
 O      38.34900000      37.21200000      39.40300000
 H      37.45200000      37.56900000      39.61900000
 H      38.49900000      36.69800000      40.20900000
 O      29.15800000      39.07700000      27.88800000
 H      29.90600000      39.21700000      28.50800000
 H      29.48100000      39.38900000      27.03700000
 O      29.31700000      36.45000000      27.93300000
 H      30.33000000      36.56500000      28.04300000
 H      29.07300000      37.38100000      27.96700000
 O      27.27000000      37.22400000      35.37800000
 H      27.43700000      37.89700000      36.06200000
 H      27.02700000      37.70800000      34.63300000
 O      25.59000000      37.36100000      32.70800000
 H      26.23600000      37.71600000      32.06800000
 H      25.47100000      36.44300000      32.49600000
 O      35.46400000      34.59100000      33.58900000
 H      35.45100000      33.74600000      34.12300000
 H      34.54700000      34.90300000      33.72900000
 O      23.48700000      39.16500000      27.08600000
 H      24.41100000      39.44800000      27.08500000
 H      23.21200000      39.04600000      28.01700000
 O      32.74800000      35.24700000      34.61200000
 H      33.03700000      35.45000000      35.53200000
 H      31.95200000      35.79400000      34.52400000
 O      35.08800000      34.80300000      29.95000000
 H      34.70800000      34.01000000      30.30500000
 H      34.60700000      35.53000000      30.35600000
 O      22.53200000      36.42200000      34.46700000
 H      22.90000000      37.30400000      34.14400000
 H      21.63800000      36.42900000      34.10700000
 O      39.88000000      39.65400000      38.70800000
 H      40.54100000      39.30400000      38.17900000
 H      39.28300000      38.87700000      38.92000000
 O      31.04400000      48.75800000      37.48900000
 H      31.68200000      48.27400000      36.96100000
 H      31.69900000      49.17600000      38.18600000
 O      29.84500000      44.69400000      31.83300000
 H      29.06600000      44.96700000      32.27700000
 H      29.79500000      44.99200000      30.91800000
 O      28.75100000      47.92700000      28.29800000
 H      28.58900000      47.99000000      27.31500000
 H      28.26500000      48.67300000      28.71300000
 O      35.43900000      44.21900000      34.24900000
 H      35.74900000      43.77300000      35.07000000
 H      35.95200000      43.66800000      33.59900000
 O      24.36400000      43.99500000      40.68100000
 H      24.24400000      43.20600000      40.06100000
 H      23.36900000      44.08700000      40.85300000
 O      32.77200000      43.80400000      38.85700000
 H      31.86400000      44.23600000      38.74500000
 H      32.61300000      43.26200000      39.62900000
 O      33.53800000      45.64000000      31.37500000
 H      34.29000000      45.39400000      30.81900000
 H      33.00700000      44.79900000      31.31400000
 O      32.16500000      43.32100000      31.30900000
 H      31.36000000      43.72200000      31.71100000
 H      32.34900000      42.62100000      32.00600000
 O      28.65400000      48.07200000      36.35000000
 H      28.16100000      47.33700000      36.74700000
 H      29.36600000      48.29000000      37.01200000
 O      24.18800000      43.71500000      28.78700000
 H      24.23000000      43.50400000      29.76800000
 H      24.32400000      44.71100000      28.85800000
 O      25.65600000      48.56300000      38.59600000
 H      25.94400000      47.82500000      38.04000000
 H      25.95600000      49.36100000      38.10400000
 O      23.69800000      46.29800000      29.51900000
 H      23.58100000      47.24100000      29.51600000
 H      24.52700000      46.21300000      30.01800000
 O      32.59100000      42.72000000      35.20400000
 H      32.57200000      42.17800000      34.41700000
 H      33.40700000      43.24300000      35.06500000
 O      40.69300000      46.84900000      39.35600000
 H      39.83200000      47.30600000      39.49800000
 H      40.45500000      46.21200000      38.65800000
 O      35.19000000      47.94400000      37.55500000
 H      35.41900000      48.40800000      38.35200000
 H      35.24300000      47.01400000      37.82300000
 O      35.02100000      48.94600000      34.90700000
 H      35.12600000      48.72900000      35.84500000
 H      34.74100000      48.05000000      34.56700000
 O      30.42600000      45.25700000      37.89600000
 H      30.41300000      44.52700000      37.33800000
 H      30.08000000      45.99500000      37.41500000
 O      27.38000000      45.23300000      32.98800000
 H      26.59600000      45.43100000      33.56700000
 H      27.15200000      45.66600000      32.19800000
 O      40.08900000      45.31100000      36.99800000
 H      40.37700000      45.27900000      36.06000000
 H      39.32400000      44.72900000      36.90000000
 O      38.05200000      45.67000000      35.13500000
 H      37.29700000      45.31700000      34.58700000
 H      37.59200000      46.15000000      35.84300000
 O      35.83900000      43.02100000      36.59200000
 H      35.78600000      42.07500000      36.70100000
 H      36.73700000      43.19200000      36.95800000
 O      27.34100000      48.61900000      32.07100000
 H      28.12700000      48.29000000      32.52700000
 H      26.83800000      49.04800000      32.74900000
 O      26.80900000      46.08600000      37.05300000
 H      25.95500000      45.61900000      37.29500000
 H      27.38600000      45.62100000      37.75100000
 O      21.01200000      44.45600000      37.90700000
 H      21.51500000      45.17700000      38.29900000
 H      20.29400000      44.33300000      38.54900000
 O      40.43100000      45.06400000      33.96600000
 H      39.74100000      45.75800000      34.01200000
 H      40.04300000      44.39800000      33.37700000
 O      25.51800000      46.46000000      34.53700000
 H      25.19500000      47.41700000      34.34000000
 H      25.96300000      46.57900000      35.38400000
 O      23.05500000      46.16700000      39.39800000
 H      22.48400000      46.89600000      39.66700000
 H      23.77300000      46.24900000      40.10600000
 O      21.13600000      44.55700000      35.23100000
 H      21.14500000      44.81600000      36.18800000
 H      20.66600000      45.32700000      34.90600000
 O      33.26900000      48.43100000      30.41300000
 H      32.61000000      48.11800000      29.78700000
 H      33.58500000      47.64600000      30.83400000
 O      24.63200000      44.59700000      37.74100000
 H      24.18200000      43.73600000      37.77000000
 H      23.91900000      45.16200000      38.12500000
 O      21.06800000      48.73300000      28.41900000
 H      21.67700000      48.83100000      27.65500000
 H      21.63900000      48.93600000      29.14500000
 O      30.00400000      44.74300000      35.03000000
 H      29.16400000      45.00200000      34.61300000
 H      30.29600000      44.03100000      34.45200000
 O      38.45000000      45.07800000      30.30500000
 H      38.68900000      44.47400000      31.03000000
 H      38.90100000      44.59700000      29.54800000
 O      31.89700000      44.74300000      28.09500000
 H      32.28700000      45.54200000      28.40300000
 H      31.98700000      44.86200000      27.09900000
 O      23.51500000      43.91300000      33.73500000
 H      22.88900000      44.05500000      34.43800000
 H      24.30000000      44.47200000      33.98400000
 O      36.17500000      46.38900000      27.80400000
 H      35.81300000      47.32900000      27.69900000
 H      36.78400000      46.42100000      27.09300000
 O      39.94100000      43.82400000      28.31300000
 H      40.27200000      44.63000000      27.89000000
 H      40.64600000      43.18100000      28.18700000
 O      29.74600000      48.04500000      33.74700000
 H      30.53200000      47.55800000      33.99600000
 H      29.21500000      47.89500000      34.61800000
 O      35.15900000      45.21600000      38.42600000
 H      34.21700000      44.81000000      38.62200000
 H      35.52900000      44.43500000      37.92300000
 O      39.30800000      43.43900000      32.22700000
 H      39.73500000      42.68100000      31.75000000
 H      38.79800000      42.96300000      32.90800000
 O      26.38900000      46.61200000      30.58500000
 H      27.17600000      46.37400000      30.09200000
 H      26.66500000      47.49700000      30.88300000
 O      39.07700000      47.66900000      30.35600000
 H      38.82200000      46.71300000      30.49400000
 H      38.96200000      47.70200000      29.37200000
 O      38.12700000      43.50500000      37.91300000
 H      37.71500000      43.46600000      38.85000000
 H      38.73600000      42.74400000      38.08400000
 O      37.42200000      43.07600000      40.33100000
 H      36.94200000      43.70900000      40.89100000
 H      36.69300000      42.45400000      40.06900000
 O      27.15800000      45.06400000      39.59100000
 H      27.77200000      45.43200000      40.23600000
 H      26.36800000      44.85100000      40.11600000
 O      31.81800000      46.78900000      35.25700000
 H      31.37100000      45.92200000      35.15500000
 H      32.73500000      46.55600000      34.98400000
 O      29.27400000      45.23600000      29.01700000
 H      29.17100000      46.16400000      28.64800000
 H      30.08300000      44.98100000      28.45600000
 O      22.56000000      42.82500000      31.64000000
 H      22.74900000      43.31000000      32.47300000
 H      21.69500000      42.42200000      31.90000000
 O      35.72400000      44.67300000      29.76900000
 H      35.72000000      45.25800000      28.98700000
 H      36.65400000      44.81500000      30.05700000
 O      34.34400000      46.51400000      33.76600000
 H      34.76000000      45.58100000      33.78600000
 H      34.00900000      46.45700000      32.85600000
 O      21.00000000      49.33100000      37.07400000
 H      20.76900000      48.52500000      37.64100000
 H      21.68800000      49.69900000      37.65000000
 O      31.68700000      47.62100000      28.39700000
 H      30.72300000      47.78100000      28.43700000
 H      31.92000000      48.47000000      27.90200000
 O      28.41400000      47.85700000      39.58100000
 H      28.52800000      48.80300000      39.30000000
 H      27.48100000      47.80200000      39.55700000
 O      21.31100000      44.43800000      29.67100000
 H      21.85400000      43.95800000      30.33700000
 H      22.03600000      45.12400000      29.48900000
