1173
XYZ file of cluster: frame_14000_228ea.c5050.4b8df - created by MolEdiTo
 O      19.49400000      35.99900000      26.52100000
 H      19.99000000      36.72500000      26.11600000
 H      20.23900000      35.47600000      26.82600000
 O      10.78100000      36.19200000      40.67300000
 H      11.44600000      35.61700000      41.14900000
 H       9.95700000      35.73000000      40.92400000
 O      15.80500000      38.55100000      15.41800000
 H      16.57700000      38.28600000      16.04000000
 H      16.29200000      38.40900000      14.55600000
 O      20.77400000      37.75800000      40.71300000
 H      20.07000000      38.13200000      41.27600000
 H      21.00000000      38.56400000      40.15100000
 O      13.72900000      36.10400000      29.40300000
 H      14.54300000      35.55600000      29.63400000
 H      14.12400000      36.99800000      29.64700000
 O      11.01700000      36.19200000      29.06900000
 H      12.02500000      36.12300000      29.13400000
 H      10.86400000      36.84000000      29.74900000
 O      32.68500000      40.22200000      16.05200000
 H      32.58700000      39.46300000      15.40100000
 H      32.64100000      40.97900000      15.54700000
 O      12.50800000      34.81600000      37.41100000
 H      13.04800000      34.59300000      38.21700000
 H      12.76700000      35.78100000      37.38700000
 O      11.85300000      38.76400000      39.77500000
 H      12.77500000      38.90900000      39.53200000
 H      11.84500000      37.83900000      39.99900000
 O      17.36500000      37.59000000      30.62100000
 H      17.40400000      36.92400000      29.84100000
 H      18.14300000      38.08400000      30.33700000
 O      36.49600000      38.51500000      34.77500000
 H      37.37900000      38.15100000      34.96900000
 H      36.11000000      38.40700000      35.66600000
 O      31.10200000      34.79400000      16.61400000
 H      30.37500000      34.89500000      17.27100000
 H      31.45600000      33.91500000      16.81000000
 O      40.66600000      38.17200000      14.44200000
 H      41.32500000      38.61000000      13.91700000
 H      40.41100000      37.41100000      13.83600000
 O      26.47500000      36.59900000      26.82900000
 H      26.43700000      36.45800000      27.76100000
 H      25.90100000      35.89400000      26.47700000
 O      23.04000000      38.33400000      24.71000000
 H      23.95600000      38.44600000      24.25100000
 H      23.38200000      38.71300000      25.62700000
 O      37.05700000      40.83700000      14.36800000
 H      37.59100000      41.64500000      14.52500000
 H      36.96000000      40.53000000      15.25800000
 O      25.40000000      38.56800000      16.52500000
 H      25.14100000      39.30900000      15.95800000
 H      25.65800000      39.01500000      17.35700000
 O      17.37900000      38.30300000      39.53200000
 H      18.08400000      39.00700000      39.62000000
 H      17.86800000      37.71500000      38.91000000
 O      27.09400000      36.07100000      16.66700000
 H      26.30100000      36.52900000      16.86300000
 H      26.78600000      35.24900000      16.19100000
 O       8.18700000      39.38600000      17.23900000
 H       8.91200000      40.06800000      17.16800000
 H       8.36400000      38.84700000      16.47800000
 O      34.92500000      35.61800000      37.41200000
 H      35.90100000      35.66200000      37.11700000
 H      34.73600000      34.67300000      37.11600000
 O      29.76700000      39.51800000      40.47500000
 H      29.55200000      40.16300000      41.21800000
 H      29.03600000      39.70700000      39.88000000
 O      32.52800000      39.64400000      37.55300000
 H      32.38700000      40.09200000      36.69700000
 H      32.82900000      40.44200000      38.10100000
 O      14.27200000      37.92000000      20.57100000
 H      14.83500000      37.67300000      19.82000000
 H      14.38400000      37.14000000      21.16200000
 O      22.37300000      34.59100000      37.02600000
 H      22.78300000      35.28200000      36.53100000
 H      23.03900000      34.14500000      37.46000000
 O      40.09900000      34.61000000      17.09600000
 H      40.82000000      34.13100000      16.63600000
 H      40.32300000      35.52100000      16.92400000
 O      25.51300000      35.62600000      36.55600000
 H      26.24800000      36.18900000      36.08600000
 H      25.36500000      36.32700000      37.30200000
 O      37.18700000      35.79900000      36.16300000
 H      37.84500000      36.49100000      36.04700000
 H      36.96000000      35.56500000      35.27700000
 O      36.48100000      37.44900000      15.83700000
 H      35.95200000      36.64000000      16.14300000
 H      36.57100000      37.23900000      14.85300000
 O      38.55100000      40.26500000      22.78500000
 H      38.98600000      39.45000000      22.55600000
 H      38.04900000      40.49400000      21.99300000
 O      26.56600000      40.03300000      18.40900000
 H      26.89900000      39.21600000      18.93800000
 H      27.41200000      40.53400000      18.61800000
 O       9.99300000      40.72100000      38.82500000
 H       9.92300000      40.29000000      37.97900000
 H      10.90100000      40.83300000      39.00200000
 O      12.47800000      39.64800000      21.43900000
 H      12.82100000      40.19300000      22.18700000
 H      13.24500000      39.02500000      21.32100000
 O      24.22700000      40.28600000      14.66000000
 H      24.89000000      40.62400000      14.07700000
 H      23.87300000      41.08100000      15.12900000
 O      29.98000000      35.76800000      35.06000000
 H      30.01600000      35.79500000      35.99500000
 H      29.14400000      36.21900000      34.85200000
 O      29.99600000      34.48900000      26.11200000
 H      29.06100000      34.16600000      25.98100000
 H      29.83100000      35.06700000      26.89300000
 O      34.95500000      38.43000000      37.04400000
 H      34.10400000      38.90500000      37.28500000
 H      34.63000000      37.51000000      37.20800000
 O       9.58400000      38.58400000      36.35800000
 H      10.12600000      38.49700000      35.58300000
 H       9.94700000      37.85100000      36.93800000
 O      36.44700000      35.59100000      13.54500000
 H      37.31600000      35.15200000      13.32300000
 H      36.17500000      35.03700000      14.30300000
 O      27.27000000      37.22400000      35.37800000
 H      27.43700000      37.89700000      36.06200000
 H      27.02700000      37.70800000      34.63300000
 O      14.63300000      39.25700000      39.12000000
 H      14.79200000      40.05200000      38.60600000
 H      15.55600000      39.04300000      39.39800000
 O      25.59000000      37.36100000      32.70800000
 H      26.23600000      37.71600000      32.06800000
 H      25.47100000      36.44300000      32.49600000
 O      35.74600000      35.25000000      23.28300000
 H      36.28400000      35.73000000      22.63800000
 H      34.85100000      35.37000000      22.97300000
 O      35.46400000      34.59100000      33.58900000
 H      35.45100000      33.74600000      34.12300000
 H      34.54700000      34.90300000      33.72900000
 O      24.16600000      35.63800000      23.25000000
 H      24.06200000      34.97100000      23.96000000
 H      23.22100000      35.97800000      23.20500000
 O      23.48700000      39.16500000      27.08600000
 H      24.41100000      39.44800000      27.08500000
 H      23.21200000      39.04600000      28.01700000
 O      16.38900000      37.38800000      18.92800000
 H      17.00400000      37.13300000      18.23200000
 H      16.87800000      37.14400000      19.70600000
 O      13.25400000      38.36700000      31.93000000
 H      12.32300000      38.37800000      32.11300000
 H      13.27900000      38.98500000      31.14500000
 O      38.69300000      38.20600000      25.76900000
 H      37.92900000      37.56200000      25.67200000
 H      38.22100000      38.92100000      26.22300000
 O      19.06500000      40.68100000      14.67800000
 H      18.33500000      41.12500000      14.21000000
 H      19.63100000      41.45800000      14.88500000
 O      39.51400000      37.60800000      21.80700000
 H      38.71200000      37.07600000      21.55000000
 H      39.50000000      38.28700000      21.05000000
 O      26.18800000      39.25500000      27.28100000
 H      27.14600000      39.32300000      27.34400000
 H      26.14100000      38.22100000      27.23400000
 O      37.21900000      36.34700000      21.05000000
 H      36.52500000      36.78000000      20.57700000
 H      37.05300000      35.42500000      20.74000000
 O      30.17600000      36.76900000      30.82800000
 H      29.97000000      35.96300000      31.34300000
 H      31.12800000      36.70200000      30.72500000
 O      15.60800000      40.15200000      18.91000000
 H      16.02300000      40.49400000      19.76100000
 H      15.93100000      39.23900000      18.87300000
 O      21.21400000      36.12500000      23.02100000
 H      21.32000000      36.59300000      23.87000000
 H      21.08600000      36.90500000      22.43700000
 O      11.75100000      35.35400000      22.39700000
 H      12.66700000      35.71700000      22.38900000
 H      11.61100000      35.05700000      21.51200000
 O      19.47800000      35.49400000      40.42800000
 H      19.85200000      36.40100000      40.51700000
 H      18.74600000      35.66500000      39.86700000
 O      10.82100000      36.03000000      15.90200000
 H       9.86300000      36.09000000      15.74000000
 H      11.03700000      35.24200000      15.44800000
 O      11.27100000      34.56100000      19.74400000
 H      10.56200000      33.94500000      19.47400000
 H      11.05700000      35.38600000      19.25200000
 O      34.79200000      37.05200000      19.36700000
 H      34.11100000      37.60600000      19.01000000
 H      34.29500000      36.23300000      19.53000000
 O      38.81600000      34.66400000      25.69300000
 H      38.39700000      34.35600000      26.44600000
 H      38.16400000      35.32400000      25.36900000
 O      25.80600000      36.27200000      29.50300000
 H      26.34400000      35.52900000      29.95900000
 H      26.30100000      37.04400000      29.87600000
 O      16.84000000      35.51700000      22.14000000
 H      17.36800000      36.06000000      21.52900000
 H      17.51800000      34.78200000      22.28400000
 O      27.76800000      37.84900000      30.58500000
 H      27.85300000      38.80700000      30.32100000
 H      28.72200000      37.58300000      30.55800000
 O      20.82300000      40.05200000      35.54000000
 H      21.03100000      39.99900000      34.57300000
 H      20.99000000      41.01700000      35.65200000
 O      36.92200000      40.39000000      32.96900000
 H      36.95100000      39.73700000      32.20900000
 H      36.76100000      39.72100000      33.67500000
 O      10.31600000      39.13100000      23.92900000
 H      10.56400000      38.26400000      24.33900000
 H      10.00100000      38.86600000      23.04000000
 O      24.39100000      34.34400000      34.42000000
 H      23.93300000      35.18000000      34.23100000
 H      24.41100000      34.29500000      35.37300000
 O      22.76800000      38.43900000      36.96000000
 H      21.94900000      38.70000000      36.47200000
 H      23.08200000      37.77400000      36.39600000
 O      14.61900000      36.55100000      33.34000000
 H      14.39300000      37.20700000      34.03900000
 H      14.08600000      36.96300000      32.58600000
 O      22.24100000      39.02900000      29.51800000
 H      22.31700000      38.16900000      29.96500000
 H      22.46900000      39.61600000      30.24200000
 O      40.66900000      34.97100000      21.13100000
 H      41.21900000      34.57300000      21.86000000
 H      40.11500000      35.58800000      21.64900000
 O      16.72500000      40.50800000      21.42100000
 H      17.18300000      40.18700000      22.26100000
 H      16.48700000      41.40500000      21.72600000
 O      20.02200000      37.15300000      33.61200000
 H      20.04600000      38.12700000      33.47000000
 H      19.07300000      36.95800000      33.70500000
 O      37.98300000      36.31000000      32.26000000
 H      38.84500000      36.14500000      32.70800000
 H      37.87700000      35.40700000      31.82300000
 O      20.29600000      39.77200000      32.74600000
 H      19.44100000      40.21200000      32.98000000
 H      20.05900000      39.53500000      31.81600000
 O      37.10600000      34.45800000      39.65500000
 H      37.24600000      34.16800000      40.55400000
 H      36.50000000      35.20000000      39.71500000
 O      21.41800000      40.27700000      39.59200000
 H      20.94600000      40.55200000      38.79700000
 H      20.88000000      40.61600000      40.31100000
 O      27.98800000      34.53900000      29.40600000
 H      28.43100000      35.21600000      28.85500000
 H      28.52100000      34.68300000      30.24400000
 O      21.05700000      40.52100000      26.81000000
 H      21.31200000      41.40800000      26.56500000
 H      21.97300000      40.13800000      26.83600000
 O      40.81300000      38.66600000      33.85400000
 H      40.97700000      38.42900000      32.93100000
 H      41.53600000      39.25300000      34.09200000
 O      29.15800000      39.07700000      27.88800000
 H      29.90600000      39.21700000      28.50800000
 H      29.48100000      39.38900000      27.03700000
 O      27.85800000      37.75800000      24.48700000
 H      28.69700000      38.00500000      24.93200000
 H      27.58500000      37.00300000      25.13600000
 O      29.31700000      36.45000000      27.93300000
 H      30.33000000      36.56500000      28.04300000
 H      29.07300000      37.38100000      27.96700000
 O      10.07100000      38.63900000      20.79700000
 H      11.00700000      38.90000000      20.95900000
 H       9.74300000      39.55600000      20.51600000
 O       9.65500000      38.57900000      13.37200000
 H       9.94500000      37.76000000      12.90000000
 H      10.30800000      38.54100000      14.14200000
 O       8.06700000      36.08000000      15.28600000
 H       7.43400000      35.38800000      15.54200000
 H       7.62200000      36.52800000      14.53300000
 O      21.79900000      39.14400000      21.10500000
 H      21.18900000      39.84300000      21.40400000
 H      22.46900000      39.71900000      20.70300000
 O      35.08800000      34.80300000      29.95000000
 H      34.70800000      34.01000000      30.30500000
 H      34.60700000      35.53000000      30.35600000
 O      31.56100000      35.32800000      20.35100000
 H      30.92700000      35.93600000      19.95400000
 H      30.99700000      34.88400000      20.99700000
 O       8.78600000      40.11700000      25.73700000
 H       8.17400000      40.69500000      25.26200000
 H       9.33500000      39.82900000      24.94900000
 O      24.18400000      40.05900000      38.73600000
 H      23.14100000      40.15500000      38.87100000
 H      24.11200000      39.36900000      38.03200000
 O      11.63500000      39.90800000      29.98600000
 H      11.01800000      40.10300000      29.26000000
 H      12.45800000      39.73900000      29.47500000
 O      24.16500000      34.50200000      28.14900000
 H      24.11700000      33.86500000      28.90100000
 H      24.63000000      35.22900000      28.65100000
 O       7.12000000      36.96200000      29.60200000
 H       7.95400000      36.74100000      29.19100000
 H       7.14800000      37.95600000      29.61400000
 O      31.71400000      40.04100000      28.91500000
 H      31.66600000      40.86100000      28.35700000
 H      32.06000000      40.45300000      29.73400000
 O      20.98500000      36.72400000      15.90300000
 H      21.91800000      36.81300000      16.12300000
 H      21.10400000      36.25300000      14.99800000
 O      23.29700000      37.82300000      13.61600000
 H      24.08200000      37.48800000      13.18400000
 H      23.61500000      38.59100000      14.15800000
 O      34.97300000      38.41900000      29.45800000
 H      35.86200000      38.43900000      29.87700000
 H      34.93400000      39.34800000      29.12300000
 O      18.28400000      36.32500000      37.77800000
 H      18.95000000      37.06600000      37.62700000
 H      18.76300000      35.61800000      37.32500000
 O      27.91400000      37.98900000      38.21000000
 H      27.84400000      38.94300000      38.41500000
 H      27.12000000      37.61800000      38.63900000
 O      16.64500000      40.05800000      28.39000000
 H      17.05800000      40.26500000      27.50600000
 H      16.85200000      39.15600000      28.58900000
 O       7.60200000      40.03100000      14.15200000
 H       7.98700000      40.81000000      14.64600000
 H       8.36300000      39.72600000      13.63500000
 O      18.15900000      38.62000000      16.72300000
 H      18.21500000      39.19100000      17.51000000
 H      18.41300000      39.26800000      16.06900000
 O      14.70200000      35.67900000      17.04500000
 H      14.31600000      34.97300000      17.62300000
 H      14.94300000      36.39000000      17.66300000
 O      29.60800000      35.97700000      37.74500000
 H      28.96100000      36.62900000      37.98000000
 H      30.43300000      36.43800000      38.10000000
 O      32.40300000      39.47600000      33.16700000
 H      31.69300000      38.86500000      32.85200000
 H      33.15000000      38.83600000      33.06500000
 O      12.47400000      40.80400000      23.87100000
 H      11.65600000      40.32400000      23.93700000
 H      12.66200000      41.09000000      24.78300000
 O       8.30300000      36.19900000      33.52000000
 H       9.18100000      35.76200000      33.61700000
 H       8.05000000      36.36100000      34.47200000
 O      18.04800000      39.84600000      23.67100000
 H      18.21500000      40.16800000      24.57700000
 H      17.93900000      38.89300000      23.81300000
 O      31.90100000      35.76100000      40.73800000
 H      31.55100000      36.33800000      39.97600000
 H      32.05600000      34.97500000      40.11900000
 O      39.30400000      37.52500000      35.98300000
 H      39.77600000      37.83200000      35.14700000
 H      40.12000000      37.49000000      36.56800000
 O      35.18200000      39.92600000      21.35400000
 H      34.97300000      40.60700000      20.74700000
 H      35.74900000      39.33600000      20.98600000
 O      14.02600000      39.00200000      29.02500000
 H      14.28000000      38.48300000      28.23600000
 H      14.51600000      39.87800000      28.77300000
 O      33.07600000      40.77600000      25.74000000
 H      33.15300000      41.74700000      25.77600000
 H      33.66700000      40.58200000      26.54600000
 O      28.92100000      36.81700000      21.96700000
 H      29.27100000      36.04900000      22.49700000
 H      28.84300000      37.48300000      22.64800000
 O      22.50100000      36.62100000      30.68200000
 H      22.24200000      35.76400000      31.11900000
 H      23.29500000      36.45800000      30.22500000
 O      15.74800000      39.46500000      31.72000000
 H      16.42100000      38.92900000      31.21600000
 H      15.02700000      38.82800000      31.68500000
 O      22.74700000      36.85300000      19.97300000
 H      22.49800000      37.60500000      20.49600000
 H      22.00700000      36.77300000      19.34700000
 O      14.42100000      35.28000000      39.22400000
 H      15.29200000      34.81200000      39.15700000
 H      14.04500000      34.84700000      40.00900000
 O      19.53500000      39.43000000      30.20500000
 H      20.42400000      39.15200000      29.79400000
 H      19.20600000      39.95400000      29.44700000
 O      31.10200000      37.78600000      38.96500000
 H      30.76800000      38.32500000      39.70800000
 H      31.65300000      38.44000000      38.48100000
 O      18.28300000      40.68100000      26.17500000
 H      18.06300000      41.59300000      26.54300000
 H      19.27300000      40.76000000      26.41900000
 O      40.70000000      36.40800000      28.85700000
 H      39.91400000      35.85100000      28.83300000
 H      41.07000000      36.25200000      27.96200000
 O       7.60100000      39.56900000      28.17000000
 H       8.09000000      39.66100000      27.32400000
 H       7.29700000      40.46000000      28.33200000
 O      24.76300000      39.60300000      21.10200000
 H      25.64600000      39.24800000      20.91000000
 H      24.63000000      39.25100000      22.04000000
 O      30.94400000      36.96600000      24.50800000
 H      31.11100000      36.42600000      23.74200000
 H      31.03000000      36.26500000      25.22300000
 O      14.19200000      38.43400000      35.18600000
 H      14.25800000      38.07600000      36.11500000
 H      13.28100000      38.71500000      35.14800000
 O      23.72200000      36.36100000      16.61000000
 H      24.36000000      37.12000000      16.47700000
 H      23.65300000      36.41700000      17.60300000
 O      34.55900000      33.99000000      27.27800000
 H      34.71500000      34.88600000      26.99100000
 H      34.98900000      33.95000000      28.13200000
 O      35.43300000      40.88100000      27.98100000
 H      36.26400000      40.75800000      27.64400000
 H      35.56700000      41.42000000      28.79500000
 O      14.24000000      36.28300000      22.77800000
 H      14.56500000      36.87800000      23.48800000
 H      15.07300000      35.70900000      22.66700000
 O      31.92500000      37.32300000      28.16900000
 H      31.81400000      38.30100000      28.28500000
 H      32.23800000      37.07400000      29.06400000
 O      18.93800000      39.59400000      19.22500000
 H      19.82400000      39.90700000      19.38200000
 H      18.46100000      40.13000000      19.92500000
 O      25.05900000      35.96600000      20.75900000
 H      24.74400000      35.66900000      21.63600000
 H      24.21100000      36.30400000      20.36000000
 O      37.40200000      38.58300000      30.93800000
 H      37.70100000      37.74000000      31.35700000
 H      38.05900000      38.64300000      30.21800000
 O      14.84800000      38.93600000      24.49700000
 H      14.21300000      39.68700000      24.33800000
 H      15.64600000      39.41500000      24.21200000
 O      14.85200000      37.53200000      26.78500000
 H      15.25900000      36.66400000      26.55600000
 H      14.93400000      38.01800000      25.95600000
 O      10.79800000      36.89800000      26.43900000
 H      11.52600000      36.40300000      26.05300000
 H      10.85200000      36.57300000      27.37500000
 O      17.86400000      35.76700000      28.63700000
 H      18.54500000      35.91100000      27.93000000
 H      17.36400000      35.01500000      28.21600000
 O      17.55900000      36.64200000      33.35700000
 H      16.62400000      36.82500000      33.49500000
 H      17.63400000      36.90100000      32.41800000
 O       7.05900000      34.74100000      22.31900000
 H       7.78700000      35.41800000      22.36200000
 H       6.95600000      34.66200000      21.31600000
 O      36.64600000      36.48700000      25.47200000
 H      36.27800000      35.94900000      24.73200000
 H      35.84000000      36.62900000      25.98600000
 O       7.97900000      39.62800000      31.34900000
 H       7.33700000      39.89500000      30.61600000
 H       7.31000000      39.28500000      32.00700000
 O      11.65900000      38.35300000      15.17000000
 H      11.29300000      37.54300000      15.71400000
 H      12.52100000      37.96900000      14.96300000
 O      26.26600000      35.33600000      13.94300000
 H      26.56900000      34.75600000      13.25300000
 H      25.56400000      34.75300000      14.35600000
 O      16.39500000      39.95300000      34.46200000
 H      16.33100000      39.93400000      33.46400000
 H      15.52600000      39.50600000      34.66000000
 O      10.07700000      36.26000000      37.94400000
 H      10.35700000      36.26300000      38.87100000
 H      10.47600000      35.47600000      37.60200000
 O      28.11700000      39.25000000      15.22700000
 H      28.30700000      38.62500000      14.49900000
 H      27.25700000      38.90800000      15.56000000
 O      21.52500000      39.42800000      16.37500000
 H      20.97100000      38.70400000      16.06400000
 H      21.78500000      39.82900000      15.48900000
 O      30.08600000      37.89900000      19.35200000
 H      29.77200000      37.13700000      18.76500000
 H      29.39300000      37.91700000      19.97000000
 O      25.48300000      38.47600000      23.51300000
 H      25.48200000      37.50800000      23.41900000
 H      26.40400000      38.52700000      23.80200000
 O      37.93900000      40.42900000      27.43200000
 H      38.47600000      41.18000000      27.66700000
 H      38.46600000      39.69800000      27.83800000
 O      32.92900000      37.03500000      30.74100000
 H      33.46600000      37.07900000      31.62700000
 H      33.60200000      37.57300000      30.22200000
 O       7.86000000      35.60100000      36.61300000
 H       8.64400000      35.93300000      37.09100000
 H       8.16400000      34.74900000      36.32100000
 O      23.53800000      38.87300000      33.50900000
 H      23.61100000      39.71400000      33.10600000
 H      24.35500000      38.36300000      33.12000000
 O      35.09200000      37.27200000      32.63600000
 H      35.76300000      36.55700000      32.70600000
 H      35.46900000      37.79900000      33.40400000
 O      19.66800000      38.90300000      37.69000000
 H      19.99500000      39.21900000      36.81300000
 H      19.14600000      39.67900000      37.89800000
 O      30.15100000      40.34700000      21.90400000
 H      31.00200000      39.88300000      22.04500000
 H      30.53600000      41.28000000      21.91600000
 O      20.50900000      38.22200000      25.54500000
 H      20.26500000      39.03500000      26.01800000
 H      21.45100000      38.37400000      25.35000000
 O      32.16200000      38.33700000      14.35700000
 H      31.60600000      37.55000000      14.12800000
 H      33.04400000      38.08700000      13.98800000
 O      28.61400000      37.01700000      13.79100000
 H      27.95300000      36.32500000      13.94600000
 H      29.43200000      36.60900000      14.16900000
 O      27.89100000      40.66900000      29.99100000
 H      27.39900000      41.05600000      29.20500000
 H      28.49300000      41.39400000      30.23400000
 O      27.12300000      38.10600000      20.34500000
 H      27.72300000      37.75500000      21.07200000
 H      26.43800000      37.36200000      20.33800000
 O      39.27800000      38.58400000      29.00600000
 H      39.68400000      37.71000000      29.04800000
 H      40.11800000      39.07000000      28.69900000
 O      10.56200000      38.15600000      31.46800000
 H       9.68800000      38.69400000      31.46300000
 H      11.11800000      38.80000000      30.96400000
 O      32.46600000      38.55200000      18.25300000
 H      32.26700000      39.03900000      17.41900000
 H      31.60300000      38.27300000      18.49600000
 O      13.90800000      36.87600000      14.81700000
 H      14.16200000      36.33800000      15.61700000
 H      14.59800000      37.59100000      14.94700000
 O      34.56400000      36.64700000      27.19000000
 H      34.80000000      37.28700000      27.90200000
 H      33.56000000      36.70100000      27.23700000
 O      40.41400000      35.53400000      33.14300000
 H      41.25300000      36.05500000      32.90800000
 H      40.66300000      35.15300000      34.00300000
 O      18.11500000      35.68800000      14.88200000
 H      19.07400000      35.80600000      15.15500000
 H      17.85300000      36.55000000      14.63400000
 O       7.31600000      39.51500000      35.48700000
 H       7.47000000      40.41300000      35.99700000
 H       8.27900000      39.18600000      35.72700000
 O      35.78000000      38.16700000      40.31500000
 H      34.79000000      37.90700000      40.26500000
 H      35.82000000      38.48300000      41.23700000
 O      18.49000000      36.07000000      20.12000000
 H      19.37500000      36.30700000      19.81100000
 H      18.51400000      35.10500000      19.97400000
 O      25.23800000      36.92000000      39.12800000
 H      24.46400000      37.19600000      39.56200000
 H      25.62400000      36.33600000      39.84000000
 O      33.45900000      36.20300000      16.33700000
 H      33.49300000      37.08200000      16.71100000
 H      32.55100000      35.94200000      16.50300000
 O      17.64500000      37.28300000      24.48600000
 H      17.41800000      36.46200000      24.06700000
 H      18.26200000      36.96500000      25.17200000
 O      27.27800000      40.54000000      39.26100000
 H      27.29500000      41.50300000      39.12000000
 H      26.32400000      40.37600000      39.42300000
 O      13.90200000      37.28300000      37.55100000
 H      14.05200000      38.05500000      38.26700000
 H      14.29300000      36.59900000      38.11800000
 O      30.80200000      35.35800000      13.99000000
 H      30.95200000      35.34400000      14.95500000
 H      31.24600000      34.47800000      13.79400000
 O       8.55900000      35.50300000      25.27900000
 H       8.41700000      36.20200000      24.61400000
 H       9.21800000      35.96200000      25.83800000
 O      21.20500000      40.83400000      18.68800000
 H      22.18400000      40.81600000      18.81200000
 H      21.27700000      40.34300000      17.81600000
 O      39.22900000      39.20800000      19.83300000
 H      38.38900000      38.85700000      19.43500000
 H      38.77600000      40.01500000      20.25300000
 O      11.07200000      39.52000000      27.32100000
 H      10.21400000      39.76000000      26.83900000
 H      11.08300000      38.57200000      27.08500000
 O      38.34900000      37.21200000      39.40300000
 H      37.45200000      37.56900000      39.61900000
 H      38.49900000      36.69800000      40.20900000
 O      36.92800000      38.51600000      18.46000000
 H      36.82400000      38.17200000      17.53500000
 H      36.10600000      38.10400000      18.83900000
 O      32.61500000      39.41200000      22.85800000
 H      32.60500000      40.06500000      23.58300000
 H      33.34600000      39.70200000      22.29700000
 O      20.44600000      37.12500000      18.48000000
 H      20.38400000      37.05300000      17.49700000
 H      19.87900000      37.87800000      18.64400000
 O      32.92800000      36.61600000      22.43600000
 H      32.57500000      36.35900000      21.57400000
 H      32.65600000      37.54800000      22.48900000
 O       7.24700000      34.65100000      19.42800000
 H       7.93400000      33.97500000      19.63100000
 H       7.81300000      35.34200000      19.08000000
 O      30.56600000      39.45500000      25.23100000
 H      31.53300000      39.65700000      25.37500000
 H      30.64100000      38.56100000      24.85200000
 O       9.17900000      36.43900000      22.37200000
 H      10.05900000      35.99200000      22.58700000
 H       9.34400000      36.62700000      21.41400000
 O       9.11600000      36.82900000      18.73000000
 H       9.42400000      37.41300000      19.45900000
 H       8.66900000      37.51900000      18.18200000
 O      32.74800000      35.24700000      34.61200000
 H      33.03700000      35.45000000      35.53200000
 H      31.95200000      35.79400000      34.52400000
 O      29.00800000      35.50200000      18.43000000
 H      28.44100000      35.90200000      17.73000000
 H      28.34500000      34.85200000      18.81400000
 O      22.53200000      36.42200000      34.46700000
 H      22.90000000      37.30400000      34.14400000
 H      21.63800000      36.42900000      34.10700000
 O      39.88000000      39.65400000      38.70800000
 H      40.54100000      39.30400000      38.17900000
 H      39.28300000      38.87700000      38.92000000
 O      11.31800000      37.90900000      34.20300000
 H      11.44800000      36.93100000      33.99500000
 H      10.89900000      38.11600000      33.30500000
 O      29.17900000      47.10800000      19.68100000
 H      29.53100000      48.01400000      19.77000000
 H      29.96600000      46.67300000      19.23400000
 O       7.55400000      48.28400000      15.19400000
 H       8.52200000      48.29400000      14.98800000
 H       7.48200000      49.03900000      15.81200000
 O      29.84500000      44.69400000      31.83300000
 H      29.06600000      44.96700000      32.27700000
 H      29.79500000      44.99200000      30.91800000
 O      31.04400000      48.75800000      37.48900000
 H      31.68200000      48.27400000      36.96100000
 H      31.69900000      49.17600000      38.18600000
 O      16.29500000      44.81200000      22.56500000
 H      16.37000000      45.74400000      22.85100000
 H      15.95700000      44.38800000      23.36500000
 O      22.34200000      46.82200000      20.22200000
 H      21.57200000      46.87600000      20.78400000
 H      22.10500000      47.30300000      19.41200000
 O      11.75700000      44.72600000      30.77600000
 H      12.69400000      44.38800000      30.91100000
 H      11.23100000      43.96000000      31.03600000
 O      32.18300000      46.00800000      20.02400000
 H      33.16200000      46.05300000      19.95800000
 H      31.92600000      45.86600000      19.12800000
 O      28.55600000      45.74600000      26.06700000
 H      28.46100000      44.82700000      25.78000000
 H      29.29900000      46.09900000      25.56600000
 O      25.65600000      48.56300000      38.59600000
 H      25.94400000      47.82500000      38.04000000
 H      25.95600000      49.36100000      38.10400000
 O      37.71500000      45.47900000      17.68000000
 H      36.92200000      45.68700000      17.20300000
 H      37.86700000      44.54100000      17.35900000
 O      19.86800000      47.66900000      31.63700000
 H      18.96500000      47.28800000      31.77000000
 H      20.18300000      47.10900000      30.89900000
 O      21.40400000      44.10700000      14.35000000
 H      21.86700000      44.33900000      15.17600000
 H      21.16700000      44.99900000      14.05900000
 O      36.38600000      47.79600000      22.54200000
 H      37.32900000      48.08200000      22.37500000
 H      36.08700000      48.60900000      23.10700000
 O      27.38000000      45.23300000      32.98800000
 H      26.59600000      45.43100000      33.56700000
 H      27.15200000      45.66600000      32.19800000
 O      25.15100000      46.32900000      14.19400000
 H      25.29500000      46.77800000      15.01900000
 H      24.82700000      45.45600000      14.43800000
 O      25.84500000      47.80900000      16.32800000
 H      25.17500000      48.48400000      16.46800000
 H      26.17300000      47.69300000      17.24900000
 O      38.05200000      45.67000000      35.13500000
 H      37.29700000      45.31700000      34.58700000
 H      37.59200000      46.15000000      35.84300000
 O      36.83700000      46.39700000      25.12100000
 H      36.30500000      46.85900000      24.43000000
 H      36.51400000      45.47800000      24.84100000
 O      35.83900000      43.02100000      36.59200000
 H      35.78600000      42.07500000      36.70100000
 H      36.73700000      43.19200000      36.95800000
 O      26.80900000      46.08600000      37.05300000
 H      25.95500000      45.61900000      37.29500000
 H      27.38600000      45.62100000      37.75100000
 O      10.69400000      45.59400000      16.62700000
 H       9.99000000      45.03800000      17.03900000
 H      11.26900000      45.85800000      17.35700000
 O       7.01900000      43.84700000      28.88600000
 H       6.98500000      44.51900000      28.16700000
 H       7.72800000      44.24600000      29.45200000
 O      20.29600000      46.40700000      26.88000000
 H      20.61100000      47.02000000      27.57600000
 H      21.04300000      45.80300000      26.82100000
 O       9.29000000      45.43800000      24.27900000
 H       8.41100000      45.41000000      24.70100000
 H       9.82400000      45.65600000      25.09800000
 O      21.01200000      44.45600000      37.90700000
 H      21.51500000      45.17700000      38.29900000
 H      20.29400000      44.33300000      38.54900000
 O      25.51800000      46.46000000      34.53700000
 H      25.19500000      47.41700000      34.34000000
 H      25.96300000      46.57900000      35.38400000
 O      10.93700000      44.48900000      13.10900000
 H      11.23500000      43.99100000      13.91600000
 H      11.63400000      45.16900000      13.10700000
 O      21.13600000      44.55700000      35.23100000
 H      21.14500000      44.81600000      36.18800000
 H      20.66600000      45.32700000      34.90600000
 O      24.68400000      48.26100000      27.48200000
 H      24.89700000      47.32200000      27.28900000
 H      25.55200000      48.62600000      27.17000000
 O       9.71400000      44.00800000      35.77100000
 H       8.85300000      43.86700000      36.22600000
 H       9.48800000      43.72300000      34.85600000
 O      19.92800000      46.95200000      34.08000000
 H      20.10600000      47.87500000      34.36800000
 H      20.43400000      46.99500000      33.24800000
 O      39.94100000      43.82400000      28.31300000
 H      40.27200000      44.63000000      27.89000000
 H      40.64600000      43.18100000      28.18700000
 O      28.49100000      43.02700000      19.94100000
 H      29.13600000      42.41100000      20.35100000
 H      28.03700000      43.36500000      20.73100000
 O      28.76800000      46.25100000      22.33600000
 H      27.89900000      46.68300000      22.57800000
 H      28.76000000      46.46600000      21.39100000
 O      33.65700000      46.42700000      23.44500000
 H      34.57100000      46.54300000      23.10200000
 H      33.16600000      46.11100000      22.65400000
 O      31.42500000      47.97100000      16.42100000
 H      31.93500000      48.55900000      16.95300000
 H      31.23800000      48.52600000      15.64600000
 O      38.12700000      43.50500000      37.91300000
 H      37.71500000      43.46600000      38.85000000
 H      38.73600000      42.74400000      38.08400000
 O       7.94500000      49.04700000      36.63000000
 H       8.86200000      48.69400000      36.50600000
 H       8.24300000      49.97500000      36.92600000
 O      11.42100000      46.32000000      22.36600000
 H      10.80000000      45.78000000      22.96900000
 H      12.17500000      46.40300000      22.94700000
 O      35.72400000      44.67300000      29.76900000
 H      35.72000000      45.25800000      28.98700000
 H      36.65400000      44.81500000      30.05700000
 O      26.11000000      47.57300000      23.20700000
 H      25.74500000      48.34400000      22.78400000
 H      25.40600000      46.92200000      22.92900000
 O      12.88700000      46.40800000      33.99500000
 H      12.51500000      47.27100000      34.29400000
 H      13.11600000      46.65200000      33.06000000
 O      25.63900000      44.88300000      20.10400000
 H      25.00300000      45.23300000      20.76500000
 H      26.25600000      44.34700000      20.72700000
 O      28.41400000      47.85700000      39.58100000
 H      28.52800000      48.80300000      39.30000000
 H      27.48100000      47.80200000      39.55700000
 O      11.85500000      45.81200000      19.40600000
 H      11.43300000      45.27100000      20.09500000
 H      11.85900000      46.69900000      19.87400000
 O      32.34300000      45.52700000      25.44600000
 H      32.94000000      45.80600000      24.69800000
 H      31.67900000      46.25600000      25.35700000
 O      22.45500000      44.35800000      26.54400000
 H      23.20800000      44.05200000      26.00100000
 H      22.82300000      44.23100000      27.44500000
 O      13.42300000      47.49700000      31.52900000
 H      12.67300000      47.51300000      30.89500000
 H      13.68900000      48.44300000      31.51900000
 O      10.33600000      48.03000000      15.04200000
 H      10.66000000      47.10000000      15.16300000
 H      10.17400000      48.20300000      16.00700000
 O       7.76900000      47.06300000      17.68700000
 H       7.21700000      47.73500000      18.06500000
 H       7.61700000      47.29700000      16.72100000
 O      15.96300000      47.78400000      15.99500000
 H      16.62000000      47.08100000      16.26500000
 H      15.27500000      47.25600000      15.56700000
 O      30.00900000      44.36100000      18.12400000
 H      29.64000000      43.90800000      18.87200000
 H      29.38600000      44.09700000      17.41000000
 O      32.77200000      43.80400000      38.85700000
 H      31.86400000      44.23600000      38.74500000
 H      32.61300000      43.26200000      39.62900000
 O      18.00600000      44.98600000      27.33300000
 H      18.87900000      45.52500000      27.23700000
 H      17.43300000      45.71000000      27.67600000
 O      11.37800000      42.82600000      15.16500000
 H      11.49400000      41.85000000      15.29800000
 H      10.84500000      43.00300000      15.90400000
 O      20.25800000      45.43300000      22.90500000
 H      19.83300000      46.01900000      23.54700000
 H      21.11700000      45.26600000      23.32100000
 O      28.65400000      48.07200000      36.35000000
 H      28.16100000      47.33700000      36.74700000
 H      29.36600000      48.29000000      37.01200000
 O      38.85900000      48.65100000      21.72300000
 H      39.34700000      48.75000000      22.59600000
 H      39.12900000      49.52400000      21.31300000
 O      33.61100000      46.32900000      17.42600000
 H      33.39300000      45.42300000      17.67400000
 H      32.87100000      46.53000000      16.83500000
 O      39.49400000      47.03100000      25.63900000
 H      39.37100000      47.56300000      26.49000000
 H      38.49700000      46.83700000      25.54300000
 O      23.69800000      46.29800000      29.51900000
 H      23.58100000      47.24100000      29.51600000
 H      24.52700000      46.21300000      30.01800000
 O      40.69300000      46.84900000      39.35600000
 H      39.83200000      47.30600000      39.49800000
 H      40.45500000      46.21200000      38.65800000
 O      29.60600000      46.07600000      15.01900000
 H      29.68600000      46.47700000      15.88000000
 H      29.13800000      45.25100000      15.20000000
 O       9.93700000      43.35300000      32.43000000
 H       9.46200000      42.54100000      32.07700000
 H       9.10800000      43.93300000      32.47200000
 O      27.34100000      48.61900000      32.07100000
 H      28.12700000      48.29000000      32.52700000
 H      26.83800000      49.04800000      32.74900000
 O      40.23000000      48.97100000      23.99000000
 H      39.96200000      48.21400000      24.51600000
 H      40.44300000      49.62300000      24.68400000
 O      12.69600000      42.75800000      18.91300000
 H      12.80400000      42.28900000      19.73000000
 H      13.52100000      42.55700000      18.40000000
 O      35.22400000      44.19800000      19.63900000
 H      35.28500000      45.15800000      19.59900000
 H      34.37500000      44.06700000      19.15600000
 O      39.39500000      42.93200000      25.02700000
 H      38.47400000      42.96900000      25.33000000
 H      39.32200000      42.56600000      24.11900000
 O      24.63200000      44.59700000      37.74100000
 H      24.18200000      43.73600000      37.77000000
 H      23.91900000      45.16200000      38.12500000
 O      19.30600000      44.79200000      17.97200000
 H      19.97000000      44.05000000      17.97700000
 H      19.39700000      45.11900000      18.89400000
 O      31.89700000      44.74300000      28.09500000
 H      32.28700000      45.54200000      28.40300000
 H      31.98700000      44.86200000      27.09900000
 O      16.86000000      48.35400000      39.62600000
 H      16.47900000      47.99800000      40.48100000
 H      16.90500000      47.51200000      39.10900000
 O      23.51500000      43.91300000      33.73500000
 H      22.88900000      44.05500000      34.43800000
 H      24.30000000      44.47200000      33.98400000
 O      19.54000000      47.68700000      38.93600000
 H      18.59200000      47.50600000      39.04700000
 H      19.67400000      48.40100000      39.63700000
 O      35.15900000      45.21600000      38.42600000
 H      34.21700000      44.81000000      38.62200000
 H      35.52900000      44.43500000      37.92300000
 O      17.61000000      45.57300000      34.52900000
 H      17.51800000      45.63900000      33.55200000
 H      18.52600000      45.99500000      34.58100000
 O      39.30800000      43.43900000      32.22700000
 H      39.73500000      42.68100000      31.75000000
 H      38.79800000      42.96300000      32.90800000
 O       9.34200000      47.96800000      40.02100000
 H       9.27700000      47.42600000      40.84000000
 H       9.60500000      47.24800000      39.37800000
 O      26.04700000      45.92200000      26.88900000
 H      27.07700000      45.95800000      26.77500000
 H      25.91900000      45.05600000      26.43700000
 O      14.38500000      46.26100000      26.73500000
 H      14.03700000      47.07800000      27.22200000
 H      13.61000000      46.12300000      26.17100000
 O      37.42200000      43.07600000      40.33100000
 H      36.94200000      43.70900000      40.89100000
 H      36.69300000      42.45400000      40.06900000
 O      15.14800000      45.62400000      35.91800000
 H      15.81800000      45.50600000      35.22200000
 H      14.42800000      45.99400000      35.44200000
 O      10.79200000      45.60300000      26.55800000
 H      10.50700000      45.48600000      27.51800000
 H      11.47900000      44.86100000      26.53800000
 O      31.81800000      46.78900000      35.25700000
 H      31.37100000      45.92200000      35.15500000
 H      32.73500000      46.55600000      34.98400000
 O      15.60500000      48.76400000      35.71800000
 H      15.81800000      49.08400000      34.82000000
 H      16.19100000      47.98100000      35.80200000
 O      29.27400000      45.23600000      29.01700000
 H      29.17100000      46.16400000      28.64800000
 H      30.08300000      44.98100000      28.45600000
 O      16.77500000      46.17100000      38.15800000
 H      16.92600000      45.20500000      38.50700000
 H      15.95000000      46.00200000      37.63700000
 O       6.32800000      47.00900000      38.09300000
 H       5.89100000      47.58600000      38.79800000
 H       7.19500000      47.40800000      38.05500000
 O      27.30900000      48.46200000      25.66100000
 H      28.00400000      48.50900000      24.94500000
 H      26.58800000      48.02500000      25.12900000
 O      10.16800000      43.07700000      17.89200000
 H       9.66200000      42.91200000      18.71000000
 H      11.05900000      43.03700000      18.22400000
 O      22.53900000      48.86000000      26.10100000
 H      22.57600000      49.83300000      25.85300000
 H      23.33100000      48.72200000      26.60100000
 O      16.93200000      48.97000000      26.58000000
 H      17.68000000      49.51700000      26.82700000
 H      16.95100000      48.29200000      27.35600000
 O      22.45100000      46.27000000      24.28800000
 H      22.27500000      47.19600000      24.41600000
 H      22.50100000      45.86800000      25.13900000
 O      21.31100000      44.43800000      29.67100000
 H      21.85400000      43.95800000      30.33700000
 H      22.03600000      45.12400000      29.48900000
 O       8.67700000      48.70200000      24.48000000
 H       7.71700000      48.92700000      24.36300000
 H       8.92100000      48.38700000      23.53900000
 O      36.42700000      42.79500000      17.19900000
 H      36.17600000      41.81700000      17.28500000
 H      36.17900000      43.11500000      18.09400000
 O      28.75100000      47.92700000      28.29800000
 H      28.58900000      47.99000000      27.31500000
 H      28.26500000      48.67300000      28.71300000
 O      30.65600000      47.53500000      25.25200000
 H      30.08900000      48.17600000      24.74700000
 H      30.84400000      48.17500000      25.97600000
 O      10.61500000      48.35700000      26.29500000
 H      10.63300000      47.36200000      26.46500000
 H       9.78400000      48.40600000      25.78700000
 O      32.69300000      43.97400000      18.14900000
 H      32.71500000      43.12800000      17.57800000
 H      31.71900000      44.10700000      18.11200000
 O      16.93600000      49.10900000      21.26000000
 H      16.28700000      49.25900000      20.53100000
 H      16.92100000      48.09300000      21.26500000
 O      18.53800000      44.62400000      30.11100000
 H      18.25600000      44.52500000      29.15900000
 H      19.45700000      44.40500000      30.10000000
 O      33.53800000      45.64000000      31.37500000
 H      34.29000000      45.39400000      30.81900000
 H      33.00700000      44.79900000      31.31400000
 O      31.09800000      44.63200000      21.91100000
 H      31.49100000      45.19700000      21.18400000
 H      30.47900000      45.34600000      22.27800000
 O      10.91000000      46.55200000      38.10400000
 H      11.02700000      45.68600000      37.62800000
 H      10.74400000      47.09200000      37.25800000
 O      19.18100000      47.38300000      24.42700000
 H      19.53200000      48.30000000      24.26600000
 H      19.44300000      47.27000000      25.32000000
 O      16.17300000      42.94000000      16.55600000
 H      15.94800000      42.77500000      17.49800000
 H      16.03400000      42.02700000      16.16900000
 O      18.55000000      42.82800000      38.85600000
 H      18.24000000      43.19900000      38.01100000
 H      17.86100000      43.11000000      39.47900000
 O      32.59100000      42.72000000      35.20400000
 H      32.57200000      42.17800000      34.41700000
 H      33.40700000      43.24300000      35.06500000
 O       8.48300000      47.13900000      22.22300000
 H       7.67000000      47.02600000      21.70900000
 H       8.48700000      46.25300000      22.66500000
 O      35.19000000      47.94400000      37.55500000
 H      35.41900000      48.40800000      38.35200000
 H      35.24300000      47.01400000      37.82300000
 O      40.09300000      46.05200000      16.42500000
 H      40.77600000      45.82700000      17.14800000
 H      39.30200000      46.09700000      17.03000000
 O      28.70100000      43.21300000      24.98800000
 H      29.11900000      43.48000000      24.14300000
 H      29.30600000      42.44700000      25.19200000
 O      26.52700000      47.63800000      19.05500000
 H      27.34300000      46.97700000      19.18400000
 H      25.90300000      47.09500000      19.59500000
 O      40.08900000      45.31100000      36.99800000
 H      40.37700000      45.27900000      36.06000000
 H      39.32400000      44.72900000      36.90000000
 O       7.10600000      47.73000000      28.18300000
 H       7.24700000      46.89800000      27.63700000
 H       6.63500000      47.37300000      28.95100000
 O      16.94700000      46.24000000      20.33600000
 H      16.74600000      45.52700000      20.96100000
 H      16.33600000      46.04300000      19.59300000
 O       7.54100000      43.21000000      37.13500000
 H       6.77300000      43.77100000      37.48700000
 H       7.89900000      42.94900000      38.00100000
 O      14.68600000      46.05700000      18.60800000
 H      13.84400000      45.71200000      18.94900000
 H      14.47700000      45.94500000      17.66000000
 O      23.05500000      46.16700000      39.39800000
 H      22.48400000      46.89600000      39.66700000
 H      23.77300000      46.24900000      40.10600000
 O       7.97100000      45.37100000      19.74700000
 H       7.07200000      45.47600000      20.07200000
 H       7.98400000      46.07200000      19.03500000
 O      20.63400000      46.64400000      14.18900000
 H      20.47000000      46.80500000      15.16500000
 H      21.13100000      47.45100000      14.01000000
 O      21.06800000      48.73300000      28.41900000
 H      21.67700000      48.83100000      27.65500000
 H      21.63900000      48.93600000      29.14500000
 O      15.18600000      45.89900000      30.59100000
 H      14.85200000      45.01100000      30.91000000
 H      14.51400000      46.45800000      30.94400000
 O      14.38300000      43.74200000      28.65700000
 H      14.41600000      44.70100000      28.66200000
 H      15.28100000      43.50700000      28.89300000
 O       8.77100000      42.79200000      20.26900000
 H       8.50900000      43.75500000      20.14000000
 H       8.01800000      42.49000000      20.81900000
 O      38.45000000      45.07800000      30.30500000
 H      38.68900000      44.47400000      31.03000000
 H      38.90100000      44.59700000      29.54800000
 O      27.11800000      43.85400000      22.10600000
 H      27.41600000      44.60100000      22.64300000
 H      27.34200000      43.09100000      22.64600000
 O      36.28900000      44.23800000      23.82600000
 H      37.13200000      44.12600000      23.47300000
 H      35.72300000      43.60800000      23.30400000
 O      29.74600000      48.04500000      33.74700000
 H      30.53200000      47.55800000      33.99600000
 H      29.21500000      47.89500000      34.61800000
 O      19.63900000      46.03600000      20.30500000
 H      19.85700000      45.85400000      21.25400000
 H      18.70100000      46.20700000      20.32800000
 O      35.01300000      48.34400000      16.08700000
 H      35.01700000      47.86000000      15.24800000
 H      34.57500000      47.62500000      16.67300000
 O      26.38900000      46.61200000      30.58500000
 H      27.17600000      46.37400000      30.09200000
 H      26.66500000      47.49700000      30.88300000
 O      28.59600000      43.62600000      15.72700000
 H      28.72700000      42.69700000      15.44000000
 H      27.72300000      43.79400000      15.39400000
 O       9.25600000      45.48400000      29.06600000
 H       9.94100000      45.08700000      29.59500000
 H       9.05900000      46.31000000      29.60800000
 O      13.54300000      48.40900000      28.03800000
 H      12.71000000      48.72500000      27.65800000
 H      14.06100000      49.28200000      27.89500000
 O      16.75800000      47.25000000      23.88000000
 H      16.49400000      47.24100000      24.77800000
 H      17.68200000      47.67400000      23.99400000
 O      10.27800000      48.26900000      17.82000000
 H      10.35000000      48.48800000      18.81400000
 H       9.64400000      47.54100000      17.86600000
 O      16.86900000      47.14000000      28.55400000
 H      16.75700000      46.91500000      29.50900000
 H      16.06600000      46.69900000      28.18000000
 O      25.73400000      43.40100000      25.71500000
 H      25.91300000      42.74100000      26.37500000
 H      26.34800000      43.36200000      25.04100000
 O      35.17900000      46.76600000      20.30400000
 H      35.65800000      47.03300000      21.15700000
 H      35.34000000      47.62700000      19.78000000
 O      24.36400000      43.99500000      40.68100000
 H      24.24400000      43.20600000      40.06100000
 H      23.36900000      44.08700000      40.85300000
 O      24.29000000      46.09200000      22.01800000
 H      23.54300000      46.38500000      21.41800000
 H      23.74600000      45.87400000      22.79900000
 O      17.73100000      43.26900000      36.42100000
 H      17.38800000      44.06900000      35.95200000
 H      17.43700000      42.59800000      35.77600000
 O      35.43900000      44.21900000      34.24900000
 H      35.74900000      43.77300000      35.07000000
 H      35.95200000      43.66800000      33.59900000
 O      37.64400000      43.27000000      20.49800000
 H      36.69300000      43.50600000      20.56500000
 H      38.04500000      44.18700000      20.32200000
 O      38.85000000      48.37200000      27.75600000
 H      37.88200000      48.49100000      27.61000000
 H      39.13100000      49.29900000      27.57400000
 O      32.16500000      43.32100000      31.30900000
 H      31.36000000      43.72200000      31.71100000
 H      32.34900000      42.62100000      32.00600000
 O      10.30100000      47.87900000      35.70000000
 H       9.79900000      47.37400000      35.03600000
 H      10.81000000      48.40700000      35.05700000
 O      17.44000000      48.80200000      13.70700000
 H      16.79700000      48.46000000      14.32700000
 H      16.89900000      49.20200000      13.01800000
 O      17.53700000      46.24000000      31.94300000
 H      17.83800000      45.56300000      31.29300000
 H      16.62200000      46.32100000      31.68800000
 O      17.37300000      45.65400000      16.47600000
 H      18.14300000      45.27000000      17.03500000
 H      16.71400000      44.92100000      16.66800000
 O      24.18800000      43.71500000      28.78700000
 H      24.23000000      43.50400000      29.76800000
 H      24.32400000      44.71100000      28.85800000
 O      35.02100000      48.94600000      34.90700000
 H      35.12600000      48.72900000      35.84500000
 H      34.74100000      48.05000000      34.56700000
 O      30.42600000      45.25700000      37.89600000
 H      30.41300000      44.52700000      37.33800000
 H      30.08000000      45.99500000      37.41500000
 O      14.37200000      43.61200000      31.98800000
 H      13.84000000      43.58400000      32.81000000
 H      14.78600000      42.76300000      31.95700000
 O      16.42500000      44.00400000      39.99500000
 H      15.82000000      44.52400000      40.56300000
 H      15.80400000      43.66700000      39.31600000
 O      18.22500000      45.15200000      13.95300000
 H      17.86900000      45.51300000      14.73700000
 H      19.00700000      45.62800000      13.76500000
 O       8.76900000      47.07800000      31.12800000
 H       8.52400000      47.84500000      31.76300000
 H       8.66000000      46.31800000      31.71000000
 O      13.68600000      47.91300000      20.52500000
 H      13.30200000      48.52200000      19.88700000
 H      14.15300000      47.32200000      19.93200000
 O      15.51400000      43.95500000      24.92800000
 H      14.71100000      44.07400000      25.45600000
 H      16.20800000      44.08900000      25.54900000
 O      40.53000000      45.32300000      23.99800000
 H      40.21500000      45.95300000      24.67300000
 H      40.46500000      44.48100000      24.43100000
 O      12.24500000      43.84400000      33.83600000
 H      11.49800000      43.77000000      33.24300000
 H      12.44100000      44.82000000      33.84500000
 O      24.00500000      43.29400000      18.67500000
 H      24.53500000      43.67900000      19.44600000
 H      24.69200000      42.70300000      18.31300000
 O      40.43100000      45.06400000      33.96600000
 H      39.74100000      45.75800000      34.01200000
 H      40.04300000      44.39800000      33.37700000
 O      20.94400000      47.14600000      17.14900000
 H      20.31400000      47.87900000      17.47600000
 H      20.56500000      46.40600000      17.68700000
 O      27.24300000      48.55600000      14.03600000
 H      26.81200000      48.19000000      14.84300000
 H      26.52700000      49.22200000      13.75100000
 O      33.26900000      48.43100000      30.41300000
 H      32.61000000      48.11800000      29.78700000
 H      33.58500000      47.64600000      30.83400000
 O      30.00400000      44.74300000      35.03000000
 H      29.16400000      45.00200000      34.61300000
 H      30.29600000      44.03100000      34.45200000
 O      38.33400000      45.99400000      20.41500000
 H      38.16400000      46.84400000      20.95100000
 H      37.98900000      46.29200000      19.52200000
 O      39.28300000      44.07100000      14.71100000
 H      39.60800000      44.91500000      15.05100000
 H      39.90300000      43.47200000      15.25200000
 O      12.05500000      43.58700000      36.69700000
 H      11.10600000      43.70900000      36.43700000
 H      12.43000000      43.40800000      35.83900000
 O      36.17500000      46.38900000      27.80400000
 H      35.81300000      47.32900000      27.69900000
 H      36.78400000      46.42100000      27.09300000
 O       7.40400000      44.77500000      32.77400000
 H       7.15900000      44.82200000      33.72500000
 H       6.55800000      44.49000000      32.35300000
 O      12.73700000      43.26600000      26.64000000
 H      12.30900000      42.39200000      26.84200000
 H      13.25800000      43.37200000      27.44800000
 O      39.07700000      47.66900000      30.35600000
 H      38.82200000      46.71300000      30.49400000
 H      38.96200000      47.70200000      29.37200000
 O      33.27300000      49.31800000      25.09300000
 H      32.90200000      48.44400000      24.74700000
 H      32.74200000      49.39500000      25.86800000
 O      14.55200000      43.67500000      37.85600000
 H      13.55100000      43.68100000      37.76100000
 H      14.79600000      44.37000000      37.18400000
 O      14.35000000      48.65400000      23.17600000
 H      15.14900000      48.18500000      23.40100000
 H      14.15400000      48.35800000      22.23400000
 O       8.40600000      44.65700000      14.30000000
 H       9.37000000      44.78600000      13.92700000
 H       7.93700000      45.17600000      13.62400000
 O      27.15800000      45.06400000      39.59100000
 H      27.77200000      45.43200000      40.23600000
 H      26.36800000      44.85100000      40.11600000
 O      22.91400000      44.73500000      16.47800000
 H      22.21200000      45.35800000      16.77900000
 H      23.33300000      44.52100000      17.35500000
 O      22.56000000      42.82500000      31.64000000
 H      22.74900000      43.31000000      32.47300000
 H      21.69500000      42.42200000      31.90000000
 O      20.01900000      42.84600000      22.26300000
 H      19.26500000      42.39000000      22.65900000
 H      19.86200000      43.75100000      22.42900000
 O      13.21400000      47.06500000      39.63800000
 H      12.32600000      47.05600000      39.20300000
 H      13.68700000      47.67500000      39.11100000
 O      34.34400000      46.51400000      33.76600000
 H      34.76000000      45.58100000      33.78600000
 H      34.00900000      46.45700000      32.85600000
 O      21.00000000      49.33100000      37.07400000
 H      20.76900000      48.52500000      37.64100000
 H      21.68800000      49.69900000      37.65000000
 O      31.68700000      47.62100000      28.39700000
 H      30.72300000      47.78100000      28.43700000
 H      31.92000000      48.47000000      27.90200000
 O      13.92600000      45.17500000      16.09700000
 H      13.02300000      44.82300000      16.03400000
 H      14.49400000      44.35200000      16.02000000
 O      10.41600000      48.42700000      20.78200000
 H      11.11300000      47.89100000      21.32800000
 H       9.59400000      47.99200000      21.11000000
