132
XYZ file of cluster: frame_8500_bfd7d.4a25a.1235 - created by MolEdiTo
 O      26.81800000      10.82600000       4.01800000
 H      27.66400000      11.12300000       3.67500000
 H      27.03400000       9.86900000       4.30900000
 O      25.83700000      17.03700000       6.97300000
 H      26.69700000      16.58700000       7.06800000
 H      25.92300000      17.56200000       6.10200000
 O      30.39700000      13.90600000       8.25800000
 H      30.11200000      13.02100000       8.05300000
 H      30.40000000      14.00100000       9.17600000
 O      29.23400000      18.01300000       5.02000000
 H      30.17500000      17.83800000       5.12900000
 H      28.86000000      17.55800000       5.81000000
 O      28.49000000      15.96300000       6.95400000
 H      28.45200000      15.39100000       7.71500000
 H      28.79500000      15.32200000       6.26200000
 O      29.46300000      11.32000000       7.17400000
 H      29.96800000      10.58300000       6.68300000
 H      28.53900000      10.95100000       7.37400000
 O      27.41200000      11.73200000       1.09700000
 H      27.77100000      11.81600000       0.14600000
 H      26.40900000      11.91700000       1.14900000
 O      30.00600000      17.25300000       9.06800000
 H      30.69000000      17.85100000       8.85500000
 H      29.14500000      17.67600000       8.81300000
 O      25.54000000      18.32600000       3.77300000
 H      24.73900000      18.14400000       3.29200000
 H      26.26200000      18.26100000       3.08200000
 O      26.93600000      10.25500000       7.82200000
 H      26.80500000       9.58100000       8.51300000
 H      26.04500000      10.62100000       7.60600000
 O      29.99600000      20.43600000       6.09400000
 H      30.33600000      19.66900000       6.63600000
 H      29.33700000      20.84100000       6.69500000
 O      26.61800000      13.17600000       6.12800000
 H      25.98200000      12.80500000       6.77100000
 H      26.64000000      12.50600000       5.44700000
 O      28.04400000      17.71400000       1.35900000
 H      28.24300000      18.50400000       1.82900000
 H      28.83700000      17.14000000       1.26700000
 O      27.40000000      16.10200000      11.32300000
 H      26.93300000      16.90100000      11.57600000
 H      27.12200000      16.09200000      10.40400000
 O      28.03400000      11.50000000       9.91900000
 H      27.73300000      11.80600000      10.85700000
 H      27.17400000      11.17800000       9.53800000
 O      29.68300000      10.97100000       3.15900000
 H      29.55500000      10.21500000       2.50100000
 H      30.50700000      10.77700000       3.52500000
 O      28.04000000      19.94300000       2.88000000
 H      28.38000000      19.45700000       3.70800000
 H      28.71200000      20.63100000       2.83600000
 O      27.64200000      13.94800000       8.96200000
 H      28.06100000      13.23000000       9.47800000
 H      27.52200000      13.41100000       8.10700000
 O      28.89900000      13.51100000       2.40000000
 H      29.33400000      12.77600000       2.90800000
 H      28.13800000      13.07500000       1.96100000
 O      30.42900000      15.72600000       3.04600000
 H      29.94800000      16.46900000       3.50800000
 H      29.73200000      15.10700000       2.69500000
 O      29.92800000      15.03900000      10.75300000
 H      29.88400000      15.80100000      10.13000000
 H      28.92800000      14.95500000      11.02200000
 O      29.63200000      13.96000000       5.37100000
 H      29.52200000      13.23400000       6.00200000
 H      29.55100000      13.47300000       4.53200000
 O      27.72700000      19.17100000       8.70000000
 H      27.31000000      19.64500000       9.48200000
 H      27.22400000      19.27800000       7.90600000
 O      25.52800000      15.80600000       9.30800000
 H      26.28100000      15.17200000       9.25500000
 H      25.45900000      16.25900000       8.48700000
 O      26.76400000      19.98900000       5.93600000
 H      27.10700000      20.72400000       5.43600000
 H      26.52100000      19.35300000       5.22800000
 O      34.95200000      20.70600000       3.17000000
 H      34.67800000      21.08800000       4.02300000
 H      34.64500000      21.37500000       2.52800000
 O      34.85700000      11.83800000      10.59400000
 H      34.26600000      11.31400000       9.98600000
 H      35.39700000      12.51100000      10.07500000
 O      33.91300000      20.17700000       7.83000000
 H      33.99300000      20.47700000       8.79200000
 H      34.57700000      19.52300000       7.79600000
 O      34.14500000      14.14500000       3.69200000
 H      34.41300000      14.57100000       4.51300000
 H      33.49400000      14.77000000       3.25300000
 O      32.90300000      16.01500000       5.92700000
 H      32.45100000      16.15500000       6.79200000
 H      32.53700000      15.16900000       5.58400000
 O      36.83900000      13.42900000       9.24000000
 H      36.30700000      14.29500000       9.33600000
 H      36.67600000      13.14100000       8.29400000
 O      35.04200000      15.73700000       9.58400000
 H      34.81700000      16.57300000       9.10500000
 H      34.21600000      15.17600000       9.62500000
 O      35.64300000      12.97200000       6.75500000
 H      35.75500000      12.18300000       6.27400000
 H      35.71900000      13.69700000       6.07000000
 O      37.50300000      11.86800000       1.81300000
 H      37.56300000      12.56900000       2.47500000
 H      36.66000000      12.22500000       1.34000000
 O      34.97700000      13.06000000       1.17100000
 H      34.84600000      13.50500000       2.00300000
 H      34.97500000      13.84300000       0.56200000
 O      35.01400000      18.05200000       4.66600000
 H      34.36300000      17.39600000       4.98300000
 H      34.71400000      18.89500000       5.08800000
 O      35.12800000      17.73800000       1.93500000
 H      34.21800000      18.00000000       1.70100000
 H      35.04800000      17.76200000       2.87800000
 O      33.44500000      11.66200000       4.57500000
 H      33.13800000      11.91500000       5.43800000
 H      33.70500000      12.50600000       4.04300000
 O      36.33900000      15.63000000       5.35300000
 H      37.01000000      15.83200000       6.10200000
 H      36.16400000      16.46100000       4.87200000
 O      32.48100000      18.86200000       2.63800000
 H      32.78900000      19.27500000       3.48000000
 H      32.07400000      19.64900000       2.11300000
 O      33.76700000      18.69300000      10.38100000
 H      34.06100000      18.47400000      11.30900000
 H      34.06500000      19.63200000      10.24200000
 O      37.38900000      20.50700000       4.72200000
 H      37.50800000      21.39000000       4.98800000
 H      36.67000000      20.60400000       3.97700000
 O      37.10700000      20.29400000      10.07100000
 H      37.22400000      20.56300000       9.14200000
 H      36.22000000      20.76400000      10.19900000
 O      35.77800000      17.90500000       7.46800000
 H      36.45400000      18.54800000       7.32500000
 H      36.40600000      17.11200000       7.54000000
