120
XYZ file of cluster: frame_8500_46eca.a5088.1255 - created by MolEdiTo
 O      15.59500000      30.00300000       2.54900000
 H      16.38400000      30.42000000       2.18600000
 H      14.89500000      30.30400000       1.88000000
 O      21.11800000      26.45700000       3.23000000
 H      20.28700000      26.18900000       3.63600000
 H      20.81600000      26.15100000       2.33400000
 O      16.15200000      28.68000000       7.50300000
 H      16.23800000      29.69400000       7.52700000
 H      16.38400000      28.37700000       8.45300000
 O      12.78200000      24.99700000       8.12800000
 H      12.57400000      25.09200000       7.12900000
 H      12.73900000      25.95000000       8.43800000
 O      21.04200000      22.03300000       8.82200000
 H      20.22500000      21.59000000       9.15100000
 H      21.75300000      21.76500000       9.47900000
 O      16.80400000      22.37800000       5.33300000
 H      17.34200000      21.52900000       5.22200000
 H      16.86500000      22.84300000       4.46500000
 O      13.68600000      21.84100000       4.09500000
 H      13.94900000      21.32500000       4.90300000
 H      14.53800000      22.03300000       3.66000000
 O      17.24200000      22.34400000       9.68500000
 H      16.73900000      22.79900000       9.03800000
 H      17.73700000      23.08500000      10.11900000
 O      19.28300000      28.56000000       6.43800000
 H      18.52200000      28.30600000       5.92000000
 H      19.24400000      29.53200000       6.46100000
 O      19.32000000      29.46300000       9.98100000
 H      19.38100000      30.10300000       9.24200000
 H      18.56800000      29.83000000      10.51100000
 O      10.99100000      29.14400000       4.53600000
 H      11.83400000      28.70000000       4.67000000
 H      11.21700000      29.90800000       3.96200000
 O      14.17600000      23.65700000      10.34700000
 H      14.57100000      23.24500000       9.59100000
 H      13.76000000      24.51800000       9.98200000
 O      19.12500000      21.36300000       1.76100000
 H      18.72800000      22.22700000       1.54100000
 H      19.98400000      21.61100000       2.11600000
 O      14.05000000      27.85300000       1.64100000
 H      14.18800000      28.36600000       0.80800000
 H      14.86900000      27.38100000       1.75900000
 O       9.67800000      27.83500000       2.40100000
 H      10.60300000      27.90600000       2.77000000
 H       9.14600000      28.23700000       3.10300000
 O      13.41600000      24.83900000       1.94400000
 H      14.29000000      24.48000000       1.76600000
 H      13.50000000      25.81200000       2.09600000
 O      19.31800000      24.98200000       4.86500000
 H      18.61800000      25.48900000       5.26800000
 H      19.42900000      24.11000000       5.34400000
 O      19.99200000      24.32600000      10.39000000
 H      19.96100000      24.55500000       9.43100000
 H      20.53700000      25.14500000      10.64600000
 O      10.26100000      30.57200000       7.28700000
 H      10.94600000      31.09300000       7.80100000
 H      10.66200000      30.47300000       6.40300000
 O      16.68400000      27.02800000       1.10100000
 H      17.56800000      27.17700000       0.71600000
 H      16.24700000      26.27300000       0.54200000
 O      17.76400000      26.24600000       7.12600000
 H      18.36900000      26.92500000       7.41100000
 H      16.92100000      26.69000000       6.93600000
 O      15.26800000      25.68400000       4.63500000
 H      15.91500000      25.04500000       4.37000000
 H      14.56400000      25.03100000       4.78900000
 O      11.10900000      28.96500000       9.69400000
 H      11.46700000      28.11000000      10.07300000
 H      10.49300000      28.75400000       8.96300000
 O      10.81400000      22.27000000       3.41200000
 H      11.74200000      22.12900000       3.64100000
 H      10.92300000      22.66000000       2.52800000
 O      15.11600000      22.54700000       0.98700000
 H      15.28500000      21.89100000       1.72800000
 H      14.57000000      22.12800000       0.29800000
 O      11.03500000      23.46900000       1.01000000
 H      12.01600000      23.71100000       1.16700000
 H      10.67600000      24.25100000       0.55700000
 O      16.27400000      27.82000000      10.01400000
 H      15.52500000      27.15600000      10.13300000
 H      16.88400000      27.53500000      10.80700000
 O      12.66800000      24.39800000       5.10600000
 H      11.87300000      24.72700000       4.56700000
 H      12.85000000      23.50400000       4.61000000
 O      20.83900000      24.51200000       7.71600000
 H      20.90000000      23.57700000       7.93300000
 H      20.03200000      24.52300000       7.08700000
 O      21.25300000      29.15600000       3.65400000
 H      20.41400000      28.81000000       3.32200000
 H      21.82300000      28.38700000       3.78400000
 O      16.29600000      23.76600000       7.61100000
 H      16.10400000      23.37200000       6.69100000
 H      16.72500000      24.63200000       7.36400000
 O      19.83300000      25.72800000       0.93900000
 H      19.44700000      24.87900000       0.65200000
 H      20.16800000      26.20400000       0.14700000
 O      20.19600000      22.08400000       5.64100000
 H      19.73100000      21.53300000       6.36800000
 H      20.11200000      21.42600000       4.87200000
 O      21.65800000      27.20600000       6.80900000
 H      21.36400000      26.29000000       6.94500000
 H      20.87800000      27.79900000       6.66300000
 O      17.19100000      28.16400000       4.62500000
 H      16.74200000      29.00600000       4.78500000
 H      16.53900000      27.54100000       4.24000000
 O      13.56600000      28.70200000       4.73800000
 H      14.12000000      28.73500000       3.97300000
 H      14.09800000      28.22300000       5.35900000
 O      11.78100000      22.31900000       8.20400000
 H      11.92500000      23.13100000       7.67100000
 H      11.58300000      22.64500000       9.08400000
 O      10.99900000      30.12300000       1.43800000
 H      11.93900000      30.43300000       1.69400000
 H      10.92100000      29.14400000       1.46000000
 O      17.07500000      24.39200000       2.95200000
 H      18.05600000      24.65800000       2.92400000
 H      16.65900000      24.94700000       2.23500000
 O      18.21200000      30.60800000       2.01000000
 H      18.54200000      30.07100000       2.82100000
 H      19.00700000      30.82900000       1.42100000
