157
XYZ file of cluster: frame_8500_6efc3.1eecc.47da3 - created by MolEdiTo
 O      21.32900000      11.04700000      14.58900000
 H      20.63200000      11.45800000      13.98700000
 H      22.17800000      11.61600000      14.38400000
 O      24.90800000       7.98500000      12.45600000
 H      23.92900000       8.01000000      12.34400000
 H      25.11000000       8.90700000      12.56500000
 O      20.56700000      10.55700000      17.65100000
 H      20.51700000      11.52800000      17.79900000
 H      20.80300000      10.58800000      16.69900000
 O      24.04200000       4.38700000      15.43900000
 H      23.87900000       5.29400000      15.89900000
 H      24.88500000       4.56100000      15.01100000
 O      20.98000000      14.82400000      20.48300000
 H      20.70300000      13.94900000      20.82600000
 H      21.16900000      15.33100000      21.31800000
 O      23.57200000       8.65200000      20.95900000
 H      23.53200000       7.81300000      20.47700000
 H      24.44000000       8.49200000      21.43200000
 O      20.91000000      10.45800000      10.22300000
 H      21.00700000      10.58200000       9.21800000
 H      21.08100000      11.40000000      10.53900000
 O      24.84200000      13.27000000      20.69200000
 H      25.44400000      12.54800000      20.34400000
 H      24.54600000      12.86400000      21.50800000
 O      18.79800000      11.57500000      13.35300000
 H      18.28000000      11.37500000      14.11600000
 H      18.29100000      11.40300000      12.54000000
 O      16.01500000       9.64400000      15.19100000
 H      15.41400000       9.88100000      14.48000000
 H      15.67500000      10.22200000      15.93300000
 O      22.81100000      13.21100000      14.23000000
 H      23.65000000      13.55400000      14.56100000
 H      22.70800000      13.52400000      13.30400000
 O      18.15800000      14.30500000      19.11900000
 H      18.77900000      14.20200000      19.89100000
 H      18.15600000      15.31000000      19.09900000
 C      15.64100000      17.25800000      15.79700000
 C      15.36000000      16.04100000      16.74900000
 C      15.99400000      14.50000000      14.76800000
 H      17.34300000      15.34800000      16.22900000
 H      16.81300000      17.50800000      17.13000000
 O      16.33100000      13.79900000      17.07700000
 O      15.06100000      17.48400000      14.73400000
 O      16.56300000      18.02500000      16.30600000
 C      16.35000000      14.97600000      16.22000000
 O      15.48600000      16.39300000      18.13500000
 H      14.31200000      15.70800000      16.51100000
 O      14.83700000      14.47400000      14.36100000
 O      16.93800000      13.83900000      14.12300000
 H      17.76400000      13.96100000      14.62800000
 H      15.08900000      15.66700000      18.69200000
 H      17.06500000      13.92100000      17.73600000
 O      15.83700000      10.13000000      20.79700000
 H      15.38500000       9.95700000      19.97000000
 H      15.12200000       9.95500000      21.44500000
 O      18.47400000      14.75900000       9.97600000
 H      18.67400000      14.19300000      10.71200000
 H      19.34800000      14.62500000       9.44600000
 O      16.35100000       7.97700000      12.84300000
 H      16.36400000       7.19500000      13.41700000
 H      16.63900000       8.71000000      13.47700000
 O      25.51500000      10.82500000      11.93800000
 H      24.59600000      10.53600000      11.80400000
 H      25.33500000      11.81500000      11.81000000
 O      21.39500000      13.17800000      17.87000000
 H      22.38400000      13.27100000      17.71000000
 H      21.19900000      13.34700000      18.83300000
 O      18.54600000      10.64400000      21.44300000
 H      17.98800000      10.92000000      20.61600000
 H      17.87800000      10.13000000      21.97300000
 O      18.85200000       6.89900000      14.27300000
 H      19.69500000       7.12100000      13.86300000
 H      19.07100000       6.36300000      15.03000000
 O      15.60000000       9.23000000      18.11600000
 H      16.51100000       8.99000000      17.83300000
 H      15.02800000       8.48000000      17.92500000
 O      24.06600000      12.11900000      17.49200000
 H      24.48100000      12.22100000      18.36500000
 H      24.27700000      11.22500000      17.05000000
 O      24.90100000       6.01800000      10.30200000
 H      23.94600000       5.81600000      10.60300000
 H      25.49600000       6.14400000      11.05800000
 O      24.95600000      14.44400000      11.96400000
 H      24.64800000      14.98400000      12.72500000
 H      25.88900000      14.69200000      11.85600000
 O      23.33600000       6.74500000      16.98600000
 H      23.16000000       7.69400000      17.19900000
 H      23.48100000       6.24700000      17.83700000
 O      19.07500000       5.31100000      16.28800000
 H      18.22400000       4.96300000      16.56000000
 H      19.77300000       4.73200000      16.58100000
 O      23.26000000       5.16900000      19.56600000
 H      23.60200000       5.37100000      20.48500000
 H      23.85400000       4.45800000      19.17100000
 O      26.01300000      11.00000000      19.60400000
 H      26.85200000      11.09800000      19.19100000
 H      26.07200000      10.33100000      20.27500000
 O      18.73300000       8.48700000      10.63400000
 H      19.26200000       9.31200000      10.35000000
 H      17.95000000       8.81000000      11.10900000
 O      18.99200000       8.33500000      18.83500000
 H      18.70000000       7.79200000      18.09300000
 H      19.45200000       9.18600000      18.53200000
 O      22.74600000      16.08600000      16.79200000
 H      22.95300000      15.88100000      17.72100000
 H      23.54100000      15.67800000      16.35900000
 O      26.16600000       8.74400000       9.81400000
 H      25.83900000       7.85400000       9.56600000
 H      25.98100000       8.80500000      10.78400000
 O      22.84000000       9.94000000      11.96000000
 H      22.43700000      10.37100000      12.69700000
 H      22.08500000       9.73100000      11.38800000
 O      21.55500000      11.09400000      21.20200000
 H      21.25800000      10.47400000      21.88300000
 H      22.36500000      10.68800000      20.83600000
 O      20.55300000      12.85500000      11.51600000
 H      20.62800000      13.59800000      12.22800000
 H      19.75600000      12.38300000      11.74900000
 O      23.74000000      12.69100000      10.36000000
 H      24.30800000      13.35700000      10.77200000
 H      22.96100000      13.26600000      10.06700000
 O      19.43100000      13.89100000      16.17300000
 H      20.08800000      13.40300000      15.66400000
 H      19.62800000      13.70500000      17.11700000
 O      23.07000000       9.21100000      18.03000000
 H      23.14600000       9.41200000      18.97500000
 H      22.10800000       9.46700000      17.88100000
 O      19.55800000       6.04900000      11.28800000
 H      18.91900000       6.85800000      11.16300000
 H      19.13400000       5.64300000      12.06800000
 O      25.12900000      14.15800000      16.05600000
 H      25.86100000      13.52800000      15.90700000
 H      24.52700000      13.81400000      16.74900000
 O      20.81800000      15.15900000      12.86100000
 H      19.93600000      15.51700000      12.59700000
 H      21.04200000      15.74800000      13.61900000
 O      17.87000000      11.48400000      10.73400000
 H      17.39600000      12.23100000      10.27300000
 H      18.40900000      11.21400000       9.91300000
 O      22.37900000       6.58200000      11.45100000
 H      22.26000000       6.27000000      12.39600000
 H      21.39900000       6.54800000      11.24200000
 O      22.96400000       6.50500000      14.09500000
 H      22.97900000       5.87200000      14.79900000
 H      23.60400000       7.25000000      14.30900000
 O      26.65900000       6.24700000      18.18800000
 H      26.18500000       5.41200000      18.40800000
 H      27.28000000       6.24900000      18.96300000
 O      23.56600000      15.35100000      19.17200000
 H      22.82800000      15.46600000      19.88600000
 H      24.05300000      14.55200000      19.59700000
 O      16.52900000       6.16500000      18.11300000
 H      15.54000000       6.49700000      18.09000000
 H      16.53600000       5.33100000      17.65000000
 O      17.33600000       4.58000000      13.53000000
 H      17.86400000       5.34900000      13.88600000
 H      17.98300000       3.99600000      13.01100000
