132
XYZ file of cluster: frame_8500_4abd5.20e7f.c3347 - created by MolEdiTo
 O      16.30800000      10.25900000      30.60500000
 H      15.74000000       9.55400000      30.25100000
 H      17.04500000       9.69500000      30.93100000
 O      16.93400000      13.86900000      26.76000000
 H      16.98000000      14.37100000      25.86700000
 H      16.05000000      13.58300000      26.62500000
 O      13.35800000       7.14800000      26.78500000
 H      13.08000000       8.08500000      26.50000000
 H      12.83600000       7.02200000      27.66300000
 O      10.39200000      10.25800000      30.12400000
 H      11.04200000       9.66300000      29.80900000
 H      10.88400000      10.96600000      30.67000000
 O      18.35600000       8.68100000      26.13500000
 H      18.23800000       8.86400000      27.12000000
 H      19.17100000       8.15200000      26.07600000
 O      15.62600000       8.04700000      28.51800000
 H      14.84500000       7.40800000      28.47100000
 H      16.41200000       7.53000000      28.64500000
 O      21.55300000      13.79000000      26.61200000
 H      20.83800000      13.15800000      26.41900000
 H      21.77200000      13.54500000      27.48300000
 O      15.57400000      12.43700000      29.20200000
 H      15.94700000      11.76200000      29.88700000
 H      16.40200000      12.79900000      28.91100000
 O      11.87600000      14.89200000      26.48200000
 H      11.04200000      14.93600000      25.97600000
 H      11.71600000      14.14000000      27.12500000
 O      19.95200000       6.02900000      25.56200000
 H      20.57300000       5.51200000      25.04300000
 H      20.07300000       5.52700000      26.42900000
 O      16.53400000      16.23200000      28.10000000
 H      16.89500000      15.37300000      27.95000000
 H      15.55500000      16.02100000      28.02600000
 O      11.57400000       7.59800000      29.05200000
 H      10.93700000       6.92600000      29.21700000
 H      12.25400000       7.52600000      29.83200000
 O      18.97100000       7.88700000      29.37300000
 H      18.87100000       8.65100000      29.86100000
 H      19.89500000       7.65900000      29.41500000
 O      13.31600000       9.93900000      30.37300000
 H      13.70900000       9.68500000      29.49600000
 H      13.63100000      10.83700000      30.58600000
 O      14.53300000      10.45600000      27.23700000
 H      14.89800000       9.67400000      27.64900000
 H      14.94200000      11.18700000      27.70700000
 O      13.80300000       6.05500000      30.22000000
 H      14.27200000       5.84500000      31.04900000
 H      13.32400000       5.25700000      29.97600000
 O      19.55500000      10.40800000      30.40800000
 H      19.18900000      10.29300000      31.28400000
 H      20.56200000      10.21200000      30.51500000
 O      14.00800000      14.95100000      30.07600000
 H      13.91600000      14.14200000      29.54300000
 H      13.79200000      15.77500000      29.59000000
 O      11.62200000       9.35000000      25.87700000
 H      10.78200000       9.69900000      26.30100000
 H      11.31500000       8.84700000      25.18900000
 O      19.78300000      15.34700000      29.10000000
 H      19.94400000      15.59000000      28.12800000
 H      19.60000000      16.18300000      29.60900000
 O      12.11000000      12.91100000      28.32800000
 H      11.73600000      12.71600000      29.17000000
 H      12.76300000      12.19400000      28.02700000
 O      20.25000000      11.42200000      27.19800000
 H      20.91500000      10.72500000      27.06200000
 H      20.32900000      11.49100000      28.17400000
 O      18.60200000      13.04900000      29.65700000
 H      19.13600000      13.75500000      29.17500000
 H      18.62300000      12.21700000      29.20800000
 O      19.62000000       4.75100000      28.00400000
 H      19.41900000       5.57700000      28.50100000
 H      18.86000000       4.25200000      28.22700000
 O      15.49800000       5.35600000      26.16300000
 H      16.15300000       5.52200000      25.42400000
 H      14.79700000       6.04100000      26.03200000
 O      20.05700000      11.87500000      36.81100000
 H      20.28800000      12.76700000      36.60600000
 H      20.24300000      11.40000000      35.93100000
 O      17.93900000      14.67600000      35.78000000
 H      17.33600000      13.95800000      35.47300000
 H      17.53900000      15.20300000      36.55000000
 O      18.31500000       8.11000000      33.32600000
 H      17.77700000       7.47400000      33.96000000
 H      18.79300000       7.45000000      32.73600000
 O      17.88700000      11.23800000      34.24200000
 H      17.00800000      10.90200000      34.18900000
 H      17.83900000      12.03700000      33.66900000
 O      14.73600000       9.14000000      34.25900000
 H      15.41400000       8.48000000      34.05400000
 H      13.96800000       8.86000000      33.70200000
 O      15.00500000      11.47300000      35.74200000
 H      14.80200000      12.25900000      35.14500000
 H      14.69700000      10.73900000      35.20600000
 O      14.81100000      13.37200000      33.66100000
 H      14.16600000      14.04000000      33.38500000
 H      15.55400000      13.66100000      33.18000000
 O      13.39100000       7.28200000      36.55000000
 H      14.01900000       7.29500000      35.86000000
 H      12.83700000       6.45900000      36.38500000
 O      16.47900000       6.51500000      34.52500000
 H      16.43000000       6.27200000      35.49800000
 H      15.81100000       5.83800000      34.14100000
 O      12.38200000      14.02700000      35.64300000
 H      12.34200000      14.34100000      36.57300000
 H      11.85900000      14.71500000      35.26500000
 O      17.01800000      14.85500000      32.63300000
 H      17.57000000      14.11300000      32.35600000
 H      17.44400000      15.62100000      32.19500000
 O      20.73700000      14.50500000      35.94100000
 H      20.74200000      15.46100000      36.09600000
 H      19.78000000      14.22200000      36.05300000
 O      20.50000000       9.91900000      34.77700000
 H      19.68800000      10.34700000      34.41700000
 H      20.13900000       9.04600000      35.12400000
 O      10.76700000      12.77100000      33.04700000
 H      10.14900000      13.32500000      33.59300000
 H      11.67700000      12.88000000      33.55500000
 O      12.36000000       7.67900000      33.57900000
 H      11.66000000       7.10500000      33.39800000
 H      12.18100000       8.62400000      33.27600000
 O      20.50900000       6.32300000      34.85500000
 H      21.42000000       6.06000000      35.16500000
 H      20.16900000       6.85500000      35.64700000
 O      10.22100000      12.48200000      37.14200000
 H       9.63800000      12.90100000      36.47400000
 H      11.09300000      12.37900000      36.76400000
 O      10.95400000       9.01600000      36.01100000
 H      11.33100000       8.29800000      35.38200000
 H      11.08600000       8.62100000      36.92700000
 O      10.51100000       6.02600000      34.51300000
 H      10.88700000       5.15200000      34.24800000
 H      10.21100000       5.79700000      35.39800000
