 Entering Gaussian System, Link 0=g16
 Input=G98.INP
 Output=G98.OUT
 Initial command:
 /usr/local/g16-A.03/sse4/g16/l1.exe "/scratch/zronyj/cluster_243.206050/Gau-23770.inp" -scrdir="/scratch/zronyj/cluster_243.206050/"
 Entering Link 1 = /usr/local/g16-A.03/sse4/g16/l1.exe PID=     23771.
  
 Copyright (c) 1988,1990,1992,1993,1995,1998,2003,2009,2016,
            Gaussian, Inc.  All Rights Reserved.
  
 This is part of the Gaussian(R) 16 program.  It is based on
 the Gaussian(R) 09 system (copyright 2009, Gaussian, Inc.),
 the Gaussian(R) 03 system (copyright 2003, Gaussian, Inc.),
 the Gaussian(R) 98 system (copyright 1998, Gaussian, Inc.),
 the Gaussian(R) 94 system (copyright 1995, Gaussian, Inc.),
 the Gaussian 92(TM) system (copyright 1992, Gaussian, Inc.),
 the Gaussian 90(TM) system (copyright 1990, Gaussian, Inc.),
 the Gaussian 88(TM) system (copyright 1988, Gaussian, Inc.),
 the Gaussian 86(TM) system (copyright 1986, Carnegie Mellon
 University), and the Gaussian 82(TM) system (copyright 1983,
 Carnegie Mellon University). Gaussian is a federally registered
 trademark of Gaussian, Inc.
  
 This software contains proprietary and confidential information,
 including trade secrets, belonging to Gaussian, Inc.
  
 This software is provided under written license and may be
 used, copied, transmitted, or stored only in accord with that
 written license.
  
 The following legend is applicable only to US Government
 contracts under FAR:
  
                    RESTRICTED RIGHTS LEGEND
  
 Use, reproduction and disclosure by the US Government is
 subject to restrictions as set forth in subparagraphs (a)
 and (c) of the Commercial Computer Software - Restricted
 Rights clause in FAR 52.227-19.
  
 Gaussian, Inc.
 340 Quinnipiac St., Bldg. 40, Wallingford CT 06492
  
  
 ---------------------------------------------------------------
 Warning -- This program may not be used in any manner that
 competes with the business of Gaussian, Inc. or will provide
 assistance to any competitor of Gaussian, Inc.  The licensee
 of this program is prohibited from giving any competitor of
 Gaussian, Inc. access to this program.  By using this program,
 the user acknowledges that Gaussian, Inc. is engaged in the
 business of creating and licensing software in the field of
 computational chemistry and represents and warrants to the
 licensee that it is not a competitor of Gaussian, Inc. and that
 it will not use this program in any manner prohibited above.
 ---------------------------------------------------------------
  

 Cite this work as:
 Gaussian 16, Revision A.03,
 M. J. Frisch, G. W. Trucks, H. B. Schlegel, G. E. Scuseria, 
 M. A. Robb, J. R. Cheeseman, G. Scalmani, V. Barone, 
 G. A. Petersson, H. Nakatsuji, X. Li, M. Caricato, A. V. Marenich, 
 J. Bloino, B. G. Janesko, R. Gomperts, B. Mennucci, H. P. Hratchian, 
 J. V. Ortiz, A. F. Izmaylov, J. L. Sonnenberg, D. Williams-Young, 
 F. Ding, F. Lipparini, F. Egidi, J. Goings, B. Peng, A. Petrone, 
 T. Henderson, D. Ranasinghe, V. G. Zakrzewski, J. Gao, N. Rega, 
 G. Zheng, W. Liang, M. Hada, M. Ehara, K. Toyota, R. Fukuda, 
 J. Hasegawa, M. Ishida, T. Nakajima, Y. Honda, O. Kitao, H. Nakai, 
 T. Vreven, K. Throssell, J. A. Montgomery, Jr., J. E. Peralta, 
 F. Ogliaro, M. J. Bearpark, J. J. Heyd, E. N. Brothers, K. N. Kudin, 
 V. N. Staroverov, T. A. Keith, R. Kobayashi, J. Normand, 
 K. Raghavachari, A. P. Rendell, J. C. Burant, S. S. Iyengar, 
 J. Tomasi, M. Cossi, J. M. Millam, M. Klene, C. Adamo, R. Cammi, 
 J. W. Ochterski, R. L. Martin, K. Morokuma, O. Farkas, 
 J. B. Foresman, and D. J. Fox, Gaussian, Inc., Wallingford CT, 2016.
 
 ******************************************
 Gaussian 16:  ES64L-G16RevA.03 25-Dec-2016
                26-Aug-2023 
 ******************************************
 %chk=cluster_243.chk
 %mem=8GB
 %nproc=4
 Will use up to    4 processors via shared memory.
 ----------------------------------------------------------------------
 #b3lyp/6-31G** scrf=(cpcm,Solvent=Water) nosymm force iop(2/11=1) Geom
 =(NoDistance,NoAngle) guess=checkpoint
 ----------------------------------------------------------------------
 1/10=7,30=1,38=1/1,3;
 2/9=11,11=1,12=2,15=1,17=6,18=5,40=1/2;
 3/5=1,6=6,7=101,11=2,25=1,30=1,70=2101,71=1,72=1,74=-5,116=-2/1,2,3;
 4/5=1/1;
 5/5=2,38=6,53=1/2;
 6/7=2,8=2,9=2,10=2,28=1/1;
 7/29=1,30=1/1,2,3,16;
 1/10=7,30=1/3;
 99//99;
 -----------
 cluster_243
 -----------
 Symbolic Z-matrix:
 Charge =  0 Multiplicity = 1
 O                     13.88137   15.3016   14.49401 
 H                     13.56594   15.72852   15.31024 
 H                     14.57212   14.6807   14.76956 
 O                     7.88377   14.31638   11.5267 
 H                     8.05757   15.27493   11.55151 
 H                     7.67564   14.15675   10.59822 
 O                     8.17659   17.38334   11.74279 
 H                     7.22148   17.4084   11.89069 
 H                     8.54873   17.29043   12.64856 
 O                     8.49694   19.90469   17.20104 
 H                     8.61626   18.95053   17.35447 
 H                     8.07317   19.91567   16.31872 
 O                     13.70675   15.95999   11.74163 
 H                     13.7918   15.84212   12.70715 
 H                     12.76739   15.81581   11.58406 
 O                     12.79367   19.40506   12.0025 
 H                     12.35874   18.77466   11.41049 
 H                     12.85796   20.21612   11.4819 
 O                     7.16687   19.71366   14.54184 
 H                     6.88301   20.62224   14.36377 
 H                     7.94275   19.60407   13.97444 
 O                     10.79101   14.39995   14.67312 
 H                     10.41204   13.73875   14.07997 
 H                     11.71922   14.49455   14.39807 
 O                     11.8041   16.48867   16.72156 
 H                     11.65625   16.6348   17.66423 
 H                     11.0006   16.03052   16.43141 
 O                     10.8246   20.14439   14.26815 
 H                     10.94883   21.09814   14.36391 
 H                     11.42456   19.90426   13.53743 
 O                     8.81874   17.11502   17.20834 
 H                     8.73321   16.66631   18.05884 
 H                     8.13243   16.72724   16.64323 
 O                     9.13307   16.85237   14.36766 
 H                     9.7119    16.064    14.36746 
 H                     9.58326   17.48659   14.94135 
 O                     13.95424   19.22062   16.83765 
 H                     14.72907   18.66731   16.66798 
 H                     13.21613   18.61134   16.65929 
 

 GradGradGradGradGradGradGradGradGradGradGradGradGradGradGradGradGradGrad
 Berny optimization.
 Initialization pass.
 Trust Radius=3.00D-01 FncErr=1.00D-07 GrdErr=1.00D-07 EigMax=2.50D+02 EigMin=1.00D-04
 Number of steps in this run=      2 maximum allowed number of steps=      2.
 GradGradGradGradGradGradGradGradGradGradGradGradGradGradGradGradGradGrad

                          Input orientation:                          
 ---------------------------------------------------------------------
 Center     Atomic      Atomic             Coordinates (Angstroms)
 Number     Number       Type             X           Y           Z
 ---------------------------------------------------------------------
      1          8           0       13.881373   15.301597   14.494005
      2          1           0       13.565936   15.728525   15.310243
      3          1           0       14.572121   14.680695   14.769558
      4          8           0        7.883774   14.316385   11.526703
      5          1           0        8.057570   15.274930   11.551508
      6          1           0        7.675636   14.156751   10.598215
      7          8           0        8.176594   17.383338   11.742790
      8          1           0        7.221480   17.408397   11.890686
      9          1           0        8.548727   17.290426   12.648558
     10          8           0        8.496935   19.904685   17.201040
     11          1           0        8.616256   18.950532   17.354474
     12          1           0        8.073173   19.915670   16.318720
     13          8           0       13.706754   15.959994   11.741625
     14          1           0       13.791796   15.842116   12.707155
     15          1           0       12.767388   15.815809   11.584059
     16          8           0       12.793667   19.405059   12.002500
     17          1           0       12.358745   18.774660   11.410488
     18          1           0       12.857956   20.216117   11.481905
     19          8           0        7.166869   19.713658   14.541842
     20          1           0        6.883010   20.622239   14.363770
     21          1           0        7.942748   19.604068   13.974441
     22          8           0       10.791012   14.399946   14.673119
     23          1           0       10.412042   13.738747   14.079969
     24          1           0       11.719224   14.494551   14.398072
     25          8           0       11.804102   16.488668   16.721555
     26          1           0       11.656253   16.634804   17.664233
     27          1           0       11.000604   16.030516   16.431407
     28          8           0       10.824599   20.144388   14.268150
     29          1           0       10.948832   21.098140   14.363907
     30          1           0       11.424564   19.904262   13.537426
     31          8           0        8.818738   17.115025   17.208337
     32          1           0        8.733208   16.666308   18.058840
     33          1           0        8.132434   16.727238   16.643234
     34          8           0        9.133072   16.852370   14.367659
     35          1           0        9.711896   16.063996   14.367464
     36          1           0        9.583263   17.486588   14.941351
     37          8           0       13.954239   19.220615   16.837653
     38          1           0       14.729074   18.667311   16.667981
     39          1           0       13.216126   18.611343   16.659286
 ---------------------------------------------------------------------
 Symmetry turned off by external request.
 Stoichiometry    H26O13
 Framework group  C1[X(H26O13)]
 Deg. of freedom   111
 Full point group                 C1      NOp   1
 Rotational constants (GHZ):           0.2629156           0.2454569           0.1966781
 Standard basis: 6-31G(d,p) (6D, 7F)
   325 basis functions,   546 primitive gaussians,   325 cartesian basis functions
    65 alpha electrons       65 beta electrons
       nuclear repulsion energy       985.2440248714 Hartrees.
 NAtoms=   39 NActive=   39 NUniq=   39 SFac= 1.00D+00 NAtFMM=   60 NAOKFM=F Big=F
 Integral buffers will be    131072 words long.
 Raffenetti 2 integral format.
 Two-electron integral symmetry is turned off.
 ------------------------------------------------------------------------------
 Polarizable Continuum Model (PCM)
 =================================
 Model                : C-PCM.
 Atomic radii         : UFF (Universal Force Field).
 Polarization charges : Total charges.
 Charge compensation  : None.
 Solution method      : On-the-fly selection.
 Cavity type          : Scaled VdW (van der Waals Surface) (Alpha=1.100).
 Cavity algorithm     : GePol (No added spheres)
                        Default sphere list used, NSphG=   39.
                        Lebedev-Laikov grids with approx.  5.0 points / Ang**2.
                        Smoothing algorithm: York/Karplus (Gamma=1.0000).
                        Polarization charges: spherical gaussians, with
                                              point-specific exponents (IZeta= 3).
                        Self-potential: point-specific (ISelfS= 7).
                        Self-field    : sphere-specific E.n sum rule (ISelfD= 2).
 1st derivatives      : Analytical E(r).r(x)/FMM algorithm (CHGder, D1EAlg=3).
                        Cavity 1st derivative terms included.
 Solvent              : Water, Eps=  78.355300 Eps(inf)=   1.777849
 ------------------------------------------------------------------------------
 One-electron integrals computed using PRISM.
 NBasis=   325 RedAO= T EigKep=  1.17D-02  NBF=   325
 NBsUse=   325 1.00D-06 EigRej= -1.00D+00 NBFU=   325
 Initial guess from the checkpoint file:  "cluster_243.chk"
 B after Tr=     0.001015   -0.000899    0.000152
         Rot=    1.000000    0.000008    0.000011   -0.000007 Ang=   0.00 deg.
 Requested convergence on RMS density matrix=1.00D-08 within 128 cycles.
 Requested convergence on MAX density matrix=1.00D-06.
 Requested convergence on             energy=1.00D-06.
 No special actions if energy rises.
 Inv3:  Mode=1 IEnd=    44977152.
 Iteration    1 A*A^-1 deviation from unit magnitude is 7.77D-15 for   3860.
 Iteration    1 A*A^-1 deviation from orthogonality  is 2.37D-15 for   2833   1897.
 Iteration    1 A^-1*A deviation from unit magnitude is 7.99D-15 for   3860.
 Iteration    1 A^-1*A deviation from orthogonality  is 1.48D-15 for   1823   1425.
 Error on total polarization charges =  0.00412
 SCF Done:  E(RB3LYP) =  -993.646964696     A.U. after    8 cycles
            NFock=  8  Conv=0.72D-08     -V/T= 2.0085

 **********************************************************************

            Population analysis using the SCF density.

 **********************************************************************

 Alpha  occ. eigenvalues --  -19.16833 -19.16751 -19.16187 -19.15858 -19.15701
 Alpha  occ. eigenvalues --  -19.15331 -19.15291 -19.14054 -19.13588 -19.13157
 Alpha  occ. eigenvalues --  -19.12537 -19.11988 -19.09854  -1.02419  -1.02110
 Alpha  occ. eigenvalues --   -1.01586  -1.01405  -1.01208  -1.00696  -1.00643
 Alpha  occ. eigenvalues --   -0.99358  -0.99201  -0.98628  -0.98236  -0.97807
 Alpha  occ. eigenvalues --   -0.95684  -0.54390  -0.54244  -0.53274  -0.52930
 Alpha  occ. eigenvalues --   -0.52799  -0.52362  -0.52057  -0.51227  -0.50589
 Alpha  occ. eigenvalues --   -0.50481  -0.50083  -0.49995  -0.48100  -0.41498
 Alpha  occ. eigenvalues --   -0.41122  -0.40539  -0.39539  -0.39397  -0.39306
 Alpha  occ. eigenvalues --   -0.38875  -0.37309  -0.37087  -0.36924  -0.36385
 Alpha  occ. eigenvalues --   -0.35340  -0.35287  -0.32482  -0.32209  -0.31847
 Alpha  occ. eigenvalues --   -0.31252  -0.31026  -0.30860  -0.30439  -0.30021
 Alpha  occ. eigenvalues --   -0.29295  -0.28938  -0.28519  -0.28098  -0.26377
 Alpha virt. eigenvalues --    0.01458   0.04377   0.05340   0.06455   0.07301
 Alpha virt. eigenvalues --    0.08309   0.09336   0.10664   0.11647   0.11722
 Alpha virt. eigenvalues --    0.12379   0.13427   0.15719   0.16671   0.16751
 Alpha virt. eigenvalues --    0.17779   0.17996   0.18297   0.19110   0.19438
 Alpha virt. eigenvalues --    0.21150   0.21941   0.23550   0.25002   0.26321
 Alpha virt. eigenvalues --    0.27823   0.67897   0.69548   0.70996   0.72157
 Alpha virt. eigenvalues --    0.73150   0.74046   0.74518   0.75212   0.75854
 Alpha virt. eigenvalues --    0.76527   0.76949   0.77479   0.77825   0.78533
 Alpha virt. eigenvalues --    0.78787   0.79010   0.79614   0.80737   0.80900
 Alpha virt. eigenvalues --    0.82138   0.82283   0.83249   0.83609   0.84036
 Alpha virt. eigenvalues --    0.84386   0.84950   0.86280   0.86661   0.87303
 Alpha virt. eigenvalues --    0.87659   0.88722   0.89319   0.89626   0.89784
 Alpha virt. eigenvalues --    0.91047   0.91513   0.92187   0.92462   0.92961
 Alpha virt. eigenvalues --    0.93749   0.94024   0.94542   0.94856   0.95485
 Alpha virt. eigenvalues --    0.96160   0.96680   0.97244   0.98161   0.99216
 Alpha virt. eigenvalues --    1.00237   1.01733   1.02502   1.03383   1.04051
 Alpha virt. eigenvalues --    1.04621   1.06327   1.06640   1.07184   1.08197
 Alpha virt. eigenvalues --    1.08649   1.09223   1.10387   1.13487   1.14663
 Alpha virt. eigenvalues --    1.16411   1.16771   1.20111   1.20764   1.28018
 Alpha virt. eigenvalues --    1.28732   1.31180   1.34868   1.37718   1.39416
 Alpha virt. eigenvalues --    1.40522   1.42265   1.43410   1.45886   1.50454
 Alpha virt. eigenvalues --    1.50765   1.51417   1.51470   1.51530   1.51842
 Alpha virt. eigenvalues --    1.52014   1.52278   1.53050   1.53225   1.53489
 Alpha virt. eigenvalues --    1.53564   1.53777   1.53842   1.54187   1.54268
 Alpha virt. eigenvalues --    1.54401   1.55218   1.55553   1.55982   1.57300
 Alpha virt. eigenvalues --    1.57892   1.58271   1.59694   1.60452   1.61103
 Alpha virt. eigenvalues --    1.63999   1.64511   1.65395   1.65773   1.66181
 Alpha virt. eigenvalues --    1.66773   1.68651   1.70396   1.71577   1.72913
 Alpha virt. eigenvalues --    1.74193   1.74256   1.77308   2.19276   2.20678
 Alpha virt. eigenvalues --    2.21067   2.21251   2.21722   2.22306   2.23289
 Alpha virt. eigenvalues --    2.23770   2.24536   2.25233   2.25359   2.26063
 Alpha virt. eigenvalues --    2.26763   2.26945   2.27576   2.27951   2.28043
 Alpha virt. eigenvalues --    2.28801   2.29242   2.29294   2.29937   2.30594
 Alpha virt. eigenvalues --    2.31849   2.33168   2.33407   2.37659   2.42475
 Alpha virt. eigenvalues --    2.42983   2.43918   2.44426   2.44694   2.45511
 Alpha virt. eigenvalues --    2.45715   2.46040   2.47466   2.48861   2.50740
 Alpha virt. eigenvalues --    2.51936   2.54307   2.61299   2.61962   2.62441
 Alpha virt. eigenvalues --    2.62651   2.63027   2.63146   2.63386   2.63562
 Alpha virt. eigenvalues --    2.64116   2.64417   2.64534   2.64808   2.65835
 Alpha virt. eigenvalues --    2.66475   2.66583   2.66991   2.67037   2.67273
 Alpha virt. eigenvalues --    2.67676   2.68232   2.68488   2.68518   2.70517
 Alpha virt. eigenvalues --    2.70593   2.72580   2.73629   3.00660   3.01365
 Alpha virt. eigenvalues --    3.01570   3.01728   3.02390   3.02595   3.02646
 Alpha virt. eigenvalues --    3.03222   3.03886   3.04558   3.04908   3.05355
 Alpha virt. eigenvalues --    3.06379   3.29563   3.29762   3.30429   3.30992
 Alpha virt. eigenvalues --    3.31871   3.32549   3.35224   3.35879   3.36690
 Alpha virt. eigenvalues --    3.37921   3.38626   3.40704   3.42733   3.52048
 Alpha virt. eigenvalues --    3.52188   3.52398   3.53896   3.55076   3.56249
 Alpha virt. eigenvalues --    3.56859   3.57552   3.58283   3.58455   3.59582
 Alpha virt. eigenvalues --    3.61038   3.64953   3.70260   3.71054   3.71238
 Alpha virt. eigenvalues --    3.75146   3.76315   3.83831   3.87872   3.90096
 Alpha virt. eigenvalues --    3.95264   3.95814   4.07500   4.10287   4.13420
          Condensed to atoms (all electrons):
               1          2          3          4          5          6
     1  O    8.004930   0.276293   0.292157   0.000000   0.000000  -0.000000
     2  H    0.276293   0.379733  -0.019401   0.000000  -0.000000  -0.000000
     3  H    0.292157  -0.019401   0.381130   0.000000  -0.000000  -0.000000
     4  O    0.000000   0.000000   0.000000   8.142636   0.259690   0.291048
     5  H    0.000000  -0.000000  -0.000000   0.259690   0.414833  -0.027600
     6  H   -0.000000  -0.000000  -0.000000   0.291048  -0.027600   0.417720
     7  O   -0.000000   0.000000   0.000000  -0.010468   0.055188   0.000236
     8  H   -0.000000  -0.000000  -0.000000   0.001416  -0.002779   0.000046
     9  H    0.000000  -0.000000  -0.000000   0.000650  -0.002489  -0.000041
    10  O   -0.000000   0.000000   0.000000  -0.000000   0.000000   0.000000
    11  H    0.000000  -0.000000  -0.000000   0.000000  -0.000000  -0.000000
    12  H   -0.000000   0.000000  -0.000000  -0.000000   0.000000  -0.000000
    13  O   -0.015408   0.000588   0.000882  -0.000000  -0.000000   0.000000
    14  H    0.044812  -0.002042  -0.002798  -0.000000  -0.000000  -0.000000
    15  H    0.001028  -0.000041  -0.000022   0.000000   0.000002  -0.000000
    16  O   -0.000001   0.000000  -0.000000  -0.000000   0.000000   0.000000
    17  H    0.000002  -0.000001  -0.000000   0.000000  -0.000000  -0.000000
    18  H    0.000000  -0.000000   0.000000  -0.000000   0.000000  -0.000000
    19  O   -0.000000   0.000000   0.000000  -0.000000   0.000000   0.000000
    20  H    0.000000  -0.000000  -0.000000  -0.000000   0.000000  -0.000000
    21  H    0.000000   0.000000  -0.000000   0.000000  -0.000012  -0.000000
    22  O   -0.004852   0.000816   0.000155  -0.000040   0.000026   0.000001
    23  H    0.000004  -0.000007  -0.000000   0.000784  -0.000016  -0.000022
    24  H    0.033045  -0.002562  -0.000877  -0.000004   0.000001   0.000000
    25  O   -0.003239   0.024944   0.000008   0.000000   0.000000  -0.000000
    26  H    0.000101  -0.000838  -0.000003   0.000000   0.000000  -0.000000
    27  H    0.000269  -0.001430   0.000002  -0.000000  -0.000000   0.000000
    28  O   -0.000000  -0.000000   0.000000  -0.000000   0.000000   0.000000
    29  H    0.000000  -0.000000   0.000000   0.000000  -0.000000  -0.000000
    30  H    0.000000   0.000000  -0.000000   0.000000  -0.000000   0.000000
    31  O   -0.000000   0.000001   0.000000   0.000000  -0.000000   0.000000
    32  H    0.000000  -0.000000   0.000000   0.000000  -0.000000  -0.000000
    33  H    0.000000  -0.000000  -0.000000  -0.000000   0.000000   0.000000
    34  O   -0.000000   0.000000   0.000000  -0.000054   0.000521   0.000002
    35  H    0.000003   0.000007  -0.000000   0.000146   0.000094  -0.000007
    36  H    0.000001  -0.000007  -0.000000   0.000000  -0.000002  -0.000000
    37  O   -0.000008   0.000089  -0.000000  -0.000000   0.000000   0.000000
    38  H    0.000039   0.000227  -0.000001  -0.000000  -0.000000   0.000000
    39  H   -0.000010   0.000490  -0.000003   0.000000  -0.000000  -0.000000
               7          8          9         10         11         12
     1  O   -0.000000  -0.000000   0.000000  -0.000000   0.000000  -0.000000
     2  H    0.000000  -0.000000  -0.000000   0.000000  -0.000000   0.000000
     3  H    0.000000  -0.000000  -0.000000   0.000000  -0.000000  -0.000000
     4  O   -0.010468   0.001416   0.000650  -0.000000   0.000000  -0.000000
     5  H    0.055188  -0.002779  -0.002489   0.000000  -0.000000   0.000000
     6  H    0.000236   0.000046  -0.000041   0.000000  -0.000000  -0.000000
     7  O    8.081841   0.287913   0.267178  -0.000000   0.000000   0.000000
     8  H    0.287913   0.412377  -0.025761   0.000000  -0.000000  -0.000002
     9  H    0.267178  -0.025761   0.362777  -0.000000  -0.000001  -0.000010
    10  O   -0.000000   0.000000  -0.000000   8.212734   0.284305   0.273530
    11  H    0.000000  -0.000000  -0.000001   0.284305   0.381739  -0.033972
    12  H    0.000000  -0.000002  -0.000010   0.273530  -0.033972   0.409162
    13  O   -0.000000   0.000000   0.000000  -0.000000   0.000000   0.000000
    14  H   -0.000000   0.000000  -0.000000   0.000000  -0.000000  -0.000000
    15  H    0.000001  -0.000000   0.000002   0.000000  -0.000000  -0.000000
    16  O   -0.000000   0.000000   0.000002  -0.000000   0.000000   0.000000
    17  H    0.000013  -0.000000   0.000008   0.000000  -0.000000  -0.000000
    18  H   -0.000000   0.000000  -0.000000   0.000000  -0.000000  -0.000000
    19  O   -0.000397   0.000676   0.000361  -0.012987   0.000546   0.052229
    20  H   -0.000003  -0.000010  -0.000023   0.000688  -0.000030  -0.002400
    21  H    0.002943   0.000213   0.001177   0.000851  -0.000014  -0.002526
    22  O   -0.000001   0.000000   0.000008  -0.000000   0.000000   0.000000
    23  H    0.000001  -0.000001   0.000001   0.000000  -0.000000   0.000000
    24  H    0.000000  -0.000000  -0.000002   0.000000  -0.000000  -0.000000
    25  O   -0.000000   0.000000   0.000001  -0.000002   0.000056  -0.000001
    26  H   -0.000000  -0.000000   0.000000   0.000003   0.000021   0.000000
    27  H    0.000000  -0.000000  -0.000010   0.000003  -0.000057  -0.000003
    28  O   -0.000004  -0.000001   0.000022   0.000026   0.000039   0.000806
    29  H    0.000000   0.000000  -0.000001   0.000151  -0.000008  -0.000042
    30  H    0.000005  -0.000000   0.000038   0.000011  -0.000001  -0.000014
    31  O   -0.000000   0.000000   0.000013  -0.019376   0.050388   0.001652
    32  H    0.000000  -0.000000  -0.000001   0.000819  -0.002252  -0.000035
    33  H    0.000002  -0.000000  -0.000033   0.001204  -0.002784   0.000167
    34  O   -0.017263   0.000937   0.054224  -0.000049  -0.000006  -0.000004
    35  H    0.000680  -0.000023  -0.001943  -0.000001  -0.000006  -0.000003
    36  H    0.000520  -0.000029  -0.002392   0.000697   0.000590   0.000515
    37  O   -0.000000  -0.000000   0.000000  -0.000000   0.000000   0.000000
    38  H    0.000000  -0.000000  -0.000000  -0.000000  -0.000000   0.000000
    39  H    0.000000   0.000000  -0.000000   0.000002   0.000002  -0.000000
              13         14         15         16         17         18
     1  O   -0.015408   0.044812   0.001028  -0.000001   0.000002   0.000000
     2  H    0.000588  -0.002042  -0.000041   0.000000  -0.000001  -0.000000
     3  H    0.000882  -0.002798  -0.000022  -0.000000  -0.000000   0.000000
     4  O   -0.000000  -0.000000   0.000000  -0.000000   0.000000  -0.000000
     5  H   -0.000000  -0.000000   0.000002   0.000000  -0.000000   0.000000
     6  H    0.000000  -0.000000  -0.000000   0.000000  -0.000000  -0.000000
     7  O   -0.000000  -0.000000   0.000001  -0.000000   0.000013  -0.000000
     8  H    0.000000   0.000000  -0.000000   0.000000  -0.000000   0.000000
     9  H    0.000000  -0.000000   0.000002   0.000002   0.000008  -0.000000
    10  O   -0.000000   0.000000   0.000000  -0.000000   0.000000   0.000000
    11  H    0.000000  -0.000000  -0.000000   0.000000  -0.000000  -0.000000
    12  H    0.000000  -0.000000  -0.000000   0.000000  -0.000000  -0.000000
    13  O    8.135345   0.282749   0.291632  -0.000391   0.004287   0.000009
    14  H    0.282749   0.367214  -0.030131   0.000214  -0.000088  -0.000006
    15  H    0.291632  -0.030131   0.422952   0.000100   0.000031  -0.000006
    16  O   -0.000391   0.000214   0.000100   8.010668   0.286598   0.290911
    17  H    0.004287  -0.000088   0.000031   0.286598   0.397378  -0.023256
    18  H    0.000009  -0.000006  -0.000006   0.290911  -0.023256   0.394250
    19  O   -0.000000   0.000000   0.000000  -0.000000   0.000000   0.000000
    20  H    0.000000  -0.000000  -0.000000   0.000000  -0.000000   0.000000
    21  H    0.000000  -0.000000  -0.000000   0.000000  -0.000000  -0.000000
    22  O   -0.000021   0.000036   0.000092   0.000000   0.000000   0.000000
    23  H   -0.000000  -0.000001   0.000010   0.000000  -0.000000  -0.000000
    24  H    0.000213   0.000328   0.000388  -0.000000  -0.000000   0.000000
    25  O   -0.000000  -0.000002   0.000000  -0.000000   0.000000   0.000000
    26  H    0.000000  -0.000000  -0.000000   0.000000  -0.000000  -0.000000
    27  H    0.000000  -0.000001  -0.000001   0.000000  -0.000000   0.000000
    28  O   -0.000000   0.000000   0.000000  -0.009096   0.000441   0.000603
    29  H    0.000000  -0.000000  -0.000000   0.000305  -0.000009   0.000064
    30  H   -0.000000   0.000001  -0.000000   0.047990  -0.002201  -0.002409
    31  O   -0.000000   0.000000   0.000000  -0.000000   0.000000   0.000000
    32  H    0.000000   0.000000  -0.000000   0.000000  -0.000000   0.000000
    33  H    0.000000  -0.000000  -0.000000   0.000000  -0.000000   0.000000
    34  O   -0.000000  -0.000000   0.000002  -0.000000   0.000003  -0.000000
    35  H   -0.000000   0.000006   0.000024   0.000000   0.000000  -0.000000
    36  H   -0.000000   0.000000   0.000000   0.000002  -0.000000  -0.000000
    37  O   -0.000000  -0.000000   0.000000  -0.000000   0.000000   0.000000
    38  H    0.000000   0.000000  -0.000000   0.000000  -0.000000  -0.000000
    39  H    0.000000   0.000000   0.000000   0.000002  -0.000000  -0.000000
              19         20         21         22         23         24
     1  O   -0.000000   0.000000   0.000000  -0.004852   0.000004   0.033045
     2  H    0.000000  -0.000000   0.000000   0.000816  -0.000007  -0.002562
     3  H    0.000000  -0.000000  -0.000000   0.000155  -0.000000  -0.000877
     4  O   -0.000000  -0.000000   0.000000  -0.000040   0.000784  -0.000004
     5  H    0.000000   0.000000  -0.000012   0.000026  -0.000016   0.000001
     6  H    0.000000  -0.000000  -0.000000   0.000001  -0.000022   0.000000
     7  O   -0.000397  -0.000003   0.002943  -0.000001   0.000001   0.000000
     8  H    0.000676  -0.000010   0.000213   0.000000  -0.000001  -0.000000
     9  H    0.000361  -0.000023   0.001177   0.000008   0.000001  -0.000002
    10  O   -0.012987   0.000688   0.000851  -0.000000   0.000000   0.000000
    11  H    0.000546  -0.000030  -0.000014   0.000000  -0.000000  -0.000000
    12  H    0.052229  -0.002400  -0.002526   0.000000   0.000000  -0.000000
    13  O   -0.000000   0.000000   0.000000  -0.000021  -0.000000   0.000213
    14  H    0.000000  -0.000000  -0.000000   0.000036  -0.000001   0.000328
    15  H    0.000000  -0.000000  -0.000000   0.000092   0.000010   0.000388
    16  O   -0.000000   0.000000   0.000000   0.000000   0.000000  -0.000000
    17  H    0.000000  -0.000000  -0.000000   0.000000  -0.000000  -0.000000
    18  H    0.000000   0.000000  -0.000000   0.000000  -0.000000   0.000000
    19  O    8.019689   0.289968   0.275139  -0.000000   0.000000   0.000000
    20  H    0.289968   0.393400  -0.022757   0.000000  -0.000000  -0.000000
    21  H    0.275139  -0.022757   0.406714   0.000000  -0.000000  -0.000000
    22  O   -0.000000   0.000000   0.000000   8.031490   0.289884   0.268923
    23  H    0.000000  -0.000000  -0.000000   0.289884   0.387906  -0.020165
    24  H    0.000000  -0.000000  -0.000000   0.268923  -0.020165   0.391562
    25  O    0.000000   0.000000  -0.000000  -0.002080   0.000109   0.001051
    26  H    0.000000  -0.000000   0.000000   0.000024  -0.000005  -0.000004
    27  H   -0.000000   0.000000  -0.000001   0.012971  -0.000440  -0.001616
    28  O   -0.000748  -0.000022   0.008533   0.000000   0.000000   0.000000
    29  H    0.000086   0.000013  -0.000312   0.000000  -0.000000  -0.000000
    30  H    0.000020   0.000001  -0.000151   0.000000  -0.000000  -0.000000
    31  O   -0.000047   0.000002  -0.000000  -0.000051   0.000000  -0.000000
    32  H    0.000000  -0.000000   0.000000   0.000000   0.000000  -0.000000
    33  H    0.000198  -0.000004  -0.000015   0.000042  -0.000001  -0.000002
    34  O   -0.000009   0.000009   0.001454  -0.012594   0.000555   0.000510
    35  H    0.000010  -0.000001  -0.000046   0.053698  -0.002405  -0.002275
    36  H    0.000355  -0.000026   0.000223   0.000137  -0.000009   0.000012
    37  O   -0.000000   0.000000   0.000000  -0.000000   0.000000   0.000000
    38  H   -0.000000   0.000000   0.000000   0.000000   0.000000  -0.000000
    39  H    0.000000   0.000000  -0.000000   0.000000  -0.000000  -0.000002
              25         26         27         28         29         30
     1  O   -0.003239   0.000101   0.000269  -0.000000   0.000000   0.000000
     2  H    0.024944  -0.000838  -0.001430  -0.000000  -0.000000   0.000000
     3  H    0.000008  -0.000003   0.000002   0.000000   0.000000  -0.000000
     4  O    0.000000   0.000000  -0.000000  -0.000000   0.000000   0.000000
     5  H    0.000000   0.000000  -0.000000   0.000000  -0.000000  -0.000000
     6  H   -0.000000  -0.000000   0.000000   0.000000  -0.000000   0.000000
     7  O   -0.000000  -0.000000   0.000000  -0.000004   0.000000   0.000005
     8  H    0.000000  -0.000000  -0.000000  -0.000001   0.000000  -0.000000
     9  H    0.000001   0.000000  -0.000010   0.000022  -0.000001   0.000038
    10  O   -0.000002   0.000003   0.000003   0.000026   0.000151   0.000011
    11  H    0.000056   0.000021  -0.000057   0.000039  -0.000008  -0.000001
    12  H   -0.000001   0.000000  -0.000003   0.000806  -0.000042  -0.000014
    13  O   -0.000000   0.000000   0.000000  -0.000000   0.000000  -0.000000
    14  H   -0.000002  -0.000000  -0.000001   0.000000  -0.000000   0.000001
    15  H    0.000000  -0.000000  -0.000001   0.000000  -0.000000  -0.000000
    16  O   -0.000000   0.000000   0.000000  -0.009096   0.000305   0.047990
    17  H    0.000000  -0.000000  -0.000000   0.000441  -0.000009  -0.002201
    18  H    0.000000  -0.000000   0.000000   0.000603   0.000064  -0.002409
    19  O    0.000000   0.000000  -0.000000  -0.000748   0.000086   0.000020
    20  H    0.000000  -0.000000   0.000000  -0.000022   0.000013   0.000001
    21  H   -0.000000   0.000000  -0.000001   0.008533  -0.000312  -0.000151
    22  O   -0.002080   0.000024   0.012971   0.000000   0.000000   0.000000
    23  H    0.000109  -0.000005  -0.000440   0.000000  -0.000000  -0.000000
    24  H    0.001051  -0.000004  -0.001616   0.000000  -0.000000  -0.000000
    25  O    8.047398   0.289149   0.271594  -0.000004   0.000000   0.000003
    26  H    0.289149   0.395138  -0.021365   0.000000  -0.000000  -0.000000
    27  H    0.271594  -0.021365   0.393823  -0.000008   0.000000  -0.000000
    28  O   -0.000004   0.000000  -0.000008   8.112568   0.289435   0.269817
    29  H    0.000000  -0.000000   0.000000   0.289435   0.414730  -0.026497
    30  H    0.000003  -0.000000  -0.000000   0.269817  -0.026497   0.393996
    31  O   -0.003165   0.002848   0.012682  -0.000005   0.000000   0.000000
    32  H    0.000396   0.000094   0.000126  -0.000000   0.000000   0.000000
    33  H    0.000152  -0.000111  -0.000099  -0.000001  -0.000000  -0.000000
    34  O   -0.000848   0.000001   0.003084  -0.000412   0.000015   0.000147
    35  H    0.000205  -0.000019   0.001792  -0.000022   0.000000   0.000007
    36  H    0.003788  -0.000110   0.000733   0.005417  -0.000160  -0.000232
    37  O   -0.001700   0.000469   0.000051  -0.000052   0.000019   0.000044
    38  H    0.000036   0.000006   0.000001  -0.000002  -0.000000  -0.000000
    39  H    0.017590  -0.001377  -0.000542   0.000698  -0.000024   0.000001
              31         32         33         34         35         36
     1  O   -0.000000   0.000000   0.000000  -0.000000   0.000003   0.000001
     2  H    0.000001  -0.000000  -0.000000   0.000000   0.000007  -0.000007
     3  H    0.000000   0.000000  -0.000000   0.000000  -0.000000  -0.000000
     4  O    0.000000   0.000000  -0.000000  -0.000054   0.000146   0.000000
     5  H   -0.000000  -0.000000   0.000000   0.000521   0.000094  -0.000002
     6  H    0.000000  -0.000000   0.000000   0.000002  -0.000007  -0.000000
     7  O   -0.000000   0.000000   0.000002  -0.017263   0.000680   0.000520
     8  H    0.000000  -0.000000  -0.000000   0.000937  -0.000023  -0.000029
     9  H    0.000013  -0.000001  -0.000033   0.054224  -0.001943  -0.002392
    10  O   -0.019376   0.000819   0.001204  -0.000049  -0.000001   0.000697
    11  H    0.050388  -0.002252  -0.002784  -0.000006  -0.000006   0.000590
    12  H    0.001652  -0.000035   0.000167  -0.000004  -0.000003   0.000515
    13  O   -0.000000   0.000000   0.000000  -0.000000  -0.000000  -0.000000
    14  H    0.000000   0.000000  -0.000000  -0.000000   0.000006   0.000000
    15  H    0.000000  -0.000000  -0.000000   0.000002   0.000024   0.000000
    16  O   -0.000000   0.000000   0.000000  -0.000000   0.000000   0.000002
    17  H    0.000000  -0.000000  -0.000000   0.000003   0.000000  -0.000000
    18  H    0.000000   0.000000   0.000000  -0.000000  -0.000000  -0.000000
    19  O   -0.000047   0.000000   0.000198  -0.000009   0.000010   0.000355
    20  H    0.000002  -0.000000  -0.000004   0.000009  -0.000001  -0.000026
    21  H   -0.000000   0.000000  -0.000015   0.001454  -0.000046   0.000223
    22  O   -0.000051   0.000000   0.000042  -0.012594   0.053698   0.000137
    23  H    0.000000   0.000000  -0.000001   0.000555  -0.002405  -0.000009
    24  H   -0.000000  -0.000000  -0.000002   0.000510  -0.002275   0.000012
    25  O   -0.003165   0.000396   0.000152  -0.000848   0.000205   0.003788
    26  H    0.002848   0.000094  -0.000111   0.000001  -0.000019  -0.000110
    27  H    0.012682   0.000126  -0.000099   0.003084   0.001792   0.000733
    28  O   -0.000005  -0.000000  -0.000001  -0.000412  -0.000022   0.005417
    29  H    0.000000   0.000000  -0.000000   0.000015   0.000000  -0.000160
    30  H    0.000000   0.000000  -0.000000   0.000147   0.000007  -0.000232
    31  O    8.006449   0.286618   0.277334  -0.005380   0.000558   0.008332
    32  H    0.286618   0.385995  -0.017025   0.000342  -0.000021  -0.000270
    33  H    0.277334  -0.017025   0.389293   0.015955  -0.000352  -0.004086
    34  O   -0.005380   0.000342   0.015955   8.075861   0.266077   0.278785
    35  H    0.000558  -0.000021  -0.000352   0.266077   0.370003  -0.022450
    36  H    0.008332  -0.000270  -0.004086   0.278785  -0.022450   0.397576
    37  O   -0.000000   0.000000   0.000000   0.000000  -0.000000  -0.000002
    38  H    0.000000  -0.000000  -0.000000   0.000000  -0.000000  -0.000000
    39  H   -0.000000  -0.000001  -0.000000  -0.000003   0.000002   0.000073
              37         38         39
     1  O   -0.000008   0.000039  -0.000010
     2  H    0.000089   0.000227   0.000490
     3  H   -0.000000  -0.000001  -0.000003
     4  O   -0.000000  -0.000000   0.000000
     5  H    0.000000  -0.000000  -0.000000
     6  H    0.000000   0.000000  -0.000000
     7  O   -0.000000   0.000000   0.000000
     8  H   -0.000000  -0.000000   0.000000
     9  H    0.000000  -0.000000  -0.000000
    10  O   -0.000000  -0.000000   0.000002
    11  H    0.000000  -0.000000   0.000002
    12  H    0.000000   0.000000  -0.000000
    13  O   -0.000000   0.000000   0.000000
    14  H   -0.000000   0.000000   0.000000
    15  H    0.000000  -0.000000   0.000000
    16  O   -0.000000   0.000000   0.000002
    17  H    0.000000  -0.000000  -0.000000
    18  H    0.000000  -0.000000  -0.000000
    19  O   -0.000000  -0.000000   0.000000
    20  H    0.000000   0.000000   0.000000
    21  H    0.000000   0.000000  -0.000000
    22  O   -0.000000   0.000000   0.000000
    23  H    0.000000   0.000000  -0.000000
    24  H    0.000000  -0.000000  -0.000002
    25  O   -0.001700   0.000036   0.017590
    26  H    0.000469   0.000006  -0.001377
    27  H    0.000051   0.000001  -0.000542
    28  O   -0.000052  -0.000002   0.000698
    29  H    0.000019  -0.000000  -0.000024
    30  H    0.000044  -0.000000   0.000001
    31  O   -0.000000   0.000000  -0.000000
    32  H    0.000000  -0.000000  -0.000001
    33  H    0.000000  -0.000000  -0.000000
    34  O    0.000000   0.000000  -0.000003
    35  H   -0.000000  -0.000000   0.000002
    36  H   -0.000002  -0.000000   0.000073
    37  O    8.095134   0.291552   0.280565
    38  H    0.291552   0.411171  -0.028841
    39  H    0.280565  -0.028841   0.411780
 Mulliken charges:
               1
     1  O   -0.629164
     2  H    0.343142
     3  H    0.348772
     4  O   -0.685805
     5  H    0.302544
     6  H    0.318615
     7  O   -0.668385
     8  H    0.325027
     9  H    0.346245
    10  O   -0.742608
    11  H    0.321444
    12  H    0.300950
    13  O   -0.699885
    14  H    0.339708
    15  H    0.313937
    16  O   -0.627302
    17  H    0.336796
    18  H    0.339841
    19  O   -0.625091
    20  H    0.341195
    21  H    0.328587
    22  O   -0.638665
    23  H    0.343820
    24  H    0.331479
    25  O   -0.645440
    26  H    0.335977
    27  H    0.328443
    28  O   -0.678031
    29  H    0.322234
    30  H    0.319427
    31  O   -0.618854
    32  H    0.345213
    33  H    0.340167
    34  O   -0.661862
    35  H    0.336259
    36  H    0.332021
    37  O   -0.666161
    38  H    0.325812
    39  H    0.319599
 Sum of Mulliken charges =  -0.00000
 Mulliken charges with hydrogens summed into heavy atoms:
               1
     1  O    0.062750
     4  O   -0.064646
     7  O    0.002887
    10  O   -0.120214
    13  O   -0.046240
    16  O    0.049336
    19  O    0.044690
    22  O    0.036633
    25  O    0.018980
    28  O   -0.036370
    31  O    0.066526
    34  O    0.006418
    37  O   -0.020749
 Electronic spatial extent (au):  <R**2>=         295297.6104
 Charge=             -0.0000 electrons
 Dipole moment (field-independent basis, Debye):
    X=             -0.1559    Y=             -4.9985    Z=             -1.0247  Tot=              5.1048
 Quadrupole moment (field-independent basis, Debye-Ang):
   XX=            -85.2027   YY=           -246.0984   ZZ=           -105.6444
   XY=            -66.0019   XZ=             -0.7938   YZ=           -127.6507
 Traceless Quadrupole moment (field-independent basis, Debye-Ang):
   XX=             60.4458   YY=           -100.4499   ZZ=             40.0041
   XY=            -66.0019   XZ=             -0.7938   YZ=           -127.6507
 Octapole moment (field-independent basis, Debye-Ang**2):
  XXX=          -2653.3310  YYY=          -8278.3326  ZZZ=          -3939.2977  XYY=          -2987.6364
  XXY=          -2288.6657  XXZ=          -1047.1194  XZZ=           -835.0191  YZZ=          -4030.6973
  YYZ=          -5254.4267  XYZ=          -1344.9411
 Hexadecapole moment (field-independent basis, Debye-Ang**3):
 XXXX=         -58403.9548 YYYY=        -236182.0868 ZZZZ=        -109558.7031 XXXY=         -56555.3296
 XXXZ=         -33854.9258 YYYX=         -96629.1193 YYYZ=        -163877.6747 ZZZX=         -36108.0947
 ZZZY=        -110427.0192 XXYY=         -62125.9853 XXZZ=         -22745.7756 YYZZ=        -126420.4602
 XXYZ=         -34841.1560 YYXZ=         -58071.9174 ZZXY=         -40171.0808
 N-N= 9.852440248714D+02 E-N=-4.318294193191D+03  KE= 9.852288816378D+02
 D1PCM: C-PCM CHGder 1st derivatives, ID1Alg=3 FixD1E=F DoIter=F DoCFld=F I1PDM=0.
 Calling FoFJK, ICntrl=      2127 FMM=F ISym2X=0 I1Cent= 0 IOpClX= 0 NMat=1 NMatS=1 NMatT=0.
 -------------------------------------------------------------------
 Center     Atomic                   Forces (Hartrees/Bohr)
 Number     Number              X              Y              Z
 -------------------------------------------------------------------
      1        8          -0.004421427   -0.000889964    0.003962078
      2        1          -0.000066646   -0.000379736   -0.001352172
      3        1          -0.002733450    0.001637572    0.000069300
      4        8           0.000998339    0.002625049    0.001235037
      5        1          -0.000182865    0.001600384    0.000067530
      6        1          -0.000139939   -0.000427105   -0.001052459
      7        8           0.001236821   -0.004114657    0.003444187
      8        1           0.000013345    0.000839617    0.000591720
      9        1          -0.000365311   -0.000581627   -0.000790461
     10        8          -0.002697215    0.001977903   -0.005191718
     11        1          -0.000030031   -0.000431116   -0.000540539
     12        1           0.001076667    0.000294183    0.004054425
     13        8           0.001532365    0.001446310    0.001224645
     14        1           0.000061861    0.000020787   -0.001026755
     15        1          -0.002139357   -0.000666658   -0.000334669
     16        8          -0.002817319   -0.000196241    0.003603928
     17        1           0.001328209    0.000330837    0.001103281
     18        1          -0.000580551    0.000343131   -0.001072448
     19        8           0.000867384    0.001050696    0.000452139
     20        1           0.000040829   -0.000940473    0.000039518
     21        1           0.002294297    0.000248182   -0.000000164
     22        8           0.000509985    0.006067420    0.000966640
     23        1           0.000324861   -0.000264183   -0.000902358
     24        1           0.000139625    0.000211702    0.000132116
     25        8           0.003554809   -0.000223162   -0.003835381
     26        1           0.000407752   -0.000172225    0.000473214
     27        1           0.000694979    0.000929757    0.000494614
     28        8           0.000023734   -0.002186674   -0.002463425
     29        1          -0.000340038   -0.001038839   -0.000082426
     30        1           0.000453146   -0.000175549   -0.000628891
     31        8           0.000347582   -0.002971351   -0.000876491
     32        1          -0.001176596   -0.000997327    0.001408540
     33        1           0.002772189    0.000939304   -0.000145641
     34        8          -0.001041228   -0.001510472   -0.001339014
     35        1           0.000776956   -0.001540283   -0.000215652
     36        1           0.001546088    0.001375535   -0.000704081
     37        8          -0.004577890   -0.005366944   -0.001575777
     38        1          -0.000168536    0.000782736    0.000220114
     39        1           0.002476578    0.002353481    0.000587497
 -------------------------------------------------------------------
 Cartesian Forces:  Max     0.006067420 RMS     0.001797652

 GradGradGradGradGradGradGradGradGradGradGradGradGradGradGradGradGradGrad
 Berny optimization.
 Search for a local minimum.
 Step number   1 out of a maximum of    2
 All quantities printed in internal units (Hartrees-Bohrs-Radians)
 Second derivative matrix not updated -- first step.
 ITU=  0
     Eigenvalues ---   -0.00000  -0.00000  -0.00000  -0.00000  -0.00000
     Eigenvalues ---   -0.00000  -0.00000  -0.00000  -0.00000  -0.00000
     Eigenvalues ---   -0.00000  -0.00000  -0.00000  -0.00000  -0.00000
     Eigenvalues ---   -0.00000  -0.00000  -0.00000  -0.00000  -0.00000
     Eigenvalues ---   -0.00000  -0.00000  -0.00000  -0.00000  -0.00000
     Eigenvalues ---   -0.00000  -0.00000  -0.00000  -0.00000  -0.00000
     Eigenvalues ---   -0.00000  -0.00000  -0.00000  -0.00000  -0.00000
     Eigenvalues ---   -0.00000  -0.00000  -0.00000  -0.00000   0.00000
     Eigenvalues ---    0.00000   0.00000   0.00000   0.00000   0.00000
     Eigenvalues ---    0.00000   0.00000   0.00000   0.00000   0.00000
     Eigenvalues ---    0.00000   0.00000   0.00000   0.00000   0.00000
     Eigenvalues ---    0.00000   0.00000   0.00000   0.00000   0.00000
     Eigenvalues ---    0.00000   0.00000   0.00000   0.00000   0.00000
     Eigenvalues ---    0.00000   0.00000   0.00000   0.00000   0.00000
     Eigenvalues ---    0.00000   0.00000   0.14530   0.14627   0.14815
     Eigenvalues ---    0.14857   0.14965   0.15027   0.15132   0.15200
     Eigenvalues ---    0.15232   0.15323   0.15387   0.15438   0.15477
     Eigenvalues ---    0.88105   0.89952   0.90500   0.93656   0.95038
     Eigenvalues ---    0.96834   0.98309   0.98953   0.99593   0.99612
     Eigenvalues ---    0.99959   1.00427   1.00779   1.10452   1.11906
     Eigenvalues ---    1.12777   1.15010   1.18059   1.18332   1.19067
     Eigenvalues ---    1.19414   1.19659   1.19864   1.20409   1.20945
     Eigenvalues ---    1.21284
 Eigenvalue     1 is  -2.66D-15 should be greater than     0.000000 Eigenvector:
                          Z24       X18       Z39       X20       Z23
   1                    0.32200  -0.30133  -0.21677  -0.21290  -0.19263
                          Z19       Z36       Z25       Z3        Y25
   1                    0.17788  -0.17742  -0.17190   0.16842   0.15964
 Eigenvalue     2 is  -2.33D-15 should be greater than     0.000000 Eigenvector:
                          Z21       X21       X20       Y21       Z29
   1                    0.34540   0.28659   0.22119  -0.21501  -0.20345
                          Y25       Z20       Z39       Z4        X10
   1                   -0.19753  -0.18117  -0.17634   0.16067  -0.15359
 Eigenvalue     3 is  -2.22D-15 should be greater than     0.000000 Eigenvector:
                          Y30       Z33       X29       Z24       X33
   1                    0.26092   0.25866  -0.23465   0.23294  -0.22395
                          X36       Z8        Y38       Z32       Z29
   1                   -0.21590  -0.20376   0.18992   0.17822  -0.17457
 Eigenvalue     4 is  -2.11D-15 should be greater than     0.000000 Eigenvector:
                          X29       Y27       Y31       X31       Y33
   1                    0.40427  -0.28309  -0.23127   0.21576   0.21258
                          Y34       Y24       X25       Z36       X1
   1                    0.19766   0.18377  -0.17460   0.16604   0.15790
 Eigenvalue     5 is  -2.00D-15 should be greater than     0.000000 Eigenvector:
                          X17       Y26       X21       Z38       Z31
   1                    0.27153  -0.24230   0.22112   0.21871   0.21758
                          Z17       Y4        Y22       Y5        Z33
   1                   -0.19028  -0.18556  -0.18049  -0.17256   0.16916
 Eigenvalue     6 is  -1.67D-15 should be greater than     0.000000 Eigenvector:
                          Y23       Y25       X20       Z35       X4
   1                    0.36612  -0.35229  -0.26237  -0.22103   0.17899
                          X23       Z37       Y33       Z38       Z22
   1                   -0.17729  -0.17688   0.16975  -0.16677   0.16002
 Eigenvalue     7 is  -1.44D-15 should be greater than     0.000000 Eigenvector:
                          Y33       X35       X21       Z34       X30
   1                    0.24375   0.22821  -0.21750   0.19066   0.18888
                          X28       Z36       Y25       Z30       Y20
   1                    0.18632  -0.18519  -0.17226  -0.16069   0.15144
 Eigenvalue     8 is  -1.33D-15 should be greater than     0.000000 Eigenvector:
                          X17       X18       Z36       Z34       Y27
   1                    0.33151   0.26471   0.23295   0.21621  -0.20013
                          Z17       Z12       Y13       X12       X27
   1                   -0.19828  -0.18245   0.17810   0.17454   0.17169
 Eigenvalue     9 is  -1.33D-15 should be greater than     0.000000 Eigenvector:
                          Z39       Z35       Y15       Y34       Y35
   1                    0.30615  -0.28002  -0.26273   0.21189   0.20506
                          Y25       Z38       Y39       X16       X21
   1                    0.20471  -0.20457  -0.20442  -0.19202   0.17909
 Eigenvalue    10 is  -1.11D-15 should be greater than     0.000000 Eigenvector:
                          X11       Y13       Y8        X9        Z8
   1                    0.35599  -0.27004  -0.22722  -0.22014  -0.21668
                          X5        Y24       Z18       Z11       Z39
   1                   -0.20332  -0.19305  -0.18856  -0.18534   0.17214
 Eigenvalue    11 is  -1.11D-15 should be greater than     0.000000 Eigenvector:
                          X18       X17       Y25       Z19       X35
   1                    0.48457  -0.30800   0.19259   0.16369   0.16318
                          Y13       X29       Z21       X12       Y6
   1                   -0.16116  -0.15767   0.15211  -0.14844  -0.14646
 Eigenvalue    12 is  -1.11D-15 should be greater than     0.000000 Eigenvector:
                          Y21       X21       Z34       X19       Z9
   1                    0.32136   0.24161   0.22597   0.22463  -0.18541
                          Z31       X28       Z18       X2        Y13
   1                   -0.17443  -0.17303   0.16859   0.16420  -0.15097
 Eigenvalue    13 is  -9.99D-16 should be greater than     0.000000 Eigenvector:
                          X4        Z19       Y3        X2        Z23
   1                    0.27288   0.23242   0.22469  -0.22315  -0.21934
                          Y7        Y8        X6        Z27       X30
   1                   -0.21230  -0.19371   0.19324  -0.19060   0.15658
 Eigenvalue    14 is  -9.99D-16 should be greater than     0.000000 Eigenvector:
                          X18       Z37       Z30       Y15       Z10
   1                    0.35726  -0.28588   0.24500  -0.24287   0.21630
                          Z12       X30       Y30       Z19       Z36
   1                    0.20353   0.18089  -0.17348  -0.16077  -0.15420
 Eigenvalue    15 is  -8.88D-16 should be greater than     0.000000 Eigenvector:
                          X30       Z30       Z39       Y4        Y5
   1                    0.35673   0.23604   0.22044  -0.20491  -0.20007
                          Y27       X16       X37       Y24       X14
   1                   -0.18457   0.16384   0.16300   0.15418  -0.15267
 Eigenvalue    16 is  -8.88D-16 should be greater than     0.000000 Eigenvector:
                          Z35       Y38       Z15       Y21       X36
   1                    0.34172  -0.26638  -0.25123   0.24683  -0.23849
                          Z21       X15       Z6        Y19       X20
   1                    0.21456   0.17213  -0.16983   0.16936  -0.15776
 Eigenvalue    17 is  -7.77D-16 should be greater than     0.000000 Eigenvector:
                          Y7        X17       Z11       Y38       Y11
   1                    0.39747  -0.23171  -0.19207   0.17852  -0.17539
                          Y15       Z39       Y30       Y3        X36
   1                   -0.17485  -0.16806  -0.16795   0.16424  -0.16389
 Eigenvalue    18 is  -7.77D-16 should be greater than     0.000000 Eigenvector:
                          Y9        Z39       Z24       Y1        Y33
   1                    0.30374   0.29913   0.24398   0.22289  -0.21983
                          Z35       Y31       Y36       Y29       Z36
   1                    0.20393  -0.15532   0.15095   0.14034  -0.13959
 Eigenvalue    19 is  -6.66D-16 should be greater than     0.000000 Eigenvector:
                          Y9        Z38       X29       Z37       X9
   1                    0.27990   0.23519   0.19897   0.19613   0.17782
                          X31       Z15       Y13       Z11       Z35
   1                    0.16623  -0.16555  -0.16402   0.16164  -0.16052
 Eigenvalue    20 is  -6.66D-16 should be greater than     0.000000 Eigenvector:
                          Y2        X28       Z34       Y32       X3
   1                    0.26685   0.25118   0.21180   0.19161  -0.18127
                          X18       Y13       X4        X30       Z12
   1                   -0.17925  -0.17852   0.17264   0.17146  -0.16551
 Eigenvalue    21 is  -6.66D-16 should be greater than     0.000000 Eigenvector:
                          Z29       Y38       X24       Y32       Z27
   1                    0.28689   0.25379  -0.19522   0.19324   0.17032
                          Y22       Z36       Y30       X22       Y36
   1                   -0.16994  -0.16558   0.16175  -0.15438   0.15319
 Eigenvalue    22 is  -5.55D-16 should be greater than     0.000000 Eigenvector:
                          Y7        Z2        X16       X1        X17
   1                    0.30766   0.22245   0.21408  -0.19929   0.19865
                          X3        Z21       Z27       X22       Z11
   1                   -0.19792   0.17956  -0.15958   0.15084   0.14835
 Eigenvalue    23 is  -5.55D-16 should be greater than     0.000000 Eigenvector:
                          Y17       X5        Y18       X20       Z29
   1                    0.29400  -0.23572   0.22809  -0.21851  -0.19546
                          Z18       Z30       Z34       X18       Y38
   1                    0.18263  -0.18067  -0.17415   0.17364   0.17282
 Eigenvalue    24 is  -5.55D-16 should be greater than     0.000000 Eigenvector:
                          Z39       X37       Z38       Y39       X38
   1                    0.36547  -0.32990   0.25767  -0.24444  -0.23201
                          X39       Z37       Y13       X22       X25
   1                   -0.22179  -0.21694   0.21166  -0.20272   0.19496
 Eigenvalue    25 is  -4.44D-16 should be greater than     0.000000 Eigenvector:
                          Y14       Z18       Y12       X12       Z3
   1                    0.30596   0.24264  -0.23372  -0.22113  -0.20678
                          X4        X19       Z1        Y11       X17
   1                   -0.18829   0.17913  -0.17724   0.17677   0.16730
 Eigenvalue    26 is  -4.44D-16 should be greater than     0.000000 Eigenvector:
                          Y1        Z23       Z27       Z17       X1
   1                    0.26653  -0.25675   0.21755  -0.19749   0.19134
                          X22       Z36       Z5        Z21       Y12
   1                   -0.19033   0.18367   0.18339  -0.17340   0.17248
 Eigenvalue    27 is  -3.33D-16 should be greater than     0.000000 Eigenvector:
                          Y2        X2        Z5        Y15       X5
   1                    0.49387   0.36922  -0.24670  -0.20765   0.18497
                          X33       Y9        X16       Y25       X3
   1                    0.17915  -0.16080  -0.14904  -0.14596  -0.13828
 Eigenvalue    28 is  -3.33D-16 should be greater than     0.000000 Eigenvector:
                          X6        Y7        X33       Z29       Z5
   1                    0.38326   0.22044   0.19367  -0.19282   0.18452
                          X1        X4        X15       Z18       Y32
   1                   -0.17945  -0.17472   0.16258  -0.15975  -0.14952
 Eigenvalue    29 is  -3.33D-16 should be greater than     0.000000 Eigenvector:
                          Z36       Y32       X36       Y19       Z2
   1                    0.28603  -0.22166  -0.19786  -0.19198  -0.18259
                          X10       Y27       Y1        Y34       Y21
   1                    0.17919   0.17888  -0.16815   0.16574  -0.16243
 Eigenvalue    30 is  -2.22D-16 should be greater than     0.000000 Eigenvector:
                          X12       X1        Y9        Y12       Z19
   1                    0.23562  -0.22446   0.21313   0.19456  -0.17875
                          Y14       Z8        Y3        X22       X23
   1                    0.17718   0.16908   0.16682   0.16676   0.16644
 Eigenvalue    31 is  -2.22D-16 should be greater than     0.000000 Eigenvector:
                          X5        X4        X2        X35       Y26
   1                    0.29249   0.23291   0.21126  -0.18683   0.18347
                          Y30       Z17       X33       Y19       Z22
   1                   -0.17476  -0.17043  -0.16597   0.16034  -0.15871
 Eigenvalue    32 is  -2.22D-16 should be greater than     0.000000 Eigenvector:
                          X12       Z8        Y8        Z3        Y34
   1                    0.32401  -0.25252   0.20745  -0.20591  -0.19543
                          Z11       Y33       Z39       Y35       Y5
   1                    0.19195   0.17581   0.17523  -0.17189   0.16073
 Eigenvalue    33 is  -2.22D-16 should be greater than     0.000000 Eigenvector:
                          Y13       Y15       Z11       X23       X16
   1                    0.32627   0.25744  -0.25302  -0.20070   0.19203
                          X32       Z33       Y14       Z19       Y11
   1                    0.18385   0.18283   0.18145  -0.15988  -0.15353
 Eigenvalue    34 is  -1.11D-16 should be greater than     0.000000 Eigenvector:
                          X6        X14       Y14       Z8        X13
   1                    0.32190  -0.25468  -0.25316  -0.22641  -0.21435
                          X15       Z22       X5        Y22       Y9
   1                   -0.20102   0.19750   0.19439  -0.19283   0.17843
 Eigenvalue    35 is  -1.11D-16 should be greater than     0.000000 Eigenvector:
                          X5        X2        X6        Y9        X1
   1                    0.44348  -0.32169  -0.24579   0.20234  -0.19475
                          X11       X3        X12       Z30       X36
   1                    0.17573  -0.17270  -0.15877  -0.15505   0.14770
 Eigenvalue    36 is  -1.11D-16 should be greater than     0.000000 Eigenvector:
                          X12       X11       X36       Z15       X14
   1                    0.28430   0.27755  -0.23992  -0.23122  -0.21755
                          X4        Z29       Z18       X2        X5
   1                    0.21303  -0.20554   0.18645  -0.17672   0.16926
 Eigenvalue    37 is  -1.11D-16 should be greater than     0.000000 Eigenvector:
                          Y9        X16       Y8        Z16       Z8
   1                    0.34730  -0.27413   0.24911   0.23283   0.21040
                          X30       Z20       Z3        Y14       X11
   1                    0.19150  -0.18542  -0.15382  -0.14102   0.13902
 Eigenvalue    38 is  -1.11D-16 should be greater than     0.000000 Eigenvector:
                          Y11       Y6        X17       Y14       X36
   1                    0.23938   0.22734  -0.21923   0.21872   0.21580
                          Y10       X32       Y39       Z15       Y13
   1                    0.20400  -0.19475   0.19232   0.19071   0.18698
 Eigenvalue    39 is  -1.11D-16 should be greater than     0.000000 Eigenvector:
                          Z38       X29       Y23       Y24       Z24
   1                    0.35383  -0.35028   0.23581   0.23304  -0.20045
                          Y28       X17       Y17       Y38       X35
   1                   -0.17965   0.17508  -0.16467  -0.16178  -0.15236
 Eigenvalue    40 is   0.00D+00 Eigenvector:
                          X5        Y3        X6        Y39       Y2
   1                    0.35530  -0.28139   0.25427  -0.24401  -0.20413
                          Y13       Y14       Y7        Z37       Z34
   1                   -0.19051   0.18605   0.16993  -0.16015   0.14614
 Eigenvalue    41 is   2.22D-16 Eigenvector:
                          X6        X11       Y32       X4        Z6
   1                    0.38080   0.36910  -0.20472  -0.20160  -0.19709
                          Y13       Z15       X12       Z28       Y1
   1                   -0.19527   0.19453   0.18965  -0.18750   0.18594
 Eigenvalue    42 is   2.22D-16 Eigenvector:
                          Y8        Y12       Y9        Y33       X2
   1                    0.31177   0.29500  -0.24330  -0.22111  -0.20431
                          Y24       Z17       X20       Z12       X29
   1                    0.19649  -0.16924  -0.16742   0.16418   0.16192
 Eigenvalue    43 is   2.22D-16 Eigenvector:
                          Y14       Z11       Z36       Z8        Y12
   1                    0.38764   0.28196   0.20129  -0.19984  -0.18119
                          Y39       Z31       Y15       Y3        X14
   1                   -0.17909  -0.15542   0.15331   0.15326  -0.15039
 Eigenvalue    44 is   2.22D-16 Eigenvector:
                          X23       X32       X3        X10       Y2
   1                    0.29258  -0.25021  -0.21244   0.21075   0.20832
                          Y23       Z24       Y15       X6        Z15
   1                   -0.20414   0.19326   0.19188   0.17027  -0.16344
 Eigenvalue    45 is   2.22D-16 Eigenvector:
                          X5        Y14       Z11       X4        X12
   1                    0.32898  -0.27386   0.24783  -0.22616   0.20799
                          Z3        Z10       X3        Y3        X14
   1                   -0.18662   0.17449   0.16724   0.16267   0.16258
 Eigenvalue    46 is   2.22D-16 Eigenvector:
                          X6        X10       Y15       Y26       Y22
   1                    0.36713   0.26924  -0.21540   0.21029   0.18784
                          Y7        Y33       Z27       Y6        Z12
   1                   -0.17204   0.16507   0.15874  -0.15835   0.15679
 Eigenvalue    47 is   2.22D-16 Eigenvector:
                          Y7        Y8        X9        Z5        Z8
   1                    0.43260  -0.22763   0.21710  -0.20616   0.19103
                          X3        Z38       Z3        Y6        Z9
   1                    0.18680  -0.17734   0.17224  -0.17076  -0.16307
 Eigenvalue    48 is   4.44D-16 Eigenvector:
                          Y15       X14       Z18       Y17       Z14
   1                    0.27962  -0.27848  -0.22672  -0.19341   0.18906
                          X16       Z20       X2        Z3        X17
   1                    0.18771   0.17437   0.17270  -0.16411   0.15824
 Eigenvalue    49 is   4.44D-16 Eigenvector:
                          Z34       X19       Y25       Z19       Y26
   1                    0.28529   0.25087  -0.19765   0.18406   0.16696
                          Z28       X28       Y24       X10       X31
   1                   -0.16096  -0.15818   0.15812  -0.15529  -0.15375
 Eigenvalue    50 is   4.44D-16 Eigenvector:
                          Y22       Y25       Z17       Y24       Y26
   1                    0.29247  -0.23788  -0.23326   0.22930  -0.21205
                          Z23       X30       Z14       Z13       X26
   1                    0.19049   0.18397   0.18199   0.17865   0.17321
 Eigenvalue    51 is   4.44D-16 Eigenvector:
                          Y12       Y8        X11       Y9        X12
   1                    0.29622  -0.24298  -0.23497  -0.20702   0.17749
                          Z21       Z10       Z31       Z19       Y33
   1                    0.16882   0.16455  -0.16234   0.15358  -0.15146
 Eigenvalue    52 is   4.44D-16 Eigenvector:
                          Y6        X12       Z38       Z39       Z5
   1                    0.32991  -0.25151  -0.22467   0.21737   0.19080
                          Z18       X3        Z3        Z16       Y24
   1                    0.18364   0.18077   0.17322   0.16665   0.16557
 Eigenvalue    53 is   4.44D-16 Eigenvector:
                          Y9        Y8        Z24       Z8        Y21
   1                    0.36203  -0.26849  -0.26611  -0.25887   0.21545
                          Y16       Y13       X20       Y24       Z39
   1                   -0.19406   0.19343  -0.18342   0.17449  -0.13735
 Eigenvalue    54 is   4.44D-16 Eigenvector:
                          Y33       Y15       Y14       Z36       Z13
   1                    0.31337   0.29432  -0.26508  -0.19321   0.18816
                          X31       X12       Z14       Y39       X23
   1                    0.18657  -0.16918   0.15739  -0.15709  -0.14996
 Eigenvalue    55 is   6.66D-16 Eigenvector:
                          Y15       Y9        X16       X36       Z17
   1                    0.25676   0.24652  -0.21189  -0.19470  -0.19440
                          Z30       X35       Z15       Y13       X33
   1                    0.19380   0.19089   0.18597  -0.18558   0.16843
 Eigenvalue    56 is   6.66D-16 Eigenvector:
                          Z37       Z5        X36       Y37       X35
   1                    0.38409   0.25813  -0.19752  -0.19213  -0.18477
                          Z3        Z2        X32       X1        X28
   1                    0.18263  -0.17659   0.17118   0.16724  -0.16523
 Eigenvalue    57 is   8.88D-16 Eigenvector:
                          Y32       X33       Y31       Z20       Y36
   1                    0.36672   0.27051   0.26678   0.22295  -0.20303
                          Y23       X35       Y35       X16       X17
   1                   -0.16981  -0.15667  -0.15520  -0.15264  -0.14979
 Eigenvalue    58 is   8.88D-16 Eigenvector:
                          X11       Y8        Y9        Z3        Y14
   1                    0.35274  -0.30898  -0.25859  -0.24232  -0.23541
                          Y12       X1        X10       X15       Y15
   1                   -0.21304  -0.17599  -0.17225  -0.15996   0.15704
 Eigenvalue    59 is   8.88D-16 Eigenvector:
                          Y26       Y33       Z35       X33       Y24
   1                    0.30364  -0.25266  -0.21885   0.21256   0.19662
                          Y39       X9        Z29       Z21       X32
   1                   -0.18550  -0.18073  -0.17483   0.16626   0.16193
 Eigenvalue    60 is   8.88D-16 Eigenvector:
                          X32       Z35       Y39       Z37       Y32
   1                    0.35036  -0.31187   0.28030  -0.17639  -0.17225
                          X17       Y3        Z9        Y37       Z6
   1                   -0.16970  -0.16925   0.16831   0.16455  -0.16021
 Eigenvalue    61 is   8.88D-16 Eigenvector:
                          X32       Y36       Y23       X27       Y26
   1                    0.24979   0.22103  -0.20001  -0.19487  -0.18721
                          Z35       Z9        Z3        X31       Y27
   1                    0.18518  -0.17655  -0.17518   0.16823   0.16257
 Eigenvalue    62 is   1.11D-15 Eigenvector:
                          Y26       Y24       X26       X10       X35
   1                    0.32765  -0.25686  -0.22632   0.21166  -0.19375
                          Y32       Y34       Y38       Z5        X20
   1                    0.19180   0.18056  -0.17740   0.17691  -0.17206
 Eigenvalue    63 is   1.11D-15 Eigenvector:
                          X26       X30       Z30       Y27       Y26
   1                    0.28490  -0.26304  -0.23094  -0.22311   0.21689
                          X31       Z38       Z26       Z25       Z20
   1                   -0.20576   0.19859  -0.19760  -0.19618  -0.17483
 Eigenvalue    64 is   1.33D-15 Eigenvector:
                          X26       Z18       X28       X36       X4
   1                    0.28979   0.22641  -0.20855   0.20448   0.19446
                          Z24       X10       Y27       X1        Z27
   1                    0.18998   0.18964  -0.18213  -0.17782   0.17214
 Eigenvalue    65 is   1.33D-15 Eigenvector:
                          Y8        Z2        X10       Y23       Y11
   1                    0.38463  -0.27333  -0.21811  -0.17593  -0.17252
                          X30       Y1        Z36       Y10       Z20
   1                   -0.17109  -0.16946   0.16795  -0.16518  -0.15517
 Eigenvalue    66 is   1.55D-15 Eigenvector:
                          Y33       Y15       Z38       X10       Z34
   1                    0.26160  -0.23347   0.22663  -0.21807  -0.21686
                          Z9        Z20       Y20       Z23       Y38
   1                    0.20663   0.19338  -0.18460   0.18148  -0.17069
 Eigenvalue    67 is   1.78D-15 Eigenvector:
                          Y27       X32       X36       Z35       Z17
   1                    0.29642  -0.27961  -0.26353  -0.21305   0.20339
                          Z33       Y35       Y4        X30       Z36
   1                   -0.19087   0.19057  -0.18997  -0.18920   0.18831
 Eigenvalue    68 is   2.22D-15 Eigenvector:
                          Z23       Y23       X30       Y24       Z26
   1                    0.39543  -0.29362   0.25107  -0.23431  -0.22083
                          Z29       Z25       Y30       Y26       Y32
   1                    0.20597  -0.19159   0.19000   0.18399  -0.15066
 Eigenvalue    69 is   2.44D-15 Eigenvector:
                          Z28       Y28       Y38       X29       X25
   1                    0.32119  -0.22744   0.22326  -0.21765   0.21591
                          X36       Y30       X35       Y34       Z27
   1                    0.21237  -0.19991  -0.19520   0.18783  -0.18693
 Eigenvalue    70 is   2.66D-15 Eigenvector:
                          X35       Z18       X28       Y30       Y23
   1                    0.22744  -0.21540  -0.20586  -0.20458  -0.19893
                          Y26       Z30       Z29       Y27       X33
   1                   -0.18717   0.18687  -0.18019  -0.17538  -0.16363
 Eigenvalue    71 is   2.66D-15 Eigenvector:
                          X26       Y27       X30       Y22       Z24
   1                    0.45764   0.27997   0.25989  -0.24295  -0.18479
                          Z27       Z29       X32       Y39       X27
   1                    0.17338  -0.16849  -0.16369  -0.16344  -0.15296
 Eigenvalue    72 is   2.89D-15 Eigenvector:
                          Z20       X20       Z22       Y20       X31
   1                    0.55819   0.29894   0.24823   0.21867  -0.18966
                          Z21       X34       Z32       X36       Z24
   1                    0.17452   0.16189  -0.15479   0.13665   0.13152
 Quadratic step=1.235D+02 exceeds max=3.000D-01 adjusted using Lamda=-4.119D-02.
 Angle between NR and scaled steps=   4.57 degrees.
 Angle between quadratic step and forces=  47.26 degrees.
 Linear search not attempted -- first point.
 B after Tr=     0.000496   -0.000897   -0.002777
         Rot=    1.000000   -0.000113   -0.000117   -0.000138 Ang=  -0.02 deg.
 Variable       Old X    -DE/DX   Delta X   Delta X   Delta X     New X
                                 (Linear)    (Quad)   (Total)
    X1       26.23199  -0.00442   0.00000  -0.10211  -0.10315  26.12884
    Y1       28.91583  -0.00089   0.00000  -0.03500  -0.03491  28.88092
    Z1       27.38970   0.00396   0.00000   0.03426   0.03191  27.42161
    X2       25.63590  -0.00007   0.00000  -0.02462  -0.02554  25.61037
    Y2       29.72260  -0.00038   0.00000   0.02256   0.02216  29.74477
    Z2       28.93217  -0.00135   0.00000   0.02748   0.02544  28.95761
    X3       27.53732  -0.00273   0.00000  -0.04551  -0.04613  27.49119
    Y3       27.74249   0.00164   0.00000   0.02096   0.02131  27.76380
    Z3       27.91042   0.00007   0.00000   0.01080   0.00787  27.91829
    X4       14.89817   0.00100   0.00000   0.01843   0.01656  14.91474
    Y4       27.05405   0.00263   0.00000   0.04138   0.03966  27.09370
    Z4       21.78231   0.00124   0.00000   0.00644   0.00631  21.78862
    X5       15.22660  -0.00018   0.00000  -0.00438  -0.00674  15.21986
    Y5       28.86543   0.00160   0.00000   0.04557   0.04392  28.90935
    Z5       21.82919   0.00007   0.00000  -0.01115  -0.01094  21.81825
    X6       14.50485  -0.00014   0.00000   0.00846   0.00628  14.51112
    Y6       26.75238  -0.00043   0.00000   0.01000   0.00856  26.76094
    Z6       20.02772  -0.00105   0.00000   0.01088   0.01077  20.03850
    X7       15.45152   0.00124   0.00000   0.01232   0.00899  15.46052
    Y7       32.84975  -0.00411   0.00000  -0.09089  -0.09257  32.75718
    Z7       22.19066   0.00344   0.00000   0.02495   0.02598  22.21664
    X8       13.64662   0.00001   0.00000   0.01361   0.01031  13.65693
    Y8       32.89710   0.00084   0.00000   0.02076   0.01853  32.91563
    Z8       22.47014   0.00059   0.00000   0.01945   0.02093  22.49107
    X9       16.15475  -0.00037   0.00000   0.00544   0.00255  16.15730
    Y9       32.67417  -0.00058   0.00000  -0.01777  -0.01963  32.65453
    Z9       23.90231  -0.00079   0.00000   0.03071   0.03155  23.93386
   X10       16.05688  -0.00270   0.00000  -0.00878  -0.01105  16.04584
   Y10       37.61440   0.00198   0.00000   0.02228   0.01844  37.63284
   Z10       32.50525  -0.00519   0.00000  -0.02290  -0.02091  32.48435
   X11       16.28236  -0.00003   0.00000  -0.00266  -0.00437  16.27800
   Y11       35.81132  -0.00043   0.00000   0.02156   0.01771  35.82903
   Z11       32.79520  -0.00054   0.00000  -0.01729  -0.01575  32.77945
   X12       15.25609   0.00108   0.00000  -0.02197  -0.02463  15.23146
   Y12       37.63516   0.00029   0.00000   0.01242   0.00874  37.64390
   Z12       30.83791   0.00405   0.00000  -0.00651  -0.00432  30.83359
   X13       25.90201   0.00153   0.00000  -0.00595  -0.00857  25.89344
   Y13       30.16002   0.00145   0.00000   0.02836   0.02957  30.18959
   Z13       22.18846   0.00122   0.00000   0.00380   0.00180  22.19025
   X14       26.06272   0.00006   0.00000   0.00386   0.00173  26.06445
   Y14       29.93726   0.00002   0.00000  -0.00277  -0.00193  29.93533
   Z14       24.01304  -0.00103   0.00000  -0.00256  -0.00466  24.00838
   X15       24.12687  -0.00214   0.00000  -0.00346  -0.00608  24.12079
   Y15       29.88755  -0.00067   0.00000  -0.00964  -0.00885  29.87870
   Z15       21.89070  -0.00033   0.00000   0.00164  -0.00001  21.89069
   X16       24.17653  -0.00282   0.00000  -0.06188  -0.06618  24.11035
   Y16       36.67025  -0.00020   0.00000   0.02870   0.02929  36.69954
   Z16       22.68144   0.00360   0.00000   0.05459   0.05449  22.73593
   X17       23.35464   0.00133   0.00000   0.03033   0.02611  23.38075
   Y17       35.47897   0.00033   0.00000  -0.01223  -0.01157  35.46739
   Z17       21.56270   0.00110   0.00000   0.03191   0.03169  21.59439
   X18       24.29801  -0.00058   0.00000  -0.00499  -0.00994  24.28807
   Y18       38.20292   0.00034   0.00000  -0.00720  -0.00632  38.19660
   Z18       21.69766  -0.00107   0.00000   0.00185   0.00204  21.69970
   X19       13.54342   0.00087   0.00000   0.03969   0.03635  13.57977
   Y19       37.25341   0.00105   0.00000   0.00778   0.00440  37.25781
   Z19       27.48010   0.00045   0.00000   0.00675   0.00924  27.48934
   X20       13.00700   0.00004   0.00000   0.00599   0.00210  13.00910
   Y20       38.97038  -0.00094   0.00000  -0.00696  -0.01042  38.95996
   Z20       27.14359   0.00004   0.00000  -0.00908  -0.00607  27.13753
   X21       15.00962   0.00229   0.00000   0.04248   0.03895  15.04856
   Y21       37.04632   0.00025   0.00000   0.01787   0.01513  37.06145
   Z21       26.40787  -0.00000   0.00000   0.00628   0.00838  26.41625
   X22       20.39206   0.00051   0.00000  -0.00410  -0.00464  20.38742
   Y22       27.21195   0.00607   0.00000   0.09590   0.09434  27.30629
   Z22       27.72818   0.00097   0.00000  -0.02791  -0.02927  27.69891
   X23       19.67591   0.00032   0.00000   0.01345   0.01302  19.68893
   Y23       25.96247  -0.00026   0.00000   0.03458   0.03307  25.99554
   Z23       26.60728  -0.00090   0.00000   0.02228   0.02079  26.62807
   X24       22.14612   0.00014   0.00000   0.01562   0.01494  22.16107
   Y24       27.39073   0.00021   0.00000   0.01945   0.01849  27.40922
   Z24       27.20841   0.00013   0.00000   0.01503   0.01327  27.22168
   X25       22.30652   0.00355   0.00000   0.04753   0.04683  22.35335
   Y25       31.15907  -0.00022   0.00000  -0.00648  -0.00838  31.15069
   Z25       31.59916  -0.00384   0.00000  -0.02708  -0.02803  31.57113
   X26       22.02713   0.00041   0.00000   0.04065   0.04029  22.06742
   Y26       31.43522  -0.00017   0.00000   0.00334   0.00097  31.43619
   Z26       33.38056   0.00047   0.00000  -0.02646  -0.02728  33.35328
   X27       20.78813   0.00069   0.00000   0.02613   0.02554  20.81367
   Y27       30.29328   0.00093   0.00000   0.02235   0.02016  30.31344
   Z27       31.05086   0.00049   0.00000  -0.01312  -0.01390  31.03696
   X28       20.45553   0.00002   0.00000  -0.00335  -0.00703  20.44849
   Y28       38.06738  -0.00219   0.00000  -0.03427  -0.03563  38.03174
   Z28       26.96289  -0.00246   0.00000  -0.04583  -0.04478  26.91812
   X29       20.69029  -0.00034   0.00000  -0.00667  -0.01079  20.67950
   Y29       39.86971  -0.00104   0.00000  -0.03696  -0.03831  39.83139
   Z29       27.14385  -0.00008   0.00000  -0.00485  -0.00344  27.14041
   X30       21.58930   0.00045   0.00000   0.02495   0.02107  21.61036
   Y30       37.61360  -0.00018   0.00000  -0.00746  -0.00819  37.60541
   Z30       25.58203  -0.00063   0.00000  -0.02947  -0.02878  25.55324
   X31       16.66500   0.00035   0.00000   0.04370   0.04291  16.70791
   Y31       32.34271  -0.00297   0.00000  -0.04738  -0.05104  32.29167
   Z31       32.51904  -0.00088   0.00000   0.00843   0.00906  32.52810
   X32       16.50337  -0.00118   0.00000  -0.03436  -0.03454  16.46883
   Y32       31.49476  -0.00100   0.00000  -0.01954  -0.02364  31.47112
   Z32       34.12626   0.00141   0.00000   0.01661   0.01711  34.14337
   X33       15.36807   0.00277   0.00000   0.03949   0.03864  15.40671
   Y33       31.60990   0.00094   0.00000   0.00515   0.00137  31.61127
   Z33       31.45115  -0.00015   0.00000  -0.01774  -0.01696  31.43419
   X34       17.25900  -0.00104   0.00000   0.00580   0.00388  17.26289
   Y34       31.84636  -0.00151   0.00000  -0.01957  -0.02186  31.82450
   Z34       27.15094  -0.00134   0.00000  -0.00990  -0.00951  27.14143
   X35       18.35282   0.00078   0.00000   0.00991   0.00840  18.36123
   Y35       30.35655  -0.00154   0.00000  -0.01853  -0.02052  30.33603
   Z35       27.15057  -0.00022   0.00000  -0.00319  -0.00339  27.14718
   X36       18.10974   0.00155   0.00000   0.02083   0.01882  18.12857
   Y36       33.04486   0.00138   0.00000   0.00431   0.00202  33.04688
   Z36       28.23506  -0.00070   0.00000  -0.04254  -0.04207  28.19299
   X37       26.36969  -0.00458   0.00000  -0.02764  -0.02970  26.33999
   Y37       36.32170  -0.00537   0.00000  -0.02413  -0.02498  36.29672
   Z37       31.81855  -0.00158   0.00000  -0.00596  -0.00668  31.81188
   X38       27.83392  -0.00017   0.00000  -0.00959  -0.01144  27.82248
   Y38       35.27611   0.00078   0.00000   0.00005  -0.00032  35.27579
   Z38       31.49792   0.00022   0.00000   0.00052  -0.00078  31.49714
   X39       24.97486   0.00248   0.00000  -0.01195  -0.01377  24.96109
   Y39       35.17034   0.00235   0.00000  -0.02761  -0.02876  35.14158
   Z39       31.48149   0.00059   0.00000  -0.01047  -0.01112  31.47036
         Item               Value     Threshold  Converged?
 Maximum Force            0.006067     0.000450     NO 
 RMS     Force            0.001798     0.000300     NO 
 Maximum Displacement     0.103151     0.001800     NO 
 RMS     Displacement     0.027657     0.001200     NO 
 Predicted change in Energy=-3.838043D-03
 GradGradGradGradGradGradGradGradGradGradGradGradGradGradGradGradGradGrad


 Test job not archived.
 1\1\GINC-ELECTRA12\Force\RB3LYP\6-31G(d,p)\H26O13\ZRONYJ\26-Aug-2023\0
 \\#b3lyp/6-31G** scrf=(cpcm,Solvent=Water) nosymm force iop(2/11=1) Ge
 om=(NoDistance,NoAngle) guess=checkpoint\\cluster_243\\0,1\O,13.881372
 62,15.30159693,14.49400546\H,13.56593607,15.7285249,15.310243\H,14.572
 1209,14.68069548,14.7695582\O,7.88377426,14.31638457,11.52670342\H,8.0
 5756952,15.27492978,11.5515079\H,7.67563583,14.1567514,10.59821549\O,8
 .17659403,17.38333761,11.74279032\H,7.22148049,17.40839657,11.89068584
 \H,8.54872712,17.2904258,12.64855783\O,8.49693542,19.90468539,17.20104
 018\H,8.61625639,18.95053226,17.35447422\H,8.07317343,19.91566993,16.3
 1872038\O,13.70675375,15.95999369,11.74162546\H,13.79179592,15.8421164
 6,12.70715483\H,12.76738779,15.81580898,11.58405883\O,12.7936665,19.40
 505921,12.00249961\H,12.35874456,18.77466033,11.41048766\H,12.85795567
 ,20.21611727,11.48190473\O,7.16686856,19.71365763,14.54184169\H,6.8830
 0956,20.62223917,14.36377025\H,7.94274782,19.6040677,13.97444131\O,10.
 79101183,14.39994619,14.67311892\H,10.41204179,13.73874717,14.07996884
 \H,11.71922432,14.49455138,14.39807174\O,11.80410222,16.48866792,16.72
 15554\H,11.65625303,16.63480353,17.66423344\H,11.00060392,16.03051598,
 16.43140706\O,10.82459934,20.14438764,14.26814957\H,10.94883241,21.098
 13966,14.36390738\H,11.42456362,19.90426247,13.53742569\O,8.81873817,1
 7.1150246,17.20833702\H,8.73320783,16.66630836,18.05884018\H,8.1324338
 8,16.72723789,16.64323351\O,9.13307172,16.85237009,14.36765944\H,9.711
 89597,16.06399594,14.36746395\H,9.58326276,17.48658785,14.94135097\O,1
 3.95423939,19.22061547,16.83765282\H,14.72907394,18.66731145,16.667980
 79\H,13.21612607,18.61134251,16.65928587\\Version=ES64L-G16RevA.03\HF=
 -993.6469647\RMSD=7.171e-09\RMSF=1.798e-03\Dipole=-0.0613372,-1.966552
 6,-0.4031423\Quadrupole=44.9399941,-74.682034,29.74204,-49.0707677,-0.
 5901513,-94.9051417\PG=C01 [X(H26O13)]\\@


  DISAPPOINTMENT IS THE NURSE OF WISDOM.               
                              SIR BOYLE ROCHE                 
 Job cpu time:       0 days  0 hours  8 minutes 53.8 seconds.
 Elapsed time:       0 days  0 hours  2 minutes 13.9 seconds.
 File lengths (MBytes):  RWF=    187 Int=      0 D2E=      0 Chk=     26 Scr=      1
 Normal termination of Gaussian 16 at Sat Aug 26 03:25:17 2023.
