39
XYZ file of cluster: frame_5500_44154.6277.46b06 - created by MolEdiTo
 O      11.35600000       0.91600000      12.52400000
 H      10.49900000       0.54100000      12.15900000
 H      11.43500000       0.61000000      13.43700000
 O       7.07300000       6.13500000       7.31300000
 H       6.40300000       6.73800000       7.00500000
 H       7.85100000       6.36800000       6.72800000
 O      12.00000000       3.10800000      10.39200000
 H      12.98700000       2.82400000      10.41100000
 H      11.84900000       3.11600000       9.42100000
 O      13.04200000       6.08700000      10.97700000
 H      12.68700000       6.00100000      10.06400000
 H      13.64700000       5.26400000      11.02600000
 O       9.49100000       4.25500000       8.69200000
 H      10.17700000       3.60100000       8.30700000
 H       9.10600000       4.63500000       7.89400000
 O      11.50500000       2.48500000       7.58600000
 H      12.09600000       2.93900000       6.86900000
 H      11.32200000       1.68000000       7.12900000
 O       9.59700000       1.93100000      10.65000000
 H      10.55800000       2.31700000      10.66400000
 H       9.16800000       2.77600000      10.46200000
 O      13.23200000       6.91500000      13.71000000
 H      12.31500000       6.87500000      14.14800000
 H      13.04800000       6.72900000      12.76200000
 O       8.36200000       5.20600000      11.11300000
 H       8.81000000       4.79300000      10.36400000
 H       8.27900000       6.14000000      10.81700000
 O       6.55700000       2.71900000      11.87300000
 H       6.05200000       3.21800000      11.19200000
 H       7.49400000       2.92100000      11.90300000
 O      11.11200000       6.25800000       6.96200000
 H      10.55500000       6.25700000       6.20200000
 H      10.45800000       6.20700000       7.72200000
 O       7.46100000       5.18800000      13.96000000
 H       7.85000000       5.24300000      13.06000000
 H       6.55500000       4.86200000      13.78700000
 O      10.82700000       3.74500000      13.63700000
 H      11.62300000       3.17900000      13.70100000
 H      10.72700000       3.96000000      12.64700000
