36
XYZ file of cluster: frame_5500_74c2b.19383.a7002 - created by MolEdiTo
 O      14.33500000       8.14500000      15.73100000
 H      14.01300000       7.56000000      15.02600000
 H      13.71200000       8.90200000      15.86600000
 O      17.78600000       6.46500000      15.62400000
 H      18.11000000       6.24100000      16.47000000
 H      16.84900000       6.67400000      15.86600000
 O      12.77500000       4.06300000      15.43600000
 H      12.13600000       4.03900000      14.65200000
 H      12.66400000       4.96900000      15.81500000
 O      17.55000000      10.08600000      16.65200000
 H      17.19900000      10.27700000      15.74600000
 H      16.86800000       9.50900000      16.97400000
 O      12.66500000       7.67100000      18.84900000
 H      12.53700000       7.63600000      19.87900000
 H      12.61800000       8.63800000      18.69200000
 O      12.67700000       4.04100000      20.00900000
 H      12.30400000       3.88000000      19.13900000
 H      13.25500000       3.30700000      20.12800000
 O      14.94400000       5.31600000      17.97000000
 H      14.27600000       5.93600000      18.40200000
 H      14.91500000       4.43900000      18.44200000
 O      15.18700000       2.99600000      15.81700000
 H      14.73000000       2.21700000      15.54900000
 H      14.40900000       3.60400000      16.04500000
 O      15.94300000       8.31200000      17.82500000
 H      15.47000000       7.48800000      18.10300000
 H      15.49300000       8.68800000      17.03000000
 O      18.09000000       5.64500000      18.49200000
 H      17.32100000       5.05100000      18.44800000
 H      18.26700000       5.78500000      19.46700000
 O      12.93600000      10.58700000      18.29200000
 H      12.83200000      11.37700000      18.89500000
 H      13.44800000      10.94700000      17.55100000
 O      11.30100000       7.24200000      15.65300000
 H      10.37900000       7.37200000      15.62500000
 H      11.49200000       7.49000000      16.62800000
