67
XYZ file of cluster: frame_5500_5c7eb.5e736.24f69 - created by MolEdiTo
 O      11.73800000      10.17300000       6.88500000
 H      10.94800000      10.44400000       7.38500000
 H      12.02600000      11.01500000       6.51100000
 O      18.64000000      14.42200000      10.45400000
 H      17.96800000      14.81500000      11.06500000
 H      19.40000000      15.01000000      10.36200000
 O      14.41500000      13.62300000       9.99200000
 H      15.28500000      13.59300000       9.54700000
 H      13.88400000      14.31700000       9.44500000
 O      11.55700000      14.99600000      11.41100000
 H      12.47100000      14.68700000      11.63200000
 H      11.39000000      14.82700000      10.46800000
 O      12.54800000      15.35800000       8.77400000
 H      11.79800000      15.66600000       8.25100000
 H      12.97900000      15.00800000       7.98200000
 O      14.47600000      14.48200000       6.74200000
 H      14.82800000      14.52000000       5.75700000
 H      15.04100000      15.15100000       7.21300000
 O      14.67000000      15.15900000       4.15500000
 H      14.69500000      14.79200000       3.24300000
 H      14.81000000      16.09900000       4.05700000
 O      10.33600000      12.23100000       4.27600000
 H      11.20600000      12.06100000       4.73800000
 H       9.98600000      11.34000000       3.99800000
 O      11.97500000      14.21200000       3.27700000
 H      12.80900000      14.48500000       3.64200000
 H      11.65000000      13.62600000       3.98200000
 O      12.23900000      17.22700000       4.50000000
 H      12.20400000      16.49100000       3.83600000
 H      11.63700000      17.94500000       4.16500000
 C      11.47800000       8.89700000      11.22500000
 C      11.73700000      10.09200000      10.27100000
 C       9.78800000      11.29300000      11.27200000
 H      11.91900000      11.91700000      11.38500000
 H       9.89700000       8.36600000      10.23000000
 O      11.28800000      12.30500000       9.41300000
 O      11.78100000       9.37400000      12.49000000
 O      10.13700000       8.30300000      11.20800000
 C      11.22200000      11.50200000      10.65700000
 O      13.11400000      10.19000000       9.99800000
 H      11.26800000       9.94200000       9.31900000
 O       9.20100000      12.58500000      11.50500000
 O       8.90900000      10.84300000      10.26400000
 H       8.22200000      11.58300000       9.98500000
 H      13.29800000      10.92200000       9.29300000
 H      11.95600000      12.95500000       9.65200000
 O      17.22900000      13.87100000       5.40000000
 H      16.99000000      12.91600000       5.28800000
 H      17.07300000      14.14900000       6.35100000
 O      12.12200000      12.79700000       6.49900000
 H      13.00700000      13.23000000       6.36900000
 H      12.00400000      12.65100000       7.46700000
 O      17.23800000      12.21600000       9.77800000
 H      17.43900000      11.50000000       9.15600000
 H      18.09900000      12.68500000       9.78500000
 O      15.58600000      11.33500000       5.37000000
 H      15.74800000      10.38400000       5.33400000
 H      14.90800000      11.47900000       4.68900000
 O      14.58900000      11.64000000       8.01300000
 H      15.29600000      11.95200000       8.61600000
 H      15.08100000      11.64100000       7.16100000
 O      10.87300000      15.79700000       6.54300000
 H      11.49900000      16.44500000       6.05800000
 H      10.45500000      15.37200000       5.80000000
 O      17.14500000      14.99200000       7.95000000
 H      17.62700000      15.81600000       7.64000000
 H      17.45700000      14.88500000       8.86900000
