51
XYZ file of cluster: frame_10000_75cdc.49c7e.9bd43 - created by MolEdiTo
 O      15.01200000       8.43900000      13.47100000
 H      14.77900000       7.47700000      13.23400000
 H      14.60900000       8.66600000      14.31400000
 O      17.10700000       6.64000000      19.69800000
 H      17.55400000       7.56900000      19.94600000
 H      16.44600000       6.30100000      20.34900000
 O      16.07500000      11.34300000      18.50500000
 H      15.55300000      10.80000000      17.87800000
 H      16.69200000      10.70700000      18.85100000
 O      11.95600000      14.07000000      16.14300000
 H      11.09000000      13.50900000      16.19700000
 H      11.83000000      14.34900000      15.20500000
 O      14.82700000      10.37800000      16.28300000
 H      14.76800000       9.40000000      16.03100000
 H      13.92100000      10.71000000      16.29000000
 O      10.80800000      10.65800000      18.26500000
 H      10.36800000      11.52400000      18.20500000
 H      11.38000000      10.75100000      19.03900000
 O      18.18000000       9.63700000      14.46300000
 H      17.52700000      10.05400000      13.86100000
 H      17.68700000       8.75300000      14.43300000
 O      13.93000000      12.75400000      14.22200000
 H      13.26800000      12.15000000      14.50800000
 H      14.22700000      13.14900000      15.01200000
 O      11.32000000       7.42300000      20.10300000
 H      11.84900000       6.87300000      20.73400000
 H      11.51700000       8.30600000      20.56700000
 O      16.01700000      13.60500000      17.05600000
 H      16.36200000      13.01600000      17.64500000
 H      16.17200000      13.23800000      16.16300000
 O      12.24500000       8.06300000      16.46100000
 H      13.00800000       7.38600000      16.44800000
 H      11.47400000       7.47900000      16.14800000
 O      18.07500000       8.91500000      17.72100000
 H      17.83700000       8.14600000      18.34700000
 H      18.55100000       8.51500000      17.02600000
 O      14.01600000       8.33400000      18.98300000
 H      13.06600000       8.60300000      19.15700000
 H      14.02600000       7.56400000      18.37700000
 O      11.75800000      10.36300000      15.29400000
 H      11.22800000      10.88700000      15.91000000
 H      11.80900000       9.50500000      15.80100000
 O      13.06200000      12.58000000      19.03000000
 H      13.11600000      11.65300000      19.15100000
 H      13.53900000      12.70300000      18.21800000
 O      15.00900000       7.35700000      16.41200000
 H      15.92000000       7.48100000      16.15800000
 H      15.09100000       6.60900000      17.06300000
 O      16.54300000      11.92700000      14.96300000
 H      15.98400000      11.21500000      15.46200000
 H      17.41600000      11.44200000      14.96500000
