48
XYZ file of cluster: frame_10000_44a0c.c3650.7a0f0 - created by MolEdiTo
 O      11.14100000      20.05300000      15.73600000
 H      10.71200000      20.30200000      16.57200000
 H      11.26700000      20.85000000      15.25100000
 O      13.69900000      19.01600000      11.72000000
 H      13.42200000      18.84600000      10.78600000
 H      12.94300000      18.87000000      12.32900000
 O       6.87600000      18.28000000      13.66500000
 H       6.04000000      17.72600000      13.47200000
 H       7.17400000      18.60100000      12.83200000
 O       8.60300000      18.31000000      16.02700000
 H       9.28700000      18.95700000      15.67400000
 H       7.95900000      18.22600000      15.26500000
 O      11.61300000      18.55100000      18.13400000
 H      11.77900000      17.57000000      18.41500000
 H      11.48100000      18.51500000      17.22000000
 O      11.64000000      17.15300000      15.48400000
 H      12.01400000      16.68700000      14.60800000
 H      11.63500000      18.11400000      15.26400000
 O      11.19300000      18.43400000      13.09200000
 H      10.86300000      17.55300000      12.83900000
 H      10.48600000      19.06500000      13.19500000
 O      14.41600000      19.66500000      17.13700000
 H      13.47900000      19.69400000      17.45300000
 H      14.55800000      18.71400000      17.18300000
 O      11.44200000      22.36500000      11.63800000
 H      10.58400000      22.12100000      12.05900000
 H      11.32100000      21.67600000      10.89900000
 O       8.22300000      24.27900000      14.33300000
 H       7.86400000      25.11900000      14.05300000
 H       7.63200000      23.95100000      15.07200000
 O      11.31600000      23.94100000      17.55800000
 H      11.66500000      24.13500000      16.66700000
 H      10.54300000      23.32800000      17.52200000
 O       7.63100000      22.59800000      16.41300000
 H       8.57300000      22.34400000      16.59800000
 H       7.38400000      22.91300000      17.31200000
 O      13.79100000      23.27600000      12.50000000
 H      14.30400000      22.98700000      11.77400000
 H      12.93200000      22.85900000      12.32700000
 O       7.76800000      23.27200000      11.13800000
 H       7.59500000      23.80200000      10.36600000
 H       6.89000000      22.95900000      11.52900000
 O      11.79000000      23.80600000      14.70400000
 H      12.81100000      23.82200000      14.53000000
 H      11.52100000      24.19100000      13.87500000
 O       9.20700000      21.38800000      13.29500000
 H       8.64200000      21.80300000      14.01000000
 H       8.73500000      21.88000000      12.54600000
