33
XYZ file of cluster: frame_10000_79b66.9e2ea.abfef - created by MolEdiTo
 O      11.14100000      20.05300000      15.73600000
 H      10.71200000      20.30200000      16.57200000
 H      11.26700000      20.85000000      15.25100000
 O      14.19400000      16.87500000      16.99700000
 H      13.28200000      16.93200000      16.62400000
 H      14.57900000      16.05700000      16.60100000
 O      11.95600000      14.07000000      16.14300000
 H      11.09000000      13.50900000      16.19700000
 H      11.83000000      14.34900000      15.20500000
 O      16.82200000      17.20200000      15.19800000
 H      16.89600000      18.19600000      15.04500000
 H      16.03400000      16.95600000      14.60700000
 O      18.10400000      18.78700000      17.56600000
 H      17.43400000      18.40000000      18.10400000
 H      18.21700000      18.01600000      16.98900000
 O      18.09400000      16.01300000      17.33700000
 H      17.56900000      16.28800000      16.53600000
 H      17.59100000      15.35400000      17.82900000
 O      11.61300000      18.55100000      18.13400000
 H      11.77900000      17.57000000      18.41500000
 H      11.48100000      18.51500000      17.22000000
 O      11.74100000      15.83300000      18.43500000
 H      12.10400000      15.26700000      19.12000000
 H      11.98300000      15.34100000      17.59800000
 O      11.64000000      17.15300000      15.48400000
 H      12.01400000      16.68700000      14.60800000
 H      11.63500000      18.11400000      15.26400000
 O      14.41600000      19.66500000      17.13700000
 H      13.47900000      19.69400000      17.45300000
 H      14.55800000      18.71400000      17.18300000
 O      17.18900000      15.10800000      19.96400000
 H      17.60700000      14.29700000      19.53600000
 H      16.24500000      14.77600000      20.13500000
