45
XYZ file of cluster: frame_10000_28c49.95c65.bfee4 - created by MolEdiTo
 O       6.88900000      18.81400000      18.63300000
 H       7.45000000      18.62600000      17.83900000
 H       7.08600000      19.77300000      18.87200000
 O       7.71000000      15.01800000      19.81200000
 H       7.20700000      14.90400000      18.92300000
 H       8.33900000      15.73200000      19.50700000
 O       9.57000000      17.36500000      20.08800000
 H      10.41300000      17.56700000      20.71400000
 H      10.07600000      17.38000000      19.22300000
 O       9.14200000      15.67000000      16.98500000
 H       9.31300000      16.34800000      16.30000000
 H       9.98100000      15.72100000      17.52400000
 O       3.69800000      18.39400000      18.13700000
 H       3.58800000      17.67100000      17.48100000
 H       4.69400000      18.36500000      18.15200000
 O       8.93000000      12.95200000      17.73900000
 H       8.73100000      13.92900000      17.77900000
 H       9.13900000      12.79100000      16.78500000
 O       5.83800000      16.47100000      17.87000000
 H       5.53200000      16.12900000      16.94200000
 H       6.83000000      16.61500000      17.58600000
 O       4.06000000      15.50500000      20.27000000
 H       4.34500000      15.55100000      19.29800000
 H       3.96800000      16.43300000      20.51600000
 O       8.97200000      15.91700000      24.25100000
 H       9.46000000      15.50600000      24.97300000
 H       9.35000000      16.83700000      24.16500000
 O       4.85400000      18.41200000      21.71800000
 H       5.64600000      18.43600000      21.10900000
 H       4.17600000      18.89700000      21.10500000
 O      10.68400000      14.57500000      22.23600000
 H      10.24500000      14.36800000      21.35400000
 H      10.00700000      15.06600000      22.74700000
 O       4.49000000      19.13000000      24.55900000
 H       5.43600000      18.96500000      24.48200000
 H       4.20500000      18.52000000      23.83800000
 O       6.52800000      15.29900000      23.12700000
 H       7.52800000      15.40200000      23.46300000
 H       6.58500000      15.26100000      22.19200000
 O       4.51700000      13.22700000      22.99400000
 H       4.83800000      13.55000000      23.83000000
 H       4.49700000      14.00000000      22.42000000
 O       7.12900000      18.57400000      24.23500000
 H       6.98200000      18.38400000      23.28300000
 H       7.66700000      19.43300000      24.27300000
