39
XYZ file of cluster: frame_10000_c4141.30ad0.4fe48 - created by MolEdiTo
 O      20.79900000       7.24400000      10.15300000
 H      20.53300000       6.86500000       9.30300000
 H      19.95800000       7.71900000      10.46400000
 O      20.71800000       5.30200000       7.73100000
 H      21.17200000       4.65000000       8.28200000
 H      20.94100000       4.91600000       6.78500000
 O      20.29900000      10.61600000      10.72700000
 H      19.74100000      10.27200000       9.99900000
 H      21.19400000      10.31500000      10.40500000
 O      19.05600000       5.67400000      12.42300000
 H      18.39300000       6.28000000      12.84200000
 H      18.78800000       5.78300000      11.43300000
 O      18.27400000       8.46100000      11.65000000
 H      17.54000000       7.83400000      11.39200000
 H      17.84800000       9.32400000      11.87500000
 O      18.10400000       9.44500000       7.25900000
 H      17.25700000       9.91300000       7.38200000
 H      18.67300000      10.28200000       7.10900000
 O      20.77200000      10.99800000      14.00200000
 H      20.34200000      11.76600000      13.51500000
 H      19.98800000      10.40600000      14.01800000
 O      18.11800000       5.53200000       9.95200000
 H      17.35400000       5.94100000       9.59600000
 H      18.25700000       4.69500000       9.49200000
 O      25.35900000       7.97800000      10.12000000
 H      25.02100000       8.33800000      10.97500000
 H      24.63000000       7.32400000       9.99300000
 O      23.63400000       4.74100000      10.61100000
 H      23.22100000       5.63300000      10.52800000
 H      22.95600000       4.15700000      10.95700000
 O      24.36100000       6.35500000      13.58900000
 H      23.99600000       5.49200000      13.32800000
 H      24.41500000       6.25800000      14.56200000
 O      24.44600000      10.51500000       9.63000000
 H      24.04600000      10.68600000       8.74900000
 H      24.62300000       9.53900000       9.73200000
 O      23.96600000       8.59900000      12.29500000
 H      24.21100000       7.92200000      12.99500000
 H      23.03300000       8.86200000      12.45100000
