70
XYZ file of cluster: frame_10000_62fa0.5a8c7.5cf98 - created by MolEdiTo
 O      14.19400000      16.87500000      16.99700000
 H      13.28200000      16.93200000      16.62400000
 H      14.57900000      16.05700000      16.60100000
 O      16.01700000      13.60500000      17.05600000
 H      16.36200000      13.01600000      17.64500000
 H      16.17200000      13.23800000      16.16300000
 O      15.48800000      10.25600000      11.58100000
 H      14.59800000      10.68900000      11.34800000
 H      15.33600000       9.58200000      12.35800000
 O      13.02200000      13.77100000      11.46900000
 H      13.85300000      13.68200000      10.96500000
 H      13.24300000      13.24200000      12.29800000
 O      11.75800000      10.36300000      15.29400000
 H      11.22800000      10.88700000      15.91000000
 H      11.80900000       9.50500000      15.80100000
 O      11.50700000      15.16900000      13.52400000
 H      11.72900000      14.52800000      12.81700000
 H      10.57100000      15.37000000      13.34600000
 O      16.54300000      11.92700000      14.96300000
 H      15.98400000      11.21500000      15.46200000
 H      17.41600000      11.44200000      14.96500000
 O      11.95600000      14.07000000      16.14300000
 H      11.09000000      13.50900000      16.19700000
 H      11.83000000      14.34900000      15.20500000
 O      16.82200000      17.20200000      15.19800000
 H      16.89600000      18.19600000      15.04500000
 H      16.03400000      16.95600000      14.60700000
 O      18.09400000      16.01300000      17.33700000
 H      17.56900000      16.28800000      16.53600000
 H      17.59100000      15.35400000      17.82900000
 O      12.29400000      15.92500000       9.65200000
 H      12.46600000      15.28200000      10.41100000
 H      11.34900000      16.19200000       9.68000000
 O      15.73900000      14.24100000      10.29000000
 H      16.55300000      14.55000000       9.86700000
 H      15.97100000      14.28700000      11.20600000
 O      14.82700000      10.37800000      16.28300000
 H      14.76800000       9.40000000      16.03100000
 H      13.92100000      10.71000000      16.29000000
 O      13.93000000      12.75400000      14.22200000
 H      13.26800000      12.15000000      14.50800000
 H      14.22700000      13.14900000      15.01200000
 O      16.31300000      14.32100000      12.96200000
 H      15.70700000      13.82700000      13.52800000
 H      17.17900000      14.06300000      13.26000000
 C       9.95700000       9.53800000       9.63000000
 C      10.92400000      10.76200000       9.76000000
 C      11.58400000      10.34600000      12.18700000
 H      12.32100000       9.33700000      10.42900000
 H       9.99300000       7.73300000       8.96700000
 O      13.14100000      11.18300000      10.55500000
 O       8.71100000      10.06400000       9.19400000
 O      10.28400000       8.59600000       8.61000000
 C      11.98900000      10.35200000      10.73600000
 O      11.54300000      11.13300000       8.48900000
 H      10.35800000      11.66800000      10.11300000
 O      10.68000000      11.44900000      12.44100000
 O      10.72200000       9.18300000      12.35300000
 H      10.61100000       9.05000000      13.26600000
 H      10.72500000      11.40500000       7.89600000
 H      12.92900000      11.58100000       9.73500000
 O      11.64000000      17.15300000      15.48400000
 H      12.01400000      16.68700000      14.60800000
 H      11.63500000      18.11400000      15.26400000
 O      14.68500000      16.34100000      13.62100000
 H      15.33600000      15.70000000      13.31600000
 H      14.80000000      17.05200000      12.97900000
 O      18.08000000      11.64700000      12.31800000
 H      18.34000000      11.45600000      11.42000000
 H      17.06300000      11.51600000      12.32300000
