51
XYZ file of cluster: frame_10000_4a2c4.95c65.bfee4 - created by MolEdiTo
 O       6.88900000      18.81400000      18.63300000
 H       7.45000000      18.62600000      17.83900000
 H       7.08600000      19.77300000      18.87200000
 O       7.71000000      15.01800000      19.81200000
 H       7.20700000      14.90400000      18.92300000
 H       8.33900000      15.73200000      19.50700000
 O       9.57000000      17.36500000      20.08800000
 H      10.41300000      17.56700000      20.71400000
 H      10.07600000      17.38000000      19.22300000
 O       9.14200000      15.67000000      16.98500000
 H       9.31300000      16.34800000      16.30000000
 H       9.98100000      15.72100000      17.52400000
 O       8.93000000      12.95200000      17.73900000
 H       8.73100000      13.92900000      17.77900000
 H       9.13900000      12.79100000      16.78500000
 O      11.61300000      18.55100000      18.13400000
 H      11.77900000      17.57000000      18.41500000
 H      11.48100000      18.51500000      17.22000000
 O      11.74100000      15.83300000      18.43500000
 H      12.10400000      15.26700000      19.12000000
 H      11.98300000      15.34100000      17.59800000
 O      14.41600000      19.66500000      17.13700000
 H      13.47900000      19.69400000      17.45300000
 H      14.55800000      18.71400000      17.18300000
 O       8.97200000      15.91700000      24.25100000
 H       9.46000000      15.50600000      24.97300000
 H       9.35000000      16.83700000      24.16500000
 O      15.16000000      19.59300000      23.72000000
 H      14.15300000      19.49000000      23.97000000
 H      15.26800000      19.05400000      22.93500000
 O      11.91600000      19.76700000      22.10800000
 H      11.24000000      19.80800000      22.85400000
 H      11.68200000      20.55900000      21.51500000
 O      13.11900000      13.42500000      24.32100000
 H      13.39600000      14.28800000      24.75700000
 H      13.43400000      13.53200000      23.43500000
 O      10.68400000      14.57500000      22.23600000
 H      10.24500000      14.36800000      21.35400000
 H      10.00700000      15.06600000      22.74700000
 O      13.44600000      14.51100000      21.74600000
 H      12.46500000      14.61900000      21.88800000
 H      13.51000000      13.75300000      21.19800000
 O      11.34900000      17.30800000      23.20800000
 H      11.89900000      17.85900000      22.62000000
 H      11.73600000      17.50700000      24.11600000
 O       6.52800000      15.29900000      23.12700000
 H       7.52800000      15.40200000      23.46300000
 H       6.58500000      15.26100000      22.19200000
 O       7.12900000      18.57400000      24.23500000
 H       6.98200000      18.38400000      23.28300000
 H       7.66700000      19.43300000      24.27300000
