61
XYZ file of cluster: frame_10000_29b31.5a8c7.5cf98 - created by MolEdiTo
 O       5.60300000      16.57000000      11.94500000
 H       5.41900000      15.81000000      11.37800000
 H       5.04700000      17.29300000      11.59600000
 O       8.07700000      10.00100000      13.95500000
 H       7.70200000      10.84200000      13.59200000
 H       7.52800000       9.38600000      13.43900000
 O       5.41200000      13.85500000      12.43200000
 H       4.80300000      13.16800000      12.03200000
 H       4.83500000      14.35100000      13.10600000
 O       9.14200000      15.67000000      16.98500000
 H       9.31300000      16.34800000      16.30000000
 H       9.98100000      15.72100000      17.52400000
 O       8.65400000      13.77900000       9.99200000
 H       8.38800000      13.80100000      10.94100000
 H       8.11800000      13.18700000       9.55600000
 C       9.95700000       9.53800000       9.63000000
 C      10.92400000      10.76200000       9.76000000
 C      11.58400000      10.34600000      12.18700000
 H      12.32100000       9.33700000      10.42900000
 H       9.99300000       7.73300000       8.96700000
 O      13.14100000      11.18300000      10.55500000
 O       8.71100000      10.06400000       9.19400000
 O      10.28400000       8.59600000       8.61000000
 C      11.98900000      10.35200000      10.73600000
 O      11.54300000      11.13300000       8.48900000
 H      10.35800000      11.66800000      10.11300000
 O      10.68000000      11.44900000      12.44100000
 O      10.72200000       9.18300000      12.35300000
 H      10.61100000       9.05000000      13.26600000
 H      10.72500000      11.40500000       7.89600000
 H      12.92900000      11.58100000       9.73500000
 O       3.88800000      11.66700000      16.89500000
 H       3.67700000      10.74200000      16.64400000
 H       3.67000000      12.14000000      16.13700000
 O       6.10400000      15.56500000      15.44900000
 H       5.33200000      15.83900000      14.86800000
 H       5.88500000      14.60600000      15.59500000
 O       8.93000000      12.95200000      17.73900000
 H       8.73100000      13.92900000      17.77900000
 H       9.13900000      12.79100000      16.78500000
 O       5.83800000      16.47100000      17.87000000
 H       5.53200000      16.12900000      16.94200000
 H       6.83000000      16.61500000      17.58600000
 O       9.65700000      16.35300000       9.59900000
 H       9.24400000      16.39700000      10.48600000
 H       8.88100000      15.94400000       9.18500000
 O      11.50700000      15.16900000      13.52400000
 H      11.72900000      14.52800000      12.81700000
 H      10.57100000      15.37000000      13.34600000
 O       9.63000000      11.94700000      15.20300000
 H       8.99300000      11.19000000      15.34400000
 H       9.99300000      11.86300000      14.32600000
 O       8.06700000      13.30200000      12.42400000
 H       7.14500000      13.46600000      12.69000000
 H       8.38300000      12.63500000      13.09700000
 O       6.27300000      10.55000000      11.31300000
 H       7.14200000      10.07500000      11.32600000
 H       5.78000000      10.31200000      12.14800000
 O       8.75100000      15.90400000      12.29600000
 H       7.89600000      16.32500000      12.67300000
 H       8.44900000      14.98000000      12.31000000
