18
XYZ file of cluster: frame_10000_cb16c.d44a8.a59a - created by MolEdiTo
 O      18.89800000      18.34900000       1.32700000
 H      18.88600000      19.31700000       1.17200000
 H      18.11600000      18.19100000       1.86500000
 O      19.15900000      19.08400000       4.66700000
 H      20.09200000      19.32800000       4.86700000
 H      19.18600000      18.13000000       5.00100000
 O      19.96600000      22.98400000       3.81800000
 H      20.71900000      22.33200000       3.57500000
 H      19.41500000      22.39200000       4.38600000
 O      18.67300000      23.67700000       0.87900000
 H      17.87400000      24.17900000       1.28500000
 H      19.05100000      23.38400000       1.68800000
 O      23.38000000      19.08500000       5.20800000
 H      24.18700000      19.55500000       5.52300000
 H      23.59000000      18.15600000       5.41400000
 O      23.72000000      21.66000000       2.82100000
 H      24.15200000      20.85000000       3.17200000
 H      24.00600000      21.78300000       1.94800000
