27
XYZ file of cluster: frame_4500_9bf5b.c9d65.4f5bf - created by MolEdiTo
 O      16.78300000      19.38300000      12.46800000
 H      17.02600000      20.07100000      11.81500000
 H      16.36800000      19.72600000      13.22600000
 O      18.86900000      17.93800000       7.49500000
 H      19.17800000      17.92500000       8.41000000
 H      19.65800000      18.08500000       7.01600000
 O      19.73700000      20.25000000      14.54800000
 H      18.75200000      20.08700000      14.56200000
 H      20.13800000      20.43900000      13.64700000
 O      18.64800000      17.62000000      13.37400000
 H      19.29400000      18.24200000      13.08700000
 H      17.83700000      18.16400000      13.20500000
 O      13.89700000      20.31900000       7.74000000
 H      14.61100000      20.89100000       7.42900000
 H      14.29100000      19.69000000       8.37000000
 O      20.37000000      21.92300000      11.26900000
 H      20.59100000      22.74600000      11.72100000
 H      20.81600000      22.11600000      10.41300000
 O      14.50900000      21.97600000      14.59700000
 H      13.66800000      21.51300000      14.81800000
 H      14.26400000      22.61500000      13.85300000
 O      15.06600000      25.26800000       7.89100000
 H      14.69600000      25.36400000       6.96300000
 H      15.75500000      24.59000000       7.68100000
 O      18.20300000      23.68500000       9.97400000
 H      17.93900000      24.51800000      10.37100000
 H      18.49000000      23.75600000       9.08000000
