51
XYZ file of cluster: frame_4500_4c3ed.6eb38.9aa3 - created by MolEdiTo
 O       7.26100000      17.76800000       3.17300000
 H       7.02500000      18.42900000       3.84600000
 H       8.17500000      17.57700000       3.35700000
 O       8.46100000      13.18700000       6.90000000
 H       8.35000000      13.54500000       7.82400000
 H       9.20300000      13.70700000       6.43900000
 O       9.82900000      10.56700000       6.62700000
 H       9.65800000      11.24700000       7.34900000
 H       9.93000000      11.13000000       5.82000000
 O       6.99300000      15.98700000       5.62100000
 H       7.30700000      15.04800000       5.54900000
 H       7.25500000      16.51500000       4.84900000
 O      13.14700000       9.79900000       3.31700000
 H      13.22300000      10.78100000       3.08800000
 H      12.21900000       9.66400000       3.01400000
 O      10.30600000      15.62900000       5.66000000
 H      10.72700000      16.48200000       5.93100000
 H      10.83000000      15.22200000       4.92200000
 O      12.55200000      17.48900000       3.41400000
 H      12.91500000      18.29400000       3.78800000
 H      12.72300000      16.85400000       4.15200000
 O       7.58300000      14.55900000       3.11900000
 H       8.53100000      14.61600000       3.31600000
 H       7.34500000      15.46900000       2.85400000
 O       9.78300000      12.24600000       4.27600000
 H       9.81900000      12.36000000       3.29900000
 H      10.66600000      12.64200000       4.55100000
 O       7.25600000      10.61600000       2.06300000
 H       6.68200000      11.27900000       1.69400000
 H       8.10300000      11.15300000       2.13900000
 O      12.45400000      13.89400000       4.59600000
 H      13.23700000      13.61300000       5.19300000
 H      12.51200000      13.26800000       3.84500000
 O       7.23200000      11.47800000       5.16600000
 H       7.88500000      11.62400000       4.41300000
 H       7.56800000      12.07000000       5.89500000
 O       9.91000000      17.54000000       2.29100000
 H      10.87600000      17.57300000       2.70800000
 H      10.00200000      17.00600000       1.50700000
 O       9.56100000      12.40700000       1.63600000
 H       9.43000000      11.76100000       0.84800000
 H       9.59300000      13.25500000       1.16800000
 O      12.73600000      12.32800000       2.27200000
 H      13.52100000      12.91600000       2.03800000
 H      12.27700000      12.27300000       1.45200000
 O      13.40400000      15.62100000       1.34500000
 H      13.49500000      16.25000000       2.08800000
 H      12.73500000      16.17800000       0.92200000
 O      12.20200000      17.56200000       6.57900000
 H      12.46400000      17.75000000       7.50300000
 H      12.94600000      17.88900000       6.03200000
