36
XYZ file of cluster: frame_4500_a397f.53e87.cb424 - created by MolEdiTo
 O      18.03000000       8.70700000      18.81600000
 H      17.70800000       8.66300000      19.77900000
 H      17.25500000       8.93700000      18.35200000
 O      19.50400000      13.70900000      18.53500000
 H      19.41700000      12.85100000      18.08100000
 H      20.48500000      13.92000000      18.68400000
 O      17.01400000      12.14600000      20.04600000
 H      17.91700000      11.78400000      19.85000000
 H      17.14700000      12.80200000      20.76000000
 O      14.39600000      11.98000000      18.75700000
 H      14.61300000      11.67000000      17.83400000
 H      15.28400000      12.05500000      19.19300000
 O      15.05900000       9.13500000      18.69900000
 H      14.69900000      10.03000000      18.67400000
 H      14.74900000       8.69200000      19.56200000
 O      19.63400000      10.99300000      20.12400000
 H      19.54200000      10.16900000      20.66000000
 H      20.11800000      10.68100000      19.34100000
 O      17.02700000       8.00400000      22.94300000
 H      16.76500000       8.98700000      22.75400000
 H      16.56700000       7.75200000      23.85400000
 O      15.00500000       7.32500000      24.75000000
 H      14.69600000       8.12500000      25.34200000
 H      14.33700000       7.35800000      24.00800000
 O      16.51600000      10.80200000      24.04900000
 H      16.50800000      11.46800000      23.36800000
 H      17.46300000      10.84600000      24.25300000
 O      20.24700000       8.61800000      22.75100000
 H      21.02700000       8.27800000      23.27700000
 H      19.77600000       7.84600000      22.25900000
 O      18.91000000      13.49400000      22.99900000
 H      19.37600000      13.29300000      22.13400000
 H      19.18800000      12.67500000      23.45000000
 O      19.27500000      10.53400000      24.81500000
 H      19.50300000       9.96900000      24.04600000
 H      19.92300000      10.33600000      25.54500000
