42
XYZ file of cluster: frame_4500_c2325.be822.717b8 - created by MolEdiTo
 O      18.64800000      17.62000000      13.37400000
 H      19.29400000      18.24200000      13.08700000
 H      17.83700000      18.16400000      13.20500000
 O      19.73700000      20.25000000      14.54800000
 H      18.75200000      20.08700000      14.56200000
 H      20.13800000      20.43900000      13.64700000
 O      18.92100000      18.01600000      16.99500000
 H      18.91000000      17.05000000      16.84700000
 H      18.20300000      18.31200000      16.39200000
 O      17.88000000      22.92400000      17.65600000
 H      17.01900000      22.51900000      17.93200000
 H      17.99800000      23.62300000      18.29900000
 O      20.37000000      21.92300000      11.26900000
 H      20.59100000      22.74600000      11.72100000
 H      20.81600000      22.11600000      10.41300000
 O      19.57500000      24.63600000      15.59900000
 H      19.14000000      24.12200000      16.29100000
 H      18.88100000      24.92500000      15.01900000
 O      24.83700000      17.28800000      17.68200000
 H      25.33000000      16.63100000      18.22900000
 H      25.11000000      18.15400000      17.95900000
 O      22.08400000      17.73700000      10.27700000
 H      22.45300000      16.94400000       9.95700000
 H      22.62100000      17.87000000      11.04600000
 O      25.43200000      17.48700000      14.74100000
 H      26.10100000      18.21100000      14.71400000
 H      24.94000000      17.58800000      15.57200000
 O      24.24200000      18.56600000      12.00800000
 H      24.85500000      18.34900000      12.73700000
 H      24.02900000      19.52800000      12.27700000
 O      25.49300000      24.27000000      17.06600000
 H      25.16000000      23.36300000      17.05500000
 H      24.74900000      24.89700000      16.86900000
 O      23.23200000      21.72400000      17.36700000
 H      23.51600000      21.64100000      18.31200000
 H      22.32000000      21.41800000      17.36300000
 O      23.35300000      23.30400000      14.59000000
 H      23.11000000      22.49600000      15.12400000
 H      22.84200000      24.04500000      14.98400000
 O      23.84300000      23.64900000      11.62200000
 H      23.00700000      24.12800000      11.85000000
 H      24.23500000      23.73700000      12.51400000
