55
XYZ file of cluster: frame_4500_1bfa9.4f391.42550 - created by MolEdiTo
 O       7.52600000      13.58900000       9.92000000
 H       7.27800000      14.30300000       9.31200000
 H       6.77200000      13.55200000      10.56000000
 O       8.26000000      14.53300000      13.11500000
 H       7.64800000      14.10600000      13.80400000
 H       8.65900000      15.24500000      13.64100000
 O       6.20500000       8.42600000       8.84000000
 H       6.12300000       9.40500000       8.72300000
 H       6.94000000       8.34500000       9.51300000
 O       5.38100000      12.72300000      13.00700000
 H       5.16700000      12.81600000      12.00600000
 H       5.34800000      11.72500000      13.14300000
 O       8.46100000      13.18700000       6.90000000
 H       8.35000000      13.54500000       7.82400000
 H       9.20300000      13.70700000       6.43900000
 O       9.82900000      10.56700000       6.62700000
 H       9.65800000      11.24700000       7.34900000
 H       9.93000000      11.13000000       5.82000000
 O       2.88900000       8.98000000       9.23100000
 H       3.82500000       8.71200000       9.43100000
 H       2.72800000       8.88000000       8.20800000
 O       4.47800000      10.06800000      13.59300000
 H       5.43300000       9.71600000      13.84900000
 H       3.97900000       9.25800000      13.35900000
 O       7.04500000      11.04300000       9.04900000
 H       7.89500000      11.58500000       8.82700000
 H       6.61900000      11.61800000       9.67800000
 C      10.66000000      12.22600000      10.30200000
 C      11.58400000      11.07300000      10.75400000
 C       9.54400000       9.44200000      10.75400000
 H      11.25200000       9.53300000       9.32200000
 H       9.14500000      12.97100000      10.66300000
 O      11.84200000       8.65300000      11.10900000
 O       9.91800000      11.83100000       9.07800000
 O       9.71100000      12.49100000      11.23400000
 C      11.04100000       9.60800000      10.39000000
 O      12.85300000      11.08700000      10.21400000
 H      11.69600000      10.95600000      11.79400000
 O       9.17800000       8.08500000      10.39800000
 O       9.26600000       9.62600000      12.09700000
 H       9.17000000       8.69100000      12.32900000
 H      13.47200000      10.33500000      10.60100000
 H      11.46800000       8.57700000      12.00800000
 O       6.69200000       9.02300000      14.56800000
 H       6.63000000       8.79500000      15.51800000
 H       7.22600000       8.33000000      14.07500000
 O       3.23600000       7.70500000      13.12600000
 H       2.45200000       7.52300000      12.68000000
 H       3.58300000       6.91600000      13.62100000
 O       4.54300000      10.60300000       7.41700000
 H       5.45400000      10.77200000       7.02900000
 H       4.10200000      10.07500000       6.72800000
 O       4.57500000      12.97100000       9.91100000
 H       3.85100000      12.49800000      10.38000000
 H       4.65500000      12.51600000       9.07300000
