42
XYZ file of cluster: frame_17500_254af.c88d8.3177c - created by MolEdiTo
 O       9.17500000      17.85200000       9.12300000
 H       8.89700000      17.57300000      10.01000000
 H       8.39900000      17.45200000       8.62400000
 O      10.58900000      20.45100000       9.45400000
 H      10.29900000      19.69800000       9.92800000
 H      11.19200000      20.18100000       8.74600000
 O       5.71100000      19.22500000      10.86000000
 H       6.19800000      18.61000000      10.24600000
 H       6.41400000      19.85700000      11.06400000
 O       5.91800000      20.18300000       5.27300000
 H       5.86600000      20.47000000       4.31500000
 H       6.80500000      20.33700000       5.65200000
 O       4.10600000      19.53500000       7.15400000
 H       4.55100000      19.23400000       7.97500000
 H       4.77500000      19.48900000       6.47000000
 O       7.00300000      20.57900000       8.49500000
 H       7.61900000      20.48100000       7.69100000
 H       7.61600000      20.84100000       9.19000000
 O       8.45900000      19.49600000       6.41600000
 H       9.26300000      19.10100000       6.80100000
 H       7.95000000      18.63800000       6.26300000
 O       3.90500000      22.31000000      11.39900000
 H       4.06100000      22.93800000      10.62100000
 H       4.44200000      21.46600000      11.26300000
 O      10.56900000      25.44600000       5.45500000
 H      10.45800000      24.60500000       5.02700000
 H      10.79900000      25.24500000       6.39000000
 O       4.12700000      24.61000000       5.20000000
 H       3.96300000      25.49300000       5.64500000
 H       3.20700000      24.24300000       5.15400000
 O       7.70800000      24.26800000       7.27400000
 H       7.22600000      25.11400000       7.23000000
 H       8.53400000      24.49900000       7.72500000
 O      10.22800000      25.09500000       8.52300000
 H      10.21800000      24.84100000       9.49000000
 H      11.12200000      24.71200000       8.28900000
 O       8.91700000      22.81700000       4.31600000
 H       8.96000000      22.00800000       4.91600000
 H       8.35400000      23.50000000       4.74000000
 O       5.38900000      23.73900000       9.40500000
 H       5.31800000      24.38300000       8.68200000
 H       5.89500000      23.02400000       8.94400000
