49
XYZ file of cluster: frame_17500_4ff53.43a9c.6a577 - created by MolEdiTo
 O       8.38000000      11.33000000      17.73900000
 H       9.29100000      11.57900000      17.40700000
 H       7.82400000      11.88600000      17.19400000
 O       7.52500000       9.87800000      14.31200000
 H       6.99300000       9.24200000      14.77900000
 H       6.87600000      10.13300000      13.62300000
 O       8.32800000       8.00100000      16.90700000
 H       8.34400000       7.42000000      16.13200000
 H       7.50700000       8.49400000      16.61500000
 O      12.71100000       6.55900000      11.37100000
 H      13.02400000       7.40500000      11.73200000
 H      13.27400000       5.88800000      11.74400000
 O      10.80000000      14.43000000      14.63500000
 H      10.26200000      13.65000000      14.40800000
 H      11.65600000      14.07000000      14.77900000
 O      13.36300000      11.10700000      13.69900000
 H      13.61500000      10.82100000      12.80300000
 H      12.80500000      10.38500000      13.96200000
 O       8.67700000       7.28800000      14.10900000
 H       8.78800000       8.24300000      13.94700000
 H       8.43700000       6.93400000      13.26900000
 O      12.84500000      10.76400000      17.57800000
 H      12.20400000      10.64600000      16.81300000
 H      12.21900000      10.86000000      18.28100000
 O      11.89400000       8.85100000      13.85800000
 H      11.07200000       9.21500000      13.38100000
 H      11.39100000       8.48000000      14.60800000
 C      10.26600000      12.33400000      11.12500000
 C      11.29300000      11.21700000      10.78900000
 C       9.37900000       9.45900000      11.00300000
 H      10.17700000      10.33300000       9.27600000
 H      10.97500000      14.02600000      10.48500000
 O      11.60900000       8.87700000       9.98900000
 O       9.38500000      12.54900000      10.01300000
 O      10.80600000      13.58500000      11.31900000
 C      10.60900000       9.98400000      10.18500000
 O      12.38600000      11.64600000       9.95900000
 H      11.79300000      10.89600000      11.72000000
 O       9.66300000       9.52700000      12.39500000
 O       9.11800000       8.02600000      10.76700000
 H       8.25700000       8.04300000      11.12900000
 H      13.21200000      11.33800000      10.34600000
 H      10.98400000       8.11800000      10.12500000
 O      10.59500000       9.12600000      16.71300000
 H       9.60900000       8.90400000      16.53400000
 H      10.83600000       8.49800000      17.42300000
 O       8.83300000      12.41300000      14.35700000
 H       8.47600000      11.49500000      14.44800000
 H       8.07700000      12.79100000      13.91200000
