142
XYZ file of cluster: frame_16000_496be.4881f.49196 - created by MolEdiTo
 O      11.99200000      14.81500000      13.70100000
 H      12.92800000      14.50000000      13.73600000
 H      11.40900000      13.96700000      13.50800000
 O      11.90600000      14.10800000      19.75700000
 H      12.38200000      14.88900000      19.51600000
 H      11.88000000      13.63800000      18.92900000
 O      15.25300000      20.17100000      15.84200000
 H      15.93300000      20.55100000      15.23900000
 H      15.83100000      19.57600000      16.38900000
 O      20.32000000      14.51100000      12.95200000
 H      20.48800000      15.44700000      13.15900000
 H      20.11700000      14.48900000      12.03700000
 O      18.00200000      11.96900000      18.45700000
 H      18.12300000      12.96600000      18.78300000
 H      17.76800000      11.47900000      19.29700000
 O      12.52200000      12.38300000      16.45400000
 H      11.76900000      11.89300000      17.01100000
 H      13.09000000      11.63500000      16.05500000
 O      10.26600000      12.30200000      13.52200000
 H      10.61100000      11.65900000      14.22900000
 H       9.46200000      12.73000000      13.91200000
 O      20.38200000       9.66100000      19.34700000
 H      19.40100000       9.41700000      19.24800000
 H      20.46000000      10.65200000      19.40100000
 O      15.05700000      11.15800000      18.38000000
 H      14.84600000      12.05800000      18.71700000
 H      15.92700000      11.17000000      17.98500000
 O      16.66200000      17.39700000      20.03700000
 H      16.77400000      18.04700000      20.73900000
 H      16.94600000      17.83700000      19.19800000
 O      20.02100000      18.73000000      11.06400000
 H      21.00700000      18.70300000      11.21900000
 H      19.76900000      18.09300000      10.35600000
 O      20.67100000      12.53800000      17.95400000
 H      21.40400000      12.18400000      17.41500000
 H      19.85500000      12.08000000      17.57000000
 O      14.36700000      18.81100000      13.29100000
 H      15.26700000      18.72400000      13.64500000
 H      13.72400000      18.42800000      13.88600000
 O      14.04500000      10.94400000      21.35600000
 H      14.86800000      11.49500000      21.60900000
 H      13.61300000      11.35500000      20.57700000
 O      16.07700000      10.29600000      11.86400000
 H      15.71200000      10.83900000      11.05000000
 H      17.01200000      10.45000000      11.79800000
 O      11.41600000      17.66700000      12.01000000
 H      10.51900000      17.40900000      12.20900000
 H      11.73300000      17.91900000      12.93700000
 O      13.12300000      21.46800000      11.90800000
 H      14.01200000      21.07800000      12.13100000
 H      13.20400000      22.41400000      12.23400000
 C      14.20800000      16.10100000      16.55700000
 C      15.04300000      15.74700000      15.29500000
 C      17.33600000      16.61100000      16.13600000
 H      16.39800000      14.66500000      16.69400000
 H      13.16800000      14.60800000      16.08300000
 O      17.23700000      14.52100000      14.75800000
 O      14.32900000      17.19700000      17.12700000
 O      13.38600000      15.09100000      16.89700000
 C      16.50100000      15.34000000      15.75600000
 O      14.50300000      14.62100000      14.59600000
 H      15.07000000      16.68600000      14.67900000
 O      17.01000000      17.79300000      16.02600000
 O      18.59100000      16.27500000      16.50300000
 H      18.56900000      15.36100000      16.31100000
 H      14.84900000      14.55800000      13.64300000
 H      16.82100000      13.65200000      14.60100000
 O      17.20400000      19.68800000      10.16800000
 H      17.67300000      20.52800000      10.18800000
 H      17.56700000      19.13700000      10.90400000
 O      20.73200000      18.70700000      18.31900000
 H      21.08900000      19.19500000      19.12300000
 H      19.72800000      18.90000000      18.43300000
 O      20.82600000      17.20000000      13.77700000
 H      20.59900000      18.01400000      13.23800000
 H      20.98400000      17.59700000      14.65100000
 O      14.83200000      19.66800000      19.02700000
 H      14.47300000      19.47500000      18.24800000
 H      14.19200000      20.30900000      19.47100000
 O      17.89900000      18.98800000      12.95200000
 H      18.72900000      19.27400000      12.53600000
 H      17.88500000      17.94400000      12.91300000
 O      17.86600000      19.96600000      18.75400000
 H      16.94700000      19.87700000      18.61300000
 H      18.08100000      20.93100000      18.64800000
 O      20.27600000      21.34700000      13.38100000
 H      21.09400000      21.88400000      13.34900000
 H      20.33600000      20.82800000      14.26100000
 O      11.15500000      10.71000000      18.24900000
 H      10.26500000      10.36000000      17.82300000
 H      11.06600000      10.41100000      19.18800000
 O      13.56000000      11.63000000      12.88400000
 H      13.03300000      12.01000000      13.67000000
 H      13.68800000      10.58700000      13.02800000
 O      17.54400000      16.19200000      12.57900000
 H      17.47400000      15.56700000      13.38300000
 H      18.23200000      15.85200000      12.05100000
 O      15.80400000      21.18700000      12.54500000
 H      16.07800000      20.26700000      12.76600000
 H      16.45600000      21.63000000      13.22500000
 O      18.63500000      14.66600000      19.59100000
 H      19.05800000      15.34700000      20.19000000
 H      19.45200000      14.25700000      19.34200000
 O      15.69500000      14.58600000      19.04300000
 H      15.57600000      15.33600000      19.63600000
 H      16.54900000      14.17600000      19.33000000
 O      21.17100000      19.74100000      20.96000000
 H      20.31300000      20.06700000      21.13800000
 H      21.71400000      20.59000000      20.85500000
 O      11.08200000      16.92000000      20.63600000
 H      10.82500000      15.95400000      20.48900000
 H      11.98500000      17.03700000      20.37200000
 O      15.07800000      16.90900000      11.28600000
 H      14.74600000      17.72900000      11.75200000
 H      15.87800000      16.64400000      11.89600000
 O      11.16300000      18.89800000      17.48600000
 H      11.34400000      17.93100000      17.58800000
 H      11.52900000      19.01800000      16.60800000
 O      13.22800000      11.63900000       9.92300000
 H      12.72400000      12.37400000       9.50400000
 H      12.96900000      11.83400000      10.85100000
 O      19.89600000      20.01700000      15.65600000
 H      19.75900000      19.21400000      16.21700000
 H      19.75100000      20.83200000      16.15300000
 O      12.78900000      21.44700000      19.83100000
 H      12.38800000      20.73600000      20.37800000
 H      12.99600000      22.07000000      20.49200000
 O      11.52200000      17.86900000      14.95600000
 H      11.50600000      16.97800000      14.57900000
 H      10.76100000      18.27300000      14.66100000
 O      16.93300000      11.84300000      14.63200000
 H      17.11200000      11.29700000      15.42500000
 H      16.04100000      11.64000000      14.27100000
 O      14.98400000      13.93200000      12.18500000
 H      14.75300000      12.95700000      12.15500000
 H      14.68000000      14.30700000      11.28800000
 O      19.54300000      12.96500000      15.06200000
 H      19.80700000      13.47200000      14.27400000
 H      18.61700000      12.62700000      15.00000000
 O      13.81500000      16.86400000      20.09200000
 H      13.90000000      17.47300000      19.35100000
 H      14.71800000      16.81000000      20.38000000
