135
XYZ file of cluster: frame_16000_3c37.23e75.755d0 - created by MolEdiTo
 O       5.11500000       6.13900000      19.37000000
 H       5.22800000       7.06600000      19.56300000
 H       5.99500000       5.75800000      19.63300000
 O       7.96400000       8.00500000      22.68400000
 H       7.46400000       8.09200000      21.83600000
 H       7.76600000       8.84500000      23.18500000
 O       6.16500000      15.69700000      19.37900000
 H       6.58100000      16.16000000      20.19200000
 H       6.20400000      14.85100000      19.72400000
 O       2.80300000       8.15500000      25.65300000
 H       1.82400000       8.31000000      25.99700000
 H       3.18400000       9.03200000      25.25900000
 O      10.70200000       6.83400000      20.87900000
 H      10.41300000       7.01100000      21.84300000
 H      11.67400000       6.90300000      20.91800000
 O       2.74400000      14.57300000      25.70800000
 H       2.30500000      14.34700000      26.58300000
 H       3.71600000      14.49000000      25.90500000
 O       5.72300000       8.76800000      20.34600000
 H       5.48000000       8.94700000      21.24000000
 H       6.38900000       9.46100000      20.22900000
 O       0.82100000       6.48400000      22.13000000
 H       1.25800000       5.76900000      21.61300000
 H       0.48500000       7.21400000      21.48700000
 O       3.39400000       5.60200000      24.66900000
 H       2.86100000       5.36000000      23.78300000
 H       3.22800000       6.44600000      24.98400000
 O       8.88300000      12.25500000      24.54800000
 H       8.66400000      13.09100000      25.02400000
 H       8.91000000      12.39900000      23.60300000
 O       8.05500000      16.45100000      25.49200000
 H       8.66800000      16.79300000      26.18100000
 H       8.51100000      15.56400000      25.49100000
 O       8.94700000       9.55600000      25.55000000
 H       8.52800000       9.25400000      26.35900000
 H       8.13100000      10.02500000      25.23200000
 O       2.48300000      10.55900000      17.09600000
 H       2.63400000       9.76600000      16.65100000
 H       2.64800000      10.36100000      18.06700000
 O       3.35600000      12.68100000      23.25700000
 H       3.72300000      12.87600000      24.16100000
 H       4.17300000      12.39900000      22.81700000
 O       3.69600000       8.37000000      22.34200000
 H       3.35100000       7.49500000      22.58800000
 H       3.22000000       8.96100000      22.94300000
 O      10.28500000      15.10800000      17.53300000
 H      10.15200000      15.85200000      18.13500000
 H       9.49800000      14.60300000      17.75800000
 O       0.92800000      13.77400000      23.50200000
 H       1.36500000      14.37200000      24.20000000
 H       1.69200000      13.38500000      23.05000000
 O      11.15500000      10.71000000      18.24900000
 H      10.26500000      10.36000000      17.82300000
 H      11.06600000      10.41100000      19.18800000
 O       7.52600000       6.33100000      25.98400000
 H       8.39200000       6.43000000      26.21000000
 H       6.92600000       6.99200000      26.56800000
 O       6.00200000       5.25200000      23.68300000
 H       6.58100000       5.82800000      24.23600000
 H       5.10400000       5.41900000      24.17900000
 O       5.45800000      14.13700000      26.02000000
 H       6.15700000      14.78200000      26.11400000
 H       5.46200000      13.63500000      26.86300000
 O       9.60400000      15.05200000      23.56600000
 H       9.42800000      16.03000000      23.67600000
 H      10.59900000      14.99100000      23.47500000
 O       2.33700000      13.26300000      17.78900000
 H       1.96700000      13.87700000      17.12300000
 H       2.05200000      12.37700000      17.41500000
 O       5.58400000       9.78400000      16.91000000
 H       5.28900000      10.77000000      17.06800000
 H       4.95900000       9.26200000      16.34300000
 O       8.44600000       9.21400000      19.76000000
 H       8.65900000       9.58400000      18.87400000
 H       8.22400000       8.42700000      19.35300000
 O       8.77600000      10.23200000      16.95400000
 H       7.87800000      10.23400000      16.50500000
 H       9.31400000      10.44600000      16.13600000
 O       7.94400000       7.44700000      17.17000000
 H       7.39200000       7.09500000      16.43800000
 H       8.42000000       8.23200000      16.81500000
 O       8.26200000       5.72600000      19.49900000
 H       8.40700000       5.84700000      18.54700000
 H       8.95900000       6.16400000      19.99500000
 O       9.26600000       5.39800000      23.52200000
 H       8.87900000       6.31600000      23.39000000
 H       9.31300000       5.38300000      24.51900000
 O       2.21200000       7.71800000      18.67000000
 H       1.47500000       7.45400000      19.22300000
 H       2.74800000       6.90200000      18.54600000
 O       2.41900000      10.09700000      23.88300000
 H       2.64200000      11.04700000      23.82600000
 H       1.47000000      10.17100000      23.63600000
 O       3.16700000       4.81200000      21.02100000
 H       2.87600000       4.66300000      20.08200000
 H       3.97500000       5.32900000      20.88600000
 O       3.12900000      10.62300000      19.91100000
 H       2.44300000      10.85200000      20.56000000
 H       3.31500000       9.70500000      20.11700000
 O       1.57400000      15.64700000      16.02700000
 H       1.03800000      16.01300000      15.25900000
 H       1.84900000      16.37500000      16.56100000
 O       3.60200000      14.12200000      20.43000000
 H       3.15500000      13.30400000      20.18800000
 H       2.89200000      14.64700000      20.77000000
 O      10.68700000       8.60900000      23.78700000
 H      11.47600000       8.92400000      24.26100000
 H      10.07700000       8.54500000      24.56100000
 O       7.56600000      13.91500000      17.54400000
 H       7.25200000      14.91200000      17.72700000
 H       6.84200000      13.33800000      17.88200000
 O       6.01100000      11.85800000      22.47700000
 H       6.91700000      12.07000000      22.05500000
 H       6.17800000      11.28200000      23.26100000
 O       8.51500000      12.21600000      21.29100000
 H       8.84400000      12.98000000      20.83200000
 H       9.02500000      11.40400000      20.97300000
 O       8.90400000      15.18900000      20.81200000
 H       8.88500000      16.14400000      21.01500000
 H       9.08200000      14.69100000      21.66800000
 O       4.99900000      12.62800000      18.20700000
 H       4.74000000      12.13500000      19.04000000
 H       4.18500000      13.04300000      17.87200000
 O       6.54100000       9.99200000      24.40200000
 H       6.13200000       9.04500000      24.52800000
 H       6.05500000      10.36100000      25.23800000
 O       4.61700000      14.70600000      16.16800000
 H       3.92100000      15.12300000      16.76900000
 H       5.02200000      13.94600000      16.66700000
 O      10.72900000      10.06900000      21.12100000
 H      10.03400000       9.38400000      20.98600000
 H      11.06600000       9.85600000      22.02700000
 O       5.53700000      14.82700000      22.62500000
 H       4.89200000      14.82800000      21.91100000
 H       5.65300000      13.88600000      22.70400000
