117
XYZ file of cluster: frame_16000_4baff.9ec26.0 - created by MolEdiTo
 O      12.80300000      21.42600000       2.96800000
 H      11.97900000      21.02600000       3.44300000
 H      12.99900000      22.37300000       3.23500000
 O      15.86000000      30.07000000       8.66500000
 H      16.69600000      29.55000000       8.93900000
 H      15.17800000      29.32200000       8.34700000
 O      20.31800000      24.88400000      10.94200000
 H      20.75400000      24.90700000      10.04800000
 H      20.98200000      25.26500000      11.60400000
 O      16.30900000      23.80800000       2.17800000
 H      15.84100000      24.61200000       2.53100000
 H      17.00000000      24.28600000       1.67600000
 O      14.33200000      30.08500000       5.67700000
 H      15.16200000      30.49900000       5.92900000
 H      14.40000000      29.82700000       4.73100000
 O      13.69300000      28.36400000       8.86900000
 H      13.64100000      27.33400000       8.84400000
 H      12.96600000      28.65300000       8.24000000
 O      13.69700000      23.47400000       5.54700000
 H      13.11400000      24.05400000       5.98800000
 H      14.59800000      23.90900000       5.66800000
 O      11.25200000      30.21500000       1.31100000
 H      10.28100000      30.11600000       1.06000000
 H      11.37300000      30.93800000       1.94100000
 O      17.48100000      21.63100000       8.00700000
 H      16.84200000      21.00000000       8.37200000
 H      17.17800000      22.41100000       8.53800000
 O      17.37300000      29.91500000       5.41900000
 H      17.62000000      29.33100000       4.61600000
 H      17.22100000      30.77200000       4.96100000
 O      17.65900000      27.16700000       6.93700000
 H      18.24800000      27.85500000       6.52100000
 H      16.82800000      27.64000000       7.33200000
 O      16.85500000      28.14800000       2.78900000
 H      17.24900000      27.40400000       2.20900000
 H      16.30400000      27.56100000       3.37500000
 O      18.87400000      24.34700000       4.93000000
 H      18.89800000      25.23800000       5.45700000
 H      19.84500000      24.10300000       4.98300000
 O      20.03500000      27.96600000       1.44300000
 H      20.17000000      28.94500000       1.28100000
 H      20.09900000      28.08300000       2.39100000
 O      16.35200000      24.38800000       5.74400000
 H      17.33300000      24.35000000       5.45600000
 H      16.33800000      24.20700000       6.72500000
 O      12.64200000      30.85900000       7.87300000
 H      13.10100000      30.23000000       7.20400000
 H      13.15800000      31.70800000       7.68900000
 O      10.47100000      25.13200000       8.62200000
 H      10.57800000      25.47100000       9.56300000
 H       9.75400000      24.44700000       8.77200000
 O      12.42500000      24.51800000       2.60100000
 H      12.43400000      25.06800000       3.41000000
 H      12.79000000      25.19700000       1.95700000
 O      13.64200000      25.65400000       8.86500000
 H      14.17500000      24.85900000       9.05400000
 H      12.84700000      25.17900000       8.55000000
 O      15.39000000      23.78100000      10.83900000
 H      15.72200000      22.85100000      10.94900000
 H      16.16800000      24.10500000      10.25300000
 O      20.46900000      21.70500000       8.01200000
 H      19.97700000      21.12900000       8.57900000
 H      19.67600000      22.16700000       7.62400000
 O      15.75900000      21.46000000       2.97200000
 H      14.79500000      21.47100000       3.01500000
 H      16.04000000      22.37900000       2.76100000
 O      10.70600000      22.86100000       5.16600000
 H      10.00400000      22.47100000       4.59300000
 H      10.87600000      22.16600000       5.84500000
 O      18.55700000      21.60700000       4.07800000
 H      18.55700000      22.35600000       4.72200000
 H      17.63500000      21.58400000       3.62000000
 O      10.04700000      23.39300000       2.01000000
 H      10.73300000      24.12300000       2.19100000
 H      10.16000000      22.91700000       2.81100000
 O      13.10400000      30.03600000      11.11000000
 H      12.84500000      29.63500000      10.19900000
 H      13.55200000      29.34100000      11.62300000
 O      20.22400000      29.86700000       9.15900000
 H      20.37900000      29.38300000       8.28200000
 H      21.11700000      30.03200000       9.49800000
 O      10.71000000      28.27300000       6.09000000
 H      10.47200000      27.71400000       5.27400000
 H       9.91500000      28.77500000       6.44200000
 O      20.92900000      29.33500000       3.83400000
 H      21.84500000      29.55000000       4.13200000
 H      20.44900000      30.18100000       4.02600000
 O      13.90800000      28.66900000       3.36500000
 H      14.26300000      28.96100000       2.55000000
 H      12.88300000      29.00100000       3.46500000
 O      15.28900000      25.98900000       3.74000000
 H      14.56500000      26.64300000       3.94700000
 H      15.47400000      25.55300000       4.62100000
 O      17.91100000      28.35600000       9.67500000
 H      18.13300000      28.07500000      10.61900000
 H      18.61600000      29.04200000       9.52800000
 O      12.62500000      22.85300000       8.46600000
 H      13.18500000      22.46000000       9.22200000
 H      12.79900000      22.26300000       7.72300000
 O      13.27700000      26.24500000       0.94800000
 H      13.96800000      26.89000000       1.13300000
 H      13.24100000      26.37400000       0.00000000
 O      20.18500000      25.07700000       7.97800000
 H      20.18700000      26.02500000       7.73300000
 H      20.74500000      24.61300000       7.31900000
 O      11.67100000      25.30600000       5.60500000
 H      11.40300000      25.50400000       6.53200000
 H      11.25300000      24.42800000       5.46500000
 O      16.95700000      24.96500000       8.53100000
 H      17.17700000      25.96400000       8.43500000
 H      17.90200000      24.64400000       8.50200000
 O      21.14600000      28.34100000       6.87200000
 H      20.90400000      28.95600000       6.15900000
 H      21.73900000      27.65100000       6.39000000
 O      13.38600000      21.01800000       6.38500000
 H      13.81400000      21.68300000       5.81200000
 H      12.69200000      20.61900000       5.84800000
