108
XYZ file of cluster: frame_16000_c54dc.9beb0.3626 - created by MolEdiTo
 O      30.11800000      26.44600000      11.14000000
 H      29.99700000      27.29200000      10.54300000
 H      29.64700000      26.70900000      11.93400000
 O      27.37000000      24.12300000       7.67600000
 H      27.91600000      23.44700000       7.07900000
 H      26.40800000      23.91100000       7.44900000
 O      27.07100000      24.87700000       3.50400000
 H      27.85200000      24.93200000       4.17700000
 H      27.53800000      24.25500000       2.86200000
 O      27.09900000      29.39600000       9.40200000
 H      26.21600000      29.40500000       9.81900000
 H      27.12200000      30.21800000       8.88400000
 O      29.31000000      28.70600000       4.26300000
 H      29.41700000      29.28500000       3.45700000
 H      28.65400000      28.05700000       4.02400000
 O      27.92400000      25.65500000       9.73300000
 H      28.80800000      25.27400000       9.98300000
 H      27.72300000      25.39800000       8.87900000
 O      27.31600000      28.01100000       7.12300000
 H      27.98800000      28.68000000       7.22300000
 H      27.08100000      28.03300000       8.08900000
 O      30.75800000      27.79700000       8.48700000
 H      30.36000000      27.38100000       7.74300000
 H      31.11200000      27.06200000       9.00100000
 O      28.46600000      22.39500000       3.01100000
 H      29.23600000      22.78600000       2.45200000
 H      28.77100000      21.51600000       3.20600000
 O      29.39500000      25.96200000       6.81900000
 H      28.61600000      26.52000000       6.85200000
 H      29.09700000      25.03900000       6.93000000
 O      25.42700000      29.42100000       2.32400000
 H      25.56000000      29.89300000       1.44600000
 H      26.30600000      29.65500000       2.78000000
 O      30.00900000      24.13200000       1.22600000
 H      29.14700000      24.61900000       1.26000000
 H      30.58500000      24.47500000       0.52200000
 O      28.79800000      22.62100000       5.82200000
 H      29.60800000      22.17500000       5.40000000
 H      28.06500000      22.47200000       5.23100000
 O      28.88800000      30.32600000       6.66400000
 H      29.75300000      30.31300000       7.21900000
 H      29.20600000      29.86300000       5.80100000
 O      30.22000000      23.42200000       8.94700000
 H      30.70500000      22.58600000       9.22500000
 H      29.29500000      23.06000000       8.98600000
 O      27.21100000      21.85500000      10.62600000
 H      26.72100000      22.68000000      10.55200000
 H      27.15600000      21.34600000       9.78800000
 O      26.11800000      20.65300000       2.38800000
 H      25.97500000      20.42300000       3.34200000
 H      26.92900000      21.24200000       2.54200000
 O      30.30000000      29.73400000       1.09500000
 H      31.03100000      29.59100000       1.77800000
 H      30.77000000      30.18300000       0.44000000
 O      36.54300000      24.45500000       3.61500000
 H      36.86400000      23.71500000       3.04900000
 H      35.60300000      24.32200000       3.59600000
 O      32.43300000      21.27200000       4.24400000
 H      33.26000000      21.44800000       4.70200000
 H      32.45700000      20.25000000       4.13300000
 O      34.10400000      24.85600000       9.23400000
 H      33.17500000      24.47000000       9.29800000
 H      34.16400000      25.32600000      10.06200000
 O      33.30500000      27.52100000       4.78500000
 H      32.49100000      27.81000000       5.17800000
 H      33.92500000      27.19500000       5.44000000
 O      33.73000000      24.93800000       3.80100000
 H      33.17400000      25.72200000       3.56700000
 H      33.66500000      24.94600000       4.83100000
 O      34.99300000      21.55800000       5.44500000
 H      35.94900000      21.42200000       5.39300000
 H      35.04400000      22.22700000       6.15000000
 O      36.09600000      23.25400000       7.87500000
 H      35.39700000      23.87100000       8.06500000
 H      36.39800000      22.86400000       8.65700000
 O      35.85400000      29.33400000       9.37100000
 H      35.91000000      30.06700000      10.05700000
 H      36.28300000      29.76100000       8.56700000
 O      35.71500000      26.98100000       2.51900000
 H      35.78600000      27.46300000       3.32100000
 H      36.19700000      26.11400000       2.61700000
 O      33.85400000      23.09000000      11.44300000
 H      34.09800000      22.17000000      11.60800000
 H      34.28500000      23.06000000      10.57800000
 O      35.14700000      29.59600000       6.28300000
 H      35.43900000      28.71600000       6.44700000
 H      35.88600000      30.19100000       6.65400000
 O      32.95200000      23.80200000       6.58900000
 H      32.24400000      23.14500000       6.27600000
 H      32.44000000      24.48000000       7.07800000
 O      37.26000000      22.22300000       2.02400000
 H      36.25600000      22.06800000       2.11100000
 H      37.69100000      21.30900000       1.85500000
 O      32.81200000      30.63700000       4.91500000
 H      33.47500000      30.22100000       5.53500000
 H      33.46700000      30.44300000       4.16900000
 O      34.34900000      22.36900000       2.33200000
 H      33.52900000      21.81600000       2.34600000
 H      34.00400000      23.22800000       2.36100000
 O      34.78500000      26.66600000       6.91600000
 H      34.68700000      25.78100000       7.27600000
 H      34.84400000      27.09800000       7.79800000
 O      33.20700000      30.45900000       8.52900000
 H      32.67400000      29.63200000       8.49100000
 H      33.68400000      30.26900000       9.38100000
 O      34.09500000      29.29300000       2.86900000
 H      34.57200000      28.76900000       2.20200000
 H      33.87000000      28.58100000       3.54200000
