114
XYZ file of cluster: frame_16000_c9132.c0cab.2010c - created by MolEdiTo
 O      30.11800000      26.44600000      11.14000000
 H      29.99700000      27.29200000      10.54300000
 H      29.64700000      26.70900000      11.93400000
 O      27.09900000      29.39600000       9.40200000
 H      26.21600000      29.40500000       9.81900000
 H      27.12200000      30.21800000       8.88400000
 O      27.31600000      28.01100000       7.12300000
 H      27.98800000      28.68000000       7.22300000
 H      27.08100000      28.03300000       8.08900000
 O      30.75800000      27.79700000       8.48700000
 H      30.36000000      27.38100000       7.74300000
 H      31.11200000      27.06200000       9.00100000
 O      29.39500000      25.96200000       6.81900000
 H      28.61600000      26.52000000       6.85200000
 H      29.09700000      25.03900000       6.93000000
 O      28.88800000      30.32600000       6.66400000
 H      29.75300000      30.31300000       7.21900000
 H      29.20600000      29.86300000       5.80100000
 O      30.33200000      30.17500000      16.39600000
 H      30.10900000      31.12500000      16.49800000
 H      29.76000000      29.92400000      15.61400000
 O      25.97300000      26.11600000      13.74300000
 H      26.77600000      26.63100000      13.44800000
 H      26.12900000      25.89700000      14.66600000
 O      28.00700000      29.45400000      14.75700000
 H      27.24400000      29.05100000      15.26200000
 H      27.77300000      30.42100000      14.54600000
 O      28.31100000      27.22800000      13.15700000
 H      28.39300000      27.68500000      14.05700000
 H      28.34300000      28.00100000      12.61100000
 O      29.16600000      29.96700000      11.46600000
 H      28.56100000      30.03400000      10.64200000
 H      28.54800000      30.35100000      12.23800000
 O      30.05400000      27.13800000      15.46800000
 H      29.77000000      27.92300000      16.02200000
 H      29.46500000      26.46200000      15.86400000
 O      30.47000000      37.70500000       9.65200000
 H      29.88100000      37.74600000       8.82500000
 H      30.82800000      36.78800000       9.60900000
 O      30.28700000      35.10000000       5.72600000
 H      29.91500000      35.57300000       6.47900000
 H      30.12500000      34.15900000       5.89700000
 O      27.99100000      33.98000000      13.36800000
 H      27.03500000      34.05900000      13.26500000
 H      28.39100000      34.94400000      13.39000000
 O      27.58300000      34.98900000       8.89300000
 H      27.61200000      34.99100000       9.88400000
 H      27.55000000      35.94300000       8.64000000
 O      26.55800000      33.59500000       5.62100000
 H      26.49800000      34.12800000       6.44000000
 H      27.28800000      32.93800000       5.95500000
 O      27.74600000      36.74300000      15.88600000
 H      26.79100000      36.64700000      15.65400000
 H      28.21700000      36.60000000      15.04000000
 O      26.59400000      36.81400000      11.52000000
 H      26.19400000      37.02600000      10.62300000
 H      25.91300000      36.23300000      12.01700000
 O      29.31400000      36.58200000      13.18500000
 H      28.92500000      36.90400000      12.32900000
 H      30.19700000      36.32200000      12.93300000
 O      34.40200000      29.93100000      14.89700000
 H      33.96800000      29.23800000      14.29300000
 H      34.45800000      29.62100000      15.83000000
 O      34.78500000      26.75400000      11.23000000
 H      34.92600000      27.66900000      10.93900000
 H      33.92800000      26.77600000      11.62700000
 O      33.16000000      27.97900000      13.49400000
 H      32.42900000      27.75500000      14.17600000
 H      33.96800000      27.42900000      13.72300000
 O      33.30500000      27.52100000       4.78500000
 H      32.49100000      27.81000000       5.17800000
 H      33.92500000      27.19500000       5.44000000
 O      33.39500000      30.28500000      11.62600000
 H      33.36600000      29.51200000      12.23000000
 H      32.41300000      30.24700000      11.27400000
 O      35.85400000      29.33400000       9.37100000
 H      35.91000000      30.06700000      10.05700000
 H      36.28300000      29.76100000       8.56700000
 O      32.81200000      30.63700000       4.91500000
 H      33.47500000      30.22100000       5.53500000
 H      33.46700000      30.44300000       4.16900000
 O      35.14700000      29.59600000       6.28300000
 H      35.43900000      28.71600000       6.44700000
 H      35.88600000      30.19100000       6.65400000
 O      34.78500000      26.66600000       6.91600000
 H      34.68700000      25.78100000       7.27600000
 H      34.84400000      27.09800000       7.79800000
 O      35.67600000      27.32900000      14.95300000
 H      36.19300000      27.99800000      15.39200000
 H      35.37200000      26.75100000      15.69200000
 O      33.20700000      30.45900000       8.52900000
 H      32.67400000      29.63200000       8.49100000
 H      33.68400000      30.26900000       9.38100000
 O      35.93100000      35.46900000       5.82500000
 H      36.78700000      35.42400000       5.26600000
 H      35.17300000      35.26500000       5.15300000
 O      33.11000000      34.14900000      14.56300000
 H      32.20500000      33.99600000      14.95300000
 H      33.32300000      33.17400000      14.51700000
 O      36.32400000      34.28000000      14.59800000
 H      35.34500000      34.08200000      14.63600000
 H      36.78400000      33.45700000      14.38700000
 O      36.31100000      33.36500000      11.22100000
 H      35.36200000      33.23500000      11.27800000
 H      36.59700000      32.79200000      11.96200000
 O      33.26700000      35.76200000      12.56200000
 H      34.11000000      35.31700000      12.50800000
 H      32.88700000      35.22100000      13.28700000
 O      35.00600000      36.47000000       9.99700000
 H      34.92500000      35.64300000       9.52800000
 H      34.05600000      36.63300000      10.33400000
 O      32.40700000      35.01400000       9.04900000
 H      31.46300000      34.79100000       9.13200000
 H      32.80200000      34.18700000       8.60600000
