157
XYZ file of cluster: frame_16000_25f5c.22a40.68ef1 - created by MolEdiTo
 O      11.90600000      14.10800000      19.75700000
 H      12.38200000      14.88900000      19.51600000
 H      11.88000000      13.63800000      18.92900000
 O      15.64600000       8.74000000      21.19200000
 H      14.92300000       8.37100000      21.68900000
 H      15.17800000       9.52300000      20.81700000
 O       5.11500000       6.13900000      19.37000000
 H       5.22800000       7.06600000      19.56300000
 H       5.99500000       5.75800000      19.63300000
 O      13.83800000       9.96400000      15.65500000
 H      14.26300000       9.46600000      14.94500000
 H      13.64600000       9.28000000      16.29200000
 O      12.52200000      12.38300000      16.45400000
 H      11.76900000      11.89300000      17.01100000
 H      13.09000000      11.63500000      16.05500000
 O      11.88800000       5.45600000      24.16700000
 H      11.95300000       4.49900000      24.13300000
 H      10.98500000       5.57700000      23.68200000
 O      15.05700000      11.15800000      18.38000000
 H      14.84600000      12.05800000      18.71700000
 H      15.92700000      11.17000000      17.98500000
 O       7.96400000       8.00500000      22.68400000
 H       7.46400000       8.09200000      21.83600000
 H       7.76600000       8.84500000      23.18500000
 O       6.16500000      15.69700000      19.37900000
 H       6.58100000      16.16000000      20.19200000
 H       6.20400000      14.85100000      19.72400000
 O      10.70200000       6.83400000      20.87900000
 H      10.41300000       7.01100000      21.84300000
 H      11.67400000       6.90300000      20.91800000
 O      14.04500000      10.94400000      21.35600000
 H      14.86800000      11.49500000      21.60900000
 H      13.61300000      11.35500000      20.57700000
 O      12.36200000      14.22200000      22.75600000
 H      12.04000000      13.43300000      23.15500000
 H      12.53900000      14.01500000      21.80200000
 O       5.72300000       8.76800000      20.34600000
 H       5.48000000       8.94700000      21.24000000
 H       6.38900000       9.46100000      20.22900000
 O       8.88300000      12.25500000      24.54800000
 H       8.66400000      13.09100000      25.02400000
 H       8.91000000      12.39900000      23.60300000
 C      14.20800000      16.10100000      16.55700000
 C      15.04300000      15.74700000      15.29500000
 C      17.33600000      16.61100000      16.13600000
 H      16.39800000      14.66500000      16.69400000
 H      13.16800000      14.60800000      16.08300000
 O      17.23700000      14.52100000      14.75800000
 O      14.32900000      17.19700000      17.12700000
 O      13.38600000      15.09100000      16.89700000
 C      16.50100000      15.34000000      15.75600000
 O      14.50300000      14.62100000      14.59600000
 H      15.07000000      16.68600000      14.67900000
 O      17.01000000      17.79300000      16.02600000
 O      18.59100000      16.27500000      16.50300000
 H      18.56900000      15.36100000      16.31100000
 H      14.84900000      14.55800000      13.64300000
 H      16.82100000      13.65200000      14.60100000
 O      12.65900000       7.52500000      16.08100000
 H      12.39500000       7.92000000      15.26900000
 H      12.20400000       6.63700000      15.97400000
 O      13.52300000       6.72600000      20.66600000
 H      13.40100000       7.56100000      20.11800000
 H      13.60100000       6.14700000      19.91800000
 O      11.57400000      11.71900000      24.85900000
 H      11.88900000      10.82100000      24.61000000
 H      10.61300000      11.70200000      24.78200000
 O       8.05500000      16.45100000      25.49200000
 H       8.66800000      16.79300000      26.18100000
 H       8.51100000      15.56400000      25.49100000
 O       8.94700000       9.55600000      25.55000000
 H       8.52800000       9.25400000      26.35900000
 H       8.13100000      10.02500000      25.23200000
 O      11.78300000       5.19200000      18.55500000
 H      11.20500000       4.80500000      17.92800000
 H      11.17600000       5.61600000      19.17800000
 O      13.21700000       9.10900000      25.15600000
 H      13.16100000       8.22600000      25.55600000
 H      13.98000000       9.06500000      24.53200000
 O      11.42400000      14.41100000      25.93800000
 H      11.67800000      14.99100000      25.20000000
 H      11.94600000      13.55300000      25.87000000
 O      10.28500000      15.10800000      17.53300000
 H      10.15200000      15.85200000      18.13500000
 H       9.49800000      14.60300000      17.75800000
 O      14.54700000      13.45200000      25.59000000
 H      15.16400000      13.52700000      24.79100000
 H      14.26000000      12.49900000      25.64900000
 O      11.15500000      10.71000000      18.24900000
 H      10.26500000      10.36000000      17.82300000
 H      11.06600000      10.41100000      19.18800000
 O       7.52600000       6.33100000      25.98400000
 H       8.39200000       6.43000000      26.21000000
 H       6.92600000       6.99200000      26.56800000
 O       5.58400000       9.78400000      16.91000000
 H       5.28900000      10.77000000      17.06800000
 H       4.95900000       9.26200000      16.34300000
 O       5.45800000      14.13700000      26.02000000
 H       6.15700000      14.78200000      26.11400000
 H       5.46200000      13.63500000      26.86300000
 O       9.60400000      15.05200000      23.56600000
 H       9.42800000      16.03000000      23.67600000
 H      10.59900000      14.99100000      23.47500000
 O       6.00200000       5.25200000      23.68300000
 H       6.58100000       5.82800000      24.23600000
 H       5.10400000       5.41900000      24.17900000
 O      15.69500000      14.58600000      19.04300000
 H      15.57600000      15.33600000      19.63600000
 H      16.54900000      14.17600000      19.33000000
 O       8.44600000       9.21400000      19.76000000
 H       8.65900000       9.58400000      18.87400000
 H       8.22400000       8.42700000      19.35300000
 O      13.93100000       8.37900000      18.53600000
 H      13.67400000       9.31400000      18.43700000
 H      13.43200000       8.00100000      17.77000000
 O       8.77600000      10.23200000      16.95400000
 H       7.87800000      10.23400000      16.50500000
 H       9.31400000      10.44600000      16.13600000
 O       7.94400000       7.44700000      17.17000000
 H       7.39200000       7.09500000      16.43800000
 H       8.42000000       8.23200000      16.81500000
 O       8.26200000       5.72600000      19.49900000
 H       8.40700000       5.84700000      18.54700000
 H       8.95900000       6.16400000      19.99500000
 O       9.26600000       5.39800000      23.52200000
 H       8.87900000       6.31600000      23.39000000
 H       9.31300000       5.38300000      24.51900000
 O      13.92800000      16.27000000      26.82300000
 H      14.04900000      15.57100000      26.16200000
 H      13.00600000      16.60600000      26.64300000
 O      10.68700000       8.60900000      23.78700000
 H      11.47600000       8.92400000      24.26100000
 H      10.07700000       8.54500000      24.56100000
 O       7.56600000      13.91500000      17.54400000
 H       7.25200000      14.91200000      17.72700000
 H       6.84200000      13.33800000      17.88200000
 O       6.01100000      11.85800000      22.47700000
 H       6.91700000      12.07000000      22.05500000
 H       6.17800000      11.28200000      23.26100000
 O       8.51500000      12.21600000      21.29100000
 H       8.84400000      12.98000000      20.83200000
 H       9.02500000      11.40400000      20.97300000
 O      13.39700000       6.64200000      26.11300000
 H      13.13500000       6.14000000      25.27500000
 H      14.05300000       6.14400000      26.52400000
 O       8.90400000      15.18900000      20.81200000
 H       8.88500000      16.14400000      21.01500000
 H       9.08200000      14.69100000      21.66800000
 O       6.54100000       9.99200000      24.40200000
 H       6.13200000       9.04500000      24.52800000
 H       6.05500000      10.36100000      25.23800000
 O      10.72900000      10.06900000      21.12100000
 H      10.03400000       9.38400000      20.98600000
 H      11.06600000       9.85600000      22.02700000
 O       5.53700000      14.82700000      22.62500000
 H       4.89200000      14.82800000      21.91100000
 H       5.65300000      13.88600000      22.70400000
