36
XYZ file of cluster: frame_17000_9cb5a.9fb4c.40f10 - created by MolEdiTo
 O      18.56400000      18.13700000       7.89200000
 H      18.40300000      18.06600000       6.97800000
 H      19.58400000      17.85800000       7.98000000
 O      16.01000000      15.79000000      11.07000000
 H      16.77000000      16.27300000      11.32700000
 H      15.98200000      15.95200000      10.09100000
 O      15.46600000      15.96100000       8.27100000
 H      15.42900000      14.99600000       8.54300000
 H      15.73500000      15.86200000       7.31200000
 O      18.23400000      17.18000000      11.48300000
 H      18.79000000      16.69600000      10.76400000
 H      18.74100000      17.26800000      12.35600000
 O      19.88300000      17.47800000      13.56100000
 H      20.31900000      17.02800000      14.36100000
 H      20.63400000      17.86200000      13.03100000
 O      18.03300000      20.30800000       6.07200000
 H      17.78500000      20.40100000       7.03300000
 H      17.19400000      20.22300000       5.56100000
 O      17.70600000      14.10000000      12.99000000
 H      16.84300000      14.46500000      12.61300000
 H      18.09700000      13.82100000      12.11700000
 O      19.04900000      14.42800000      10.40100000
 H      19.86100000      14.94600000      10.52500000
 H      19.26000000      14.14400000       9.45200000
 O      14.39800000      15.31600000      13.69800000
 H      15.00200000      15.93900000      13.16600000
 H      14.24300000      15.87600000      14.49500000
 O      18.24800000      19.93800000      11.51800000
 H      18.18700000      18.94100000      11.75100000
 H      17.70200000      20.43600000      12.14400000
 O      15.55500000      19.06600000       8.53800000
 H      14.81800000      18.60200000       8.15900000
 H      16.36400000      18.51100000       8.29900000
 O      14.67700000      18.17900000      13.12000000
 H      14.37000000      18.12600000      14.04200000
 H      13.83000000      18.36100000      12.54300000
