48
XYZ file of cluster: frame_17000_48423.18c06.3332 - created by MolEdiTo
 O      14.55100000       7.07400000       1.47200000
 H      14.05100000       6.51100000       2.10300000
 H      14.82300000       6.39600000       0.85800000
 O       8.16700000       6.15800000       1.80800000
 H       7.30700000       6.41900000       1.55700000
 H       8.62500000       6.58900000       1.05200000
 O      13.19300000       7.60600000       7.68700000
 H      12.28600000       7.34200000       7.97900000
 H      13.00300000       7.96100000       6.74800000
 O       9.70000000      10.42400000       3.98400000
 H       9.40100000       9.68900000       4.60900000
 H      10.39300000      10.09900000       3.39900000
 O      10.96300000       5.92000000       7.48800000
 H      11.49900000       5.41300000       6.74700000
 H      10.44700000       6.65000000       7.01100000
 O       8.63800000       2.76300000       0.57000000
 H       8.72400000       3.68300000       1.00600000
 H       7.92100000       2.14200000       1.01500000
 O      12.68100000       4.26200000       5.91000000
 H      12.35300000       3.44800000       5.44800000
 H      13.39200000       4.55100000       5.37100000
 O       7.83800000       2.99400000       3.87600000
 H       7.99100000       2.42400000       4.66900000
 H       8.59100000       3.55900000       3.83500000
 O       9.58100000       5.17000000       3.93000000
 H       9.13700000       5.27000000       3.05800000
 H       9.35300000       5.96100000       4.41900000
 O      11.75600000       8.44100000       2.32700000
 H      12.28400000       9.08200000       1.76000000
 H      11.09400000       8.29200000       1.66100000
 O      11.33100000       7.89200000       4.93900000
 H      10.39300000       8.03600000       4.77300000
 H      11.74300000       8.18000000       4.06800000
 O      13.29800000      11.30800000       6.89700000
 H      13.03600000      11.71600000       6.05400000
 H      13.62600000      10.41900000       6.66100000
 O      12.40500000       5.40200000       3.17700000
 H      11.63600000       4.85100000       3.03300000
 H      12.07500000       5.96700000       3.92100000
 O       9.03700000       8.87300000       1.05000000
 H       8.73400000       8.38400000       0.27400000
 H       8.30700000       9.58600000       1.22500000
 O       6.37700000      10.91000000       4.98800000
 H       6.74000000      11.29100000       5.82100000
 H       7.19700000      10.43600000       4.71800000
 O       8.59600000       7.81100000       4.73400000
 H       8.00700000       7.06400000       5.10800000
 H       8.06000000       8.23000000       4.01000000
