45
XYZ file of cluster: frame_17000_bed9b.9ccb4.6e617 - created by MolEdiTo
 O      18.31300000      15.16100000      15.56400000
 H      17.94300000      14.77800000      14.75600000
 H      18.22200000      16.11800000      15.33000000
 O      19.05700000      19.34300000      15.96400000
 H      18.30900000      19.93900000      16.00000000
 H      18.66700000      18.54800000      16.44600000
 O      18.23400000      17.18000000      11.48300000
 H      18.79000000      16.69600000      10.76400000
 H      18.74100000      17.26800000      12.35600000
 O      19.88300000      17.47800000      13.56100000
 H      20.31900000      17.02800000      14.36100000
 H      20.63400000      17.86200000      13.03100000
 O      19.36300000      14.66800000      17.92600000
 H      19.27500000      14.73700000      16.93900000
 H      18.64200000      15.29300000      18.26600000
 O      19.04900000      14.42800000      10.40100000
 H      19.86100000      14.94600000      10.52500000
 H      19.26000000      14.14400000       9.45200000
 O      17.70600000      14.10000000      12.99000000
 H      16.84300000      14.46500000      12.61300000
 H      18.09700000      13.82100000      12.11700000
 O      18.24800000      19.93800000      11.51800000
 H      18.18700000      18.94100000      11.75100000
 H      17.70200000      20.43600000      12.14400000
 O      25.21200000      15.75100000      13.43300000
 H      24.26800000      15.71800000      13.70400000
 H      25.24300000      16.29500000      12.58600000
 O      22.74000000      15.89500000      15.17100000
 H      23.29500000      15.49700000      15.87600000
 H      22.28400000      15.18700000      14.69500000
 O      24.03900000      14.30900000      16.73700000
 H      24.91500000      13.92300000      16.31800000
 H      24.06300000      13.56900000      17.35100000
 O      22.76400000      16.43800000      10.84500000
 H      23.60000000      16.06700000      10.49900000
 H      22.34400000      16.88400000      10.06700000
 O      22.56400000      19.46700000      11.72600000
 H      21.64000000      19.54600000      12.05200000
 H      22.42400000      19.66600000      10.72300000
 O      25.45000000      18.13200000      11.77300000
 H      24.68300000      18.53500000      11.36600000
 H      26.23400000      18.36000000      11.14900000
 O      23.72200000      18.26700000      17.18700000
 H      24.62400000      17.88300000      16.97000000
 H      23.09800000      17.60100000      16.74400000
