42
XYZ file of cluster: frame_17000_110b.9d4d7.4ecaa - created by MolEdiTo
 O       1.84300000      14.12800000       9.00300000
 H       2.74100000      13.79900000       9.15100000
 H       1.70700000      14.20200000       8.03200000
 O       7.12100000      15.03300000       7.81500000
 H       6.74200000      15.44300000       8.56800000
 H       6.84900000      14.09400000       7.90600000
 O       3.66600000      15.75100000      13.43300000
 H       2.72200000      15.71800000      13.70400000
 H       3.69700000      16.29500000      12.58600000
 O       1.39400000      17.56300000       7.72500000
 H       1.57100000      18.51800000       7.59800000
 H       1.43500000      17.09600000       6.80800000
 O       1.21800000      16.43800000      10.84500000
 H       2.05400000      16.06700000      10.49900000
 H       0.79800000      16.88400000      10.06700000
 O       6.05600000      15.71700000      10.51100000
 H       6.32600000      16.66300000      10.77600000
 H       5.13500000      15.75000000      10.14300000
 O       1.01800000      19.46700000      11.72600000
 H       0.09400000      19.54600000      12.05200000
 H       0.87800000      19.66600000      10.72300000
 O       3.90400000      18.13200000      11.77300000
 H       3.13700000      18.53500000      11.36600000
 H       4.68800000      18.36000000      11.14900000
 O       6.18200000      13.91800000      12.67900000
 H       7.11500000      13.61300000      12.72400000
 H       6.06700000      14.60300000      11.93400000
 O       4.10500000      16.58600000       8.65400000
 H       4.47700000      17.24300000       8.00700000
 H       3.20200000      16.46200000       8.29100000
 O       6.11900000      17.29000000      13.87400000
 H       5.24100000      17.27500000      13.38300000
 H       6.23300000      16.32600000      14.07700000
 O       2.30700000      19.72500000       8.97300000
 H       2.09200000      20.03800000       8.02100000
 H       2.49200000      20.57100000       9.48000000
 O       6.39000000      18.49900000      10.06700000
 H       6.49700000      19.45700000      10.14700000
 H       7.27400000      18.16600000      10.15700000
 O       4.80300000      19.22300000       7.31200000
 H       4.65000000      19.54500000       8.19000000
 H       4.26300000      19.84500000       6.74700000
