42
XYZ file of cluster: frame_17000_7c137.94472.40f10 - created by MolEdiTo
 O      12.26000000      19.31800000      11.87200000
 H      12.75300000      19.84500000      11.16400000
 H      12.08300000      18.56800000      11.23500000
 O      12.85500000      16.49200000      10.80800000
 H      13.34300000      17.10400000      10.22300000
 H      13.57700000      16.02400000      11.25600000
 O      11.92100000      13.81400000      12.96100000
 H      12.83800000      14.16600000      12.95200000
 H      12.18600000      12.83200000      13.05400000
 O      11.90800000      15.24000000       8.21100000
 H      12.37900000      15.69400000       8.93300000
 H      12.12600000      14.38800000       8.47900000
 O      10.95000000      16.32500000      12.70600000
 H      11.12800000      15.35800000      12.83000000
 H      11.66600000      16.52000000      12.07400000
 O      12.93300000      18.44000000       7.91900000
 H      12.18500000      18.50800000       8.58300000
 H      12.66600000      19.27800000       7.49000000
 O      16.01000000      15.79000000      11.07000000
 H      16.77000000      16.27300000      11.32700000
 H      15.98200000      15.95200000      10.09100000
 O      15.46600000      15.96100000       8.27100000
 H      15.42900000      14.99600000       8.54300000
 H      15.73500000      15.86200000       7.31200000
 O      18.03300000      20.30800000       6.07200000
 H      17.78500000      20.40100000       7.03300000
 H      17.19400000      20.22300000       5.56100000
 O      14.39800000      15.31600000      13.69800000
 H      15.00200000      15.93900000      13.16600000
 H      14.24300000      15.87600000      14.49500000
 O      17.70600000      14.10000000      12.99000000
 H      16.84300000      14.46500000      12.61300000
 H      18.09700000      13.82100000      12.11700000
 O      15.55500000      19.06600000       8.53800000
 H      14.81800000      18.60200000       8.15900000
 H      16.36400000      18.51100000       8.29900000
 O      18.24800000      19.93800000      11.51800000
 H      18.18700000      18.94100000      11.75100000
 H      17.70200000      20.43600000      12.14400000
 O      14.67700000      18.17900000      13.12000000
 H      14.37000000      18.12600000      14.04200000
 H      13.83000000      18.36100000      12.54300000
