55
XYZ file of cluster: frame_17000_5274f.2d19b.5b735 - created by MolEdiTo
 O       9.21000000       9.77200000      13.97700000
 H       9.28500000       8.84000000      14.17300000
 H       8.67500000       9.82400000      13.17400000
 O       8.56900000       9.69900000      17.63700000
 H       8.37900000       8.85300000      17.00400000
 H       7.72300000       9.75100000      18.11900000
 O      10.19100000       6.71700000      13.91600000
 H       9.63600000       6.02700000      13.43300000
 H      10.57400000       6.35200000      14.73000000
 O       9.75100000       4.13400000      12.60200000
 H      10.68600000       3.90300000      12.29400000
 H       9.25700000       4.22200000      11.80000000
 O      14.48400000       8.34800000      16.08900000
 H      14.99400000       9.03800000      16.47500000
 H      14.21900000       7.74700000      16.83200000
 O       8.64700000       6.98000000      16.34200000
 H       8.24200000       6.60000000      15.53900000
 H       9.51200000       7.24600000      16.07600000
 O      12.35000000       5.19200000      15.98600000
 H      12.76200000       4.45500000      16.47500000
 H      12.79200000       5.13000000      15.06100000
 O       7.91000000       8.03500000      11.89600000
 H       8.32300000       7.30300000      11.40600000
 H       7.89200000       8.75800000      11.26300000
 O      11.04300000       6.86900000      18.03300000
 H      11.48900000       6.44600000      17.23200000
 H      10.42000000       6.20800000      18.38600000
 O      13.24800000      10.68100000      14.50100000
 H      13.15700000       9.98900000      15.14600000
 H      13.03400000      10.30200000      13.62400000
 C       9.37900000      11.30900000      10.31000000
 C      10.82700000      11.29800000       9.61000000
 C      11.25500000       9.36000000      11.30200000
 H      11.26900000       9.18200000       9.19600000
 H       7.71200000      12.04700000       9.78000000
 O      13.00200000      10.00900000       9.64800000
 O       8.69300000       9.95900000      10.30900000
 O       8.65100000      12.35400000       9.67300000
 C      11.58500000       9.97600000       9.90000000
 O      10.87200000      11.36200000       8.16000000
 H      11.38700000      12.13900000      10.10600000
 O      11.56000000      10.32700000      12.32400000
 O      11.94500000       8.13200000      11.37800000
 H      12.70300000       8.25100000      11.99000000
 H      11.83600000      11.26000000       7.83100000
 H      13.30800000       9.13700000       9.46600000
 O      13.77200000       5.17700000      13.38900000
 H      14.35300000       5.69900000      12.80500000
 H      13.43800000       4.39000000      12.86000000
 O       7.40900000       4.93400000      14.46400000
 H       7.27700000       4.30200000      15.22800000
 H       7.92700000       4.42800000      13.86200000
 O       9.90800000       6.22600000      10.30300000
 H      10.29300000       6.60800000      11.10200000
 H      10.60300000       6.17800000       9.59500000
