36
XYZ file of cluster: frame_17000_0.9ccb4.9c497 - created by MolEdiTo
 O       0.99000000      19.05100000      19.60800000
 H       0.00000000      19.22200000      19.60700000
 H       1.30100000      19.21600000      18.70400000
 O       1.19400000      15.89500000      15.17100000
 H       1.74900000      15.49700000      15.87600000
 H       0.73800000      15.18700000      14.69500000
 O       2.49300000      14.30900000      16.73700000
 H       3.36900000      13.92300000      16.31800000
 H       2.51700000      13.56900000      17.35100000
 O       4.36000000      19.93600000      18.70600000
 H       5.37300000      19.81000000      18.59000000
 H       4.09400000      19.05200000      18.46900000
 O       7.19300000      19.59000000      15.29500000
 H       6.52600000      20.31500000      15.34200000
 H       6.60600000      18.92600000      14.87300000
 O       4.94800000      15.91600000      18.61300000
 H       5.25900000      14.95600000      18.57700000
 H       4.65100000      16.06800000      19.56500000
 O       6.11900000      17.29000000      13.87400000
 H       5.24100000      17.27500000      13.38300000
 H       6.23300000      16.32600000      14.07700000
 O       4.91000000      17.67600000      16.52900000
 H       5.36800000      17.54100000      15.66900000
 H       5.25700000      17.10200000      17.19200000
 O       1.87200000      15.38500000      19.31600000
 H       2.28100000      15.47800000      18.38700000
 H       0.94100000      15.08400000      19.16200000
 O       6.98500000      14.01900000      18.73900000
 H       7.36700000      14.91100000      19.08600000
 H       7.78100000      13.63300000      18.34900000
 O       7.15500000      19.95800000      18.21700000
 H       7.24900000      19.52800000      17.36900000
 H       8.06500000      20.23900000      18.51000000
 O       2.17600000      18.26700000      17.18700000
 H       3.07800000      17.88300000      16.97000000
 H       1.55200000      17.60100000      16.74400000
