42
XYZ file of cluster: frame_17000_bf87c.979b.57cba - created by MolEdiTo
 O      19.75400000       5.78000000       9.82500000
 H      19.37800000       5.14800000      10.44100000
 H      19.61700000       6.64200000      10.37100000
 O      17.79100000       4.95300000       7.97900000
 H      18.60600000       5.32600000       8.44800000
 H      17.24600000       5.77600000       7.83700000
 O      17.24200000       1.81400000      13.12400000
 H      18.24100000       2.04400000      13.35500000
 H      16.90300000       1.64600000      14.07400000
 O      18.79600000       3.04600000      10.65700000
 H      18.34200000       2.46900000      10.05600000
 H      19.66600000       2.57800000      10.73100000
 O      17.75100000       5.19600000      12.22300000
 H      18.43800000       5.35800000      12.95300000
 H      17.96800000       4.30000000      11.94200000
 O      19.96900000       2.23500000       7.51800000
 H      20.65900000       2.22100000       8.24400000
 H      19.19800000       1.87200000       7.88300000
 O      22.96700000       2.27500000      10.51400000
 H      23.15600000       1.63500000      11.24500000
 H      23.39600000       3.06200000      10.85300000
 O      25.91300000       5.73800000       8.13400000
 H      26.54400000       6.01200000       8.84800000
 H      25.11200000       6.22500000       8.36100000
 O      25.20900000       4.34500000      14.53000000
 H      24.66500000       3.48800000      14.54300000
 H      24.71700000       4.85000000      13.78200000
 O      24.20900000       1.66400000      13.74900000
 H      23.86900000       0.82000000      13.29500000
 H      24.12500000       1.39500000      14.70000000
 O      25.11700000       4.11800000      11.34500000
 H      25.62200000       3.76400000      12.11300000
 H      25.17900000       5.11100000      11.50800000
 O      23.36800000       6.88800000       8.42400000
 H      22.61600000       6.43600000       8.91600000
 H      23.02500000       7.69500000       8.14400000
 O      22.50000000       6.04900000      13.10300000
 H      23.42200000       6.31400000      12.85700000
 H      22.50200000       6.55000000      13.99100000
 O      25.20000000       6.81900000      11.90600000
 H      24.64300000       7.54400000      12.37900000
 H      25.78400000       7.28500000      11.22600000
