33
XYZ file of cluster: frame_17000_9b39a.1b4b3.4cb98 - created by MolEdiTo
 O      19.55000000       9.06400000      13.76700000
 H      19.05500000       9.77400000      14.24700000
 H      18.92200000       8.35800000      14.05300000
 O      19.75400000       5.78000000       9.82500000
 H      19.37800000       5.14800000      10.44100000
 H      19.61700000       6.64200000      10.37100000
 O      14.08600000       5.20900000       8.73000000
 H      13.69900000       6.05400000       8.28900000
 H      14.71100000       5.65800000       9.37400000
 O      15.11800000       2.81500000       6.57000000
 H      15.40700000       2.36200000       7.43700000
 H      14.96600000       3.76400000       6.63800000
 O      17.79100000       4.95300000       7.97900000
 H      18.60600000       5.32600000       8.44800000
 H      17.24600000       5.77600000       7.83700000
 O      14.59400000       8.48000000      13.11600000
 H      15.42400000       8.01200000      12.97900000
 H      14.48800000       8.33800000      14.08400000
 O      17.75100000       5.19600000      12.22300000
 H      18.43800000       5.35800000      12.95300000
 H      17.96800000       4.30000000      11.94200000
 O      18.68000000       8.60700000       8.50300000
 H      18.81800000       8.55100000       9.52600000
 H      18.05900000       9.33700000       8.30000000
 O      15.99300000       7.02800000      11.34500000
 H      15.99200000       6.60900000      10.43200000
 H      16.65300000       6.55200000      11.89400000
 O      20.20400000       8.17700000      11.10500000
 H      20.77100000       7.83700000      11.82500000
 H      19.59500000       8.82400000      11.52200000
 O      18.45200000      10.26300000      11.40500000
 H      18.64600000      10.39200000      12.34900000
 H      17.50200000      10.39500000      11.47400000
