36
XYZ file of cluster: frame_17000_9be7b.9ff5d.c0237 - created by MolEdiTo
 O      15.73800000      19.00800000      17.45200000
 H      15.71300000      18.23000000      16.88500000
 H      15.66400000      19.82200000      16.90800000
 O      13.75900000      17.34700000      18.73600000
 H      14.33500000      16.55400000      18.63200000
 H      14.46400000      18.01800000      18.91700000
 O      17.65800000      15.94900000      19.97000000
 H      17.20900000      15.10000000      19.71000000
 H      18.12700000      15.68400000      20.78700000
 O      16.01800000      15.98100000      16.98800000
 H      16.12300000      15.14100000      17.52500000
 H      16.80000000      16.04200000      16.45300000
 O      19.36300000      14.66800000      17.92600000
 H      19.27500000      14.73700000      16.93900000
 H      18.64200000      15.29300000      18.26600000
 O      15.61600000      19.85500000      22.37800000
 H      16.08000000      20.31100000      23.10800000
 H      14.95800000      19.13600000      22.66600000
 O      15.99300000      16.10000000      24.79000000
 H      15.89000000      16.57600000      23.96000000
 H      15.61300000      16.66100000      25.54300000
 O      20.67300000      18.24200000      23.52900000
 H      21.54600000      18.70400000      23.72700000
 H      20.82100000      17.81000000      22.61700000
 O      18.50100000      19.65400000      24.32200000
 H      18.75800000      19.85600000      25.24000000
 H      19.34400000      19.24100000      23.97100000
 O      17.59400000      13.93000000      25.13200000
 H      16.71700000      14.31300000      25.23200000
 H      17.68500000      13.84300000      24.16900000
 O      18.30600000      19.65200000      21.31800000
 H      17.34500000      19.52100000      21.49800000
 H      18.67600000      19.57600000      22.17600000
 O      19.31300000      15.75900000      23.47200000
 H      20.34100000      15.57500000      23.54000000
 H      19.28700000      16.60300000      23.93100000
