111
XYZ file of cluster: frame_8000_1660.3dbc.9cfb4 - created by MolEdiTo
 O      10.00800000       1.69800000      22.13100000
 H      10.50000000       1.90800000      22.95200000
 H       9.25900000       2.28700000      22.11800000
 O       6.63400000       9.71200000      24.08300000
 H       6.11700000       9.97600000      24.89500000
 H       6.30000000      10.27500000      23.40100000
 O       9.04600000       6.17800000      20.97000000
 H       8.17300000       6.69900000      21.05600000
 H       9.64300000       6.94800000      20.75200000
 O      10.27000000       4.76300000      23.54200000
 H       9.97400000       5.08000000      22.63100000
 H       9.72300000       5.25900000      24.22100000
 O       5.14400000       9.71800000      26.38700000
 H       5.63000000      10.23400000      27.11900000
 H       4.34400000       9.28800000      26.72900000
 O       2.44700000       1.58600000      24.34400000
 H       3.00200000       0.73700000      24.12000000
 H       3.10600000       2.14200000      24.86900000
 O       6.02900000       5.51000000      30.47700000
 H       6.91700000       5.75100000      30.68800000
 H       6.16500000       4.79600000      29.82300000
 O       4.86300000       4.54900000      27.67900000
 H       5.01100000       5.51600000      27.64300000
 H       4.92400000       4.24100000      26.71900000
 O       6.58200000       5.13800000      25.41100000
 H       6.01100000       5.95700000      25.34600000
 H       7.43500000       5.51200000      25.68900000
 O       1.08800000       3.48900000      26.71900000
 H       0.17900000       3.81600000      26.64800000
 H       1.69500000       4.16200000      26.37700000
 O       6.45100000       8.48500000      29.13300000
 H       6.90300000       7.73700000      29.61800000
 H       6.94600000       8.45700000      28.23200000
 O       8.15600000       6.61000000      27.44700000
 H       8.71400000       7.36800000      26.99500000
 H       8.74700000       5.80500000      27.42200000
 O       5.93000000       2.45000000      23.59100000
 H       6.41900000       2.29200000      24.38900000
 H       6.41700000       3.10400000      23.07900000
 O       0.98700000       8.84600000      28.46900000
 H       0.44900000       9.01200000      29.31800000
 H       1.89000000       8.92800000      28.73800000
 O       8.52500000       1.51700000      30.32700000
 H       8.89400000       0.78300000      29.78300000
 H       7.96900000       1.00600000      30.91300000
 O       8.41600000       9.73900000      26.75400000
 H       8.53700000       9.45900000      25.81600000
 H       8.14200000      10.65100000      26.70700000
 O       1.07800000       1.29400000      21.03500000
 H       0.71700000       0.50100000      21.41000000
 H       1.54500000       1.01800000      20.21900000
 O       8.27800000       4.05100000      29.34200000
 H       8.46100000       3.14000000      29.68100000
 H       8.73900000       4.70700000      29.99100000
 O       9.75400000       3.23300000      26.87200000
 H      10.06800000       4.13200000      26.85300000
 H       9.22500000       3.31100000      27.69500000
 O       9.50100000      10.66200000      23.49300000
 H       8.67300000      10.35900000      23.96500000
 H       9.14100000      10.83100000      22.60000000
 O       5.05100000       5.19600000      22.22500000
 H       4.40600000       5.87100000      22.56100000
 H       4.38900000       4.45000000      22.10900000
 O       9.00800000       7.26200000      24.42800000
 H       9.83700000       7.49900000      24.01600000
 H       8.36100000       7.49700000      23.75400000
 O       3.06100000       3.15300000      21.63400000
 H       2.58200000       2.49700000      21.02000000
 H       2.78000000       2.96600000      22.54400000
 O       5.31600000       7.29400000      24.91800000
 H       5.30000000       7.34200000      23.85900000
 H       5.79500000       8.15500000      25.04400000
 O       2.28700000       3.79400000      29.21100000
 H       2.10200000       3.00700000      29.80900000
 H       1.89300000       3.54200000      28.33600000
 O       3.65800000       8.89700000      29.28700000
 H       4.59200000       8.73800000      29.23800000
 H       3.45100000       8.24900000      30.00700000
 O       0.95800000       7.85300000      25.85000000
 H       1.06600000       7.97100000      26.83200000
 H       0.87000000       8.76100000      25.45700000
 O       7.74800000       3.80700000      22.00700000
 H       8.33000000       4.58000000      22.05100000
 H       7.04300000       4.22800000      21.46900000
 O       3.72200000       1.74500000      27.43300000
 H       3.43400000       2.69200000      27.25200000
 H       4.14000000       1.91900000      28.32100000
 O       5.53300000       1.43400000      29.61900000
 H       6.28900000       1.99200000      29.65100000
 H       5.89200000       0.68100000      29.10800000
 O       9.93900000       8.66900000      29.24400000
 H       9.86600000       8.73900000      28.22800000
 H       9.63300000       9.58800000      29.47400000
 O       3.41500000       7.78500000      22.13900000
 H       3.10100000       8.68300000      21.89900000
 H       3.28500000       7.39300000      21.19700000
 O       6.39900000       8.07700000      21.29700000
 H       5.61300000       7.90100000      20.75000000
 H       6.49000000       9.00800000      21.01200000
 O       1.62100000      10.22600000      21.41000000
 H       1.64200000      10.58300000      20.50300000
 H       0.93000000      10.73300000      21.86900000
 O       2.19100000       6.15800000      24.18400000
 H       1.83700000       6.78800000      24.87800000
 H       2.90300000       6.66600000      23.76800000
 O       3.71700000       3.88300000      25.04400000
 H       3.22100000       4.71300000      24.86200000
 H       4.61200000       4.08300000      24.62000000
 O       7.51200000       2.11100000      25.90100000
 H       8.45400000       2.13200000      26.05400000
 H       7.19200000       2.94900000      26.34100000
