117
XYZ file of cluster: frame_8000_21a17.4cefc.1a16 - created by MolEdiTo
 O      12.17900000      20.55900000       5.20000000
 H      12.83600000      20.56900000       4.47500000
 H      11.23900000      20.36500000       4.76600000
 O      11.63800000      14.38800000       6.60400000
 H      12.14500000      14.62400000       5.70900000
 H      11.87400000      15.00600000       7.34800000
 O       9.05000000      16.02500000       4.54900000
 H       8.85300000      16.71000000       3.89500000
 H       9.50300000      16.51800000       5.22600000
 O       6.84300000      18.66800000       4.25700000
 H       7.16900000      17.84900000       3.82500000
 H       6.26200000      19.06900000       3.57100000
 O      10.51300000      17.08900000       0.70100000
 H      10.22000000      16.12600000       0.78200000
 H       9.65900000      17.57400000       0.58500000
 O       9.83100000      21.13400000       1.34600000
 H       9.41800000      20.23400000       1.40900000
 H       9.04300000      21.67500000       0.94400000
 O       5.62600000      17.73500000       9.15500000
 H       5.69900000      17.62500000       8.23500000
 H       5.90200000      18.63200000       9.28300000
 O       6.77200000      12.41200000       9.83300000
 H       7.28400000      12.23100000       8.98600000
 H       7.12600000      11.74000000      10.48500000
 O      10.49200000      20.17200000       7.48700000
 H      10.91000000      20.59200000       8.29300000
 H      10.99300000      20.55900000       6.70600000
 O      10.11600000      13.97500000       9.66300000
 H      10.98000000      14.16500000       9.19400000
 H      10.28100000      13.94800000      10.61200000
 O       6.24000000      12.48500000       3.47600000
 H       6.24300000      11.64600000       2.98100000
 H       6.48700000      13.14400000       2.73500000
 O       9.75200000      20.05400000       3.97600000
 H       8.77000000      19.96200000       4.08400000
 H       9.76600000      20.73300000       3.14900000
 O      11.81000000      10.60000000       2.32400000
 H      12.02700000      11.12800000       3.07900000
 H      12.50800000       9.99000000       2.18800000
 O       7.00000000      16.42300000       2.18800000
 H       7.49000000      15.71200000       1.61900000
 H       6.08300000      16.42600000       1.81100000
 O       9.38400000      13.06600000       4.88200000
 H      10.30400000      13.41200000       4.81700000
 H       8.84500000      13.84300000       5.25600000
 O       7.90500000      19.35100000       6.90200000
 H       8.90100000      19.56500000       6.83000000
 H       7.71800000      19.11800000       5.95700000
 O      12.77000000      16.19000000       2.20400000
 H      13.66900000      15.81700000       1.96400000
 H      12.26400000      15.89000000       1.39300000
 O       6.36600000      15.38600000       4.95700000
 H       6.38000000      15.57100000       4.00100000
 H       7.34800000      15.29100000       5.05800000
 O      13.14700000      11.78900000       9.94600000
 H      13.31400000      12.72300000       9.76200000
 H      13.40600000      11.35600000       9.10300000
 O      12.92200000      20.87400000       2.16200000
 H      12.17700000      20.52400000       1.60600000
 H      13.59300000      21.02800000       1.45200000
 O      15.35900000      12.06600000       5.01900000
 H      14.77500000      11.27500000       5.16100000
 H      15.53400000      11.96200000       4.06600000
 O      14.16500000      18.32200000       8.91300000
 H      14.07000000      19.28900000       9.08000000
 H      14.96100000      18.09400000       9.37200000
 O       9.08100000      12.01900000       8.01900000
 H       9.44800000      12.85900000       8.44400000
 H       9.15900000      12.10600000       7.02500000
 O      11.41400000      13.71300000       1.49400000
 H      11.86300000      12.83400000       1.35000000
 H      11.20800000      13.92700000       0.47900000
 O       7.77000000      19.00700000       1.05600000
 H       8.12400000      18.79400000       0.21000000
 H       7.37900000      18.10800000       1.34700000
 O      12.94100000      14.27300000       4.24100000
 H      13.87100000      14.22900000       4.15600000
 H      12.61900000      14.83100000       3.56000000
 O      12.48800000      11.58000000       5.11700000
 H      11.87400000      11.72100000       5.82300000
 H      12.70000000      12.45700000       4.74300000
 O       5.02800000      17.34700000       6.50300000
 H       4.30500000      17.38300000       5.81800000
 H       5.58700000      16.57400000       6.19000000
 O       5.62200000      20.58500000       2.25900000
 H       5.53900000      21.56300000       2.32600000
 H       6.14100000      20.50000000       1.43900000
 O       9.01200000      18.84800000       9.69300000
 H       9.38300000      19.50400000       9.08400000
 H       8.13100000      19.26000000       9.85500000
 O      13.45400000      17.52000000       4.77200000
 H      13.49600000      18.08900000       4.02200000
 H      12.60100000      17.70600000       5.23300000
 O      15.95100000      13.50200000       9.21000000
 H      16.59100000      13.97200000       9.78500000
 H      15.20500000      14.19600000       8.97100000
 O       7.97800000      10.51500000       5.29700000
 H       7.65900000      11.41900000       5.16400000
 H       8.66700000      10.47700000       4.63500000
 O       6.85100000      20.79000000       9.32700000
 H       7.15700000      20.56300000       8.39300000
 H       5.89000000      20.56500000       9.32800000
 O      13.07100000      14.99200000       9.25400000
 H      13.60300000      15.28800000       8.41900000
 H      13.11000000      15.81900000       9.80500000
 O      15.75400000      20.57400000       0.91000000
 H      15.95500000      21.44500000       1.39400000
 H      15.06500000      20.80400000       0.23300000
 O      14.84000000      15.87500000       7.17100000
 H      14.85100000      15.94800000       6.14800000
 H      14.47000000      16.70100000       7.50900000
 O      11.14200000      17.22400000       7.78500000
 H      10.72100000      18.03200000       7.65200000
 H      11.77900000      17.36500000       8.55800000
 O       8.24400000      15.24100000       7.66400000
 H       8.49200000      16.20500000       7.57000000
 H       8.84400000      15.04600000       8.39000000
