114
XYZ file of cluster: frame_8000_3a9f.c7109.25dd8 - created by MolEdiTo
 O       5.92200000      26.07300000      12.12500000
 H       5.01300000      25.84800000      12.22300000
 H       5.84300000      26.94700000      11.53600000
 O       7.86600000      28.98900000       8.54900000
 H       8.29300000      28.83500000       7.70900000
 H       8.66400000      29.22900000       9.09400000
 O       7.09900000      29.34000000       5.41900000
 H       6.34800000      28.79100000       5.76700000
 H       6.62800000      29.93800000       4.87700000
 O       7.87300000      30.76200000      11.79300000
 H       8.18600000      31.70100000      11.96300000
 H       8.65300000      30.52800000      11.17400000
 O       3.83900000      30.51100000       9.70400000
 H       3.50700000      30.24300000      10.59300000
 H       3.10700000      30.32000000       9.02800000
 O       1.73700000      30.79300000       7.60500000
 H       1.42800000      31.55000000       8.11600000
 H       1.02000000      30.64700000       7.00000000
 O       4.75600000      28.27400000       6.57100000
 H       4.64100000      27.42900000       6.01800000
 H       3.97600000      28.32500000       7.19000000
 O       0.81300000      28.49900000      13.73600000
 H       0.46900000      29.27500000      14.24300000
 H       1.01900000      27.79400000      14.47800000
 O       9.42900000      30.50500000       6.71100000
 H       9.95800000      30.87500000       6.02500000
 H       8.64800000      30.15100000       6.25700000
 O       1.75300000      27.38600000       8.05900000
 H       2.12300000      27.32000000       8.95500000
 H       0.74200000      27.45800000       8.27600000
 O       2.65300000      28.02200000      16.41300000
 H       3.32200000      27.38600000      16.77400000
 H       3.14900000      28.31600000      15.57500000
 O       5.89500000      27.96300000       9.99300000
 H       5.24900000      28.65700000      10.17800000
 H       6.61600000      28.38400000       9.49000000
 O       9.82200000      29.56600000      10.46600000
 H      10.78200000      29.85000000      10.60200000
 H      10.00700000      28.67500000      10.84700000
 O       3.95600000      28.50900000      14.15400000
 H       4.36900000      27.59900000      14.37600000
 H       3.70200000      28.54300000      13.15700000
 O       3.28800000      28.21500000      11.48500000
 H       2.35800000      28.03700000      11.40800000
 H       3.79600000      27.48200000      11.06200000
 O      10.51700000      27.55500000      14.37200000
 H       9.84300000      27.74900000      15.03600000
 H      11.20100000      28.06300000      14.82200000
 O       1.31600000      27.67400000       5.36900000
 H       0.74700000      27.00200000       5.65100000
 H       1.56300000      28.21200000       6.15000000
 O       9.35700000      26.85700000      11.99300000
 H       8.39200000      26.82000000      12.09800000
 H       9.75200000      27.33200000      12.82500000
 O       6.40000000      30.22200000      14.38000000
 H       6.98800000      30.37800000      13.53700000
 H       6.52500000      29.31700000      14.62600000
 O       7.64100000      35.28600000      10.90200000
 H       6.92600000      34.70200000      10.56600000
 H       7.14300000      36.07500000      11.32700000
 O       1.27700000      36.63900000      15.47200000
 H       1.99600000      36.15900000      15.00300000
 H       1.06900000      37.53000000      15.10500000
 O       1.19300000      33.57900000      13.27200000
 H       1.13200000      32.65800000      12.78700000
 H       1.59300000      34.20800000      12.62300000
 O       1.84700000      37.13800000       8.86100000
 H       1.33200000      36.58200000       8.26200000
 H       2.60700000      37.56500000       8.37100000
 O       2.77600000      35.05500000      11.52900000
 H       3.13400000      34.95100000      10.66900000
 H       3.53000000      34.78600000      12.16100000
 O       4.89300000      35.85000000       9.29000000
 H       4.52400000      36.60100000       8.78900000
 H       4.94200000      35.05700000       8.72200000
 O       8.68700000      35.93100000      13.94900000
 H       9.65300000      35.97300000      13.61100000
 H       8.38400000      36.80500000      13.87300000
 O       7.51800000      34.07600000      15.81200000
 H       7.71000000      33.15900000      15.50000000
 H       8.10100000      34.69700000      15.36300000
 O       7.66700000      35.99300000       7.50100000
 H       6.92700000      36.08600000       8.13900000
 H       8.53500000      35.81900000       7.96300000
 O       3.38200000      35.15100000       6.57700000
 H       3.89400000      35.73600000       5.99900000
 H       4.01300000      34.41800000       6.63800000
 O       1.77700000      37.12700000       5.82800000
 H       2.33000000      36.37700000       6.12100000
 H       2.35400000      37.53900000       5.12600000
 O       1.65300000      33.34600000      16.10800000
 H       2.61800000      33.30100000      16.09200000
 H       1.30400000      33.51700000      15.17500000
 O       4.05300000      32.69400000       5.11200000
 H       3.18600000      33.13100000       4.94100000
 H       4.08200000      32.63000000       6.04500000
 O      10.09000000      36.58200000      11.06600000
 H       9.32500000      36.22800000      11.42700000
 H      10.64400000      35.84600000      11.17100000
 O       3.84500000      37.24300000      13.56600000
 H       4.45300000      38.01100000      13.73100000
 H       4.44900000      36.44900000      13.53400000
 O      10.28400000      34.19600000       8.87600000
 H       9.94800000      33.43300000       8.34700000
 H       9.51100000      34.22300000       9.47400000
 O       4.59700000      33.39100000      15.93000000
 H       5.03400000      33.33200000      16.83700000
 H       5.25100000      32.84800000      15.42500000
 O       5.38400000      33.26100000       7.76400000
 H       5.98100000      32.58300000       7.32000000
 H       5.16500000      32.76800000       8.64600000
 O       5.28700000      34.69300000      13.16900000
 H       6.25800000      34.91400000      13.21800000
 H       5.13200000      34.16800000      13.99400000
