141
XYZ file of cluster: frame_8000_c54cc.6f99b.21edd - created by MolEdiTo
 O      29.36400000      16.81400000       5.63400000
 H      29.64400000      16.85300000       6.62100000
 H      28.97600000      15.91800000       5.52500000
 O      28.52400000      20.30500000      10.33700000
 H      29.12100000      19.74000000      10.96500000
 H      28.35400000      19.64900000       9.59800000
 O      27.05100000      24.45300000       8.91500000
 H      26.67000000      23.61300000       8.49900000
 H      27.82500000      24.15000000       9.44200000
 O      30.57400000      20.42100000       6.36600000
 H      30.85100000      21.09500000       7.09000000
 H      30.47000000      20.96500000       5.56100000
 O      26.48300000      26.24200000      12.82400000
 H      26.15000000      26.72100000      13.59000000
 H      27.23500000      26.80900000      12.39200000
 O      27.94700000      18.03200000       8.45200000
 H      27.49100000      17.33700000       8.92700000
 H      28.83100000      17.56700000       8.24600000
 O      25.61800000      16.70100000      13.47000000
 H      26.43400000      17.20100000      13.21000000
 H      25.87000000      16.04100000      14.23900000
 O      27.98700000      15.95400000      15.81900000
 H      28.18500000      16.91500000      15.82300000
 H      28.75600000      15.53100000      15.35700000
 O      26.21200000      18.15700000      10.97000000
 H      25.60400000      17.93400000      10.17800000
 H      27.09600000      18.26300000      10.53400000
 O      26.66400000      26.59500000       6.20900000
 H      26.87500000      27.03500000       5.34700000
 H      26.19400000      25.87400000       5.79600000
 O      27.71600000      23.22500000      15.15400000
 H      27.80000000      22.69600000      15.98300000
 H      26.93300000      22.90700000      14.60200000
 O      30.37900000      23.59200000      13.82400000
 H      29.67000000      23.43600000      14.49200000
 H      30.48600000      22.69400000      13.40500000
 O      29.39500000      24.96100000      11.51500000
 H      28.59400000      24.45100000      11.64700000
 H      29.89000000      24.69900000      12.31300000
 O      26.77300000      15.30500000       9.15300000
 H      26.10800000      15.92900000       8.92500000
 H      26.58100000      14.57300000       8.59400000
 O      25.69100000      20.93800000      10.08900000
 H      25.25600000      20.47700000      10.82900000
 H      26.58400000      21.08400000      10.48700000
 O      29.98000000      16.36900000       8.59400000
 H      30.61000000      17.13200000       8.70600000
 H      30.51600000      15.53100000       8.65000000
 O      28.78300000      17.71100000      13.44200000
 H      28.86200000      17.09500000      12.67100000
 H      29.66300000      17.56800000      13.97100000
 O      26.95300000      23.52600000      12.01100000
 H      26.63500000      24.39800000      12.03600000
 H      26.12900000      22.94100000      12.05400000
 O      28.96400000      16.05900000      11.27200000
 H      29.36800000      16.11300000      10.38400000
 H      28.05000000      15.87600000      11.03100000
 O      30.10500000      20.24400000      16.31000000
 H      29.86600000      20.69300000      15.45800000
 H      30.65600000      20.91800000      16.74700000
 O      26.97500000      19.53200000       6.05900000
 H      27.16600000      20.40100000       6.52400000
 H      26.89400000      18.82500000       6.69600000
 O      27.62900000      20.32600000      13.44700000
 H      28.04600000      19.40300000      13.42300000
 H      27.87800000      20.68700000      12.54600000
 O      29.85800000      24.84100000       6.26900000
 H      30.47800000      24.16500000       6.70300000
 H      29.68400000      24.32800000       5.41300000
 O      37.17400000      26.07300000      12.12500000
 H      36.26500000      25.84800000      12.22300000
 H      37.09500000      26.94700000      11.53600000
 O      32.08400000      18.84300000      10.91700000
 H      32.43000000      17.96100000      11.25400000
 H      32.80100000      19.05600000      10.25600000
 O      32.99000000      18.59000000       8.02800000
 H      33.91500000      18.97900000       7.99800000
 H      32.40200000      19.18200000       7.57900000
 O      34.78400000      21.45800000       5.33100000
 H      33.89400000      21.01300000       5.30400000
 H      34.89200000      21.56500000       4.37000000
 O      34.32000000      24.27700000      13.09100000
 H      33.46300000      24.09300000      13.50700000
 H      34.40300000      23.57200000      12.50700000
 O      34.48500000      18.93000000      13.27100000
 H      34.81000000      18.01900000      13.51800000
 H      34.51300000      19.24800000      14.18000000
 O      35.54500000      19.82700000       7.76400000
 H      35.51600000      20.40200000       6.98900000
 H      35.96600000      19.04000000       7.38900000
 O      35.68900000      20.28900000      11.34700000
 H      35.35800000      19.54500000      11.82600000
 H      36.44300000      20.49500000      11.98500000
 O      34.61800000      16.52600000      10.33100000
 H      34.43500000      15.88700000       9.58200000
 H      35.31900000      17.07600000       9.84800000
 O      35.86100000      23.12500000       7.71600000
 H      35.42800000      23.97800000       7.41000000
 H      35.45000000      22.46200000       7.05600000
 O      34.16800000      24.93100000       6.70900000
 H      33.40700000      25.30900000       7.24400000
 H      33.98800000      25.41300000       5.88200000
 O      32.30900000      16.81700000      14.86300000
 H      33.10200000      17.07700000      14.25200000
 H      32.72500000      16.14100000      15.46100000
 O      34.66200000      16.03300000      13.04400000
 H      34.75000000      16.42800000      12.11400000
 H      35.24300000      15.25500000      13.02600000
 O      36.90800000      23.66300000       4.67900000
 H      36.58400000      23.06000000       5.30100000
 H      36.14000000      24.27200000       4.50300000
 O      34.33100000      25.64900000      10.21800000
 H      34.88800000      24.83800000      10.38600000
 H      33.47200000      25.26600000      10.04800000
 O      36.28000000      17.34700000       6.50300000
 H      35.55700000      17.38300000       5.81800000
 H      36.83900000      16.57400000       6.19000000
 O      34.44000000      22.43800000      10.32200000
 H      34.77900000      21.56000000      10.61000000
 H      34.54200000      22.45000000       9.30100000
 O      32.07900000      22.23800000       8.78400000
 H      31.52200000      21.73400000       9.38400000
 H      32.82000000      22.54700000       9.32800000
 O      35.93300000      23.43400000      16.15800000
 H      36.30300000      23.40500000      15.23500000
 H      36.74300000      23.31300000      16.67800000
 O      33.54900000      15.95100000       5.15600000
 H      33.67800000      15.97800000       6.07600000
 H      32.60000000      16.14800000       5.08400000
 O      32.79400000      21.13800000      12.72800000
 H      33.73800000      20.89600000      12.56300000
 H      32.35000000      20.36600000      12.33300000
 O      34.72300000      15.21500000       8.01900000
 H      34.95800000      14.49100000       7.34800000
 H      35.40300000      15.89800000       7.82800000
 O      36.79800000      22.98300000      13.62500000
 H      35.94300000      23.43200000      13.51400000
 H      37.38900000      23.80900000      13.42200000
 O      34.49200000      21.05100000      15.19800000
 H      34.06100000      21.53900000      14.44600000
 H      34.39800000      21.61100000      15.95700000
