  1  2  3  4  5  6  7  8  9 10 11 12 13 14 15 16 17 18 19 20
 21 22 23 24 25 26 27 28 29 30 31 32 33 34 35 36 37 38 39 40
 41 42 43 44 45 46 47 48 49 50 51 52 53 54 55 56 57 58 59 60
 61 62 63 64 65 66 67 68 69 70 71 72 73 74 75 76 77 78 79 80
 81 82 83 84 85 86 87 88 89 90 91 92 93 94 95 96 97 98 99100
101102103104105106107108109110111112113114115116117118119120
121122123124125126127128129130131132133134135136137138139140
141142143144145146147148149150151152153154155156157158159160
161162163164165166167168169170171172173174175176177178179180
181182183184185186187188189190191192193194195196197198199200
201202203204205206207208209210211212213214215216217218219220
221222223224225226227228229230231232233234235236237238239240
241242243244245246247248249250251252253254255256257258259260
261262263264265266267268269270271272273274275276277278279280
281282283284285286287288289290291292293294295296297298299300
301302303304305306307308309310311312313314315316317318319320
321322323324325326327328329330331332333334335336337338339340
341342343344345346347348349350351352353354355356357358359360
361362363364365366367368369370371372373374375376377378379380
381382383384385386387388389390391392393394395396397398399400
401402403404405406407408409410411412413414415416417418419420
421422423424425426427428429430431432433434435436437438439440
441442443444445446447448449450451452453454455456457458459460
461462463464465466467468469470471472473474475476477478479480
481482483484485486487488489490491492493494495496497498499500
501502503504505506507508509510511512513514515516517518519520
521522523524525526527528529530531532533534535536537538539540
541542543544545546547548549550551552553554555556557558559560
561562563564565566567568569570571572573574575576577578579580
581582583584585586587588589590591592593594595596597598599600
601602603604605606607608609610611612613614615616617618619620
621622623624625626627628629630631632633634635636637638639640
641642643644645646647648649650651652653654655656657658659660
661662663664665666667668669670671672673674675676677678679680
681682683684685686687688689690691692693694695696697698699700
701702703704705706707708709710711712713714715716717718719720
721722723724725726727728729730731732733734735736737738739740
741742743744745746747748749750751752753754755756757758759760
761762763764765766767768769770771772773774775776777778779780
781782783784785786787788789790791792793794795796797798799800
801802803804805806807808809810811812813814815816817818819820
821822823824825826827828829830831832833834835836837838839840
841842843844845846847848849850851852853854855856857858859860
861862863864865866867868869870871872873874875876877878879880
881882883884885886887888889890891892893894895896897898899900
901
  0  0  0  0  1  0  2  3  0  0  0  0  0  0  0  0  0  0  0  4
  0  0  0  0  0  0  0  0  0  0  0  0  0  0  0  0  0  0  0  0
  0  0  0  0  0  0  0  0  0  0  0  0  0  5  0  0  0  0  0  6
  0  0  0  0  0  0  0  0  7  0  0  0  8  0  0  0  0  0  0  0
  0  0  0  9  0  0  0  0 10  0  0  0  0  0  0  0  0  0 11  0
  0  0  0  0 12  0  0  0  0  0  0  0  0  0  0  0  0  0  0  0
  0  0  0  0  0  0  0  0  0  0  0  0 13  0  0 14  0  0  0  0
  0  0  0  0  0  0  0  0  0  0 15  0  0  0  0  0  0  0  0  0
  0  0  0  0  0  0  0  0  0  0  0  0 16 17  0  0  0  0  0  0
  0  0  0  0  0  0  0  0  0  0  0  0  0  0  0  0  0  0  0  0
  0  0 18  0  0  0  0  0  0  0  0  0  0  0  0  0  0  0  0  0
  0  0  0  0  0  0  0  0  0  0  0  0  0  0  0  0  0  0  0  0
  0  0  0  0  0  0  0  0  0  0  0  0  0  0  0  0  0  0  0  0
  0  0  0  0  0  0  0  0  0  0  0  0  0 19  0  0  0  0  0  0
  0  0  0  0  0  0  0  0  0  0 20  0  0  0  0  0  0  0  0  0
 21  0  0  0  0  0  0  0  0  0 22  0  0  0  0  0  0  0  0  0
  0  0  0  0  0  0  0  0  0  0  0  0  0  0  0  0  0  0 23  0
  0  0  0  0  0 24  0  0  0  0  0  0  0  0  0  0  0  0  0  0
  0  0  0  0  0  0  0  0  0  0  0  0  0  0  0  0  0  0  0  0
  0  0  0  0  0  0  0  0  0  0  0  0  0  0  0  0  0  0  0  0
  0  0  0  0  0 25  0  0  0  0  0  0 26  0  0  0  0  0  0  0
  0  0  0  0  0  0  0  0 27  0  0  0  0  0  0  0  0  0  0  0
  0  0  0  0  0  0  0 28  0  0  0  0  0  0  0  0  0  0  0  0
  0  0  0  0  0  0  0  0  0  0  0  0  0  0  0  0  0  0  0  0
  0  0  0  0  0  0  0  0  0 29  0  0  0  0  0  0  0  0  0  0
  0  0  0  0  0  0  0  0  0  0  0  0  0  0  0  0  0  0  0  0
  0  0 30  0  0  0  0 31  0  0  0  0  0  0  0  0  0  0  0  0
  0  0  0  0  0  0  0  0  0  0  0  0  0  0  0  0  0 32  0  0
  0  0  0  0  0  0  0  0  0  0  0  0  0  0  0  0  0  0  0  0
  0 33  0 34  0  0  0  0  0  0  0  0  0  0  0  0  0  0  0  0
 35  0  0  0  0  0  0 36  0  0  0  0 37  0  0  0  0  0  0  0
  0  0  0  0  0  0  0  0  0  0  0  0  0  0  0 38  0  0  0  0
  0  0  0  0  0  0  0  0  0  0  0  0  0  0  0 39  0  0  0  0
  0  0  0  0  0  0  0  0  0  0  0  0  0  0  0  0  0  0  0  0
  0  0  0  0  0  0  0  0  0  0  0  0  0  0  0  0  0  0  0  0
  0  0  0  0  0  0  0  0  0  0  0  0 40  0  0  0  0  0  0  0
  0  0  0  0  0  0  0  0  0  0  0  0  0  0  0  0  0  0  0  0
  0  0  0  0  0  0  0  0  0  0  0  0  0  0  0  0  0  0  0  0
  0  0  0  0  0  0  0  0  0  0  0  0  0  0  0  0  0  0  0  0
  0  0  0  0 41  0  0  0  0  0  0  0  0  0  0  0  0  0  0  0
  0  0 42  0  0  0  0  0  0  0 43  0  0  0  0  0  0  0  0  0
  0  0  0  0  0  0  0  0  0  0  0  0  0  0  0  0  0  0  0  0
  0  0  0  0  0  0  0  0  0  0  0  0  0  0  0  0  0  0  0  0
  0  0  0  0  0  0  0  0 44  0 45  0  0  0  0  0  0  0  0  0
  0 46  0  0  0  0  0  0  0  0  0  0  0  0  0  0  0  0  0  0
  0