306
XYZ file of cluster: frame_6000_4b7e4.1aa3.74014 - created by MolEdiTo
 O      28.31700000       9.60200000      32.04200000
 H      27.66700000       9.22400000      31.50500000
 H      28.70500000       8.87700000      32.56100000
 O      23.28000000       1.23600000      23.90000000
 H      23.59600000       0.58300000      23.22500000
 H      22.66000000       1.77100000      23.35500000
 O      18.70500000       8.19100000      26.10200000
 H      19.20700000       8.78800000      26.62700000
 H      18.65800000       7.35300000      26.63900000
 O      16.44500000       2.26500000      24.13600000
 H      15.65000000       2.84400000      24.25300000
 H      16.51600000       2.16800000      23.18000000
 O      23.35700000       9.66600000      20.51300000
 H      23.46400000       9.45900000      21.42600000
 H      24.09400000       9.14100000      20.12600000
 O      24.86000000       4.54600000      22.10000000
 H      24.11600000       4.68200000      21.52200000
 H      25.56600000       4.23300000      21.55000000
 O      13.40200000       1.40600000      23.58900000
 H      12.87900000       0.60400000      23.35600000
 H      14.22200000       1.19100000      23.00300000
 O      20.06800000      13.20400000      34.55100000
 H      20.73700000      13.88000000      34.94500000
 H      20.06300000      12.65700000      35.37500000
 O      25.07700000      11.63400000      28.62300000
 H      24.79400000      12.45200000      29.12300000
 H      24.84200000      10.91100000      29.24800000
 O      26.37000000       8.73800000      29.51600000
 H      25.43000000       8.71600000      29.50900000
 H      26.66800000       7.90500000      29.78000000
 O      18.35500000       3.16700000      32.67100000
 H      18.50800000       3.96200000      33.24400000
 H      18.90600000       3.40700000      31.92300000
 O      23.91700000      10.87700000      24.44800000
 H      24.01100000      10.12600000      23.79900000
 H      23.09400000      10.55400000      24.91600000
 O      21.57500000      10.11100000      25.42000000
 H      21.21200000      10.30900000      24.50100000
 H      20.71400000      10.15300000      25.96100000
 O      20.83100000       2.18300000      22.60300000
 H      20.01400000       1.88100000      22.13900000
 H      20.91100000       1.38200000      23.24100000
 O      14.70600000      14.31000000      32.84400000
 H      15.48500000      13.68800000      32.82000000
 H      15.06000000      14.98100000      33.42400000
 O      25.22000000       3.03200000      30.28900000
 H      24.47500000       3.09200000      29.64000000
 H      25.87400000       3.65500000      29.92200000
 O      15.84800000       7.08200000      24.30000000
 H      15.23100000       7.83000000      24.35500000
 H      16.04100000       6.87600000      25.23900000
 O      13.99700000       8.45200000      31.68400000
 H      13.21900000       7.96600000      31.32000000
 H      14.59300000       7.68200000      31.73800000
 O      22.73000000       8.04700000      26.72400000
 H      22.39000000       7.21800000      26.44800000
 H      22.25200000       8.65400000      26.09000000
 O      19.17700000       4.02100000      30.22300000
 H      18.42000000       4.27000000      29.69400000
 H      19.93200000       4.52800000      29.82300000
 O      18.09800000       5.15300000      34.54700000
 H      17.73400000       6.01000000      34.39500000
 H      18.87700000       5.39100000      35.09400000
 O      15.09500000       6.09200000      31.53000000
 H      14.22900000       5.75100000      31.88300000
 H      15.18000000       5.46700000      30.79100000
 O      26.25700000       8.53800000      33.88900000
 H      26.17900000       8.07100000      34.75000000
 H      26.44900000       9.44300000      34.19500000
 O      19.33800000       5.55200000      26.84800000
 H      19.29200000       4.68000000      26.55200000
 H      20.01300000       5.59400000      27.52100000
 O      24.51000000      12.78400000      26.15900000
 H      24.61000000      12.49200000      27.06200000
 H      24.41800000      11.95500000      25.64200000
 O      16.02800000       6.31600000      27.00800000
 H      16.23500000       5.59400000      27.59500000
 H      15.83600000       6.99900000      27.67400000
 O      21.51200000       1.48900000      31.40600000
 H      21.77500000       0.72000000      31.92600000
 H      20.97300000       2.00400000      32.09000000
 O      23.04100000       9.32400000      29.17800000
 H      22.53400000      10.15600000      28.97300000
 H      22.89100000       8.79100000      28.37300000
 O      17.46000000      10.91400000      22.72600000
 H      18.28000000      11.30000000      23.00700000
 H      17.53100000      10.01000000      22.98300000
 O      27.74000000      10.30300000      21.77000000
 H      27.42400000      10.82900000      20.95500000
 H      26.83300000      10.09000000      22.12300000
 O      26.03900000      13.54700000      32.48100000
 H      25.58000000      14.28000000      32.92700000
 H      25.37900000      13.40700000      31.76400000
 O      25.95100000      12.11500000      34.79600000
 H      25.41600000      11.31200000      34.95800000
 H      25.80100000      12.30400000      33.84000000
 O      13.68200000      13.48000000      20.96700000
 H      14.39600000      13.30000000      21.58200000
 H      14.14800000      13.32900000      20.10900000
 O      14.16300000      10.91500000      32.34900000
 H      14.07900000       9.96900000      32.08200000
 H      14.87900000      11.15300000      31.73700000
 O      27.74000000       6.40500000      31.01300000
 H      27.97100000       5.51900000      31.31900000
 H      28.36800000       6.40500000      30.23400000
 O      27.40900000      12.97800000      27.24600000
 H      26.42700000      12.82900000      27.40900000
 H      27.68600000      12.20000000      27.85200000
 O      16.71700000      10.49600000      20.19100000
 H      16.84300000      10.73800000      21.10200000
 H      17.57400000      10.73900000      19.79500000
 O      14.04300000       1.48100000      31.92300000
 H      14.61700000       2.01900000      32.58300000
 H      14.58700000       0.70000000      31.88200000
 O      17.61700000      12.38800000      26.76300000
 H      17.46800000      11.47400000      26.95900000
 H      18.48100000      12.56900000      27.18300000
 O      24.29700000      13.41100000      30.43800000
 H      23.34900000      13.42900000      30.48900000
 H      24.53600000      14.17300000      29.93800000
 O      24.38700000       5.78000000      29.38100000
 H      25.08100000       5.75900000      28.71100000
 H      24.85200000       5.67500000      30.19100000
 O      23.82600000       8.55300000      23.01600000
 H      24.72600000       8.13200000      22.88200000
 H      23.37300000       7.74800000      23.35700000
 O      14.46300000       9.61200000      24.44700000
 H      14.05600000       9.22500000      25.27300000
 H      14.63400000      10.54700000      24.77500000
 O      17.08800000      12.91200000      33.26600000
 H      17.54200000      13.41800000      32.52200000
 H      17.82200000      12.84600000      33.89300000
 O      24.84500000       2.76000000      33.47900000
 H      24.77800000       2.66400000      32.50500000
 H      24.49200000       3.68800000      33.60300000
 O      22.69700000       2.85600000      29.20400000
 H      22.27900000       2.45900000      29.95500000
 H      22.78600000       2.11000000      28.58300000
 O      15.05700000      12.27300000      23.05800000
 H      15.90800000      11.83800000      23.04700000
 H      14.40900000      11.52200000      23.00700000
 O      19.04000000      13.54900000      24.39600000
 H      18.64900000      13.52800000      25.25300000
 H      19.66200000      12.80000000      24.42700000
 O      20.76700000       2.69400000      26.51300000
 H      21.67900000       3.10600000      26.49100000
 H      20.92400000       1.86400000      26.87800000
 O      20.55100000       8.75500000      21.74300000
 H      19.83300000       8.67300000      22.39800000
 H      20.84200000       7.81600000      21.71400000
 O      15.93900000      13.60200000      28.65100000
 H      15.16600000      14.13100000      28.40600000
 H      16.55200000      13.70400000      27.89700000
 O      21.62200000       6.89700000      24.35700000
 H      21.44200000       6.26200000      23.60700000
 H      20.73600000       7.04900000      24.68800000
 O      28.25800000      12.86200000      24.81400000
 H      27.98300000      12.85200000      25.76900000
 H      27.37700000      13.25400000      24.48000000
 O      26.11500000       3.34900000      24.82000000
 H      25.42000000       3.98400000      24.71400000
 H      26.37300000       3.20500000      23.85600000
 O      18.42300000       8.35700000      23.42100000
 H      18.53800000       8.28200000      24.39000000
 H      17.80000000       7.63100000      23.26600000
 O      25.29700000       7.06300000      31.97600000
 H      25.51700000       7.83800000      32.57100000
 H      26.23700000       6.85300000      31.74400000
 O      19.01000000       4.65500000      23.62200000
 H      19.40400000       3.82200000      23.80100000
 H      18.99900000       5.09500000      24.47000000
 O      28.53000000      12.80800000      33.25400000
 H      27.61000000      12.88000000      33.08100000
 H      28.89500000      12.50800000      32.37500000
 O      25.91100000      14.47500000      24.18200000
 H      25.61200000      15.28800000      24.70200000
 H      25.22600000      13.87000000      24.45700000
 O      14.18600000      11.95100000      26.40300000
 H      13.64100000      11.93400000      27.21900000
 H      15.05900000      11.77400000      26.72300000
 O      20.40500000      12.72100000      27.37600000
 H      21.05600000      12.84700000      26.68700000
 H      20.95000000      13.07900000      28.14400000
 O      20.24700000       6.60100000      32.21000000
 H      20.25800000       5.64600000      32.32800000
 H      21.11200000       6.67800000      31.76400000
 O      14.97300000       4.57800000      21.03600000
 H      13.99700000       4.74000000      20.77300000
 H      15.34600000       4.47600000      20.11700000
 O      19.61400000       8.63100000      34.65100000
 H      19.04300000       8.15300000      34.02700000
 H      20.02500000       7.85100000      35.08200000
 O      16.31900000       9.75400000      26.86400000
 H      17.12600000       9.20700000      26.59800000
 H      15.97700000       9.06100000      27.54400000
 O      15.41300000      11.04800000      29.86300000
 H      15.32000000      11.94000000      29.47000000
 H      14.62400000      10.56100000      29.50700000
 O      15.79700000       2.49600000      33.89000000
 H      16.03900000       1.99000000      34.69000000
 H      16.65500000       2.71300000      33.45700000
 O      19.58600000      10.25700000      27.58100000
 H      19.88600000      11.21700000      27.63400000
 H      19.36900000      10.20500000      28.57800000
 O      26.26700000       7.47700000      23.21600000
 H      25.84800000       7.06500000      24.07100000
 H      26.17000000       6.74400000      22.61700000
 O      27.24500000       2.92300000      21.74100000
 H      28.05200000       3.40500000      22.03200000
 H      27.25400000       3.21700000      20.77300000
 O      16.60900000       3.61700000      28.48800000
 H      17.17100000       3.26100000      27.80300000
 H      15.81400000       3.02500000      28.40000000
 O      20.55000000      11.34900000      23.02300000
 H      20.43900000      12.20200000      22.57600000
 H      20.75900000      10.78800000      22.21500000
 O      13.26000000       4.85200000      26.72600000
 H      13.29200000       4.64200000      25.80300000
 H      14.12700000       4.45300000      27.07200000
 O      19.37500000      10.93000000      30.43800000
 H      18.80300000      11.69300000      30.47500000
 H      20.21900000      11.27500000      30.83400000
 O      14.05000000      13.98300000      24.82600000
 H      14.59400000      13.45200000      24.23200000
 H      14.05600000      13.36800000      25.60300000
 O      24.35100000       9.95300000      35.21400000
 H      24.12300000       9.26300000      35.88200000
 H      23.49300000       9.88800000      34.67700000
 O      28.03700000      10.80700000      28.73700000
 H      28.73300000      10.11600000      28.69900000
 H      27.25500000      10.26600000      28.91700000
 O      21.23100000       3.76600000      33.40700000
 H      21.88600000       4.46600000      33.11100000
 H      21.70600000       3.21600000      33.99900000
 O      21.86200000       9.91300000      33.62000000
 H      20.98600000       9.53900000      33.90300000
 H      22.03400000       9.32600000      32.82200000
 O      17.21200000      10.25300000      32.59000000
 H      17.18600000       9.87100000      31.73500000
 H      17.50500000      11.13800000      32.51400000
 O      17.88400000       6.07100000      21.53400000
 H      16.96000000       6.03600000      21.85200000
 H      18.29700000       5.44500000      22.12700000
 O      17.49700000      13.93300000      30.74200000
 H      16.72600000      13.78200000      30.08300000
 H      18.07500000      14.37200000      30.11400000
 O      14.26800000       2.29400000      27.97600000
 H      14.16100000       1.57200000      28.67200000
 H      13.81100000       1.94200000      27.23000000
 O      17.21300000       7.48300000      33.35200000
 H      17.04000000       8.23500000      32.74800000
 H      16.79300000       6.75700000      32.86400000
 O      15.40800000       1.99600000      21.36200000
 H      15.03500000       1.83100000      20.45900000
 H      15.16300000       2.91800000      21.46900000
 O      18.33200000       1.10200000      21.96300000
 H      17.76100000       0.28500000      21.91600000
 H      18.11700000       1.56100000      21.17300000
 O      27.79200000       3.60000000      31.71900000
 H      27.45000000       2.69600000      31.91900000
 H      28.69000000       3.36600000      31.50000000
 O      14.43100000       4.51900000      23.97000000
 H      15.08900000       5.27800000      24.26900000
 H      14.51000000       4.74200000      22.98900000
 O      18.02200000       2.84800000      26.29300000
 H      17.36100000       2.56500000      25.56000000
 H      18.76500000       2.29000000      26.13000000
 O      21.05100000      12.01800000      32.19300000
 H      21.43500000      11.31600000      32.78600000
 H      20.61100000      12.55900000      32.92200000
 O      26.47800000       5.22900000      27.60400000
 H      26.65900000       4.44300000      27.07000000
 H      27.45100000       5.46000000      27.83700000
 O      22.46600000       7.49300000      30.96000000
 H      23.23500000       6.98000000      30.61800000
 H      22.57000000       8.30500000      30.37800000
 O      21.47500000      13.02900000      29.93200000
 H      21.24400000      14.00900000      30.10100000
 H      21.40900000      12.72700000      30.91200000
 O      15.50600000      10.46000000      34.71900000
 H      16.17900000      10.09300000      34.17900000
 H      14.75300000      10.57200000      34.15200000
 O      25.12400000       6.61800000      25.45200000
 H      25.55100000       6.05900000      26.14700000
 H      24.49000000       7.13200000      26.02800000
 O      21.54800000       5.07600000      28.73500000
 H      22.05300000       4.20700000      28.68100000
 H      22.35700000       5.58300000      29.05000000
 O      18.27500000       8.30400000      30.71200000
 H      18.74600000       7.57700000      31.19800000
 H      18.93400000       9.04800000      30.77800000
 O      23.67000000       5.27500000      33.19100000
 H      24.39100000       5.87500000      32.77600000
 H      23.90100000       5.60700000      34.11100000
 O      21.40500000       5.83400000      21.95000000
 H      22.22100000       5.82300000      21.34500000
 H      21.13600000       4.89900000      21.88000000
 O      24.98900000       0.90300000      26.06500000
 H      25.68600000       1.55100000      26.09000000
 H      24.45500000       1.17900000      25.31000000
 O      16.16800000       8.19400000      29.10800000
 H      15.53700000       8.79700000      29.55800000
 H      16.93300000       8.22900000      29.77500000
 O      14.17000000       4.64800000      33.89500000
 H      14.63600000       3.75800000      33.89300000
 H      14.71100000       5.18200000      34.43000000
