349
XYZ file of cluster: frame_6000_2146f.6ba9a.6d007 - created by MolEdiTo
 O      20.83000000      32.16500000      21.41800000
 H      20.37400000      31.99500000      22.27200000
 H      20.42100000      33.08800000      21.28000000
 O      16.19800000      28.30900000      28.24900000
 H      15.81900000      27.52800000      28.58300000
 H      15.70900000      28.43900000      27.38100000
 O      17.74500000      21.67500000      30.61400000
 H      18.51600000      21.33300000      31.12000000
 H      17.26800000      22.13900000      31.35400000
 O       7.74400000      27.33700000      34.45900000
 H       7.42300000      26.47500000      34.88800000
 H       7.17700000      27.36400000      33.63000000
 O       8.95900000      35.57900000      20.53700000
 H       8.51100000      34.75500000      20.26500000
 H       9.77400000      35.29000000      20.97600000
 O       9.76500000      32.78200000      32.71400000
 H       8.93300000      32.84700000      33.24500000
 H       9.96800000      33.77600000      32.73000000
 O      14.90000000      31.03000000      30.65100000
 H      15.77900000      31.29600000      30.50400000
 H      14.93700000      30.09700000      30.97200000
 O       8.12000000      20.78100000      27.70100000
 H       7.72100000      21.66600000      27.65100000
 H       8.93900000      20.93400000      27.15600000
 O      15.04800000      34.55300000      32.19300000
 H      14.14400000      34.24600000      32.49700000
 H      15.40000000      34.74400000      33.13000000
 O      17.41500000      33.58300000      31.14000000
 H      17.19600000      33.12400000      30.28700000
 H      16.50100000      33.77000000      31.50300000
 O       9.57100000      33.32200000      29.54400000
 H       8.62000000      33.43900000      29.57900000
 H       9.74800000      33.24600000      30.51200000
 O      21.23100000      32.64600000      33.83200000
 H      20.81300000      33.21700000      34.45500000
 H      20.41000000      32.35000000      33.36400000
 O       9.39600000      26.50100000      24.26700000
 H      10.14200000      26.74800000      24.87300000
 H       8.68600000      27.04200000      24.65800000
 O      14.80100000      23.57600000      34.55400000
 H      13.86200000      23.77000000      34.82500000
 H      15.12000000      23.10900000      35.36500000
 O       8.27700000      25.31700000      27.15600000
 H       7.68800000      24.57500000      26.85600000
 H       7.58900000      26.07900000      26.97800000
 O       8.51900000      31.30100000      22.19800000
 H       8.26400000      31.24900000      21.27900000
 H       7.68100000      31.58600000      22.59800000
 O      18.40100000      25.42900000      29.34200000
 H      19.15300000      25.95400000      28.98500000
 H      18.04700000      25.12400000      28.46400000
 O       7.14900000      33.34200000      30.91500000
 H       6.94700000      32.43900000      31.16200000
 H       7.27400000      33.73700000      31.79000000
 O      12.52100000      27.63500000      31.68100000
 H      13.34400000      28.13600000      31.29400000
 H      12.63700000      27.87400000      32.63800000
 O      13.39500000      31.87800000      23.10700000
 H      12.52600000      32.36500000      23.22600000
 H      14.01100000      32.66000000      23.17300000
 O       9.64000000      30.80500000      35.03000000
 H       9.31700000      31.53100000      34.44700000
 H       9.68200000      30.05500000      34.36100000
 O      15.27000000      21.66000000      22.21000000
 H      14.63800000      21.95500000      22.96400000
 H      16.09700000      22.17300000      22.46100000
 O      19.77200000      20.54700000      32.21500000
 H      19.92600000      21.11200000      33.00100000
 H      19.99200000      19.66700000      32.48900000
 O       9.49800000      30.41100000      29.04600000
 H       9.77000000      31.34600000      29.17800000
 H      10.43200000      30.05400000      29.03000000
 O      11.64400000      33.33900000      27.56700000
 H      11.00100000      33.57700000      28.25500000
 H      11.12900000      33.04300000      26.82200000
 O      13.70500000      23.85400000      27.23100000
 H      12.87200000      24.45500000      27.40100000
 H      14.41300000      24.48000000      27.27800000
 O      19.64100000      26.47000000      22.94800000
 H      19.54100000      26.65900000      23.89600000
 H      18.91200000      25.84400000      22.79100000
 O      13.77600000      26.97400000      20.95100000
 H      12.88700000      26.98200000      21.31300000
 H      13.76600000      27.80200000      20.38200000
 O       6.76800000      22.88200000      26.74900000
 H       5.89000000      22.44100000      26.54000000
 H       7.15000000      22.96900000      25.82700000
 O      12.32100000      32.50500000      30.17400000
 H      13.29600000      32.35700000      30.08800000
 H      12.10800000      32.48200000      29.21800000
 O      18.55600000      30.42700000      22.61100000
 H      17.88700000      29.69600000      22.46400000
 H      19.30700000      30.05200000      22.11200000
 O       8.62500000      31.23200000      26.30200000
 H       7.83100000      30.79100000      25.89800000
 H       8.36000000      31.06100000      27.22300000
 O      15.90600000      31.86900000      34.66900000
 H      16.09900000      31.62000000      35.57900000
 H      15.59200000      32.77400000      34.69900000
 O      11.18800000      31.57300000      25.36300000
 H      10.31500000      31.51200000      25.77300000
 H      11.05800000      32.27800000      24.69900000
 O      15.16400000      26.14500000      25.92400000
 H      14.98300000      26.03700000      24.93300000
 H      15.65600000      27.02700000      25.85500000
 O      20.83200000      32.66000000      28.91800000
 H      20.81500000      32.01500000      28.16500000
 H      21.68900000      32.46800000      29.29500000
 O      16.63100000      31.41700000      26.92400000
 H      16.32100000      32.11000000      26.32900000
 H      15.97200000      30.70500000      26.71700000
 O      13.36000000      29.34800000      33.83800000
 H      14.09800000      29.98600000      33.89600000
 H      12.72400000      29.92700000      33.28100000
 O      12.55500000      29.72800000      20.67700000
 H      12.15000000      29.47100000      21.53200000
 H      11.76800000      29.91700000      20.16900000
 O      18.68400000      22.96900000      25.87900000
 H      18.91900000      22.59200000      26.75300000
 H      18.26400000      23.81100000      26.20400000
 O      10.90300000      33.45500000      23.29400000
 H      10.67400000      33.23400000      22.38700000
 H      10.11700000      33.91300000      23.59900000
 O      19.81600000      26.70600000      33.75900000
 H      19.55600000      25.88100000      33.31000000
 H      20.75100000      26.74700000      33.54900000
 O       6.47400000      30.70000000      32.08200000
 H       7.16800000      30.08800000      32.25600000
 H       5.67700000      30.28100000      32.42000000
 O      18.62100000      24.88700000      32.00100000
 H      18.41800000      24.98000000      31.01100000
 H      17.92400000      24.26400000      32.21800000
 O       7.56500000      33.32800000      33.98500000
 H       6.66300000      33.05200000      34.13400000
 H       7.71200000      33.91500000      34.79400000
 O      10.69500000      22.77300000      28.59700000
 H      10.54600000      22.31900000      27.77200000
 H      10.64800000      22.08600000      29.26300000
 O      17.27800000      32.90000000      22.57100000
 H      17.68800000      33.02400000      23.47600000
 H      17.33900000      31.90500000      22.54600000
 O      17.66200000      25.23600000      26.65000000
 H      17.98400000      25.96900000      26.09300000
 H      16.73500000      25.50700000      26.77200000
 C      20.19400000      21.13700000      22.40500000
 C      19.96600000      20.28300000      21.18600000
 C      21.95300000      20.94600000      19.90300000
 H      20.10100000      20.22200000      19.13800000
 H      20.01600000      20.39900000      24.13000000
 O      19.76600000      22.23400000      19.78900000
 O      21.57700000      21.03600000      22.86900000
 O      19.35700000      20.59700000      23.41200000
 C      20.41500000      20.92800000      19.85900000
 O      20.52900000      18.96500000      21.33700000
 H      18.87100000      20.16000000      21.11600000
 O      22.39700000      20.27600000      18.73100000
 O      22.43600000      21.94700000      19.12300000
 H      22.66000000      21.06500000      18.60000000
 H      19.83000000      18.43100000      21.84400000
 H      18.85800000      21.97400000      19.47800000
 O      12.03300000      24.48500000      23.11900000
 H      12.17800000      24.07400000      22.22600000
 H      11.10000000      24.21500000      23.25000000
 O      18.29700000      27.44900000      25.23400000
 H      18.08500000      28.10800000      24.58200000
 H      18.62900000      28.00900000      25.93700000
 O      20.98200000      23.88200000      24.79300000
 H      20.21200000      23.44200000      25.25700000
 H      21.33000000      24.44100000      25.56200000
 O      11.68900000      23.37300000      32.84100000
 H      10.92600000      24.01900000      32.62700000
 H      11.93200000      23.76900000      33.71900000
 O      17.13600000      22.84500000      23.63100000
 H      17.77200000      22.85900000      24.37400000
 H      17.22300000      23.71700000      23.25000000
 O      12.79400000      33.57400000      33.27900000
 H      12.54300000      32.73700000      32.89500000
 H      12.21300000      33.58300000      34.10800000
 O      21.21100000      30.39800000      26.84000000
 H      20.26700000      30.21200000      26.57000000
 H      21.34100000      31.21000000      26.27700000
 O      11.21900000      27.13800000      22.00400000
 H      10.91200000      26.52400000      22.77200000
 H      10.67200000      27.93000000      22.26300000
 O      19.13300000      22.02600000      28.33500000
 H      19.98300000      22.02900000      28.86000000
 H      18.48900000      21.86400000      29.05000000
 O      16.43000000      28.58600000      22.23500000
 H      15.45300000      28.74600000      22.35900000
 H      16.44100000      28.13700000      21.38000000
 O      14.74900000      29.12600000      25.66700000
 H      14.66600000      29.02700000      24.72200000
 H      13.91200000      29.51600000      25.90800000
 O       6.39300000      27.54300000      31.68700000
 H       6.95800000      27.71300000      30.90400000
 H       6.36200000      26.56200000      31.61400000
 O      17.91100000      34.41600000      26.92400000
 H      17.67500000      34.97500000      26.16700000
 H      17.35000000      34.80000000      27.62500000
 O       6.92700000      24.92300000      31.74300000
 H       6.93500000      24.12000000      32.34600000
 H       7.49800000      24.63000000      31.03200000
 O      18.32200000      30.30700000      33.67200000
 H      18.63600000      30.70800000      32.86000000
 H      17.58800000      30.89400000      33.89300000
 O       8.56600000      34.97900000      23.39700000
 H       8.22800000      35.87000000      23.10200000
 H       7.75700000      34.41900000      23.15900000
 O      15.48500000      26.07700000      29.55700000
 H      16.31700000      25.79600000      30.02000000
 H      14.99300000      25.24300000      29.55500000
 O       9.84800000      25.20700000      32.31600000
 H       8.92700000      25.43800000      32.49000000
 H      10.04000000      25.70400000      31.52000000
 O       6.56400000      24.80600000      34.86100000
 H       6.45000000      24.43000000      35.75100000
 H       7.02700000      24.06600000      34.41800000
 O      14.88400000      34.01300000      23.56700000
 H      15.14300000      34.85000000      23.98800000
 H      15.68500000      33.86800000      23.04200000
 O      16.49000000      23.25900000      32.41300000
 H      16.11400000      23.33200000      33.33400000
 H      15.67600000      23.30300000      31.89200000
 O      13.49200000      20.94900000      20.48400000
 H      14.17400000      21.17600000      21.12400000
 H      13.14100000      20.10900000      20.90300000
 O       6.94700000      28.21300000      23.55000000
 H       6.68200000      27.29300000      23.35400000
 H       7.47700000      28.44000000      22.79400000
 O       6.34100000      21.30000000      30.38400000
 H       6.84500000      20.61300000      29.90300000
 H       6.98100000      21.40700000      31.14000000
 O      20.41200000      21.87600000      34.55400000
 H      20.74400000      21.88800000      35.45300000
 H      20.72200000      22.73400000      34.28200000
 O      20.90900000      28.68700000      21.82900000
 H      21.49000000      28.95300000      22.58900000
 H      20.37700000      27.95500000      22.28500000
 O      18.81400000      30.19900000      25.93800000
 H      18.90900000      30.65200000      25.07000000
 H      18.18000000      30.84900000      26.34500000
 O       9.48300000      34.43200000      26.06000000
 H       8.95300000      34.57800000      25.23200000
 H       8.84100000      34.03700000      26.68300000
 O      12.38700000      20.76500000      35.07700000
 H      11.60900000      21.03100000      35.56500000
 H      12.34500000      21.20700000      34.25300000
 O      17.18100000      25.30500000      22.44000000
 H      16.33400000      25.61200000      22.84100000
 H      16.90000000      25.11000000      21.53400000
 O      11.31500000      21.18200000      31.38600000
 H      12.10000000      21.40700000      30.83000000
 H      11.35400000      21.98400000      32.01900000
 O       9.71500000      28.76600000      33.43200000
 H      10.25700000      28.43800000      32.73600000
 H       9.10000000      28.07500000      33.65700000
 O      11.81400000      30.98100000      32.34400000
 H      12.06800000      31.43600000      31.57600000
 H      10.98100000      31.33700000      32.55200000
 O      13.74000000      22.63700000      24.31000000
 H      13.84300000      22.69500000      25.28600000
 H      13.21000000      23.40600000      24.09300000
 O      19.87100000      34.76200000      21.60300000
 H      19.48300000      34.92500000      22.46000000
 H      19.12200000      34.60400000      21.01400000
 O      17.95500000      28.01800000      32.25400000
 H      18.07300000      28.92300000      32.63600000
 H      18.68800000      27.56000000      32.75700000
 O      15.28100000      28.38500000      31.32700000
 H      15.43000000      27.71100000      30.67000000
 H      15.85600000      28.10900000      32.03500000
 O      10.66400000      29.64200000      23.14000000
 H      10.69300000      30.07000000      24.00900000
 H       9.84000000      30.08600000      22.73000000
 O      13.35700000      27.04500000      35.37700000
 H      12.78500000      27.51800000      36.01000000
 H      13.49300000      27.77300000      34.68800000
 O      11.10300000      25.50500000      27.60900000
 H      11.15800000      24.80800000      28.30600000
 H      10.12900000      25.56800000      27.52700000
 O      14.16300000      23.95800000      30.39600000
 H      13.46900000      24.15600000      31.01900000
 H      13.93200000      23.01900000      30.11800000
 O      14.50500000      26.01400000      23.29600000
 H      14.42700000      26.44600000      22.38300000
 H      13.68300000      25.48600000      23.29200000
 O      13.38100000      21.43700000      29.67700000
 H      14.32400000      21.11300000      29.76700000
 H      13.41400000      21.62600000      28.71500000
 O      18.43500000      28.97600000      29.74600000
 H      18.15200000      28.51200000      30.58400000
 H      17.64200000      28.74300000      29.20700000
 O       6.41400000      30.83100000      29.06800000
 H       7.20100000      30.41900000      29.49800000
 H       5.92700000      29.95700000      28.94300000
 O      10.78200000      28.40200000      26.02000000
 H      10.71400000      29.34500000      26.25100000
 H      11.75000000      28.29500000      25.99800000
 O      20.43200000      27.47600000      28.76000000
 H      19.85600000      28.15800000      29.20400000
 H      21.31600000      27.78400000      28.86000000
 O       9.38200000      23.48100000      24.14700000
 H       9.23900000      24.39100000      24.52800000
 H       8.47600000      23.18600000      24.00700000
 O      13.01400000      27.42200000      27.32700000
 H      12.26800000      26.76900000      27.31400000
 H      13.70800000      26.89100000      26.90100000
 O      14.01700000      29.31400000      23.14500000
 H      13.15400000      29.04600000      23.56200000
 H      13.84600000      30.25600000      22.96400000
 O      10.25300000      27.28000000      30.36900000
 H      10.03200000      27.84600000      29.68800000
 H      10.96800000      27.72000000      30.84100000
 O      18.91500000      32.76300000      24.85600000
 H      19.87000000      32.69700000      25.02100000
 H      18.67700000      33.27800000      25.65200000
 O      10.10200000      21.76100000      26.20600000
 H      10.82200000      21.18400000      25.85400000
 H       9.97000000      22.41400000      25.52800000
 O      14.16400000      32.93500000      26.59700000
 H      13.45500000      33.44700000      27.06600000
 H      13.86500000      32.90100000      25.68700000
 O       7.69000000      22.85000000      33.28200000
 H       7.75400000      22.55500000      34.17900000
 H       8.03800000      22.01000000      32.81900000
 O      17.31300000      31.32000000      29.50600000
 H      17.14900000      31.23700000      28.53800000
 H      17.79700000      30.45700000      29.64100000
 O      14.07400000      30.69100000      27.96100000
 H      14.32200000      31.55300000      27.54700000
 H      14.54000000      30.80700000      28.81900000
 O      19.39500000      32.08400000      31.84500000
 H      19.78600000      32.02500000      30.92100000
 H      18.63300000      32.68900000      31.58900000
 O       7.61800000      27.56900000      20.99500000
 H       8.26500000      27.79900000      20.32000000
 H       7.58300000      26.61800000      20.89900000
 O      11.92400000      29.55100000      28.90300000
 H      12.37900000      28.67000000      28.71300000
 H      12.58600000      30.08700000      28.32800000
 O      20.90700000      23.26100000      30.40500000
 H      20.24400000      23.77100000      30.95800000
 H      21.33900000      22.81800000      31.22000000
 O      12.34200000      35.46200000      30.68100000
 H      12.41800000      34.51600000      30.76100000
 H      12.03700000      35.71300000      31.60800000
 O       8.28500000      24.25600000      29.74900000
 H       8.13400000      24.53300000      28.83800000
 H       9.16200000      23.87300000      29.66800000
