267
XYZ file of cluster: frame_6000_0.4bdcb.10c9 - created by MolEdiTo
 O      14.36800000      23.92900000       1.10100000
 H      13.77500000      24.11500000       0.38000000
 H      15.23900000      23.90700000       0.71300000
 O       7.14100000      20.35600000       2.49300000
 H       7.91300000      20.97000000       2.51300000
 H       7.22500000      19.79700000       3.26800000
 O       5.79100000      23.69300000       7.42000000
 H       5.85800000      23.83000000       6.49300000
 H       6.67400000      23.91600000       7.71600000
 O       7.80000000      26.25700000       1.32300000
 H       8.78300000      26.22700000       1.53800000
 H       7.50400000      26.87400000       2.01900000
 O      13.08500000      23.61200000      10.01200000
 H      12.85600000      24.20600000      10.79400000
 H      13.65500000      24.22400000       9.53400000
 O       1.72400000      24.48000000       1.35000000
 H       2.11000000      23.54500000       1.32300000
 H       1.87900000      24.70000000       0.40600000
 O       8.24600000      25.17400000      12.69600000
 H       8.63700000      24.26700000      12.66800000
 H       7.75500000      25.15800000      11.83700000
 O       1.02700000      13.51500000       1.02500000
 H       0.36000000      14.20800000       0.94400000
 H       0.87800000      12.98700000       0.17900000
 O      12.45000000      14.49500000       7.15000000
 H      12.73000000      14.73000000       6.21600000
 H      11.79500000      13.80300000       6.90300000
 O       3.66500000      25.72800000      10.70500000
 H       3.47100000      24.76200000      10.54600000
 H       3.57900000      25.79600000      11.66300000
 O       7.37000000      25.57400000      10.07000000
 H       6.75700000      26.28700000       9.74200000
 H       8.19200000      25.86500000       9.62500000
 O      10.82000000      16.32300000       8.47900000
 H      10.16200000      16.54900000       7.80700000
 H      11.38200000      15.64100000       8.02900000
 O      11.33500000      22.40100000       8.20500000
 H      11.82300000      22.63500000       9.02800000
 H      11.71000000      23.13500000       7.64500000
 O       7.41200000      16.07800000      13.03500000
 H       7.47600000      17.06100000      12.81800000
 H       7.28500000      16.15300000      13.98000000
 O       9.73500000      25.74000000       8.42400000
 H      10.28400000      26.42500000       8.85200000
 H      10.24900000      24.91900000       8.65100000
 O       2.07100000      26.80300000       8.10600000
 H       2.79000000      27.01000000       7.48400000
 H       2.51600000      26.01200000       8.49600000
 O       6.48600000      22.87900000       4.81600000
 H       7.28900000      23.11700000       4.34300000
 H       5.84900000      22.70700000       4.12100000
 O      10.39000000      21.31500000      11.01900000
 H      10.68600000      21.78400000      10.24600000
 H      10.74700000      20.40600000      10.89400000
 O       6.91100000      27.79500000       6.54200000
 H       6.77300000      27.45400000       7.46800000
 H       7.20900000      28.73700000       6.73000000
 O       4.20200000      20.44400000       3.00200000
 H       4.09100000      21.39300000       3.34300000
 H       4.96000000      20.59900000       2.39600000
 O       2.57600000      13.08600000       3.38500000
 H       2.10200000      13.37300000       2.52000000
 H       2.69700000      13.97700000       3.77400000
 O       9.84700000      14.82600000      13.51900000
 H      10.51000000      15.50900000      13.41200000
 H       9.09100000      15.29300000      13.02500000
 O      12.57500000      15.14600000       4.29700000
 H      13.26600000      15.24900000       3.61800000
 H      12.82100000      15.92600000       4.89400000
 O      12.70500000      21.02600000      13.14600000
 H      11.89200000      21.10200000      12.67100000
 H      12.57100000      21.62200000      13.88000000
 O       7.66400000      23.60000000       1.33300000
 H       8.30600000      23.47400000       2.04100000
 H       7.72500000      24.59000000       1.19300000
 O       1.89600000      21.23400000       8.38000000
 H       2.88000000      21.21600000       8.55600000
 H       1.75200000      20.27500000       8.54000000
 O       8.77800000      15.57400000       2.64500000
 H       9.29300000      15.93500000       3.38900000
 H       9.26300000      16.06300000       1.92000000
 O       2.49900000      15.52100000       4.24100000
 H       2.93300000      15.65400000       5.12000000
 H       2.76800000      16.24400000       3.70400000
 O       3.28200000      24.10500000       8.36300000
 H       4.22100000      23.81200000       8.27200000
 H       3.01000000      23.38000000       8.97300000
 O       3.52900000      25.91000000       4.40200000
 H       3.92700000      26.70100000       4.87900000
 H       4.20700000      25.85100000       3.71400000
 O      13.50600000      14.80000000       9.72800000
 H      13.03300000      14.08400000      10.10200000
 H      12.98700000      15.10100000       8.95900000
 O      10.42300000      26.58800000      13.17300000
 H      10.16900000      27.48200000      12.85900000
 H       9.55800000      26.16300000      13.04200000
 O       7.87300000      21.31100000       9.54000000
 H       8.44400000      21.12100000      10.30500000
 H       7.21400000      21.97900000       9.88600000
 O      13.85400000      24.19600000       3.59100000
 H      14.04200000      25.14800000       3.76200000
 H      13.96900000      24.14100000       2.60700000
 O       1.61700000      20.51500000       2.40400000
 H       1.70100000      19.84000000       1.66500000
 H       2.62800000      20.55100000       2.62500000
 O       4.22300000      22.93900000       3.53400000
 H       4.07300000      23.74800000       2.95300000
 H       3.76700000      23.23100000       4.31500000
 O       4.78900000      25.23600000       1.90200000
 H       5.59900000      24.91000000       1.55900000
 H       4.54900000      26.00000000       1.36800000
 O      11.70800000      22.57600000       4.03400000
 H      12.48700000      23.13200000       4.21800000
 H      10.99000000      23.13500000       4.32900000
 O       6.49000000      15.76700000      10.55900000
 H       6.82100000      15.80300000      11.49400000
 H       6.40800000      16.74900000      10.42700000
 O       0.85400000      21.01500000      13.47500000
 H       0.42700000      21.15700000      14.35900000
 H       0.00000000      20.60500000      13.05800000
 O      13.65400000      27.20500000      11.31000000
 H      13.51500000      26.30200000      11.61800000
 H      13.70100000      27.68100000      12.11300000
 O       4.28700000      25.95200000      13.47400000
 H       4.83600000      26.82600000      13.53700000
 H       3.62800000      26.22200000      14.20200000
 O       4.39600000      15.04800000      13.55700000
 H       3.76800000      14.84100000      14.30100000
 H       3.99600000      15.90500000      13.25400000
 O       5.44400000      23.47300000      12.98000000
 H       5.05300000      24.26400000      13.38900000
 H       4.75700000      22.77300000      13.16100000
 O      11.28200000      27.49500000       9.73400000
 H      10.66900000      27.73900000      10.44900000
 H      12.11800000      27.42800000      10.25900000
 O      13.30400000      17.62600000       5.55400000
 H      14.03500000      18.01300000       6.07300000
 H      12.73300000      18.39300000       5.44900000
 O       9.40200000      24.19700000       3.75300000
 H      10.02600000      24.92900000       3.41200000
 H       9.08400000      24.60100000       4.56300000
 O      12.30600000      24.85100000      12.18700000
 H      11.60000000      25.50600000      12.47900000
 H      12.75500000      24.71400000      13.04400000
 O       5.29200000      13.28800000      11.60300000
 H       5.91000000      13.83800000      11.09500000
 H       5.00500000      13.96000000      12.32700000
 O       5.47100000      20.68700000       6.26500000
 H       5.66700000      19.97000000       5.63100000
 H       6.07700000      21.42000000       5.96400000
 O      11.57100000      26.10200000       3.05400000
 H      11.46400000      26.51900000       3.90600000
 H      12.59900000      26.18600000       3.00900000
 O       6.21200000      22.95700000      10.46700000
 H       5.92500000      23.23900000      11.34400000
 H       6.61800000      23.77600000      10.20800000
 O       9.74400000      21.49300000       2.77100000
 H      10.42900000      22.07700000       3.22100000
 H      10.23500000      21.27300000       1.94200000
 O       0.99100000      16.99700000      11.00100000
 H       0.95800000      17.74200000      10.40600000
 H       1.83000000      17.21100000      11.48300000
 O       4.54500000      15.79400000       6.11400000
 H       5.34800000      15.97700000       5.61700000
 H       4.69400000      14.93500000       6.52700000
 O       5.63700000      16.41700000       1.17900000
 H       4.99100000      16.47200000       1.92500000
 H       5.45100000      17.31200000       0.80400000
 O      12.16500000      24.77600000       7.17400000
 H      13.03500000      25.21500000       6.92400000
 H      11.56400000      25.43900000       6.78400000
 O       9.58700000      22.80500000      13.32700000
 H      10.10300000      22.69500000      14.18500000
 H      10.17700000      22.33600000      12.68500000
 O       9.76000000      14.12700000       9.97800000
 H      10.09500000      15.03400000       9.88700000
 H       8.89800000      14.12100000       9.57800000
 O       8.51700000      25.50300000       5.95200000
 H       8.11400000      26.34900000       5.99700000
 H       9.11400000      25.52000000       6.75800000
 O       6.91400000      18.74800000       8.02700000
 H       7.32500000      19.14000000       8.82900000
 H       6.34900000      19.54000000       7.78700000
 O       2.57000000      23.56500000       5.86400000
 H       2.85100000      24.45600000       5.58800000
 H       2.68900000      23.67400000       6.83000000
 O       6.97200000      14.10800000       1.00200000
 H       7.59900000      14.32500000       1.74100000
 H       6.43300000      14.92500000       1.08200000
 O       3.77900000      17.53200000      12.58400000
 H       3.84100000      18.31300000      13.21200000
 H       4.53700000      17.68400000      11.99100000
 O       0.85600000      14.37900000      10.11500000
 H       1.58500000      13.90000000      10.60900000
 H       1.01000000      15.31000000      10.44100000
 O       6.44900000      18.33900000      11.83900000
 H       7.44000000      18.30100000      11.63000000
 H       6.30000000      19.26400000      11.92000000
 O       5.64700000      27.53600000       9.42700000
 H       4.94100000      26.84200000       9.53500000
 H       5.24800000      28.32000000       9.86200000
 O      10.03600000      17.19200000       4.43200000
 H       9.48400000      17.26200000       5.26600000
 H      10.61400000      17.97800000       4.48300000
 O      11.40800000      18.72100000       9.94100000
 H      12.29100000      18.48500000      10.30600000
 H      11.25100000      17.90500000       9.40600000
 O      11.50100000      19.67700000       4.84700000
 H      12.11500000      20.26500000       4.41200000
 H      11.01000000      20.29400000       5.42400000
 O       9.00700000      14.27700000       5.29200000
 H       8.29500000      14.53700000       5.94800000
 H       9.43300000      15.16700000       5.16300000
 O       6.62100000      15.81300000       4.35000000
 H       7.01900000      15.39700000       3.52000000
 H       7.03500000      16.67800000       4.28800000
 O       4.37000000      21.11700000       8.99400000
 H       4.81300000      21.76400000       9.51100000
 H       4.83400000      21.07100000       8.16000000
 O       3.67600000      21.49700000      13.19100000
 H       2.67500000      21.36700000      13.41200000
 H       3.57200000      21.79000000      12.26700000
 O       8.72500000      17.01400000       6.75400000
 H       8.21900000      16.27300000       7.23400000
 H       8.04300000      17.71900000       6.95400000
 O       8.99400000      18.01100000      11.26000000
 H       9.82700000      17.67100000      10.93500000
 H       9.35600000      18.61000000      12.01600000
 O       1.13600000      27.38700000      10.85600000
 H       1.93400000      26.82300000      10.56300000
 H       0.85600000      27.69300000       9.98800000
 O       3.57900000      17.40900000       2.73000000
 H       2.86500000      17.57400000       2.12400000
 H       4.02900000      18.28900000       2.74800000
 O      13.87600000      17.96900000      11.08300000
 H      14.33600000      17.11400000      11.22700000
 H      13.31900000      17.99800000      11.85900000
 O       7.63100000      14.92600000       7.91600000
 H       7.17000000      15.30000000       8.71900000
 H       7.16800000      14.10700000       7.78600000
 O       8.08700000      19.46500000       5.08000000
 H       8.87000000      19.33300000       4.59900000
 H       8.43600000      19.96900000       5.90000000
 O      11.73800000      17.10500000      13.34900000
 H      11.73600000      16.79200000      14.26000000
 H      11.33900000      18.01600000      13.49900000
 O      14.17900000      20.64400000       9.71200000
 H      13.44700000      20.97600000      10.16900000
 H      14.12200000      19.67000000       9.93000000
 O      11.39500000      27.23800000       5.75600000
 H      10.63700000      27.78200000       6.06800000
 H      12.11900000      27.84300000       5.77100000
 O       9.26400000      19.56900000      13.37000000
 H       8.50900000      20.06500000      13.72200000
 H       9.95600000      19.84900000      13.98300000
 O       2.84500000      17.81500000       7.41900000
 H       3.25200000      16.92000000       7.11000000
 H       3.60000000      18.39800000       7.26500000
 O       2.44900000      22.94200000      11.21900000
 H       1.63700000      23.41400000      11.30900000
 H       2.07200000      22.04300000      11.07200000
 O       2.67900000      20.01500000       5.04600000
 H       3.13500000      20.48300000       5.73400000
 H       3.34700000      19.90100000       4.35000000
 O       9.69200000      20.68600000       6.96100000
 H      10.20000000      21.51200000       7.21400000
 H       9.54400000      20.29900000       7.81500000
