912
XYZ file of cluster: frame_6000_73c36.237e0.c4569 - created by MolEdiTo
 O      31.71400000       9.73500000      34.36000000
 H      31.24400000       9.05300000      34.85600000
 H      31.63800000      10.51200000      35.02800000
 O      25.75400000       8.04100000      38.98200000
 H      26.11000000       8.92900000      39.29300000
 H      24.82000000       8.08800000      39.16500000
 O      27.11500000      19.63600000      37.82800000
 H      26.96600000      20.57000000      38.00900000
 H      26.31900000      19.37200000      37.35800000
 O      39.36200000      20.37000000      34.22700000
 H      39.66600000      19.53400000      33.83400000
 H      40.00500000      20.57900000      34.92600000
 O      30.20100000      20.33800000      36.65500000
 H      30.29300000      20.49600000      35.73800000
 H      29.79700000      19.47500000      36.68300000
 O      23.13200000       8.98400000      39.72600000
 H      23.17700000       9.95000000      39.56900000
 H      23.05300000       8.97700000      40.67800000
 O      24.06800000      35.67400000      37.79800000
 H      23.29100000      35.25500000      38.08900000
 H      24.78000000      35.02500000      37.99900000
 O      38.34100000      12.68200000      38.36600000
 H      38.23600000      13.28800000      37.61600000
 H      39.04700000      12.13000000      38.01500000
 O      28.93700000      38.40300000      35.96400000
 H      27.96100000      38.38900000      36.23400000
 H      28.86200000      38.06400000      35.07000000
 O      37.73700000      18.10400000      34.79100000
 H      37.90800000      18.66800000      35.59100000
 H      38.67800000      17.82500000      34.62500000
 O      22.78000000      30.84000000      36.80600000
 H      22.35100000      29.91600000      36.78300000
 H      22.00400000      31.25900000      37.32200000
 O      38.43600000      34.13400000      38.98900000
 H      38.52700000      35.05400000      39.33100000
 H      38.13800000      33.70800000      39.85200000
 O      39.68800000      29.74800000      38.29800000
 H      39.03200000      29.89200000      37.63300000
 H      39.04000000      29.47300000      39.06900000
 O      32.54600000      16.72800000      38.68100000
 H      32.09400000      17.57500000      38.93000000
 H      33.44900000      16.89500000      39.04500000
 O      39.94900000      16.64900000      34.62400000
 H      40.48700000      16.70500000      33.76700000
 H      40.02300000      15.63200000      34.73600000
 O      25.55900000      30.62700000      37.13900000
 H      25.53100000      29.63500000      37.28000000
 H      24.59400000      30.81700000      37.24400000
 O      25.66200000      27.96000000      37.90600000
 H      25.39700000      27.04900000      37.76600000
 H      26.06100000      27.88600000      38.79500000
 O      24.61100000      19.02600000      36.59200000
 H      23.95000000      19.25700000      35.85000000
 H      24.02300000      19.24400000      37.37000000
 O      28.94400000      33.63200000      38.97500000
 H      29.28100000      33.83200000      38.10000000
 H      29.49300000      34.26300000      39.50000000
 O      21.69600000      28.21700000      37.02600000
 H      21.45800000      28.06600000      37.92200000
 H      20.80000000      28.15000000      36.56400000
 O      36.93700000      14.06400000      40.33700000
 H      37.69300000      14.55800000      40.68300000
 H      37.39200000      13.30200000      39.91700000
 O      27.16100000      27.42500000      35.30300000
 H      27.11100000      27.87800000      36.11100000
 H      27.52100000      28.17400000      34.75100000
 O      22.02300000      15.00800000      35.29000000
 H      22.78200000      14.44100000      35.62400000
 H      21.81800000      15.44100000      36.18500000
 O      35.36400000      29.47000000      36.69500000
 H      35.26600000      29.85600000      35.80400000
 H      35.57800000      28.54400000      36.51800000
 O      23.61100000      11.65300000      39.68600000
 H      23.87200000      12.50900000      39.23500000
 H      24.51300000      11.24000000      39.77300000
 O      25.97100000      34.00400000      39.77100000
 H      26.05500000      33.51600000      38.91400000
 H      26.55800000      34.77500000      39.62800000
 O      35.53100000      26.84800000      35.59600000
 H      35.21500000      26.48600000      36.50600000
 H      34.99000000      26.21200000      35.03800000
 O      21.15900000      11.64500000      36.76200000
 H      21.20700000      10.87900000      37.32300000
 H      22.01100000      12.07400000      36.74400000
 O      35.93900000      37.76700000      36.16400000
 H      36.60000000      37.90800000      36.88500000
 H      35.99800000      36.84500000      36.00500000
 O      30.29600000      31.40200000      37.08300000
 H      29.49000000      31.22500000      37.57400000
 H      30.93400000      30.82500000      37.58000000
 O      36.11200000      14.54700000      36.94700000
 H      36.24200000      14.51500000      35.95500000
 H      35.25200000      14.05700000      37.00400000
 O      20.70800000       7.56500000      38.10800000
 H      20.07700000       7.00400000      38.61200000
 H      20.93800000       8.23300000      38.74700000
 O      22.38500000      19.75600000      34.92500000
 H      22.03500000      20.58500000      34.51600000
 H      21.60400000      19.45500000      35.42800000
 O      24.29200000      22.13700000      36.58300000
 H      24.51600000      21.59100000      35.80800000
 H      23.74000000      21.53800000      37.08100000
 O      40.44900000       7.34700000      37.75200000
 H      39.56100000       7.79000000      37.47600000
 H      40.92800000       8.18400000      37.99900000
 O      35.38100000      27.24900000      40.26200000
 H      36.15900000      26.62400000      40.54000000
 H      35.29400000      26.90900000      39.36400000
 O      35.55500000      16.15000000      38.91400000
 H      35.59900000      15.69700000      38.05200000
 H      36.21600000      15.54800000      39.36100000
 O      27.16200000      22.10700000      35.13400000
 H      27.15700000      21.15600000      34.81100000
 H      27.50400000      21.94500000      36.02500000
 O      31.77000000      30.18400000      39.88900000
 H      32.24300000      29.81600000      39.06500000
 H      32.57800000      30.62500000      40.23100000
 O      39.01500000      15.57100000      40.72600000
 H      38.91900000      16.47900000      40.28600000
 H      39.07100000      15.84400000      41.66000000
 O      26.25700000       8.53800000      33.88900000
 H      26.17900000       8.07100000      34.75000000
 H      26.44900000       9.44300000      34.19500000
 O      26.25500000      10.69000000      39.94800000
 H      26.73100000      10.44500000      40.76000000
 H      26.87200000      11.29100000      39.51800000
 O      39.94200000      38.10000000      36.15400000
 H      40.14700000      38.29100000      37.14700000
 H      40.06700000      38.98900000      35.82100000
 O      34.72600000       9.78900000      34.56600000
 H      33.85200000       9.57900000      34.29300000
 H      34.69100000       9.74600000      35.56100000
 O      31.68400000      19.24500000      39.29700000
 H      30.78800000      19.58400000      39.42700000
 H      31.97900000      19.21700000      40.22200000
 O      28.47700000      11.98000000      39.16600000
 H      28.15000000      12.42500000      38.40500000
 H      28.41300000      12.70800000      39.85600000
 O      23.54100000      32.95200000      35.21500000
 H      22.66600000      33.08600000      34.81900000
 H      23.37200000      32.13700000      35.78400000
 O      31.93100000      14.08800000      35.00300000
 H      31.68100000      14.94000000      35.46200000
 H      32.71700000      13.90600000      35.53400000
 O      38.59300000      27.47700000      35.62800000
 H      37.71500000      27.52200000      35.29400000
 H      38.76100000      26.60400000      35.87700000
 O      36.47900000      18.46100000      38.22100000
 H      35.81000000      18.92100000      37.59800000
 H      35.98500000      17.58200000      38.30800000
 O      23.67800000      12.97600000      36.30000000
 H      24.28200000      12.50900000      35.68800000
 H      24.28400000      13.24500000      37.02700000
 O      38.25800000      29.20900000      40.49100000
 H      37.39200000      28.63300000      40.54800000
 H      38.82000000      28.72100000      41.15000000
 O      32.02000000      37.70400000      38.24400000
 H      31.82000000      38.64500000      37.98500000
 H      32.76700000      37.89400000      38.85900000
 O      36.00900000      19.56600000      40.69800000
 H      36.27500000      19.43100000      39.74300000
 H      36.85500000      19.76800000      41.03700000
 O      32.71300000      21.13900000      37.79900000
 H      32.33800000      20.39200000      38.34000000
 H      32.01600000      21.21700000      37.08900000
 O      29.10800000      17.92500000      36.54400000
 H      28.44800000      18.46500000      37.00800000
 H      28.65200000      17.74600000      35.70200000
 O      25.25000000      13.77400000      38.66900000
 H      25.24400000      14.50100000      39.25700000
 H      25.90300000      13.94800000      38.00100000
 O      25.95100000      12.11500000      34.79600000
 H      25.41600000      11.31200000      34.95800000
 H      25.80100000      12.30400000      33.84000000
 O      33.01000000      24.59900000      39.41200000
 H      32.75700000      25.08600000      40.17900000
 H      32.38700000      23.84300000      39.39600000
 O      35.95900000      36.05100000      39.37500000
 H      36.22400000      35.69900000      40.26900000
 H      36.27900000      35.35600000      38.81700000
 O      39.59900000      35.53200000      35.39000000
 H      38.60100000      35.62100000      35.47200000
 H      39.86900000      36.40900000      35.79800000
 O      33.75500000      23.07000000      36.00600000
 H      33.93300000      22.39400000      35.32700000
 H      33.45200000      22.51500000      36.74200000
 O      22.51200000      39.29300000      39.17800000
 H      23.39000000      39.48100000      38.78600000
 H      22.68500000      38.45500000      39.72500000
 O      35.32100000      32.04700000      37.60300000
 H      35.39700000      31.09200000      37.42400000
 H      34.45800000      32.23700000      37.12300000
 O      26.88300000      25.24400000      40.22100000
 H      27.74200000      25.29800000      40.66200000
 H      27.24900000      25.04900000      39.26700000
 O      40.60100000      12.47400000      36.86200000
 H      41.07300000      12.57000000      37.71200000
 H      41.15900000      11.80000000      36.39200000
 O      21.07700000      16.38700000      37.76700000
 H      21.88400000      16.19900000      38.30900000
 H      20.39200000      16.18900000      38.41600000
 O      22.33400000      19.00500000      40.74200000
 H      22.39100000      19.36200000      41.65000000
 H      22.06200000      18.09400000      40.89100000
 O      25.35000000      16.44200000      40.15300000
 H      25.75800000      17.30300000      40.33100000
 H      25.52100000      15.99000000      40.98300000
 O      32.60200000      29.17700000      37.59000000
 H      32.23000000      28.64000000      36.85800000
 H      33.49100000      29.30500000      37.33400000
 O      23.85100000      36.86700000      40.64100000
 H      24.16600000      36.22900000      39.97700000
 H      24.67200000      37.15400000      41.13700000
 O      30.78600000      34.69800000      34.44500000
 H      30.04700000      34.11000000      34.64800000
 H      31.00800000      35.12200000      35.27100000
 O      40.59700000      32.15500000      39.33300000
 H      40.10900000      31.28400000      39.11800000
 H      39.81700000      32.77200000      39.21800000
 O      37.79600000       7.84000000      37.09300000
 H      37.57000000       8.05300000      36.16400000
 H      37.50800000       8.64500000      37.55200000
 O      38.91800000      25.38500000      38.73500000
 H      38.19500000      25.21100000      38.15400000
 H      38.48500000      25.35400000      39.60500000
 O      24.92400000      25.76900000      34.54600000
 H      25.54400000      26.48000000      34.64000000
 H      24.78700000      25.53500000      35.48100000
 O      34.66600000      39.40400000      34.44400000
 H      34.34500000      38.67300000      33.89600000
 H      34.85400000      38.86300000      35.31100000
 O      26.41200000      22.34900000      38.19000000
 H      26.98300000      23.13000000      38.22700000
 H      25.59100000      22.64400000      37.74100000
 O      36.58000000      10.45800000      37.87300000
 H      36.96300000      10.81900000      37.01100000
 H      36.91700000      11.22900000      38.43200000
 O      33.96500000      10.02100000      37.13000000
 H      34.79700000      10.00300000      37.58800000
 H      33.34100000       9.59900000      37.81000000
 O      27.81600000      30.91400000      38.90200000
 H      26.99400000      30.83700000      38.47100000
 H      27.97400000      31.90500000      38.89300000
 O      32.36700000       8.54900000      38.88300000
 H      31.44700000       8.93700000      38.83800000
 H      32.46100000       8.67600000      39.85900000
 O      31.19100000      16.35900000      36.23500000
 H      31.66000000      16.49300000      37.09300000
 H      30.36700000      16.93000000      36.49700000
 O      32.52100000      31.01100000      34.15900000
 H      33.42100000      30.92600000      33.78900000
 H      32.61000000      31.68600000      34.82200000
 O      30.22700000      11.88000000      35.76300000
 H      29.80300000      11.94900000      34.90300000
 H      30.93000000      12.50900000      35.67900000
 O      39.39400000      10.70300000      40.19800000
 H      38.55700000      11.27000000      40.30600000
 H      39.09800000       9.92400000      40.68800000
 O      22.68200000      16.15000000      39.86200000
 H      22.43200000      16.05500000      40.76200000
 H      23.67600000      16.37700000      39.93500000
 O      30.18500000      35.95300000      39.69900000
 H      31.04300000      36.26000000      39.30500000
 H      30.18700000      36.58100000      40.48800000
 O      37.62300000      38.14700000      38.40900000
 H      36.77400000      37.74400000      38.70500000
 H      38.20500000      37.59400000      38.95600000
 O      32.73100000      32.82500000      36.66200000
 H      32.42800000      33.81500000      36.56300000
 H      31.79500000      32.45900000      36.72300000
 O      29.47200000       7.57800000      39.92300000
 H      29.35200000       6.90900000      39.24500000
 H      29.62200000       8.37200000      39.28000000
 O      37.40000000      22.82400000      37.71200000
 H      36.65200000      22.59300000      38.28100000
 H      38.01500000      22.08100000      37.90100000
 O      27.66400000      28.34600000      39.95300000
 H      27.61100000      29.25100000      39.52800000
 H      26.79600000      28.31200000      40.42300000
 O      36.44200000      23.47200000      35.23300000
 H      35.56300000      23.62100000      35.62400000
 H      36.96700000      23.18000000      36.05000000
 O      31.44500000      13.40500000      38.82600000
 H      31.12400000      14.23600000      39.10600000
 H      31.05100000      12.72700000      39.37700000
 O      32.39800000      18.57500000      35.39800000
 H      31.89600000      18.85800000      34.62000000
 H      31.95400000      17.74600000      35.60900000
 O      21.89700000      39.35500000      34.83000000
 H      22.45900000      38.82300000      35.47100000
 H      22.43000000      39.12500000      33.99000000
 O      28.51300000      33.47500000      35.38400000
 H      27.66800000      33.42900000      35.89500000
 H      28.34600000      32.90100000      34.62200000
 O      31.46300000      27.60500000      40.04700000
 H      31.45200000      28.59200000      40.23300000
 H      32.16900000      27.42800000      40.76600000
 O      23.17000000      20.57400000      38.71900000
 H      23.62700000      21.22300000      39.34700000
 H      23.00700000      19.86200000      39.41100000
 O      38.99800000      17.94400000      39.47300000
 H      38.16500000      17.87600000      38.91200000
 H      39.63700000      17.67900000      38.79800000
 O      32.30100000      35.55700000      36.66500000
 H      32.70700000      36.12300000      36.00700000
 H      32.21500000      36.18600000      37.43300000
 O      39.86000000      24.48000000      34.49500000
 H      39.48300000      23.63800000      34.77800000
 H      39.90100000      24.26300000      33.50300000
 O      25.39300000      16.20800000      36.17200000
 H      25.62700000      16.03000000      37.09300000
 H      25.22200000      17.12200000      36.16100000
 O      29.21900000      27.33700000      37.84900000
 H      28.48800000      27.73100000      38.38000000
 H      29.96200000      27.30200000      38.53500000
 O      40.24600000      17.80400000      37.07700000
 H      40.09600000      17.34800000      36.20800000
 H      41.12900000      18.26800000      36.87200000
 O      34.88900000      33.27200000      39.89200000
 H      35.07700000      32.98500000      38.97400000
 H      34.50000000      32.43400000      40.27200000
 O      31.28500000       7.25900000      35.62900000
 H      32.11400000       6.69000000      35.67300000
 H      31.24500000       7.47400000      36.55900000
 O      24.35100000       9.95300000      35.21400000
 H      24.12300000       9.26300000      35.88200000
 H      23.49300000       9.88800000      34.67700000
 O      31.90500000      40.67400000      38.18800000
 H      32.56900000      41.32500000      38.22300000
 H      31.21100000      41.01300000      38.81900000
 O      40.75400000      21.20900000      38.70600000
 H      41.34900000      20.51200000      38.35100000
 H      41.30500000      21.69400000      39.31700000
 O      28.91400000      19.30900000      39.91500000
 H      28.27500000      19.08100000      40.62700000
 H      28.30000000      19.48600000      39.13800000
 O      27.38700000      36.05400000      38.46000000
 H      27.03400000      36.69800000      37.82800000
 H      28.12300000      36.52300000      38.82800000
 O      34.97900000      22.58700000      38.96200000
 H      34.70700000      22.82500000      39.86200000
 H      34.24600000      22.08200000      38.60500000
 O      29.02500000      16.24200000      39.36900000
 H      28.67500000      16.65900000      38.58800000
 H      29.24800000      17.06500000      39.87900000
 O      26.91700000       7.64400000      36.46300000
 H      27.84000000       7.82900000      36.31700000
 H      26.79600000       7.85200000      37.44100000
 O      25.07400000      40.38300000      38.18000000
 H      25.16900000      41.03000000      37.44300000
 H      25.33300000      40.94200000      38.92700000
 O      31.56800000      24.79200000      35.71000000
 H      31.03500000      24.39100000      36.41000000
 H      32.42600000      24.34500000      35.79900000
 O      34.99200000      25.62400000      37.97600000
 H      35.37900000      24.72700000      37.77000000
 H      34.18500000      25.35400000      38.45300000
 O      23.22500000       8.20200000      36.97300000
 H      23.26300000       8.13700000      37.91800000
 H      22.27200000       7.91000000      36.86500000
 O      27.39700000      13.14800000      36.93700000
 H      28.18400000      12.93600000      36.36200000
 H      26.72200000      12.98200000      36.25200000
 O      36.47400000      35.15400000      35.44000000
 H      36.07600000      35.02000000      34.54000000
 H      36.55800000      34.22000000      35.70100000
 O      37.63900000      32.71900000      36.63200000
 H      36.76400000      32.51400000      37.10700000
 H      37.97300000      33.38500000      37.30000000
 O      31.07700000      27.51300000      35.95900000
 H      31.42000000      26.57800000      36.03600000
 H      30.47300000      27.64200000      36.71500000
 O      40.05800000      32.44200000      35.14400000
 H      40.19400000      33.40900000      35.24400000
 H      39.22700000      32.33000000      35.62100000
 O      28.19400000      24.91600000      37.93100000
 H      28.70100000      24.52500000      37.27700000
 H      28.44200000      25.88700000      37.85100000
 O      23.76100000      37.47000000      35.89900000
 H      23.77100000      36.93800000      35.07800000
 H      23.83000000      36.69000000      36.58200000
 O      30.31700000      23.38100000      40.05600000
 H      30.40200000      22.75000000      40.78300000
 H      30.10700000      24.19000000      40.60800000
 O      20.19500000      34.38200000      36.37500000
 H      19.96700000      35.36000000      36.54100000
 H      20.94900000      34.31800000      36.95500000
 O      21.38400000      31.29400000      40.83700000
 H      20.81600000      32.08400000      40.59900000
 H      22.22500000      31.82900000      41.00400000
 O      30.07300000      23.02100000      37.23600000
 H      30.08200000      22.07800000      36.99800000
 H      30.05600000      22.97500000      38.19800000
 O      25.94700000      33.15400000      36.63000000
 H      25.88100000      32.13300000      36.52700000
 H      25.12100000      33.39000000      36.08000000
 O      34.53900000      19.46500000      36.77400000
 H      33.91600000      18.95200000      36.20600000
 H      33.94000000      20.14300000      37.14000000
 O      33.78500000      12.93600000      36.79600000
 H      33.17600000      13.27000000      37.44000000
 H      33.73100000      11.96800000      36.87300000
 O      39.14400000      36.62600000      39.87100000
 H      39.90800000      36.05200000      39.74100000
 H      39.12400000      36.64000000      40.84300000
 O      20.31300000      37.20400000      37.08100000
 H      19.74900000      37.70500000      37.67000000
 H      21.03500000      37.78900000      36.85500000
 O      24.55500000      24.83700000      37.06800000
 H      23.82100000      24.97300000      37.69900000
 H      24.44900000      23.83000000      36.94900000
 O      33.68100000      37.52300000      40.27600000
 H      33.38500000      36.71700000      40.82400000
 H      34.52600000      37.19800000      40.00600000
 O      21.10600000      21.70200000      37.23100000
 H      21.78600000      21.57600000      37.96900000
 H      20.58800000      22.44700000      37.55700000
 O      38.70500000      20.37100000      40.60300000
 H      38.79200000      19.46900000      40.27900000
 H      39.35300000      20.85500000      39.99600000
 O      26.45800000      38.07700000      36.76200000
 H      25.60500000      37.71900000      36.45800000
 H      26.14900000      38.91200000      37.15300000
 O      30.10300000       9.99900000      38.31700000
 H      29.47200000      10.64000000      38.75600000
 H      30.15200000      10.42700000      37.41500000
 O      29.50600000      31.42100000      34.21600000
 H      29.46500000      31.52000000      35.20800000
 H      30.46300000      31.19300000      34.11400000
 O      21.94700000      33.82500000      38.54000000
 H      21.69200000      32.91400000      38.28900000
 H      21.33700000      33.93600000      39.29700000
 O      22.68000000      23.92000000      39.31400000
 H      22.57100000      24.60800000      40.00200000
 H      21.85900000      24.07800000      38.77700000
 O      37.57400000      11.00200000      35.12800000
 H      38.56300000      10.84900000      35.08800000
 H      37.54800000      11.78300000      34.54700000
 O      21.28300000      33.83300000      45.06200000
 H      21.42800000      34.09700000      44.13100000
 H      21.95800000      34.44600000      45.48200000
 O      26.92000000      34.30200000      45.66900000
 H      27.30000000      33.75000000      44.93000000
 H      26.86500000      33.66900000      46.38300000
 O      23.52200000      32.16800000      45.99800000
 H      23.65000000      33.13400000      45.83300000
 H      24.13600000      31.75600000      45.38000000
 O      34.33100000      21.94800000      43.37600000
 H      33.87200000      21.52900000      44.13500000
 H      34.85100000      21.26400000      43.05400000
 O      20.26400000       7.98100000      45.18500000
 H      20.22200000       8.43400000      44.30800000
 H      21.04700000       7.39100000      44.97000000
 O      21.93800000      25.65400000      42.92400000
 H      22.84300000      26.01700000      43.20000000
 H      21.49800000      26.54600000      42.96000000
 O      35.19300000      31.11300000      48.41400000
 H      35.73700000      31.27500000      49.13400000
 H      35.75500000      30.59900000      47.77000000
 O      32.99900000       7.34000000      45.17400000
 H      32.79100000       6.58100000      44.54100000
 H      33.24900000       7.98500000      44.48700000
 O      39.72600000      27.29300000      43.67900000
 H      40.47300000      27.25900000      43.02400000
 H      40.19500000      27.14600000      44.50900000
 O      29.69800000      26.14500000      49.06700000
 H      30.44700000      25.93800000      48.49400000
 H      30.19800000      26.26400000      49.94600000
 O      26.48100000       6.89400000      44.74700000
 H      26.59500000       7.57800000      45.38000000
 H      25.89500000       6.24200000      45.18100000
 O      23.45500000      36.89900000      47.49900000
 H      22.89500000      37.68700000      47.34000000
 H      24.19700000      37.29300000      47.96000000
 O      30.08900000      26.51900000      45.38700000
 H      29.91600000      27.11000000      44.63100000
 H      30.83900000      27.00900000      45.78100000
 O      37.59500000      25.91100000      42.69900000
 H      37.29100000      25.20000000      43.24500000
 H      38.37500000      26.29700000      43.18200000
 O      40.36800000      18.40200000      45.81500000
 H      40.95700000      18.64500000      46.56700000
 H      40.39000000      19.18800000      45.30700000
 O      40.19400000      21.99600000      46.19900000
 H      40.84800000      22.29300000      46.89800000
 H      40.73700000      21.26900000      45.79400000
 O      36.44100000      35.48000000      43.52200000
 H      37.22900000      35.05500000      44.00500000
 H      36.23300000      36.23500000      44.12600000
 O      21.85500000      11.72800000      43.43000000
 H      22.53500000      11.80600000      42.72000000
 H      22.00100000      10.74500000      43.67400000
 O      35.86900000      23.97600000      44.18000000
 H      35.00400000      23.43400000      44.05900000
 H      36.50500000      23.33400000      43.73200000
 O      33.22300000      25.06800000      44.14200000
 H      33.07400000      25.10600000      45.12000000
 H      34.19400000      25.01600000      44.16300000
 O      37.24700000      25.47100000      46.01800000
 H      36.71800000      24.79800000      45.59700000
 H      38.17000000      25.17400000      45.84200000
 O      24.22200000      34.80600000      45.01000000
 H      25.20100000      34.66700000      45.15300000
 H      24.18100000      35.70200000      44.67900000
 O      27.20800000       9.79900000      43.94000000
 H      27.24500000      10.29700000      44.74200000
 H      26.77700000       8.98500000      44.15800000
 O      33.80000000      28.29600000      43.79100000
 H      34.24500000      28.03800000      42.91500000
 H      34.25800000      27.77200000      44.36800000
 O      25.54400000      24.59500000      45.72200000
 H      26.53000000      24.75800000      45.98000000
 H      25.32900000      24.05700000      46.55700000
 O      39.49100000       6.62700000      45.44200000
 H      39.10900000       7.27000000      46.09500000
 H      40.01400000       6.07600000      46.06300000
 O      36.16700000      36.17100000      47.73600000
 H      36.35300000      35.32600000      47.41900000
 H      36.98700000      36.52500000      48.03200000
 O      20.17800000      20.97900000      42.54800000
 H      20.90200000      20.40000000      42.43400000
 H      20.38100000      21.63600000      43.19600000
 O      26.07200000      20.67100000      44.06700000
 H      25.25100000      21.07100000      43.69500000
 H      26.65500000      21.45500000      44.09100000
 O      34.09600000      18.71100000      46.10500000
 H      34.93300000      19.19500000      46.00700000
 H      33.55500000      19.31100000      46.66300000
 O      35.16700000      22.65000000      48.37700000
 H      35.50700000      23.26800000      49.08800000
 H      36.07800000      22.44800000      48.04800000
 O      30.16000000       9.59000000      43.48000000
 H      29.20100000       9.78600000      43.60800000
 H      30.11200000       8.63700000      43.18900000
 O      29.12600000       8.56100000      48.78100000
 H      29.52200000       9.39200000      49.08400000
 H      29.86000000       8.12800000      48.34300000
 O      30.75400000      18.22400000      46.08600000
 H      31.49300000      18.56100000      46.61800000
 H      30.96500000      18.61100000      45.23500000
 O      26.25900000      20.21900000      48.03000000
 H      26.72000000      19.35200000      48.07200000
 H      26.08300000      20.41500000      48.96600000
 O      30.84900000      24.14100000      46.04400000
 H      31.57500000      24.35000000      46.65600000
 H      30.56300000      24.98000000      45.69300000
 O      23.00900000      22.52400000      48.72600000
 H      23.72200000      22.74000000      48.11800000
 H      23.48400000      22.65400000      49.56300000
 O      32.79000000      11.67500000      44.68700000
 H      32.71300000      12.56000000      44.36900000
 H      32.13900000      11.70500000      45.43600000
 O      26.78100000      11.28200000      46.49500000
 H      27.34200000      11.78600000      47.14200000
 H      26.05800000      11.94500000      46.39600000
 O      27.87600000      25.68900000      46.66400000
 H      28.56500000      25.48400000      46.04900000
 H      28.16000000      26.57100000      46.97400000
 O      27.46200000      36.82800000      49.13100000
 H      26.87600000      37.55900000      49.45200000
 H      27.56600000      37.12400000      48.20900000
 O      29.96000000      31.39600000      43.11500000
 H      30.55200000      30.99400000      42.48200000
 H      30.53000000      32.17400000      43.36300000
 O      35.44200000       8.19300000      42.79800000
 H      34.49400000       8.25800000      42.46800000
 H      35.51600000       9.11600000      43.15500000
 O      22.32700000      16.98000000      49.11100000
 H      22.99100000      17.67700000      48.88800000
 H      22.12200000      16.60500000      48.19900000
 O      24.97900000      30.48400000      48.22700000
 H      24.07100000      30.69700000      48.34800000
 H      25.41900000      31.19200000      47.86500000
 O      27.00900000       8.25100000      47.24300000
 H      27.83800000       8.32600000      47.82700000
 H      26.56300000       9.02400000      47.58200000
 O      21.58700000      23.69400000      46.39300000
 H      21.71300000      22.97200000      47.00700000
 H      22.34500000      24.25300000      46.57500000
 O      24.75000000      25.82900000      43.41900000
 H      25.39000000      25.46500000      42.77100000
 H      25.06600000      25.42800000      44.24100000
 O      39.71800000      24.68000000      45.44200000
 H      39.92900000      23.93000000      46.07900000
 H      40.28000000      24.31500000      44.70600000
 O      20.30800000       9.54400000      47.50800000
 H      21.23200000       9.52600000      47.75500000
 H      20.26400000       8.80600000      46.87000000
 O      26.04500000      37.50500000      43.75500000
 H      26.26200000      37.44300000      44.70500000
 H      26.70800000      38.07700000      43.37300000
 O      21.01100000      28.25600000      43.31500000
 H      20.72400000      28.38100000      44.23400000
 H      21.88000000      28.68400000      43.32900000
 O      20.96400000      38.75400000      44.68400000
 H      21.57800000      39.38400000      44.26900000
 H      21.30700000      38.84100000      45.63600000
 O      35.61300000      32.81400000      44.68300000
 H      36.35700000      32.82400000      45.30000000
 H      35.63300000      33.69600000      44.38400000
 O      27.31600000      28.88200000      48.41400000
 H      26.43100000      29.31200000      48.21400000
 H      27.45400000      29.33500000      49.28100000
 O      21.35000000      20.48800000      47.65800000
 H      21.84200000      21.04500000      48.26200000
 H      20.81100000      19.94900000      48.27900000
 O      39.00600000      29.19000000      47.08100000
 H      39.42400000      28.98500000      48.02200000
 H      39.59600000      28.51500000      46.64800000
 O      30.72800000      33.52000000      48.54900000
 H      29.95500000      33.51000000      47.91200000
 H      31.25500000      34.20500000      48.04500000
 O      37.25400000      33.81300000      46.64900000
 H      37.71300000      33.57900000      47.50500000
 H      38.07400000      33.80000000      46.05800000
 O      37.86500000      22.28900000      47.50500000
 H      38.31500000      22.40900000      48.39400000
 H      38.66700000      22.08200000      46.97000000
 O      33.20900000      35.21200000      43.22000000
 H      32.37100000      34.68100000      43.18500000
 H      33.82200000      34.50400000      42.83500000
 O      30.70400000      10.99600000      46.38300000
 H      30.57100000      10.18700000      45.95600000
 H      30.40000000      10.74800000      47.27000000
 O      36.17200000      37.58300000      45.19500000
 H      35.58400000      38.45300000      45.33000000
 H      36.12700000      37.28100000      46.13200000
 O      37.92800000      22.15100000      44.01900000
 H      38.33400000      21.31300000      43.72900000
 H      38.81200000      22.58400000      44.40200000
 O      27.31300000      36.76300000      46.40300000
 H      28.19000000      37.04900000      46.11400000
 H      27.22300000      35.86000000      46.02500000
 O      24.24300000       9.76800000      46.17400000
 H      23.94300000      10.05600000      47.07800000
 H      25.18000000      10.03000000      46.23100000
 O      23.04100000      28.81200000      46.89300000
 H      23.83400000      29.34100000      46.89200000
 H      22.52300000      29.30100000      46.20000000
 O      30.07300000      22.21700000      47.87900000
 H      30.16300000      22.65200000      47.04600000
 H      29.55500000      22.91500000      48.36000000
 O      36.41800000      29.58300000      46.11100000
 H      37.21800000      29.24100000      46.62300000
 H      36.81000000      30.28200000      45.58400000
 O      29.25300000      32.79800000      46.52600000
 H      28.28300000      32.63300000      46.75600000
 H      29.53200000      31.89300000      46.63200000
 O      22.05400000      39.65000000      47.13300000
 H      21.58000000      39.71200000      47.96800000
 H      22.79400000      40.29700000      47.29300000
 O      33.16800000      24.09900000      47.51200000
 H      33.38500000      24.88000000      48.07300000
 H      33.99300000      23.60600000      47.59000000
 O      21.43900000      35.16600000      47.63300000
 H      21.44900000      34.75600000      48.54500000
 H      22.33700000      35.54000000      47.53800000
 O      26.85900000      23.25900000      43.80900000
 H      26.90000000      23.84900000      43.03700000
 H      26.32900000      23.81900000      44.41600000
 O      37.75100000      32.91100000      42.89100000
 H      38.18100000      32.46900000      43.68500000
 H      36.81200000      32.87400000      43.20300000
 O      36.26000000      10.02900000      48.88200000
 H      35.86200000       9.80700000      48.00100000
 H      36.98400000      10.60800000      48.60400000
 O      36.05100000       8.43900000      45.97800000
 H      35.76900000       9.37900000      45.89200000
 H      36.88200000       8.38000000      45.49900000
 O      22.51200000      31.58700000      48.54300000
 H      21.55600000      31.81800000      48.40200000
 H      22.88000000      31.99500000      47.75400000
 O      26.71900000      18.32500000      43.22600000
 H      26.94000000      17.79000000      44.04000000
 H      26.51200000      19.15400000      43.72400000
 O      33.15100000      32.19100000      45.64400000
 H      34.07300000      32.50600000      45.46100000
 H      32.90900000      32.78000000      46.36300000
 O      35.16700000      17.15600000      48.09200000
 H      35.90900000      17.49000000      47.62200000
 H      34.55300000      16.97600000      47.31800000
 O      39.21100000       8.24800000      47.52900000
 H      38.69600000       8.72100000      48.22400000
 H      39.74100000       8.94400000      47.12200000
 O      27.22400000      17.03800000      45.85300000
 H      27.98400000      16.42300000      45.75600000
 H      27.41400000      17.41100000      46.70200000
 O      27.94700000      17.75200000      48.52200000
 H      28.45700000      16.93900000      48.41300000
 H      28.58400000      18.34200000      48.96300000
 O      33.69500000       8.38600000      47.91300000
 H      34.22800000       8.07300000      47.14000000
 H      32.78600000       8.23900000      47.72500000
 O      32.71800000      36.78100000      45.63800000
 H      33.05000000      36.16400000      44.92300000
 H      33.15700000      37.59100000      45.31900000
 O      29.24800000      28.99000000      44.31200000
 H      30.13300000      29.38300000      44.53200000
 H      28.97100000      29.63900000      43.59000000
 O      31.18200000      33.56900000      44.00700000
 H      31.75700000      32.82200000      44.32700000
 H      30.54600000      33.57000000      44.76600000
 O      37.24700000      17.99200000      46.76600000
 H      37.99300000      17.64400000      46.20500000
 H      37.05600000      18.80100000      46.29200000
 O      30.58400000      38.23100000      43.11800000
 H      31.22600000      39.02100000      43.10100000
 H      30.22800000      38.29000000      43.98900000
 O      30.26700000      22.35300000      44.00100000
 H      30.63300000      22.93400000      44.71300000
 H      29.35100000      22.27100000      44.44000000
 O      35.23700000      15.05000000      45.31300000
 H      34.81800000      15.89100000      45.03900000
 H      35.14400000      14.53900000      44.53200000
 O      32.64100000      34.92500000      47.49900000
 H      33.02100000      35.44900000      48.27300000
 H      32.51900000      35.67800000      46.81700000
 O      31.11500000       7.94200000      46.77700000
 H      31.83100000       7.78800000      46.07000000
 H      30.57600000       7.15700000      46.62500000
 O      40.29300000      39.97600000      44.29700000
 H      41.22600000      39.90100000      43.95000000
 H      40.04600000      40.75200000      43.72400000
 O      38.43700000      17.42400000      49.37400000
 H      38.97100000      16.61100000      49.07700000
 H      38.15100000      17.69100000      48.47000000
 O      32.02300000      27.64200000      46.82700000
 H      32.20700000      28.22900000      47.59100000
 H      32.91100000      27.44300000      46.52500000
 O      37.23500000      26.77800000      48.31900000
 H      37.21700000      26.15300000      47.57900000
 H      37.95900000      26.30700000      48.85500000
 O      21.39300000      36.37200000      43.20800000
 H      21.26300000      37.00800000      43.91700000
 H      22.33300000      36.62900000      42.96100000
 O      27.03100000      29.56600000      45.73400000
 H      27.76600000      29.25900000      45.20700000
 H      27.38000000      29.35400000      46.62300000
 O      21.91900000      15.60400000      46.98900000
 H      22.09100000      14.69100000      46.75100000
 H      21.13300000      15.77200000      46.37400000
 O      34.73100000      27.21900000      46.13300000
 H      35.56600000      26.73600000      46.06200000
 H      35.08400000      28.08800000      46.47100000
 O      32.95600000      40.05200000      42.98800000
 H      33.18700000      39.34800000      42.34300000
 H      33.76200000      40.55600000      42.99400000
 O      21.15100000      13.01500000      49.13100000
 H      21.53400000      13.86900000      49.20700000
 H      20.34300000      13.24900000      48.58500000
 O      25.24300000      28.32300000      42.58600000
 H      24.79300000      27.75400000      43.26200000
 H      24.62000000      29.08100000      42.67700000
 O      24.55300000      19.43800000      45.96500000
 H      25.01700000      19.90800000      45.22500000
 H      25.14400000      19.56400000      46.76200000
 O      27.48300000      32.53500000      43.59800000
 H      27.47100000      33.13600000      42.75400000
 H      28.31300000      32.03900000      43.41400000
 O      22.40000000      12.71500000      45.97800000
 H      22.70200000      11.78200000      46.19300000
 H      21.99700000      12.60300000      45.12700000
 O      24.94500000      16.16600000      46.87800000
 H      24.28600000      16.37800000      46.23000000
 H      25.75300000      16.48000000      46.41800000
 O      38.56200000      11.25100000      48.00100000
 H      38.25200000      12.05900000      48.41100000
 H      39.39500000      11.55800000      47.58600000
 O      22.69300000       9.20700000      44.23500000
 H      22.60300000       8.29000000      44.48900000
 H      23.27300000       9.57500000      44.94000000
 O      34.88400000      13.34200000      47.19900000
 H      35.21100000      13.95100000      46.49100000
 H      35.61500000      13.35900000      47.80300000
 O      35.23000000      11.01700000      45.96700000
 H      35.19900000      11.85800000      46.47100000
 H      34.48700000      11.09300000      45.35800000
 O      33.18300000      10.92500000      48.50100000
 H      33.65200000      10.06100000      48.45000000
 H      33.81200000      11.54500000      47.99900000
 O      22.81800000      26.20300000      48.11100000
 H      22.90600000      27.08900000      47.68400000
 H      23.82600000      26.01500000      48.21100000
 O      37.19600000      11.95500000      43.58700000
 H      36.68800000      12.76500000      43.26900000
 H      36.98300000      12.00200000      44.56000000
 O      39.21200000       8.02600000      43.19500000
 H      39.04900000       7.16500000      42.72300000
 H      39.53200000       7.62900000      44.04100000
 O      29.98100000      39.41100000      48.14500000
 H      29.55700000      39.06400000      48.95800000
 H      30.90000000      39.07400000      48.24400000
 O      31.17600000      13.74500000      47.39300000
 H      31.53200000      13.86600000      48.29000000
 H      31.27700000      12.82500000      47.29900000
 O      29.35500000      13.03400000      44.70100000
 H      29.98400000      12.65900000      45.34800000
 H      29.34200000      13.99300000      44.97900000
 O      31.60900000      19.80100000      43.93200000
 H      31.09000000      20.67000000      43.75400000
 H      32.23000000      20.17300000      44.55900000
 O      30.02800000      29.97100000      47.24000000
 H      29.85400000      29.04200000      47.46100000
 H      30.67200000      29.90700000      46.52600000
 O      27.74600000      13.95600000      42.60500000
 H      28.32000000      13.60900000      43.29300000
 H      28.41300000      14.59700000      42.22800000
 O      38.80200000      31.23200000      45.31700000
 H      39.77000000      31.38300000      45.02700000
 H      38.99400000      30.64100000      46.06100000
 O      32.36100000      19.86200000      48.16300000
 H      31.46900000      20.04100000      48.46400000
 H      32.76600000      19.51300000      48.96000000
 O      25.10500000      13.36800000      46.09000000
 H      24.11200000      13.20700000      46.03900000
 H      25.06500000      14.25200000      46.49400000
 O      21.31000000      23.05000000      43.85600000
 H      21.10400000      23.90200000      43.52100000
 H      21.53600000      23.23100000      44.78200000
 O      22.62800000      10.73100000      48.60300000
 H      23.31200000      11.16800000      49.00500000
 H      21.91000000      11.37000000      48.61400000
 O      33.05400000      17.37100000      44.13000000
 H      32.40900000      18.11500000      43.91500000
 H      33.36500000      17.81100000      44.99700000
 O      20.99000000      15.54500000      43.85100000
 H      20.15800000      16.03200000      43.90100000
 H      20.67200000      14.60000000      43.62400000
 O      32.30400000      14.61300000      43.94200000
 H      32.40700000      15.47600000      43.57400000
 H      32.07100000      14.75900000      44.85000000
 O      25.52700000      26.21400000      48.98700000
 H      25.93000000      27.08800000      48.90900000
 H      26.06900000      25.74800000      48.31700000
 O      38.78600000      37.45800000      44.35600000
 H      39.19500000      38.38900000      44.41500000
 H      37.88000000      37.68800000      44.72800000
 O      25.30600000      14.44300000      43.59900000
 H      25.93800000      14.05100000      43.02200000
 H      25.37000000      13.84100000      44.37000000
 O      32.99000000      21.49600000      46.17600000
 H      32.71900000      21.02900000      46.99200000
 H      33.09000000      22.40000000      46.44600000
 O      36.43100000      20.39900000      45.81100000
 H      36.86700000      20.93400000      45.10500000
 H      36.52300000      21.07100000      46.52500000
 O      40.71600000      40.17500000      47.08000000
 H      39.87100000      40.65600000      47.17500000
 H      40.72500000      39.89800000      46.16100000
 O      29.32700000      26.23400000      42.78000000
 H      28.72900000      26.99900000      42.61900000
 H      30.08700000      26.45600000      42.22900000
 O      33.02700000       9.45300000      43.13700000
 H      33.25100000      10.40900000      43.07700000
 H      32.08700000       9.48200000      43.41400000
 O      39.56000000      15.91700000      44.90500000
 H      40.32500000      15.41700000      45.30100000
 H      39.84500000      16.83700000      45.18700000
 O      31.85800000      29.89100000      44.97600000
 H      32.44700000      30.61000000      45.24000000
 H      32.46800000      29.33800000      44.45300000
 O      30.07500000      38.01600000      45.62200000
 H      31.02000000      37.68700000      45.73600000
 H      29.94000000      38.58100000      46.44200000
 O      21.91400000      19.86600000      45.18400000
 H      22.81700000      19.47500000      45.38300000
 H      21.79000000      20.33500000      46.10500000
 O      34.12000000      30.95500000      43.03900000
 H      34.15100000      31.40200000      43.89000000
 H      34.22900000      30.01800000      43.36500000
 O      23.75600000      22.14700000      42.66400000
 H      23.62100000      22.91300000      42.06900000
 H      22.92200000      22.18200000      43.16900000
 O      23.44600000      33.13000000      42.68800000
 H      24.28100000      33.16600000      42.17300000
 H      23.57000000      33.89500000      43.27000000
 O      34.48400000      13.05000000      42.74600000
 H      35.08700000      13.38000000      42.02300000
 H      33.67400000      13.48100000      42.56800000
 O      32.67600000      38.99800000      48.96900000
 H      33.49200000      39.14100000      49.58100000
 H      33.09500000      38.44000000      48.30100000
 O      39.06700000      34.93000000      44.71500000
 H      38.98900000      35.95300000      44.55900000
 H      40.03000000      34.83200000      44.55700000
 O      27.89000000      39.16600000      42.57300000
 H      28.53900000      39.89900000      42.31000000
 H      28.33200000      38.42600000      42.02000000
 O      25.34500000      31.03200000      44.33300000
 H      26.03700000      31.58500000      43.89000000
 H      25.98200000      30.47800000      44.86000000
 O      34.34400000      39.76000000      45.97500000
 H      34.67200000      40.43900000      46.64000000
 H      33.85300000      40.44700000      45.38600000
 O      25.76100000      22.94500000      47.76300000
 H      26.62100000      23.24300000      48.22700000
 H      25.86000000      21.98200000      47.83600000
 O      33.30900000      28.99400000      48.86400000
 H      33.66200000      29.86900000      48.59900000
 H      33.91700000      28.82800000      49.61300000
 O      26.66200000      32.71300000      47.80300000
 H      27.10600000      32.42400000      48.61900000
 H      26.25800000      33.55000000      48.18100000
 O      29.54000000      15.83400000      46.46900000
 H      30.17700000      15.32400000      46.97100000
 H      30.11700000      16.67400000      46.34600000
 O      40.72300000      27.18000000      46.33700000
 H      41.65000000      27.11700000      46.14000000
 H      40.36000000      26.29900000      46.25100000
 O      23.20000000      29.62900000      43.85000000
 H      23.88500000      30.23700000      44.24100000
 H      22.57100000      30.29600000      43.49300000
