352
XYZ file of cluster: frame_6000_6e8a5.4c575.25548 - created by MolEdiTo
 O      26.44700000      19.39900000      16.85200000
 H      25.58300000      19.03900000      17.15300000
 H      26.99300000      19.35300000      17.63000000
 O      35.55100000      15.29200000       8.50100000
 H      35.59300000      15.93000000       7.77500000
 H      34.58600000      15.31100000       8.70900000
 O      20.23600000      25.80700000       7.66700000
 H      20.09100000      26.73900000       7.76200000
 H      21.14700000      25.84400000       7.30500000
 O      35.00200000      18.63400000      17.41900000
 H      34.40500000      17.95900000      17.07400000
 H      34.38400000      19.38800000      17.36500000
 O      31.95400000      18.01100000      10.30800000
 H      32.63100000      18.10200000       9.57500000
 H      32.24100000      17.15200000      10.72800000
 O      23.57500000      20.83500000      16.07200000
 H      23.29200000      19.86900000      16.19200000
 H      22.75300000      21.27800000      15.70600000
 O      31.84400000      22.88700000      13.38600000
 H      32.03400000      22.47100000      12.55700000
 H      31.21900000      22.18500000      13.73700000
 O      35.54400000      17.85100000      14.05900000
 H      35.52300000      18.73800000      14.44300000
 H      34.70500000      17.45500000      14.46600000
 O      29.69800000      26.14500000       7.40700000
 H      30.44700000      25.93800000       6.83400000
 H      30.19800000      26.26400000       8.28600000
 O      22.00100000      25.61700000      17.71500000
 H      21.60700000      25.21900000      18.56000000
 H      21.61700000      26.54400000      17.82800000
 O      20.33100000      23.24900000       8.62900000
 H      20.28900000      24.17600000       8.25000000
 H      21.12700000      22.94300000       8.18400000
 O      29.10100000      17.70000000      11.93300000
 H      28.84100000      18.60200000      11.54900000
 H      29.86400000      18.01000000      12.46600000
 O      27.73900000      26.24300000      13.36200000
 H      27.20500000      26.99700000      13.09400000
 H      28.66000000      26.57700000      13.34500000
 O      28.74700000      22.67800000       9.88400000
 H      28.58000000      23.49900000      10.35800000
 H      28.43800000      22.04100000      10.56200000
 O      33.31300000      20.70500000      17.62400000
 H      33.22700000      21.57400000      18.06400000
 H      32.98700000      20.07200000      18.30600000
 O      33.61000000      21.63800000       8.85500000
 H      34.31200000      21.98200000       8.28300000
 H      33.07900000      22.42900000       9.04900000
 O      35.26800000      19.59000000       9.81000000
 H      35.34500000      20.09700000      10.62700000
 H      34.51200000      20.07000000       9.39600000
 O      32.22800000      18.89200000      19.11200000
 H      32.02400000      18.09100000      19.62700000
 H      31.50300000      18.79900000      18.43300000
 O      34.61900000      16.28400000      21.07700000
 H      34.08000000      15.86500000      21.81800000
 H      35.16600000      15.53300000      20.82600000
 O      24.54100000      24.73800000      18.28900000
 H      23.60000000      25.03200000      18.31900000
 H      24.91700000      25.34100000      17.62200000
 O      27.92200000      21.46300000      11.95400000
 H      28.14700000      21.04100000      12.82000000
 H      27.79900000      22.38000000      12.25900000
 O      32.49100000      15.39400000      11.37500000
 H      33.10100000      14.95800000      11.97600000
 H      31.66000000      14.88300000      11.46400000
 O      30.09300000      13.89300000      12.28900000
 H      30.16700000      13.06900000      12.83500000
 H      29.47700000      14.43200000      12.87500000
 O      23.79500000      23.29900000      21.13400000
 H      23.10100000      23.88100000      21.60500000
 H      23.45700000      23.40300000      20.24800000
 O      34.26800000      23.39100000      18.70200000
 H      35.01500000      23.54700000      18.12000000
 H      34.70500000      22.91100000      19.48700000
 O      21.45900000      22.06900000      15.20300000
 H      21.95200000      22.94600000      15.29200000
 H      20.53800000      22.31600000      15.29600000
 O      26.25900000      20.21900000       6.37000000
 H      26.72000000      19.35200000       6.41200000
 H      26.08300000      20.41500000       7.30600000
 O      27.37900000      25.32500000      19.29500000
 H      26.82100000      25.10900000      20.07500000
 H      27.49500000      24.48400000      18.91800000
 O      27.61500000      16.18600000      18.13500000
 H      27.66900000      15.56700000      18.78600000
 H      26.67800000      16.35000000      17.98100000
 O      23.00900000      22.52400000       7.06600000
 H      23.72200000      22.74000000       6.45800000
 H      23.48400000      22.65400000       7.90300000
 O      29.46100000      25.30700000      15.93600000
 H      28.88300000      24.95600000      15.18600000
 H      28.94100000      25.07600000      16.68100000
 O      22.32700000      16.98000000       7.45100000
 H      22.99100000      17.67700000       7.22800000
 H      22.12200000      16.60500000       6.53900000
 O      34.18000000      26.74600000      15.86900000
 H      33.82900000      25.83300000      15.92100000
 H      33.52400000      27.26200000      16.32600000
 O      33.71600000      17.89700000       8.46200000
 H      34.55100000      18.14100000       8.91700000
 H      34.10600000      17.68500000       7.52200000
 O      31.50000000      27.82300000      16.28300000
 H      30.73900000      27.25300000      16.31200000
 H      31.32000000      28.35100000      17.11800000
 O      30.91600000      18.77700000      13.58500000
 H      30.38300000      19.32800000      14.15000000
 H      31.56600000      19.49300000      13.26500000
 O      29.98600000      17.85000000      17.66400000
 H      30.68900000      17.38100000      17.14300000
 H      29.25700000      17.23900000      17.48300000
 O      21.25100000      19.27000000       8.92100000
 H      20.85800000      18.43500000       8.54900000
 H      20.86400000      19.26300000       9.82100000
 O      32.19900000      20.31800000      11.60200000
 H      32.05000000      20.95200000      10.85100000
 H      32.01300000      19.49600000      11.04200000
 O      20.60700000      15.86200000      14.52100000
 H      19.68700000      15.74500000      14.68400000
 H      20.82800000      15.13900000      13.92200000
 O      33.61800000      16.66700000      15.81000000
 H      32.77700000      16.89100000      15.30600000
 H      33.23800000      16.24400000      16.58800000
 O      24.25400000      18.10800000      17.89300000
 H      23.86700000      18.04100000      18.79400000
 H      23.46700000      17.76000000      17.40900000
 O      22.85200000      26.46900000      13.33100000
 H      23.42400000      26.86300000      12.65000000
 H      22.11800000      26.12300000      12.71400000
 O      22.45900000      18.85300000      12.74000000
 H      22.39700000      18.32500000      13.54000000
 H      22.07400000      19.70300000      12.99500000
 C      20.19400000      21.13700000      22.40500000
 C      19.96600000      20.28300000      21.18600000
 C      21.95300000      20.94600000      19.90300000
 H      20.10100000      20.22200000      19.13800000
 H      20.01600000      20.39900000      24.13000000
 O      19.76600000      22.23400000      19.78900000
 O      21.57700000      21.03600000      22.86900000
 O      19.35700000      20.59700000      23.41200000
 C      20.41500000      20.92800000      19.85900000
 O      20.52900000      18.96500000      21.33700000
 H      18.87100000      20.16000000      21.11600000
 O      22.39700000      20.27600000      18.73100000
 O      22.43600000      21.94700000      19.12300000
 H      22.66000000      21.06500000      18.60000000
 H      19.83000000      18.43100000      21.84400000
 H      18.85800000      21.97400000      19.47800000
 O      24.23400000      15.41400000      14.13300000
 H      24.65100000      16.24500000      14.45300000
 H      24.89700000      15.06900000      13.46600000
 O      29.74400000      19.79000000       7.66400000
 H      29.52500000      20.63400000       7.26100000
 H      29.35000000      19.92500000       8.59600000
 O      27.75200000      20.86900000      14.94200000
 H      27.24100000      21.70000000      14.66700000
 H      27.03700000      20.47200000      15.47600000
 O      25.80000000      19.86600000       9.23400000
 H      25.10400000      19.30000000       9.52400000
 H      25.66500000      20.69100000       9.71100000
 O      25.85000000      25.34700000       9.91400000
 H      26.80000000      25.49200000      10.02700000
 H      25.72700000      25.62700000       9.00300000
 O      31.43500000      22.85400000      10.41300000
 H      31.32500000      23.84400000      10.44900000
 H      30.50600000      22.63400000      10.20100000
 O      32.56800000      25.13900000      19.87800000
 H      31.75100000      24.67300000      19.94200000
 H      33.10800000      24.55600000      19.33000000
 O      21.14700000      28.02400000      18.99200000
 H      20.71900000      28.35300000      19.81100000
 H      22.03700000      27.74600000      19.43200000
 O      22.45800000      17.64600000      15.27200000
 H      23.28700000      17.13300000      15.04600000
 H      21.74400000      17.10600000      14.97300000
 O      25.04400000      22.72700000      14.86600000
 H      24.62300000      21.97200000      15.33500000
 H      24.32800000      23.40400000      14.95100000
 O      25.43400000      15.67200000      11.67400000
 H      26.04700000      15.87000000      10.93500000
 H      25.46200000      16.55100000      12.11400000
 O      22.83500000      24.31100000      15.10400000
 H      22.86100000      25.10800000      14.52900000
 H      22.56500000      24.68800000      15.94600000
 O      22.78900000      14.31000000      19.98900000
 H      22.30000000      14.27700000      20.81000000
 H      22.85400000      15.31800000      19.92700000
 O      21.44300000      25.31100000      11.03500000
 H      20.61000000      25.69000000      11.47100000
 H      21.53900000      25.99600000      10.32600000
 O      33.08400000      24.24600000      15.48600000
 H      32.51100000      23.89900000      16.20300000
 H      32.56900000      23.88500000      14.71000000
 O      22.85900000      28.23900000      15.35600000
 H      21.97700000      27.98800000      15.73200000
 H      22.85800000      27.73300000      14.55400000
 O      23.26400000      14.28600000      16.29300000
 H      22.40600000      13.99200000      15.92400000
 H      23.65200000      14.73300000      15.52600000
 O      29.83600000      27.13800000      21.11600000
 H      29.18500000      27.46100000      20.47100000
 H      30.19100000      26.38400000      20.52300000
 O      27.94700000      17.75200000       6.86200000
 H      28.45700000      16.93900000       6.75300000
 H      28.58400000      18.34200000       7.30300000
 O      31.21800000      23.34900000      17.47300000
 H      30.99800000      23.30600000      18.47200000
 H      30.40100000      23.75600000      17.15300000
 O      29.81800000      20.65700000      18.08700000
 H      29.51600000      19.92800000      17.49000000
 H      29.59200000      20.22200000      18.95700000
 O      27.92300000      18.84000000      19.75700000
 H      28.42300000      18.81700000      20.59500000
 H      28.00300000      17.97000000      19.41600000
 O      24.18400000      21.56600000      11.75800000
 H      23.32400000      22.00700000      11.65900000
 H      24.38100000      21.78900000      12.66600000
 O      21.69800000      22.64800000      11.39100000
 H      21.70500000      23.64700000      11.22700000
 H      21.07800000      22.44600000      10.63500000
 O      24.65400000      14.47900000       7.93100000
 H      24.43200000      15.25600000       8.45400000
 H      24.73500000      14.88900000       7.04600000
 O      20.81000000      24.65700000      19.67200000
 H      20.90200000      24.67900000      20.69900000
 H      20.35600000      23.76000000      19.57600000
 O      32.08100000      27.90100000      13.53700000
 H      33.02100000      28.29100000      13.62700000
 H      31.88300000      27.80000000      14.49600000
 O      22.72900000      15.69300000       9.84900000
 H      22.29800000      16.13100000       9.06700000
 H      23.41300000      16.38300000      10.13700000
 O      28.34900000      19.64400000      10.26000000
 H      28.22200000      20.31900000      10.96800000
 H      27.52300000      19.80400000       9.71900000
 O      31.08100000      16.95500000      20.61500000
 H      30.23400000      17.26300000      21.04800000
 H      31.61500000      16.73100000      21.39500000
 O      34.45800000      20.25700000      14.94800000
 H      34.86400000      21.18900000      15.13300000
 H      33.89100000      20.20600000      15.76700000
 O      25.43300000      27.37200000      17.18300000
 H      24.93800000      28.04600000      17.68200000
 H      25.61700000      27.88200000      16.37200000
 O      24.48700000      22.89900000       9.30500000
 H      25.03900000      23.64300000       9.61400000
 H      24.27300000      22.44200000      10.08400000
 O      28.85100000      25.34300000      10.60800000
 H      28.72600000      26.37500000      10.53800000
 H      29.55000000      25.37100000      11.33400000
 O      30.36400000      23.62600000      20.15900000
 H      29.42300000      23.86000000      20.30100000
 H      30.36800000      22.69900000      20.51500000
 O      34.60100000      21.29000000      12.09500000
 H      33.66300000      21.09200000      11.97800000
 H      34.78400000      20.71500000      12.83700000
 O      25.79900000      22.07600000      18.41400000
 H      25.49400000      23.02400000      18.36900000
 H      25.16000000      21.71900000      17.74600000
 O      23.64600000      13.59600000      11.26500000
 H      23.28000000      14.30900000      10.76300000
 H      24.49800000      13.98900000      11.54700000
 O      23.69500000      26.97700000      20.04000000
 H      23.67500000      26.77800000      21.02700000
 H      24.40200000      26.40500000      19.74700000
 O      31.42500000      26.41100000       9.61200000
 H      31.78100000      27.30300000       9.98900000
 H      32.25700000      26.06000000       9.30000000
 O      24.34400000      27.41800000      10.96800000
 H      24.78800000      26.64700000      10.54900000
 H      24.14100000      27.93800000      10.10200000
 O      28.09100000      23.70200000       7.50200000
 H      28.41000000      24.62300000       7.38700000
 H      28.53300000      23.45800000       8.31500000
 O      20.00900000      14.24900000      18.66300000
 H      19.72700000      14.97100000      18.11200000
 H      20.92500000      14.43400000      18.89700000
 O      32.36100000      19.86200000       6.50300000
 H      31.46900000      20.04100000       6.80400000
 H      32.76600000      19.51300000       7.30000000
 O      33.59900000      27.84500000      19.97600000
 H      32.78400000      28.30300000      20.34200000
 H      33.19300000      26.94000000      19.86400000
 O      32.90900000      14.20100000       7.85500000
 H      33.20600000      13.48400000       8.48400000
 H      33.39500000      14.05800000       7.07300000
 O      35.31100000      14.27900000      17.57600000
 H      35.46700000      14.26400000      16.57400000
 H      34.33300000      13.91100000      17.48800000
 O      31.04800000      13.55300000      15.94000000
 H      31.20600000      14.48100000      16.16800000
 H      31.99000000      13.26900000      15.71700000
 O      28.23200000      15.78800000      14.48000000
 H      27.55500000      16.45800000      14.64800000
 H      27.73800000      14.96400000      14.64100000
 O      25.52700000      26.21400000       7.32700000
 H      25.93000000      27.08800000       7.24900000
 H      26.06900000      25.74800000       6.65700000
 O      23.46500000      18.43600000      10.17800000
 H      23.05900000      18.56500000      11.11000000
 H      22.76000000      18.84900000       9.65200000
 O      28.46900000      23.06600000      17.90500000
 H      27.59300000      22.70800000      18.08400000
 H      29.03200000      22.28100000      17.96700000
 O      26.99800000      21.35800000      20.62300000
 H      27.34700000      20.45000000      20.28500000
 H      26.44200000      21.52200000      19.80000000
 O      22.89200000      17.38100000      20.35100000
 H      22.13200000      17.70200000      20.88700000
 H      23.62600000      17.36900000      20.98700000
 O      25.45700000      17.84400000      14.45500000
 H      25.61900000      18.20400000      13.61300000
 H      25.75300000      18.46600000      15.09700000
 O      28.50600000      14.28200000      20.36200000
 H      29.42800000      13.96100000      20.60600000
 H      28.04900000      13.44300000      20.16200000
 O      30.60200000      25.41300000      12.83200000
 H      31.12000000      24.77400000      13.29500000
 H      31.13200000      26.22700000      12.93100000
 O      31.09300000      13.50900000      21.05300000
 H      31.96600000      13.76500000      20.64700000
 H      31.07400000      14.20600000      21.75300000
 O      30.49500000      16.34100000       8.59500000
 H      31.24500000      15.70100000       8.58000000
 H      30.92400000      17.18600000       8.88000000
 O      33.94200000      26.05900000       7.55100000
 H      34.18100000      26.99200000       7.64800000
 H      34.71700000      25.62100000       7.96100000
 O      32.51800000      15.46900000      18.23600000
 H      31.95700000      16.01600000      18.80200000
 H      33.13700000      15.04100000      18.86200000
 O      28.58400000      14.59300000       8.49400000
 H      29.35400000      15.18800000       8.50500000
 H      27.92100000      15.14900000       8.98000000
 O      25.94900000      18.82500000      12.07100000
 H      26.46200000      18.79800000      11.21400000
 H      25.64900000      19.71600000      12.07600000
 O      28.12300000      27.88800000      19.40700000
 H      27.75100000      27.04400000      19.05000000
 H      27.43400000      28.51000000      19.22600000
 O      31.03200000      16.55300000      15.00000000
 H      30.17400000      16.13800000      14.69600000
 H      30.93500000      17.32900000      14.36800000
 O      27.42900000      23.67000000      13.83400000
 H      26.53800000      23.48700000      14.11000000
 H      27.40100000      24.60500000      13.59600000
 O      27.36700000      16.59900000      10.05400000
 H      27.79700000      17.10200000       9.30200000
 H      28.07200000      16.81700000      10.77800000
 O      30.35800000      21.19900000      14.93000000
 H      30.72400000      21.39200000      15.85100000
 H      29.41600000      21.25300000      15.18200000
