144
XYZ file of cluster: frame_15500_4b7d8.9f20d.7497e - created by MolEdiTo
 O      13.26000000      29.39600000      24.81700000
 H      13.88200000      29.33000000      25.58000000
 H      13.91200000      29.52400000      24.08400000
 O      12.62400000      21.54100000      22.81500000
 H      12.82100000      20.92100000      22.19800000
 H      13.20500000      22.22500000      22.59300000
 O      14.61500000      22.12400000      24.99300000
 H      14.91500000      21.86400000      25.93100000
 H      14.08700000      21.39700000      24.70500000
 O      11.39400000      23.42700000      26.61200000
 H      11.34400000      23.52200000      25.62000000
 H      10.51500000      22.98300000      26.67700000
 O      17.09600000      23.40000000      17.69400000
 H      17.50800000      22.54500000      17.92400000
 H      17.84600000      24.03200000      17.67500000
 O      14.01700000      22.59600000      16.25700000
 H      13.07000000      22.79600000      16.13900000
 H      14.02900000      21.62200000      16.48500000
 O      11.24800000      24.19600000      16.82600000
 H      11.96300000      24.73500000      17.24500000
 H      10.70900000      23.74600000      17.48800000
 O      11.06300000      24.26900000      24.01600000
 H      11.87700000      24.03800000      23.48300000
 H      10.84500000      25.09000000      23.55300000
 O      13.31100000      21.64600000      19.82400000
 H      14.12100000      22.23000000      19.70700000
 H      13.55700000      20.85200000      19.24000000
 O      19.73300000      21.89500000      24.15500000
 H      20.01000000      21.06000000      23.84700000
 H      18.90800000      22.06900000      23.66100000
 O      17.88400000      30.54100000      21.17600000
 H      18.78800000      30.70800000      21.02600000
 H      17.84800000      30.16700000      22.11700000
 O      17.75700000      29.38600000      16.57100000
 H      17.04900000      29.26800000      17.28100000
 H      17.20000000      29.58200000      15.75700000
 O      16.12900000      27.15500000      17.15900000
 H      15.42500000      27.88200000      17.15800000
 H      16.70500000      27.30000000      17.97700000
 O      15.82600000      24.76400000      15.44600000
 H      16.10600000      24.06400000      16.04700000
 H      15.95200000      25.51300000      16.02300000
 O      15.72600000      26.73600000      22.23300000
 H      15.96700000      26.90000000      23.16800000
 H      15.64800000      27.57600000      21.76400000
 O      20.43400000      29.28000000      15.26700000
 H      19.70600000      29.08100000      15.91300000
 H      20.85300000      28.44000000      15.09300000
 O      10.13400000      21.30000000      24.68300000
 H      10.38200000      20.60300000      25.36800000
 H      10.92100000      21.46200000      24.06700000
 O      19.60700000      25.26700000      15.34000000
 H      19.91100000      24.35000000      15.62200000
 H      19.83900000      25.85300000      16.11100000
 O      19.56300000      25.58300000      22.33500000
 H      20.43000000      25.62500000      22.78900000
 H      18.86300000      25.35200000      23.01400000
 O      19.52900000      23.11000000      21.17200000
 H      18.53000000      23.13600000      20.93400000
 H      19.61700000      24.02000000      21.58500000
 O      14.52100000      24.72300000      18.33700000
 H      14.52400000      23.80900000      17.90100000
 H      14.68300000      25.35600000      17.58000000
 O      12.27800000      27.52000000      22.68500000
 H      13.02800000      27.27300000      23.29600000
 H      12.43800000      27.27900000      21.76400000
 O      15.14500000      27.80600000      26.46900000
 H      15.89400000      27.15900000      26.24300000
 H      14.35300000      27.29900000      26.81700000
 O      17.43600000      26.12100000      25.96300000
 H      18.01200000      26.38400000      26.70800000
 H      17.84300000      25.23100000      25.82100000
 O      20.55700000      27.47100000      17.63000000
 H      21.37500000      27.95600000      17.31900000
 H      20.68500000      26.61000000      18.19000000
 O      19.69200000      20.83500000      16.87500000
 H      19.44500000      21.09900000      17.78500000
 H      20.60000000      20.41600000      17.05300000
 O      19.21200000      27.57400000      19.89500000
 H      19.29400000      26.68400000      20.32000000
 H      19.71800000      27.45800000      19.06200000
 O      14.95500000      29.61000000      22.25500000
 H      14.03700000      29.87200000      22.26400000
 H      15.36900000      30.32600000      22.79700000
 O      12.77800000      28.01800000      16.52400000
 H      12.70100000      27.80400000      17.49600000
 H      13.35300000      28.79900000      16.49800000
 O      12.17400000      25.96900000      20.21200000
 H      12.56900000      25.25600000      20.82700000
 H      12.92700000      26.07600000      19.58500000
 O      16.21700000      24.27900000      20.66100000
 H      15.93900000      24.34500000      19.71500000
 H      16.07400000      25.21800000      21.09500000
 O      16.69600000      28.85000000      19.26000000
 H      16.91600000      29.73000000      19.66600000
 H      17.51100000      28.38500000      19.63200000
 O      14.01000000      24.73500000      23.01600000
 H      14.63400000      25.35600000      22.58000000
 H      14.40200000      24.65600000      23.93900000
 O      13.74900000      28.13500000      19.48400000
 H      14.70800000      28.23900000      19.42200000
 H      13.45300000      28.71300000      20.23600000
 O      20.56100000      29.08400000      22.14800000
 H      20.32800000      28.51900000      22.90000000
 H      20.19200000      28.54500000      21.36800000
 O      10.73600000      23.17400000      20.66500000
 H      11.43200000      22.72600000      20.10600000
 H      10.25700000      22.48600000      21.18300000
 O      10.32000000      29.37200000      25.36100000
 H      11.25600000      29.63000000      25.05800000
 H       9.82600000      30.18200000      25.09600000
 O      19.24000000      23.89400000      25.88500000
 H      19.40300000      23.23800000      25.14100000
 H      19.92900000      24.52300000      26.00600000
 O      20.08500000      27.31800000      24.99300000
 H      20.41000000      27.90800000      25.60500000
 H      20.92300000      27.07000000      24.43800000
 O      18.01000000      28.95000000      23.77100000
 H      18.43300000      28.28100000      24.37500000
 H      17.60900000      29.64800000      24.37400000
 O      18.79400000      20.58700000      19.68800000
 H      19.01700000      21.27400000      20.36600000
 H      17.82000000      20.51000000      19.90900000
 O      11.19300000      20.83100000      16.02800000
 H      10.84600000      21.39900000      15.33200000
 H      12.09900000      20.55100000      15.72600000
 O      20.13200000      24.34100000      18.21300000
 H      20.45600000      24.10300000      19.12400000
 H      20.89600000      23.80000000      17.72400000
 O      17.08300000      22.97600000      23.37700000
 H      16.41800000      22.61500000      23.97000000
 H      16.65300000      23.50800000      22.76400000
 O      14.81800000      24.91900000      25.76900000
 H      15.71900000      24.75800000      26.09500000
 H      14.34000000      24.04300000      25.75100000
 O      12.18700000      26.17200000      26.16900000
 H      13.01400000      25.69000000      25.85500000
 H      11.57100000      25.93600000      25.48700000
 O      12.40000000      29.88700000      21.78500000
 H      12.08200000      29.09500000      22.33200000
 H      11.83000000      30.57200000      22.22100000
 O      14.71700000      29.80500000      17.17900000
 H      14.22900000      30.27000000      17.90500000
 H      14.56400000      30.42300000      16.44500000
