105
XYZ file of cluster: frame_15500_c272f.71d5f.9ad50 - created by MolEdiTo
 O      26.03800000      15.59400000      29.23800000
 H      25.31000000      16.14400000      29.63000000
 H      26.84000000      15.96300000      29.77000000
 O      28.41000000      16.01100000      30.67300000
 H      28.04800000      15.85200000      31.59900000
 H      29.33000000      15.71900000      30.69500000
 O      28.21200000      17.43000000      27.36100000
 H      28.09700000      16.44800000      27.53900000
 H      28.05600000      17.60500000      26.37100000
 O      29.63500000      19.33100000      28.99200000
 H      28.92600000      18.85300000      28.44600000
 H      30.31800000      18.65500000      29.06900000
 O      30.29100000      15.79700000      25.68800000
 H      29.96800000      15.09700000      25.09500000
 H      30.14600000      16.65300000      25.20100000
 O      30.35700000      19.01100000      22.87100000
 H      31.01900000      19.67500000      23.13700000
 H      30.81100000      18.39500000      22.23900000
 O      28.09100000      18.04100000      24.46700000
 H      27.31300000      17.50700000      23.98700000
 H      28.74300000      18.08800000      23.70100000
 O      28.90900000      15.91300000      22.10400000
 H      28.24300000      15.62600000      22.74100000
 H      29.22400000      15.03700000      21.72600000
 O      26.06400000      18.19100000      22.61600000
 H      25.36000000      18.25600000      21.99000000
 H      26.95100000      18.20000000      22.18000000
 O      27.30800000      23.50400000      23.65500000
 H      26.57500000      23.07300000      24.21000000
 H      27.87900000      22.72800000      23.44800000
 O      26.41200000      21.43400000      28.35400000
 H      26.31900000      20.56100000      28.09200000
 H      27.39800000      21.45000000      28.45300000
 O      28.95800000      24.38100000      26.00600000
 H      28.68200000      24.31600000      25.06700000
 H      28.99900000      25.37900000      26.06600000
 O      28.28700000      20.88800000      23.40900000
 H      27.99300000      20.46500000      24.21600000
 H      29.10900000      20.44300000      23.28300000
 O      27.00900000      22.67700000      20.54800000
 H      27.43300000      23.27200000      21.17300000
 H      27.61800000      22.07200000      20.04300000
 O      28.55300000      21.91700000      30.00600000
 H      29.04500000      21.07900000      29.92800000
 H      27.73200000      21.52000000      30.37700000
 O      28.16400000      25.23500000      28.73800000
 H      27.65900000      24.39400000      28.65000000
 H      27.54700000      25.98700000      28.57900000
 O      30.79600000      25.04600000      28.78300000
 H      29.78000000      25.15700000      28.73800000
 H      30.89300000      24.81800000      27.85800000
 O      27.95900000      26.01500000      22.47400000
 H      28.52500000      25.48500000      21.88500000
 H      27.42100000      25.33900000      22.95900000
 O      35.96400000      25.94300000      29.80500000
 H      36.19100000      25.81700000      30.72600000
 H      36.53200000      25.33500000      29.25100000
 O      36.24800000      20.45400000      25.55700000
 H      37.00600000      20.98000000      25.63700000
 H      36.16900000      20.04900000      26.40300000
 O      33.96600000      16.80800000      21.74700000
 H      34.64100000      16.22100000      21.35700000
 H      34.41800000      17.59400000      21.91300000
 O      33.75300000      20.98000000      24.48600000
 H      34.46500000      20.54300000      24.92600000
 H      34.17300000      21.62100000      23.86100000
 O      34.32600000      20.46600000      28.96200000
 H      34.87000000      21.31800000      29.10300000
 H      33.34500000      20.73000000      28.73300000
 O      36.85600000      17.19300000      25.00100000
 H      36.33900000      16.40900000      25.23100000
 H      36.60100000      17.84600000      25.67700000
 O      35.33000000      23.17800000      28.01500000
 H      34.43400000      23.21000000      27.54600000
 H      36.00300000      23.34000000      27.29200000
 O      35.64200000      24.85000000      23.54800000
 H      36.43600000      25.10800000      23.02900000
 H      35.16800000      24.47700000      22.79200000
 O      36.47000000      15.51400000      21.61400000
 H      36.31900000      16.37500000      21.23100000
 H      37.30300000      15.44300000      22.18200000
 O      34.51900000      26.33400000      25.98700000
 H      33.96400000      25.58400000      25.74900000
 H      35.30700000      26.16700000      25.44800000
 O      35.00200000      15.55400000      26.01800000
 H      34.16400000      15.92100000      26.32200000
 H      34.76500000      14.60500000      26.14300000
 O      33.26900000      23.82100000      26.47400000
 H      33.32800000      23.08000000      25.75500000
 H      32.33000000      23.91400000      26.78100000
 O      34.34100000      21.09000000      21.10800000
 H      35.31400000      21.23600000      20.85100000
 H      34.31800000      20.15100000      21.34600000
 O      35.46500000      18.48900000      27.51500000
 H      34.70500000      18.32300000      26.93000000
 H      35.19700000      19.23400000      28.09300000
 O      36.97100000      23.88600000      25.68500000
 H      36.56100000      24.30400000      24.85800000
 H      37.79200000      23.45500000      25.40200000
 O      33.17200000      15.35300000      28.98300000
 H      33.87600000      14.76900000      28.80800000
 H      33.55200000      16.16900000      29.38700000
 O      35.58600000      18.70700000      22.69100000
 H      36.45600000      19.26900000      22.64800000
 H      35.64000000      18.28900000      23.57600000
