105
XYZ file of cluster: frame_15500_c272f.2541c.9d950 - created by MolEdiTo
 O      26.03800000      15.59400000      29.23800000
 H      25.31000000      16.14400000      29.63000000
 H      26.84000000      15.96300000      29.77000000
 O      27.08100000      12.69100000      29.45400000
 H      27.06500000      13.65900000      29.54700000
 H      26.71600000      12.54500000      30.33000000
 O      30.27700000       6.54300000      24.77800000
 H      30.32100000       5.82400000      25.46900000
 H      30.09200000       7.29300000      25.42000000
 O      30.29100000      15.79700000      25.68800000
 H      29.96800000      15.09700000      25.09500000
 H      30.14600000      16.65300000      25.20100000
 O      30.68300000       8.86200000      30.22800000
 H      30.74100000       7.93500000      30.38800000
 H      30.25100000       9.18500000      31.06300000
 O      26.53400000      15.48300000      23.86900000
 H      26.47500000      14.58900000      23.46400000
 H      26.52500000      15.41900000      24.86300000
 O      28.90900000      15.91300000      22.10400000
 H      28.24300000      15.62600000      22.74100000
 H      29.22400000      15.03700000      21.72600000
 O      28.91200000      10.29100000      28.20900000
 H      28.57800000      11.19900000      28.37800000
 H      28.94900000      10.05000000      29.19700000
 O      29.05300000      14.50600000      27.89500000
 H      29.68700000      14.82800000      27.22200000
 H      29.50100000      14.86400000      28.72800000
 O      30.53100000      13.37900000      20.99800000
 H      30.19800000      12.68300000      20.42000000
 H      30.47200000      13.07600000      21.91300000
 O      27.57300000       7.27700000      29.41900000
 H      27.69900000       8.21800000      29.53100000
 H      28.49100000       7.16800000      28.90800000
 O      26.30300000       5.03700000      21.05800000
 H      27.06500000       4.78000000      20.39900000
 H      26.74800000       5.36100000      21.84700000
 O      26.83800000       5.71400000      24.43100000
 H      26.94800000       5.59300000      25.39700000
 H      26.10200000       6.28600000      24.28800000
 O      28.54300000       7.74200000      22.60300000
 H      29.10300000       7.01000000      22.27800000
 H      28.16300000       7.40700000      23.49100000
 O      29.58900000      13.34200000      24.15300000
 H      30.21900000      12.72600000      24.54400000
 H      28.81600000      12.77700000      23.88700000
 O      29.69900000       7.61800000      27.37600000
 H      30.52400000       7.49900000      27.87200000
 H      29.52000000       8.59800000      27.52300000
 O      26.80700000      13.39400000      26.54900000
 H      26.32800000      12.52600000      26.68200000
 H      27.55400000      13.44400000      27.15100000
 O      34.51200000      12.82800000      27.10000000
 H      33.55100000      12.56700000      26.96700000
 H      35.10800000      12.10000000      26.88700000
 O      33.58200000      10.05600000      27.94100000
 H      32.70600000      10.25100000      28.35500000
 H      33.91100000       9.37100000      28.52500000
 O      36.71700000      14.68800000      29.03600000
 H      36.80600000      14.18700000      29.87400000
 H      37.02100000      13.99300000      28.38800000
 O      37.67800000       6.00900000      27.47700000
 H      36.77800000       6.29500000      27.28000000
 H      38.22400000       6.69900000      27.03300000
 O      34.52900000      13.67400000      22.87900000
 H      33.56900000      13.98600000      22.83600000
 H      35.00600000      14.37300000      22.42900000
 O      33.41800000       9.08200000      22.90100000
 H      32.55500000       8.70400000      22.68000000
 H      33.97800000       8.30300000      22.64300000
 O      35.69700000      10.98500000      22.39800000
 H      35.20300000      11.83100000      22.39300000
 H      35.11700000      10.26700000      22.03800000
 O      32.73400000      10.99700000      25.07600000
 H      33.11600000      10.21200000      24.62000000
 H      32.30400000      10.57500000      25.84000000
 O      36.73600000      10.31000000      26.04300000
 H      37.10500000      10.99100000      25.50300000
 H      37.10700000      10.52900000      26.90100000
 O      36.47000000      15.51400000      21.61400000
 H      36.31900000      16.37500000      21.23100000
 H      37.30300000      15.44300000      22.18200000
 O      35.00200000      15.55400000      26.01800000
 H      34.16400000      15.92100000      26.32200000
 H      34.76500000      14.60500000      26.14300000
 O      35.81000000       7.72200000      26.31800000
 H      35.86200000       8.70500000      26.25300000
 H      35.07600000       7.59500000      26.92100000
 O      33.61800000       6.43100000      22.38100000
 H      33.06900000       6.31700000      23.21200000
 H      33.37700000       5.58000000      21.95000000
 O      33.99100000       6.97900000      28.51700000
 H      34.29700000       6.66200000      29.38700000
 H      34.12200000       6.19100000      27.93700000
 O      36.88400000      12.72300000      24.28100000
 H      36.84400000      11.84900000      23.81600000
 H      36.00300000      13.00400000      24.36800000
 O      35.71500000       9.14800000      29.79500000
 H      36.36800000       9.41900000      29.15900000
 H      36.15600000       8.40900000      30.26900000
 O      33.17200000      15.35300000      28.98300000
 H      33.87600000      14.76900000      28.80800000
 H      33.55200000      16.16900000      29.38700000
 O      32.73100000      11.61800000      30.44300000
 H      33.16300000      12.20600000      29.84300000
 H      33.49200000      11.10700000      30.78600000
