111
XYZ file of cluster: frame_15500_6e451.97836.c7779 - created by MolEdiTo
 O      23.07800000      21.33300000      28.12800000
 H      23.18400000      22.23700000      28.53800000
 H      23.57000000      20.66700000      28.67600000
 O      18.37100000      27.58600000      28.26500000
 H      17.69900000      28.18100000      28.72600000
 H      18.79200000      27.26000000      29.09500000
 O      15.43100000      22.35100000      27.73300000
 H      15.85600000      23.09100000      28.18000000
 H      16.19500000      21.72200000      27.55600000
 O      20.04100000      26.36800000      30.34100000
 H      20.14300000      25.50500000      29.91000000
 H      20.94600000      26.52000000      30.70900000
 O      18.91300000      20.68200000      30.05200000
 H      18.87800000      20.45000000      29.09200000
 H      19.44300000      21.48300000      30.11400000
 O      16.47500000      30.13000000      27.60400000
 H      16.14900000      30.56100000      28.38300000
 H      16.02100000      29.23800000      27.67200000
 O      22.85100000      22.50800000      30.73700000
 H      23.26700000      21.65100000      30.69200000
 H      22.05300000      22.29400000      31.20200000
 O      15.14500000      27.80600000      26.46900000
 H      15.89400000      27.15900000      26.24300000
 H      14.35300000      27.29900000      26.81700000
 O      17.43600000      26.12100000      25.96300000
 H      18.01200000      26.38400000      26.70800000
 H      17.84300000      25.23100000      25.82100000
 O      23.64100000      30.47400000      28.77300000
 H      23.91000000      29.88800000      28.08200000
 H      23.19500000      31.17700000      28.30100000
 O      21.62800000      28.28700000      27.37500000
 H      21.58400000      27.89200000      28.28400000
 H      21.74700000      29.23800000      27.63500000
 O      16.69400000      24.97200000      28.50000000
 H      16.57800000      25.17700000      29.45500000
 H      17.67200000      24.97800000      28.39100000
 O      22.05000000      24.32600000      26.98400000
 H      22.39200000      25.24200000      27.01000000
 H      22.81100000      23.78000000      26.64900000
 O      20.32700000      23.98800000      29.06200000
 H      20.94900000      23.87800000      28.30600000
 H      20.45900000      23.26600000      29.60500000
 O      19.46400000      30.61700000      26.59200000
 H      18.55900000      30.77900000      26.90700000
 H      19.50100000      29.74300000      26.98200000
 O      16.62900000      22.33700000      30.80600000
 H      17.13800000      22.67100000      31.59900000
 H      17.04100000      21.51500000      30.51500000
 O      22.65400000      25.87000000      30.26800000
 H      23.24500000      26.48800000      30.72300000
 H      23.34300000      25.29800000      29.86500000
 O      25.39300000      23.95500000      27.99700000
 H      25.67700000      23.09300000      28.47800000
 H      25.43500000      23.83100000      27.01700000
 O      27.13300000      27.71700000      27.58800000
 H      26.39300000      28.29900000      27.20500000
 H      27.42700000      27.38000000      26.69700000
 O      23.55000000      26.78000000      26.48200000
 H      22.78600000      27.31500000      26.64400000
 H      24.28200000      27.41500000      26.48900000
 O      26.41200000      21.43400000      28.35400000
 H      26.31900000      20.56100000      28.09200000
 H      27.39800000      21.45000000      28.45300000
 O      18.05500000      21.82400000      27.18000000
 H      18.17900000      22.74200000      26.70100000
 H      18.99300000      21.49600000      27.14900000
 O      26.00000000      26.73000000      30.28200000
 H      26.85600000      26.58900000      30.81400000
 H      26.35600000      27.19200000      29.48300000
 O      25.26700000      27.04500000      35.15800000
 H      24.63300000      27.07700000      34.41000000
 H      25.05800000      26.19600000      35.65200000
 O      17.43200000      27.85400000      32.65800000
 H      18.11700000      27.26700000      32.21500000
 H      16.77700000      27.34100000      33.10900000
 O      21.37700000      29.82100000      37.25600000
 H      21.04500000      30.58400000      36.76100000
 H      21.56400000      29.14200000      36.57900000
 O      18.39100000      22.06800000      36.51500000
 H      19.39100000      22.07000000      36.52100000
 H      18.20000000      23.01200000      36.29300000
 O      20.20100000      28.80500000      34.30100000
 H      20.61300000      28.09100000      33.82400000
 H      19.73100000      28.29000000      34.96000000
 O      17.87900000      30.22000000      34.47300000
 H      17.01800000      30.10500000      33.95500000
 H      18.46800000      29.58700000      34.09400000
 O      22.99200000      24.70600000      34.77300000
 H      23.67400000      24.40700000      34.06000000
 H      23.29700000      24.09700000      35.48300000
 O      20.77900000      22.74700000      34.09500000
 H      20.59600000      23.73400000      34.02900000
 H      21.15000000      22.62700000      34.91000000
 O      16.07300000      20.31000000      36.53200000
 H      16.73200000      20.92200000      36.97600000
 H      16.29400000      19.43900000      37.02400000
 O      24.53400000      29.22600000      36.56000000
 H      23.75300000      29.21100000      36.05700000
 H      25.05300000      28.49500000      36.18900000
 O      20.93100000      26.64100000      35.62800000
 H      20.87200000      26.40100000      36.59000000
 H      21.69300000      26.01900000      35.34200000
 O      17.14900000      25.45700000      36.62100000
 H      16.61500000      24.76500000      37.10900000
 H      16.56300000      26.23700000      36.75300000
 O      17.89000000      24.35200000      34.14300000
 H      17.82300000      24.94800000      34.92400000
 H      17.59400000      24.91400000      33.37200000
 O      23.67000000      28.53600000      33.05600000
 H      24.64200000      28.39500000      32.99700000
 H      23.56000000      29.47000000      32.77700000
