102
XYZ file of cluster: frame_15500_98417.35e.4b46 - created by MolEdiTo
 O      30.30500000       6.02300000       1.80400000
 H      30.12500000       6.31800000       2.75500000
 H      31.30300000       6.02000000       1.76200000
 O      25.71000000       5.16500000       1.02800000
 H      25.04600000       4.46700000       0.98500000
 H      26.27800000       4.98100000       1.83400000
 O      26.79800000       8.39900000       4.73900000
 H      26.01500000       8.04900000       5.17200000
 H      26.77300000       7.82000000       3.88600000
 O      21.55100000      10.69700000       1.54300000
 H      21.58800000      10.79800000       2.54000000
 H      21.55100000       9.72200000       1.52900000
 O      24.45700000       5.35600000       6.85200000
 H      23.66200000       5.60700000       7.38900000
 H      24.33800000       4.48500000       6.34400000
 O      28.74400000       8.14600000       6.56800000
 H      28.19000000       8.58900000       5.92700000
 H      28.20000000       7.38300000       6.88600000
 O      25.52600000       9.24900000       1.01000000
 H      25.81100000       8.63000000       1.71500000
 H      24.70900000       8.76700000       0.60900000
 O      21.89600000       5.23000000       5.16600000
 H      22.47400000       5.14400000       5.95800000
 H      21.33700000       5.95800000       5.52100000
 O      30.33200000       6.73800000       4.35900000
 H      29.48200000       6.47500000       4.67300000
 H      30.95200000       6.52600000       5.12700000
 O      27.15400000       6.38200000       7.33000000
 H      26.48100000       5.71400000       7.03000000
 H      26.91000000       6.45100000       8.28400000
 O      20.48400000       3.42800000       1.16300000
 H      19.81800000       3.86900000       1.74700000
 H      21.40300000       3.73800000       1.56200000
 O      27.51300000       4.77300000       3.28600000
 H      27.24800000       4.12600000       3.97000000
 H      28.39600000       4.47900000       2.90000000
 O      22.20700000       8.16000000       2.20600000
 H      21.71200000       7.77900000       1.39000000
 H      22.64400000       7.27200000       2.33000000
 O      24.43800000      10.72900000       3.73000000
 H      24.69600000       9.95700000       4.24300000
 H      24.52400000      10.45900000       2.83400000
 O      26.76000000       3.14300000       5.54000000
 H      27.49800000       2.51900000       5.76700000
 H      26.53700000       3.47200000       6.42700000
 O      22.09400000       6.01200000       7.95600000
 H      21.65600000       6.78700000       8.42700000
 H      22.10000000       5.46000000       8.72100000
 O      30.28100000       2.35400000       2.61100000
 H      31.23700000       2.22900000       2.39500000
 H      29.95800000       1.51700000       2.26300000
 O      22.62300000       4.84100000       2.65500000
 H      23.53000000       4.50500000       2.76500000
 H      22.30300000       4.90700000       3.62600000
 O      26.82800000       7.20200000       2.35800000
 H      27.22000000       6.35100000       2.74400000
 H      26.65500000       6.99800000       1.39400000
 O      24.22100000       8.03400000       5.81100000
 H      23.25600000       8.02900000       5.97000000
 H      24.48400000       7.10800000       5.92200000
 O      26.42600000       4.43300000       9.86300000
 H      26.11600000       5.25900000      10.34200000
 H      25.74100000       3.79600000      10.09600000
 O      27.62500000       2.18500000       8.00500000
 H      27.56600000       2.46100000       8.95400000
 H      28.00700000       1.28500000       8.15700000
 O      22.82300000       4.32100000      10.17600000
 H      22.76500000       3.67800000      10.89200000
 H      22.48300000       5.12400000      10.64800000
 O      23.64700000       2.92200000       5.14000000
 H      22.81100000       2.45100000       5.42800000
 H      24.42900000       2.30600000       5.11300000
 O      22.37400000      10.80200000      10.83300000
 H      21.59000000      11.00800000      11.40100000
 H      22.19600000       9.84400000      10.51600000
 O      25.11100000      10.27600000       7.66100000
 H      26.00800000      10.43700000       8.02900000
 H      25.42100000       9.76200000       6.88000000
 O      22.32600000       0.96400000       2.39600000
 H      21.51400000       1.52600000       2.53500000
 H      21.94800000       0.02700000       2.47500000
 O      29.45100000       9.39400000       9.53100000
 H      28.78300000       9.21900000       8.82600000
 H      29.67000000       8.41500000       9.75900000
 O      29.65500000       6.60200000      10.04200000
 H      30.00000000       5.81200000      10.40200000
 H      28.74200000       6.69300000      10.37500000
 O      21.88800000       9.48400000       6.08200000
 H      22.07800000       9.65800000       5.14800000
 H      22.21300000      10.27600000       6.55200000
 O      23.85800000       8.64500000       9.38500000
 H      24.27600000       9.30800000       8.79600000
 H      23.23400000       8.24300000       8.72900000
 O      26.79200000       7.50100000       9.71200000
 H      26.97200000       8.23400000      10.41300000
 H      25.95000000       7.77200000       9.30700000
 O      22.90400000       1.25200000       8.66500000
 H      22.12800000       1.87100000       8.63000000
 H      23.59700000       1.93300000       8.56100000
 O      29.39900000       4.66600000       6.96500000
 H      28.46900000       4.97600000       7.03400000
 H      29.75500000       4.46100000       7.84500000
