120
XYZ file of cluster: frame_13000_1d8d.a3452.6ead6 - created by MolEdiTo
 O      10.93400000      30.46200000      17.02600000
 H      10.43600000      29.56700000      17.09100000
 H      10.86300000      30.98700000      17.84800000
 O      10.08100000      28.04600000      19.06600000
 H      10.03200000      27.56700000      18.24800000
 H       9.23100000      27.80600000      19.43200000
 O       7.62500000      21.63200000      24.68600000
 H       8.30900000      22.20400000      24.98900000
 H       7.38800000      21.18300000      25.52800000
 O      10.92800000      23.81100000      16.54300000
 H      11.28300000      23.28300000      15.80000000
 H       9.93100000      23.63800000      16.59700000
 O       8.09600000      30.46700000      19.28200000
 H       8.87700000      30.99400000      19.42300000
 H       7.42000000      31.07500000      19.58700000
 O       5.10100000      23.06500000      24.54000000
 H       5.91900000      22.50200000      24.53400000
 H       4.52600000      22.58300000      23.81100000
 O       1.57800000      26.58500000      21.18400000
 H       2.29200000      26.96300000      21.75700000
 H       2.13100000      26.13500000      20.49800000
 O      11.17500000      22.04200000      18.49700000
 H      10.96000000      21.91100000      17.63200000
 H      10.33600000      22.20300000      18.93900000
 O       7.93500000      29.63200000      15.37400000
 H       8.03200000      29.59700000      16.34200000
 H       7.51100000      30.51300000      15.22000000
 O       4.22600000      25.98600000      19.81800000
 H       4.32100000      25.13500000      19.29800000
 H       4.62400000      25.74500000      20.73000000
 O       7.74500000      29.58700000      26.33800000
 H       8.33800000      30.24700000      26.66300000
 H       8.42100000      29.15900000      25.80100000
 O       1.20000000      29.19400000      16.44800000
 H       1.47500000      29.69500000      17.24200000
 H       1.42500000      28.23200000      16.60900000
 O       9.21700000      25.97000000      24.17200000
 H       9.29400000      26.94000000      24.30600000
 H       8.95100000      25.84400000      23.21300000
 O       3.15800000      22.90000000      26.92800000
 H       2.85300000      22.51400000      26.08100000
 H       2.85000000      23.87400000      26.88400000
 O       4.68600000      26.86900000      25.59400000
 H       4.23200000      26.31200000      26.26400000
 H       4.34900000      27.78300000      25.88400000
 O       7.83600000      25.16400000      21.59900000
 H       7.83400000      24.23900000      21.30900000
 H       6.87100000      25.35800000      21.68700000
 O       9.94500000      30.34500000      22.19400000
 H       9.24800000      29.86000000      21.66900000
 H      10.75900000      29.83000000      22.05400000
 O       4.98300000      22.94500000      18.82400000
 H       4.42000000      22.26000000      19.06900000
 H       5.27000000      22.83100000      17.89700000
 O       6.71500000      27.31600000      23.75800000
 H       6.83600000      26.93000000      24.63400000
 H       6.29000000      28.12000000      23.85800000
 O       2.25000000      26.67800000      17.12700000
 H       1.69400000      26.21300000      17.82100000
 H       2.76200000      27.30400000      17.71800000
 O      10.18600000      24.91500000      19.70600000
 H      10.34100000      24.44200000      18.89300000
 H       9.25200000      25.23300000      19.68800000
 O       4.43100000      28.16000000      15.48400000
 H       3.79500000      27.57400000      15.92700000
 H       3.96500000      28.96200000      15.22600000
 O       1.11800000      22.24200000      20.30100000
 H       0.95500000      23.08700000      19.89600000
 H       0.23800000      21.93100000      20.66100000
 O       8.71500000      22.16900000      19.66700000
 H       8.75900000      21.63300000      20.49700000
 H       8.65600000      21.46000000      18.95600000
 O       3.39300000      28.35900000      18.98800000
 H       3.62000000      27.54300000      19.52900000
 H       4.07400000      28.98900000      19.38200000
 O       2.96200000      25.12200000      15.11400000
 H       2.52200000      25.69400000      15.76400000
 H       2.53900000      25.27500000      14.29000000
 O       3.49900000      27.84800000      22.81600000
 H       4.22300000      28.46500000      22.66200000
 H       3.78700000      27.38000000      23.61200000
 O       9.18400000      23.78600000      26.36100000
 H       9.24000000      24.50700000      25.73200000
 H       9.15400000      24.21200000      27.24100000
 O       8.28500000      25.70300000      17.38300000
 H       7.50200000      26.32500000      17.38000000
 H       7.88500000      24.77600000      17.50900000
 O       1.61800000      24.17300000      22.98200000
 H       1.61700000      24.76900000      23.78800000
 H       1.55200000      24.90000000      22.28100000
 O       5.75600000      24.32300000      16.41800000
 H       5.94300000      23.55000000      15.87200000
 H       4.83000000      24.63500000      16.12100000
 O       4.94700000      25.24700000      22.65900000
 H       5.64900000      25.88700000      22.85400000
 H       4.92700000      24.75300000      23.52900000
 O       1.39700000      22.38100000      15.79300000
 H       0.77500000      22.63900000      16.52100000
 H       2.30100000      22.48400000      16.13300000
 O       4.85500000      30.07500000      25.15100000
 H       3.98800000      30.57900000      24.95700000
 H       5.04300000      30.24400000      26.09900000
 O       6.67500000      30.04700000      22.60300000
 H       6.26200000      30.08200000      23.55400000
 H       7.30900000      30.90100000      22.52300000
 O       1.22200000      26.30600000      24.81400000
 H       1.53400000      26.32200000      25.70300000
 H       1.25700000      27.25200000      24.53800000
 O       7.51800000      27.99500000      21.01000000
 H       7.39800000      28.64800000      21.79000000
 H       7.55200000      27.08200000      21.48200000
 O       6.33500000      27.73700000      17.82200000
 H       6.78500000      28.28800000      18.47800000
 H       5.42600000      28.15700000      17.86100000
 O       3.32000000      21.66900000      22.70500000
 H       2.72500000      21.22600000      23.31900000
 H       2.75500000      22.44500000      22.44800000
 O       9.02700000      21.03800000      16.64000000
 H       8.03800000      20.93600000      16.52900000
 H       9.38600000      21.36100000      15.81400000
