102
XYZ file of cluster: frame_13000_9af23.9d29e.7893 - created by MolEdiTo
 O      26.44300000      26.03000000      10.84700000
 H      26.66800000      25.47800000      11.62000000
 H      27.35800000      26.23500000      10.41800000
 O      29.13800000      26.76100000      10.50100000
 H      29.06400000      27.36100000      11.28000000
 H      29.46600000      25.94200000      10.97700000
 O      30.18000000      29.44600000       2.25600000
 H      30.40000000      28.49500000       2.34300000
 H      31.00500000      29.88200000       2.56800000
 O      27.14500000      21.80400000       5.24700000
 H      27.08800000      21.48900000       4.23700000
 H      28.05300000      22.25200000       5.26000000
 O      27.01000000      28.45900000       2.59200000
 H      27.44800000      28.91100000       3.35100000
 H      27.55000000      28.79300000       1.79100000
 O      23.27600000      24.34600000       2.01300000
 H      23.03000000      24.51000000       2.91100000
 H      22.57100000      23.81300000       1.61100000
 O      29.69700000      26.55400000       2.78500000
 H      28.73600000      26.66100000       2.86500000
 H      29.68800000      25.81700000       2.08600000
 O      23.46000000      25.25800000       9.15200000
 H      23.67900000      25.55600000      10.01400000
 H      22.52000000      25.32700000       9.17900000
 O      22.50000000      29.58400000       2.73800000
 H      22.66000000      28.72000000       2.34100000
 H      23.19600000      29.73300000       3.42200000
 O      26.60900000      20.71900000       2.60700000
 H      26.22600000      20.15300000       1.88300000
 H      26.23300000      21.62500000       2.45600000
 O      22.07500000      22.50000000       6.96800000
 H      21.32200000      22.75400000       7.43500000
 H      22.56500000      23.30800000       7.10900000
 O      23.89600000      21.83700000       4.54500000
 H      23.49200000      21.91500000       5.42400000
 H      24.83400000      21.48100000       4.62500000
 O      24.09700000      29.82300000       4.80300000
 H      24.65000000      30.62900000       4.97100000
 H      23.23500000      30.15300000       5.14500000
 O      27.59400000      29.07100000       5.44900000
 H      27.94200000      29.96100000       5.18700000
 H      26.92900000      29.31300000       6.17900000
 O      20.21500000      24.89200000       6.09400000
 H      21.02800000      25.60900000       6.02800000
 H      19.96700000      24.96900000       7.07200000
 O      24.77000000      22.86300000       9.59800000
 H      24.32900000      23.57700000       9.07000000
 H      25.06100000      23.39300000      10.38200000
 O      29.47500000      30.53200000       7.47300000
 H      28.87100000      29.83800000       7.26000000
 H      28.99300000      30.91900000       8.24500000
 O      25.01400000      24.46100000       6.56300000
 H      25.29500000      23.87600000       5.78200000
 H      25.02000000      25.36300000       6.20500000
 O      24.28800000      27.58300000       7.51700000
 H      24.53900000      27.19400000       6.60200000
 H      24.20100000      26.80400000       8.09500000
 O      22.15800000      20.99500000       2.18100000
 H      21.76700000      20.18000000       2.65100000
 H      22.38300000      21.49400000       3.00300000
 O      24.65000000      27.15300000       4.67700000
 H      25.07200000      26.95900000       3.80800000
 H      24.29200000      28.05600000       4.54200000
 O      21.65300000      27.20100000       5.52700000
 H      21.27800000      27.78300000       4.85100000
 H      22.46500000      27.68500000       5.69200000
 O      21.61200000      23.67700000       4.05000000
 H      21.03700000      24.04600000       4.79100000
 H      22.27500000      23.08400000       4.47000000
 O      28.88400000      23.32100000       3.72000000
 H      29.42200000      24.00000000       4.26300000
 H      28.27600000      23.74500000       3.04700000
 O      21.25700000      29.74400000       6.29900000
 H      21.81500000      29.87500000       7.05900000
 H      20.37700000      30.07800000       6.70400000
 O      26.94500000      22.37500000       7.94500000
 H      26.08400000      22.48500000       8.35300000
 H      26.81500000      22.15300000       7.00000000
 O      28.88200000      21.08600000       9.65600000
 H      28.15700000      21.66600000       9.33800000
 H      29.41500000      21.04900000       8.84300000
 O      29.54700000      21.21300000       2.23800000
 H      29.39800000      21.89800000       2.92200000
 H      28.81300000      20.56200000       2.36600000
 O      24.78000000      27.21600000       1.71200000
 H      25.43000000      27.95800000       1.69300000
 H      25.02400000      26.57800000       0.97300000
 O      29.20200000      25.47400000       8.01500000
 H      29.01000000      26.12600000       8.77400000
 H      28.42000000      25.35800000       7.45600000
 O      26.96300000      25.84300000       3.72400000
 H      26.74900000      26.14700000       4.62100000
 H      26.99700000      26.68100000       3.19100000
 O      26.05700000      23.42800000       2.90100000
 H      25.12900000      23.45800000       2.88100000
 H      26.43000000      24.23200000       3.26300000
 O      30.59300000      28.23500000       5.42100000
 H      30.92200000      29.00500000       6.02300000
 H      29.80400000      28.66200000       4.96600000
 O      26.55100000      29.60800000       8.16100000
 H      25.98000000      28.78000000       7.98900000
 H      26.77600000      29.43400000       9.14100000
