129
XYZ file of cluster: frame_13000_1d8d.79983.6ead6 - created by MolEdiTo
 O       7.44800000      17.12700000      21.81000000
 H       6.87500000      17.31500000      22.62500000
 H       8.32600000      17.00400000      22.26000000
 O       7.62500000      21.63200000      24.68600000
 H       8.30900000      22.20400000      24.98900000
 H       7.38800000      21.18300000      25.52800000
 O      10.92800000      23.81100000      16.54300000
 H      11.28300000      23.28300000      15.80000000
 H       9.93100000      23.63800000      16.59700000
 O       5.10100000      23.06500000      24.54000000
 H       5.91900000      22.50200000      24.53400000
 H       4.52600000      22.58300000      23.81100000
 O       3.09500000      20.29200000      20.19500000
 H       2.19000000      20.76500000      19.94700000
 H       3.52400000      20.84400000      20.85200000
 O      11.17500000      22.04200000      18.49700000
 H      10.96000000      21.91100000      17.63200000
 H      10.33600000      22.20300000      18.93900000
 O      11.21600000      19.12000000      17.32900000
 H      10.39500000      19.65400000      17.48700000
 H      11.54300000      19.20200000      16.44400000
 O       4.22600000      25.98600000      19.81800000
 H       4.32100000      25.13500000      19.29800000
 H       4.62400000      25.74500000      20.73000000
 O       9.33900000      20.64200000      22.17900000
 H       9.69900000      20.31900000      23.03900000
 H       8.39000000      20.60800000      22.37900000
 O      10.26600000      16.80600000      22.49500000
 H      10.77100000      16.00400000      22.65800000
 H      10.05800000      16.82200000      21.50200000
 O       9.21700000      25.97000000      24.17200000
 H       9.29400000      26.94000000      24.30600000
 H       8.95100000      25.84400000      23.21300000
 O       2.69800000      18.14900000      22.96500000
 H       3.52000000      18.43000000      23.42600000
 H       2.99600000      17.37700000      22.42900000
 O       3.15800000      22.90000000      26.92800000
 H       2.85300000      22.51400000      26.08100000
 H       2.85000000      23.87400000      26.88400000
 O       1.67000000      19.31700000      16.07100000
 H       1.11600000      20.10200000      15.93800000
 H       1.10700000      18.46500000      16.28000000
 O       6.14000000      20.21400000      21.81800000
 H       6.05200000      19.45800000      21.16300000
 H       5.33100000      20.69700000      21.85400000
 O       7.83600000      25.16400000      21.59900000
 H       7.83400000      24.23900000      21.30900000
 H       6.87100000      25.35800000      21.68700000
 O       4.98300000      22.94500000      18.82400000
 H       4.42000000      22.26000000      19.06900000
 H       5.27000000      22.83100000      17.89700000
 O      10.53300000      19.17300000      24.00400000
 H      10.71400000      18.41300000      23.41900000
 H       9.76300000      18.95900000      24.58700000
 O      10.18600000      24.91500000      19.70600000
 H      10.34100000      24.44200000      18.89300000
 H       9.25200000      25.23300000      19.68800000
 O       6.57200000      16.58700000      24.36900000
 H       5.93400000      17.28800000      24.75300000
 H       6.84200000      16.03700000      25.14600000
 O       1.11800000      22.24200000      20.30100000
 H       0.95500000      23.08700000      19.89600000
 H       0.23800000      21.93100000      20.66100000
 O      10.07900000      16.88300000      19.72500000
 H      10.96800000      16.72900000      19.18500000
 H       9.67900000      16.01200000      19.62200000
 O       8.71500000      22.16900000      19.66700000
 H       8.75900000      21.63300000      20.49700000
 H       8.65600000      21.46000000      18.95600000
 O       9.21500000      19.34000000      19.40100000
 H       8.64200000      19.23500000      20.18700000
 H       9.67700000      18.48300000      19.39100000
 O       2.96200000      25.12200000      15.11400000
 H       2.52200000      25.69400000      15.76400000
 H       2.53900000      25.27500000      14.29000000
 O       1.05100000      16.26000000      25.94100000
 H       1.74600000      15.59400000      25.72400000
 H       1.42800000      16.70000000      26.79100000
 O       9.18400000      23.78600000      26.36100000
 H       9.24000000      24.50700000      25.73200000
 H       9.15400000      24.21200000      27.24100000
 O       1.92600000      20.30700000      24.63200000
 H       1.24200000      20.30500000      25.33300000
 H       2.07200000      19.32300000      24.54500000
 O       8.28500000      25.70300000      17.38300000
 H       7.50200000      26.32500000      17.38000000
 H       7.88500000      24.77600000      17.50900000
 O       1.61800000      24.17300000      22.98200000
 H       1.61700000      24.76900000      23.78800000
 H       1.55200000      24.90000000      22.28100000
 O       5.75600000      24.32300000      16.41800000
 H       5.94300000      23.55000000      15.87200000
 H       4.83000000      24.63500000      16.12100000
 O       4.94700000      25.24700000      22.65900000
 H       5.64900000      25.88700000      22.85400000
 H       4.92700000      24.75300000      23.52900000
 O       1.39700000      22.38100000      15.79300000
 H       0.77500000      22.63900000      16.52100000
 H       2.30100000      22.48400000      16.13300000
 O       8.83700000      16.57200000      16.66000000
 H       8.69300000      16.81600000      15.68900000
 H       8.66000000      17.44400000      17.07500000
 O       4.27100000      17.78200000      20.19300000
 H       4.65800000      17.55400000      19.29300000
 H       3.83100000      18.69100000      20.07400000
 O       4.57200000      16.01700000      22.40900000
 H       4.42500000      16.50500000      21.56700000
 H       5.51100000      15.88300000      22.52500000
 O       6.12300000      20.47800000      16.00200000
 H       5.49400000      19.77200000      16.33000000
 H       6.15600000      20.39000000      15.04700000
 O       2.89500000      16.07300000      18.20300000
 H       3.16100000      15.59200000      19.04800000
 H       2.53200000      17.00300000      18.41400000
 O       3.08400000      16.32200000      15.49100000
 H       2.19200000      16.76100000      15.25200000
 H       2.93500000      15.95200000      16.42100000
 O       5.24700000      19.18200000      24.29600000
 H       5.26900000      19.71600000      25.08900000
 H       5.79900000      19.59800000      23.58900000
 O       3.32000000      21.66900000      22.70500000
 H       2.72500000      21.22600000      23.31900000
 H       2.75500000      22.44500000      22.44800000
 O       4.47600000      18.73800000      17.13400000
 H       4.58700000      17.84000000      16.78200000
 H       3.49900000      18.92500000      17.07300000
 O       9.02700000      21.03800000      16.64000000
 H       8.03800000      20.93600000      16.52900000
 H       9.38600000      21.36100000      15.81400000
