117
XYZ file of cluster: frame_13000_c723d.9d95b.9e690 - created by MolEdiTo
 O      27.26900000      29.49900000      26.11800000
 H      28.00200000      30.03900000      26.52500000
 H      26.63500000      29.26600000      26.72200000
 O      27.24300000      26.55200000      28.36200000
 H      26.63900000      26.28100000      29.07400000
 H      26.61400000      26.53500000      27.57500000
 O      27.98100000      21.77500000      24.69500000
 H      28.79100000      21.37200000      24.98500000
 H      27.48900000      21.60900000      25.56800000
 O      28.57500000      26.66600000      24.64100000
 H      29.31800000      26.24300000      25.00800000
 H      28.63100000      26.36300000      23.68600000
 O      26.26600000      22.64800000      22.08600000
 H      26.56700000      22.66500000      21.12000000
 H      26.93100000      22.11800000      22.56400000
 O      28.25500000      25.00200000      30.76900000
 H      28.36000000      25.41600000      29.88400000
 H      27.81400000      24.14300000      30.43200000
 O      27.18000000      22.97400000      29.09200000
 H      26.52700000      22.30100000      29.14500000
 H      26.94700000      23.38000000      28.21800000
 O      29.78200000      24.66200000      27.59400000
 H      29.80100000      23.71500000      27.83400000
 H      28.88700000      24.97600000      27.70000000
 O      29.52400000      21.66800000      28.94900000
 H      28.68400000      22.08500000      28.73700000
 H      29.31300000      21.54400000      29.89800000
 O      29.39500000      28.39000000      29.10800000
 H      28.90600000      27.69900000      28.70200000
 H      28.61700000      28.72400000      29.70500000
 O      29.36400000      28.59000000      20.60200000
 H      29.20600000      28.26500000      21.52200000
 H      30.28900000      28.25500000      20.45300000
 O      27.22600000      30.02900000      30.17000000
 H      26.92200000      30.98200000      30.06600000
 H      26.69900000      29.62200000      29.43800000
 O      28.81400000      24.32800000      22.80000000
 H      28.40700000      23.51700000      23.01700000
 H      29.74100000      24.09900000      22.82500000
 O      26.19800000      24.66400000      23.77500000
 H      25.92800000      23.80900000      23.21200000
 H      27.08800000      24.80900000      23.54800000
 O      26.47100000      20.77100000      27.09100000
 H      25.66200000      20.97100000      26.61500000
 H      26.02200000      20.31600000      27.87300000
 O      26.75100000      28.22500000      23.44900000
 H      27.08500000      28.95200000      24.02900000
 H      27.11400000      27.45200000      23.86900000
 O      26.54600000      24.15200000      26.72500000
 H      25.71900000      23.54800000      26.70100000
 H      26.68400000      24.49100000      25.82600000
 O      30.04900000      29.09600000      23.43300000
 H      29.16200000      28.80800000      23.58200000
 H      29.97800000      30.08000000      23.29200000
 O      25.67300000      29.17500000      20.90000000
 H      26.56200000      29.52600000      20.72600000
 H      25.67000000      29.13000000      21.90200000
 O      36.56200000      23.06500000      24.54000000
 H      37.38000000      22.50200000      24.53400000
 H      35.98700000      22.58300000      23.81100000
 O      33.03900000      26.58500000      21.18400000
 H      33.75300000      26.96300000      21.75700000
 H      33.59200000      26.13500000      20.49800000
 O      33.44700000      27.76400000      29.84900000
 H      32.45700000      27.89400000      29.81300000
 H      33.60300000      28.25200000      28.98400000
 O      34.61900000      22.90000000      26.92800000
 H      34.31400000      22.51400000      26.08100000
 H      34.31100000      23.87400000      26.88400000
 O      36.14700000      26.86900000      25.59400000
 H      35.69300000      26.31200000      26.26400000
 H      35.81000000      27.78300000      25.88400000
 O      34.05800000      29.62800000      27.73700000
 H      34.99100000      29.81400000      28.02500000
 H      33.94600000      30.17900000      26.88800000
 O      32.58600000      23.55900000      30.76600000
 H      32.67800000      22.58300000      30.53300000
 H      31.59500000      23.64000000      30.98700000
 O      36.41400000      28.92000000      30.67700000
 H      37.34500000      29.03200000      30.39800000
 H      36.42400000      28.05900000      31.04400000
 O      36.27000000      20.38800000      26.86300000
 H      35.51500000      20.20700000      27.49400000
 H      36.22500000      21.36100000      26.79300000
 O      34.96000000      27.84800000      22.81600000
 H      35.68400000      28.46500000      22.66200000
 H      35.24800000      27.38000000      23.61200000
 O      33.07900000      24.17300000      22.98200000
 H      33.07800000      24.76900000      23.78800000
 H      33.01300000      24.90000000      22.28100000
 O      33.78500000      20.82600000      28.38900000
 H      32.79700000      20.88500000      28.46300000
 H      34.10300000      21.51900000      27.77200000
 O      36.40800000      25.24700000      22.65900000
 H      37.11000000      25.88700000      22.85400000
 H      36.38800000      24.75300000      23.52900000
 O      36.31600000      30.07500000      25.15100000
 H      35.44900000      30.57900000      24.95700000
 H      36.50400000      30.24400000      26.09900000
 O      32.68300000      26.30600000      24.81400000
 H      32.99500000      26.32200000      25.70300000
 H      32.71800000      27.25200000      24.53800000
 O      36.63300000      30.54200000      27.89300000
 H      36.89100000      31.26400000      28.50800000
 H      37.34700000      29.95300000      28.17800000
 O      34.11600000      26.05000000      27.45000000
 H      34.54000000      25.78400000      28.32200000
 H      33.17800000      25.91300000      27.56400000
 O      34.55900000      25.49400000      30.53100000
 H      33.80800000      24.85400000      30.78100000
 H      34.09600000      26.32400000      30.24700000
 O      35.99000000      22.69400000      30.10100000
 H      35.76300000      23.58400000      30.51000000
 H      35.94400000      22.87300000      29.08800000
 O      34.78100000      21.66900000      22.70500000
 H      34.18600000      21.22600000      23.31900000
 H      34.21600000      22.44500000      22.44800000
