117
XYZ file of cluster: frame_13000_9e585.75c60.c7b11 - created by MolEdiTo
 O      20.96700000      21.03200000      27.38700000
 H      21.31000000      21.62400000      28.14500000
 H      20.40500000      21.76500000      26.87200000
 O      29.65800000      19.78600000      26.36000000
 H      28.99000000      19.10600000      26.04200000
 H      29.55200000      19.87400000      27.31100000
 O      21.92700000      22.62300000      30.14000000
 H      20.92900000      22.86600000      30.22200000
 H      21.95800000      21.94000000      30.83500000
 O      25.09300000      24.83200000      29.48400000
 H      24.20200000      24.50600000      29.84300000
 H      25.65000000      24.03800000      29.82800000
 O      23.05200000      19.64600000      28.99400000
 H      22.34800000      19.24700000      29.39500000
 H      23.02700000      19.24000000      28.18300000
 O      23.89400000      16.83300000      27.21100000
 H      22.98100000      16.92800000      26.95900000
 H      24.31900000      16.88000000      26.32200000
 O      26.22500000      19.13800000      29.66300000
 H      26.53300000      18.37800000      30.23600000
 H      25.34100000      19.46600000      29.94800000
 O      28.48700000      17.31500000      28.38900000
 H      27.66300000      17.84800000      28.60200000
 H      28.46800000      17.20300000      27.41600000
 O      28.25500000      25.00200000      30.76900000
 H      28.36000000      25.41600000      29.88400000
 H      27.81400000      24.14300000      30.43200000
 O      27.18000000      22.97400000      29.09200000
 H      26.52700000      22.30100000      29.14500000
 H      26.94700000      23.38000000      28.21800000
 O      29.78200000      24.66200000      27.59400000
 H      29.80100000      23.71500000      27.83400000
 H      28.88700000      24.97600000      27.70000000
 O      21.07800000      17.06200000      26.18800000
 H      20.86400000      16.96800000      27.17900000
 H      21.50800000      16.26800000      25.78300000
 O      26.47100000      20.77100000      27.09100000
 H      25.66200000      20.97100000      26.61500000
 H      26.02200000      20.31600000      27.87300000
 O      26.54600000      24.15200000      26.72500000
 H      25.71900000      23.54800000      26.70100000
 H      26.68400000      24.49100000      25.82600000
 O      24.84000000      15.50700000      29.61600000
 H      24.76300000      15.92100000      28.74200000
 H      24.32100000      16.13200000      30.16000000
 O      29.52400000      21.66800000      28.94900000
 H      28.68400000      22.08500000      28.73700000
 H      29.31300000      21.54400000      29.89800000
 O      24.59900000      22.00500000      29.69300000
 H      23.77200000      22.41400000      30.04700000
 H      24.25000000      21.11400000      29.36900000
 O      23.83200000      21.32300000      26.29600000
 H      23.06500000      20.78800000      25.99800000
 H      23.57700000      22.21300000      26.18800000
 O      27.14500000      21.80400000      36.76900000
 H      27.08800000      21.48900000      35.75900000
 H      28.05300000      22.25200000      36.78200000
 O      24.18100000      18.50200000      32.88400000
 H      24.59400000      18.13800000      33.72600000
 H      23.31700000      18.92200000      33.04200000
 O      29.69700000      26.55400000      34.30700000
 H      28.73600000      26.66100000      34.38700000
 H      29.68800000      25.81700000      33.60800000
 O      23.27600000      24.34600000      33.53500000
 H      23.03000000      24.51000000      34.43300000
 H      22.57100000      23.81300000      33.13300000
 O      26.60900000      20.71900000      34.12900000
 H      26.22600000      20.15300000      33.40500000
 H      26.23300000      21.62500000      33.97800000
 O      20.89900000      19.70200000      36.99800000
 H      21.77700000      19.78200000      37.41700000
 H      20.98300000      19.07000000      36.23700000
 O      23.89600000      21.83700000      36.06700000
 H      23.49200000      21.91500000      36.94600000
 H      24.83400000      21.48100000      36.14700000
 O      24.62300000      17.65000000      36.74000000
 H      25.41700000      17.08000000      36.33900000
 H      24.73800000      17.32700000      37.64900000
 O      29.88500000      16.99800000      36.53100000
 H      30.71900000      17.20300000      36.10400000
 H      29.45100000      16.31200000      36.07700000
 O      26.52700000      16.02600000      35.61800000
 H      26.90600000      15.33400000      36.11800000
 H      26.74600000      15.88300000      34.67900000
 O      22.15800000      20.99500000      33.70300000
 H      21.76700000      20.18000000      34.17300000
 H      22.38300000      21.49400000      34.52500000
 O      21.61200000      23.67700000      35.57200000
 H      21.03700000      24.04600000      36.31300000
 H      22.27500000      23.08400000      35.99200000
 O      26.96600000      15.82800000      32.79900000
 H      26.22700000      15.64200000      32.23200000
 H      27.57200000      15.10200000      32.66300000
 O      28.88400000      23.32100000      35.24200000
 H      29.42200000      24.00000000      35.78500000
 H      28.27600000      23.74500000      34.56900000
 O      29.54700000      21.21300000      33.76000000
 H      29.39800000      21.89800000      34.44400000
 H      28.81300000      20.56200000      33.88800000
 O      28.54100000      19.32100000      36.00000000
 H      27.62800000      19.15600000      35.62400000
 H      28.97400000      18.43200000      35.83800000
 O      26.96300000      25.84300000      35.24600000
 H      26.74900000      26.14700000      36.14300000
 H      26.99700000      26.68100000      34.71300000
 O      22.57300000      15.73000000      35.95700000
 H      22.43800000      15.70200000      36.93300000
 H      23.39200000      16.31400000      35.79800000
 O      26.05700000      23.42800000      34.42300000
 H      25.12900000      23.45800000      34.40300000
 H      26.43000000      24.23200000      34.78500000
 O      29.09700000      17.77000000      33.13700000
 H      28.33600000      17.15400000      33.30400000
 H      29.88500000      17.14900000      33.04300000
 O      21.50300000      18.07100000      34.37000000
 H      21.47700000      17.26100000      34.90200000
 H      20.55500000      18.31600000      34.14100000
