303
XYZ file of cluster: frame_4000_778.7506c.258ca - created by MolEdiTo
 O       8.71700000      24.26400000      17.06000000
 H       7.72500000      24.12500000      16.91000000
 H       8.75200000      23.76800000      17.92800000
 O      11.88900000      25.98700000      19.64800000
 H      10.93700000      26.09200000      19.60100000
 H      12.10700000      26.46200000      20.48100000
 O       2.99500000      34.10500000      20.86000000
 H       3.55100000      34.01300000      20.04900000
 H       3.44100000      33.54500000      21.51900000
 O      11.58800000      34.74100000      16.19300000
 H      11.80100000      33.78800000      16.26000000
 H      12.47700000      35.16400000      16.28300000
 O       5.05800000      30.55200000      19.98000000
 H       4.45700000      30.77700000      19.26600000
 H       5.88500000      31.05700000      19.81200000
 O      10.31700000      32.94000000      18.27300000
 H       9.65900000      33.64900000      18.02000000
 H      11.14000000      33.46200000      18.35000000
 O       6.10900000      33.02600000       8.81200000
 H       5.92000000      32.05600000       8.72300000
 H       6.00700000      33.30900000       7.87400000
 O      10.39100000      31.96500000       6.80200000
 H      10.14300000      32.12700000       7.71800000
 H      10.96600000      32.71700000       6.57600000
 O      11.43000000      22.80200000      16.54900000
 H      11.26200000      23.77800000      16.49000000
 H      11.48000000      22.73000000      17.53600000
 O      10.33200000      21.34100000      10.13000000
 H      11.15900000      21.89400000      10.04900000
 H      10.34100000      21.20600000      11.09600000
 O      13.18800000      34.49700000       8.46200000
 H      12.64600000      34.82400000       9.15800000
 H      13.47700000      33.61600000       8.84000000
 O       8.65000000      25.06100000      10.11000000
 H       8.34400000      24.66400000       9.25000000
 H       8.23900000      25.94100000      10.06800000
 O      11.39900000      29.45600000       6.38200000
 H      11.01300000      30.38500000       6.46100000
 H      12.08800000      29.52400000       7.09200000
 O       6.04300000      23.33600000      16.77000000
 H       5.53100000      22.86500000      17.49100000
 H       5.27500000      23.64700000      16.23700000
 O       7.31600000      25.88600000       7.37300000
 H       8.18600000      26.26600000       7.10700000
 H       6.80100000      26.74900000       7.59200000
 O       9.62700000      20.46200000      16.34800000
 H      10.14500000      21.25000000      16.43500000
 H      10.17900000      19.82600000      16.90200000
 O       4.39500000      25.91100000      17.41700000
 H       5.32300000      26.07500000      17.76600000
 H       4.45300000      26.44500000      16.60900000
 O      11.54700000      34.39300000      10.85700000
 H      11.96300000      34.99400000      11.53300000
 H      10.85800000      33.95200000      11.38500000
 O       9.87200000      27.34600000       7.10000000
 H      10.47500000      28.09100000       6.75700000
 H       9.25800000      27.94100000       7.59900000
 O       1.80200000      22.93100000       8.39300000
 H       1.83900000      22.21500000       9.01600000
 H       2.60800000      22.83900000       7.90700000
 O       2.93600000      22.23200000      10.72900000
 H       3.55800000      21.56700000      11.15900000
 H       2.12200000      21.70400000      10.89800000
 O       5.01100000      24.04100000      10.63600000
 H       4.07500000      23.72600000      10.62300000
 H       5.07200000      24.50300000       9.77400000
 O       1.99400000      35.09400000       7.55100000
 H       2.56200000      34.65800000       6.89200000
 H       1.70700000      34.41100000       8.13900000
 O       8.50200000      32.73400000      15.62800000
 H       8.65100000      33.20100000      16.48900000
 H       7.85500000      33.36800000      15.18900000
 O       7.49800000      27.25200000      15.17100000
 H       6.61000000      26.90800000      15.24700000
 H       7.84800000      26.74200000      14.41400000
 O       5.62800000      30.92700000       7.34900000
 H       4.87900000      31.07000000       6.71200000
 H       6.39900000      31.03300000       6.81600000
 O      14.08500000      27.01600000      18.05100000
 H      13.62600000      26.73100000      18.86700000
 H      13.32200000      27.27200000      17.49200000
 O      13.33200000      33.70200000      19.31100000
 H      13.25400000      33.63900000      20.33000000
 H      13.32900000      32.77200000      19.08700000
 O       4.45700000      34.26600000      18.20500000
 H       3.79500000      35.03700000      18.21800000
 H       5.12700000      34.73600000      17.55400000
 O       4.47600000      23.19800000      20.56400000
 H       4.29900000      24.12900000      20.85900000
 H       5.41500000      23.14300000      20.93600000
 O       0.82400000      33.32000000      15.57800000
 H       0.59000000      34.26900000      15.84000000
 H       0.31300000      33.22400000      14.79300000
 O       8.85500000      23.30000000      12.09700000
 H       7.97300000      22.80500000      12.16600000
 H       8.60900000      23.78400000      11.27600000
 O       1.88700000      24.80100000      10.94200000
 H       2.24300000      23.93900000      10.94400000
 H       1.36100000      24.82900000      11.72400000
 O       7.61700000      32.57900000      11.44800000
 H       7.24700000      33.00100000      12.28900000
 H       6.91600000      32.85300000      10.88400000
 O      11.87200000      29.02300000      10.92300000
 H      11.65300000      28.63100000      11.83100000
 H      12.45900000      29.75600000      11.20000000
 O       9.60000000      32.13500000       9.49900000
 H      10.37400000      32.52900000       9.78400000
 H       9.01000000      32.23800000      10.29800000
 O       1.04300000      21.77200000      19.63500000
 H       1.11200000      22.01600000      18.63400000
 H       0.72400000      20.84400000      19.47000000
 O      11.08400000      22.68200000      13.82700000
 H      10.40900000      23.15800000      13.22700000
 H      10.87700000      23.15300000      14.69000000
 O       5.17100000      21.37300000      18.66500000
 H       4.84700000      21.87100000      19.41600000
 H       5.91300000      20.89500000      19.07000000
 O       8.91100000      28.41800000      17.21600000
 H       8.05300000      28.67700000      17.58000000
 H       8.64400000      27.78900000      16.55200000
 O       4.05000000      23.87900000      15.03900000
 H       4.12400000      24.86000000      15.22100000
 H       3.11500000      23.78200000      14.81900000
 O       5.94600000      28.32300000       8.16200000
 H       5.22400000      28.06200000       7.50200000
 H       5.87000000      29.33200000       8.11300000
 O       6.78600000      21.91900000      11.30400000
 H       6.24900000      21.26400000      11.76300000
 H       6.07300000      22.55600000      11.05800000
 O       1.34100000      31.15700000      20.26700000
 H       0.99900000      31.39400000      19.35300000
 H       1.98700000      31.87000000      20.35100000
 O      10.51800000      25.23600000      15.22800000
 H       9.69300000      25.09400000      15.79500000
 H      10.13000000      25.68600000      14.48500000
 O      13.19700000      25.33000000      13.73700000
 H      12.79100000      24.45200000      13.87700000
 H      12.49200000      25.94300000      14.03200000
 O       3.60200000      28.31200000      21.07200000
 H       3.06200000      28.43300000      20.23700000
 H       4.17600000      29.07000000      21.06100000
 O       2.24700000      29.06500000      15.96900000
 H       2.23400000      28.57800000      15.13600000
 H       2.44000000      29.98600000      15.66300000
 O       3.50600000      20.99200000      16.39600000
 H       3.85300000      21.33400000      15.54700000
 H       4.33300000      21.13100000      16.91200000
 O       9.48800000      23.52800000       7.32600000
 H       9.98300000      23.51600000       8.13200000
 H       9.76600000      22.68100000       6.92500000
 O       4.04600000      22.08800000       7.12100000
 H       5.00000000      22.37600000       7.02900000
 H       4.19700000      21.11300000       6.96800000
 O       4.52900000      33.64800000      11.14600000
 H       4.70700000      34.54800000      10.75600000
 H       4.92100000      33.13800000      10.41300000
 O       8.02400000      20.60100000       9.24900000
 H       8.92900000      20.79800000       9.61100000
 H       7.49600000      21.17300000       9.88000000
 O      13.48500000      20.72500000      20.30600000
 H      13.13700000      21.01400000      21.18300000
 H      13.24100000      21.51600000      19.77200000
 O       0.71800000      21.55800000      14.36600000
 H       0.92900000      21.89800000      15.30400000
 H       0.19700000      20.76500000      14.65000000
 O      11.23300000      25.82700000       8.78700000
 H      11.05500000      26.42100000       7.91800000
 H      10.28800000      25.73900000       9.03000000
 O       7.07600000      34.28300000      13.63000000
 H       7.46300000      35.15300000      13.45700000
 H       6.12300000      34.54900000      13.72600000
 O       6.63200000      28.30100000      18.87800000
 H       5.94500000      28.93500000      19.17700000
 H       6.81500000      27.86100000      19.77100000
 O      12.42700000      20.74500000      12.46900000
 H      13.38400000      20.96100000      12.66900000
 H      12.01300000      21.32100000      13.20000000
 O       6.46900000      22.99300000       6.65200000
 H       7.37500000      22.67600000       6.95600000
 H       6.66600000      23.92400000       6.36600000
 O       2.04700000      28.36500000      13.39600000
 H       2.49200000      28.41000000      12.54100000
 H       1.31000000      29.01800000      13.31000000
 O       1.22900000      30.32300000       9.99600000
 H       2.10100000      29.80400000      10.07600000
 H       0.84400000      30.07700000      10.82100000
 O       1.43000000      22.75800000      16.64900000
 H       1.87700000      23.38600000      17.28200000
 H       2.13600000      22.04200000      16.65300000
 O       9.01800000      26.26400000      18.94300000
 H       9.01600000      27.17600000      18.55300000
 H       8.86800000      25.68700000      18.16400000
 O      12.78400000      32.27800000      16.62500000
 H      13.49900000      31.95400000      17.20200000
 H      12.06100000      31.65900000      16.88800000
 O       9.41100000      30.20300000      14.85800000
 H       9.01600000      29.74600000      15.66200000
 H       9.17500000      31.14200000      15.14800000
 O      13.32600000      21.18900000       7.83200000
 H      13.62500000      21.84100000       7.16600000
 H      12.97100000      21.70600000       8.55000000
 O      10.40500000      33.36200000      13.18400000
 H      10.66100000      33.60000000      14.06100000
 H       9.49500000      33.05400000      13.20800000
 O      12.95900000      29.71000000       8.59900000
 H      12.53400000      29.21000000       9.32800000
 H      13.60900000      29.02400000       8.31200000
 O      12.45900000      31.80000000      11.96200000
 H      11.68200000      32.21900000      12.39500000
 H      12.95500000      31.51300000      12.77400000
 O       8.36300000      34.45800000      20.40600000
 H       8.33100000      34.85200000      21.28600000
 H       9.30700000      34.76400000      20.12700000
 O       9.36100000      29.04600000       9.28700000
 H       9.00400000      29.91600000       9.15900000
 H      10.07800000      29.16700000       9.96000000
 O       9.52200000      30.51200000      19.82500000
 H      10.31500000      30.27600000      20.32600000
 H       9.80500000      31.14100000      19.18200000
 O       7.48100000      29.96900000      11.93100000
 H       7.38300000      30.90000000      11.60300000
 H       7.93600000      30.15700000      12.76600000
 O       7.19700000      20.86800000      15.74600000
 H       8.15100000      20.92600000      16.07900000
 H       6.90200000      21.75100000      15.90000000
 O      11.46000000      28.90800000      13.98100000
 H      10.55700000      29.25200000      14.20200000
 H      11.95000000      29.79600000      14.06900000
 O       2.71200000      31.42700000      15.23100000
 H       1.91400000      31.93700000      15.43500000
 H       2.85900000      31.68200000      14.26500000
 O       7.21300000      27.57600000      10.40400000
 H       7.78500000      28.35800000      10.58500000
 H       6.84400000      27.86100000       9.53000000
 O      14.07900000      33.67500000      14.71400000
 H      14.09100000      34.28900000      15.48300000
 H      13.57900000      32.92500000      15.05600000
 O      11.60300000      29.65200000      18.05000000
 H      11.77300000      28.93500000      17.34100000
 H      10.69000000      29.35800000      18.26900000
 O      14.62600000      22.08100000      16.46900000
 H      13.72600000      22.01400000      16.45900000
 H      14.74600000      22.97300000      16.79100000
 O       5.81800000      26.19600000      12.28400000
 H       6.41000000      26.59800000      11.59600000
 H       5.57700000      25.36200000      11.83800000
 O       2.65600000      31.98200000      12.34200000
 H       2.20900000      31.55500000      11.63300000
 H       3.25600000      32.58600000      11.89600000
 O      11.93500000      22.97100000      19.29700000
 H      11.32900000      22.86300000      20.02000000
 H      12.14000000      23.91600000      19.33400000
 O       1.03000000      25.99000000      15.07800000
 H       0.75100000      25.17700000      14.74800000
 H       1.31700000      26.43000000      14.23300000
 O       2.61500000      24.13800000      18.48600000
 H       3.06600000      24.92300000      18.10400000
 H       3.26800000      23.83600000      19.13100000
 O      12.27500000      23.23700000       9.85500000
 H      12.11800000      24.21000000       9.82300000
 H      13.16600000      23.19700000      10.24700000
 O      13.66800000      32.18800000       9.55600000
 H      13.57700000      31.34400000       9.03900000
 H      13.27100000      31.94300000      10.40200000
 O      12.16000000      27.30100000      16.14700000
 H      11.96500000      27.76200000      15.27000000
 H      11.81900000      26.41700000      15.95000000
 O       2.18300000      28.58500000      18.67700000
 H       2.21900000      29.55000000      18.53700000
 H       2.14400000      28.26000000      17.76300000
 O       7.24400000      32.07300000      19.78900000
 H       7.52600000      32.96500000      20.06900000
 H       8.13300000      31.65200000      19.83300000
 O       8.74600000      22.57800000      19.23800000
 H       9.11900000      21.76100000      19.66400000
 H       7.95400000      22.71000000      19.86700000
 O      13.86700000      31.05400000      18.97400000
 H      13.10400000      30.48700000      18.72400000
 H      14.49200000      30.28600000      19.15400000
 O      14.19600000      23.66200000       6.85200000
 H      13.77000000      24.53400000       7.15200000
 H      15.11000000      23.79500000       7.28100000
 O       3.54200000      31.82400000      17.92400000
 H       3.80000000      32.79600000      18.01600000
 H       3.55000000      31.73100000      16.95200000
 O       0.76500000      33.31000000       9.07300000
 H       0.07900000      33.71800000       9.61400000
 H       0.75500000      32.43000000       9.48200000
 O       2.74900000      28.13900000      10.29300000
 H       2.46400000      27.18000000      10.09600000
 H       3.55900000      28.17200000       9.69700000
 O       4.86000000      26.52300000      14.90400000
 H       4.14800000      27.14500000      14.69600000
 H       5.22100000      26.37300000      13.97900000
 O       2.26600000      25.98400000       8.14200000
 H       2.37800000      25.28600000       7.43500000
 H       1.87000000      25.39800000       8.85400000
 O       4.35500000      34.54000000      14.44000000
 H       3.82100000      35.02100000      13.78300000
 H       3.73600000      33.93000000      14.80100000
 O       8.77000000      26.02600000      12.95900000
 H       8.43000000      26.38800000      12.12100000
 H       8.76300000      25.07600000      12.87600000
