387
XYZ file of cluster: frame_4000_c4539.9ce7b.73b3f - created by MolEdiTo
 O      34.69900000      37.09400000      28.20400000
 H      34.64600000      37.97400000      28.65200000
 H      34.62900000      37.37100000      27.29900000
 O      36.03200000      34.41200000      29.72900000
 H      36.28000000      35.24500000      30.19000000
 H      36.60600000      33.79800000      30.18000000
 O      38.20000000      39.85800000      35.98600000
 H      38.06600000      39.17300000      36.67800000
 H      38.10900000      39.27600000      35.19500000
 O      36.32100000      28.42700000      33.25300000
 H      35.96200000      29.27400000      32.99300000
 H      35.72000000      28.10100000      33.89800000
 O      39.80600000      35.84200000      26.73900000
 H      39.78900000      35.34700000      25.85900000
 H      39.58500000      36.70600000      26.44300000
 O      37.28100000      40.12100000      27.51200000
 H      36.80400000      40.93500000      27.64800000
 H      36.85400000      39.59300000      28.18800000
 O      38.32900000      27.84600000      30.92700000
 H      38.10500000      28.08300000      30.01800000
 H      37.48400000      28.12600000      31.37100000
 O      40.32300000      37.74800000      37.01600000
 H      40.80000000      38.53100000      36.63400000
 H      40.12800000      37.21400000      36.25400000
 O      36.15000000      33.38800000      34.04400000
 H      35.60700000      33.69900000      34.83700000
 H      35.86300000      32.43000000      34.01200000
 O      39.71500000      37.89400000      30.92000000
 H      40.09500000      38.03800000      31.80900000
 H      40.48600000      38.14000000      30.38600000
 O      37.59200000      39.30900000      31.62100000
 H      38.20500000      38.64000000      31.26800000
 H      38.17500000      40.11300000      31.65700000
 O      38.49500000      37.19300000      24.54000000
 H      37.58900000      37.22900000      24.78100000
 H      38.38000000      36.97200000      23.54600000
 O      33.69700000      33.25600000      31.51300000
 H      34.67600000      33.33500000      31.33300000
 H      33.66500000      32.26200000      31.53500000
 O      36.55700000      33.47300000      40.56600000
 H      35.72400000      33.70600000      41.01400000
 H      36.46800000      32.44800000      40.71200000
 O      39.07600000      32.35700000      39.93400000
 H      39.72100000      32.62100000      40.69900000
 H      38.29200000      32.80900000      40.23100000
 O      38.93700000      29.59200000      28.61100000
 H      38.48600000      30.42000000      28.45600000
 H      39.47600000      29.57600000      27.78000000
 O      37.51100000      27.36300000      27.91800000
 H      37.90700000      28.22200000      28.11000000
 H      38.29400000      26.80500000      27.69700000
 O      34.72000000      29.37200000      28.42000000
 H      34.37300000      29.46500000      27.46900000
 H      35.54100000      29.92700000      28.35100000
 O      34.97600000      34.37200000      36.25900000
 H      34.31300000      34.15100000      36.89100000
 H      35.79000000      34.14700000      36.81000000
 O      34.41600000      32.99400000      22.41600000
 H      33.67800000      33.46600000      22.75700000
 H      35.11200000      33.52300000      22.86700000
 O      35.69700000      35.12400000      26.69700000
 H      34.73400000      34.94100000      26.82800000
 H      35.77300000      35.74200000      27.47400000
 O      35.22800000      30.83700000      34.39000000
 H      34.51400000      31.11700000      35.06800000
 H      35.96600000      30.65500000      35.01000000
 O      37.31000000      29.86700000      25.81700000
 H      37.26100000      29.81600000      24.79200000
 H      36.68500000      29.15000000      26.05500000
 O      35.22800000      27.86700000      24.73000000
 H      36.05900000      27.47000000      24.33200000
 H      34.56700000      27.30800000      24.30600000
 O      37.56400000      38.43000000      38.27000000
 H      37.45200000      37.50700000      38.56700000
 H      38.20200000      38.77600000      38.91500000
 O      37.85700000      33.73800000      26.44200000
 H      38.55500000      34.37000000      26.59500000
 H      37.08100000      34.32700000      26.62400000
 O      38.12800000      32.64700000      23.11000000
 H      39.08000000      32.90700000      23.17900000
 H      38.18400000      31.71300000      23.07400000
 O      36.78400000      31.31200000      28.03800000
 H      36.85800000      32.28400000      27.80500000
 H      37.15400000      30.95200000      27.20600000
 O      36.30600000      30.77100000      30.99600000
 H      36.61000000      30.48100000      30.13200000
 H      36.82500000      31.58900000      31.07100000
 O      39.93600000      32.66700000      37.59100000
 H      39.88900000      32.57900000      38.53900000
 H      40.53100000      33.51700000      37.49100000
 O      34.64500000      32.28200000      19.77100000
 H      33.67100000      32.13200000      19.78200000
 H      34.75000000      32.42700000      20.76100000
 O      40.08700000      34.25600000      28.96500000
 H      39.91000000      34.85900000      28.17600000
 H      40.17800000      33.40300000      28.62800000
 O      35.39100000      27.65900000      40.23300000
 H      36.13900000      28.07500000      40.80000000
 H      35.30400000      26.81300000      40.60800000
 O      39.51000000      31.29600000      33.43500000
 H      40.27600000      31.20400000      34.00600000
 H      38.79700000      30.71300000      33.85300000
 O      37.37100000      35.75700000      38.96400000
 H      37.31900000      35.08100000      39.66200000
 H      37.46700000      35.17400000      38.18900000
 O      37.67000000      29.75400000      23.18200000
 H      37.69800000      28.76100000      23.28900000
 H      37.80400000      29.78100000      22.17900000
 O      38.39800000      38.69000000      21.72900000
 H      39.39800000      38.57300000      21.79800000
 H      38.10000000      37.76700000      21.63900000
 O      33.92300000      30.49400000      32.00100000
 H      34.77100000      30.55000000      31.50500000
 H      34.24300000      30.93400000      32.80800000
 O      36.32000000      34.48600000      23.90500000
 H      36.95300000      33.72300000      24.07500000
 H      36.27300000      34.80300000      24.82600000
 O      37.62200000      34.02500000      37.00000000
 H      38.49900000      33.62600000      37.31400000
 H      37.89400000      34.21200000      36.09400000
 O      35.00800000      39.25100000      37.85100000
 H      35.92900000      39.45600000      37.97500000
 H      34.60400000      39.98300000      38.38900000
 O      40.52200000      27.44800000      36.01500000
 H      39.86700000      27.60200000      35.24800000
 H      39.92700000      27.53900000      36.76700000
 O      39.85900000      28.99400000      26.13200000
 H      39.06200000      29.31800000      25.83000000
 H      40.51200000      29.65000000      25.79900000
 O      35.38400000      39.28700000      29.79500000
 H      35.05500000      40.15000000      30.01400000
 H      36.14900000      39.20400000      30.44600000
 O      33.95500000      32.79800000      28.34900000
 H      34.63900000      33.15900000      28.94500000
 H      34.43100000      32.04300000      27.96200000
 O      40.02800000      40.43900000      27.09600000
 H      39.04400000      40.30000000      27.33300000
 H      40.06100000      40.07300000      26.17600000
 O      37.38400000      33.18500000      19.96100000
 H      36.86500000      32.46000000      19.61600000
 H      37.74900000      32.75100000      20.78100000
 O      34.51000000      36.94500000      23.10300000
 H      35.27400000      37.56800000      23.16300000
 H      34.95800000      36.10500000      23.42700000
 O      38.69900000      33.72900000      34.55400000
 H      39.09700000      32.91800000      34.22600000
 H      37.72400000      33.50400000      34.45300000
 O      37.80000000      36.10900000      22.02300000
 H      38.10400000      35.59600000      21.22200000
 H      37.18000000      35.40300000      22.38500000
 O      37.59400000      33.03200000      31.56700000
 H      37.97200000      32.69700000      32.44300000
 H      38.10300000      33.88500000      31.47500000
 O      33.50500000      38.65000000      32.03600000
 H      33.23000000      39.48500000      32.49300000
 H      34.47600000      38.88100000      31.85500000
 O      34.78800000      38.51600000      25.78200000
 H      35.30900000      38.79300000      25.03500000
 H      34.78300000      39.34100000      26.31000000
 O      34.78500000      27.54400000      35.40800000
 H      35.01700000      26.58200000      35.65100000
 H      35.10800000      27.96800000      36.22700000
 O      34.89600000      36.91600000      39.17300000
 H      35.80500000      36.53200000      39.03900000
 H      34.92600000      37.56400000      38.45300000
 O      39.25600000      35.13500000      31.19600000
 H      39.63800000      34.84200000      30.34300000
 H      39.50200000      36.09500000      31.14500000
 O      38.83500000      39.10600000      40.62300000
 H      38.38800000      38.65600000      41.38100000
 H      39.16200000      39.94400000      41.09300000
 O      37.59600000      38.13400000      33.99600000
 H      36.70800000      37.71400000      34.10700000
 H      37.51400000      38.56500000      33.13500000
 O      34.42100000      28.40900000      37.98400000
 H      33.51400000      27.97500000      37.83200000
 H      34.56400000      28.03400000      38.90100000
 O      36.97600000      29.39700000      37.86500000
 H      37.62300000      28.73000000      38.27400000
 H      36.11900000      28.95700000      38.12500000
 O      37.86400000      30.98800000      35.92300000
 H      38.51600000      31.54400000      36.44600000
 H      37.51500000      30.52500000      36.74500000
 O      35.30300000      36.60500000      34.27900000
 H      34.35200000      36.70400000      33.93200000
 H      35.18000000      36.09700000      35.14000000
 O      39.66300000      36.24600000      34.71100000
 H      38.93500000      36.72000000      34.33000000
 H      39.42700000      35.26000000      34.61700000
 O      36.20500000      36.44700000      31.56000000
 H      37.02000000      36.35100000      32.04000000
 H      35.55900000      36.49100000      32.37000000
 O      38.73800000      27.82100000      34.13500000
 H      37.87100000      28.07500000      33.69100000
 H      39.20500000      27.49500000      33.35500000
 O      39.80600000      32.05300000      26.93900000
 H      40.20900000      31.56100000      26.18500000
 H      39.09100000      32.52200000      26.50400000
 O      36.32400000      39.04200000      23.52800000
 H      37.07000000      39.03300000      22.86700000
 H      35.93400000      39.86900000      23.31500000
 O      47.59300000      37.51000000      39.45900000
 H      46.68200000      37.23100000      39.62600000
 H      48.13700000      36.77900000      39.77200000
 O      43.02200000      33.86500000      32.23100000
 H      42.95500000      33.12400000      31.61100000
 H      42.08100000      34.22900000      32.13400000
 O      47.69000000      38.53600000      30.83900000
 H      48.50600000      38.39100000      30.28500000
 H      48.06600000      39.25800000      31.42800000
 O      47.89000000      35.40700000      36.52300000
 H      46.94200000      35.14900000      36.48600000
 H      47.74300000      36.33900000      36.81800000
 O      44.74900000      31.60400000      38.96600000
 H      43.98300000      31.04200000      38.88200000
 H      45.41900000      30.91000000      39.08300000
 O      48.66500000      40.53600000      32.03900000
 H      48.62100000      40.66300000      33.02900000
 H      48.06900000      41.24300000      31.71900000
 O      48.85200000      31.79800000      29.35000000
 H      49.49900000      31.30600000      29.88100000
 H      48.16100000      31.95700000      30.06000000
 O      44.06700000      28.85400000      37.23000000
 H      43.49000000      28.26300000      36.66300000
 H      43.34900000      29.23200000      37.79800000
 O      44.92500000      28.31200000      21.07200000
 H      44.38500000      28.43300000      20.23700000
 H      45.49900000      29.07000000      21.06100000
 O      45.41700000      37.50400000      20.15700000
 H      45.12200000      38.29100000      20.60500000
 H      45.62900000      36.92400000      20.89500000
 O      42.64400000      29.23800000      22.53400000
 H      42.48100000      29.87800000      21.85200000
 H      43.48200000      28.82000000      22.20300000
 O      42.32300000      31.01600000      24.68700000
 H      42.65800000      30.51700000      23.95600000
 H      43.05400000      31.68300000      24.79600000
 O      43.63100000      27.53200000      27.92200000
 H      43.24700000      27.30400000      28.78800000
 H      43.72100000      28.47800000      28.05600000
 O      44.58700000      39.35600000      26.86300000
 H      44.39000000      39.48200000      27.84500000
 H      43.66900000      39.26600000      26.55400000
 O      43.92000000      30.22200000      28.44400000
 H      43.34200000      30.78900000      28.99300000
 H      44.77700000      30.22000000      28.91200000
 O      44.58700000      28.44200000      40.21400000
 H      44.50400000      27.67000000      39.67000000
 H      43.92400000      28.35300000      40.93700000
 O      48.65600000      32.48100000      25.94800000
 H      48.17300000      32.74600000      26.74100000
 H      49.00300000      31.64100000      26.13600000
 O      44.31800000      34.10500000      20.86000000
 H      44.87400000      34.01300000      20.04900000
 H      44.76400000      33.54500000      21.51900000
 O      42.55000000      38.56900000      39.46600000
 H      41.69400000      38.89400000      39.80900000
 H      42.17900000      38.18300000      38.60800000
 O      46.97400000      35.61300000      21.74900000
 H      47.36700000      35.02400000      22.47000000
 H      47.47800000      35.27000000      20.95200000
 O      45.78100000      29.57300000      33.12100000
 H      45.93400000      30.44600000      33.56900000
 H      46.62100000      29.19300000      33.13100000
 O      46.81200000      32.03900000      22.70100000
 H      46.71300000      31.31800000      22.11700000
 H      47.70100000      32.01200000      23.01700000
 O      44.87400000      37.19600000      39.90200000
 H      44.33400000      36.49100000      40.29900000
 H      44.20400000      37.83400000      39.62400000
 O      48.68700000      37.89900000      25.91000000
 H      48.80700000      38.18400000      26.84100000
 H      47.89800000      37.23200000      26.09300000
 O      45.93500000      37.20900000      33.02700000
 H      46.71200000      37.00600000      33.64100000
 H      46.41600000      37.49300000      32.25000000
 O      45.13600000      31.10300000      26.09800000
 H      45.53800000      30.17800000      25.89400000
 H      44.68000000      30.85600000      26.90800000
 O      45.92900000      30.02200000      30.17700000
 H      45.92400000      29.35200000      30.88300000
 H      46.52000000      30.69300000      30.65800000
 O      48.18200000      34.62300000      29.67100000
 H      48.06100000      33.97700000      30.40900000
 H      47.54600000      34.32200000      28.98500000
 O      45.44400000      33.06300000      33.52200000
 H      44.66100000      33.48000000      33.00500000
 H      45.48400000      33.73400000      34.21200000
 O      46.44500000      33.27700000      27.79200000
 H      45.98600000      32.78600000      27.10500000
 H      45.63400000      33.71200000      28.18900000
 O      42.42700000      35.48900000      38.22600000
 H      41.74900000      36.23300000      38.25500000
 H      42.55300000      35.38300000      39.22500000
 O      42.18000000      30.28200000      38.69400000
 H      42.07000000      29.95800000      39.63100000
 H      41.32300000      30.81000000      38.64400000
 O      45.39300000      32.42300000      36.69200000
 H      45.01300000      32.23400000      37.61600000
 H      45.29700000      33.42100000      36.71900000
 O      46.89700000      29.61800000      39.33100000
 H      46.92700000      29.30500000      38.44400000
 H      46.12300000      29.06300000      39.66600000
 O      44.43100000      34.80100000      28.86400000
 H      43.78100000      34.50100000      29.51400000
 H      43.84800000      35.08900000      28.14400000
 O      42.03400000      38.83500000      25.13000000
 H      42.24800000      38.96800000      24.15800000
 H      41.39100000      38.15100000      25.07800000
 O      42.43900000      27.35200000      30.50900000
 H      41.47600000      27.50200000      30.59200000
 H      42.78500000      28.03000000      31.15700000
 O      47.41600000      40.24300000      28.22800000
 H      47.59000000      39.35900000      28.53500000
 H      47.65000000      40.15600000      27.29300000
 O      45.42400000      37.01200000      30.08000000
 H      46.12900000      37.59800000      30.38800000
 H      45.83400000      36.19900000      30.16400000
 O      46.41100000      28.87900000      25.74200000
 H      45.82200000      28.12700000      25.53100000
 H      46.92200000      28.85500000      24.89900000
 O      48.19700000      38.78900000      37.04900000
 H      47.56200000      39.48200000      36.90000000
 H      47.91800000      38.38700000      37.89700000
 O      47.48000000      29.27000000      23.43600000
 H      47.59900000      28.80500000      22.62200000
 H      48.28500000      29.89900000      23.44400000
 O      43.69000000      38.87700000      29.38800000
 H      43.90700000      39.49900000      30.12600000
 H      44.07700000      38.07300000      29.69500000
 O      42.79000000      40.01600000      35.67200000
 H      43.08400000      40.69900000      36.35300000
 H      42.10900000      40.60200000      35.22300000
 O      44.67600000      32.60000000      24.06100000
 H      44.99200000      32.09600000      24.87700000
 H      45.48300000      32.61600000      23.49600000
 O      43.12400000      29.08600000      32.64600000
 H      44.06400000      29.30100000      32.62700000
 H      42.74400000      29.47900000      33.45100000
 O      45.10400000      39.99200000      21.32800000
 H      44.84100000      40.67000000      21.96900000
 H      45.91600000      40.37700000      20.98900000
 O      42.41800000      34.10900000      23.96300000
 H      42.46600000      34.53500000      23.11900000
 H      43.19100000      33.56200000      24.07500000
 O      42.50400000      31.49800000      30.83300000
 H      42.64400000      30.85100000      31.56900000
 H      41.58700000      31.35700000      30.61800000
 O      46.48800000      27.53400000      37.27900000
 H      45.98100000      26.64300000      37.27800000
 H      45.67700000      28.10900000      37.25200000
 O      43.29100000      31.27800000      34.72600000
 H      43.92300000      31.92800000      34.32900000
 H      43.56900000      31.33100000      35.64200000
 O      42.55700000      35.88400000      21.09500000
 H      43.20800000      35.17600000      20.97300000
 H      41.78700000      35.44600000      20.61000000
 O      46.31500000      37.09000000      26.90700000
 H      45.54400000      37.68300000      26.60600000
 H      45.88400000      36.61200000      27.64000000
 O      42.47900000      38.32300000      33.25900000
 H      42.30100000      38.97300000      33.93200000
 H      43.15300000      37.75200000      33.66900000
 O      44.15800000      40.19600000      31.99500000
 H      43.75900000      39.48500000      32.47100000
 H      44.40700000      40.84300000      32.68100000
 O      48.42200000      29.62300000      27.72400000
 H      48.17900000      30.38600000      28.29600000
 H      47.62100000      29.60300000      27.19100000
 O      48.50700000      32.80400000      37.13300000
 H      47.60500000      32.44400000      37.40900000
 H      48.21600000      33.70300000      36.85900000
 O      42.32000000      38.38700000      22.07700000
 H      42.40900000      37.40600000      22.06000000
 H      43.23500000      38.59100000      21.81300000
 O      42.32100000      27.26400000      24.17400000
 H      42.38000000      28.11400000      23.73300000
 H      41.83600000      27.49500000      24.98800000
 O      43.60200000      35.19500000      34.57100000
 H      42.68400000      35.45100000      34.78900000
 H      43.42400000      34.77600000      33.72100000
 O      47.02900000      32.41300000      31.53300000
 H      47.82000000      32.63200000      32.09800000
 H      46.34300000      32.80000000      32.14700000
 O      44.90800000      35.04100000      37.02000000
 H      44.33100000      35.26800000      36.22800000
 H      44.33400000      35.42000000      37.72300000
