276
XYZ file of cluster: frame_4000_73140.56e3.4d50f - created by MolEdiTo
 O      22.83600000       4.42100000      25.59600000
 H      23.22700000       4.78600000      26.38400000
 H      23.49900000       3.71300000      25.36500000
 O      31.50900000       5.50300000      26.56500000
 H      31.75100000       6.38600000      26.25500000
 H      32.00400000       4.93200000      25.91500000
 O      21.16300000       6.11800000      19.29500000
 H      20.87000000       7.00500000      19.06900000
 H      22.05200000       6.09900000      18.91400000
 O      33.56200000       1.55600000      15.05500000
 H      33.33500000       1.37500000      15.99700000
 H      34.53200000       1.36900000      15.07300000
 O      21.96300000       5.99500000      14.72900000
 H      22.09000000       5.05000000      14.88300000
 H      22.49700000       6.12400000      13.85300000
 O      32.38200000      12.14000000      16.65500000
 H      33.13300000      12.39000000      16.05700000
 H      31.98000000      11.36900000      16.24000000
 O      25.73500000       7.96300000      17.51900000
 H      25.60500000       7.82600000      16.57600000
 H      26.44200000       8.64600000      17.54400000
 O      24.55600000       2.69800000      16.38200000
 H      24.90100000       1.80000000      16.56500000
 H      24.26700000       2.91900000      17.32800000
 O      30.90200000      10.56100000      13.84500000
 H      31.56700000      10.80500000      13.19200000
 H      31.38600000       9.92200000      14.38400000
 O      26.93800000      13.55800000      24.90500000
 H      26.98300000      14.03000000      25.76800000
 H      27.83600000      13.81600000      24.58400000
 O      23.43200000       9.84800000      19.26500000
 H      22.54800000       9.52100000      19.08700000
 H      23.61800000       9.47100000      20.16200000
 O      32.46500000       9.21900000      15.60200000
 H      33.35200000       9.32900000      15.97400000
 H      32.17800000       8.48000000      16.16800000
 O      24.83700000       4.30400000      20.78700000
 H      25.30300000       4.90200000      21.41500000
 H      24.44300000       5.05000000      20.21000000
 O      26.50100000       4.66700000      15.76800000
 H      26.06700000       5.20300000      15.05900000
 H      25.81000000       3.93100000      15.70100000
 O      27.50600000       3.21500000      25.53100000
 H      26.63700000       3.29500000      25.92900000
 H      28.00200000       2.86300000      26.28500000
 O      28.80900000       5.87600000      25.70600000
 H      28.53600000       5.06700000      25.21700000
 H      29.63200000       5.60800000      26.16700000
 O      34.52400000       0.92000000      23.49800000
 H      35.10000000       1.51500000      24.11600000
 H      33.99500000       1.68500000      23.11800000
 O      24.08200000      10.76600000      16.82700000
 H      23.93900000      10.35000000      17.64200000
 H      23.62500000      10.20200000      16.16900000
 O      26.86800000       7.78200000      24.90700000
 H      26.20400000       7.88400000      25.68700000
 H      27.60100000       7.46400000      25.45800000
 O      30.37500000       8.26500000      21.07400000
 H      30.73900000       7.60100000      21.69500000
 H      29.44700000       8.28900000      21.39600000
 O      22.28100000       8.54000000      25.74500000
 H      21.71900000       7.94900000      26.28500000
 H      22.94100000       7.88600000      25.46500000
 O      29.51300000       2.41000000      18.40600000
 H      28.86300000       2.59200000      19.11200000
 H      28.93700000       2.42100000      17.60800000
 O      25.09000000       1.74600000      22.57200000
 H      24.31900000       1.14400000      22.36000000
 H      24.72700000       2.49000000      22.05000000
 O      26.85300000       3.29200000      19.29400000
 H      27.30000000       4.15900000      19.16300000
 H      26.06400000       3.54400000      19.83600000
 O      21.26500000       6.84700000      27.49600000
 H      20.98200000       7.68800000      27.96000000
 H      20.45000000       6.32500000      27.55800000
 O      22.32800000      11.64400000      22.40300000
 H      23.04600000      12.28100000      22.56300000
 H      21.67900000      12.10300000      21.83900000
 O      32.66600000       9.91300000      21.07500000
 H      32.49100000      10.47700000      20.29800000
 H      31.83400000       9.37500000      20.98000000
 O      31.62200000      11.29300000      19.06100000
 H      30.79800000      11.62600000      18.74300000
 H      32.21500000      11.52800000      18.29700000
 O      31.42800000       7.68300000      24.90800000
 H      30.54900000       7.99500000      24.54200000
 H      31.78900000       7.29400000      24.06400000
 O      29.57800000      14.45300000      13.81700000
 H      29.40900000      14.28900000      14.74400000
 H      29.50300000      13.53900000      13.47300000
 O      23.31700000       2.58400000      18.81700000
 H      22.45600000       2.71100000      19.20800000
 H      23.91300000       2.98100000      19.45300000
 O      25.81600000       9.86700000      23.67600000
 H      26.06200000       9.11700000      24.33200000
 H      25.50700000      10.50200000      24.29200000
 O      31.47900000       2.77700000      21.31700000
 H      31.85400000       2.79500000      20.40500000
 H      30.65100000       3.34300000      21.05700000
 O      27.80700000       9.49400000      18.25300000
 H      27.54400000       9.76000000      19.16200000
 H      28.23700000      10.33200000      17.97800000
 O      21.02400000       4.96100000      21.83900000
 H      21.03500000       5.12800000      20.92500000
 H      21.53200000       5.67900000      22.27100000
 O      21.15400000       8.73400000      17.92400000
 H      20.33100000       9.14800000      17.59200000
 H      21.64800000       8.71600000      17.09400000
 O      30.92800000      11.11500000      24.34800000
 H      30.06300000      11.51000000      24.26100000
 H      30.68300000      10.18000000      24.32200000
 O      24.04700000       6.56200000      19.25100000
 H      24.39200000       7.16200000      18.56500000
 H      24.00100000       7.13000000      20.03200000
 O      30.57200000      12.83700000      22.17400000
 H      29.75200000      12.43200000      21.75000000
 H      31.09600000      12.08700000      22.37700000
 O      25.89700000      12.97900000      16.68100000
 H      25.24300000      12.28800000      16.42100000
 H      25.40200000      13.77800000      16.40900000
 O      21.01900000       9.94200000      23.85100000
 H      21.56900000       9.40100000      24.43600000
 H      21.65400000      10.50100000      23.43900000
 O      32.80300000       7.27300000      19.16400000
 H      32.36400000       6.78900000      18.39100000
 H      31.92400000       7.60400000      19.53600000
 O      26.48600000       9.73400000      21.09700000
 H      25.91700000      10.42800000      20.78000000
 H      26.10600000       9.64800000      22.01700000
 O      32.06100000       3.66800000      18.56300000
 H      31.95200000       4.60600000      18.20500000
 H      31.09100000       3.39200000      18.47600000
 O      26.69200000      14.40200000      19.00500000
 H      26.20200000      14.98400000      18.45600000
 H      26.51800000      13.52600000      18.48800000
 O      25.06500000      11.81400000      20.23400000
 H      24.75500000      12.79000000      20.20500000
 H      24.53100000      11.46700000      19.48500000
 O      31.38200000      13.40600000      26.13300000
 H      31.28100000      12.54400000      25.63700000
 H      30.67800000      13.89200000      25.70400000
 O      31.06400000       1.24300000      13.89600000
 H      31.28900000       1.80800000      13.10800000
 H      31.98400000       0.97200000      14.17800000
 O      24.64400000       2.18000000      25.38200000
 H      24.48200000       1.50700000      26.06700000
 H      25.06800000       1.59100000      24.68300000
 O      19.98600000       3.61500000      25.98700000
 H      20.89800000       3.97000000      26.08400000
 H      20.08900000       3.15300000      25.13000000
 O      28.09400000      11.50800000      23.68100000
 H      27.71900000      12.31300000      24.08000000
 H      27.20900000      11.05000000      23.49300000
 O      27.60900000       6.12600000      19.21200000
 H      26.89400000       6.61100000      18.75800000
 H      28.33800000       6.49500000      18.70500000
 O      32.15300000       8.93300000      27.26200000
 H      31.89000000       8.39300000      26.48700000
 H      31.38000000       8.75100000      27.88900000
 O      25.70800000       5.91700000      22.79900000
 H      25.82600000       6.68000000      22.24400000
 H      26.30500000       6.14500000      23.55600000
 O      33.06800000       4.76100000      15.16400000
 H      32.60700000       5.05800000      14.34200000
 H      33.18200000       3.78200000      15.00400000
 O      33.34600000       1.29900000      17.68300000
 H      32.69300000       2.05400000      17.95800000
 H      34.09000000       1.74200000      18.22100000
 O      29.10000000       6.54500000      16.94600000
 H      28.26200000       6.07700000      16.66300000
 H      28.97400000       7.34500000      16.33100000
 O      22.49300000      13.26000000      25.45600000
 H      23.21900000      13.05000000      24.81800000
 H      22.50600000      12.42900000      26.02900000
 O      29.04300000      10.69900000      15.84000000
 H      29.73500000      10.76400000      15.13200000
 H      28.94900000       9.74200000      15.88500000
 O      34.06900000       4.28400000      23.77600000
 H      34.77300000       4.06300000      24.46700000
 H      34.67700000       4.74200000      23.14600000
 O      28.62400000      12.27400000      20.29200000
 H      28.87300000      13.16400000      19.94900000
 H      27.65800000      12.22500000      20.03100000
 O      34.40000000      12.61200000      15.03200000
 H      34.59000000      12.89100000      14.12100000
 H      35.31800000      12.74000000      15.39600000
 O      27.77100000       7.75100000      21.73800000
 H      27.74100000       7.19100000      20.89000000
 H      27.35900000       8.57300000      21.34900000
 O      33.60500000      10.22300000      25.03100000
 H      33.57700000       9.90600000      25.93700000
 H      32.78100000      10.72100000      24.94900000
 O      29.27300000       8.67200000      23.83800000
 H      28.85500000       9.53500000      23.76800000
 H      28.50500000       8.17100000      23.38900000
 O      34.17700000       8.54400000      22.88400000
 H      33.96600000       9.17700000      22.13200000
 H      34.01600000       9.14400000      23.59900000
 O      28.69900000      13.52300000      16.52700000
 H      27.70200000      13.60200000      16.47600000
 H      28.82400000      12.53700000      16.45000000
 O      28.44000000       2.63800000      15.88100000
 H      28.31100000       2.38500000      14.91700000
 H      27.79300000       3.39100000      15.94400000
 O      20.80600000       2.47800000      19.79200000
 H      20.89700000       1.51700000      19.91200000
 H      20.60200000       2.83500000      20.67000000
 O      34.96700000       6.29100000      16.48300000
 H      34.80900000       5.85400000      17.32900000
 H      34.40900000       5.72300000      15.83400000
 O      23.36300000       8.18600000      21.54900000
 H      22.54600000       8.75500000      21.57300000
 H      23.36700000       7.89800000      22.50300000
 O      25.32900000       8.36000000      27.00600000
 H      26.02200000       8.20400000      27.73600000
 H      25.35500000       9.36700000      26.98400000
 O      21.94900000      11.09200000      26.94600000
 H      21.76100000      11.06100000      27.89700000
 H      21.98900000      10.15200000      26.73500000
 O      25.81300000      11.26100000      26.23000000
 H      25.47700000      11.65300000      27.07200000
 H      26.49400000      11.90800000      26.03100000
 O      24.60500000      12.75900000      23.65600000
 H      25.44300000      13.19700000      23.92700000
 H      24.79000000      12.64700000      22.65500000
 O      33.46900000      12.12400000      27.53700000
 H      32.82200000      12.82300000      27.29000000
 H      34.31100000      12.60100000      27.56300000
 O      23.27100000       6.47100000      23.82800000
 H      23.19500000       5.67800000      24.48700000
 H      24.18400000       6.22200000      23.49800000
 O      34.61700000       9.15600000      19.41000000
 H      34.01600000       8.35400000      19.28200000
 H      34.03600000       9.57800000      20.07400000
 O      22.42000000       3.11400000      14.93500000
 H      22.64000000       2.48800000      14.22100000
 H      23.22900000       3.00900000      15.49600000
 O      31.65100000       6.09600000      17.19200000
 H      30.69600000       6.12000000      17.08800000
 H      31.97700000       5.63400000      16.42400000
 O      34.21900000      13.38600000      22.51600000
 H      34.57500000      13.81600000      21.73200000
 H      33.35800000      13.07500000      22.17000000
 O      27.44400000       2.78500000      22.82200000
 H      26.63700000       2.19800000      22.74000000
 H      27.46700000       2.88200000      23.76200000
 O      19.83300000      12.91800000      24.25500000
 H      20.77100000      13.09000000      24.39000000
 H      19.76700000      11.98400000      24.42400000
 O      21.30400000      13.96900000      18.93100000
 H      21.22600000      13.77400000      17.97500000
 H      20.85000000      14.86500000      18.98300000
 O      32.20600000       6.55100000      22.29500000
 H      33.06100000       7.03900000      22.21200000
 H      32.55400000       5.64900000      22.11300000
 O      22.73600000       8.68200000      15.52200000
 H      22.47900000       7.71000000      15.31600000
 H      22.79000000       8.97300000      14.57100000
 O      20.42400000      12.10700000      20.50700000
 H      20.79100000      12.81700000      19.91000000
 H      19.47800000      12.25900000      20.34700000
 O      28.64300000       8.23600000      14.94700000
 H      29.16700000       7.75500000      14.23700000
 H      27.88900000       8.61400000      14.35700000
 O      34.71700000       5.26900000      19.40500000
 H      35.50400000       5.88800000      19.42300000
 H      33.97600000       5.95300000      19.56600000
 O      31.72200000       2.70500000      23.92100000
 H      31.59100000       2.77400000      22.93100000
 H      32.49000000       3.35100000      23.96500000
 O      20.67500000       9.34900000      21.24700000
 H      20.67800000       9.55800000      22.20500000
 H      20.64300000      10.28000000      20.91500000
 O      29.14000000       4.15900000      20.89000000
 H      28.71600000       3.77100000      21.69200000
 H      28.59900000       4.94300000      20.76100000
