642
XYZ file of cluster: frame_4000_9bb0c.23464.9c3b2 - created by MolEdiTo
 O      34.67500000      14.88600000      31.98600000
 H      34.93700000      14.87400000      31.04900000
 H      34.66500000      15.83900000      32.16600000
 O      32.07000000      11.13300000      35.10200000
 H      31.82600000      11.33100000      34.14000000
 H      32.99800000      10.81000000      34.93900000
 O      31.33900000      11.81000000      32.45200000
 H      30.83100000      12.62300000      32.63100000
 H      31.84900000      12.04500000      31.73700000
 O      36.56100000      14.54000000      36.00500000
 H      35.87800000      14.29400000      35.30200000
 H      36.20000000      13.98300000      36.74200000
 O      36.23500000       8.08200000      38.22000000
 H      36.50200000       8.89500000      37.77700000
 H      35.49000000       7.80400000      37.57500000
 O      39.71500000      37.89400000      30.92000000
 H      40.09500000      38.03800000      31.80900000
 H      40.48600000      38.14000000      30.38600000
 O      27.26100000       7.85500000      34.96800000
 H      27.25500000       8.86700000      34.92000000
 H      27.67400000       7.66900000      34.12900000
 O      30.82500000       8.71200000      33.40300000
 H      30.61800000       9.55900000      32.98600000
 H      30.15300000       8.14400000      32.99500000
 O      26.90900000      28.38300000      30.58900000
 H      27.34300000      28.96200000      29.84100000
 H      27.69800000      28.19200000      31.08200000
 O      33.69700000      33.25600000      31.51300000
 H      34.67600000      33.33500000      31.33300000
 H      33.66500000      32.26200000      31.53500000
 O      37.30700000      17.78600000      29.31600000
 H      37.29700000      18.00600000      28.36800000
 H      36.50100000      18.26900000      29.62300000
 O      36.89600000      21.34800000      30.77300000
 H      36.87300000      21.06100000      31.71300000
 H      37.09100000      22.28100000      30.95200000
 O      34.97600000      34.37200000      36.25900000
 H      34.31300000      34.15100000      36.89100000
 H      35.79000000      34.14700000      36.81000000
 O      30.04400000       8.05800000      28.67400000
 H      29.71400000       7.15100000      28.60500000
 H      30.66600000       7.90600000      29.47000000
 O      35.76200000       6.48400000      31.10700000
 H      36.76100000       6.56400000      30.89100000
 H      35.50900000       7.38700000      31.01100000
 O      39.66300000      21.88500000      32.44100000
 H      39.72200000      21.15600000      33.16300000
 H      40.27000000      22.52700000      32.83500000
 O      30.18200000      18.82600000      28.10400000
 H      29.72700000      18.02700000      28.46100000
 H      31.00900000      18.75900000      28.62600000
 O      33.68400000      30.90700000      38.89900000
 H      33.87700000      30.22400000      38.24400000
 H      33.45700000      30.35400000      39.68700000
 O      33.82600000      18.36700000      39.36900000
 H      33.33400000      18.31400000      40.16500000
 H      33.97000000      17.38900000      39.14500000
 O      31.00400000      36.84100000      40.59800000
 H      30.85000000      36.19000000      41.31600000
 H      30.69000000      36.22100000      39.87800000
 O      37.56400000      38.43000000      38.27000000
 H      37.45200000      37.50700000      38.56700000
 H      38.20200000      38.77600000      38.91500000
 O      33.43100000      23.60000000      29.28000000
 H      34.03300000      24.36900000      29.12600000
 H      33.16900000      23.89100000      30.21400000
 O      28.64500000      28.84500000      37.19600000
 H      27.61000000      28.87800000      37.23600000
 H      28.85400000      29.57500000      37.82900000
 O      39.93600000      32.66700000      37.59100000
 H      39.88900000      32.57900000      38.53900000
 H      40.53100000      33.51700000      37.49100000
 O      29.49900000      24.18600000      39.74100000
 H      29.67400000      23.60200000      40.48000000
 H      30.20800000      24.83200000      39.89400000
 O      37.34300000      25.03700000      33.91300000
 H      37.23400000      25.98400000      34.22100000
 H      37.91400000      24.69200000      34.68700000
 O      38.93600000      21.63000000      36.86300000
 H      39.03400000      21.42000000      37.80800000
 H      37.98600000      21.39600000      36.75400000
 O      37.37100000      35.75700000      38.96400000
 H      37.31900000      35.08100000      39.66200000
 H      37.46700000      35.17400000      38.18900000
 O      35.02900000      23.73500000      38.18800000
 H      34.31700000      24.23700000      37.65700000
 H      35.80300000      24.12300000      37.78800000
 O      33.92300000      30.49400000      32.00100000
 H      34.77100000      30.55000000      31.50500000
 H      34.24300000      30.93400000      32.80800000
 O      29.75400000      37.11000000      33.12100000
 H      30.35500000      37.81200000      33.40900000
 H      29.70800000      37.11400000      32.12300000
 O      33.36500000      15.66600000      38.90000000
 H      33.65100000      14.87900000      39.42700000
 H      33.15300000      15.14700000      38.05300000
 O      27.29300000      26.08200000      28.85500000
 H      26.83900000      26.82500000      28.40700000
 H      28.15500000      26.46600000      29.09900000
 O      39.42100000       8.73300000      38.44000000
 H      38.49800000       8.91200000      37.99100000
 H      39.32000000       9.46500000      39.15200000
 O      27.84200000      19.31000000      34.80100000
 H      28.03000000      20.19000000      35.23600000
 H      26.84000000      19.34800000      34.87900000
 O      28.83700000      14.44100000      38.45300000
 H      29.52200000      15.11900000      38.19200000
 H      29.41500000      13.73600000      38.81100000
 O      36.69700000      20.99500000      33.43900000
 H      36.27100000      20.87500000      34.33100000
 H      37.63600000      20.96100000      33.66300000
 O      29.63400000      13.98700000      32.50300000
 H      28.69800000      14.29900000      32.44400000
 H      30.10000000      14.75900000      32.21500000
 O      27.33300000      38.41000000      33.39300000
 H      26.86200000      38.14100000      32.58300000
 H      28.17800000      37.96500000      33.34100000
 O      27.68800000      38.87600000      39.97100000
 H      26.88400000      38.53100000      39.54000000
 H      28.09200000      38.07500000      40.32200000
 O      32.83000000      36.05300000      32.77500000
 H      32.99200000      35.66400000      31.95100000
 H      33.06400000      37.00200000      32.56700000
 O      33.14000000      33.47600000      38.46700000
 H      33.19700000      33.90400000      39.35300000
 H      33.23600000      32.52600000      38.71600000
 O      33.41900000      31.24600000      36.05900000
 H      32.46800000      31.03800000      35.91700000
 H      33.43500000      31.68400000      36.90800000
 O      40.41700000      13.08500000      30.46100000
 H      39.44100000      13.14800000      30.49300000
 H      40.62400000      12.89200000      31.39600000
 O      39.12700000      20.19300000      34.61500000
 H      39.25700000      19.21800000      34.72400000
 H      39.23200000      20.44400000      35.55800000
 O      28.50300000      12.90600000      35.59900000
 H      28.02100000      13.74500000      35.57900000
 H      29.39400000      13.09300000      35.37900000
 O      39.20800000      20.61300000      39.40200000
 H      39.27400000      21.12300000      40.25100000
 H      39.36000000      19.71900000      39.75100000
 O      28.59300000      23.97300000      33.66100000
 H      29.05000000      24.82000000      33.82000000
 H      29.37400000      23.37200000      33.67500000
 O      37.59600000      38.13400000      33.99600000
 H      36.70800000      37.71400000      34.10700000
 H      37.51400000      38.56500000      33.13500000
 O      35.28500000      21.55200000      39.68100000
 H      35.16400000      22.32800000      39.06200000
 H      34.43100000      21.52800000      40.13900000
 O      29.49800000      18.41500000      32.57800000
 H      29.26900000      19.35800000      32.33900000
 H      29.00700000      18.41900000      33.44100000
 O      31.83200000      27.02800000      37.54800000
 H      32.24400000      26.15700000      37.25500000
 H      31.14100000      26.68100000      38.10300000
 O      37.71800000       6.89000000      34.43000000
 H      38.49500000       6.38100000      34.14600000
 H      37.74500000       7.68000000      33.81200000
 O      28.35400000      11.71800000      30.99100000
 H      28.84700000      12.09800000      31.74700000
 H      29.11500000      11.58000000      30.33900000
 O      30.27200000      12.00300000      29.19700000
 H      30.71100000      11.37700000      28.56600000
 H      30.28100000      12.80700000      28.77900000
 O      29.34100000      19.74900000      40.30500000
 H      29.42300000      20.11300000      39.42200000
 H      28.70500000      19.01000000      40.14600000
 O      38.20000000      39.85800000      35.98600000
 H      38.06600000      39.17300000      36.67800000
 H      38.10900000      39.27600000      35.19500000
 O      33.43900000      28.44300000      30.42500000
 H      33.32400000      29.21000000      31.01500000
 H      34.07900000      28.88300000      29.77300000
 O      36.32100000      28.42700000      33.25300000
 H      35.96200000      29.27400000      32.99300000
 H      35.72000000      28.10100000      33.89800000
 O      29.52900000      20.34900000      37.58400000
 H      28.91300000      20.84600000      36.98400000
 H      29.76600000      19.58000000      37.03700000
 O      37.32000000      16.64200000      38.65500000
 H      37.08700000      16.11100000      39.44200000
 H      37.06300000      17.52500000      38.95600000
 O      28.91300000      21.46200000      27.84400000
 H      29.35300000      20.60800000      28.01300000
 H      29.63000000      22.10700000      27.79000000
 O      32.95100000      40.31400000      28.19500000
 H      32.16900000      39.99800000      27.74900000
 H      32.76200000      40.03300000      29.11600000
 O      27.95300000      26.28300000      36.70800000
 H      28.57400000      25.85800000      36.05500000
 H      28.32600000      27.20600000      36.76300000
 O      29.29200000      36.54300000      30.42400000
 H      30.01100000      36.68000000      29.75900000
 H      28.51400000      36.55400000      29.86100000
 O      33.64200000      10.84400000      29.87600000
 H      33.77300000      11.60300000      29.21200000
 H      33.02700000      10.32900000      29.38200000
 O      40.06400000       6.51900000      39.70300000
 H      39.37900000       5.97600000      39.26700000
 H      39.93500000       7.38200000      39.19900000
 O      31.44500000       8.46400000      36.08300000
 H      31.50900000       9.47100000      35.96200000
 H      31.43000000       8.24200000      35.11100000
 O      30.63300000      23.71000000      36.08500000
 H      30.42600000      23.06200000      35.37500000
 H      29.69500000      23.88400000      36.43400000
 O      37.51100000      27.36300000      27.91800000
 H      37.90700000      28.22200000      28.11000000
 H      38.29400000      26.80500000      27.69700000
 O      38.93700000      29.59200000      28.61100000
 H      38.48600000      30.42000000      28.45600000
 H      39.47600000      29.57600000      27.78000000
 O      34.72000000      29.37200000      28.42000000
 H      34.37300000      29.46500000      27.46900000
 H      35.54100000      29.92700000      28.35100000
 O      37.86300000      12.93000000      29.94600000
 H      37.67300000      11.99200000      29.85400000
 H      37.41000000      13.16600000      30.78000000
 O      28.87400000      31.26700000      38.92500000
 H      28.80400000      32.04700000      39.56700000
 H      29.33900000      31.78800000      38.20400000
 O      28.96600000      40.43500000      31.10900000
 H      28.23200000      40.64600000      31.73400000
 H      28.43600000      40.24300000      30.37200000
 O      36.31000000      19.11900000      39.72100000
 H      35.33800000      18.88600000      39.77500000
 H      36.22500000      20.12700000      39.55600000
 O      32.38100000      24.39500000      32.44600000
 H      31.74200000      23.75700000      32.86800000
 H      33.18300000      24.27200000      33.01400000
 O      27.44200000      10.56800000      35.01300000
 H      26.78700000      10.90100000      34.43100000
 H      27.94000000      11.43300000      35.17300000
 O      33.18600000      24.90800000      36.41600000
 H      32.35200000      24.40400000      36.49200000
 H      33.42400000      24.80400000      35.49500000
 O      34.31800000      25.09300000      40.52900000
 H      34.62500000      24.41000000      41.13600000
 H      34.60500000      24.77400000      39.68100000
 O      26.86400000      29.58200000      33.68700000
 H      26.35200000      28.74400000      33.53200000
 H      27.70300000      29.36400000      33.19100000
 O      32.37500000       7.52800000      30.28800000
 H      32.83100000       8.11200000      30.83900000
 H      32.36800000       6.70100000      30.86000000
 O      40.52200000      27.44800000      36.01500000
 H      39.86700000      27.60200000      35.24800000
 H      39.92700000      27.53900000      36.76700000
 O      35.00800000      39.25100000      37.85100000
 H      35.92900000      39.45600000      37.97500000
 H      34.60400000      39.98300000      38.38900000
 O      35.98400000      17.07400000      36.37500000
 H      36.25500000      16.15900000      36.11000000
 H      36.34000000      17.14700000      37.24200000
 O      28.57200000      33.41700000      40.35900000
 H      27.93700000      34.16300000      40.29700000
 H      29.34900000      33.89600000      40.77800000
 O      30.40500000      31.57000000      30.48400000
 H      30.36500000      32.08200000      31.31500000
 H      30.36900000      32.37100000      29.88800000
 O      33.50500000      38.65000000      32.03600000
 H      33.23000000      39.48500000      32.49300000
 H      34.47600000      38.88100000      31.85500000
 O      33.56900000      10.77800000      39.94900000
 H      32.87900000      10.15200000      40.21900000
 H      33.23100000      11.08000000      39.07700000
 O      34.78500000      27.54400000      35.40800000
 H      35.01700000      26.58200000      35.65100000
 H      35.10800000      27.96800000      36.22700000
 O      30.84500000      34.80400000      38.80700000
 H      31.69000000      34.33100000      38.48400000
 H      30.24600000      34.71300000      38.06700000
 O      34.89600000      36.91600000      39.17300000
 H      35.80500000      36.53200000      39.03900000
 H      34.92600000      37.56400000      38.45300000
 O      38.83500000      39.10600000      40.62300000
 H      38.38800000      38.65600000      41.38100000
 H      39.16200000      39.94400000      41.09300000
 O      29.32200000      20.91200000      31.56300000
 H      28.51700000      20.66500000      31.05300000
 H      30.06900000      20.69000000      31.02200000
 O      36.37600000      20.82900000      36.63600000
 H      35.58800000      21.34900000      36.28400000
 H      35.98800000      20.55800000      37.48000000
 O      37.05400000      10.30600000      36.83400000
 H      37.18300000      10.73300000      36.01600000
 H      36.82000000      11.04300000      37.39500000
 O      27.01900000      24.87500000      38.74900000
 H      27.84900000      24.47800000      39.07200000
 H      27.34200000      25.43400000      38.02800000
 O      33.76700000      17.60500000      32.24300000
 H      34.32200000      18.16400000      31.62400000
 H      34.22400000      17.85100000      33.07500000
 O      31.63200000      25.57400000      40.42800000
 H      31.61600000      26.46300000      40.85400000
 H      32.61000000      25.38200000      40.38400000
 O      28.74600000      16.91400000      29.86700000
 H      27.85700000      17.19500000      29.74000000
 H      28.91300000      17.20200000      30.83000000
 O      31.73100000       8.87800000      38.75000000
 H      30.74800000       8.92100000      39.00400000
 H      31.66600000       8.58900000      37.82000000
 O      31.58300000      15.45800000      34.77900000
 H      31.63400000      15.48400000      33.82300000
 H      30.59400000      15.55100000      34.93800000
 O      33.45200000       8.14400000      33.01100000
 H      33.42300000       7.16500000      33.07600000
 H      32.51900000       8.32600000      33.28900000
 O      34.69900000      37.09400000      28.20400000
 H      34.64600000      37.97400000      28.65200000
 H      34.62900000      37.37100000      27.29900000
 O      27.30600000       8.11400000      29.11600000
 H      28.20400000       8.35500000      28.75500000
 H      27.54700000       7.32700000      29.66300000
 O      27.62400000      21.64300000      36.32300000
 H      26.98400000      21.94600000      37.02300000
 H      27.04300000      21.84000000      35.53600000
 O      28.26700000      10.98900000      38.31800000
 H      28.25400000      10.97300000      37.39100000
 H      27.36800000      11.28600000      38.49800000
 O      37.28100000      40.12100000      27.51200000
 H      36.80400000      40.93500000      27.64800000
 H      36.85400000      39.59300000      28.18800000
 O      38.32900000      27.84600000      30.92700000
 H      38.10500000      28.08300000      30.01800000
 H      37.48400000      28.12600000      31.37100000
 O      31.38600000      39.20500000      30.16700000
 H      31.98000000      38.96400000      30.87700000
 H      30.71100000      39.75900000      30.60900000
 O      36.15000000      33.38800000      34.04400000
 H      35.60700000      33.69900000      34.83700000
 H      35.86300000      32.43000000      34.01200000
 O      37.59200000      39.30900000      31.62100000
 H      38.20500000      38.64000000      31.26800000
 H      38.17500000      40.11300000      31.65700000
 O      34.57400000      18.74700000      34.77100000
 H      35.04500000      18.28600000      35.54600000
 H      33.75800000      18.99000000      35.20900000
 O      38.95800000       7.78800000      32.07800000
 H      38.51600000       7.43200000      31.24900000
 H      39.43000000       8.53100000      31.60600000
 O      30.06700000      33.06000000      37.02200000
 H      30.16900000      32.19000000      36.66500000
 H      29.92000000      33.60600000      36.23100000
 O      29.04100000      29.33000000      32.12600000
 H      29.96000000      29.44100000      32.47300000
 H      29.08200000      30.07400000      31.48500000
 O      38.04300000       7.00600000      29.75700000
 H      37.89100000       7.41300000      28.84400000
 H      38.31100000       6.11100000      29.47000000
 O      40.06000000      24.84200000      38.99000000
 H      40.55400000      23.92600000      39.14400000
 H      39.17300000      24.49800000      39.11100000
 O      36.94800000      25.87200000      36.99700000
 H      37.62200000      25.27300000      36.62800000
 H      37.47600000      26.52800000      37.39900000
 O      33.42300000      20.69300000      28.90600000
 H      33.67500000      20.47700000      27.99300000
 H      33.41000000      21.67800000      28.83100000
 O      34.71900000      13.54400000      34.21100000
 H      34.66300000      12.57900000      33.97000000
 H      34.51000000      14.01600000      33.35400000
 O      38.12400000      15.33000000      28.33500000
 H      38.17600000      14.46200000      28.80400000
 H      37.85200000      15.92000000      29.05900000
 O      31.31300000      29.78600000      33.40400000
 H      32.06500000      29.97000000      32.80500000
 H      31.72400000      29.05500000      33.98300000
 O      36.58900000      21.05900000      28.05300000
 H      36.69600000      21.99700000      27.88100000
 H      36.50000000      20.94800000      29.00000000
 O      30.75300000      16.52400000      38.48000000
 H      30.47400000      17.19300000      39.14100000
 H      31.52300000      16.09600000      38.91200000
 O      32.28600000      18.16300000      36.52000000
 H      32.13500000      17.24200000      36.78700000
 H      32.63500000      18.55000000      37.37200000
 O      36.78400000      31.31200000      28.03800000
 H      36.85800000      32.28400000      27.80500000
 H      37.15400000      30.95200000      27.20600000
 O      36.30600000      30.77100000      30.99600000
 H      36.61000000      30.48100000      30.13200000
 H      36.82500000      31.58900000      31.07100000
 O      32.15300000       8.93300000      27.26200000
 H      31.89000000       8.39300000      26.48700000
 H      31.38000000       8.75100000      27.88900000
 O      30.71200000      33.80100000      28.84800000
 H      30.86400000      34.32100000      28.07200000
 H      31.36600000      34.12500000      29.45000000
 O      30.58000000      12.31100000      39.37800000
 H      31.26700000      12.03200000      38.79000000
 H      29.75200000      11.87500000      38.95200000
 O      40.08700000      34.25600000      28.96500000
 H      39.91000000      34.85900000      28.17600000
 H      40.17800000      33.40300000      28.62800000
 O      35.39100000      27.65900000      40.23300000
 H      36.13900000      28.07500000      40.80000000
 H      35.30400000      26.81300000      40.60800000
 O      40.40500000      12.04600000      32.80600000
 H      40.61600000      12.35100000      33.71100000
 H      39.51100000      11.75300000      32.95300000
 O      30.92400000      22.31700000      33.54300000
 H      31.27900000      21.39300000      33.77700000
 H      30.35900000      22.02200000      32.78900000
 O      37.96800000      11.55700000      34.06100000
 H      38.44500000      12.03000000      34.76200000
 H      37.61800000      12.32500000      33.56700000
 O      35.77100000      12.89500000      38.09300000
 H      35.07600000      12.58300000      38.69000000
 H      36.51100000      13.09600000      38.68500000
 O      31.72900000      26.58100000      31.01200000
 H      31.97600000      25.82800000      31.55300000
 H      32.51200000      27.12200000      30.94600000
 O      40.50000000       8.82900000      27.44200000
 H      40.87100000       9.07200000      28.29100000
 H      40.46200000       9.71000000      27.02500000
 O      27.27800000      36.81500000      37.83400000
 H      27.78200000      37.16800000      37.08400000
 H      26.41500000      37.23200000      37.73300000
 O      38.55700000      27.25000000      38.66400000
 H      38.99500000      27.55400000      39.49500000
 H      39.11500000      26.43600000      38.49700000
 O      28.89100000      16.35400000      35.30800000
 H      28.23500000      15.69300000      35.60900000
 H      28.29600000      17.11800000      35.15200000
 O      33.00600000      35.54400000      29.76200000
 H      33.79100000      35.90800000      29.39900000
 H      33.28800000      34.63300000      29.92500000
 O      27.38100000      34.61700000      28.78300000
 H      27.83300000      35.26100000      28.24500000
 H      27.58100000      33.78300000      28.28300000
 O      37.26200000      13.56800000      32.49700000
 H      36.31100000      13.60900000      32.72500000
 H      37.54000000      14.43500000      32.94700000
 O      32.34600000      14.23100000      30.32200000
 H      33.19300000      13.81600000      30.48900000
 H      32.40400000      15.06600000      30.89100000
 O      38.69900000      33.72900000      34.55400000
 H      39.09700000      32.91800000      34.22600000
 H      37.72400000      33.50400000      34.45300000
 O      37.59400000      33.03200000      31.56700000
 H      37.97200000      32.69700000      32.44300000
 H      38.10300000      33.88500000      31.47500000
 O      31.39800000      16.38100000      32.19000000
 H      30.73800000      17.11500000      32.42900000
 H      32.19900000      16.94200000      32.22800000
 O      33.83200000      21.42100000      35.70800000
 H      33.47100000      21.12500000      36.61100000
 H      33.18700000      20.86500000      35.17100000
 O      29.71500000      26.44500000      33.94900000
 H      30.48400000      26.61500000      34.57600000
 H      29.99400000      26.95700000      33.16800000
 O      38.62700000      15.65100000      33.78700000
 H      39.44200000      15.78900000      33.20400000
 H      39.08700000      15.67700000      34.65800000
 O      37.73100000      24.00300000      40.43800000
 H      38.19100000      23.62800000      41.21500000
 H      36.92300000      23.46000000      40.43400000
 O      39.25600000      35.13500000      31.19600000
 H      39.63800000      34.84200000      30.34300000
 H      39.50200000      36.09500000      31.14500000
 O      31.59400000      38.67400000      35.01100000
 H      31.79100000      37.69500000      35.19400000
 H      31.68300000      38.99800000      35.91600000
 O      34.42100000      28.40900000      37.98400000
 H      33.51400000      27.97500000      37.83200000
 H      34.56400000      28.03400000      38.90100000
 O      38.46000000      13.65300000      39.19500000
 H      38.94800000      14.16400000      38.54700000
 H      38.45300000      14.30800000      39.95900000
 O      27.20300000      23.39200000      29.29200000
 H      28.07700000      23.20200000      28.95600000
 H      27.15600000      24.38800000      29.12900000
 O      28.55100000       7.04600000      37.14800000
 H      28.33300000       7.49500000      36.28200000
 H      29.38800000       6.58000000      36.95300000
 O      29.57600000      27.10600000      29.72900000
 H      30.01200000      27.99300000      29.58400000
 H      30.32000000      26.67100000      30.21700000
 O      36.20500000      36.44700000      31.56000000
 H      37.02000000      36.35100000      32.04000000
 H      35.55900000      36.49100000      32.37000000
 O      36.90000000      17.90800000      33.46100000
 H      36.03000000      18.24200000      33.84500000
 H      37.36900000      17.69400000      34.28800000
 O      32.00600000      27.39800000      34.82500000
 H      31.99100000      27.66000000      35.79400000
 H      32.99000000      27.35300000      34.70200000
 O      36.03200000      34.41200000      29.72900000
 H      36.28000000      35.24500000      30.19000000
 H      36.60600000      33.79800000      30.18000000
 O      34.01300000       7.57100000      36.75800000
 H      33.92100000       6.78000000      36.22100000
 H      33.15000000       8.03700000      36.63400000
 O      31.22700000      37.15600000      28.52700000
 H      31.91600000      36.70100000      29.07400000
 H      31.20900000      38.05300000      28.95800000
 O      40.32300000      37.74800000      37.01600000
 H      40.80000000      38.53100000      36.63400000
 H      40.12800000      37.21400000      36.25400000
 O      39.13600000      13.23900000      35.83900000
 H      39.28000000      13.23600000      36.78400000
 H      38.98800000      14.18600000      35.63900000
 O      31.89400000      18.93900000      30.39700000
 H      32.58500000      18.64900000      30.99200000
 H      32.36800000      19.57600000      29.83300000
 O      29.52000000      34.46000000      34.50100000
 H      29.51200000      35.24000000      33.86300000
 H      28.69300000      34.04500000      34.24100000
 O      34.43300000      23.65700000      34.11300000
 H      35.25900000      23.32600000      33.77300000
 H      34.07200000      22.87700000      34.54500000
 O      36.55700000      33.47300000      40.56600000
 H      35.72400000      33.70600000      41.01400000
 H      36.46800000      32.44800000      40.71200000
 O      39.07600000      32.35700000      39.93400000
 H      39.72100000      32.62100000      40.69900000
 H      38.29200000      32.80900000      40.23100000
 O      37.06800000      23.67600000      28.76900000
 H      37.01400000      23.48700000      29.69800000
 H      36.99100000      24.64400000      28.77900000
 O      31.08600000      23.10600000      27.90700000
 H      31.98700000      23.12700000      28.32600000
 H      31.22100000      23.77800000      27.22700000
 O      28.94300000       6.90800000      32.87000000
 H      29.21700000       6.13500000      33.35600000
 H      28.92500000       6.60200000      31.94000000
 O      37.65100000      24.00900000      31.40500000
 H      37.38900000      24.23900000      32.32100000
 H      38.63400000      24.15200000      31.51700000
 O      35.22800000      30.83700000      34.39000000
 H      34.51400000      31.11700000      35.06800000
 H      35.96600000      30.65500000      35.01000000
 O      39.62400000      21.73800000      29.87600000
 H      39.50800000      21.58900000      30.81700000
 H      38.69900000      21.60800000      29.58500000
 O      34.64200000      10.58200000      33.46200000
 H      34.18100000       9.73000000      33.23000000
 H      35.56300000      10.33700000      33.26600000
 O      37.65500000       9.96200000      29.65500000
 H      38.05800000       9.32700000      29.06100000
 H      38.37500000      10.15100000      30.29500000
 O      31.16300000      29.40800000      28.82600000
 H      30.96100000      30.00600000      29.57100000
 H      31.87500000      28.86900000      29.22100000
 O      30.73600000      32.75100000      32.76000000
 H      31.72800000      32.73700000      32.75900000
 H      30.49500000      33.41700000      33.35100000
 O      31.72800000      19.91800000      34.43200000
 H      31.81400000      19.25700000      35.18200000
 H      31.68500000      19.31100000      33.69700000
 O      39.51000000      31.29600000      33.43500000
 H      40.27600000      31.20400000      34.00600000
 H      38.79700000      30.71300000      33.85300000
 O      37.62200000      34.02500000      37.00000000
 H      38.49900000      33.62600000      37.31400000
 H      37.89400000      34.21200000      36.09400000
 O      35.38400000      39.28700000      29.79500000
 H      35.05500000      40.15000000      30.01400000
 H      36.14900000      39.20400000      30.44600000
 O      38.70300000      10.44200000      40.17900000
 H      38.62100000      11.40000000      39.96900000
 H      37.83600000      10.22400000      40.54500000
 O      27.97800000      38.12800000      27.89900000
 H      28.36900000      38.50400000      27.03700000
 H      27.25800000      37.60000000      27.45000000
 O      33.95500000      32.79800000      28.34900000
 H      34.63900000      33.15900000      28.94500000
 H      34.43100000      32.04300000      27.96200000
 O      27.86200000      17.30300000      39.26200000
 H      28.11200000      16.57400000      38.63900000
 H      28.10300000      16.83200000      40.15600000
 O      32.69700000      11.81500000      37.66400000
 H      32.35400000      11.37700000      36.86200000
 H      32.93000000      12.66300000      37.20500000
 O      29.13000000       8.65900000      39.41500000
 H      28.64100000       8.05600000      38.74800000
 H      28.83300000       9.50700000      39.15600000
 O      39.50500000      15.92100000      36.15200000
 H      39.18700000      16.73600000      36.60100000
 H      40.03800000      15.52400000      36.89800000
 O      39.00300000      18.70200000      31.53000000
 H      38.51900000      18.44700000      30.68600000
 H      38.29400000      18.82000000      32.13000000
 O      35.45100000       9.04900000      30.44000000
 H      34.78900000       9.80600000      30.43100000
 H      36.26400000       9.48300000      30.05200000
 O      30.23400000      14.97200000      28.72500000
 H      30.78900000      14.59000000      29.44500000
 H      29.75300000      15.64900000      29.22300000
 O      36.97600000      29.39700000      37.86500000
 H      37.62300000      28.73000000      38.27400000
 H      36.11900000      28.95700000      38.12500000
 O      37.86400000      30.98800000      35.92300000
 H      38.51600000      31.54400000      36.44600000
 H      37.51500000      30.52500000      36.74500000
 O      34.95000000      19.38400000      30.42600000
 H      34.43600000      19.89800000      29.79500000
 H      35.46200000      20.15700000      30.87400000
 O      34.60500000       7.87300000      27.95600000
 H      33.69200000       8.30200000      27.94500000
 H      35.03800000       8.41400000      28.67000000
 O      33.22000000      14.14500000      36.57900000
 H      32.39800000      14.38400000      36.09200000
 H      33.87400000      14.28000000      35.91300000
 O      40.10200000       9.99200000      30.78400000
 H      40.98700000       9.91300000      30.37800000
 H      40.22300000      10.85100000      31.29800000
 O      32.00500000      35.86400000      35.44700000
 H      32.69800000      35.33800000      34.96500000
 H      31.20500000      35.42100000      35.14300000
 O      35.30300000      36.60500000      34.27900000
 H      34.35200000      36.70400000      33.93200000
 H      35.18000000      36.09700000      35.14000000
 O      38.87000000      24.18300000      36.07500000
 H      39.86700000      24.38400000      36.06700000
 H      38.99500000      23.23000000      36.33800000
 O      30.66200000      30.70700000      35.94700000
 H      30.51300000      30.61700000      34.96700000
 H      30.14200000      29.91900000      36.27200000
 O      34.86100000      26.20700000      28.18000000
 H      35.80300000      26.41100000      28.08800000
 H      34.56500000      27.11900000      28.40600000
 O      38.73800000      27.82100000      34.13500000
 H      37.87100000      28.07500000      33.69100000
 H      39.20500000      27.49500000      33.35500000
 O      39.66300000      36.24600000      34.71100000
 H      38.93500000      36.72000000      34.33000000
 H      39.42700000      35.26000000      34.61700000
 O      34.98300000      14.70900000      29.25300000
 H      35.58400000      14.10500000      28.82000000
 H      34.74900000      15.23900000      28.47200000
 O      32.51300000      20.79500000      37.95300000
 H      32.70100000      20.49700000      38.84000000
 H      31.72300000      21.30300000      38.16300000
 O      27.66200000      14.63700000      27.36800000
 H      27.46800000      14.19100000      28.21800000
 H      28.35600000      15.23700000      27.62800000
 O      40.00700000      25.81300000      27.18000000
 H      40.32400000      25.03200000      27.64000000
 H      40.62100000      26.49300000      27.38400000
