489
XYZ file of cluster: frame_4000_c4539.c5050.4a506 - created by MolEdiTo
 O      34.69900000      37.09400000      28.20400000
 H      34.64600000      37.97400000      28.65200000
 H      34.62900000      37.37100000      27.29900000
 O      36.03200000      34.41200000      29.72900000
 H      36.28000000      35.24500000      30.19000000
 H      36.60600000      33.79800000      30.18000000
 O      39.09100000      35.23200000      19.66400000
 H      38.63000000      34.35400000      19.48600000
 H      38.52000000      35.72100000      18.99300000
 O      38.20000000      39.85800000      35.98600000
 H      38.06600000      39.17300000      36.67800000
 H      38.10900000      39.27600000      35.19500000
 O      39.80600000      35.84200000      26.73900000
 H      39.78900000      35.34700000      25.85900000
 H      39.58500000      36.70600000      26.44300000
 O      38.77500000      38.98400000      15.11000000
 H      39.57900000      39.46200000      14.96300000
 H      38.12400000      39.63800000      14.69600000
 O      37.28100000      40.12100000      27.51200000
 H      36.80400000      40.93500000      27.64800000
 H      36.85400000      39.59300000      28.18800000
 O      40.32300000      37.74800000      37.01600000
 H      40.80000000      38.53100000      36.63400000
 H      40.12800000      37.21400000      36.25400000
 O      37.59200000      39.30900000      31.62100000
 H      38.20500000      38.64000000      31.26800000
 H      38.17500000      40.11300000      31.65700000
 O      39.71500000      37.89400000      30.92000000
 H      40.09500000      38.03800000      31.80900000
 H      40.48600000      38.14000000      30.38600000
 O      39.27300000      36.50400000      15.54100000
 H      38.88100000      37.39800000      15.28200000
 H      38.96700000      36.44600000      16.47900000
 O      40.35900000      38.46800000      17.85900000
 H      40.39300000      38.88800000      16.95800000
 H      41.12300000      38.89500000      18.26300000
 O      38.49500000      37.19300000      24.54000000
 H      37.58900000      37.22900000      24.78100000
 H      38.38000000      36.97200000      23.54600000
 O      37.52500000      36.55800000      17.77200000
 H      37.13800000      37.29000000      17.25800000
 H      36.79200000      35.88100000      17.77300000
 O      35.69700000      35.12400000      26.69700000
 H      34.73400000      34.94100000      26.82800000
 H      35.77300000      35.74200000      27.47400000
 O      37.56400000      38.43000000      38.27000000
 H      37.45200000      37.50700000      38.56700000
 H      38.20200000      38.77600000      38.91500000
 O      34.72800000      40.18900000      20.10700000
 H      34.69600000      39.80800000      19.18800000
 H      35.26200000      41.01500000      19.85000000
 O      35.74100000      37.78100000      15.81700000
 H      35.77600000      38.13900000      14.90000000
 H      36.15800000      38.51500000      16.30100000
 O      40.08700000      34.25600000      28.96500000
 H      39.91000000      34.85900000      28.17600000
 H      40.17800000      33.40300000      28.62800000
 O      37.37100000      35.75700000      38.96400000
 H      37.31900000      35.08100000      39.66200000
 H      37.46700000      35.17400000      38.18900000
 O      38.39800000      38.69000000      21.72900000
 H      39.39800000      38.57300000      21.79800000
 H      38.10000000      37.76700000      21.63900000
 O      36.32000000      34.48600000      23.90500000
 H      36.95300000      33.72300000      24.07500000
 H      36.27300000      34.80300000      24.82600000
 O      39.40200000      34.71300000      13.25800000
 H      38.82500000      35.09600000      12.59900000
 H      39.29400000      35.28700000      14.02400000
 O      35.38400000      39.28700000      29.79500000
 H      35.05500000      40.15000000      30.01400000
 H      36.14900000      39.20400000      30.44600000
 O      35.38500000      33.99000000      17.56000000
 H      35.45000000      33.37800000      18.35400000
 H      34.79100000      34.71600000      17.99200000
 O      35.00800000      39.25100000      37.85100000
 H      35.92900000      39.45600000      37.97500000
 H      34.60400000      39.98300000      38.38900000
 O      40.02800000      40.43900000      27.09600000
 H      39.04400000      40.30000000      27.33300000
 H      40.06100000      40.07300000      26.17600000
 O      35.89200000      35.18300000      14.98900000
 H      35.55200000      34.53300000      15.63700000
 H      35.79000000      36.00300000      15.56000000
 O      34.51000000      36.94500000      23.10300000
 H      35.27400000      37.56800000      23.16300000
 H      34.95800000      36.10500000      23.42700000
 O      37.80000000      36.10900000      22.02300000
 H      38.10400000      35.59600000      21.22200000
 H      37.18000000      35.40300000      22.38500000
 O      38.53800000      39.80300000      19.15600000
 H      38.52800000      39.58700000      20.13100000
 H      39.20800000      39.18400000      18.80900000
 O      33.50500000      38.65000000      32.03600000
 H      33.23000000      39.48500000      32.49300000
 H      34.47600000      38.88100000      31.85500000
 O      34.78800000      38.51600000      25.78200000
 H      35.30900000      38.79300000      25.03500000
 H      34.78300000      39.34100000      26.31000000
 O      36.32500000      39.69700000      17.43000000
 H      37.10800000      39.86500000      18.00000000
 H      36.24300000      40.58100000      16.97100000
 O      34.89600000      36.91600000      39.17300000
 H      35.80500000      36.53200000      39.03900000
 H      34.92600000      37.56400000      38.45300000
 O      39.25600000      35.13500000      31.19600000
 H      39.63800000      34.84200000      30.34300000
 H      39.50200000      36.09500000      31.14500000
 O      38.83500000      39.10600000      40.62300000
 H      38.38800000      38.65600000      41.38100000
 H      39.16200000      39.94400000      41.09300000
 O      37.59600000      38.13400000      33.99600000
 H      36.70800000      37.71400000      34.10700000
 H      37.51400000      38.56500000      33.13500000
 O      35.30300000      36.60500000      34.27900000
 H      34.35200000      36.70400000      33.93200000
 H      35.18000000      36.09700000      35.14000000
 O      39.66300000      36.24600000      34.71100000
 H      38.93500000      36.72000000      34.33000000
 H      39.42700000      35.26000000      34.61700000
 O      36.20500000      36.44700000      31.56000000
 H      37.02000000      36.35100000      32.04000000
 H      35.55900000      36.49100000      32.37000000
 O      36.32400000      39.04200000      23.52800000
 H      37.07000000      39.03300000      22.86700000
 H      35.93400000      39.86900000      23.31500000
 O      34.52400000      42.28100000      23.49800000
 H      35.10000000      42.87600000      24.11600000
 H      33.99500000      43.04600000      23.11800000
 O      36.25000000      43.19500000      15.69300000
 H      37.07100000      43.20100000      15.12700000
 H      36.22100000      44.18700000      15.86900000
 O      35.47600000      46.63400000      28.66000000
 H      35.24600000      46.93900000      29.55900000
 H      35.48700000      47.51100000      28.18000000
 O      35.22000000      45.86700000      38.78400000
 H      35.28900000      44.89700000      38.64700000
 H      34.25100000      45.96700000      38.75300000
 O      39.19700000      42.79700000      23.71700000
 H      38.70000000      43.13700000      22.91600000
 H      38.66100000      42.02000000      23.97000000
 O      35.32800000      43.63000000      27.76900000
 H      34.44200000      43.40100000      27.93300000
 H      35.37800000      44.58700000      27.93000000
 O      37.73600000      48.35200000      17.44800000
 H      38.30800000      48.07800000      18.21700000
 H      37.16400000      49.01200000      17.89300000
 O      33.56200000      42.91700000      15.05500000
 H      33.33500000      42.73600000      15.99700000
 H      34.53200000      42.73000000      15.07300000
 O      40.06400000      47.88000000      39.70300000
 H      39.37900000      47.33700000      39.26700000
 H      39.93500000      48.74300000      39.19900000
 O      38.16900000      43.80200000      38.52600000
 H      38.25100000      43.31400000      39.36100000
 H      39.05300000      44.08900000      38.34600000
 O      38.04300000      48.36700000      29.75700000
 H      37.89100000      48.77400000      28.84400000
 H      38.31100000      47.47200000      29.47000000
 O      35.76200000      47.84500000      31.10700000
 H      36.76100000      47.92500000      30.89100000
 H      35.50900000      48.74800000      31.01100000
 O      38.42100000      45.25700000      25.87800000
 H      38.26400000      46.03300000      25.26300000
 H      39.20700000      44.85200000      25.37700000
 O      38.96600000      43.79500000      18.22800000
 H      38.73500000      42.86400000      18.43000000
 H      39.84500000      43.88000000      18.62300000
 O      38.87900000      46.04100000      36.34000000
 H      38.41400000      46.83700000      36.01800000
 H      38.49600000      46.07600000      37.26600000
 O      37.25700000      47.10800000      14.63600000
 H      37.54100000      48.06800000      14.56000000
 H      36.41000000      47.19000000      15.10500000
 O      38.08800000      47.34900000      24.28900000
 H      37.51300000      48.01700000      24.79200000
 H      38.71700000      47.96800000      23.88700000
 O      35.56100000      43.78500000      19.03300000
 H      36.14000000      44.12700000      18.29000000
 H      35.21200000      44.70500000      19.30000000
 O      38.60200000      43.98400000      14.67600000
 H      38.22400000      44.88400000      14.81300000
 H      39.43400000      44.08400000      15.16900000
 O      36.90600000      48.15100000      20.16000000
 H      37.91500000      48.18600000      19.93700000
 H      36.94700000      48.92400000      20.83000000
 O      34.50800000      45.71300000      32.41200000
 H      34.87000000      46.46700000      31.92900000
 H      35.01900000      45.81800000      33.25400000
 O      37.02500000      45.58100000      17.28100000
 H      37.76400000      45.12600000      17.55700000
 H      37.20900000      46.53600000      17.27800000
 O      37.46000000      43.27300000      21.62800000
 H      37.10300000      42.67200000      21.00100000
 H      36.78900000      44.03600000      21.62600000
 O      36.10600000      43.68000000      25.14100000
 H      37.07100000      43.96500000      25.24300000
 H      35.97900000      43.51800000      26.12600000
 O      34.05700000      43.69300000      35.22200000
 H      34.63000000      44.40100000      34.85200000
 H      34.73500000      43.17200000      35.72600000
 O      39.67900000      43.46000000      34.99200000
 H      38.93900000      42.80600000      35.30500000
 H      39.32200000      44.29600000      35.37300000
 O      35.98400000      46.73500000      22.41400000
 H      36.70700000      46.98100000      23.01900000
 H      36.11300000      47.33300000      21.64700000
 O      39.32400000      42.82000000      32.16300000
 H      39.41200000      43.54900000      31.52400000
 H      39.60100000      43.20400000      32.96600000
 O      38.20100000      45.75800000      28.56900000
 H      37.22100000      45.92600000      28.65300000
 H      38.33900000      45.38000000      27.71600000
 O      39.99000000      45.13100000      30.59300000
 H      40.68500000      45.75000000      30.33200000
 H      39.32900000      45.35700000      29.94700000
 O      37.56100000      46.93300000      38.68300000
 H      37.40900000      47.91000000      38.65800000
 H      36.64100000      46.56200000      38.59100000
 O      34.71700000      46.63000000      19.40500000
 H      35.50400000      47.24900000      19.42300000
 H      33.97600000      47.31400000      19.56600000
 O      34.06900000      45.64500000      23.77600000
 H      34.77300000      45.42400000      24.46700000
 H      34.67700000      46.10300000      23.14600000
 O      37.71800000      48.25100000      34.43000000
 H      38.49500000      47.74200000      34.14600000
 H      37.74500000      49.04100000      33.81200000
 O      35.88800000      46.07200000      34.59500000
 H      36.37700000      46.90700000      34.58200000
 H      36.46400000      45.48100000      35.08600000
 O      34.46500000      42.75000000      39.73500000
 H      33.76500000      43.32200000      39.39600000
 H      34.00100000      42.03800000      40.16200000
 O      36.47300000      43.52100000      36.56600000
 H      36.98500000      43.75500000      37.31300000
 H      37.01600000      42.72100000      36.27400000
 O      34.96700000      47.65200000      16.48300000
 H      34.80900000      47.21500000      17.32900000
 H      34.40900000      47.08400000      15.83400000
 O      47.59300000      37.51000000      39.45900000
 H      46.68200000      37.23100000      39.62600000
 H      48.13700000      36.77900000      39.77200000
 O      47.69000000      38.53600000      30.83900000
 H      48.50600000      38.39100000      30.28500000
 H      48.06600000      39.25800000      31.42800000
 O      47.89000000      35.40700000      36.52300000
 H      46.94200000      35.14900000      36.48600000
 H      47.74300000      36.33900000      36.81800000
 O      44.02200000      36.28600000      18.23800000
 H      43.23800000      36.16700000      18.86600000
 H      44.57100000      36.91100000      18.80400000
 O      47.47500000      35.47000000      16.34900000
 H      46.71600000      35.03800000      15.84900000
 H      47.71400000      36.15900000      15.70200000
 O      45.41700000      37.50400000      20.15700000
 H      45.12200000      38.29100000      20.60500000
 H      45.62900000      36.92400000      20.89500000
 O      43.50000000      40.07100000      19.16000000
 H      43.31100000      41.03700000      19.39900000
 H      44.19300000      39.92400000      19.82800000
 O      45.55300000      38.42400000      14.50500000
 H      45.45700000      39.08700000      15.22100000
 H      44.93900000      37.73400000      14.89400000
 O      42.55000000      38.56900000      39.46600000
 H      41.69400000      38.89400000      39.80900000
 H      42.17900000      38.18300000      38.60800000
 O      46.97400000      35.61300000      21.74900000
 H      47.36700000      35.02400000      22.47000000
 H      47.47800000      35.27000000      20.95200000
 O      44.87400000      37.19600000      39.90200000
 H      44.33400000      36.49100000      40.29900000
 H      44.20400000      37.83400000      39.62400000
 O      48.68700000      37.89900000      25.91000000
 H      48.80700000      38.18400000      26.84100000
 H      47.89800000      37.23200000      26.09300000
 O      45.93500000      37.20900000      33.02700000
 H      46.71200000      37.00600000      33.64100000
 H      46.41600000      37.49300000      32.25000000
 O      48.18200000      34.62300000      29.67100000
 H      48.06100000      33.97700000      30.40900000
 H      47.54600000      34.32200000      28.98500000
 O      44.65300000      39.97900000      16.51800000
 H      45.57500000      39.76700000      16.70800000
 H      44.23800000      39.98600000      17.40700000
 O      42.44000000      40.27700000      14.96900000
 H      43.32300000      40.01700000      15.32200000
 H      42.49900000      41.25100000      15.17600000
 O      42.42700000      35.48900000      38.22600000
 H      41.74900000      36.23300000      38.25500000
 H      42.55300000      35.38300000      39.22500000
 O      44.43100000      34.80100000      28.86400000
 H      43.78100000      34.50100000      29.51400000
 H      43.84800000      35.08900000      28.14400000
 O      45.78000000      34.26600000      18.20500000
 H      45.11800000      35.03700000      18.21800000
 H      46.45000000      34.73600000      17.55400000
 O      43.61700000      36.95300000      15.68900000
 H      42.61500000      36.76900000      15.64800000
 H      43.73100000      36.80800000      16.67500000
 O      42.03400000      38.83500000      25.13000000
 H      42.24800000      38.96800000      24.15800000
 H      41.39100000      38.15100000      25.07800000
 O      47.05100000      38.76200000      17.64300000
 H      47.80300000      38.24400000      17.24800000
 H      46.91000000      38.27700000      18.48500000
 O      47.41600000      40.24300000      28.22800000
 H      47.59000000      39.35900000      28.53500000
 H      47.65000000      40.15600000      27.29300000
 O      45.42400000      37.01200000      30.08000000
 H      46.12900000      37.59800000      30.38800000
 H      45.83400000      36.19900000      30.16400000
 O      48.19700000      38.78900000      37.04900000
 H      47.56200000      39.48200000      36.90000000
 H      47.91800000      38.38700000      37.89700000
 O      43.69000000      38.87700000      29.38800000
 H      43.90700000      39.49900000      30.12600000
 H      44.07700000      38.07300000      29.69500000
 O      42.79000000      40.01600000      35.67200000
 H      43.08400000      40.69900000      36.35300000
 H      42.10900000      40.60200000      35.22300000
 O      45.10400000      39.99200000      21.32800000
 H      44.84100000      40.67000000      21.96900000
 H      45.91600000      40.37700000      20.98900000
 O      42.41800000      34.10900000      23.96300000
 H      42.46600000      34.53500000      23.11900000
 H      43.19100000      33.56200000      24.07500000
 O      42.55700000      35.88400000      21.09500000
 H      43.20800000      35.17600000      20.97300000
 H      41.78700000      35.44600000      20.61000000
 O      46.31500000      37.09000000      26.90700000
 H      45.54400000      37.68300000      26.60600000
 H      45.88400000      36.61200000      27.64000000
 O      42.47900000      38.32300000      33.25900000
 H      42.30100000      38.97300000      33.93200000
 H      43.15300000      37.75200000      33.66900000
 O      44.15800000      40.19600000      31.99500000
 H      43.75900000      39.48500000      32.47100000
 H      44.40700000      40.84300000      32.68100000
 O      44.58700000      39.35600000      26.86300000
 H      44.39000000      39.48200000      27.84500000
 H      43.66900000      39.26600000      26.55400000
 O      45.67800000      34.54000000      14.44000000
 H      45.14400000      35.02100000      13.78300000
 H      45.05900000      33.93000000      14.80100000
 O      42.32000000      38.38700000      22.07700000
 H      42.40900000      37.40600000      22.06000000
 H      43.23500000      38.59100000      21.81300000
 O      48.66500000      40.53600000      32.03900000
 H      48.62100000      40.66300000      33.02900000
 H      48.06900000      41.24300000      31.71900000
 O      43.60200000      35.19500000      34.57100000
 H      42.68400000      35.45100000      34.78900000
 H      43.42400000      34.77600000      33.72100000
 O      44.90800000      35.04100000      37.02000000
 H      44.33100000      35.26800000      36.22800000
 H      44.33400000      35.42000000      37.72300000
 O      48.11000000      43.27500000      15.78600000
 H      48.06200000      44.23000000      15.92100000
 H      47.98400000      43.19500000      14.87700000
 O      45.21200000      44.94900000      28.56600000
 H      45.75000000      44.42700000      29.17900000
 H      44.43500000      44.28800000      28.42700000
 O      42.10000000      47.31100000      32.97000000
 H      42.27400000      46.99000000      32.03200000
 H      41.54500000      48.11600000      32.72700000
 O      42.40200000      44.93500000      25.54000000
 H      42.35800000      44.40700000      26.30000000
 H      42.59300000      45.86300000      25.88100000
 O      48.42500000      45.74900000      35.21500000
 H      48.11000000      46.55800000      34.84600000
 H      49.18400000      45.52300000      34.69200000
 O      44.92300000      43.26700000      34.01400000
 H      45.23200000      42.74200000      34.74900000
 H      44.41400000      44.03200000      34.30200000
 O      47.99600000      43.01900000      24.21600000
 H      47.83700000      43.53900000      23.41200000
 H      47.07600000      42.77300000      24.44500000
 O      42.80800000      46.63500000      17.78900000
 H      42.28800000      47.11300000      17.08300000
 H      43.63100000      47.12800000      17.72000000
 O      47.85200000      47.17900000      37.72800000
 H      48.15400000      46.82800000      36.85800000
 H      47.91800000      48.17500000      37.55200000
 O      45.50200000      42.70800000      25.05700000
 H      44.82500000      42.99700000      24.45400000
 H      44.99600000      42.08300000      25.62700000
 O      46.23200000      42.22100000      36.61500000
 H      46.70300000      42.92600000      37.16400000
 H      45.39600000      42.24600000      37.16900000
 O      44.74100000      46.26300000      36.96400000
 H      45.27100000      45.58800000      37.41200000
 H      44.28500000      45.75100000      36.30200000
 O      46.74100000      48.29000000      32.94800000
 H      46.41400000      47.36100000      32.74100000
 H      46.55200000      48.67900000      32.08800000
 O      48.13800000      45.84200000      22.87300000
 H      47.35700000      46.25100000      23.23200000
 H      48.74900000      46.18300000      23.54300000
 O      42.51900000      44.70500000      15.62000000
 H      42.56100000      45.51300000      14.99600000
 H      42.75800000      45.16900000      16.42600000
 O      45.36800000      48.57300000      22.15100000
 H      44.90200000      49.38800000      22.08800000
 H      44.98700000      48.22300000      22.97900000
 O      42.90700000      44.54500000      19.67700000
 H      43.12200000      45.36400000      19.14400000
 H      43.04700000      44.85600000      20.56400000
 O      44.51200000      43.25300000      40.34500000
 H      44.41600000      44.22100000      40.24100000
 H      44.18400000      43.17600000      41.27400000
 O      43.16800000      46.97000000      29.86500000
 H      43.93400000      46.40100000      29.58300000
 H      43.56700000      47.85200000      29.98100000
 O      43.29100000      45.53800000      34.75300000
 H      43.01700000      46.22100000      34.10000000
 H      42.42900000      45.14800000      34.96800000
 O      46.68100000      47.32700000      40.31600000
 H      47.06300000      47.38600000      39.39000000
 H      47.47300000      47.33800000      40.85700000
 O      46.53800000      47.19400000      27.30000000
 H      47.11600000      47.30100000      28.10500000
 H      46.09500000      46.35100000      27.63200000
 O      48.64700000      42.48800000      18.15100000
 H      48.56300000      42.94800000      17.25400000
 H      47.98600000      41.76600000      17.98800000
 O      43.90300000      42.41000000      37.87000000
 H      43.40800000      41.71200000      38.40500000
 H      44.34900000      42.81200000      38.65000000
 O      42.68400000      47.18900000      13.66200000
 H      42.22800000      47.69500000      14.33000000
 H      42.71600000      47.78100000      12.91200000
 O      47.55500000      43.91900000      38.19000000
 H      47.62200000      44.85500000      38.11800000
 H      48.14600000      43.73100000      38.95000000
 O      42.80000000      43.59900000      28.52100000
 H      42.26900000      42.88200000      28.09200000
 H      42.19100000      43.79200000      29.30500000
 O      46.33200000      43.25700000      30.50200000
 H      46.64300000      42.64200000      29.77600000
 H      45.58800000      42.64400000      30.85700000
 O      48.86700000      43.26500000      40.36100000
 H      48.12700000      42.55100000      40.35200000
 H      49.00700000      43.32600000      41.29400000
 O      48.13900000      42.66900000      34.72200000
 H      47.57100000      42.42700000      35.50800000
 H      47.92200000      43.61600000      34.71100000
 O      47.78200000      46.43000000      15.14100000
 H      48.44200000      47.09000000      15.38000000
 H      46.92600000      47.05100000      15.19400000
 O      43.11000000      43.31600000      23.06000000
 H      42.70500000      43.69400000      23.87400000
 H      42.26700000      43.11200000      22.55700000
 O      47.58400000      46.67500000      18.41600000
 H      47.41400000      47.26500000      19.18600000
 H      48.15300000      45.96200000      18.90900000
 O      42.66300000      47.68000000      26.83700000
 H      42.37100000      48.60500000      26.82300000
 H      42.60000000      47.41000000      27.73600000
 O      46.68300000      47.49700000      24.52100000
 H      46.68600000      47.22700000      25.50100000
 H      45.90200000      48.13200000      24.58100000
 O      45.95600000      45.80300000      32.34700000
 H      45.71800000      45.18900000      33.00400000
 H      46.31700000      45.13400000      31.68400000
 O      44.16500000      48.63600000      35.86100000
 H      44.65800000      47.98400000      36.43700000
 H      43.43400000      47.98100000      35.54900000
 O      46.93700000      43.43400000      20.91000000
 H      46.47100000      44.24700000      21.16500000
 H      47.61800000      43.72600000      20.32600000
 O      45.05300000      47.91100000      17.86100000
 H      45.27200000      47.84400000      16.86700000
 H      45.82600000      47.76300000      18.33600000
 O      42.41500000      46.87000000      22.01000000
 H      42.54200000      47.57200000      22.66000000
 H      41.52200000      46.96700000      21.66100000
 O      44.78900000      45.53100000      22.19200000
 H      44.20400000      46.27100000      22.36400000
 H      44.28200000      44.76600000      22.59600000
 O      44.07300000      46.24600000      40.40300000
 H      44.94900000      46.72300000      40.41200000
 H      43.60200000      46.90300000      39.83400000
 O      45.17600000      47.64900000      15.20300000
 H      45.66100000      48.23800000      14.52000000
 H      44.33900000      47.52300000      14.84500000
 O      47.49100000      48.09600000      20.63000000
 H      47.96900000      48.28900000      21.47400000
 H      46.58100000      47.93800000      21.06700000
