%chk=cluster_433.chk
%mem=6GB
%nproc=8
#b3lyp/6-31G** scrf=(cpcm,Solvent=Water) nosymm force
iop(2/11=1)
 Geom=(NoDistance,NoAngle)
guess=checkpoint

cluster_433

0 1
 O      19.99071286    15.17981063    17.75371868
 H      20.22892521    16.08273493    17.99157662
 H      20.16378420    14.66369634    18.55310756
 O      16.94842508    13.90525692    14.35235052
 H      17.61045937    14.61679411    14.40954206
 H      16.58054841    13.83209088    15.25142216
 O      19.49892220    15.10774792    14.30004558
 H      19.98569862    14.73143043    15.04321970
 H      19.65097303    14.51549159    13.53868820
 O      13.88377148    15.26601042    14.49513678
 H      13.42258901    15.28297230    15.34445467
 H      14.71163285    15.75211179    14.66436698
 O      16.05614009    17.03452379    16.56538872
 H      16.68653427    17.44582254    15.94701346
 H      16.50681417    16.18049364    16.72271108
 O      14.83029781    11.14174017    11.21303046
 H      15.32198076    10.57346208    10.60818612
 H      15.35245055    11.97130055    11.21733309
 O      18.66887277    11.73442916    14.60176905
 H      18.07278490    10.97269500    14.56622569
 H      18.07350401    12.49655828    14.42857260
 O      17.36869854    14.67814684    17.04303127
 H      17.04745895    14.66099581    17.95738795
 H      18.33840428    14.79810374    17.15296129
 O      18.55427545    17.53371160    15.00948852
 H      19.04444355    17.55026646    15.84309888
 H      18.85692334    16.71212605    14.58122286
 O      16.40485213    13.64987220    11.23283010
 H      17.34645222    13.38114381    11.17487851
 H      16.33549495    13.93489215    12.15931925
 O      16.23082809    16.59927181    13.10831696
 H      15.45993909    16.75219823    12.54256656
 H      16.56767042    17.48450302    13.31236638
 O      14.85229333    12.39531460    15.77094964
 H      15.11502948    11.70376170    15.14677206
 H      14.51669966    13.10816850    15.19773588
 O      20.30539626    10.11315852    12.29732289
 H      20.41279764    10.59504920    13.13268041
 H      19.43291427     9.70961830    12.41441467
 O      19.18870203    13.11262421    11.57147145
 H      19.46633245    12.19303127    11.73422889
 H      19.78521608    13.43050046    10.88271082

