%chk=cluster_441.chk
%mem=6GB
%nproc=8
#b3lyp/6-31G** scrf=(cpcm,Solvent=Water) nosymm force
iop(2/11=1)
 Geom=(NoDistance,NoAngle)
guess=checkpoint

cluster_441

0 1
 O      14.87883904    16.32172644     5.59672873
 H      14.56415085    16.53780369     6.49592245
 H      14.73161692    15.36852907     5.52045206
 O      18.61622418    19.27220144     4.82133476
 H      18.67264731    18.93036046     5.73041519
 H      18.30272256    18.49514352     4.33122047
 O      19.88312382    19.90044776     8.46411304
 H      19.12289599    19.36799636     8.17313432
 H      19.75101556    20.74711507     8.01633162
 O      14.07530633    20.33906589     9.57270258
 H      13.95049240    19.89878947     8.72084686
 H      14.97800340    20.09018432     9.81578152
 O      14.07496727    16.58901482     8.45252344
 H      13.91548500    15.63445104     8.48483749
 H      14.98750606    16.68321509     8.76176955
 O      16.99504068    16.59810580     3.62229494
 H      16.27150553    16.60150419     4.28340211
 H      17.02060365    15.69031255     3.30041906
 O      19.32080262    14.95568833     5.41272746
 H      18.39853083    15.01088138     5.12599538
 H      19.73619990    14.39182846     4.74352393
 O      17.99326036    17.91726116     7.34323020
 H      18.36715547    17.06629730     7.63896081
 H      17.20704590    17.66486236     6.83665752
 O      18.63484708    14.81885955     8.62163280
 H      19.17576105    14.11643733     8.23970301
 H      18.48020947    14.54281638     9.53571456

