135
XYZ file of cluster: frame_7000_60e4.4973b.485df - created by MolEdiTo
 O       8.71700000      11.01300000      19.74000000
 H       8.45900000      10.91800000      20.74500000
 H       8.36700000      11.87800000      19.37900000
 O       8.98600000       9.98100000      10.95800000
 H       9.14600000      10.72800000      11.55700000
 H       9.84900000       9.48700000      10.78700000
 O       4.45900000      13.28500000      10.60300000
 H       3.72400000      12.91900000      10.12500000
 H       4.34800000      14.26800000      10.85100000
 O       1.74900000      14.38900000      11.98800000
 H       0.78300000      14.38600000      12.16900000
 H       2.19200000      14.15500000      12.83100000
 O       7.23900000      12.79800000      10.22000000
 H       6.90400000      13.16500000       9.35900000
 H       6.37800000      12.66500000      10.67100000
 O       7.53300000      13.58200000      13.13600000
 H       7.35200000      13.16200000      14.01000000
 H       8.33100000      13.09200000      12.75600000
 O       3.44500000      10.84900000      21.32700000
 H       2.81400000      10.23300000      21.77200000
 H       2.93400000      11.53400000      20.83400000
 O      10.24800000      11.85600000      13.56200000
 H      10.92200000      11.65000000      14.18500000
 H      10.42800000      12.78600000      13.37700000
 O       1.57900000      13.07800000      16.72900000
 H       2.51400000      13.16900000      16.53900000
 H       1.24100000      12.17900000      16.50200000
 O      10.02200000      16.72100000      12.96500000
 H       9.02700000      16.75100000      13.10100000
 H      10.07300000      16.92000000      12.01500000
 O       3.53400000      13.47000000      13.53100000
 H       4.38700000      13.11600000      13.15100000
 H       3.84300000      14.09300000      14.25500000
 O       1.93500000      20.32500000      13.07600000
 H       1.08300000      20.07500000      13.53400000
 H       2.64700000      20.18100000      13.73500000
 O       4.01900000      18.76700000      12.00600000
 H       3.31400000      19.15500000      12.46300000
 H       4.54200000      19.45000000      11.52800000
 O       7.26100000      19.05500000      12.97700000
 H       6.93800000      18.22600000      13.46500000
 H       6.76300000      19.82900000      13.31600000
 O       6.06700000      13.20000000      20.45600000
 H       5.68900000      12.46600000      20.92000000
 H       6.50800000      13.72200000      21.18700000
 O       2.95200000      19.87800000      19.05700000
 H       3.62500000      19.63100000      19.75400000
 H       2.23100000      19.27900000      19.27400000
 O       6.26300000      18.50700000      20.90200000
 H       5.61500000      18.12300000      20.29000000
 H       6.55000000      17.70700000      21.35400000
 O       8.38400000      12.63400000      15.55300000
 H       8.20300000      11.65300000      15.33100000
 H       8.80400000      12.54200000      16.43600000
 O       1.87300000      17.35000000      19.53900000
 H       1.27100000      16.58500000      19.59500000
 H       2.25300000      17.28500000      18.59200000
 O       7.12000000      16.82100000      13.75300000
 H       7.72200000      16.82100000      14.54900000
 H       6.74400000      16.01500000      13.92400000
 O       9.76900000      14.35200000      17.41700000
 H      10.12100000      15.04600000      18.00600000
 H      10.58100000      13.96600000      16.95200000
 O       5.14800000      14.97300000      15.31200000
 H       4.89700000      15.56400000      14.63900000
 H       5.19800000      15.54800000      16.07900000
 O      11.13400000      19.69500000      12.94100000
 H      11.12000000      20.57500000      13.35800000
 H      10.28600000      19.70400000      12.54500000
 O       3.40800000      16.59800000      14.11900000
 H       3.53300000      16.06000000      13.35200000
 H       2.86400000      17.28800000      13.79500000
 O       7.00900000      14.54100000      17.92000000
 H       7.27900000      14.13500000      17.07200000
 H       7.66300000      14.31300000      18.64300000
 O       4.04800000      19.69800000      14.61100000
 H       4.18400000      20.10400000      15.53900000
 H       4.62300000      20.30700000      14.10400000
 O       8.77700000      19.60600000      14.64900000
 H       9.65700000      19.77400000      14.96700000
 H       8.78800000      19.43000000      13.68700000
 O       8.58200000      17.18600000      17.42500000
 H       9.17800000      17.17700000      16.66300000
 H       8.64400000      16.31800000      17.86300000
 O      10.36500000      16.69000000      15.36000000
 H      10.19900000      15.78000000      15.10800000
 H      10.71900000      17.23100000      14.56000000
 O       2.24000000      17.49700000      16.50900000
 H       1.68000000      18.28800000      16.59300000
 H       3.08200000      17.98400000      16.36100000
 O       3.27000000      15.29100000      21.35100000
 H       3.75100000      15.91100000      20.76000000
 H       3.22900000      14.48300000      20.74600000
 O       4.57500000      12.50700000      17.76500000
 H       5.41300000      12.97200000      17.40000000
 H       4.70800000      12.67200000      18.76200000
 O       7.82100000      15.57300000      10.98700000
 H       8.58700000      15.95400000      10.53500000
 H       7.77100000      14.63400000      10.76000000
 O       5.12200000      17.79700000      16.47600000
 H       6.10800000      17.86800000      16.49000000
 H       4.96800000      18.15900000      15.59200000
 O       5.07200000      11.11100000      15.15800000
 H       4.58500000      11.43600000      15.98600000
 H       5.94800000      10.88200000      15.56800000
 O       6.50100000      21.32400000      14.19000000
 H       7.31200000      21.89700000      14.13800000
 H       7.01500000      20.47100000      14.32800000
 O       9.14600000      19.00700000      19.68600000
 H       8.68400000      18.63900000      20.41300000
 H       8.79100000      18.47800000      18.84500000
 O       4.85400000      20.56700000      17.05500000
 H       4.16200000      20.44000000      17.72500000
 H       5.50600000      21.01700000      17.66600000
 O       4.71300000      16.17200000      11.44600000
 H       5.68300000      16.01100000      11.21400000
 H       4.73400000      17.04800000      11.93600000
 O       2.31600000      10.88700000      10.04100000
 H       1.56500000      10.92900000      10.70400000
 H       2.28900000       9.88500000       9.81900000
 O       2.26300000      13.03900000      19.81200000
 H       1.25500000      13.19500000      19.93700000
 H       2.44000000      13.15800000      18.82900000
 O       8.89200000      21.55500000      18.71800000
 H       8.99700000      20.69500000      19.25500000
 H       7.96800000      21.77700000      18.92700000
 O       8.49200000      20.89800000      11.10900000
 H       7.81800000      20.30500000      11.65300000
 H       8.78000000      21.55700000      11.73000000
 O       4.79000000      16.10600000      18.89900000
 H       4.33300000      16.38800000      18.13100000
 H       5.73400000      16.08100000      18.53500000
 O       5.46400000      21.05500000      11.14600000
 H       6.21900000      20.75700000      10.63700000
 H       5.68300000      22.02400000      11.34700000
