111
XYZ file of cluster: frame_7000_45cb.9d359.2133e - created by MolEdiTo
 O       5.81300000      25.28000000       4.76100000
 H       5.60000000      26.10000000       4.29900000
 H       5.02700000      25.33500000       5.37800000
 O       5.79300000      30.62900000       8.38600000
 H       5.73700000      30.80300000       9.27200000
 H       6.75000000      30.50000000       8.29800000
 O       9.63400000      22.95700000       9.68600000
 H       9.05800000      22.24500000      10.12100000
 H      10.37700000      22.39000000       9.29600000
 O       8.45200000      28.12400000      12.68100000
 H       8.43400000      28.97100000      13.01700000
 H       9.32400000      27.94700000      12.32400000
 O       3.91200000      28.54900000      10.17300000
 H       4.77500000      28.80700000      10.59200000
 H       3.36200000      29.31600000      10.33300000
 O       9.84400000      29.52500000       7.41700000
 H       9.12500000      28.97800000       7.08500000
 H       9.99300000      28.86800000       8.08900000
 O       9.44700000      25.51100000      11.34900000
 H       9.29200000      25.37200000      12.23300000
 H       9.81200000      24.69300000      10.95600000
 O       6.51400000      26.69000000      11.39900000
 H       7.22600000      26.92100000      12.01000000
 H       6.93800000      26.72800000      10.44900000
 O       8.90500000      25.03800000       4.79900000
 H       9.74200000      25.31200000       5.33000000
 H       8.36800000      24.43200000       5.35400000
 O      10.34100000      22.38200000      13.15300000
 H       9.63200000      22.56400000      13.74900000
 H      11.18500000      22.90900000      13.54600000
 O       5.08300000      23.70900000       7.53100000
 H       4.43800000      23.85900000       6.80900000
 H       5.40000000      24.60400000       7.79400000
 O       8.11500000      30.20200000      14.17200000
 H       7.74300000      31.09500000      14.11300000
 H       8.97700000      30.27100000      14.63900000
 O       7.58900000      26.19800000      14.21700000
 H       7.77000000      26.98500000      13.69500000
 H       7.40600000      26.61200000      15.09400000
 O       1.25100000      25.93500000      11.36400000
 H       1.73800000      26.66400000      11.69100000
 H       1.79000000      25.15400000      11.56300000
 O       7.19700000      28.64700000       6.61500000
 H       6.38000000      28.37100000       7.03700000
 H       6.89700000      29.00600000       5.80200000
 O       2.74700000      24.05700000       6.06500000
 H       2.06400000      23.62600000       5.44200000
 H       2.20300000      24.31200000       6.83000000
 O       4.87200000      23.53400000      13.54900000
 H       4.57500000      24.08900000      14.35700000
 H       5.13300000      22.68800000      13.96800000
 O      10.32400000      28.00900000      14.50600000
 H      10.33700000      28.60000000      13.78600000
 H      11.14100000      27.47900000      14.56600000
 O       4.65200000      26.86200000       8.01600000
 H       4.11800000      27.27300000       8.69500000
 H       4.13200000      26.43700000       7.25000000
 O       6.08800000      23.67400000      11.82600000
 H       6.40800000      24.47500000      11.43100000
 H       5.94000000      23.80100000      12.81100000
 O       1.61100000      30.57700000       9.60400000
 H       1.59400000      30.94700000      10.48900000
 H       2.11200000      31.24500000       9.00100000
 O       2.48200000      29.53300000       5.27300000
 H       3.38000000      29.22900000       5.29400000
 H       2.32300000      29.53600000       4.29400000
 O       0.83200000      22.19700000      10.81200000
 H       1.12700000      21.26300000      10.69200000
 H       1.58900000      22.50900000      11.29300000
 O       8.92900000      23.73300000      14.23500000
 H       8.54000000      24.64300000      14.33900000
 H       8.68900000      23.33900000      15.10000000
 O       4.00600000      26.65700000      12.82000000
 H       3.94600000      27.35500000      12.10400000
 H       4.72500000      26.06600000      12.46600000
 O       2.07000000      28.22500000       7.51700000
 H       2.17000000      28.71900000       6.66400000
 H       2.70000000      28.49800000       8.10700000
 O       3.19400000      22.89700000      12.27500000
 H       3.58500000      23.07900000      13.24600000
 H       4.02700000      22.93100000      11.76200000
 O       6.16100000      29.73900000      11.83000000
 H       5.98100000      29.03700000      12.47500000
 H       7.11600000      29.80100000      11.52000000
 O       6.50100000      21.32400000      14.19000000
 H       7.31200000      21.89700000      14.13800000
 H       7.01500000      20.47100000      14.32800000
 O       2.76900000      25.81600000      14.26400000
 H       1.77800000      25.68200000      14.11400000
 H       3.10400000      26.30400000      13.45400000
 O       7.39000000      27.32100000       8.98100000
 H       6.50600000      27.09100000       8.51800000
 H       8.08200000      27.38800000       8.25400000
 O       1.99200000      29.83400000      14.22600000
 H       2.02000000      29.40000000      15.09900000
 H       2.15300000      29.02400000      13.73700000
 O       1.21100000      24.39900000       8.33100000
 H       0.56400000      23.80800000       8.69500000
 H       1.24600000      25.20100000       8.93800000
 O       9.81400000      26.34600000       7.67900000
 H       9.98000000      26.44500000       8.58400000
 H       9.23800000      25.57800000       7.67300000
 O       8.01800000      23.96300000       7.26200000
 H       7.11700000      23.56400000       7.14200000
 H       8.34700000      23.70800000       8.19400000
 O       8.49200000      20.89800000      11.10900000
 H       7.81800000      20.30500000      11.65300000
 H       8.78000000      21.55700000      11.73000000
 O       5.46400000      21.05500000      11.14600000
 H       6.21900000      20.75700000      10.63700000
 H       5.68300000      22.02400000      11.34700000
