138
XYZ file of cluster: frame_7000_a0910.21b2.2260c - created by MolEdiTo
 O      24.37100000       5.42600000       8.63200000
 H      24.71500000       5.49800000       9.54100000
 H      23.54300000       5.91800000       8.64400000
 O      28.38100000       1.73500000       4.60000000
 H      28.90900000       0.97400000       4.90900000
 H      28.10900000       2.13500000       5.48700000
 O      27.33100000       2.06600000       7.04800000
 H      26.39300000       2.24200000       6.83700000
 H      27.36000000       1.39200000       7.80400000
 O      21.72900000       7.16300000      11.27700000
 H      20.83500000       7.48000000      11.50300000
 H      22.05200000       7.93100000      10.83900000
 O      28.70600000       1.11000000      11.61900000
 H      29.45400000       1.78100000      11.27500000
 H      27.95200000       1.07100000      10.91900000
 O      29.76500000       3.90800000      15.93000000
 H      29.54100000       3.67300000      16.77400000
 H      28.91400000       3.58000000      15.51700000
 O      28.64400000       3.61100000      14.14300000
 H      29.32600000       2.87100000      13.80500000
 H      28.09500000       3.61000000      13.31000000
 O      23.45800000      10.31300000       6.55000000
 H      23.74200000       9.73300000       5.77000000
 H      22.52600000      10.60200000       6.43200000
 O      22.44300000       9.76300000       9.52800000
 H      21.54900000      10.07000000       9.80800000
 H      22.46300000       9.87100000       8.53700000
 O      29.46300000       8.01400000      12.42000000
 H      29.45200000       7.55100000      13.23500000
 H      28.92200000       7.43800000      11.87900000
 O      28.19000000       6.61700000       9.61800000
 H      28.72500000       7.13000000       8.96700000
 H      28.12000000       5.74700000       9.14200000
 O      26.96600000       9.39000000      13.67500000
 H      27.40300000      10.28100000      13.44700000
 H      27.75800000       8.82000000      13.72900000
 O      27.60900000       1.57200000       9.91800000
 H      27.50700000       2.51600000      10.09800000
 H      26.81000000       1.17100000      10.20100000
 O      24.02100000       9.33900000      15.08600000
 H      24.60700000       9.82100000      14.41700000
 H      23.53200000       8.68000000      14.53300000
 O      26.73100000       9.00000000       9.79800000
 H      26.46800000       8.93800000      10.70700000
 H      26.96700000       8.08800000       9.58800000
 O      27.16700000       4.91000000       6.03900000
 H      27.94500000       5.19000000       6.49500000
 H      27.16200000       3.91200000       6.15800000
 O      29.00400000       8.42300000      15.02900000
 H      28.86400000       7.59600000      14.51600000
 H      29.73400000       8.19400000      15.63400000
 O      22.80100000       5.11100000       6.22800000
 H      22.95300000       5.83300000       5.55300000
 H      23.59500000       5.13800000       6.90300000
 O      23.86000000       0.89300000       7.46000000
 H      24.08200000       1.78100000       7.02700000
 H      23.66600000       0.27200000       6.69600000
 O      26.62800000       1.80400000      12.92200000
 H      26.86200000       0.86300000      12.61100000
 H      26.33200000       2.18500000      12.03600000
 O      26.38300000       1.54300000      14.81300000
 H      26.38600000       1.56600000      13.79500000
 H      27.35100000       1.77700000      15.07900000
 O      24.41200000       3.22600000       6.09000000
 H      24.40000000       4.15300000       5.79200000
 H      23.79100000       2.75100000       5.43700000
 O      29.17100000       6.08400000      13.84600000
 H      28.51700000       6.21600000      13.05200000
 H      29.20500000       5.11200000      14.13400000
 O      23.54300000       5.33000000      14.95200000
 H      23.24300000       6.14700000      14.56200000
 H      23.20600000       5.45800000      15.90800000
 O      25.84700000       6.83100000       5.44600000
 H      25.77000000       5.87200000       5.59900000
 H      25.93600000       7.00400000       4.44600000
 O      21.48800000       4.87800000      12.13900000
 H      21.64000000       4.95300000      13.09900000
 H      21.80600000       5.75800000      11.76300000
 O      24.04600000       2.91100000      11.24500000
 H      23.17100000       3.39200000      11.01600000
 H      24.56500000       3.49000000      11.81600000
 O      25.30200000       5.68800000      11.48100000
 H      24.86200000       4.98900000      11.99400000
 H      24.77100000       6.53100000      11.51500000
 O      29.52800000      10.20200000      10.96600000
 H      28.68300000       9.80900000      10.61100000
 H      29.91800000       9.39500000      11.31400000
 O      26.13800000       4.95700000      15.56700000
 H      25.28500000       5.40500000      15.29400000
 H      25.81100000       4.01200000      15.81600000
 O      22.61500000       7.24600000      13.16300000
 H      22.18400000       7.51800000      12.28600000
 H      21.85500000       7.07500000      13.76400000
 O      30.69400000       3.00700000      11.21700000
 H      31.11000000       3.61000000      10.56200000
 H      30.84500000       3.45200000      12.11900000
 O      26.97700000       4.73200000      10.39100000
 H      26.46500000       5.29100000      11.01600000
 H      26.65300000       5.02000000       9.58100000
 O      30.30100000       3.17400000       4.64400000
 H      30.55100000       2.45500000       5.29700000
 H      29.33000000       2.89500000       4.50500000
 O      22.06700000      10.37500000      12.90400000
 H      22.96800000      10.69900000      12.89900000
 H      21.67500000      10.68300000      13.75900000
 O      22.32900000       1.85900000      16.27400000
 H      22.44100000       1.51700000      15.38500000
 H      22.33400000       2.83900000      16.15000000
 O      25.00300000       4.42000000      13.30000000
 H      25.46400000       4.72300000      14.12300000
 H      24.29600000       3.80800000      13.59200000
 O      21.62900000      11.10700000      15.45600000
 H      22.09300000      11.98800000      15.43800000
 H      22.35600000      10.42900000      15.73800000
 O      22.84000000       2.68100000      13.48600000
 H      23.11100000       1.98900000      12.84500000
 H      21.89000000       2.75700000      13.51700000
 O      27.58300000       8.72800000       7.09000000
 H      26.99900000       8.11400000       6.58900000
 H      27.08500000       9.13500000       7.86900000
 O      27.71500000       6.73000000      12.32700000
 H      28.01000000       6.36400000      11.47100000
 H      26.73000000       6.92700000      12.30000000
 O      25.10300000       8.27400000      12.01300000
 H      24.36000000       8.64700000      11.55400000
 H      24.75300000       8.15700000      12.88900000
 O      28.28600000       5.64700000       7.63600000
 H      28.71300000       4.76100000       7.39700000
 H      28.81000000       6.37500000       7.27200000
 O      29.48400000       1.47500000      13.88200000
 H      30.48300000       1.69400000      13.94500000
 H      29.47300000       0.89200000      13.14700000
 O      29.02300000       7.99400000       7.97600000
 H      28.26100000       8.22600000       7.40300000
 H      29.56000000       8.82300000       7.97300000
 O      21.51100000       3.66600000       5.14700000
 H      22.16900000       4.30400000       5.53300000
 H      20.76100000       3.75700000       5.75400000
