102
XYZ file of cluster: frame_7000_51312.c2dc4.2738 - created by MolEdiTo
 O      17.17900000      30.08500000       3.57000000
 H      16.77800000      29.18500000       3.27500000
 H      17.96100000      30.24300000       2.93800000
 O      18.16300000      28.51300000      10.24000000
 H      18.55600000      29.31400000       9.76400000
 H      17.61800000      28.96400000      10.95100000
 O      19.59900000      27.40600000       6.93000000
 H      20.07700000      27.34300000       6.11200000
 H      19.02100000      26.59600000       6.87400000
 O      12.57700000      30.61800000       8.78600000
 H      12.51900000      29.65500000       9.06300000
 H      12.26700000      31.19800000       9.50900000
 O      15.50900000      26.23200000       6.70000000
 H      15.71400000      27.19600000       6.63900000
 H      16.28400000      25.71900000       6.34800000
 O      18.17600000      25.42500000       1.29500000
 H      17.76700000      26.29000000       1.40100000
 H      18.15300000      25.16800000       0.31700000
 O      19.43200000      26.16800000       9.35600000
 H      19.55600000      26.72300000       8.50700000
 H      19.36100000      26.81200000      10.10100000
 O      10.62100000      28.99400000       3.58300000
 H      10.49800000      28.75500000       4.53700000
 H      11.43700000      29.60500000       3.72000000
 O      12.66200000      30.36400000       3.80700000
 H      13.09400000      30.63100000       2.91700000
 H      13.43500000      30.19900000       4.33400000
 O      17.43200000      29.60500000       7.65700000
 H      18.11200000      29.89900000       7.09900000
 H      17.79500000      28.94500000       8.21800000
 O      19.01800000      30.59500000       1.84700000
 H      19.09900000      29.76900000       1.23600000
 H      19.84000000      30.39500000       2.34700000
 O      15.38000000      29.26300000       5.78100000
 H      15.77000000      29.54500000       4.84200000
 H      16.12100000      29.41100000       6.43500000
 O      19.31500000      30.52000000       5.87700000
 H      19.70300000      30.15000000       5.04200000
 H      18.73800000      31.19500000       5.64200000
 O      14.49000000      27.22400000       2.84100000
 H      13.73700000      26.63800000       2.54100000
 H      14.54200000      27.23900000       3.77600000
 O      15.54700000      27.06800000      11.10100000
 H      15.93900000      27.38900000      10.24500000
 H      15.26100000      26.15600000      10.82500000
 O      14.61700000      35.78900000       6.19200000
 H      14.16000000      36.57100000       5.79300000
 H      13.95000000      35.19700000       6.62300000
 O      11.04200000      33.07200000       1.36400000
 H      10.93800000      33.21200000       2.35000000
 H      11.86400000      33.53400000       1.26700000
 O      20.28600000      36.27900000       2.71000000
 H      21.00600000      35.72000000       3.08900000
 H      19.61300000      36.48800000       3.41400000
 O      12.30600000      37.68100000       5.37400000
 H      12.31100000      36.74700000       5.00100000
 H      11.80600000      38.00900000       4.56900000
 O      15.24600000      33.38900000       8.06300000
 H      15.45600000      32.52300000       7.59000000
 H      14.64500000      33.02600000       8.77900000
 O      11.73600000      33.99600000       6.41500000
 H      12.33800000      33.56900000       5.65200000
 H      11.98700000      33.61300000       7.25100000
 O      12.18400000      36.88000000       8.72900000
 H      12.81300000      37.15300000       8.01200000
 H      12.63200000      36.33800000       9.39400000
 O      19.91200000      37.06800000       9.14800000
 H      18.99000000      37.04200000       8.85900000
 H      20.24900000      36.19500000       8.69600000
 O      12.22000000      35.24300000       3.63100000
 H      12.49000000      35.79400000       2.88600000
 H      11.31800000      34.93200000       3.63700000
 O      18.24200000      34.59800000       5.65000000
 H      18.31100000      35.58900000       5.40700000
 H      17.51800000      34.61600000       6.29800000
 O      17.13700000      35.22100000       1.85300000
 H      17.35300000      35.38700000       2.79700000
 H      17.61500000      34.42500000       1.50600000
 O      14.12200000      33.05600000       1.17800000
 H      14.07200000      32.31900000       0.48600000
 H      15.04800000      32.92600000       1.48600000
 O      19.90900000      34.02400000       8.83900000
 H      19.76600000      33.16800000       8.48700000
 H      20.75000000      33.77500000       9.17500000
 O      13.86100000      35.98400000       1.48000000
 H      14.16500000      35.12100000       1.70500000
 H      14.73500000      36.40800000       1.56600000
 O      15.55000000      33.69200000       4.10200000
 H      16.46200000      33.44800000       4.49900000
 H      15.14600000      34.45700000       4.58200000
 O      17.02000000      37.05800000       8.18100000
 H      16.11900000      36.71800000       8.47400000
 H      16.86400000      37.73100000       7.52200000
 O      14.73200000      36.04900000       9.57900000
 H      14.39200000      35.70400000      10.44300000
 H      14.86700000      35.20100000       9.02400000
 O      18.39300000      36.50700000       4.67100000
 H      17.58800000      36.92800000       5.06600000
 H      19.12600000      37.09100000       4.97100000
 O      21.51100000      35.19900000       5.14700000
 H      22.16900000      35.83700000       5.53300000
 H      20.76100000      35.29000000       5.75400000
