144
XYZ file of cluster: frame_7000_9e68a.1f100.2260c - created by MolEdiTo
 O      20.97200000      12.66000000       6.00700000
 H      21.26200000      12.25900000       5.23500000
 H      20.70400000      13.54200000       5.71900000
 O      24.37100000       5.42600000       8.63200000
 H      24.71500000       5.49800000       9.54100000
 H      23.54300000       5.91800000       8.64400000
 O      29.13800000      11.83300000      14.06100000
 H      29.78200000      11.70200000      13.33400000
 H      28.28800000      11.83000000      13.59100000
 O      29.22500000      14.81900000      11.19300000
 H      28.56100000      14.31600000      10.66600000
 H      28.97600000      14.77700000      12.13200000
 O      21.72900000       7.16300000      11.27700000
 H      20.83500000       7.48000000      11.50300000
 H      22.05200000       7.93100000      10.83900000
 O      25.70500000      13.15000000       7.96700000
 H      25.91100000      13.40500000       8.88900000
 H      24.78900000      12.89000000       8.02700000
 O      24.59800000      11.39300000      10.77200000
 H      24.31900000      12.30900000      11.06500000
 H      23.76600000      10.90700000      10.45100000
 O      23.45800000      10.31300000       6.55000000
 H      23.74200000       9.73300000       5.77000000
 H      22.52600000      10.60200000       6.43200000
 O      22.44300000       9.76300000       9.52800000
 H      21.54900000      10.07000000       9.80800000
 H      22.46300000       9.87100000       8.53700000
 O      29.46300000       8.01400000      12.42000000
 H      29.45200000       7.55100000      13.23500000
 H      28.92200000       7.43800000      11.87900000
 O      21.91900000      13.93500000      14.93900000
 H      21.50600000      14.72400000      15.30400000
 H      22.59400000      13.66400000      15.58700000
 O      26.96600000       9.39000000      13.67500000
 H      27.40300000      10.28100000      13.44700000
 H      27.75800000       8.82000000      13.72900000
 O      28.96200000      15.02200000      12.93400000
 H      29.50300000      14.23700000      13.20200000
 H      29.15400000      15.72600000      13.60500000
 O      24.02100000       9.33900000      15.08600000
 H      24.60700000       9.82100000      14.41700000
 H      23.53200000       8.68000000      14.53300000
 O      26.73100000       9.00000000       9.79800000
 H      26.46800000       8.93800000      10.70700000
 H      26.96700000       8.08800000       9.58800000
 O      29.73700000      15.98400000       6.92800000
 H      29.16000000      16.18100000       6.18900000
 H      29.09900000      15.37400000       7.28600000
 O      28.19000000       6.61700000       9.61800000
 H      28.72500000       7.13000000       8.96700000
 H      28.12000000       5.74700000       9.14200000
 O      22.12500000      16.18900000      13.05100000
 H      22.05500000      15.26900000      13.43100000
 H      21.19000000      16.48700000      13.25000000
 O      29.00400000       8.42300000      15.02900000
 H      28.86400000       7.59600000      14.51600000
 H      29.73400000       8.19400000      15.63400000
 O      22.80100000       5.11100000       6.22800000
 H      22.95300000       5.83300000       5.55300000
 H      23.59500000       5.13800000       6.90300000
 O      30.51200000      15.23400000      14.92900000
 H      31.22200000      15.72400000      15.40600000
 H      31.04900000      14.49600000      14.56200000
 O      29.17100000       6.08400000      13.84600000
 H      28.51700000       6.21600000      13.05200000
 H      29.20500000       5.11200000      14.13400000
 O      23.54300000       5.33000000      14.95200000
 H      23.24300000       6.14700000      14.56200000
 H      23.20600000       5.45800000      15.90800000
 O      25.84700000       6.83100000       5.44600000
 H      25.77000000       5.87200000       5.59900000
 H      25.93600000       7.00400000       4.44600000
 O      24.73700000      13.88600000      12.20400000
 H      23.79700000      14.03100000      11.85000000
 H      24.94500000      14.84600000      12.39800000
 O      21.07400000      12.47200000       8.76600000
 H      20.48200000      11.81800000       9.06000000
 H      20.95900000      12.68300000       7.81500000
 O      21.48800000       4.87800000      12.13900000
 H      21.64000000       4.95300000      13.09900000
 H      21.80600000       5.75800000      11.76300000
 O      24.40300000      16.60900000       6.80700000
 H      24.29300000      15.68500000       7.02700000
 H      25.21400000      16.93300000       7.35000000
 O      27.44400000      12.75500000      14.79600000
 H      28.12100000      12.24300000      15.29800000
 H      27.77900000      12.45900000      13.88700000
 O      25.30200000       5.68800000      11.48100000
 H      24.86200000       4.98900000      11.99400000
 H      24.77100000       6.53100000      11.51500000
 O      29.52800000      10.20200000      10.96600000
 H      28.68300000       9.80900000      10.61100000
 H      29.91800000       9.39500000      11.31400000
 O      26.13800000       4.95700000      15.56700000
 H      25.28500000       5.40500000      15.29400000
 H      25.81100000       4.01200000      15.81600000
 O      22.61500000       7.24600000      13.16300000
 H      22.18400000       7.51800000      12.28600000
 H      21.85500000       7.07500000      13.76400000
 O      26.97700000       4.73200000      10.39100000
 H      26.46500000       5.29100000      11.01600000
 H      26.65300000       5.02000000       9.58100000
 O      27.77700000      11.73700000      12.69500000
 H      28.12300000      11.11000000      11.98800000
 H      26.88500000      11.92100000      12.37000000
 O      26.82100000      13.25500000      10.55900000
 H      26.35800000      13.92400000      11.09800000
 H      26.22600000      12.49000000      10.67600000
 O      22.06700000      10.37500000      12.90400000
 H      22.96800000      10.69900000      12.89900000
 H      21.67500000      10.68300000      13.75900000
 O      21.62900000      11.10700000      15.45600000
 H      22.09300000      11.98800000      15.43800000
 H      22.35600000      10.42900000      15.73800000
 O      24.64600000      12.19200000      13.68800000
 H      25.50600000      12.18700000      14.14900000
 H      24.86800000      12.65600000      12.85000000
 O      29.00800000      13.94900000       7.76100000
 H      28.13100000      13.52200000       7.81900000
 H      29.53500000      13.31800000       8.30700000
 O      27.58300000       8.72800000       7.09000000
 H      26.99900000       8.11400000       6.58900000
 H      27.08500000       9.13500000       7.86900000
 O      27.71500000       6.73000000      12.32700000
 H      28.01000000       6.36400000      11.47100000
 H      26.73000000       6.92700000      12.30000000
 O      25.10300000       8.27400000      12.01300000
 H      24.36000000       8.64700000      11.55400000
 H      24.75300000       8.15700000      12.88900000
 O      28.28600000       5.64700000       7.63600000
 H      28.71300000       4.76100000       7.39700000
 H      28.81000000       6.37500000       7.27200000
 O      22.19500000      13.75700000      11.02900000
 H      22.07500000      14.55900000      10.39100000
 H      21.61900000      13.08100000      10.55200000
 O      29.18500000      12.39600000       5.42100000
 H      29.29000000      13.08600000       6.08800000
 H      28.40500000      11.80900000       5.69600000
 O      29.02300000       7.99400000       7.97600000
 H      28.26100000       8.22600000       7.40300000
 H      29.56000000       8.82300000       7.97300000
 O      29.70100000      10.60000000       8.04300000
 H      30.62700000      10.88600000       8.01700000
 H      29.28500000      11.08700000       8.79500000
