175
XYZ file of cluster: frame_7000_667dd.1f100.47e13 - created by MolEdiTo
 O      19.70200000      14.39200000      18.60100000
 H      19.56200000      14.67100000      19.52800000
 H      19.07500000      15.00600000      18.17600000
 O      15.24600000      10.67000000      15.68000000
 H      15.01300000      10.75300000      16.69500000
 H      16.02700000      11.22900000      15.54900000
 O      24.04900000      13.21500000      21.69400000
 H      24.95000000      12.90000000      21.95500000
 H      24.22300000      13.86700000      20.92800000
 O      21.72900000       7.16300000      11.27700000
 H      20.83500000       7.48000000      11.50300000
 H      22.05200000       7.93100000      10.83900000
 O      15.11000000      12.35600000      20.09600000
 H      15.85600000      12.91600000      19.56700000
 H      14.92500000      12.85100000      20.89100000
 O      24.74000000      13.82600000      19.14100000
 H      23.76800000      13.69600000      19.30100000
 H      24.72500000      13.48100000      18.20800000
 O      18.31100000       6.75800000      17.36200000
 H      18.03500000       5.90900000      17.02800000
 H      18.35100000       7.35900000      16.56900000
 O      17.57200000       7.53700000      20.21300000
 H      17.85600000       8.15900000      19.51500000
 H      16.66700000       7.46800000      19.91300000
 O      18.56800000      10.59800000      13.46300000
 H      18.02200000      10.12500000      12.83000000
 H      18.37500000      10.17500000      14.30500000
 O      24.59800000      11.39300000      10.77200000
 H      24.31900000      12.30900000      11.06500000
 H      23.76600000      10.90700000      10.45100000
 O      15.16400000      12.02700000       9.70000000
 H      15.04700000      12.43900000      10.62200000
 H      15.85400000      12.58800000       9.29600000
 O      19.82500000      13.26600000      13.54700000
 H      20.73000000      13.57500000      13.87100000
 H      19.79200000      12.34900000      13.90300000
 O      16.72500000       8.31700000      14.56500000
 H      16.38600000       9.13900000      15.10600000
 H      16.13200000       8.36900000      13.72100000
 O      16.12100000       5.54200000      11.36400000
 H      16.01500000       5.30800000      10.46600000
 H      17.12400000       5.76800000      11.36300000
 O      21.91900000      13.93500000      14.93900000
 H      21.50600000      14.72400000      15.30400000
 H      22.59400000      13.66400000      15.58700000
 O      25.69100000       9.69400000      17.23700000
 H      25.31600000       9.48900000      16.35900000
 H      25.27300000       8.98200000      17.84100000
 O      22.90800000       5.88400000      19.89200000
 H      22.00500000       6.08700000      20.19900000
 H      23.45400000       5.65800000      20.67300000
 O      22.28600000      13.49800000      17.53000000
 H      21.68400000      14.22400000      17.65000000
 H      21.68000000      12.79100000      17.63400000
 O      18.72300000       5.09400000      11.39200000
 H      19.31800000       5.03500000      10.59500000
 H      19.05000000       5.90600000      11.87600000
 O      24.02100000       9.33900000      15.08600000
 H      24.60700000       9.82100000      14.41700000
 H      23.53200000       8.68000000      14.53300000
 O      17.95200000      12.98700000      11.41600000
 H      17.82500000      13.80300000      10.83200000
 H      18.55500000      13.22200000      12.14100000
 O      20.91600000       7.16900000      15.55100000
 H      20.95100000       7.64600000      16.41100000
 H      20.36900000       6.40300000      15.64900000
 O      16.03300000       5.21400000      19.02800000
 H      16.95600000       5.43000000      18.72800000
 H      15.68200000       6.15100000      19.28900000
 O      25.19400000       7.70500000      18.98900000
 H      24.72500000       6.86400000      18.79900000
 H      25.04800000       7.84300000      19.93900000
 O      19.54500000       5.80800000      20.40200000
 H      18.74700000       6.40300000      20.46400000
 H      19.35500000       5.08200000      19.70800000
 O      16.92300000      13.22900000      18.17100000
 H      17.93500000      13.07800000      18.00400000
 H      16.51900000      13.15800000      17.25700000
 O      22.12500000      16.18900000      13.05100000
 H      22.05500000      15.26900000      13.43100000
 H      21.19000000      16.48700000      13.25000000
 O      19.90200000       8.93200000      12.11100000
 H      20.29100000       9.59700000      12.72100000
 H      19.24300000       9.46000000      11.58700000
 O      16.65100000      10.26200000      11.05700000
 H      15.97200000      10.66500000      10.41000000
 H      17.16900000      11.01400000      11.18800000
 O      18.17200000      12.93400000      20.92400000
 H      18.79000000      12.62200000      20.26000000
 H      18.37300000      12.21900000      21.57200000
 O      23.54300000       5.33000000      14.95200000
 H      23.24300000       6.14700000      14.56200000
 H      23.20600000       5.45800000      15.90800000
 O      24.76200000      12.33600000      16.50200000
 H      23.92500000      12.13700000      16.97600000
 H      25.29400000      11.53200000      16.53300000
 O      24.73700000      13.88600000      12.20400000
 H      23.79700000      14.03100000      11.85000000
 H      24.94500000      14.84600000      12.39800000
 O      21.48800000       4.87800000      12.13900000
 H      21.64000000       4.95300000      13.09900000
 H      21.80600000       5.75800000      11.76300000
 O      18.49000000      12.67000000      15.57900000
 H      18.13800000      13.12200000      14.77900000
 H      19.48200000      12.49800000      15.34600000
 O      21.65300000       8.52500000      18.54900000
 H      22.62400000       8.76000000      18.58400000
 H      21.45600000       8.48300000      19.50800000
 O      22.02600000       5.33700000      17.40700000
 H      21.73500000       6.27900000      17.62700000
 H      22.43700000       4.93200000      18.23700000
 O      25.30200000       5.68800000      11.48100000
 H      24.86200000       4.98900000      11.99400000
 H      24.77100000       6.53100000      11.51500000
 O      26.13800000       4.95700000      15.56700000
 H      25.28500000       5.40500000      15.29400000
 H      25.81100000       4.01200000      15.81600000
 O      17.47500000       5.56000000      15.03700000
 H      17.48000000       4.69500000      14.61700000
 H      16.56200000       5.63000000      15.36400000
 O      22.61500000       7.24600000      13.16300000
 H      22.18400000       7.51800000      12.28600000
 H      21.85500000       7.07500000      13.76400000
 C      17.08700000      16.56700000      16.70000000
 C      15.51300000      16.54500000      16.72900000
 C      15.22100000      14.99700000      14.63200000
 H      15.55300000      17.13200000      14.59900000
 H      16.93700000      15.97200000      18.42700000
 O      13.59600000      16.80000000      15.18600000
 O      17.81200000      16.78500000      15.76700000
 O      17.67100000      16.23400000      17.83400000
 C      14.99400000      16.41700000      15.23400000
 O      14.95200000      15.51500000      17.52100000
 H      15.24700000      17.59300000      16.96400000
 O      14.63800000      13.95800000      14.91600000
 O      16.30600000      15.01200000      13.81000000
 H      16.48700000      15.93100000      13.71900000
 H      13.94200000      15.48400000      17.43500000
 H      13.25200000      16.80400000      14.25600000
 O      18.98000000      16.16700000      12.79400000
 H      17.99500000      16.48600000      12.88400000
 H      19.03100000      15.22000000      13.23400000
 O      26.82100000      13.25500000      10.55900000
 H      26.35800000      13.92400000      11.09800000
 H      26.22600000      12.49000000      10.67600000
 O      22.06700000      10.37500000      12.90400000
 H      22.96800000      10.69900000      12.89900000
 H      21.67500000      10.68300000      13.75900000
 O      21.62900000      11.10700000      15.45600000
 H      22.09300000      11.98800000      15.43800000
 H      22.35600000      10.42900000      15.73800000
 O      24.64600000      12.19200000      13.68800000
 H      25.50600000      12.18700000      14.14900000
 H      24.86800000      12.65600000      12.85000000
 O      19.37900000       6.47900000      13.66700000
 H      19.32800000       7.40900000      13.32800000
 H      18.70300000       6.34100000      14.37800000
 O      23.82300000      10.60300000      19.77300000
 H      24.70300000      10.98300000      20.04900000
 H      23.35300000      10.33400000      20.57900000
 O      25.93700000       5.11100000      18.69600000
 H      26.86400000       5.36700000      18.34700000
 H      25.45400000       4.53200000      18.08800000
 O      25.10300000       8.27400000      12.01300000
 H      24.36000000       8.64700000      11.55400000
 H      24.75300000       8.15700000      12.88900000
 O      15.60800000       8.41500000      12.88700000
 H      15.46600000       7.51200000      12.54300000
 H      15.89100000       8.94500000      12.06500000
 O      19.04500000      10.09300000      16.88600000
 H      19.48000000      10.62200000      16.18600000
 H      19.61100000       9.40700000      17.29200000
 O      22.19500000      13.75700000      11.02900000
 H      22.07500000      14.55900000      10.39100000
 H      21.61900000      13.08100000      10.55200000
