138
XYZ file of cluster: frame_7000_c5a2c.4c889.4bec8 - created by MolEdiTo
 O      29.13800000      11.83300000      14.06100000
 H      29.78200000      11.70200000      13.33400000
 H      28.28800000      11.83000000      13.59100000
 O      29.22500000      14.81900000      11.19300000
 H      28.56100000      14.31600000      10.66600000
 H      28.97600000      14.77700000      12.13200000
 O      26.39500000      16.47400000      19.25200000
 H      25.55400000      16.22300000      18.85400000
 H      27.04400000      15.96100000      18.82300000
 O      27.98900000      15.29200000      16.57500000
 H      27.42500000      14.74000000      15.96700000
 H      28.73700000      14.64900000      16.90900000
 O      29.97400000      15.66500000      18.45500000
 H      30.69800000      15.25300000      17.91500000
 H      29.41500000      14.88800000      18.67800000
 O      28.96600000      19.40300000      12.09100000
 H      29.80700000      19.23200000      11.64000000
 H      28.88700000      20.41800000      12.12300000
 O      27.59600000      21.86900000      10.44800000
 H      27.44600000      20.92800000      10.68200000
 H      28.59600000      21.98700000      10.33500000
 O      28.96200000      15.02200000      12.93400000
 H      29.50300000      14.23700000      13.20200000
 H      29.15400000      15.72600000      13.60500000
 O      27.12500000      12.53800000      21.82900000
 H      27.86900000      11.92000000      21.95500000
 H      27.01600000      12.77600000      20.92700000
 O      30.51200000      15.23400000      14.92900000
 H      31.22200000      15.72400000      15.40600000
 H      31.04900000      14.49600000      14.56200000
 O      27.53700000      12.28700000      18.75800000
 H      27.81300000      11.66500000      18.05900000
 H      26.89600000      12.83000000      18.32400000
 O      29.16500000      12.92400000      19.92100000
 H      28.33000000      12.83900000      19.34400000
 H      29.13200000      12.09700000      20.36300000
 O      28.46000000      16.83100000      14.99000000
 H      29.20200000      16.12200000      15.14900000
 H      27.77100000      16.54300000      15.69400000
 O      27.44400000      12.75500000      14.79600000
 H      28.12100000      12.24300000      15.29800000
 H      27.77900000      12.45900000      13.88700000
 O      27.52700000      19.22500000      15.57700000
 H      28.00400000      19.07200000      16.38800000
 H      28.01800000      18.78600000      14.83500000
 O      26.82100000      13.25500000      10.55900000
 H      26.35800000      13.92400000      11.09800000
 H      26.22600000      12.49000000      10.67600000
 O      27.77700000      11.73700000      12.69500000
 H      28.12300000      11.11000000      11.98800000
 H      26.88500000      11.92100000      12.37000000
 O      29.61100000      17.91400000      21.43200000
 H      30.43200000      17.76300000      20.83900000
 H      28.94600000      17.21700000      21.14700000
 O      27.74900000      17.38700000      12.14700000
 H      28.49100000      16.89000000      11.66200000
 H      28.12000000      18.23300000      12.22200000
 O      29.12700000      18.03400000      18.37600000
 H      28.33500000      17.68600000      18.99300000
 H      29.50000000      17.23300000      17.91800000
 O      28.90200000      20.64000000      19.51300000
 H      27.96400000      20.94600000      19.40900000
 H      28.75000000      19.76700000      19.23400000
 O      30.31300000      19.92900000      16.92100000
 H      29.78200000      20.19600000      16.07000000
 H      29.77300000      20.32800000      17.66100000
 O      29.67600000      18.82600000      13.80300000
 H      29.16900000      18.01400000      14.26200000
 H      29.65500000      18.73400000      12.84500000
 O      28.65100000      13.11100000      16.76800000
 H      28.33200000      12.20300000      16.98100000
 H      29.41500000      12.86800000      16.20100000
 O      36.02600000      13.28500000      10.60300000
 H      35.29100000      12.91900000      10.12500000
 H      35.91500000      14.26800000      10.85100000
 O      35.01200000      10.84900000      21.32700000
 H      34.38100000      10.23300000      21.77200000
 H      34.50100000      11.53400000      20.83400000
 O      33.14600000      13.07800000      16.72900000
 H      34.08100000      13.16900000      16.53900000
 H      32.80800000      12.17900000      16.50200000
 O      35.10100000      13.47000000      13.53100000
 H      35.95400000      13.11600000      13.15100000
 H      35.41000000      14.09300000      14.25500000
 O      33.50200000      20.32500000      13.07600000
 H      32.65000000      20.07500000      13.53400000
 H      34.21400000      20.18100000      13.73500000
 O      35.58600000      18.76700000      12.00600000
 H      34.88100000      19.15500000      12.46300000
 H      36.10900000      19.45000000      11.52800000
 O      34.51900000      19.87800000      19.05700000
 H      35.19200000      19.63100000      19.75400000
 H      33.79800000      19.27900000      19.27400000
 O      33.44000000      17.35000000      19.53900000
 H      32.83800000      16.58500000      19.59500000
 H      33.82000000      17.28500000      18.59200000
 O      36.71500000      14.97300000      15.31200000
 H      36.46400000      15.56400000      14.63900000
 H      36.76500000      15.54800000      16.07900000
 O      34.97500000      16.59800000      14.11900000
 H      35.10000000      16.06000000      13.35200000
 H      34.43100000      17.28800000      13.79500000
 O      35.61500000      19.69800000      14.61100000
 H      35.75100000      20.10400000      15.53900000
 H      36.19000000      20.30700000      14.10400000
 O      33.80700000      17.49700000      16.50900000
 H      33.24700000      18.28800000      16.59300000
 H      34.64900000      17.98400000      16.36100000
 O      34.83700000      15.29100000      21.35100000
 H      35.31800000      15.91100000      20.76000000
 H      34.79600000      14.48300000      20.74600000
 O      36.14200000      12.50700000      17.76500000
 H      36.98000000      12.97200000      17.40000000
 H      36.27500000      12.67200000      18.76200000
 O      36.68900000      17.79700000      16.47600000
 H      37.67500000      17.86800000      16.49000000
 H      36.53500000      18.15900000      15.59200000
 O      36.63900000      11.11100000      15.15800000
 H      36.15200000      11.43600000      15.98600000
 H      37.51500000      10.88200000      15.56800000
 O      36.42100000      20.56700000      17.05500000
 H      35.72900000      20.44000000      17.72500000
 H      37.07300000      21.01700000      17.66600000
 O      36.28000000      16.17200000      11.44600000
 H      37.25000000      16.01100000      11.21400000
 H      36.30100000      17.04800000      11.93600000
 O      33.88300000      10.88700000      10.04100000
 H      33.13200000      10.92900000      10.70400000
 H      33.85600000       9.88500000       9.81900000
 O      33.83000000      13.03900000      19.81200000
 H      32.82200000      13.19500000      19.93700000
 H      34.00700000      13.15800000      18.82900000
 O      33.31600000      14.38900000      11.98800000
 H      32.35000000      14.38600000      12.16900000
 H      33.75900000      14.15500000      12.83100000
 O      36.35700000      16.10600000      18.89900000
 H      35.90000000      16.38800000      18.13100000
 H      37.30100000      16.08100000      18.53500000
