141
XYZ file of cluster: frame_7000_cad54.4a932.2437e - created by MolEdiTo
 O      29.13800000      11.83300000      14.06100000
 H      29.78200000      11.70200000      13.33400000
 H      28.28800000      11.83000000      13.59100000
 O      29.22500000      14.81900000      11.19300000
 H      28.56100000      14.31600000      10.66600000
 H      28.97600000      14.77700000      12.13200000
 O      28.96600000      19.40300000      12.09100000
 H      29.80700000      19.23200000      11.64000000
 H      28.88700000      20.41800000      12.12300000
 O      27.59600000      21.86900000      10.44800000
 H      27.44600000      20.92800000      10.68200000
 H      28.59600000      21.98700000      10.33500000
 O      28.96200000      15.02200000      12.93400000
 H      29.50300000      14.23700000      13.20200000
 H      29.15400000      15.72600000      13.60500000
 O      29.73700000      15.98400000       6.92800000
 H      29.16000000      16.18100000       6.18900000
 H      29.09900000      15.37400000       7.28600000
 O      30.51200000      15.23400000      14.92900000
 H      31.22200000      15.72400000      15.40600000
 H      31.04900000      14.49600000      14.56200000
 O      28.46000000      16.83100000      14.99000000
 H      29.20200000      16.12200000      15.14900000
 H      27.77100000      16.54300000      15.69400000
 O      27.44400000      12.75500000      14.79600000
 H      28.12100000      12.24300000      15.29800000
 H      27.77900000      12.45900000      13.88700000
 O      27.75600000      17.64400000       5.99900000
 H      28.20100000      17.90900000       5.09500000
 H      26.91000000      17.16200000       5.95600000
 O      27.52700000      19.22500000      15.57700000
 H      28.00400000      19.07200000      16.38800000
 H      28.01800000      18.78600000      14.83500000
 O      26.82100000      13.25500000      10.55900000
 H      26.35800000      13.92400000      11.09800000
 H      26.22600000      12.49000000      10.67600000
 O      27.77700000      11.73700000      12.69500000
 H      28.12300000      11.11000000      11.98800000
 H      26.88500000      11.92100000      12.37000000
 O      28.67100000      20.84200000       8.85300000
 H      29.02600000      20.15900000       8.21000000
 H      29.50200000      21.15300000       9.32700000
 O      29.00800000      13.94900000       7.76100000
 H      28.13100000      13.52200000       7.81900000
 H      29.53500000      13.31800000       8.30700000
 O      27.74900000      17.38700000      12.14700000
 H      28.49100000      16.89000000      11.66200000
 H      28.12000000      18.23300000      12.22200000
 O      26.58600000      16.62600000       8.40200000
 H      27.33300000      16.26900000       8.96800000
 H      26.84800000      17.49200000       8.01900000
 O      28.43700000      17.30200000       9.22700000
 H      29.19300000      17.10300000       8.63500000
 H      28.81500000      17.77400000       9.99400000
 O      27.34500000      19.33000000       8.89700000
 H      27.88800000      20.12200000       8.61800000
 H      28.14000000      18.68800000       8.88600000
 O      29.55100000      19.69900000       6.48500000
 H      28.91000000      19.13900000       5.94700000
 H      30.42400000      19.22700000       6.23400000
 O      29.18500000      12.39600000       5.42100000
 H      29.29000000      13.08600000       6.08800000
 H      28.40500000      11.80900000       5.69600000
 O      29.67600000      18.82600000      13.80300000
 H      29.16900000      18.01400000      14.26200000
 H      29.65500000      18.73400000      12.84500000
 O      29.70100000      10.60000000       8.04300000
 H      30.62700000      10.88600000       8.01700000
 H      29.28500000      11.08700000       8.79500000
 O      32.39000000      13.39000000       9.24100000
 H      32.09500000      14.23300000       9.62800000
 H      32.89800000      12.94100000       9.88000000
 O      34.79300000      20.50700000       9.74300000
 H      34.82800000      20.86000000       8.80600000
 H      35.52500000      20.93500000      10.21700000
 O      36.02600000      13.28500000      10.60300000
 H      35.29100000      12.91900000      10.12500000
 H      35.91500000      14.26800000      10.85100000
 O      35.10100000      13.47000000      13.53100000
 H      35.95400000      13.11600000      13.15100000
 H      35.41000000      14.09300000      14.25500000
 O      33.50200000      20.32500000      13.07600000
 H      32.65000000      20.07500000      13.53400000
 H      34.21400000      20.18100000      13.73500000
 O      35.58600000      18.76700000      12.00600000
 H      34.88100000      19.15500000      12.46300000
 H      36.10900000      19.45000000      11.52800000
 O      32.51100000      19.08400000      10.26500000
 H      33.32600000      19.56000000      10.32800000
 H      32.78900000      18.11300000      10.13200000
 O      36.38800000      13.67900000       7.04400000
 H      35.48000000      13.41900000       6.91900000
 H      36.29800000      14.51600000       7.58300000
 O      36.71500000      14.97300000      15.31200000
 H      36.46400000      15.56400000      14.63900000
 H      36.76500000      15.54800000      16.07900000
 O      32.60400000      13.45800000       6.31900000
 H      33.12700000      14.25100000       6.02700000
 H      32.34300000      13.73200000       7.19100000
 O      35.14400000      19.89600000       6.79200000
 H      35.44300000      20.10600000       7.70800000
 H      34.70500000      19.10600000       6.92700000
 O      34.97500000      16.59800000      14.11900000
 H      35.10000000      16.06000000      13.35200000
 H      34.43100000      17.28800000      13.79500000
 O      34.14100000      15.46600000       5.42100000
 H      34.34300000      16.25100000       6.01200000
 H      33.59900000      15.76900000       4.68400000
 O      33.67100000      17.62000000       7.27200000
 H      32.73800000      17.33100000       7.15300000
 H      33.94600000      17.23000000       8.09400000
 O      35.61500000      19.69800000      14.61100000
 H      35.75100000      20.10400000      15.53900000
 H      36.19000000      20.30700000      14.10400000
 O      36.68900000      17.79700000      16.47600000
 H      37.67500000      17.86800000      16.49000000
 H      36.53500000      18.15900000      15.59200000
 O      36.88700000      10.55200000       8.69500000
 H      37.06200000       9.63200000       8.81400000
 H      36.13200000      10.87600000       9.19100000
 O      36.63900000      11.11100000      15.15800000
 H      36.15200000      11.43600000      15.98600000
 H      37.51500000      10.88200000      15.56800000
 O      33.80300000      16.40500000       9.84500000
 H      34.44400000      16.92700000      10.36800000
 H      33.63200000      15.62400000      10.47000000
 O      36.28000000      16.17200000      11.44600000
 H      37.25000000      16.01100000      11.21400000
 H      36.30100000      17.04800000      11.93600000
 O      33.88300000      10.88700000      10.04100000
 H      33.13200000      10.92900000      10.70400000
 H      33.85600000       9.88500000       9.81900000
 O      33.00100000      11.06200000       5.46400000
 H      32.50000000      10.93200000       4.69200000
 H      33.05000000      12.03200000       5.59800000
 O      33.31600000      14.38900000      11.98800000
 H      32.35000000      14.38600000      12.16900000
 H      33.75900000      14.15500000      12.83100000
 O      36.52300000      16.50500000       8.21100000
 H      36.87900000      17.40000000       8.45700000
 H      37.32700000      15.97600000       8.26200000
