30
XYZ file of cluster: frame_13500_76b1.43da.4b958 - created by MolEdiTo
 O       4.91700000       2.70600000       9.86000000
 H       4.46000000       1.86700000       9.85400000
 H       5.76000000       2.52500000      10.31300000
 O       7.13300000       1.30500000       7.24500000
 H       6.21100000       1.58800000       7.17400000
 H       7.10900000       0.37400000       6.98800000
 O       4.42400000       4.64100000      11.75700000
 H       4.81600000       3.96900000      11.22900000
 H       3.48500000       4.50600000      11.49300000
 O       5.59300000       2.48100000      14.20400000
 H       5.52000000       3.29600000      13.75000000
 H       4.93900000       1.88200000      13.78000000
 O       4.62000000       6.60300000       9.04700000
 H       3.72100000       6.67300000       8.77200000
 H       4.77500000       7.45800000       9.51100000
 O       1.17900000       1.74200000       6.69400000
 H       0.64900000       1.89200000       7.52600000
 H       1.66300000       0.88800000       6.83100000
 O       2.69600000       4.34200000       9.00600000
 H       3.45500000       3.71800000       9.36100000
 H       2.81500000       4.36300000       7.99300000
 O       6.85600000       5.97800000      12.50300000
 H       7.30900000       6.16400000      11.67200000
 H       5.92700000       5.63000000      12.24800000
 O       7.14400000       4.74900000       8.74300000
 H       6.38600000       5.24800000       9.05000000
 H       6.79100000       4.26900000       7.92600000
 O       1.74300000       5.41800000      12.81500000
 H       1.88900000       6.34900000      12.79300000
 H       1.32500000       5.34000000      13.71600000
