33
XYZ file of cluster: frame_13500_a0640.c30af.c23bb - created by MolEdiTo
 O      18.80600000      20.82200000      19.87100000
 H      18.98400000      20.89600000      20.78900000
 H      18.46000000      19.93400000      19.77300000
 O      14.42900000      20.70400000      17.68800000
 H      14.03200000      21.42700000      17.20200000
 H      15.18100000      21.09600000      18.17000000
 O      17.15400000      17.84600000      18.07600000
 H      17.91700000      17.20100000      17.91300000
 H      17.33100000      18.50300000      17.31600000
 O      20.12200000      19.10500000      17.74100000
 H      20.92600000      19.47700000      17.29600000
 H      19.83100000      19.92400000      18.24200000
 O      15.45700000      19.09900000      22.55200000
 H      15.74500000      18.19200000      22.34400000
 H      15.57900000      19.61700000      21.74400000
 O      16.40300000      20.76500000      24.60700000
 H      16.14700000      20.03000000      23.95300000
 H      16.24000000      20.30200000      25.51200000
 O      19.69900000      19.34700000      23.64300000
 H      20.13200000      19.51900000      24.54500000
 H      20.31200000      18.75900000      23.11200000
 O      17.48100000      17.96100000      24.98400000
 H      17.82100000      18.54900000      24.26600000
 H      18.02400000      18.23300000      25.73500000
 O      16.16400000      23.35600000      19.61400000
 H      17.16800000      23.57900000      19.74600000
 H      15.62500000      24.10800000      19.99400000
 O      15.14600000      25.36600000      23.20900000
 H      15.02700000      26.37000000      23.34500000
 H      14.25000000      24.95100000      23.50600000
 O      18.36400000      23.97500000      25.89700000
 H      17.91000000      23.53900000      25.13000000
 H      17.97600000      23.69800000      26.78100000
