36
XYZ file of cluster: frame_13500_71752.c30af.c23bb - created by MolEdiTo
 O      14.42900000      20.70400000      17.68800000
 H      14.03200000      21.42700000      17.20200000
 H      15.18100000      21.09600000      18.17000000
 O      17.15400000      17.84600000      18.07600000
 H      17.91700000      17.20100000      17.91300000
 H      17.33100000      18.50300000      17.31600000
 O      12.08800000      19.16100000      19.22700000
 H      13.01000000      19.55400000      19.40900000
 H      11.51000000      19.75200000      19.75100000
 O      15.45700000      19.09900000      22.55200000
 H      15.74500000      18.19200000      22.34400000
 H      15.57900000      19.61700000      21.74400000
 O      16.40300000      20.76500000      24.60700000
 H      16.14700000      20.03000000      23.95300000
 H      16.24000000      20.30200000      25.51200000
 O      17.48100000      17.96100000      24.98400000
 H      17.82100000      18.54900000      24.26600000
 H      18.02400000      18.23300000      25.73500000
 O      16.16400000      23.35600000      19.61400000
 H      17.16800000      23.57900000      19.74600000
 H      15.62500000      24.10800000      19.99400000
 O      11.66900000      24.91700000      19.18600000
 H      12.11600000      25.01900000      20.08200000
 H      10.72100000      25.02600000      19.43000000
 O      12.34800000      25.61900000      24.01000000
 H      12.05700000      26.32600000      24.63500000
 H      11.61900000      24.97500000      24.25300000
 O      15.14600000      25.36600000      23.20900000
 H      15.02700000      26.37000000      23.34500000
 H      14.25000000      24.95100000      23.50600000
 O      10.13000000      22.62100000      22.46500000
 H       9.92600000      21.96400000      23.14000000
 H      11.14600000      22.74800000      22.52800000
 O      12.68100000      22.49500000      23.44500000
 H      12.21200000      21.96800000      24.18400000
 H      13.59300000      22.65600000      23.75000000
