42
XYZ file of cluster: frame_13500_be76c.c30af.76385 - created by MolEdiTo
 O      20.61700000      19.79100000      10.74100000
 H      20.36100000      20.45000000      11.42100000
 H      19.81900000      19.25900000      10.69200000
 O      20.12200000      19.10500000      17.74100000
 H      20.92600000      19.47700000      17.29600000
 H      19.83100000      19.92400000      18.24200000
 O      17.18300000      20.24900000      15.60100000
 H      17.90700000      20.25100000      14.94400000
 H      17.39900000      21.02800000      16.21700000
 O      17.62600000      18.42800000      11.40000000
 H      18.00300000      17.52500000      11.45200000
 H      16.66300000      18.31000000      11.45800000
 O      17.15400000      17.84600000      18.07600000
 H      17.91700000      17.20100000      17.91300000
 H      17.33100000      18.50300000      17.31600000
 O      19.82800000      19.45900000      14.38500000
 H      20.52100000      19.69800000      15.03400000
 H      19.39900000      18.68900000      14.71100000
 O      17.80200000      24.98000000      17.03100000
 H      17.82900000      24.85900000      16.04800000
 H      16.79600000      25.17500000      17.22500000
 O      18.62200000      22.55200000      12.45500000
 H      18.78400000      22.91400000      13.27100000
 H      18.92400000      21.68800000      12.66100000
 O      19.90000000      24.45200000      14.40600000
 H      20.30800000      25.17800000      14.83100000
 H      19.06700000      24.96500000      14.27700000
 O      23.35400000      20.52000000      15.65100000
 H      23.85300000      20.79400000      16.50600000
 H      22.88900000      21.33300000      15.50600000
 O      25.19900000      18.36400000      14.87300000
 H      25.19300000      17.52300000      14.40100000
 H      24.23100000      18.55800000      14.91500000
 O      23.90600000      17.81500000      12.35600000
 H      24.70100000      17.76900000      11.79500000
 H      23.32500000      18.32500000      11.80400000
 O      24.77400000      20.26600000      10.47000000
 H      25.18000000      20.34300000      11.30600000
 H      23.81700000      20.06900000      10.60600000
 O      24.31900000      25.08900000      16.29300000
 H      25.00800000      25.67100000      16.76000000
 H      24.91600000      24.47000000      15.77900000
