48
XYZ file of cluster: frame_13500_9cb5c.c2b0f.4f212 - created by MolEdiTo
 O      20.61700000      19.79100000      10.74100000
 H      20.36100000      20.45000000      11.42100000
 H      19.81900000      19.25900000      10.69200000
 O      14.88800000      18.01600000       8.17000000
 H      14.37800000      18.87200000       8.25400000
 H      14.71000000      17.58000000       9.05700000
 O      14.38900000      17.89000000      11.25300000
 H      14.02500000      18.73200000      10.87700000
 H      13.83500000      17.17000000      10.87600000
 O      17.62600000      18.42800000      11.40000000
 H      18.00300000      17.52500000      11.45200000
 H      16.66300000      18.31000000      11.45800000
 O      15.26200000      18.01200000      13.86300000
 H      15.90400000      18.77300000      13.87200000
 H      14.93900000      17.87700000      12.97200000
 O      19.82800000      19.45900000      14.38500000
 H      20.52100000      19.69800000      15.03400000
 H      19.39900000      18.68900000      14.71100000
 O      17.76600000      18.61700000       8.48000000
 H      16.78100000      18.41100000       8.34600000
 H      17.81600000      18.55800000       9.49200000
 O      16.31700000      22.79000000      10.28400000
 H      16.86200000      23.55700000      10.19400000
 H      16.89900000      22.17800000      10.82600000
 O      17.67500000      24.13000000       7.00800000
 H      17.42500000      25.02700000       7.30100000
 H      18.56300000      23.94400000       7.35200000
 O      19.72200000      23.80200000       8.97000000
 H      19.84700000      24.46100000       9.62800000
 H      19.64700000      22.91400000       9.40300000
 O      17.43800000      25.39900000      10.43500000
 H      17.78800000      26.01700000       9.69300000
 H      18.27200000      25.07500000      10.76200000
 O      14.87900000      23.21300000       8.03000000
 H      15.51500000      23.04000000       8.73700000
 H      15.37300000      23.73200000       7.34100000
 O      19.90000000      24.45200000      14.40600000
 H      20.30800000      25.17800000      14.83100000
 H      19.06700000      24.96500000      14.27700000
 O      18.62200000      22.55200000      12.45500000
 H      18.78400000      22.91400000      13.27100000
 H      18.92400000      21.68800000      12.66100000
 O      16.04200000      24.06300000      12.96900000
 H      15.43300000      23.48700000      13.51000000
 H      16.28400000      23.50400000      12.25600000
 O      14.41700000      22.38600000      14.31300000
 H      14.42200000      21.53100000      14.79000000
 H      13.71000000      22.29500000      13.64300000
