39
XYZ file of cluster: frame_13500_27bb6.a34b2.0 - created by MolEdiTo
 O       9.32500000      18.28100000       7.01100000
 H       9.91300000      17.55300000       6.72500000
 H       8.56600000      17.96200000       7.58800000
 O      10.05700000      15.23200000       2.85100000
 H       9.80800000      16.16000000       2.75800000
 H      10.93600000      15.32300000       3.31500000
 O      10.56200000      19.31200000       3.31900000
 H      10.47200000      20.17600000       3.80700000
 H       9.66900000      18.79000000       3.37400000
 O       7.80800000      17.88800000       4.35300000
 H       8.38500000      18.23100000       5.08600000
 H       7.78900000      16.96200000       4.55300000
 O       3.56900000      18.35700000       0.97000000
 H       3.82400000      18.83600000       0.12500000
 H       4.32900000      18.27400000       1.56000000
 O       8.98600000      15.73000000       5.58000000
 H       9.94900000      15.47300000       5.48600000
 H       8.46900000      14.97300000       5.23900000
 O       4.66000000      19.14000000       5.62700000
 H       5.30300000      19.67100000       5.19400000
 H       4.55200000      19.41100000       6.57600000
 O       6.33100000      18.66900000       2.26700000
 H       6.90200000      18.49900000       1.44200000
 H       6.98100000      18.39900000       2.94000000
 O       4.43300000      16.22900000       4.11500000
 H       4.67500000      16.96100000       4.70900000
 H       3.47600000      16.20100000       4.12800000
 O       6.49600000      15.13300000       2.75800000
 H       5.91400000      15.42600000       3.52800000
 H       6.48500000      15.96600000       2.28500000
 O       5.87300000      14.93400000       6.34700000
 H       5.37300000      14.88200000       5.53200000
 H       6.59200000      14.40100000       6.23000000
 O       8.83300000      17.79100000       0.78100000
 H       9.05800000      18.33400000       0.00000000
 H       8.13400000      17.28000000       0.41000000
 O       4.53000000      16.69700000       7.86700000
 H       4.49600000      16.23500000       6.96200000
 H       5.33000000      17.20900000       7.94300000
