30
XYZ file of cluster: frame_13500_8811.c4219.c9cf4 - created by MolEdiTo
 O       1.04900000      17.55900000      19.98200000
 H       1.92100000      17.86600000      20.24300000
 H       0.74400000      18.18800000      19.24600000
 O       6.33000000      17.87800000      19.59400000
 H       5.88500000      17.29700000      18.87400000
 H       6.62500000      18.66400000      19.04100000
 O       1.70800000      19.80100000      25.68900000
 H       2.43900000      19.98300000      26.35600000
 H       1.93500000      20.37400000      24.94300000
 O       3.56900000      18.35700000      22.59200000
 H       3.82400000      18.83600000      21.74700000
 H       4.32900000      18.27400000      23.18200000
 O       6.33100000      18.66900000      23.88900000
 H       6.90200000      18.49900000      23.06400000
 H       6.98100000      18.39900000      24.56200000
 O       7.28400000      23.70800000      18.57300000
 H       6.57900000      23.52500000      17.87300000
 H       6.73100000      24.16600000      19.31200000
 O       2.07300000      23.00900000      18.54600000
 H       1.93200000      23.12700000      19.48700000
 H       2.48200000      23.82200000      18.25800000
 O       4.25000000      24.87500000      23.77400000
 H       3.91500000      24.49200000      22.89000000
 H       5.05700000      24.35200000      24.01200000
 O       1.60900000      23.63100000      22.88300000
 H       1.95800000      24.01100000      23.74700000
 H       0.81400000      24.22500000      22.69300000
 O       5.39600000      22.40300000      25.20800000
 H       6.24500000      22.89300000      25.16100000
 H       5.63400000      21.65100000      24.58700000
