45
XYZ file of cluster: frame_12000_ca0ed.482c8.9c738 - created by MolEdiTo
 O      18.79000000      10.88200000      15.77600000
 H      18.21000000      10.18200000      15.56300000
 H      18.68100000      11.09200000      16.70300000
 O      19.94100000      14.61600000      20.15500000
 H      20.16900000      13.65100000      19.84700000
 H      20.76600000      15.12700000      20.20500000
 O      18.45900000       7.34600000      19.36000000
 H      18.41800000       7.51100000      18.42400000
 H      18.32500000       6.40500000      19.44700000
 O      20.74500000       7.92500000      17.29700000
 H      21.62200000       8.21400000      16.95000000
 H      20.36900000       7.44000000      16.51100000
 O      18.55800000      13.37100000      17.21700000
 H      17.89500000      13.75200000      16.67800000
 H      19.02200000      14.14400000      17.70000000
 O      18.67400000      10.59600000      18.81300000
 H      19.12400000       9.69800000      18.94100000
 H      19.38900000      11.22200000      18.74000000
 O      22.97100000      12.50100000      15.02000000
 H      22.06100000      12.47900000      15.42700000
 H      22.78600000      12.38200000      14.02300000
 O      23.10300000      14.91700000      17.20900000
 H      23.37600000      15.49000000      17.97600000
 H      23.84400000      14.27600000      17.01200000
 O      25.08100000      12.83400000      16.67200000
 H      25.99300000      12.78700000      16.28600000
 H      24.49600000      12.87000000      15.82600000
 O      24.43900000      10.16400000      20.08900000
 H      24.37900000       9.32500000      20.58300000
 H      24.46900000       9.97300000      19.14500000
 O      22.72000000      12.35300000      18.55400000
 H      22.49700000      13.19800000      18.10200000
 H      23.44100000      12.04200000      17.94400000
 O      24.70900000      10.46800000      13.93600000
 H      23.77500000      10.30000000      13.71300000
 H      24.62100000      10.69500000      14.88900000
 O      25.06600000       9.87100000      16.86600000
 H      25.16800000      10.83600000      16.93500000
 H      25.52100000       9.52400000      16.04100000
 O      25.27900000       7.32300000      15.66100000
 H      24.99800000       6.42000000      15.67900000
 H      25.76200000       7.33300000      14.81800000
 O      24.50400000       7.58100000      19.01100000
 H      23.72100000       7.32700000      18.49000000
 H      24.96500000       8.13100000      18.35500000
