30
XYZ file of cluster: frame_12000_28b1a.aff8.2294a - created by MolEdiTo
 O       6.17900000       3.69500000       8.03500000
 H       6.34500000       4.32800000       8.78700000
 H       5.54000000       3.02800000       8.39500000
 O       3.60400000       3.38500000      10.86200000
 H       4.20200000       2.55300000      10.79900000
 H       4.25500000       4.12200000      10.55200000
 O       4.41300000       6.95800000       7.37600000
 H       5.03200000       7.66500000       7.53300000
 H       3.89500000       7.03300000       8.22200000
 O       8.89100000       2.12000000       3.03100000
 H       9.76600000       2.45500000       3.26800000
 H       8.33900000       2.32200000       3.87800000
 O       6.98300000       2.56800000       4.78500000
 H       6.10600000       2.20900000       5.19200000
 H       6.99600000       3.46400000       5.26100000
 O      10.07900000       4.68700000      10.06200000
 H      10.84600000       4.03100000       9.87700000
 H       9.99900000       5.14900000       9.21200000
 O       8.99700000       4.89800000       6.98400000
 H       8.83700000       5.84000000       6.86300000
 H       8.34500000       4.52700000       6.33500000
 O       5.20700000       1.53400000       9.51400000
 H       4.79600000       1.18000000       8.66600000
 H       5.97300000       0.97600000       9.58700000
 O       5.85500000       5.21100000      10.36100000
 H       6.46600000       4.93600000      11.02000000
 H       6.24300000       6.04300000      10.07300000
 O       6.31600000       5.43600000       5.54600000
 H       5.95000000       6.38100000       5.64400000
 H       6.11000000       5.05900000       6.41700000
