45
XYZ file of cluster: frame_12000_b95c.4c832.1cc60 - created by MolEdiTo
 O       3.03500000       7.57700000       9.74100000
 H       3.44400000       7.79300000      10.56700000
 H       2.59200000       8.45500000       9.44700000
 O       5.40100000      11.18500000      10.23500000
 H       5.92600000      12.03500000      10.43600000
 H       4.60400000      11.33300000      10.79400000
 O       1.85500000       6.79000000       4.45700000
 H       2.28500000       7.63400000       4.51700000
 H       1.02600000       7.05900000       3.97800000
 O       4.41300000       6.95800000       7.37600000
 H       5.03200000       7.66500000       7.53300000
 H       3.89500000       7.03300000       8.22200000
 O       1.98600000      12.83200000       6.45000000
 H       1.21400000      13.38700000       6.51200000
 H       1.57000000      11.91300000       6.25000000
 O       5.56600000       9.08600000       4.32000000
 H       4.76100000       9.68500000       4.46000000
 H       5.21700000       8.33200000       3.80000000
 O       3.41700000      13.81000000       3.02500000
 H       3.12000000      14.28300000       3.84100000
 H       2.56300000      13.70300000       2.52200000
 O       3.75400000      11.21900000       4.78700000
 H       2.87700000      11.14200000       5.08700000
 H       3.85900000      11.81000000       4.04900000
 O       7.89700000      11.14300000       7.51400000
 H       8.40000000      11.71700000       8.12100000
 H       7.13400000      11.70100000       7.34400000
 O       3.08700000      10.30900000       9.06400000
 H       2.80000000      10.86300000       8.28900000
 H       3.99100000      10.69400000       9.30300000
 O       6.03800000       8.54400000       9.60600000
 H       6.98400000       8.47400000       9.76100000
 H       5.92900000       9.48700000       9.78300000
 O       5.41300000      12.46700000       6.82600000
 H       4.83100000      12.04400000       7.46700000
 H       5.12200000      12.18100000       5.92300000
 O       7.54200000      12.07200000       4.47100000
 H       7.60300000      11.73100000       5.42200000
 H       7.16900000      12.97400000       4.61200000
 O       7.32800000       8.61100000       6.53800000
 H       6.99800000       8.63200000       5.66600000
 H       7.47700000       9.54300000       6.82900000
 O       3.38400000      15.03200000       9.70900000
 H       3.26000000      14.19500000      10.16800000
 H       2.83800000      15.68200000      10.19300000
