24
XYZ file of cluster: frame_12000_2b5eb.17e39.e114 - created by MolEdiTo
 O       7.53300000       5.76500000       2.41300000
 H       8.31500000       5.84800000       1.74200000
 H       7.51000000       6.65000000       2.88400000
 O       8.89100000       2.12000000       3.03100000
 H       9.76600000       2.45500000       3.26800000
 H       8.33900000       2.32200000       3.87800000
 O       4.36800000       7.77200000       2.01800000
 H       3.84100000       7.21300000       1.40800000
 H       4.99300000       8.04900000       1.23300000
 O       6.98300000       2.56800000       4.78500000
 H       6.10600000       2.20900000       5.19200000
 H       6.99600000       3.46400000       5.26100000
 O      11.38900000       3.88700000       2.16900000
 H      12.22500000       3.67500000       1.66600000
 H      10.59900000       3.91100000       1.57700000
 O       5.51500000       3.97900000       2.33500000
 H       6.19500000       4.76300000       2.36000000
 H       5.79800000       3.45000000       3.13900000
 O       8.99700000       4.89800000       6.98400000
 H       8.83700000       5.84000000       6.86300000
 H       8.34500000       4.52700000       6.33500000
 O       6.31600000       5.43600000       5.54600000
 H       5.95000000       6.38100000       5.64400000
 H       6.11000000       5.05900000       6.41700000
