42
XYZ file of cluster: frame_12000_9623f.74af2.ce17 - created by MolEdiTo
 O      18.04100000      10.82400000       5.40300000
 H      17.25600000      10.46600000       4.87800000
 H      18.05200000      11.81800000       5.42200000
 O      20.45300000      17.67900000       6.00500000
 H      19.84500000      18.17900000       5.48800000
 H      20.10100000      17.57800000       6.92000000
 O      15.69000000      18.20000000       3.32600000
 H      15.61400000      17.52100000       2.61600000
 H      15.12500000      17.79600000       3.98300000
 O      13.90100000      18.64100000       6.15400000
 H      14.83500000      18.87900000       5.95900000
 H      13.66500000      17.76500000       5.73400000
 O      15.10900000      13.97500000       6.59200000
 H      15.90900000      14.51500000       6.54400000
 H      15.02300000      13.68000000       7.53200000
 O      18.82000000      15.74000000       2.92400000
 H      18.60200000      16.65800000       2.76300000
 H      19.60200000      15.72100000       2.43600000
 O      16.17100000      12.30200000       2.02200000
 H      15.55300000      12.78200000       2.54400000
 H      16.99600000      12.77700000       2.04700000
 O      17.39700000      16.09400000       6.68200000
 H      18.32200000      15.85300000       6.82700000
 H      17.55500000      17.03000000       6.58200000
 O      14.41000000      13.11100000       3.97000000
 H      14.49000000      12.10700000       4.09500000
 H      14.58200000      13.29300000       4.90700000
 O      13.79200000      10.71500000       1.12900000
 H      13.39000000      10.35500000       1.92700000
 H      14.58600000      11.21300000       1.32000000
 O      19.98000000      12.02000000       1.89800000
 H      20.92400000      11.76900000       1.77400000
 H      19.81600000      13.00900000       1.94700000
 O      15.17300000      15.72600000       2.12600000
 H      15.48700000      15.23300000       2.86000000
 H      15.60900000      15.40500000       1.32700000
 O      17.59600000      13.63700000       4.71700000
 H      18.05500000      13.98800000       3.95100000
 H      17.87400000      14.33600000       5.38900000
 O      13.58600000      16.24300000       4.90700000
 H      14.43600000      15.73300000       4.95000000
 H      13.29700000      15.96600000       3.98200000
