558
XYZ file of cluster: frame_19000_765d9.737ca.9c275 - created by MolEdiTo
 O      38.35400000      36.48300000      36.81200000
 H      38.51200000      35.97400000      37.58200000
 H      38.89200000      37.28000000      36.89600000
 O      28.40600000      37.52300000      36.75400000
 H      27.78400000      36.79500000      36.92900000
 H      28.24500000      37.65800000      35.79300000
 O      26.67700000      27.15600000      33.76400000
 H      26.31900000      27.61300000      33.00700000
 H      26.31600000      26.20100000      33.57400000
 O      36.73200000      26.16900000      35.27100000
 H      37.24800000      25.30300000      35.35400000
 H      35.87500000      25.84000000      35.72500000
 O      22.71400000      27.09300000      31.09800000
 H      21.90600000      27.11500000      30.53800000
 H      22.28800000      27.37300000      31.94500000
 O      39.54400000      39.10300000      28.69100000
 H      39.52800000      38.45300000      27.93300000
 H      38.82200000      39.69300000      28.33600000
 O      38.08600000      34.68900000      29.02000000
 H      38.96200000      34.97000000      29.18800000
 H      38.30500000      33.72500000      28.69700000
 O      34.67000000      29.96700000      37.89700000
 H      34.76400000      30.85500000      38.31100000
 H      33.67600000      29.88100000      37.95500000
 O      28.64800000      27.68100000      39.69800000
 H      28.67000000      28.50400000      39.14100000
 H      28.77100000      28.06100000      40.59500000
 O      30.76600000      34.41000000      34.94300000
 H      31.27300000      33.75700000      34.36300000
 H      29.95300000      33.89600000      35.08500000
 O      33.84300000      24.68800000      32.89900000
 H      34.38500000      23.85900000      32.80400000
 H      33.01900000      24.33500000      32.62000000
 O      36.04100000      30.22300000      33.58600000
 H      36.95400000      30.15500000      33.88300000
 H      35.67500000      29.64400000      34.28900000
 O      35.42500000      20.53100000      28.00200000
 H      36.00400000      19.76000000      27.89300000
 H      36.00100000      21.16500000      28.45200000
 O      32.96600000      22.56800000      29.88500000
 H      32.66600000      23.19900000      30.60500000
 H      32.49300000      22.91700000      29.11600000
 O      35.26700000      32.56900000      39.08200000
 H      34.65600000      32.19500000      39.74700000
 H      35.72100000      33.23100000      39.58300000
 O      30.35700000      33.98500000      39.30100000
 H      29.38500000      34.06500000      39.37800000
 H      30.63100000      34.78400000      39.75500000
 O      35.96400000      22.93200000      37.37000000
 H      36.06200000      22.30700000      38.10600000
 H      36.33000000      22.45900000      36.61000000
 O      35.64500000      33.18400000      36.07900000
 H      34.67600000      33.07800000      36.28400000
 H      36.01200000      32.94500000      36.94300000
 O      26.80200000      25.03600000      29.24200000
 H      26.99200000      24.35300000      28.59200000
 H      25.84000000      25.01100000      29.27200000
 O      21.28200000      23.68400000      37.94900000
 H      21.94800000      23.02700000      37.71400000
 H      20.53500000      23.10200000      38.03000000
 O      28.06900000      22.77600000      30.41500000
 H      28.19000000      23.58400000      29.87000000
 H      27.29300000      22.41100000      29.96500000
 O      35.50800000      36.67600000      39.00400000
 H      36.14200000      36.12300000      39.48000000
 H      34.78600000      36.01500000      38.84900000
 O      24.03200000      39.59900000      38.52900000
 H      24.67800000      40.32900000      38.42200000
 H      23.45100000      40.00500000      39.20200000
 O      29.82000000      20.49900000      34.56500000
 H      30.41800000      20.89900000      33.90100000
 H      30.34700000      20.56000000      35.38600000
 O      32.81400000      37.48200000      31.99800000
 H      33.39800000      37.68800000      32.78200000
 H      32.95000000      38.28400000      31.52500000
 O      33.39200000      34.62500000      40.77900000
 H      33.68500000      34.54500000      39.85900000
 H      33.58200000      33.70500000      41.03600000
 O      37.21100000      34.15300000      40.52300000
 H      37.22400000      34.93900000      41.19900000
 H      37.30700000      33.39700000      41.20700000
 O      31.09500000      36.36700000      36.84900000
 H      30.21300000      36.70400000      37.11000000
 H      30.87700000      35.60700000      36.25900000
 O      25.27300000      24.90100000      32.90700000
 H      25.05700000      24.74700000      31.95300000
 H      25.64600000      24.03300000      33.12400000
 O      27.45400000      38.20300000      40.43000000
 H      28.07000000      38.85700000      40.06100000
 H      26.73300000      38.76400000      40.80100000
 O      21.29200000      36.02200000      33.53000000
 H      21.04400000      35.33600000      32.90100000
 H      20.57700000      36.69600000      33.40200000
 O      32.17400000      38.34100000      35.59600000
 H      31.78600000      37.57200000      36.11100000
 H      33.10400000      38.28600000      35.89800000
 O      29.29700000      25.67000000      32.57800000
 H      29.91900000      26.32600000      32.96400000
 H      28.60400000      26.25900000      32.23400000
 O      38.38900000      31.99700000      28.00300000
 H      39.17400000      31.40100000      28.16400000
 H      37.65900000      31.34300000      28.26300000
 O      30.29400000      33.36700000      31.15500000
 H      29.96400000      33.13900000      30.24900000
 H      30.62900000      34.29200000      30.96500000
 O      35.91800000      37.13700000      30.88400000
 H      35.50500000      37.23900000      31.76200000
 H      35.94000000      38.09100000      30.63100000
 O      29.40200000      23.45300000      37.25500000
 H      29.50100000      23.18200000      38.22600000
 H      28.74200000      24.17600000      37.33900000
 O      24.42300000      36.60800000      38.44000000
 H      23.52500000      36.30700000      38.65700000
 H      24.33000000      37.54700000      38.28900000
 O      33.47500000      30.28100000      29.51000000
 H      33.56400000      30.21800000      30.53000000
 H      32.89600000      31.07100000      29.50200000
 O      20.68100000      38.46400000      39.08500000
 H      20.98400000      39.37400000      39.11800000
 H      21.11900000      38.12100000      38.27000000
 O      36.17100000      28.06300000      39.61800000
 H      35.65500000      28.53200000      39.00800000
 H      35.88600000      28.44400000      40.48300000
 O      25.25900000      32.67600000      31.24600000
 H      25.75600000      31.90600000      30.89800000
 H      25.17700000      33.19600000      30.37900000
 O      40.41500000      30.05100000      29.22900000
 H      41.18200000      29.59600000      29.52600000
 H      39.72200000      29.78400000      29.89800000
 O      31.58500000      24.31600000      31.34800000
 H      31.09200000      24.93100000      31.91800000
 H      31.01500000      24.42900000      30.51500000
 O      26.02200000      35.21400000      36.61400000
 H      25.36600000      35.08000000      35.92200000
 H      25.49500000      35.55900000      37.39900000
 O      37.10600000      33.39800000      33.95300000
 H      36.61200000      33.97600000      33.39100000
 H      36.55900000      33.21900000      34.68700000
 O      25.42700000      36.06300000      30.59800000
 H      25.78800000      35.72800000      31.45600000
 H      24.60200000      36.43500000      30.91200000
 O      39.29200000      33.12500000      36.23200000
 H      39.18500000      33.88300000      36.84800000
 H      38.67600000      33.42000000      35.53500000
 O      37.53600000      21.59200000      34.96300000
 H      38.37900000      21.10300000      35.13500000
 H      37.79000000      22.48300000      35.21400000
 O      20.52100000      32.47100000      28.21000000
 H      20.99700000      32.23900000      29.00700000
 H      21.08700000      33.19600000      27.85200000
 O      38.53600000      29.82700000      34.58600000
 H      38.28700000      29.49200000      35.45600000
 H      39.46600000      30.04700000      34.70500000
 O      35.89000000      36.00500000      35.68800000
 H      35.83700000      34.99400000      35.47600000
 H      36.78800000      36.00000000      36.09700000
 O      30.58400000      31.93800000      37.35800000
 H      29.86300000      32.50500000      36.95400000
 H      30.61700000      32.49000000      38.23000000
 O      32.77500000      26.58700000      35.42200000
 H      33.15400000      26.51300000      34.57300000
 H      33.42700000      25.96600000      35.93500000
 O      39.35500000      33.87800000      31.77300000
 H      39.02300000      32.95000000      31.53900000
 H      39.76300000      34.09300000      30.90900000
 O      29.53200000      20.53500000      30.87400000
 H      29.57900000      20.00800000      30.04700000
 H      29.12200000      21.35700000      30.51300000
 O      38.74600000      24.05700000      35.91800000
 H      39.74100000      24.17600000      35.73200000
 H      38.77700000      24.05800000      36.88500000
 O      34.05700000      26.60500000      28.77600000
 H      33.11000000      26.39300000      28.87200000
 H      34.25800000      26.77600000      29.75200000
 O      26.57200000      38.17900000      29.12200000
 H      26.12300000      37.31900000      29.42100000
 H      26.91200000      38.39100000      29.99800000
 O      34.00900000      29.90800000      32.04600000
 H      34.29800000      29.01100000      31.75800000
 H      34.60800000      29.99500000      32.85200000
 O      36.44100000      34.60700000      31.38900000
 H      36.39900000      35.54200000      31.25000000
 H      37.15100000      34.27100000      30.89700000
 O      31.68500000      30.25800000      33.42300000
 H      32.51900000      29.89900000      33.00700000
 H      31.92500000      31.24500000      33.44700000
 O      24.22700000      32.59000000      28.43600000
 H      24.78600000      32.57200000      27.58500000
 H      23.52800000      33.22700000      28.17100000
 O      34.29600000      38.19700000      37.11300000
 H      34.82000000      37.73500000      36.44700000
 H      34.70000000      37.78900000      37.92700000
 O      33.94800000      34.58600000      32.08000000
 H      33.85600000      35.57400000      32.05800000
 H      34.87000000      34.41800000      31.96300000
 O      38.86600000      38.54600000      34.44000000
 H      39.09200000      37.61800000      34.13100000
 H      39.01900000      39.02700000      33.60000000
 O      40.46800000      32.96000000      40.14100000
 H      40.54000000      33.52100000      40.94200000
 H      41.43000000      32.79600000      39.96900000
 O      27.80400000      30.96000000      27.60600000
 H      27.58600000      30.68500000      28.52700000
 H      28.71700000      30.53000000      27.57200000
 O      36.61400000      21.16900000      39.40100000
 H      36.66600000      20.22000000      39.60300000
 H      37.35700000      21.54300000      39.82900000
 O      29.35200000      39.23200000      38.56300000
 H      29.06400000      38.41700000      38.03400000
 H      30.15600000      38.85600000      39.02600000
 O      21.34600000      37.92100000      36.37900000
 H      21.74100000      38.43900000      35.64800000
 H      21.68300000      36.99600000      36.08900000
 O      38.36000000      26.70700000      28.90700000
 H      38.45500000      27.38500000      29.59000000
 H      38.95900000      25.97000000      29.24400000
 O      24.98500000      39.12400000      33.54900000
 H      24.42100000      39.23700000      34.34900000
 H      24.70400000      39.93900000      33.06400000
 O      38.96100000      28.77100000      39.44900000
 H      38.95200000      29.51100000      38.84000000
 H      38.09200000      28.43700000      39.46300000
 O      25.63000000      21.40100000      37.79500000
 H      26.00500000      21.52300000      36.93000000
 H      26.19200000      20.72700000      38.16000000
 O      23.17600000      22.17200000      31.01000000
 H      23.34200000      23.08100000      30.86600000
 H      22.63900000      22.13600000      31.79000000
 O      37.68500000      31.68400000      31.97500000
 H      37.69700000      32.34900000      32.61800000
 H      36.83200000      31.24800000      32.20700000
 O      20.80300000      20.73100000      34.75600000
 H      20.28800000      20.97000000      35.52300000
 H      21.58000000      20.33000000      35.13300000
 O      38.37900000      21.96100000      29.85000000
 H      37.41400000      22.17600000      30.04200000
 H      38.46700000      21.12600000      30.35600000
 O      22.98600000      26.86100000      37.71200000
 H      23.17900000      27.62300000      37.11800000
 H      23.46300000      26.13800000      37.30200000
 O      30.30600000      36.79800000      33.38600000
 H      31.05000000      37.24200000      33.06000000
 H      30.60800000      35.98300000      33.76900000
 O      21.97200000      31.10300000      37.19400000
 H      21.06900000      31.42100000      36.93600000
 H      22.51600000      31.84200000      36.88400000
 O      22.58700000      24.33500000      27.81200000
 H      22.44000000      25.29400000      27.83100000
 H      21.67000000      24.04900000      28.00300000
 O      21.39000000      40.14400000      31.35300000
 H      22.17500000      39.89000000      30.80300000
 H      20.75500000      40.40800000      30.67000000
 O      27.76200000      35.61800000      32.55000000
 H      27.55700000      34.73500000      32.87300000
 H      28.65600000      35.73100000      32.95300000
 O      22.04800000      35.25200000      38.71200000
 H      22.54000000      34.54400000      39.16600000
 H      21.09400000      35.03300000      38.89500000
 O      39.03700000      34.57500000      38.60000000
 H      38.22600000      34.47100000      39.15800000
 H      39.64400000      33.98500000      39.17500000
 O      29.55300000      23.19600000      39.85300000
 H      29.06600000      23.71600000      40.60800000
 H      29.26000000      22.29700000      40.25100000
 O      39.04500000      37.28700000      30.51100000
 H      38.99800000      38.10600000      30.03700000
 H      38.08200000      36.96300000      30.45100000
 O      28.35200000      28.14000000      35.54200000
 H      29.25500000      28.13800000      35.16900000
 H      27.78900000      27.86800000      34.76600000
 O      28.55800000      33.15500000      36.37800000
 H      27.80600000      32.49800000      36.05100000
 H      27.91700000      33.79100000      36.84800000
 O      34.48400000      26.94600000      31.50100000
 H      34.00200000      26.28700000      32.05900000
 H      35.41500000      26.87400000      31.88100000
 O      36.10100000      25.02900000      29.03800000
 H      35.51600000      25.73700000      28.65600000
 H      36.92900000      25.43600000      28.81000000
 O      37.04400000      26.98400000      32.61200000
 H      37.11400000      26.00800000      32.70800000
 H      37.23000000      27.22900000      33.58100000
 O      37.01200000      23.85500000      32.63500000
 H      36.69900000      23.44500000      31.77900000
 H      36.56000000      23.19700000      33.25800000
 O      22.74100000      38.40400000      29.58100000
 H      23.02000000      38.07500000      30.44200000
 H      21.78400000      38.04700000      29.58400000
 O      27.65300000      25.56400000      37.71000000
 H      26.95100000      25.35900000      38.40700000
 H      28.09200000      26.36100000      38.06700000
 O      22.96600000      21.15800000      37.90200000
 H      22.97200000      20.67000000      36.99500000
 H      23.98100000      21.29000000      37.92600000
 O      32.22500000      28.59500000      39.76200000
 H      31.95700000      27.65900000      39.72900000
 H      31.82300000      28.92000000      38.93600000
 O      23.82800000      24.77200000      30.17200000
 H      23.43400000      24.36800000      29.38200000
 H      23.35200000      25.61300000      30.21200000
 O      25.14600000      33.35200000      33.72800000
 H      25.54400000      32.60800000      34.16800000
 H      25.14900000      33.02000000      32.81000000
 O      25.12400000      28.70600000      31.35400000
 H      24.23500000      28.33900000      31.61500000
 H      25.07000000      28.43100000      30.36700000
 O      27.86100000      23.16700000      33.08100000
 H      27.94800000      23.14200000      32.11000000
 H      28.52400000      23.84600000      33.28800000
 O      27.31300000      21.36000000      35.23700000
 H      28.23900000      21.06000000      35.15400000
 H      27.25200000      22.06300000      34.63000000
 O      39.51500000      24.94000000      32.60500000
 H      39.90500000      24.11300000      32.98400000
 H      38.57600000      24.68700000      32.56200000
 O      31.37800000      21.60100000      32.65900000
 H      31.49500000      22.52500000      32.34800000
 H      30.84000000      21.25900000      31.88600000
 O      31.41400000      31.82700000      27.70100000
 H      30.62100000      32.21900000      28.17800000
 H      32.11000000      32.49700000      28.00600000
 O      29.95000000      24.47100000      28.96800000
 H      29.69200000      25.32800000      28.63600000
 H      30.52200000      24.12300000      28.26500000
 O      33.75000000      40.20300000      40.39700000
 H      33.74800000      40.87400000      41.10300000
 H      33.39200000      40.73200000      39.65900000
 O      30.33900000      28.60600000      29.63100000
 H      29.58800000      28.02900000      29.85500000
 H      30.26700000      29.20400000      30.41800000
 O      27.87400000      38.22300000      34.22900000
 H      27.32900000      38.76100000      33.64800000
 H      28.32100000      37.63200000      33.63400000
 O      24.54200000      26.96600000      40.55800000
 H      24.86400000      27.74000000      40.10300000
 H      23.56900000      27.03600000      40.26500000
 O      26.14400000      31.48800000      35.50100000
 H      26.18900000      30.56500000      35.78000000
 H      25.45100000      31.82900000      36.05200000
 O      24.68200000      25.08200000      36.61500000
 H      25.60800000      25.23600000      36.35500000
 H      24.91400000      24.73700000      37.52700000
 O      22.17000000      34.44200000      27.53600000
 H      21.74000000      35.25900000      28.00000000
 H      22.04200000      34.71100000      26.58200000
 O      21.01200000      26.07900000      39.36200000
 H      21.06400000      25.31900000      38.76000000
 H      21.60100000      26.68400000      38.91700000
 O      36.45800000      30.08900000      28.47300000
 H      35.53200000      29.77600000      28.56700000
 H      36.88900000      29.35600000      28.04100000
 O      39.62100000      20.84300000      36.81500000
 H      39.23100000      20.18900000      37.39000000
 H      40.55100000      20.93400000      37.15300000
 O      40.11200000      36.60400000      32.87500000
 H      40.21700000      36.98300000      31.96100000
 H      39.72900000      35.70900000      32.62100000
 O      27.97600000      27.23600000      30.40400000
 H      27.67100000      26.37100000      30.13700000
 H      27.09500000      27.61000000      30.68500000
 O      21.58800000      27.15000000      33.61300000
 H      22.10300000      26.31900000      33.70500000
 H      20.65800000      26.76500000      33.65900000
 O      37.81700000      40.03800000      38.50100000
 H      37.22200000      39.48300000      39.00200000
 H      37.85900000      40.83300000      39.10500000
 O      38.46100000      29.19500000      30.85900000
 H      37.77700000      28.77300000      31.50300000
 H      38.32600000      30.14900000      31.27300000
 O      22.99500000      24.82300000      34.42900000
 H      23.33300000      25.09400000      35.31600000
 H      23.78800000      24.90700000      33.87400000
 O      33.51700000      28.95900000      27.09400000
 H      33.70300000      28.07300000      27.51400000
 H      33.28300000      29.47900000      27.90300000
 O      21.69800000      22.60800000      33.14100000
 H      22.05600000      23.16300000      33.88400000
 H      21.06600000      22.01300000      33.69200000
 O      27.49800000      34.61500000      27.53900000
 H      26.82500000      35.20400000      27.96800000
 H      26.96200000      33.83300000      27.30500000
 O      29.83300000      30.48900000      31.49800000
 H      30.27500000      30.22700000      32.34500000
 H      29.88600000      31.47500000      31.62000000
 O      27.13000000      22.73800000      27.81900000
 H      27.62700000      22.30100000      27.08400000
 H      26.20200000      22.48100000      27.51800000
 O      25.76000000      29.12200000      36.93900000
 H      24.99400000      29.14300000      36.31300000
 H      26.36100000      28.53400000      36.56000000
 O      34.12700000      21.06100000      35.97200000
 H      33.93500000      21.59300000      36.71000000
 H      34.22200000      20.14900000      36.41100000
 O      28.74300000      26.69200000      27.38000000
 H      29.12600000      27.57100000      27.31300000
 H      27.95900000      26.87200000      27.90500000
 O      34.62400000      28.95100000      35.37800000
 H      34.20200000      28.11300000      35.69500000
 H      34.47800000      29.47600000      36.20100000
 O      31.98100000      29.55700000      36.88700000
 H      32.02400000      29.03900000      36.08400000
 H      31.22100000      30.15500000      36.83300000
 O      25.11300000      24.46600000      39.29000000
 H      25.10100000      23.62300000      39.77300000
 H      24.62000000      25.06400000      39.85600000
 O      25.32200000      20.83100000      30.10800000
 H      24.60400000      21.45700000      30.29100000
 H      25.84900000      20.87400000      30.89800000
 O      23.39800000      40.15100000      35.88400000
 H      23.43100000      39.70900000      36.72200000
 H      23.43800000      41.08000000      36.12500000
 O      29.89500000      29.50900000      27.29900000
 H      30.15900000      29.14500000      28.17500000
 H      30.61000000      30.18100000      27.19600000
 O      35.12100000      37.42700000      33.51800000
 H      35.37500000      36.76100000      34.26300000
 H      35.43100000      38.21500000      33.97100000
 O      32.01400000      38.24200000      39.67700000
 H      32.46600000      38.08700000      38.83500000
 H      32.60500000      38.89100000      40.07000000
 O      40.67200000      26.27800000      39.87600000
 H      40.08100000      27.10300000      39.93900000
 H      40.07900000      25.65000000      40.38600000
 O      23.48200000      37.07500000      32.06700000
 H      23.90600000      37.74100000      32.52800000
 H      22.94200000      36.55800000      32.77900000
 O      21.31400000      34.04500000      31.56900000
 H      21.74200000      33.34800000      31.02100000
 H      20.65200000      34.29200000      30.88100000
 O      22.53600000      30.03700000      39.41400000
 H      21.76200000      29.66400000      39.86200000
 H      22.19800000      30.22500000      38.53700000
 O      31.11500000      25.63900000      39.51000000
 H      31.06400000      25.25600000      40.38300000
 H      30.21300000      25.96900000      39.41800000
 O      24.84500000      27.97600000      28.77900000
 H      23.91200000      27.98700000      28.49800000
 H      25.22800000      27.47500000      28.04400000
 O      27.30200000      30.52500000      30.61900000
 H      26.95100000      29.94500000      31.35200000
 H      28.26200000      30.39000000      30.80900000
 O      33.12800000      33.88600000      28.67100000
 H      32.64300000      34.57400000      29.20600000
 H      34.03300000      34.25700000      28.68900000
 O      37.29200000      25.28000000      38.71000000
 H      36.69900000      25.10100000      37.98100000
 H      37.02800000      26.20300000      38.99100000
 O      23.45300000      29.05600000      35.48300000
 H      23.05000000      28.72300000      34.65400000
 H      22.79600000      29.75800000      35.72200000
 O      33.00100000      21.88400000      38.36300000
 H      32.78500000      22.75200000      37.95000000
 H      33.41300000      22.24100000      39.18400000
 O      23.64100000      35.21100000      34.95900000
 H      22.83900000      35.41000000      34.48100000
 H      24.18400000      34.69300000      34.28700000
 O      30.75900000      27.91900000      33.89800000
 H      31.46600000      27.65400000      34.52700000
 H      31.00700000      28.84000000      33.69900000
 O      23.35000000      40.26300000      27.67200000
 H      22.56900000      40.02100000      27.11500000
 H      23.28800000      39.43900000      28.28900000
 O      25.20200000      29.93600000      39.63300000
 H      24.21700000      30.07300000      39.52900000
 H      25.43300000      29.90700000      38.68100000
 O      32.13300000      32.89400000      33.18300000
 H      32.86800000      33.44800000      32.84700000
 H      31.50400000      32.97700000      32.41600000
 O      30.64400000      20.91500000      37.34300000
 H      30.33000000      21.86600000      37.25000000
 H      31.54200000      21.09700000      37.70500000
 O      39.62900000      24.22000000      29.44500000
 H      40.10300000      24.34700000      30.24700000
 H      39.10000000      23.42700000      29.53600000
 O      35.55600000      35.47300000      28.67200000
 H      35.50500000      36.23800000      29.37100000
 H      36.43100000      35.15000000      28.89100000
 O      22.44900000      19.91300000      29.84000000
 H      22.65400000      20.73200000      30.36200000
 H      23.30600000      19.49800000      29.85100000
 O      34.73800000      21.95500000      33.16100000
 H      34.89600000      21.72400000      34.09500000
 H      34.61900000      21.05200000      32.80500000
 O      22.15600000      27.08200000      27.79100000
 H      21.34500000      27.31200000      28.37900000
 H      21.74500000      27.25700000      26.93100000
 O      36.13500000      38.94700000      40.31500000
 H      35.87700000      38.08200000      39.93000000
 H      35.30700000      39.43100000      40.29200000
 O      30.13000000      37.53600000      29.22700000
 H      29.94900000      38.31300000      28.66000000
 H      30.57200000      36.91700000      28.60700000
 O      22.37700000      31.90400000      30.30100000
 H      23.03700000      31.44700000      30.87600000
 H      22.86600000      31.75500000      29.42800000
 O      23.47400000      33.39100000      40.03600000
 H      23.97500000      32.57200000      40.05000000
 H      22.67000000      33.10000000      40.52600000
 O      36.60400000      39.75200000      30.50200000
 H      37.33300000      40.36500000      30.85300000
 H      36.10100000      40.41700000      29.96100000
 O      36.00500000      22.63700000      30.08800000
 H      36.15600000      23.49500000      29.61500000
 H      35.02600000      22.53500000      29.95200000
 O      40.65800000      22.75000000      33.29400000
 H      40.22400000      21.89500000      33.59200000
 H      41.04900000      23.02300000      34.13100000
 O      33.35300000      40.38700000      32.80400000
 H      33.72200000      40.54600000      33.71900000
 H      33.99800000      40.96800000      32.31100000
 O      29.29200000      32.98800000      28.69500000
 H      28.52800000      32.45500000      28.29600000
 H      28.83000000      33.91200000      28.42300000
 O      32.04800000      24.26400000      37.41700000
 H      31.16100000      24.04600000      37.01000000
 H      31.71500000      24.68800000      38.22400000
 O      36.23300000      39.32800000      34.63700000
 H      37.20800000      39.16600000      34.84100000
 H      36.25600000      40.16200000      34.18800000
 O      39.26700000      31.18100000      38.18100000
 H      39.63300000      31.78100000      37.51400000
 H      39.29800000      31.74800000      38.99500000
 O      29.88600000      39.79800000      35.21400000
 H      30.69700000      39.32000000      35.31800000
 H      29.15800000      39.16400000      35.46700000
 O      26.07600000      40.38200000      27.68800000
 H      25.08600000      40.26400000      27.53000000
 H      26.21300000      39.55800000      28.19700000
 O      32.96200000      32.71100000      36.45800000
 H      33.00000000      32.05500000      35.73600000
 H      32.00100000      32.56900000      36.79600000
 O      34.38400000      24.11200000      39.95000000
 H      34.31300000      24.67900000      40.75700000
 H      35.32100000      23.82700000      40.02000000
 O      28.21600000      38.55400000      31.18300000
 H      28.10400000      37.84400000      31.78900000
 H      29.02700000      38.29900000      30.69500000
 O      23.54700000      33.00300000      36.56200000
 H      23.59900000      33.74600000      37.30400000
 H      23.35900000      33.61500000      35.85700000
 O      34.46300000      24.98800000      36.49600000
 H      35.08700000      24.31300000      36.77500000
 H      33.65800000      24.73000000      37.08200000
 O      31.58900000      35.65600000      30.51600000
 H      31.97000000      36.29500000      31.17800000
 H      30.95700000      36.30800000      30.04000000
 O      29.08500000      29.68300000      37.96300000
 H      29.40000000      30.53700000      37.73800000
 H      28.76300000      29.19100000      37.28100000
 O      33.57900000      34.92000000      37.96700000
 H      33.07300000      35.58900000      37.51000000
 H      33.36900000      34.12600000      37.41600000
 O      25.98800000      35.68700000      40.47900000
 H      25.31300000      35.88500000      39.78500000
 H      26.24100000      36.64300000      40.60600000
 O      39.82900000      39.06900000      37.16200000
 H      38.99600000      39.28700000      37.63400000
 H      39.56200000      39.19300000      36.21400000
