310
XYZ file of cluster: frame_19000_4b016.6cce4.4c1ee - created by MolEdiTo
 O      23.25800000      22.37500000      23.69200000
 H      22.92000000      23.18800000      23.30500000
 H      23.93200000      22.14000000      22.97500000
 O      17.23500000      23.82700000      23.51800000
 H      17.17400000      24.38100000      22.73800000
 H      16.87300000      22.97100000      23.10700000
 O      18.31100000      27.74600000      18.21800000
 H      17.35600000      27.97400000      18.23300000
 H      18.43400000      27.75100000      17.23500000
 O      25.10100000      28.53500000      15.64700000
 H      26.09300000      28.41600000      15.77900000
 H      24.80200000      27.92100000      16.40000000
 O      14.20300000      29.28200000      13.44900000
 H      14.83700000      29.66200000      14.08100000
 H      14.13400000      28.36900000      13.76700000
 O      22.32800000      22.20000000      16.60000000
 H      22.11800000      21.75600000      17.44800000
 H      22.19900000      21.44000000      15.97700000
 O      16.25000000      32.22900000      24.43900000
 H      15.32800000      32.21400000      24.70500000
 H      16.37400000      33.11000000      24.06000000
 O      27.38600000      27.06800000      24.27400000
 H      26.96200000      26.51300000      23.55500000
 H      27.47000000      27.94500000      23.83000000
 O      18.70900000      30.46100000      20.33400000
 H      18.50300000      30.78800000      19.45000000
 H      19.12800000      31.21200000      20.77600000
 O      23.88300000      28.16500000      13.22500000
 H      24.34700000      28.32300000      14.12000000
 H      23.43400000      29.06200000      13.21400000
 O      16.91500000      21.58200000      22.16100000
 H      16.60100000      21.86500000      21.27000000
 H      17.75600000      21.15200000      21.89000000
 O      14.20500000      26.34000000      14.76600000
 H      13.62000000      25.66700000      14.28300000
 H      13.52700000      26.99800000      15.03100000
 O      20.47400000      27.50500000      25.66400000
 H      20.35100000      28.45600000      25.74600000
 H      20.25800000      27.38000000      24.68000000
 O      14.00400000      33.38300000      16.08200000
 H      13.89900000      33.99100000      16.84600000
 H      14.82400000      33.81300000      15.70000000
 O      24.75300000      21.77600000      21.52600000
 H      25.55400000      21.68600000      22.06200000
 H      24.72700000      20.91100000      21.10400000
 O      24.63900000      24.38300000      13.84500000
 H      24.56000000      23.98400000      14.74300000
 H      25.44800000      24.79300000      13.84500000
 O      25.64800000      32.41800000      26.20400000
 H      26.19500000      31.70200000      26.55200000
 H      26.01000000      32.62200000      25.34700000
 O      27.99300000      21.25400000      14.25500000
 H      28.19000000      20.35100000      13.98800000
 H      27.53200000      21.57900000      13.41700000
 O      24.87800000      34.37100000      21.02900000
 H      25.76700000      34.20600000      20.65600000
 H      24.39600000      33.86900000      20.30400000
 O      24.22700000      32.59000000      28.43600000
 H      24.78600000      32.57200000      27.58500000
 H      23.52800000      33.22700000      28.17100000
 O      21.51400000      31.99500000      17.51900000
 H      22.29200000      31.43900000      17.38700000
 H      21.46900000      31.99300000      18.47200000
 O      21.77200000      26.29100000      17.20800000
 H      22.76000000      25.98000000      17.16500000
 H      21.47900000      25.87600000      16.36500000
 O      24.72300000      23.24100000      16.41700000
 H      23.86300000      22.71800000      16.60100000
 H      25.32800000      22.60400000      16.82200000
 O      17.29200000      25.20900000      15.84500000
 H      17.36300000      24.75400000      16.71700000
 H      16.42000000      24.91700000      15.51600000
 O      20.65000000      30.16200000      26.76300000
 H      20.80300000      31.07200000      27.13300000
 H      19.73200000      30.26800000      26.47900000
 O      27.80400000      30.96000000      27.60600000
 H      27.58600000      30.68500000      28.52700000
 H      28.71700000      30.53000000      27.57200000
 O      15.78100000      29.16200000      18.06900000
 H      16.21600000      30.01400000      17.89700000
 H      15.13800000      29.43300000      18.74200000
 O      15.96500000      20.88400000      26.73300000
 H      16.09300000      21.51500000      27.43400000
 H      16.81400000      20.97500000      26.24300000
 C      21.11900000      22.32300000      20.14600000
 C      21.26200000      20.80300000      20.11300000
 C      20.46800000      18.76300000      21.49600000
 H      20.26600000      20.75800000      22.07400000
 H      22.39900000      22.89200000      20.47900000
 O      18.98400000      20.42400000      20.48100000
 O      22.40000000      22.72900000      19.68300000
 O      21.73300000      22.74800000      21.23500000
 C      20.25700000      20.22400000      21.09700000
 O      21.17900000      20.25100000      18.78400000
 H      22.20800000      20.53100000      20.62200000
 O      21.56100000      18.63500000      22.39600000
 O      19.93700000      18.40300000      22.64700000
 H      20.90400000      18.37000000      22.90000000
 H      21.39000000      19.25000000      18.86000000
 H      18.93900000      19.74200000      19.72100000
 O      16.70800000      25.52500000      21.35700000
 H      17.38200000      25.48300000      20.65900000
 H      16.94600000      26.39200000      21.72500000
 O      19.29100000      25.34500000      20.13000000
 H      19.14000000      24.65800000      19.36400000
 H      19.12600000      26.14700000      19.57300000
 O      18.61300000      31.17300000      14.26100000
 H      19.00600000      32.07900000      14.49700000
 H      17.87500000      31.44900000      13.72300000
 O      28.37700000      22.02700000      21.15900000
 H      27.76600000      22.65200000      20.75300000
 H      27.91300000      21.84300000      22.03700000
 O      27.44800000      32.48700000      15.19700000
 H      27.35400000      33.21900000      14.61000000
 H      28.38600000      32.18200000      14.94900000
 O      18.58400000      23.74000000      25.74600000
 H      19.42600000      23.89400000      25.31900000
 H      17.93500000      23.94900000      25.04100000
 O      15.62300000      33.67400000      27.62600000
 H      15.09900000      33.04800000      27.03600000
 H      15.17300000      34.51100000      27.23500000
 O      21.35300000      21.52600000      25.34000000
 H      22.15800000      21.44700000      24.75600000
 H      21.32600000      22.49300000      25.34600000
 O      19.75600000      25.99200000      14.79900000
 H      20.30200000      25.19500000      14.93500000
 H      18.94600000      25.76300000      15.36100000
 O      20.72000000      23.64100000      15.16400000
 H      21.35000000      23.27300000      15.82200000
 H      19.96400000      23.07000000      15.19100000
 O      14.10600000      24.46400000      22.05200000
 H      14.89300000      24.86600000      21.70200000
 H      14.14600000      24.61900000      23.00400000
 O      14.90600000      24.63900000      27.42700000
 H      15.41500000      24.11700000      28.09900000
 H      15.32200000      25.52100000      27.49500000
 O      26.91500000      25.68500000      22.04000000
 H      26.76000000      24.99200000      21.37000000
 H      26.87600000      26.45400000      21.48900000
 O      17.77100000      28.37400000      21.90900000
 H      18.12700000      28.89800000      21.16500000
 H      17.29700000      29.07000000      22.39100000
 O      25.55000000      33.78600000      23.68100000
 H      24.77800000      33.15500000      23.79000000
 H      25.37800000      34.11200000      22.79200000
 O      16.08500000      30.27000000      22.67600000
 H      15.88900000      31.06600000      23.23600000
 H      15.48200000      30.41400000      21.99000000
 O      23.38200000      32.25200000      24.55800000
 H      24.04400000      32.02400000      25.25800000
 H      23.15700000      31.39900000      24.19100000
 O      18.30300000      34.03800000      17.25600000
 H      18.63900000      34.14500000      18.18300000
 H      19.18000000      33.81900000      16.83700000
 O      22.01300000      25.93400000      20.24000000
 H      21.09700000      25.74600000      20.49000000
 H      21.97600000      26.07600000      19.29900000
 O      24.37800000      25.84900000      16.88700000
 H      24.29500000      24.83800000      16.68000000
 H      25.14700000      25.73000000      17.51900000
 O      27.23800000      22.33200000      17.85600000
 H      28.16100000      22.60700000      17.55900000
 H      27.32300000      21.40500000      17.78200000
 O      16.06500000      29.60200000      15.30500000
 H      15.87300000      29.27600000      16.14600000
 H      16.96500000      29.89100000      15.30500000
 O      18.48500000      21.97900000      15.84700000
 H      18.05000000      22.14700000      14.95300000
 H      17.87500000      21.25400000      16.08000000
 O      19.06700000      31.88100000      23.32500000
 H      18.30400000      31.47600000      23.68800000
 H      19.66400000      31.05200000      23.28700000
 O      19.41000000      33.20500000      20.87100000
 H      20.37600000      33.27200000      21.08000000
 H      19.14000000      32.79000000      21.73100000
 O      18.31800000      33.87700000      26.98600000
 H      18.86100000      33.30500000      27.59700000
 H      17.45700000      33.87900000      27.43800000
 O      13.67300000      23.40300000      19.54200000
 H      13.01600000      24.07000000      19.29500000
 H      14.09000000      23.70600000      20.32600000
 O      17.70300000      30.94100000      28.64800000
 H      17.68900000      30.72300000      27.68400000
 H      18.33200000      30.26700000      28.95700000
 O      14.53000000      21.87100000      24.49600000
 H      14.21500000      22.76500000      24.69100000
 H      15.27600000      21.75200000      25.13100000
 O      16.42800000      31.99900000      17.58800000
 H      17.11000000      32.72000000      17.30200000
 H      15.65000000      32.32300000      17.12000000
 O      17.04000000      28.03300000      25.44200000
 H      17.47200000      27.47700000      26.09800000
 H      16.59600000      27.45200000      24.84000000
 O      25.50000000      26.12400000      26.35400000
 H      25.32200000      25.41900000      25.74600000
 H      26.10900000      26.75000000      25.85600000
 O      27.49800000      34.61500000      27.53900000
 H      26.82500000      35.20400000      27.96800000
 H      26.96200000      33.83300000      27.30500000
 O      24.20700000      33.43100000      18.19400000
 H      24.56100000      32.70200000      17.70600000
 H      24.09100000      34.10500000      17.49800000
 O      27.13000000      22.73800000      27.81900000
 H      27.62700000      22.30100000      27.08400000
 H      26.20200000      22.48100000      27.51800000
 O      21.05000000      24.31900000      25.00800000
 H      21.59400000      24.73800000      24.27100000
 H      21.46600000      24.66800000      25.80700000
 O      13.95000000      27.65400000      25.39600000
 H      13.56700000      28.24700000      24.74000000
 H      14.00900000      28.26500000      26.12900000
 O      17.91400000      30.47900000      26.07600000
 H      17.54700000      29.59900000      25.80200000
 H      17.37300000      31.07500000      25.54900000
 O      22.61200000      24.92100000      22.89500000
 H      22.10100000      24.47000000      22.16300000
 H      22.77600000      25.80000000      22.52900000
 O      20.77200000      29.78400000      22.84000000
 H      20.28400000      28.99200000      22.56800000
 H      21.32600000      29.41800000      23.58000000
 O      21.99600000      33.31500000      21.73500000
 H      21.94500000      32.39100000      21.34700000
 H      22.93000000      33.31800000      22.05200000
 O      26.08200000      23.81200000      20.34500000
 H      26.05600000      23.69800000      19.39900000
 H      25.35000000      23.25500000      20.67400000
 O      14.91200000      26.38100000      17.62200000
 H      15.33400000      27.24500000      17.67300000
 H      14.73000000      26.32900000      16.65400000
 O      21.98500000      30.97200000      20.45800000
 H      21.76800000      30.58900000      21.33000000
 H      21.57900000      30.25600000      19.85900000
 O      27.51200000      25.88400000      17.72200000
 H      28.50900000      25.63000000      17.73400000
 H      27.61100000      26.58000000      18.38500000
 O      26.73300000      28.15900000      20.20000000
 H      27.21200000      29.01200000      20.09900000
 H      25.89500000      28.43800000      19.66700000
 O      13.45200000      22.01500000      16.26400000
 H      12.85600000      21.43100000      16.81300000
 H      14.25000000      21.91400000      16.80500000
 O      14.05400000      30.11000000      20.39800000
 H      13.97800000      31.08800000      20.11100000
 H      13.13800000      29.82900000      20.18500000
 O      23.70300000      19.96900000      26.69900000
 H      23.65800000      20.93100000      26.51000000
 H      24.50000000      19.90900000      27.21800000
 O      21.29200000      28.95900000      18.44900000
 H      20.36000000      29.09500000      18.40700000
 H      21.38000000      28.21000000      17.79900000
 O      22.31800000      34.61900000      24.87000000
 H      21.39300000      34.45900000      24.55900000
 H      22.69700000      33.71100000      24.69200000
 O      18.91500000      28.89300000      15.89800000
 H      19.41800000      28.51900000      15.16300000
 H      19.12500000      29.84100000      15.75000000
 O      19.65400000      34.11700000      24.65600000
 H      19.25500000      33.88400000      25.47500000
 H      19.32600000      33.36000000      24.08900000
 O      18.47300000      23.56100000      18.24000000
 H      17.76000000      23.07000000      18.74800000
 H      18.61000000      22.83800000      17.53800000
 O      18.36100000      20.18800000      13.19400000
 H      17.86000000      19.94600000      13.99100000
 H      18.00600000      21.06300000      12.95800000
 O      18.27800000      25.94600000      27.13100000
 H      18.25100000      25.01000000      26.70000000
 H      19.13700000      26.20700000      26.70300000
 O      22.15600000      27.08200000      27.79100000
 H      21.34500000      27.31200000      28.37900000
 H      21.74500000      27.25700000      26.93100000
 O      14.21100000      24.51900000      24.81500000
 H      14.53600000      24.29100000      25.70700000
 H      14.07700000      25.50000000      25.02800000
 O      26.98100000      21.56700000      23.46700000
 H      26.88700000      20.63700000      23.79400000
 H      27.57800000      21.94100000      24.11100000
 O      19.72000000      26.61800000      23.10800000
 H      19.35900000      25.76700000      23.00000000
 H      19.03100000      27.14800000      22.58600000
 O      27.55000000      25.15200000      15.02500000
 H      27.25900000      25.64400000      15.82800000
 H      28.24300000      24.55700000      15.46300000
 O      20.34200000      33.02400000      15.42300000
 H      20.89800000      32.79300000      16.25400000
 H      21.08300000      32.81500000      14.75500000
 O      23.53500000      27.67000000      21.92300000
 H      24.30600000      28.06900000      21.47500000
 H      23.13700000      27.19300000      21.20000000
 O      24.92700000      31.08600000      16.74000000
 H      24.98700000      30.21400000      16.30200000
 H      25.49300000      31.60900000      16.08900000
 O      27.07000000      30.04200000      22.99200000
 H      27.76000000      30.59700000      23.38800000
 H      27.26400000      30.13700000      22.01500000
 O      24.23300000      29.19200000      18.55100000
 H      24.43100000      29.84300000      17.86500000
 H      23.27200000      29.08000000      18.57000000
 O      16.28200000      22.47700000      19.57700000
 H      15.36900000      22.83800000      19.66700000
 H      16.11000000      21.61600000      19.14500000
 O      23.64400000      29.63100000      23.92900000
 H      23.50900000      28.97200000      23.22400000
 H      24.14000000      29.14100000      24.60400000
 O      18.28300000      21.14000000      25.53100000
 H      19.12100000      20.94900000      25.17000000
 H      18.28700000      22.09800000      25.64600000
 O      24.25600000      22.81800000      26.49200000
 H      23.48600000      23.29600000      26.87500000
 H      24.05200000      22.78100000      25.53500000
