273
XYZ file of cluster: frame_19000_34be.73aa2.23f09 - created by MolEdiTo
 O      13.11600000      32.08300000      10.91100000
 H      13.28700000      32.83300000      10.27800000
 H      12.60800000      31.49100000      10.32500000
 O      12.19700000      31.48600000      15.80200000
 H      12.05000000      31.73700000      14.85300000
 H      12.89700000      32.20500000      16.01200000
 O       5.01700000      24.85200000       8.07200000
 H       5.71600000      25.00500000       8.73600000
 H       4.52000000      25.71000000       8.21700000
 O      12.73100000      35.22600000      13.39000000
 H      12.68200000      34.18000000      13.37700000
 H      11.90100000      35.42300000      12.89500000
 O       8.65100000      34.02900000      10.95200000
 H       9.50800000      33.61200000      10.71800000
 H       8.28900000      33.36600000      11.58900000
 O      11.16400000      23.02200000      14.78400000
 H      11.96600000      22.46000000      15.01500000
 H      10.58300000      22.69900000      15.49600000
 O       5.06500000      20.04700000      17.93100000
 H       4.56900000      19.52800000      17.29900000
 H       4.42600000      20.80200000      18.07500000
 O      13.60900000      33.67100000       8.49300000
 H      14.36700000      33.08600000       8.12600000
 H      14.10200000      34.47500000       8.61000000
 O       3.45700000      31.08300000      11.35300000
 H       4.36800000      30.73100000      11.15800000
 H       3.50100000      30.95100000      12.36200000
 O       5.55300000      25.25100000      11.55300000
 H       6.05200000      25.49000000      10.73000000
 H       4.99500000      26.06800000      11.73500000
 O       0.94300000      20.98900000      10.04500000
 H       1.15400000      21.75400000       9.50200000
 H       1.72600000      20.82400000      10.52600000
 O       2.06800000      29.23000000       9.70200000
 H       2.24000000      30.15600000      10.02500000
 H       1.12200000      29.32400000       9.54300000
 O       3.44700000      34.36800000      12.27400000
 H       4.17500000      33.86600000      12.74200000
 H       2.94900000      33.58500000      12.00800000
 O       0.96700000      23.99000000      20.01100000
 H       0.68600000      24.02000000      20.95600000
 H       0.56500000      24.85100000      19.70300000
 O      14.20500000      26.34000000      14.76600000
 H      13.62000000      25.66700000      14.28300000
 H      13.52700000      26.99800000      15.03100000
 O       1.18900000      23.08700000       8.21800000
 H       1.62300000      22.47700000       7.52200000
 H       1.52900000      23.90500000       7.89500000
 O      11.99400000      25.97900000      18.66700000
 H      11.58000000      26.54400000      17.98900000
 H      12.94000000      26.18200000      18.45600000
 O      14.00400000      33.38300000      16.08200000
 H      13.89900000      33.99100000      16.84600000
 H      14.82400000      33.81300000      15.70000000
 O       3.01600000      29.93300000      16.39100000
 H       2.24600000      29.94000000      16.93900000
 H       3.69600000      29.62900000      17.01600000
 O       5.74600000      34.00100000      16.77200000
 H       5.94500000      33.91800000      15.81400000
 H       6.12300000      34.87400000      17.03400000
 O       6.91200000      26.26800000       9.29400000
 H       7.77100000      26.72100000       9.08900000
 H       6.33800000      27.08400000       9.11600000
 O       7.47100000      28.68500000      20.08900000
 H       7.47600000      27.75400000      20.42300000
 H       7.51000000      28.45000000      19.14800000
 O       3.81200000      23.55000000      14.97900000
 H       3.15400000      23.50600000      14.24800000
 H       4.23400000      22.66200000      14.85300000
 O       2.89200000      26.60800000       8.63000000
 H       2.82500000      27.49100000       9.05600000
 H       2.00600000      26.54800000       8.19900000
 O      11.96100000      32.57000000      13.25700000
 H      11.23300000      31.91800000      13.06100000
 H      12.49000000      32.48200000      12.43500000
 O       6.93800000      34.14900000       7.04500000
 H       5.90700000      34.14500000       6.92600000
 H       6.95500000      33.20600000       7.37600000
 O       7.59700000      22.95200000      19.47600000
 H       8.52100000      23.28300000      19.69800000
 H       7.25100000      23.04500000      20.43400000
 O      11.85800000      30.68100000       8.87500000
 H      10.92600000      30.93500000       8.95400000
 H      11.99200000      30.81600000       7.89400000
 O       4.45300000      22.12000000       8.43200000
 H       3.78200000      22.24100000       7.72200000
 H       4.65900000      23.11000000       8.56100000
 O       5.53000000      33.12500000      13.74700000
 H       6.11900000      32.46900000      13.40800000
 H       6.03900000      33.89100000      13.84000000
 O       6.23400000      20.20700000       7.80600000
 H       5.96000000      20.04900000       6.87700000
 H       5.53800000      20.89600000       8.00700000
 O      12.42200000      25.00400000      10.08900000
 H      13.19400000      24.51900000      10.49300000
 H      11.91900000      25.21800000      10.85000000
 O       4.34000000      33.94600000       7.24700000
 H       3.45300000      34.07300000       6.71600000
 H       3.92500000      33.69400000       8.07900000
 O       9.21600000      31.00000000      20.51200000
 H       8.65900000      31.71000000      20.66900000
 H       8.65000000      30.34700000      20.00000000
 O       2.89900000      31.92900000       8.39100000
 H       3.22300000      31.85300000       9.33100000
 H       1.98900000      32.21300000       8.52100000
 O       3.78800000      21.16200000      10.98400000
 H       4.35800000      21.41200000      10.24100000
 H       3.96200000      21.85800000      11.63100000
 O       9.06300000      31.82500000       8.68500000
 H       9.09100000      31.68600000       7.73800000
 H       8.12200000      31.65700000       8.83400000
 O       9.93600000      23.87700000      19.98600000
 H      10.47400000      24.47900000      19.49100000
 H      10.18300000      24.01900000      20.91300000
 O      12.71900000      24.81900000      13.39000000
 H      11.83500000      25.07100000      12.95800000
 H      12.32700000      24.05300000      13.94800000
 O      11.51000000      30.25500000      19.18300000
 H      12.14700000      30.87700000      18.88600000
 H      10.90200000      30.77400000      19.73800000
 O       4.65500000      20.81900000      14.49300000
 H       4.62700000      19.91900000      14.09400000
 H       3.64700000      20.90400000      14.72900000
 O       6.77900000      22.75500000      11.10800000
 H       7.48600000      22.60200000      11.72800000
 H       6.44200000      23.62300000      11.42200000
 O       7.19100000      24.17700000      16.42600000
 H       7.06300000      23.37900000      15.80700000
 H       7.34400000      23.73400000      17.26600000
 O       9.48400000      28.73300000      15.24300000
 H      10.46000000      28.70600000      15.50300000
 H       9.30700000      27.76600000      15.15000000
 O       4.80400000      25.73200000      16.29500000
 H       4.25400000      25.02800000      15.80400000
 H       5.65400000      25.19800000      16.35200000
 O      10.34000000      25.69400000      12.11000000
 H       9.86200000      24.90100000      11.90000000
 H       9.90600000      26.37800000      11.66500000
 O       8.76500000      20.31100000      11.66100000
 H       8.41700000      20.62500000      10.81900000
 H       9.69200000      20.29700000      11.43500000
 O       4.10300000      27.84400000      12.12600000
 H       3.16500000      27.65300000      12.03800000
 H       4.08400000      28.22700000      13.04400000
 O      14.53400000      21.65900000      13.26600000
 H      13.91000000      21.01000000      12.82500000
 H      13.92600000      22.24100000      13.76500000
 O       7.98800000      31.60900000      17.05500000
 H       8.31600000      32.47800000      16.77400000
 H       8.67600000      30.99000000      16.61900000
 O      13.31800000      20.95700000      20.54900000
 H      13.52400000      21.81000000      20.16100000
 H      12.86000000      20.49800000      19.81300000
 O       5.70700000      33.69800000      10.09300000
 H       5.03500000      34.09200000      10.73700000
 H       6.33500000      34.48100000      10.04900000
 O      10.02900000      22.95000000      12.24500000
 H      10.55700000      22.29700000      11.74000000
 H      10.47500000      22.91100000      13.10600000
 O       6.25600000      31.76200000       8.48400000
 H       5.55700000      31.93000000       7.79700000
 H       5.85800000      32.35700000       9.19900000
 O      11.84700000      29.02800000      16.48800000
 H      12.24800000      29.91000000      16.14900000
 H      11.52100000      29.49700000      17.33100000
 O       1.68000000      25.63500000      11.17500000
 H       1.80200000      25.80900000      10.24200000
 H       0.70800000      25.70400000      11.31700000
 O       1.73500000      33.29100000      16.30600000
 H       2.02400000      34.16200000      16.61800000
 H       2.20200000      32.73700000      16.97200000
 O       9.71700000      22.01400000      16.68200000
 H       9.48400000      22.02500000      17.57600000
 H       8.91700000      21.78200000      16.21600000
 O       7.38300000      27.98600000      17.16600000
 H       6.98100000      27.34900000      16.59600000
 H       8.19900000      28.32200000      16.73600000
 O       3.27500000      23.70300000      12.32100000
 H       4.06200000      24.15200000      12.52300000
 H       2.77200000      24.42100000      11.78600000
 O       5.92300000      29.84700000      11.17800000
 H       5.45200000      29.05400000      11.53800000
 H       6.11000000      29.43100000      10.28400000
 O      11.15600000      28.59200000      10.50700000
 H      11.48100000      29.22500000       9.87400000
 H      11.93800000      28.23300000      10.87400000
 O       3.14200000      27.79000000      14.88300000
 H       3.66800000      27.13500000      15.40200000
 H       3.03300000      28.54100000      15.46000000
 O      13.67300000      23.40300000      19.54200000
 H      13.01600000      24.07000000      19.29500000
 H      14.09000000      23.70600000      20.32600000
 O       5.87800000      32.13300000      18.62700000
 H       5.70200000      32.81300000      17.92100000
 H       6.62800000      31.67500000      18.14800000
 O       9.17400000      25.69200000      15.00200000
 H       9.56300000      25.07800000      14.36700000
 H       8.40900000      25.13100000      15.35200000
 O       6.00800000      29.13900000       8.53900000
 H       5.97900000      30.17000000       8.41600000
 H       5.73300000      28.92100000       7.62600000
 O       1.16900000      26.35000000      17.95600000
 H       0.89900000      27.27400000      17.82100000
 H       2.02200000      26.54300000      18.42300000
 O       7.76100000      20.46600000      18.21600000
 H       6.79600000      20.49300000      17.99100000
 H       7.73100000      21.30000000      18.81500000
 O       7.61200000      31.81400000      12.50200000
 H       7.17300000      31.07100000      11.97600000
 H       8.53900000      31.42600000      12.59500000
 O      13.40200000      24.44000000       6.11800000
 H      13.92400000      23.66300000       6.20400000
 H      12.83700000      24.39300000       6.93200000
 O       3.60400000      22.36000000      17.94900000
 H       2.75800000      22.45400000      17.46300000
 H       3.53100000      23.04800000      18.61100000
 O      13.45200000      22.01500000      16.26400000
 H      12.85600000      21.43100000      16.81300000
 H      14.25000000      21.91400000      16.80500000
 O       9.83800000      22.32700000       6.95600000
 H       9.34400000      22.12600000       7.78800000
 H      10.39000000      23.14900000       7.28600000
 O       3.08400000      32.81400000      19.18100000
 H       4.05400000      32.69500000      19.49200000
 H       2.82000000      33.47600000      19.87000000
 O      14.05400000      30.11000000      20.39800000
 H      13.97800000      31.08800000      20.11100000
 H      13.13800000      29.82900000      20.18500000
 O       9.89600000      30.56100000      12.67900000
 H      10.18300000      30.01400000      11.99500000
 H       9.69400000      29.98700000      13.40500000
 O       4.75300000      29.51800000      18.20100000
 H       4.95200000      30.44600000      18.41800000
 H       5.64800000      29.15600000      18.12400000
 O       7.22300000      22.03600000      14.61400000
 H       6.30700000      21.68900000      14.63900000
 H       7.61500000      21.57400000      13.91000000
 O       2.03400000      21.10500000      15.07800000
 H       1.33200000      21.22000000      14.38500000
 H       1.55200000      21.54100000      15.82500000
 O       3.71300000      26.55000000      18.63700000
 H       4.08300000      27.45000000      18.65100000
 H       4.20900000      26.14300000      17.88000000
 O       9.95600000      26.66100000       8.62100000
 H       9.94700000      27.29900000       7.87500000
 H      10.27600000      27.26400000       9.34200000
 O       4.40300000      24.12000000      20.21600000
 H       3.73200000      24.82000000      20.15200000
 H       5.23000000      24.75200000      20.25100000
 O      11.11800000      24.43200000       7.97000000
 H      10.59700000      25.20600000       7.95100000
 H      11.63400000      24.59700000       8.80900000
 O       8.22700000      21.60600000       9.06300000
 H       7.57300000      21.07900000       8.54600000
 H       7.67000000      22.16100000       9.63000000
 O       9.67100000      33.47200000      15.82100000
 H      10.37100000      32.87900000      15.59000000
 H      10.13900000      34.28500000      15.91700000
 O      11.47400000      26.79000000      21.52300000
 H      11.38100000      25.90600000      21.86800000
 H      11.63200000      26.60200000      20.56000000
 O       3.48800000      31.10500000      13.93700000
 H       3.27600000      30.75700000      14.83500000
 H       4.26800000      31.68200000      14.12700000
 O      13.50400000      27.12700000       8.13300000
 H      14.12300000      27.44500000       8.78400000
 H      12.95400000      26.54300000       8.72900000
 O      13.23300000      32.41300000      19.59200000
 H      12.64800000      32.96800000      20.24700000
 H      13.78800000      33.26600000      19.31100000
 O      10.96600000      33.57200000       9.61700000
 H      11.75900000      33.67300000       9.01200000
 H      10.42800000      33.00600000       9.03500000
