135
XYZ file of cluster: frame_18500_9d87a.4c59f.749c3 - created by MolEdiTo
 O      29.67900000      19.68400000      17.08400000
 H      28.76600000      19.50300000      17.22100000
 H      29.84000000      19.13700000      16.23400000
 O      25.26800000      19.07800000      20.41900000
 H      24.94300000      19.93900000      20.49100000
 H      26.20300000      19.29800000      20.35300000
 O      21.25900000      19.18700000      17.42500000
 H      21.63300000      19.38100000      18.32100000
 H      20.34900000      19.58800000      17.41300000
 O      26.57100000      17.78100000      22.76000000
 H      25.70200000      17.61700000      22.42700000
 H      27.11400000      18.17500000      22.05800000
 O      28.72900000      16.14400000      16.41200000
 H      29.61100000      16.19100000      16.84800000
 H      28.17800000      16.34400000      17.14100000
 O      26.44900000       9.97000000      21.52400000
 H      25.96100000      10.03100000      22.39200000
 H      26.40800000      10.90100000      21.34900000
 O      20.76300000      16.35300000      19.07100000
 H      20.98200000      17.14800000      18.55100000
 H      21.03700000      16.65300000      19.97500000
 O      22.60500000      19.45100000      19.78700000
 H      23.42600000      19.00300000      20.19700000
 H      23.06000000      20.10100000      19.18700000
 O      23.13600000      21.72200000      18.20400000
 H      22.64700000      21.25000000      17.46900000
 H      22.82600000      22.64900000      17.95300000
 O      27.31200000      19.54200000      25.03300000
 H      27.63700000      18.56600000      24.87300000
 H      26.39000000      19.67200000      24.76200000
 O      26.60700000      14.02200000      26.20800000
 H      26.98500000      14.38600000      25.43200000
 H      25.92400000      13.36100000      25.98800000
 O      30.45900000      10.71400000      15.86400000
 H      30.62400000      10.05900000      16.65500000
 H      30.77800000      10.09800000      15.13100000
 O      27.29500000      21.20400000      22.41600000
 H      27.94800000      21.41300000      23.12400000
 H      27.85700000      20.60400000      21.89600000
 O      24.15400000      12.12200000      18.63200000
 H      23.78900000      11.67800000      19.34600000
 H      25.00300000      11.61300000      18.46600000
 O      26.49800000      10.91300000      17.67600000
 H      27.04200000      11.67200000      17.72000000
 H      26.68100000      10.44900000      16.86800000
 O      24.59900000      14.94500000      16.96700000
 H      24.69200000      14.10700000      17.43200000
 H      25.45900000      15.07700000      16.46100000
 O      27.66900000      12.49300000      20.29700000
 H      28.49200000      12.17800000      20.00100000
 H      27.51200000      12.91300000      19.51600000
 O      20.35500000      15.08200000      15.53800000
 H      21.32100000      15.03100000      15.22900000
 H      20.47200000      15.00700000      16.47900000
 O      24.84700000      18.46300000      17.36900000
 H      24.19900000      18.96000000      16.76300000
 H      24.96000000      17.67700000      16.89500000
 O      27.07800000      19.91900000      17.89700000
 H      26.63400000      20.73000000      18.32000000
 H      26.28500000      19.37100000      17.58100000
 O      25.04300000      13.14200000      21.92300000
 H      25.98800000      13.12700000      22.26900000
 H      25.07500000      13.72800000      21.18200000
 O      21.20400000      13.07500000      18.12900000
 H      20.41400000      13.60200000      18.29200000
 H      21.09500000      12.17900000      18.50100000
 O      21.24300000      18.11200000      24.73900000
 H      22.22000000      17.85200000      24.69900000
 H      21.14100000      18.71600000      24.00800000
 O      23.72600000      19.65800000      24.71600000
 H      23.92600000      20.37200000      25.34600000
 H      22.79100000      19.91100000      24.37800000
 O      21.30100000      17.09700000      21.75900000
 H      20.98900000      16.24500000      21.96300000
 H      22.23900000      17.25400000      22.14900000
 O      29.67200000      20.97500000      24.15400000
 H      29.02100000      20.23400000      24.28300000
 H      30.31900000      20.77900000      24.87400000
 O      23.53000000      17.04900000      23.08900000
 H      24.30200000      16.87000000      23.72300000
 H      22.90800000      16.34300000      23.41000000
 O      22.73100000      11.92100000      22.60500000
 H      23.69300000      12.10600000      22.51600000
 H      22.47300000      12.57400000      21.91400000
 O      27.58700000      16.27500000      19.04500000
 H      26.76300000      16.49500000      19.55200000
 H      28.31900000      16.28100000      19.69700000
 O      25.07400000      15.96600000      20.43500000
 H      25.02500000      16.94300000      20.14900000
 H      24.07000000      15.67000000      20.42700000
 O      22.55100000      14.76300000      20.28700000
 H      21.86300000      15.35300000      19.84300000
 H      22.71800000      14.12800000      19.55300000
 O      30.52400000      12.10300000      19.55100000
 H      30.80300000      11.69100000      20.40800000
 H      31.25000000      11.84500000      18.94000000
 O      28.03800000      19.04700000      20.46400000
 H      28.75000000      18.38400000      20.45200000
 H      27.65300000      18.96800000      19.56300000
 O      30.17500000      14.54000000      22.58500000
 H      30.36300000      13.69900000      22.06900000
 H      30.62400000      14.26400000      23.40500000
 O      30.00300000      16.49900000      20.51600000
 H      30.36700000      15.85100000      19.78800000
 H      30.38500000      16.16800000      21.37100000
 O      24.73400000      16.64500000      25.96300000
 H      24.54000000      17.51700000      26.46600000
 H      24.47800000      15.99600000      26.66600000
 O      22.65100000      11.82900000      16.23300000
 H      23.44300000      11.35000000      16.37500000
 H      22.61800000      12.69000000      16.78200000
 O      22.51800000      10.45800000      25.73600000
 H      21.90200000      10.31700000      26.42000000
 H      21.92200000      10.68900000      24.98000000
 O      27.41300000      14.98400000      23.72600000
 H      28.07200000      14.53000000      23.09100000
 H      27.01300000      15.74300000      23.31800000
 O      22.73000000      17.71400000      15.61900000
 H      21.83300000      17.92800000      16.03600000
 H      22.79800000      16.86700000      16.07600000
 O      28.29900000      17.10900000      25.96400000
 H      28.61700000      16.73900000      25.11500000
 H      27.54100000      16.53900000      26.18800000
 O      25.26400000      11.03500000      24.01700000
 H      24.47100000      11.22200000      24.56100000
 H      25.96200000      10.77200000      24.66700000
 O      27.91700000      13.21800000      17.35200000
 H      28.40900000      12.88200000      16.60200000
 H      28.24300000      14.07500000      17.66200000
 O      21.76900000      14.96500000      24.24500000
 H      22.06700000      14.04300000      24.13100000
 H      21.60600000      15.03800000      25.28400000
 O      23.60600000      21.51400000      21.59200000
 H      23.52900000      22.17500000      22.36300000
 H      23.57800000      20.62700000      22.08500000
