144
XYZ file of cluster: frame_18500_c0146.73046.4c363 - created by MolEdiTo
 O      29.67900000      19.68400000      17.08400000
 H      28.76600000      19.50300000      17.22100000
 H      29.84000000      19.13700000      16.23400000
 O      27.20700000      22.73700000      16.51400000
 H      27.83400000      23.40900000      16.11300000
 H      27.72200000      21.91800000      16.63400000
 O      29.98000000      23.46700000      10.16800000
 H      29.62300000      23.18500000      11.06000000
 H      30.92300000      23.23000000      10.20500000
 O      28.72900000      16.14400000      16.41200000
 H      29.61100000      16.19100000      16.84800000
 H      28.17800000      16.34400000      17.14100000
 O      28.89000000      17.99100000      10.83900000
 H      28.95000000      17.35200000      10.11300000
 H      28.24700000      17.62200000      11.42900000
 O      28.05900000      26.78000000      21.06300000
 H      28.61300000      27.27800000      21.78400000
 H      28.45400000      25.86300000      21.01200000
 O      25.67600000      21.79100000      19.82200000
 H      24.81200000      21.87000000      20.27000000
 H      26.35600000      21.94100000      20.45800000
 O      26.84900000      24.51500000      11.95600000
 H      26.43400000      24.44200000      12.85900000
 H      27.28000000      23.61200000      11.84500000
 O      25.84400000      16.98400000      15.23900000
 H      25.13100000      16.54600000      14.71800000
 H      26.64100000      16.99800000      14.72000000
 O      28.97600000      24.18200000      21.22600000
 H      28.67600000      23.40900000      20.77400000
 H      29.50400000      23.69800000      21.90500000
 O      26.33000000      19.68500000      12.69100000
 H      26.18200000      18.90500000      12.16700000
 H      26.73600000      20.33800000      12.05200000
 O      28.43300000      25.08500000      18.54900000
 H      28.74100000      24.99500000      19.52700000
 H      29.30000000      24.80900000      18.16300000
 O      28.37900000      16.19500000      13.59000000
 H      28.63400000      15.77800000      14.47800000
 H      27.46300000      16.00800000      13.32900000
 O      28.42900000      21.15800000      14.20300000
 H      28.70400000      20.38700000      14.63900000
 H      27.72200000      20.79400000      13.60100000
 O      27.07800000      19.91900000      17.89700000
 H      26.63400000      20.73000000      18.32000000
 H      26.28500000      19.37100000      17.58100000
 O      30.45000000      20.11600000      11.28700000
 H      29.64600000      19.47400000      11.23300000
 H      30.71600000      20.04500000      12.23100000
 O      27.58700000      16.27500000      19.04500000
 H      26.76300000      16.49500000      19.55200000
 H      28.31900000      16.28100000      19.69700000
 O      28.03800000      19.04700000      20.46400000
 H      28.75000000      18.38400000      20.45200000
 H      27.65300000      18.96800000      19.56300000
 O      28.51900000      22.26000000      19.34200000
 H      28.42400000      23.05300000      18.83200000
 H      28.61000000      21.48100000      18.70800000
 O      30.00300000      16.49900000      20.51600000
 H      30.36700000      15.85100000      19.78800000
 H      30.38500000      16.16800000      21.37100000
 O      29.89600000      18.50200000      14.09900000
 H      29.31500000      17.70500000      13.84800000
 H      30.75300000      18.06100000      13.99300000
 O      27.69800000      21.61400000      11.04400000
 H      28.59900000      21.27800000      11.40500000
 H      27.75600000      21.56200000      10.08900000
 O      27.69900000      25.50500000      15.29400000
 H      27.58800000      26.01300000      16.14100000
 H      28.53100000      24.97400000      15.39700000
 O      29.55300000      25.52100000      12.66400000
 H      29.79300000      24.61700000      12.71700000
 H      28.53000000      25.59900000      12.57400000
 O      29.59700000      23.53200000      14.94000000
 H      29.79500000      22.64600000      14.51000000
 H      30.48100000      23.92900000      15.14400000
 O      26.33400000      16.35800000      11.15400000
 H      25.37400000      16.07500000      11.22800000
 H      26.64600000      15.93200000      10.31700000
 O      36.23200000      24.11300000      17.23100000
 H      35.25500000      24.19200000      17.08700000
 H      36.17800000      23.25800000      17.66300000
 O      33.96500000      23.32000000      13.07700000
 H      33.98300000      23.30400000      12.11100000
 H      34.15100000      22.35600000      13.28400000
 O      33.13200000      15.27500000      13.90000000
 H      32.89300000      16.17100000      14.28300000
 H      32.30800000      15.01900000      13.53100000
 O      36.61000000      21.55300000      18.31800000
 H      37.05100000      20.69900000      18.11500000
 H      36.59300000      21.58300000      19.31300000
 O      34.24300000      21.36900000      16.74100000
 H      34.85500000      21.58300000      17.47500000
 H      33.47700000      21.14100000      17.23800000
 O      36.93600000      21.24100000      20.82400000
 H      37.38600000      21.41600000      21.65700000
 H      36.76900000      20.29700000      20.90000000
 O      33.96000000      17.89800000      15.27700000
 H      34.32500000      17.93000000      16.22300000
 H      34.86700000      17.76500000      14.84700000
 O      37.64800000      18.93800000      17.89900000
 H      37.93800000      18.47500000      17.09100000
 H      36.73000000      18.65200000      17.95300000
 O      34.64800000      20.65900000      13.85100000
 H      34.89700000      19.71800000      13.78900000
 H      34.09800000      20.81500000      14.64300000
 O      35.67600000      27.00300000      13.47300000
 H      34.97500000      26.87500000      12.82000000
 H      36.11400000      26.10100000      13.58400000
 O      36.12300000      17.39400000       9.88900000
 H      35.93000000      16.77800000      10.60200000
 H      37.02100000      17.61900000       9.93500000
 O      35.01800000      18.04500000      17.65400000
 H      34.50500000      17.16500000      17.88100000
 H      34.45900000      18.74900000      18.17300000
 O      32.95100000      19.70100000      19.10800000
 H      32.57200000      19.24100000      19.93700000
 H      32.24600000      19.79600000      18.36900000
 O      37.11300000      21.68100000      15.33400000
 H      36.29000000      21.57100000      14.88400000
 H      36.85500000      21.34300000      16.19200000
 O      36.45900000      18.53100000      20.90000000
 H      37.30700000      18.12100000      20.67600000
 H      35.86200000      17.84500000      21.15800000
 O      33.72500000      24.88300000      15.72200000
 H      34.09700000      24.57000000      14.85100000
 H      34.39900000      25.47200000      16.21500000
 O      33.11200000      22.23200000      21.01500000
 H      33.49300000      21.68400000      20.27600000
 H      32.88000000      21.59800000      21.74000000
 O      36.36000000      18.53800000      13.75500000
 H      37.19200000      19.03100000      13.55300000
 H      36.71900000      17.62400000      13.68800000
 O      34.59300000      22.91700000      10.29100000
 H      34.51500000      21.88800000      10.26300000
 H      35.44000000      23.20300000      10.67600000
 O      32.28000000      23.42100000      18.24300000
 H      33.06400000      23.70700000      17.75700000
 H      32.44600000      23.44700000      19.24600000
 O      34.15400000      25.55200000      19.26900000
 H      34.43800000      25.03900000      20.01700000
 H      34.36200000      26.51100000      19.31200000
 O      36.22100000      24.26200000      21.12000000
 H      37.19400000      24.06800000      21.04200000
 H      35.79700000      23.36400000      21.37900000
