129
XYZ file of cluster: frame_18500_77b49.79fa8.c74f9 - created by MolEdiTo
 O      16.59500000      26.96100000      28.39500000
 H      16.12800000      26.49100000      27.68100000
 H      16.21800000      27.86700000      28.66400000
 O      26.21000000      26.41700000      30.16400000
 H      26.54100000      26.52800000      29.24300000
 H      27.00500000      26.41100000      30.69500000
 O      18.16000000      19.33400000      29.01300000
 H      17.20600000      19.32200000      29.31900000
 H      18.43900000      19.98300000      29.76100000
 O      24.20000000      18.18000000      28.22200000
 H      25.10300000      17.89500000      28.50400000
 H      23.65100000      17.91700000      28.99200000
 O      26.48100000      24.96600000      27.29800000
 H      26.77900000      24.14600000      26.97300000
 H      25.69600000      24.66700000      27.95400000
 O      18.31000000      23.38200000      25.86200000
 H      18.11400000      22.59300000      26.39300000
 H      18.57700000      24.01500000      26.60700000
 O      21.67700000      22.60500000      26.48800000
 H      21.86200000      22.40400000      27.35400000
 H      21.18800000      21.77100000      26.23200000
 O      18.14200000      21.89300000      28.16200000
 H      17.38800000      21.74100000      28.83300000
 H      18.26700000      20.96900000      27.74200000
 O      25.03700000      20.74000000      26.94500000
 H      24.48200000      19.92800000      27.13800000
 H      26.01900000      20.54300000      27.11500000
 O      23.76500000      24.99500000      30.38900000
 H      23.98000000      24.42900000      29.60200000
 H      24.68500000      25.39000000      30.44100000
 O      16.86700000      24.14500000      29.83900000
 H      16.61200000      25.06600000      29.68000000
 H      17.74100000      24.01200000      29.48300000
 O      18.34600000      16.82500000      27.87000000
 H      18.52100000      17.37700000      28.62900000
 H      17.37200000      17.04100000      27.61400000
 O      24.73400000      16.64500000      25.96300000
 H      24.54000000      17.51700000      26.46600000
 H      24.47800000      15.99600000      26.66600000
 O      24.15900000      23.30400000      28.24000000
 H      23.32800000      23.08100000      27.84400000
 H      24.62000000      22.43500000      28.11200000
 O      23.29800000      25.95600000      26.40600000
 H      23.93400000      25.78700000      27.07600000
 H      23.21200000      26.94400000      26.50100000
 O      22.53200000      17.77700000      30.57200000
 H      22.27900000      16.88400000      30.49300000
 H      21.79900000      18.29700000      31.04200000
 O      24.36800000      20.71900000      30.73000000
 H      24.97400000      19.96800000      30.64700000
 H      23.56300000      20.22200000      31.02500000
 O      20.24400000      19.85300000      27.13700000
 H      19.50900000      19.47300000      27.69700000
 H      20.64900000      19.14500000      26.64900000
 O      21.59000000      22.60900000      29.45200000
 H      20.57200000      22.65500000      29.40800000
 H      21.94400000      23.22900000      30.20400000
 O      15.99200000      21.39000000      29.95700000
 H      16.45100000      22.18300000      30.26500000
 H      15.61500000      21.06500000      30.79700000
 O      19.71700000      24.85600000      28.21700000
 H      20.22100000      24.13000000      27.99200000
 H      20.40200000      25.57800000      28.12400000
 O      18.38600000      19.83000000      33.79400000
 H      17.75100000      20.19100000      34.48300000
 H      17.90000000      19.13800000      33.39000000
 O      24.24500000      21.65400000      35.47700000
 H      23.50500000      22.24100000      35.74700000
 H      24.20900000      21.79500000      34.51400000
 O      20.69500000      17.42900000      35.46700000
 H      20.74600000      18.38200000      35.84200000
 H      21.61600000      17.06300000      35.55700000
 O      15.81300000      25.82400000      34.94600000
 H      15.46300000      25.82500000      35.86600000
 H      15.59500000      26.72700000      34.49300000
 O      15.46600000      20.66200000      34.64600000
 H      15.80700000      21.60000000      34.92000000
 H      15.55600000      20.17300000      35.56900000
 O      18.00700000      16.90300000      33.42300000
 H      17.98900000      15.92800000      33.45100000
 H      18.79600000      16.99200000      33.93300000
 O      26.40500000      19.60500000      35.05200000
 H      26.13800000      18.95900000      34.33300000
 H      25.72000000      20.32400000      34.93600000
 O      18.31000000      20.94600000      36.57400000
 H      19.20800000      21.01600000      36.23800000
 H      18.32600000      21.48200000      37.42000000
 O      26.28200000      16.81900000      36.90800000
 H      25.77800000      17.48700000      36.40100000
 H      26.11500000      17.07500000      37.79000000
 O      19.30100000      23.71400000      33.02700000
 H      18.42600000      23.79100000      33.50300000
 H      19.55900000      24.59700000      32.70000000
 O      18.51200000      24.81000000      36.61500000
 H      18.67800000      25.58900000      36.06600000
 H      18.89200000      25.01800000      37.46500000
 O      22.63500000      27.43100000      35.64000000
 H      22.91700000      26.55900000      35.92800000
 H      22.23600000      27.37800000      34.78100000
 O      15.92900000      17.20900000      37.46300000
 H      16.45100000      16.60400000      38.01100000
 H      15.54500000      16.52400000      36.76100000
 O      23.52100000      17.58500000      36.59400000
 H      23.50800000      17.08000000      37.39700000
 H      23.39700000      18.53500000      36.99600000
 O      16.04300000      18.57500000      32.50200000
 H      15.68200000      19.00500000      33.34700000
 H      16.36600000      17.68500000      32.77000000
 O      20.45300000      22.41500000      35.62100000
 H      20.35100000      22.16300000      34.67100000
 H      20.01200000      23.24500000      35.70200000
 O      26.09000000      18.07000000      32.65800000
 H      26.92200000      17.95100000      32.09300000
 H      25.77100000      17.14600000      32.76400000
 O      23.52800000      24.40300000      34.92300000
 H      24.39600000      24.77600000      35.04600000
 H      23.38200000      24.65700000      33.99600000
 O      26.18700000      24.56700000      35.66000000
 H      26.79500000      24.50700000      36.42300000
 H      26.35200000      25.45000000      35.28600000
 O      21.22500000      20.33800000      33.00500000
 H      20.22700000      20.45600000      33.12400000
 H      21.36400000      20.87500000      32.20400000
 O      24.04400000      16.21600000      34.17100000
 H      24.03100000      16.57800000      35.11100000
 H      23.55200000      16.84700000      33.63700000
 O      16.94400000      23.09800000      34.68600000
 H      17.21000000      23.18500000      35.60100000
 H      16.70500000      24.00400000      34.45300000
