102
XYZ file of cluster: frame_18500_0.674b.9c3af - created by MolEdiTo
 O      10.28500000       9.12000000      23.05100000
 H      10.25400000       9.12800000      24.02300000
 H      11.09200000       9.65100000      22.89000000
 O       3.92400000       6.43500000      29.03300000
 H       3.57500000       6.33700000      29.91700000
 H       4.88300000       6.30700000      29.22500000
 O       9.26400000       2.83300000      28.44500000
 H       9.06700000       3.82100000      28.19200000
 H       9.54900000       3.05600000      29.37400000
 O       6.76600000       8.21800000      27.09800000
 H       7.10300000       7.94500000      27.99300000
 H       6.67200000       7.33300000      26.82000000
 O       1.65400000      10.60900000      22.26300000
 H       2.49500000      10.63800000      22.81900000
 H       1.32900000       9.77600000      22.60800000
 O       9.30800000       8.97600000      29.17500000
 H       9.71400000       8.57200000      28.40500000
 H      10.07500000       9.28300000      29.82100000
 O       2.99300000       2.27400000      28.24000000
 H       3.69500000       1.77900000      27.90000000
 H       2.33800000       1.55800000      28.06400000
 O       8.67000000       3.44200000      24.25500000
 H       9.08900000       2.59200000      24.50200000
 H       8.08100000       3.32000000      23.42200000
 O       8.09600000       6.06700000      24.50400000
 H       8.12800000       5.15500000      24.11400000
 H       8.51000000       6.64300000      23.81400000
 O       5.96000000       5.44000000      26.12000000
 H       5.70700000       4.75900000      25.49500000
 H       6.80200000       5.76100000      25.65000000
 O       4.06600000      10.18300000      23.70100000
 H       5.04900000      10.26600000      23.92900000
 H       3.90600000       9.25900000      23.88600000
 O       9.31600000       8.87400000      26.29900000
 H       8.44100000       8.42500000      26.58200000
 H       9.11800000       9.81400000      26.07800000
 O       6.75300000       6.32400000      29.68100000
 H       7.41800000       5.98200000      29.06300000
 H       7.22500000       6.39200000      30.56300000
 O       8.88700000       5.37900000      27.42900000
 H       9.57900000       5.97500000      27.79000000
 H       8.81200000       5.61600000      26.47300000
 O       3.10400000       9.54600000      30.51400000
 H       3.02200000       9.19300000      29.60000000
 H       2.45400000       8.92500000      30.94200000
 O       8.74000000       9.06200000      20.81200000
 H       9.31200000       9.00900000      21.59400000
 H       9.30000000       9.65500000      20.27200000
 O       1.44500000       4.88700000      22.32900000
 H       1.39300000       5.83000000      22.01400000
 H       1.76000000       4.35000000      21.53600000
 O       6.42800000       3.21500000      28.24200000
 H       7.39500000       3.06800000      28.06300000
 H       6.16700000       3.90200000      27.57500000
 O       4.92100000       3.22400000      30.49000000
 H       4.14300000       3.03400000      29.93200000
 H       5.66900000       3.27600000      29.83000000
 O       4.79800000      10.21900000      26.76400000
 H       5.41100000       9.48000000      27.05700000
 H       4.79000000      10.90600000      27.47000000
 O       3.94300000       5.43100000      20.63400000
 H       4.70000000       5.97400000      20.90800000
 H       3.87400000       4.63000000      21.22700000
 O       8.85100000       6.10200000      22.02400000
 H       9.12000000       5.31600000      21.53600000
 H       8.68500000       6.73400000      21.30200000
 O       2.57800000       7.59200000      23.75400000
 H       2.05900000       7.48900000      22.90500000
 H       2.39400000       6.79900000      24.38400000
 O       6.75500000       9.98300000      23.83800000
 H       7.30200000       9.86300000      23.06700000
 H       7.15900000       9.52600000      24.63300000
 O       5.83500000       9.88800000      29.99000000
 H       4.90600000      10.21700000      30.24900000
 H       5.76000000       8.91900000      29.75300000
 O       4.39100000       3.03300000      22.36500000
 H       4.33900000       3.07400000      23.32700000
 H       3.80000000       2.25400000      22.17800000
 O       4.82200000       2.84900000      25.22900000
 H       4.96200000       2.05900000      25.78000000
 H       4.22900000       3.36900000      25.70700000
 O       1.48600000       2.93500000      24.53000000
 H       1.55100000       3.74300000      25.17700000
 H       1.41200000       3.29800000      23.65300000
 O       5.33700000       7.07400000      22.12900000
 H       4.51300000       7.17500000      22.62900000
 H       5.95700000       7.77300000      22.49000000
 O       2.48400000       8.86500000      26.81200000
 H       3.31500000       9.31800000      26.86500000
 H       2.76700000       7.94000000      26.88300000
 O       0.73100000       1.35400000      27.09200000
 H       0.00000000       0.84300000      26.73300000
 H       1.02400000       1.88800000      26.30800000
 O       7.16200000       3.15000000      22.10200000
 H       7.36500000       2.91500000      21.18200000
 H       6.19100000       3.41200000      22.07700000
 O       2.88200000       4.88500000      26.23100000
 H       3.72400000       5.02100000      26.65100000
 H       2.14200000       5.07000000      26.85000000
 O      11.00300000       3.77900000      26.19500000
 H      10.19600000       3.48900000      26.74400000
 H      10.60600000       3.92700000      25.33500000
