120
XYZ file of cluster: frame_3500_174b.6f818.2012e - created by MolEdiTo
 O       1.84600000      25.31300000      14.68900000
 H       1.54000000      24.48600000      15.05600000
 H       1.90000000      25.07900000      13.70900000
 O       6.89900000      18.38900000       7.96500000
 H       6.45400000      18.23000000       7.05400000
 H       7.59300000      19.10700000       7.86100000
 O       1.98800000      18.57100000       5.25300000
 H       1.47100000      18.18600000       4.45700000
 H       1.40300000      18.39600000       6.09600000
 O       9.54800000      19.45600000      15.33200000
 H       8.63400000      19.85000000      15.28500000
 H      10.16800000      20.08600000      15.69400000
 O       4.11000000      14.77200000      14.00200000
 H       3.73400000      14.36500000      13.21900000
 H       4.26600000      15.73500000      13.73400000
 O      10.30300000      23.32300000      13.22400000
 H      10.94100000      22.63900000      13.58300000
 H      10.70900000      23.63300000      12.37500000
 O       2.47600000      15.75900000       7.00400000
 H       1.79200000      15.03200000       7.07500000
 H       2.44200000      16.34500000       7.86100000
 O      10.66700000      19.29400000       5.50100000
 H      10.76500000      19.85400000       6.33300000
 H       9.95400000      19.75200000       5.12100000
 O       7.66000000      19.76300000      13.20700000
 H       8.60100000      19.82800000      13.17600000
 H       7.53100000      18.81100000      13.05700000
 O       3.17300000      20.91500000      14.15600000
 H       2.64900000      20.47000000      14.88100000
 H       3.11200000      21.75000000      14.57100000
 O       1.02400000      15.91700000      10.46500000
 H       0.36300000      15.82000000       9.77000000
 H       1.16100000      16.89700000      10.50800000
 O       1.57600000      21.74700000       5.20600000
 H       1.55400000      22.63200000       5.53400000
 H       1.03100000      21.29700000       5.97400000
 O      10.94600000      21.13600000       7.43400000
 H      10.51900000      21.96800000       7.74300000
 H      11.89200000      21.17100000       7.77700000
 O       1.93900000      18.57700000      10.24600000
 H       1.77000000      18.84800000       9.30000000
 H       2.64600000      19.22100000      10.49000000
 O       3.80400000      24.19600000      12.95000000
 H       3.53400000      23.82500000      12.08500000
 H       4.59100000      23.56900000      13.23500000
 O       7.17300000      25.14600000      12.84600000
 H       6.67900000      24.31800000      13.17500000
 H       7.88200000      24.92200000      12.25700000
 O       8.14800000      15.97200000      15.34400000
 H       8.19400000      16.24900000      14.38100000
 H       8.92000000      16.41300000      15.55500000
 O       5.23800000      16.45200000       6.61800000
 H       4.91400000      16.88200000       5.79300000
 H       4.46200000      16.12900000       7.08600000
 O       7.21900000      15.65500000       8.64100000
 H       6.96400000      16.45400000       8.17500000
 H       7.84100000      15.27000000       8.02000000
 O       8.22400000      21.21000000       8.82200000
 H       7.96100000      21.56900000       9.67200000
 H       8.03800000      21.92300000       8.16500000
 O       4.15200000      24.54000000       9.24400000
 H       3.88500000      25.33200000       8.69800000
 H       5.12100000      24.53200000       8.96100000
 O       0.94900000      19.05500000      13.60700000
 H       0.18900000      19.33400000      12.97500000
 H       1.81100000      19.43500000      13.25900000
 O       8.16900000      21.94300000      11.50400000
 H       8.81500000      22.54200000      11.93000000
 H       8.09800000      21.19400000      12.16200000
 O       2.31700000      24.12100000       6.63700000
 H       2.44500000      25.06000000       6.88100000
 H       3.20100000      23.83000000       6.28100000
 O       9.08900000      15.85100000       6.33800000
 H       9.64400000      15.04500000       6.40000000
 H       9.70400000      16.54200000       6.69000000
 O       6.89100000      24.55500000       8.76500000
 H       7.51100000      24.78800000       9.54500000
 H       7.38500000      23.92500000       8.27500000
 O       7.87000000      15.96900000      12.69700000
 H       7.40600000      15.19200000      12.26200000
 H       8.39200000      16.22200000      11.96400000
 O       2.95100000      16.68400000      16.11900000
 H       2.45400000      15.95400000      16.53100000
 H       3.24600000      16.41400000      15.19700000
 O       8.20900000      23.00000000       6.77600000
 H       9.11900000      23.40400000       6.82400000
 H       8.13100000      22.71900000       5.83600000
 O       4.66000000      16.15400000      10.14700000
 H       4.37000000      16.92300000       9.56200000
 H       5.62200000      16.15100000       9.93700000
 O       8.86300000      24.25400000      15.56700000
 H       8.84200000      25.23700000      15.80600000
 H       9.07300000      24.06600000      14.65000000
 O       8.90700000      25.23900000      10.47100000
 H       9.67800000      24.63400000      10.28700000
 H       9.22100000      26.15200000      10.22600000
 O       5.85200000      22.55700000      13.75700000
 H       6.08500000      21.86500000      13.01500000
 H       5.67100000      22.02800000      14.57400000
 O       2.31200000      26.63300000       4.60800000
 H       1.74300000      25.96000000       4.12500000
 H       2.32600000      26.39100000       5.53200000
 O       3.51900000      17.40100000      13.06900000
 H       3.53400000      17.64900000      12.11600000
 H       2.51200000      17.55200000      13.23700000
 O       1.03400000      18.12700000       7.71800000
 H       0.71700000      19.02100000       7.52500000
 H       0.23300000      17.55400000       7.68200000
 O       3.87400000      20.33100000       8.23600000
 H       3.42800000      19.99700000       7.41900000
 H       4.82600000      20.12700000       8.14300000
 O       9.36900000      18.66900000      10.82700000
 H       8.60200000      19.27900000      10.63800000
 H       9.56100000      18.35600000       9.87700000
 O       2.70600000      22.22500000       9.84400000
 H       3.11500000      23.09000000       9.79700000
 H       3.35100000      21.68200000       9.22900000
 O       5.31200000      26.24600000      14.85200000
 H       6.11000000      25.93000000      14.28400000
 H       4.52300000      25.66900000      14.56900000
