135
XYZ file of cluster: frame_3500_71a8e.720b5.9c5f2 - created by MolEdiTo
 O      26.02100000      24.03300000      23.18600000
 H      25.99500000      23.41900000      22.44400000
 H      25.80600000      24.89100000      22.77800000
 O      19.38200000      15.88600000      25.90600000
 H      18.61800000      16.37900000      25.40900000
 H      20.15500000      16.05700000      25.31800000
 O      20.77500000      19.89600000      26.50000000
 H      20.64100000      20.53800000      25.73900000
 H      20.98000000      19.13800000      25.93700000
 O      23.50600000      23.02100000      26.07500000
 H      23.30500000      22.18700000      25.58800000
 H      23.38100000      23.82000000      25.48600000
 O      24.44200000      15.61200000      24.74900000
 H      24.13700000      16.47300000      25.13100000
 H      24.94000000      15.18500000      25.42200000
 O      24.13100000      24.01800000      29.10400000
 H      24.07900000      23.76100000      28.19500000
 H      24.57700000      23.22900000      29.44400000
 O      21.87900000      16.32000000      29.69800000
 H      22.13600000      17.02700000      29.19100000
 H      21.60000000      16.56900000      30.64100000
 O      22.75000000      18.21500000      27.79400000
 H      21.99000000      18.69200000      27.42900000
 H      23.24300000      18.20000000      26.97700000
 O      15.41400000      16.68600000      30.68200000
 H      15.90200000      15.87900000      30.81000000
 H      15.39700000      16.89600000      29.74800000
 O      25.23800000      17.98000000      30.07100000
 H      24.39400000      18.16300000      29.62800000
 H      25.36200000      17.04600000      30.15300000
 O      25.76800000      25.66000000      25.62400000
 H      25.59800000      26.37500000      25.04000000
 H      25.77000000      24.90900000      24.90200000
 O      20.46600000      24.06500000      21.07900000
 H      19.86800000      23.61000000      21.68700000
 H      20.79200000      23.29300000      20.59700000
 O      15.98400000      22.77200000      27.93400000
 H      16.16100000      22.30100000      28.79700000
 H      15.43200000      23.58000000      28.17700000
 O      18.39700000      17.94300000      29.51000000
 H      19.00500000      18.50400000      30.06400000
 H      18.63700000      16.99700000      29.63300000
 O      16.42100000      24.87600000      24.31000000
 H      16.95000000      24.17200000      24.83300000
 H      15.96900000      25.37600000      25.06600000
 O      24.98900000      21.09700000      22.77000000
 H      24.35800000      21.81900000      22.91700000
 H      24.63300000      20.56700000      22.02100000
 O      17.96200000      18.32900000      26.24700000
 H      18.42700000      17.82800000      26.93300000
 H      17.66700000      19.07400000      26.75500000
 O      22.67400000      26.31200000      20.91200000
 H      21.90100000      25.67300000      20.79400000
 H      23.25000000      25.76000000      21.55300000
 O      18.68300000      20.62600000      28.21100000
 H      19.33400000      20.16400000      27.60900000
 H      18.32900000      21.43900000      27.71200000
 O      24.77800000      21.29900000      30.20300000
 H      25.42100000      21.30100000      29.47500000
 H      24.47600000      20.39900000      30.07500000
 O      22.36800000      25.65100000      30.62800000
 H      22.03900000      26.21700000      29.92200000
 H      22.92600000      24.94500000      30.19300000
 O      15.73600000      16.84300000      25.67800000
 H      16.29200000      17.69500000      25.88600000
 H      14.75700000      17.06800000      25.66600000
 O      20.36400000      22.21700000      24.96600000
 H      20.92800000      22.91400000      25.39900000
 H      20.26200000      22.81400000      24.14700000
 O      18.59900000      18.47700000      20.98200000
 H      17.64500000      18.50300000      20.62800000
 H      18.48700000      18.58900000      21.94000000
 O      18.90300000      19.37600000      23.77300000
 H      19.40300000      18.73400000      23.27500000
 H      18.18800000      18.88400000      24.17900000
 O      23.08500000      23.57900000      22.68700000
 H      22.23200000      23.30200000      22.33300000
 H      22.70600000      24.30100000      23.30200000
 O      19.47800000      21.69700000      21.61800000
 H      18.94000000      21.58800000      20.85700000
 H      19.51100000      20.87100000      22.01100000
 O      21.57800000      22.16300000      28.59400000
 H      20.88400000      21.54300000      28.43900000
 H      22.22200000      22.19900000      27.84000000
 O      26.35400000      22.47200000      20.84700000
 H      25.74300000      21.72900000      21.12700000
 H      25.83700000      22.86000000      20.11100000
 O      21.26700000      17.30400000      24.25300000
 H      21.57400000      16.34500000      24.12000000
 H      22.04200000      17.86600000      23.93500000
 O      16.28600000      19.70100000      30.44700000
 H      17.04600000      19.07900000      30.65400000
 H      15.60200000      19.57000000      31.07200000
 O      19.48000000      24.40600000      23.84900000
 H      19.29700000      25.32100000      23.49200000
 H      18.59200000      24.20000000      24.30400000
 O      17.76000000      22.72200000      25.35400000
 H      18.62700000      22.24000000      25.17200000
 H      16.97500000      22.03200000      25.28100000
 O      17.61700000      16.74500000      23.18900000
 H      16.89300000      17.11700000      22.68100000
 H      17.14300000      16.15800000      23.82800000
 O      25.61000000      20.68800000      27.51000000
 H      25.92700000      21.28700000      26.77700000
 H      25.94200000      19.77200000      27.20900000
 O      22.17700000      19.95300000      30.22400000
 H      21.58200000      20.05400000      30.93400000
 H      21.90500000      20.72600000      29.74600000
 O      26.05600000      17.92200000      26.78700000
 H      26.47600000      17.15700000      26.30500000
 H      25.45600000      17.52800000      27.48100000
 O      17.00600000      24.16400000      21.48400000
 H      17.27100000      23.31400000      21.96100000
 H      16.72500000      24.80800000      22.15500000
 O      24.39200000      15.68900000      21.88900000
 H      25.11200000      15.23800000      21.46500000
 H      24.70900000      15.81700000      22.83700000
 O      18.65600000      24.90600000      26.97400000
 H      18.82400000      24.60300000      27.86600000
 H      18.40700000      24.04200000      26.44800000
 O      18.62400000      26.52000000      21.19300000
 H      18.08100000      26.83400000      20.32400000
 H      18.60300000      25.57500000      21.09000000
 O      22.45900000      25.67000000      24.67300000
 H      21.55800000      25.75500000      25.01800000
 H      22.56300000      26.55700000      24.24200000
 O      24.17000000      18.61600000      24.77000000
 H      25.09700000      18.61900000      25.15600000
 H      24.22300000      19.33900000      24.04700000
 O      18.25900000      25.31900000      29.66900000
 H      17.53200000      25.97400000      29.73600000
 H      18.91100000      25.84600000      29.22300000
 O      19.36000000      15.37000000      29.17200000
 H      19.67200000      14.69200000      28.52400000
 H      20.20100000      15.87600000      29.37700000
