120
XYZ file of cluster: frame_3500_c61cf.48663.484fc - created by MolEdiTo
 O      29.95800000      12.76700000      11.20200000
 H      29.58800000      11.94800000      11.65900000
 H      29.76300000      12.53800000      10.23000000
 O      29.50500000      10.83600000      13.31100000
 H      29.26900000      11.43500000      14.05000000
 H      28.91000000      10.04700000      13.39300000
 O      29.85800000      17.66500000      15.57300000
 H      30.12400000      18.46200000      15.19400000
 H      29.71600000      17.17300000      14.76100000
 O      29.18600000      20.35700000      12.19700000
 H      29.54800000      21.24700000      12.10700000
 H      28.87700000      20.21700000      11.23600000
 O      27.43800000      15.27400000      15.80700000
 H      26.92900000      16.06500000      15.82400000
 H      28.06300000      15.36600000      16.58900000
 O      27.40100000      15.65200000      10.19300000
 H      27.41800000      15.28300000      11.11900000
 H      27.48300000      16.65000000      10.35000000
 O      27.08500000      18.09700000      13.50200000
 H      26.27800000      18.61600000      13.53500000
 H      27.25200000      17.78300000      14.43600000
 O      26.45800000      13.10400000      19.87700000
 H      26.94600000      13.95500000      19.56000000
 H      26.30500000      13.34300000      20.78000000
 O      29.20100000      20.48200000      16.69300000
 H      29.75100000      21.13500000      16.32000000
 H      29.86500000      19.94200000      17.09500000
 O      26.67100000      19.45500000      19.65700000
 H      27.00300000      20.09800000      18.99500000
 H      25.72200000      19.58200000      19.64000000
 O      26.37000000      21.08000000      12.99100000
 H      27.32400000      20.84200000      12.97400000
 H      26.30900000      21.33200000      13.90000000
 O      27.39700000      18.28500000      10.72100000
 H      26.91300000      19.12600000      10.44500000
 H      27.67300000      18.46600000      11.60800000
 O      28.25800000      14.64000000      12.69000000
 H      29.05000000      14.60900000      12.09000000
 H      28.60200000      14.51700000      13.59100000
 O      28.20600000      12.22800000      15.50900000
 H      27.73800000      11.40500000      15.62300000
 H      27.59800000      12.96500000      15.43700000
 O      29.97200000      15.04900000      17.71300000
 H      30.17200000      15.96300000      17.63200000
 H      30.45600000      14.74200000      18.52400000
 O      30.45100000      14.05700000      14.86600000
 H      29.71000000      13.46200000      15.08300000
 H      30.20400000      14.78300000      15.44000000
 O      27.07000000      11.95300000      11.34000000
 H      26.10700000      11.99900000      11.70300000
 H      27.56100000      12.59200000      11.95000000
 O      27.85700000      10.95300000      18.82000000
 H      27.51700000      11.81900000      18.98300000
 H      28.07200000      10.94800000      17.84500000
 O      28.64000000      17.78700000      17.96000000
 H      28.65800000      17.89300000      16.94900000
 H      27.72800000      18.02400000      18.17800000
 O      26.78400000      16.27000000      19.94900000
 H      27.27600000      17.10000000      19.79500000
 H      26.29100000      16.51600000      20.75700000
 O      33.62700000      20.41100000      19.86600000
 H      32.77600000      20.83200000      20.05600000
 H      34.40200000      21.10800000      19.82700000
 O      34.72600000      13.86700000      10.08100000
 H      33.89300000      14.23600000      10.48700000
 H      35.30200000      14.63100000      10.20900000
 O      35.80800000      14.77200000      14.00200000
 H      35.43200000      14.36500000      13.21900000
 H      35.96400000      15.73500000      13.73400000
 O      34.45100000      12.46600000      12.97300000
 H      33.60800000      12.94900000      13.03700000
 H      34.51400000      12.13900000      13.88200000
 O      34.87100000      20.91500000      14.15600000
 H      34.34700000      20.47000000      14.88100000
 H      34.81000000      21.75000000      14.57100000
 O      32.72200000      15.91700000      10.46500000
 H      32.06100000      15.82000000       9.77000000
 H      32.85900000      16.89700000      10.50800000
 O      33.63700000      18.57700000      10.24600000
 H      33.46800000      18.84800000       9.30000000
 H      34.34400000      19.22100000      10.49000000
 O      36.45100000      10.84300000      18.93100000
 H      37.04900000      11.60800000      18.71800000
 H      36.87300000       9.98500000      18.79600000
 O      36.39100000      11.35900000      10.71000000
 H      35.49700000      11.72200000      10.92900000
 H      37.06800000      11.73500000      11.30700000
 O      36.05500000       9.82300000      15.51800000
 H      35.62700000      10.63900000      15.84800000
 H      35.36300000       9.32700000      14.93200000
 O      37.05700000      21.24400000      16.57600000
 H      36.40200000      20.51800000      16.33000000
 H      37.29400000      20.96400000      17.44000000
 O      33.29700000      12.43500000      18.56300000
 H      34.05000000      13.03100000      18.83700000
 H      33.36500000      12.42500000      17.60600000
 O      32.64700000      19.05500000      13.60700000
 H      31.88700000      19.33400000      12.97500000
 H      33.50900000      19.43500000      13.25900000
 O      36.68300000      13.78300000      18.11900000
 H      36.03600000      14.45800000      18.61700000
 H      37.61100000      14.02600000      18.36300000
 O      34.64900000      16.68400000      16.11900000
 H      34.15200000      15.95400000      16.53100000
 H      34.94400000      16.41400000      15.19700000
 O      35.62500000      12.57600000      15.54100000
 H      35.84700000      12.70800000      16.48500000
 H      35.76700000      13.40500000      14.98300000
 O      34.48800000      15.12800000      19.18200000
 H      34.08900000      15.12400000      20.04300000
 H      34.30500000      15.99300000      18.80600000
 O      34.89400000      19.32300000      17.00400000
 H      34.57900000      19.42300000      17.94600000
 H      34.66100000      18.34900000      16.92800000
 O      35.21700000      17.40100000      13.06900000
 H      35.23200000      17.64900000      12.11600000
 H      34.21000000      17.55200000      13.23700000
 O      32.95600000      17.63500000      18.69600000
 H      32.03000000      17.67000000      18.31900000
 H      33.16500000      18.54600000      18.93500000
