141
XYZ file of cluster: frame_3500_26201.1ecd.23311 - created by MolEdiTo
 O       6.36000000       5.23200000      16.11700000
 H       7.13600000       5.77700000      15.82600000
 H       6.08600000       4.79000000      15.34300000
 O      10.60600000       5.20900000      12.49200000
 H      10.75700000       5.79500000      13.24800000
 H       9.72900000       5.49400000      12.23600000
 O      14.30600000       9.10300000      10.89100000
 H      14.66800000       9.75900000      10.25400000
 H      14.21300000       9.56900000      11.80000000
 O      15.31200000       5.81100000      13.10800000
 H      15.64900000       6.13700000      12.21700000
 H      14.96100000       6.60000000      13.58100000
 O      10.92500000       7.76900000       7.61300000
 H      11.36900000       8.61500000       7.52100000
 H      10.19100000       8.02100000       8.20300000
 O      13.58500000       4.97000000      15.38400000
 H      14.02100000       5.17900000      14.52700000
 H      13.59700000       5.78400000      15.92700000
 O      12.48600000       7.39100000      12.30900000
 H      12.95500000       7.94600000      11.64700000
 H      11.63400000       7.54200000      11.96200000
 O      15.11500000       1.84800000      16.06800000
 H      15.39500000       2.56000000      15.41900000
 H      14.61400000       2.42100000      16.68500000
 O       8.74300000       7.50500000       9.20900000
 H       7.92500000       8.02900000       8.84300000
 H       8.29200000       6.69600000       9.44700000
 O       8.07100000       7.87600000       5.26900000
 H       7.52100000       7.04100000       5.36100000
 H       7.99400000       8.31200000       6.16900000
 O      13.25600000       8.19300000       5.88400000
 H      12.50800000       8.09800000       6.53600000
 H      13.26500000       7.23300000       5.55800000
 O       8.57800000       2.69000000       9.61900000
 H       9.05800000       1.97300000      10.08600000
 H       9.18700000       3.10500000       9.05200000
 O      15.32600000       4.06400000      10.43500000
 H      15.37700000       5.02500000      10.39700000
 H      14.51500000       3.84100000      10.97700000
 O       7.83000000       2.63700000      14.02100000
 H       8.74900000       2.71400000      14.33500000
 H       7.87100000       1.98900000      13.32600000
 O      10.66700000       9.05500000       4.52600000
 H      10.89000000       9.27400000       5.37600000
 H       9.78500000       8.56400000       4.69500000
 O       9.91800000       8.94200000      12.74100000
 H       9.54500000       9.45200000      11.95700000
 H       9.11000000       8.43600000      12.96300000
 O       6.51600000       8.12600000      15.54500000
 H       5.72300000       8.64800000      15.83800000
 H       7.19400000       8.82100000      15.70200000
 O      11.70000000       5.81600000       9.36900000
 H      11.40700000       6.56600000       8.77900000
 H      11.36800000       6.15000000      10.20800000
 O       9.87000000       6.22600000      15.32400000
 H       9.11200000       6.38400000      14.69600000
 H      10.65400000       6.82200000      15.18300000
 O       7.81800000       6.87200000      13.37600000
 H       7.26600000       6.41800000      12.71200000
 H       7.26200000       7.34900000      13.92000000
 O      13.21000000       1.45700000      12.09000000
 H      12.97900000       1.13200000      12.99200000
 H      12.88500000       2.37300000      12.00600000
 O       5.82700000       1.95800000      16.29600000
 H       6.40500000       2.28600000      15.54100000
 H       5.30300000       1.30000000      15.77300000
 O       9.48900000       2.17400000       5.80300000
 H      10.40800000       2.01100000       5.70300000
 H       9.56200000       2.41000000       6.69800000
 O       6.44600000       1.83200000       7.68600000
 H       7.11700000       2.21700000       8.27700000
 H       6.88700000       1.00800000       7.40100000
 O      12.58300000       3.08400000       7.04900000
 H      12.82700000       2.39800000       7.62800000
 H      12.82200000       2.72000000       6.20500000
 O       5.15000000       3.12300000       9.96800000
 H       5.29300000       2.21300000      10.29800000
 H       4.95000000       3.44100000      10.82100000
 O      13.86200000       5.56500000       7.32100000
 H      13.61500000       5.23800000       8.19000000
 H      13.51100000       4.82500000       6.77900000
 O       8.08500000      10.21700000      15.44900000
 H       8.03400000      10.32900000      14.51200000
 H       8.00200000      11.15500000      15.84000000
 O      15.76000000       6.75600000      10.71600000
 H      15.19200000       7.50000000      11.12900000
 H      15.79400000       7.24900000       9.87800000
 O      10.65600000       2.50500000      13.19100000
 H      11.40000000       2.66600000      13.78800000
 H      10.19600000       3.36200000      13.03900000
 O      10.08300000       0.75400000      11.22500000
 H       9.09100000       0.77000000      11.46400000
 H      10.48700000       1.29300000      11.97100000
 O      15.30700000       1.86200000       4.95600000
 H      14.51000000       1.34900000       4.91800000
 H      15.90500000       1.58800000       5.68500000
 O      10.62100000       5.82900000       5.83000000
 H       9.72500000       5.82400000       5.35300000
 H      10.62800000       6.56600000       6.49900000
 O      11.32000000      10.18700000      10.32000000
 H      10.47100000      10.56100000      10.63600000
 H      11.40900000      10.27500000       9.36900000
 O       6.34300000       9.15400000      12.06800000
 H       6.19000000       9.93500000      12.65500000
 H       6.63300000       9.59800000      11.24700000
 O      15.21400000       8.39400000      14.91600000
 H      15.53100000       8.68500000      15.75500000
 H      15.36500000       9.10600000      14.23200000
 O       9.86700000       4.22400000       7.77000000
 H      10.46200000       4.71800000       8.35000000
 H      10.05400000       4.65300000       6.89300000
 O      16.31800000       1.16900000      10.41200000
 H      15.97100000       0.24800000      10.44900000
 H      15.73300000       1.52300000      11.06100000
 O       5.95900000       4.83000000       7.45400000
 H       5.63200000       4.50400000       8.38900000
 H       5.36600000       4.28200000       6.87500000
 O      13.18800000       1.31800000       8.96000000
 H      14.03700000       0.77800000       8.97300000
 H      12.99700000       1.44200000       9.90000000
 O       7.69500000       4.71800000       5.38700000
 H       8.08500000       3.82500000       5.21000000
 H       7.34200000       4.62400000       6.32700000
 O      15.61600000       7.45200000       7.16200000
 H      15.22100000       8.18800000       6.65000000
 H      14.88300000       6.84300000       7.30500000
 O       7.37800000       5.18300000      10.54400000
 H       6.55800000       4.84400000      10.23800000
 H       7.95600000       4.36500000      10.45400000
 O       6.70200000       8.86900000       8.00800000
 H       6.34400000       9.61600000       7.51800000
 H       5.89700000       8.35000000       8.06900000
 O      13.40700000       4.11000000      12.22200000
 H      12.75300000       4.78200000      12.52700000
 H      14.25800000       4.42300000      12.57900000
 O      13.53600000      10.21900000      13.45300000
 H      13.17600000      11.11600000      13.67600000
 H      12.73600000       9.58900000      13.49700000
 O      12.12600000       7.95000000      15.43900000
 H      12.45900000       7.69400000      16.30500000
 H      12.82200000       7.67300000      14.86300000
