132
XYZ file of cluster: frame_3500_174b.48663.484fc - created by MolEdiTo
 O       1.92900000      20.41100000      19.86600000
 H       1.07800000      20.83200000      20.05600000
 H       2.70400000      21.10800000      19.82700000
 O       5.98200000      13.60900000      21.14400000
 H       6.00700000      14.36900000      20.54700000
 H       5.50300000      13.96900000      21.86800000
 O       6.36700000      14.12500000      11.38800000
 H       6.87000000      14.10800000      10.55300000
 H       5.43800000      14.19400000      11.13300000
 O      11.13800000      12.18600000      15.14500000
 H      10.36400000      12.51900000      15.65100000
 H      11.48500000      12.89000000      14.58300000
 O       3.02800000      13.86700000      10.08100000
 H       2.19500000      14.23600000      10.48700000
 H       3.60400000      14.63100000      10.20900000
 O       8.83900000      11.07800000      10.91800000
 H       8.57400000      11.83500000      11.59200000
 H       9.08800000      11.59800000      10.09500000
 O       9.54800000      19.45600000      15.33200000
 H       8.63400000      19.85000000      15.28500000
 H      10.16800000      20.08600000      15.69400000
 O       4.11000000      14.77200000      14.00200000
 H       3.73400000      14.36500000      13.21900000
 H       4.26600000      15.73500000      13.73400000
 O       2.75300000      12.46600000      12.97300000
 H       1.91000000      12.94900000      13.03700000
 H       2.81600000      12.13900000      13.88200000
 O       7.66000000      19.76300000      13.20700000
 H       8.60100000      19.82800000      13.17600000
 H       7.53100000      18.81100000      13.05700000
 O       7.30500000      16.07600000      19.82800000
 H       6.68000000      16.34700000      19.11400000
 H       7.24100000      16.75100000      20.46500000
 O       3.17300000      20.91500000      14.15600000
 H       2.64900000      20.47000000      14.88100000
 H       3.11200000      21.75000000      14.57100000
 O       1.02400000      15.91700000      10.46500000
 H       0.36300000      15.82000000       9.77000000
 H       1.16100000      16.89700000      10.50800000
 O       1.93900000      18.57700000      10.24600000
 H       1.77000000      18.84800000       9.30000000
 H       2.64600000      19.22100000      10.49000000
 O      10.82400000      11.44600000      19.62700000
 H      10.22300000      11.37900000      18.82900000
 H      10.14500000      11.12000000      20.27300000
 O       4.75300000      10.84300000      18.93100000
 H       5.35100000      11.60800000      18.71800000
 H       5.17500000       9.98500000      18.79600000
 O       4.69300000      11.35900000      10.71000000
 H       3.79900000      11.72200000      10.92900000
 H       5.37000000      11.73500000      11.30700000
 O       9.80800000      15.04100000      20.57200000
 H       9.99800000      14.35400000      21.33000000
 H       9.09300000      15.67900000      20.85300000
 O       4.35700000       9.82300000      15.51800000
 H       3.92900000      10.63900000      15.84800000
 H       3.66500000       9.32700000      14.93200000
 O       8.14800000      15.97200000      15.34400000
 H       8.19400000      16.24900000      14.38100000
 H       8.92000000      16.41300000      15.55500000
 O       5.35900000      21.24400000      16.57600000
 H       4.70400000      20.51800000      16.33000000
 H       5.59600000      20.96400000      17.44000000
 O       6.22400000      16.40000000      17.24400000
 H       5.65500000      16.81400000      16.62200000
 H       7.00000000      16.35600000      16.60100000
 O       8.62100000      13.09600000      13.47100000
 H       8.02200000      13.55300000      14.15000000
 H       9.46400000      13.23700000      13.91800000
 O       1.59900000      12.43500000      18.56300000
 H       2.35200000      13.03100000      18.83700000
 H       1.66700000      12.42500000      17.60600000
 O       0.94900000      19.05500000      13.60700000
 H       0.18900000      19.33400000      12.97500000
 H       1.81100000      19.43500000      13.25900000
 O      10.79100000      17.05100000      15.86600000
 H      10.33600000      17.95500000      15.88200000
 H      10.72800000      16.75300000      16.80900000
 O       7.15100000      13.38500000      15.79000000
 H       7.09300000      13.54900000      16.78300000
 H       6.18400000      13.36300000      15.52200000
 O       8.08500000      10.21700000      15.44900000
 H       8.03400000      10.32900000      14.51200000
 H       8.00200000      11.15500000      15.84000000
 O       4.98500000      13.78300000      18.11900000
 H       4.33800000      14.45800000      18.61700000
 H       5.91300000      14.02600000      18.36300000
 O       7.87000000      15.96900000      12.69700000
 H       7.40600000      15.19200000      12.26200000
 H       8.39200000      16.22200000      11.96400000
 O       2.95100000      16.68400000      16.11900000
 H       2.45400000      15.95400000      16.53100000
 H       3.24600000      16.41400000      15.19700000
 O      11.32000000      10.18700000      10.32000000
 H      10.47100000      10.56100000      10.63600000
 H      11.40900000      10.27500000       9.36900000
 O       3.92700000      12.57600000      15.54100000
 H       4.14900000      12.70800000      16.48500000
 H       4.06900000      13.40500000      14.98300000
 O       9.77100000      14.13900000      10.98000000
 H      10.36600000      14.94500000      10.89300000
 H       9.66900000      14.00500000      11.93500000
 O       2.79000000      15.12800000      19.18200000
 H       2.39100000      15.12400000      20.04300000
 H       2.60700000      15.99300000      18.80600000
 O       3.19600000      19.32300000      17.00400000
 H       2.88100000      19.42300000      17.94600000
 H       2.96300000      18.34900000      16.92800000
 O       7.35800000      11.72900000      19.98000000
 H       6.73800000      12.17600000      20.60400000
 H       7.80400000      12.39900000      19.40600000
 O       8.08100000      13.78900000      18.34800000
 H       8.56000000      14.16400000      17.56000000
 H       8.24600000      14.52300000      19.08000000
 O       3.51900000      17.40100000      13.06900000
 H       3.53400000      17.64900000      12.11600000
 H       2.51200000      17.55200000      13.23700000
 O       6.45800000      19.87500000      19.16600000
 H       6.22500000      19.20700000      19.88200000
 H       7.42600000      19.74600000      19.02600000
 O       6.34400000      11.53100000      13.56600000
 H       5.46000000      11.74800000      13.93700000
 H       6.88700000      12.33400000      13.68200000
 O       9.36900000      18.66900000      10.82700000
 H       8.60200000      19.27900000      10.63800000
 H       9.56100000      18.35600000       9.87700000
 O      10.06100000      16.84200000      18.42700000
 H      10.54100000      17.55300000      18.91700000
 H       9.75000000      16.24500000      19.09200000
 O       1.25800000      17.63500000      18.69600000
 H       0.33200000      17.67000000      18.31900000
 H       1.46700000      18.54600000      18.93500000
