111
XYZ file of cluster: frame_3500_a0d9b.75def.9c5f2 - created by MolEdiTo
 O      26.02100000      24.03300000      23.18600000
 H      25.99500000      23.41900000      22.44400000
 H      25.80600000      24.89100000      22.77800000
 O      23.50600000      23.02100000      26.07500000
 H      23.30500000      22.18700000      25.58800000
 H      23.38100000      23.82000000      25.48600000
 O      24.44200000      15.61200000      24.74900000
 H      24.13700000      16.47300000      25.13100000
 H      24.94000000      15.18500000      25.42200000
 O      24.13100000      24.01800000      29.10400000
 H      24.07900000      23.76100000      28.19500000
 H      24.57700000      23.22900000      29.44400000
 O      29.88300000      21.82800000      27.42600000
 H      29.03600000      22.34300000      27.08800000
 H      29.66500000      20.90700000      27.78800000
 O      22.75000000      18.21500000      27.79400000
 H      21.99000000      18.69200000      27.42900000
 H      23.24300000      18.20000000      26.97700000
 O      29.85900000      26.30000000      27.63700000
 H      30.24700000      27.05500000      27.18900000
 H      30.59400000      25.65000000      27.69800000
 O      21.87900000      16.32000000      29.69800000
 H      22.13600000      17.02700000      29.19100000
 H      21.60000000      16.56900000      30.64100000
 O      25.23800000      17.98000000      30.07100000
 H      24.39400000      18.16300000      29.62800000
 H      25.36200000      17.04600000      30.15300000
 O      25.76800000      25.66000000      25.62400000
 H      25.59800000      26.37500000      25.04000000
 H      25.77000000      24.90900000      24.90200000
 O      28.76000000      16.15500000      24.71500000
 H      29.44500000      16.85700000      24.69900000
 H      29.07300000      15.66600000      25.48400000
 O      30.55800000      21.18400000      23.58400000
 H      31.49500000      21.06000000      23.74100000
 H      30.32100000      22.12800000      23.71300000
 O      24.98900000      21.09700000      22.77000000
 H      24.35800000      21.81900000      22.91700000
 H      24.63300000      20.56700000      22.02100000
 O      22.67400000      26.31200000      20.91200000
 H      21.90100000      25.67300000      20.79400000
 H      23.25000000      25.76000000      21.55300000
 O      24.77800000      21.29900000      30.20300000
 H      25.42100000      21.30100000      29.47500000
 H      24.47600000      20.39900000      30.07500000
 O      26.98300000      20.96700000      25.09800000
 H      27.40000000      20.83000000      24.23200000
 H      26.50800000      21.79900000      24.96300000
 O      22.36800000      25.65100000      30.62800000
 H      22.03900000      26.21700000      29.92200000
 H      22.92600000      24.94500000      30.19300000
 O      28.44000000      18.39800000      30.13600000
 H      28.40700000      17.80400000      30.99200000
 H      27.65000000      18.88600000      30.19500000
 O      23.08500000      23.57900000      22.68700000
 H      22.23200000      23.30200000      22.33300000
 H      22.70600000      24.30100000      23.30200000
 O      29.37100000      16.39500000      28.14200000
 H      29.09400000      17.30900000      28.28500000
 H      28.49800000      15.97000000      28.36100000
 O      21.57800000      22.16300000      28.59400000
 H      20.88400000      21.54300000      28.43900000
 H      22.22200000      22.19900000      27.84000000
 O      26.35400000      22.47200000      20.84700000
 H      25.74300000      21.72900000      21.12700000
 H      25.83700000      22.86000000      20.11100000
 O      26.83900000      17.48900000      22.62300000
 H      27.36500000      16.75800000      23.08000000
 H      27.26000000      18.42900000      22.68800000
 O      21.26700000      17.30400000      24.25300000
 H      21.57400000      16.34500000      24.12000000
 H      22.04200000      17.86600000      23.93500000
 O      25.61000000      20.68800000      27.51000000
 H      25.92700000      21.28700000      26.77700000
 H      25.94200000      19.77200000      27.20900000
 O      22.17700000      19.95300000      30.22400000
 H      21.58200000      20.05400000      30.93400000
 H      21.90500000      20.72600000      29.74600000
 O      26.05600000      17.92200000      26.78700000
 H      26.47600000      17.15700000      26.30500000
 H      25.45600000      17.52800000      27.48100000
 O      28.55900000      19.32800000      26.55800000
 H      28.12500000      19.95600000      25.97200000
 H      27.87400000      19.24600000      27.25700000
 O      28.71700000      25.62700000      24.51800000
 H      28.53900000      25.95800000      25.48000000
 H      29.48500000      25.03300000      24.71200000
 O      28.90600000      23.87200000      29.79500000
 H      29.52400000      23.39500000      29.34300000
 H      28.10400000      23.46700000      29.37300000
 O      24.39200000      15.68900000      21.88900000
 H      25.11200000      15.23800000      21.46500000
 H      24.70900000      15.81700000      22.83700000
 O      27.62700000      23.31600000      27.13500000
 H      26.75500000      23.53700000      26.72200000
 H      27.93800000      24.23400000      27.25600000
 O      27.26500000      26.17400000      28.70500000
 H      28.23800000      26.19200000      28.60200000
 H      27.04200000      26.81700000      28.00300000
 O      28.51300000      19.85000000      22.47500000
 H      28.52100000      20.19500000      21.53600000
 H      29.31000000      20.31000000      22.86500000
 O      22.45900000      25.67000000      24.67300000
 H      21.55800000      25.75500000      25.01800000
 H      22.56300000      26.55700000      24.24200000
 O      28.00800000      25.99600000      21.63600000
 H      28.96800000      26.20300000      21.36700000
 H      28.03000000      25.71900000      22.64400000
 O      24.17000000      18.61600000      24.77000000
 H      25.09700000      18.61900000      25.15600000
 H      24.22300000      19.33900000      24.04700000
