39
XYZ file of cluster: frame_8000_9d43e.c3f70.983fb - created by MolEdiTo
 O      17.64800000      18.65400000      17.04400000
 H      16.70400000      18.34500000      16.91100000
 H      18.06400000      18.64000000      16.12600000
 O      14.95400000      18.23800000      18.82500000
 H      14.90900000      17.99300000      19.79400000
 H      14.33800000      17.56700000      18.36700000
 O      13.94200000      18.32900000      15.00600000
 H      13.75600000      17.83500000      14.13400000
 H      14.29400000      19.13000000      14.71700000
 O      20.02400000      17.61300000      18.62100000
 H      20.05400000      18.08300000      17.75500000
 H      19.15200000      17.18600000      18.50400000
 O      20.65100000      18.24300000      15.47700000
 H      20.14400000      18.15000000      14.68800000
 H      20.95100000      17.33700000      15.50500000
 O      17.98100000      19.13800000      14.25400000
 H      18.58900000      18.75800000      13.63900000
 H      18.09500000      20.11400000      14.21100000
 O      14.28700000      22.66000000      16.74300000
 H      14.12300000      21.68900000      16.80000000
 H      15.22200000      22.91900000      16.95200000
 O      17.26400000      25.17500000      13.91600000
 H      16.64600000      25.13500000      13.07900000
 H      16.76300000      24.68600000      14.59500000
 O      18.90500000      23.17100000      14.17800000
 H      19.54900000      23.33900000      15.00100000
 H      18.87700000      23.99300000      13.64700000
 O      16.45400000      23.03800000      20.13800000
 H      15.86600000      23.69900000      20.48400000
 H      15.99800000      22.48600000      19.46000000
 O      16.76300000      23.16900000      15.87000000
 H      16.27900000      22.78400000      15.07500000
 H      17.59800000      22.70300000      15.82300000
 O      17.43700000      24.95700000      18.04300000
 H      17.54700000      25.07600000      17.08700000
 H      17.60100000      24.03800000      18.16900000
 O      18.87000000      22.28100000      18.17200000
 H      18.43200000      21.41100000      17.90400000
 H      19.00000000      22.08900000      19.09600000
