39
XYZ file of cluster: frame_8000_0.c56ca.0 - created by MolEdiTo
 O       6.87500000      19.91400000       7.69500000
 H       7.13000000      19.60300000       6.77800000
 H       5.89500000      19.94800000       7.80400000
 O       1.70600000      20.74500000       0.75900000
 H       2.33900000      20.70700000       0.00000000
 H       0.94700000      21.19300000       0.22200000
 O       3.45700000      18.33400000       1.81400000
 H       3.22100000      19.28000000       1.96200000
 H       3.53100000      18.32800000       0.83800000
 O       7.11900000      18.82100000       5.03400000
 H       6.36500000      18.21400000       5.28100000
 H       6.78100000      18.88500000       4.08900000
 O       1.77400000      19.05900000       3.98900000
 H       1.17900000      19.65600000       3.45500000
 H       1.31300000      18.69900000       4.79800000
 O       4.46000000      17.93500000       5.00900000
 H       4.10300000      17.31400000       4.31400000
 H       3.97500000      18.88100000       4.82600000
 O       6.60100000      24.49600000       4.79800000
 H       7.07700000      23.87000000       4.19400000
 H       6.62600000      25.28500000       4.17500000
 O       0.69100000      24.03300000       5.94600000
 H       0.00000000      24.61500000       5.43200000
 H       1.08500000      23.44000000       5.22600000
 O       4.13400000      25.09400000       1.12300000
 H       4.38000000      24.92900000       2.09200000
 H       4.86000000      24.83400000       0.62400000
 O       3.64300000      22.35400000       7.35000000
 H       3.90400000      23.21200000       7.64600000
 H       3.47100000      22.43800000       6.37800000
 O       6.48800000      24.12500000       7.49200000
 H       6.63200000      24.39000000       6.54300000
 H       6.97400000      23.27600000       7.48900000
 O       4.12500000      22.86000000       4.88400000
 H       3.52000000      23.25300000       4.23100000
 H       4.84500000      23.57600000       4.97300000
 O       2.19600000      23.73000000       2.77000000
 H       1.68600000      24.50300000       2.36900000
 H       1.65800000      23.06500000       2.28500000
