45
XYZ file of cluster: frame_8000_3941.27fa4.4c83b - created by MolEdiTo
 O       2.72300000       5.87800000      13.95100000
 H       3.62300000       5.74400000      14.42400000
 H       2.06100000       5.20500000      14.24900000
 O       3.91500000      10.48800000      10.45200000
 H       4.50000000      10.27600000      11.19700000
 H       4.17900000       9.76500000       9.88200000
 O       1.12300000      10.92200000      11.94000000
 H       1.85400000      10.36600000      11.56200000
 H       0.31300000      10.38300000      11.95300000
 O       3.96100000       3.69300000       8.28400000
 H       3.88800000       3.50600000       9.28200000
 H       4.92600000       3.50700000       8.11600000
 O       1.89900000       4.89500000       7.03200000
 H       2.70100000       4.38300000       7.33300000
 H       1.46000000       4.13300000       6.57300000
 O       6.49800000      10.53100000      12.24200000
 H       7.15200000       9.80500000      12.33500000
 H       6.31800000      10.67800000      13.18200000
 O       5.78100000       8.56800000       8.91700000
 H       6.01200000       7.61400000       9.07600000
 H       6.10500000       8.78900000       7.99800000
 O       3.31200000       8.04500000       6.99700000
 H       3.25700000       7.31600000       7.68300000
 H       4.24200000       8.17400000       6.88200000
 O       1.75200000       9.46600000       8.89300000
 H       2.22500000       9.20000000       8.07600000
 H       2.36000000      10.15500000       9.25600000
 O       3.48100000       6.63000000       9.73600000
 H       3.99000000       5.80500000       9.84500000
 H       3.96800000       7.25300000      10.26900000
 O       1.25900000       7.97500000      12.38300000
 H       1.43600000       7.50100000      11.49400000
 H       1.31500000       7.17700000      12.94100000
 O       6.23100000       5.94500000       9.13800000
 H       6.77900000       6.31800000       8.46100000
 H       5.90300000       5.14800000       8.62500000
 O       6.04900000       7.62000000      13.64600000
 H       5.44200000       7.40100000      14.30700000
 H       6.53700000       6.76000000      13.51000000
 O       4.04000000       4.41700000      11.43300000
 H       4.31400000       4.09500000      12.28600000
 H       3.11500000       4.67600000      11.62700000
 O       7.24900000       5.32600000      12.15200000
 H       6.81600000       5.32600000      11.23600000
 H       7.06600000       4.35500000      12.44100000
