64
XYZ file of cluster: frame_8000_52592.5d318.27794 - created by MolEdiTo
 O      11.82500000      12.87300000       6.13900000
 H      12.37300000      13.31900000       6.81200000
 H      11.26200000      13.60700000       5.92800000
 O      13.16400000      17.32100000       7.54700000
 H      12.46800000      17.90300000       7.19400000
 H      13.52600000      16.77500000       6.81100000
 O       8.71900000      14.11500000       5.79300000
 H       9.36400000      14.53900000       6.31800000
 H       7.86600000      14.45600000       6.14300000
 O      13.70000000      15.63000000       4.32700000
 H      13.50500000      15.02600000       3.54000000
 H      14.57800000      15.29900000       4.56400000
 O      12.22800000      17.28600000      10.19300000
 H      11.44400000      16.69700000      10.28100000
 H      12.58900000      17.19600000       9.25400000
 O       9.91700000      10.66200000       6.43600000
 H       9.17200000      11.28800000       6.22200000
 H      10.74400000      11.19100000       6.61800000
 O      10.62800000      15.52200000       7.51500000
 H      11.21500000      15.13200000       8.19900000
 H      10.44800000      16.42500000       7.76700000
 O       7.20300000      18.06200000      10.30500000
 H       7.44300000      17.08600000      10.32900000
 H       8.13300000      18.37300000      10.23600000
 O       7.20700000      11.79400000       7.27600000
 H       7.42800000      12.73200000       7.45900000
 H       7.49500000      11.34500000       8.09200000
 C      11.62200000       9.93400000       9.70100000
 C      11.38400000      11.22400000      10.64800000
 C       8.80600000      11.22100000      10.40800000
 H       9.83500000      10.10900000      11.79800000
 H      12.38600000       8.17300000       9.72200000
 O       9.94200000      12.09400000      12.47700000
 O      12.93500000      10.20300000       9.17100000
 O      11.82300000       8.72800000      10.28300000
 C       9.97000000      11.12600000      11.38600000
 O      12.37400000      11.49000000      11.68000000
 H      11.27300000      12.05600000      10.00600000
 O       8.64300000      12.51100000       9.80700000
 O       8.76000000      10.19000000       9.43300000
 H       7.82500000       9.69700000       9.50100000
 H      13.23100000      11.24800000      11.22100000
 H      10.72100000      11.88500000      12.90100000
 O      12.61500000      17.99700000       3.39100000
 H      12.62200000      18.73100000       4.05800000
 H      12.84700000      17.14900000       3.91300000
 O       8.74700000      17.88800000       7.13600000
 H       8.04400000      18.22800000       6.52300000
 H       9.35000000      17.37500000       6.49400000
 O      10.45800000      16.74800000       4.75800000
 H      10.15600000      16.27300000       3.98300000
 H      11.38700000      16.55000000       4.61300000
 O      12.43100000      14.20400000       9.32700000
 H      13.39400000      14.27000000       9.28800000
 H      12.17600000      14.52200000      10.17600000
 O      13.15200000      10.82000000       4.52000000
 H      12.69100000      10.32500000       3.76500000
 H      12.69600000      11.56100000       5.04300000
 O       7.66900000      15.37700000       9.99700000
 H       8.30000000      15.48800000       9.22900000
 H       8.02500000      14.58500000      10.43300000
 O       8.23600000      12.09300000       3.83900000
 H       8.21500000      12.26600000       4.80900000
 H       9.13300000      11.61800000       3.78200000
