42
XYZ file of cluster: frame_8000_9a655.72640.5ecd - created by MolEdiTo
 O      19.35800000      11.63500000       3.77800000
 H      18.41600000      11.59100000       3.54200000
 H      19.44100000      10.65100000       3.96600000
 O      16.40100000      11.80100000       3.85900000
 H      15.91800000      11.46900000       4.61000000
 H      15.89000000      11.44400000       3.14700000
 O      17.33400000      12.22800000       0.81400000
 H      16.77600000      12.77100000       1.43900000
 H      18.17700000      12.67900000       0.75000000
 O      14.74100000      17.45600000       1.56000000
 H      14.07600000      18.05400000       1.98800000
 H      14.84900000      16.79300000       2.29600000
 O      17.75100000      14.47900000       2.53600000
 H      17.97000000      14.46400000       3.48200000
 H      18.62000000      14.74400000       2.14400000
 O      13.70000000      15.63000000       4.32700000
 H      13.50500000      15.02600000       3.54000000
 H      14.57800000      15.29900000       4.56400000
 O      19.29500000      10.30900000       7.40300000
 H      20.14100000      10.03200000       7.81600000
 H      19.69000000      10.83700000       6.70100000
 O      14.37400000      11.04900000       1.42200000
 H      14.51300000      10.77700000       0.50900000
 H      14.46200000      10.20200000       1.87000000
 O      15.89800000      15.63100000       6.01300000
 H      16.80300000      15.22500000       5.98300000
 H      15.67200000      15.68500000       6.98100000
 O      17.31000000      18.21100000       2.36500000
 H      17.77000000      17.39300000       2.41100000
 H      18.01700000      18.62800000       2.85800000
 O      15.10300000      14.25500000       1.29700000
 H      15.82000000      14.48800000       1.88000000
 H      14.62300000      15.06000000       1.07900000
 O      18.47900000      14.45900000       5.10300000
 H      18.24800000      13.97600000       5.95500000
 H      19.41800000      14.41300000       4.99100000
 O      19.51300000      17.01600000       3.42300000
 H      20.21600000      17.03800000       2.76600000
 H      19.79300000      16.37200000       4.06300000
 O      15.39500000      11.39000000       7.54500000
 H      15.01700000      10.69800000       8.11900000
 H      15.51900000      10.89100000       6.70700000
