126
XYZ file of cluster: frame_6500_9ac39.0.70e36 - created by MolEdiTo
 O      24.45700000       8.81300000      21.52300000
 H      23.95600000       8.72000000      22.42400000
 H      25.16800000       8.17700000      21.54200000
 O      28.31900000       3.29400000      19.23200000
 H      28.96800000       3.67600000      19.89200000
 H      27.94900000       2.51800000      19.67300000
 O      26.07900000       6.58000000      22.29000000
 H      25.88700000       5.77100000      22.84100000
 H      26.44600000       7.29300000      22.82700000
 O      22.11400000       4.44900000      22.51100000
 H      23.03500000       4.12500000      22.63300000
 H      22.20700000       5.17200000      21.77900000
 O      24.02400000       2.17100000      18.86000000
 H      24.68100000       2.10800000      18.13800000
 H      24.39700000       2.97500000      19.29000000
 O      28.79300000       8.73800000      17.73200000
 H      28.65100000       8.54800000      16.77000000
 H      28.26400000       8.09400000      18.23000000
 O      27.25100000       9.28300000      23.41500000
 H      26.38100000       9.78300000      23.64400000
 H      27.91300000       9.90800000      23.70300000
 O      25.28700000       4.23700000      20.37300000
 H      25.76100000       3.46600000      20.76100000
 H      25.74600000       4.97200000      20.79600000
 O      30.38900000       6.56500000      15.19300000
 H      30.63700000       5.74600000      15.65900000
 H      31.11900000       7.21900000      15.42600000
 O      29.27300000       0.85600000      20.92100000
 H      29.36300000       0.00000000      21.44000000
 H      28.99200000       0.58000000      19.98100000
 O      21.58200000       4.56500000      18.40500000
 H      21.62400000       4.43100000      19.35100000
 H      22.09400000       5.41600000      18.33100000
 O      28.89800000       6.00100000      24.27400000
 H      29.53200000       5.83200000      24.97700000
 H      28.37900000       6.75200000      24.62800000
 O      20.83000000       2.84200000      20.78600000
 H      20.05800000       2.68300000      21.37600000
 H      21.52900000       3.22100000      21.39400000
 O      23.84600000       8.68800000      18.20400000
 H      23.71200000       9.28300000      18.91300000
 H      24.65700000       8.15100000      18.45600000
 O      25.31000000      10.18800000      25.42900000
 H      25.49500000      11.10600000      25.80700000
 H      24.37800000      10.19700000      25.79200000
 O      26.45900000      10.49500000      19.72400000
 H      26.45500000      10.03400000      18.89100000
 H      27.15900000       9.93200000      20.27100000
 O      28.31800000       8.75800000      20.67300000
 H      29.15200000       8.71600000      20.16100000
 H      28.38700000       8.52500000      21.62200000
 O      30.61500000       6.27000000      18.57500000
 H      31.11900000       6.02400000      17.77400000
 H      30.82300000       5.54000000      19.24000000
 O      21.23900000       8.24800000      21.81000000
 H      21.80700000       7.59600000      21.40800000
 H      21.39700000       8.10500000      22.74800000
 O      27.01500000       3.67200000      16.28100000
 H      26.19500000       3.78000000      16.86400000
 H      27.34400000       4.57700000      16.25600000
 O      23.34600000       8.53200000      23.98400000
 H      22.74300000       7.93900000      24.53900000
 H      23.98500000       8.85800000      24.69800000
 O      26.28100000       7.21800000      25.55800000
 H      25.89700000       6.29900000      25.66100000
 H      25.41400000       7.70300000      25.54500000
 O      30.60500000       7.41200000      22.52000000
 H      29.98000000       6.89600000      23.15200000
 H      31.30400000       7.76700000      23.10800000
 O      26.19300000       7.31300000      18.92500000
 H      26.75400000       7.59900000      19.64400000
 H      26.67000000       6.58100000      18.50300000
 O      30.69400000       3.38500000      26.08800000
 H      29.95600000       2.81100000      25.93600000
 H      30.34600000       4.05300000      26.71900000
 O      30.05600000      11.17000000      16.66200000
 H      29.67500000      10.25900000      16.73100000
 H      30.81800000      11.13500000      17.25600000
 O      23.72900000      11.15900000      20.15100000
 H      23.92800000      10.30300000      20.69400000
 H      24.51800000      11.67400000      20.42800000
 O      21.64100000       3.86900000      15.23600000
 H      21.43500000       4.71700000      15.66100000
 H      22.07200000       3.30700000      15.93200000
 O      22.22300000       1.58200000      16.92400000
 H      21.38000000       1.56700000      17.38800000
 H      22.60900000       2.23400000      17.56000000
 O      29.88400000       2.74700000      16.76800000
 H      29.29300000       2.35100000      16.12000000
 H      29.31000000       2.78500000      17.56400000
 O      24.71400000       3.88800000      23.11000000
 H      24.61900000       4.05100000      24.13300000
 H      25.28500000       3.11700000      22.95600000
 O      25.38500000       1.36600000      25.19600000
 H      24.63100000       1.14700000      25.80200000
 H      25.43700000       0.55600000      24.64200000
 O      21.21900000       7.16300000      25.47700000
 H      20.33400000       7.64000000      25.44500000
 H      20.98500000       6.46500000      24.85900000
 O      26.70800000       2.27500000      21.97100000
 H      27.35300000       2.82600000      22.45200000
 H      27.30700000       1.54500000      21.77300000
 O      28.06200000       1.35100000      15.15700000
 H      27.72000000       2.09400000      15.69900000
 H      27.42600000       1.18900000      14.44600000
 O      28.82000000       3.68800000      22.82900000
 H      29.05900000       4.44900000      23.44000000
 H      29.48300000       2.93100000      22.95900000
 O      22.99400000       6.17000000      20.77400000
 H      23.17800000       7.10300000      20.41400000
 H      23.89000000       5.74900000      20.84200000
 O      28.12000000       5.67500000      17.89000000
 H      29.04000000       5.94200000      18.02400000
 H      28.13900000       4.93600000      18.50400000
 O      20.63800000      10.61800000      25.03400000
 H      19.84400000      10.31000000      25.43300000
 H      21.32000000      10.53700000      25.73400000
 O      21.30300000       1.23400000      24.23000000
 H      20.72600000       2.04200000      24.20600000
 H      21.18800000       0.91400000      25.09700000
 O      22.92100000       6.89200000      15.74100000
 H      22.01000000       7.23900000      15.98800000
 H      23.51000000       7.32900000      16.33600000
 O      24.90600000       4.60300000      17.60700000
 H      24.82300000       5.12100000      18.43500000
 H      24.65000000       5.23400000      16.86700000
