129
XYZ file of cluster: frame_6500_4a393.97f05.4cc50 - created by MolEdiTo
 O      11.35600000      20.27400000      17.60000000
 H      11.89100000      19.60000000      18.09100000
 H      11.73800000      21.13700000      17.83000000
 O      10.03600000      23.07200000      17.96600000
 H      10.67100000      23.64700000      17.38600000
 H      10.46100000      23.04700000      18.83200000
 O      20.53600000      27.36100000      12.88100000
 H      21.45600000      27.14000000      12.60600000
 H      20.16500000      27.73800000      12.04300000
 O      15.34000000      30.53300000      17.81300000
 H      14.79800000      31.01700000      18.53800000
 H      14.68600000      29.96400000      17.32200000
 O      18.30000000      26.95000000      21.48400000
 H      18.74600000      27.81700000      21.68500000
 H      17.90700000      26.97200000      20.57100000
 O      14.96900000      29.30600000      14.98400000
 H      15.24800000      28.85500000      14.19500000
 H      15.79100000      29.77800000      15.08300000
 O      16.73700000      29.98100000      12.70900000
 H      15.86700000      30.38200000      12.42700000
 H      17.36800000      30.53200000      12.16400000
 O      15.57000000      27.08600000      12.04900000
 H      15.52400000      26.23900000      12.58600000
 H      16.32400000      27.03200000      11.36800000
 O      20.39500000      30.71100000      19.15200000
 H      20.65500000      31.38600000      19.82400000
 H      20.89300000      30.02300000      19.42100000
 O      19.39900000      21.57500000      11.42800000
 H      18.45300000      21.91400000      11.64500000
 H      19.18700000      20.78200000      10.93000000
 O      13.68500000      22.81000000      18.39100000
 H      14.53900000      23.23500000      18.41600000
 H      14.02500000      22.00100000      17.97000000
 O      13.88500000      29.24700000      11.95100000
 H      14.54000000      28.46200000      11.91100000
 H      13.14200000      28.69600000      11.75700000
 O      11.82400000      26.33000000      19.75400000
 H      12.31700000      26.76900000      20.49600000
 H      11.19000000      25.74200000      20.24200000
 O      18.27200000      28.95800000      17.07200000
 H      18.87200000      28.64000000      16.41900000
 H      18.42900000      29.91900000      17.06200000
 O      18.47400000      25.57200000      16.33300000
 H      19.06100000      25.57500000      15.50700000
 H      17.65400000      26.04200000      16.12100000
 O      19.38200000      25.39900000      10.43500000
 H      19.78000000      24.91400000      11.15100000
 H      18.94700000      24.67700000       9.98700000
 O      17.98400000      27.07700000      14.02100000
 H      17.55900000      27.78100000      13.45200000
 H      18.89800000      27.15800000      13.58200000
 O      10.52400000      24.41300000      14.45400000
 H       9.93900000      24.83900000      15.16800000
 H      11.43600000      24.55400000      14.80500000
 O      10.38400000      21.10900000      14.28000000
 H      10.47300000      21.84300000      14.95600000
 H       9.57400000      20.53300000      14.45300000
 O      15.70800000      26.74500000      16.21300000
 H      15.89800000      27.67300000      15.87600000
 H      15.15500000      26.30600000      15.55500000
 O      13.75300000      30.37700000      20.54400000
 H      14.06000000      29.47900000      20.54400000
 H      13.14700000      30.42600000      21.26600000
 O      12.36700000      26.30500000      11.69300000
 H      12.70600000      26.35000000      10.75800000
 H      11.69800000      25.53500000      11.70500000
 O      14.06500000      25.54200000      13.88800000
 H      13.38000000      25.81000000      13.17900000
 H      14.23700000      24.58800000      13.60900000
 O      16.40600000      22.30000000      10.65500000
 H      17.00200000      22.32400000       9.82400000
 H      15.62500000      22.79800000      10.44500000
 O      19.28200000      25.43200000      18.97600000
 H      18.36200000      25.13600000      19.19200000
 H      19.21300000      25.55400000      17.99000000
 O      17.04300000      22.51800000      13.71200000
 H      16.79400000      22.50200000      12.74500000
 H      16.92500000      21.66000000      14.07900000
 O      20.34400000      22.80000000      16.61200000
 H      19.58900000      23.12000000      17.12500000
 H      19.90600000      22.57300000      15.75400000
 O      12.63400000      29.37600000      16.53800000
 H      13.32700000      28.74300000      16.18800000
 H      12.13300000      29.67800000      15.82000000
 O      17.71600000      30.20600000      20.13800000
 H      17.29600000      30.43300000      19.25400000
 H      18.66200000      30.48900000      20.01700000
 O      16.69000000      27.32500000      19.01900000
 H      16.20300000      26.88200000      18.28100000
 H      17.01800000      28.09200000      18.64900000
 O      16.58600000      22.10600000      18.16300000
 H      16.95900000      22.97200000      17.85500000
 H      16.98600000      21.46000000      17.53900000
 O      19.35700000      24.54500000      13.86500000
 H      18.92000000      23.71400000      14.26300000
 H      18.67000000      25.32200000      14.00800000
 O      11.79200000      25.57400000      16.91500000
 H      11.85100000      26.12500000      17.72700000
 H      12.48300000      24.90500000      17.05400000
 O      10.44900000      27.95700000      14.96900000
 H      10.81800000      27.12100000      15.30400000
 H      10.15700000      27.79400000      14.05400000
 O      11.94300000      21.13100000      11.73000000
 H      11.31900000      21.75400000      11.40400000
 H      11.60800000      20.99000000      12.68200000
 O       9.75500000      29.33900000      11.90100000
 H      10.51200000      30.03400000      12.12300000
 H       9.71600000      29.38700000      10.90900000
 O      20.17100000      20.58100000      19.02800000
 H      20.42200000      21.38500000      19.53600000
 H      20.71900000      20.50600000      18.23400000
 O      20.55000000      21.54900000      14.05700000
 H      19.97300000      21.76100000      13.26800000
 H      21.08200000      20.84900000      13.53100000
 O      18.39900000      22.46700000      20.79100000
 H      17.46300000      22.11300000      20.97300000
 H      18.31800000      22.76100000      19.79500000
 O      14.11800000      23.18200000      12.64800000
 H      14.53200000      23.39300000      11.79600000
 H      13.40300000      22.52500000      12.37000000
 O      10.80200000      23.15100000      20.52400000
 H      10.23400000      23.58400000      21.21800000
 H      11.66900000      23.34000000      20.84700000
 O      14.48500000      20.59000000      13.93100000
 H      15.14000000      20.02100000      13.46800000
 H      14.51200000      21.34300000      13.32600000
 O      10.07700000      28.76200000      17.99200000
 H      11.01100000      28.85700000      17.69400000
 H       9.51700000      28.47800000      17.24700000
