114
XYZ file of cluster: frame_6500_9caab.23020.c5c8f - created by MolEdiTo
 O      23.20000000      11.83200000      26.39400000
 H      23.61600000      12.70500000      26.38300000
 H      23.13300000      11.60900000      27.36800000
 O      25.68900000      13.50100000      27.01700000
 H      25.11000000      14.23900000      27.24000000
 H      26.12400000      13.92600000      26.25700000
 O      20.96500000      10.15300000      28.36100000
 H      21.55400000      10.74000000      28.91500000
 H      20.08800000      10.58900000      28.37700000
 O      27.19900000       7.13300000      28.63500000
 H      27.56300000       7.70100000      27.90000000
 H      26.27300000       7.13400000      28.40300000
 O      28.06400000      14.71700000      25.84000000
 H      28.50300000      15.35700000      25.31000000
 H      27.47200000      15.21600000      26.43900000
 O      29.36400000       5.63600000      27.44000000
 H      29.36500000       6.61500000      27.33000000
 H      28.45200000       5.39900000      27.67000000
 O      25.66300000      11.93100000      30.32900000
 H      25.69400000      12.91700000      29.98700000
 H      25.31800000      12.02700000      31.24200000
 O      29.99100000      10.02400000      30.36700000
 H      30.60600000      10.61300000      30.86800000
 H      30.35200000       9.85200000      29.45800000
 O      23.70600000       5.20500000      26.10800000
 H      23.25400000       6.09900000      26.27500000
 H      23.00800000       4.51600000      26.27400000
 O      24.26200000       6.50000000      28.56700000
 H      24.86100000       5.75300000      28.40100000
 H      23.44000000       6.13300000      28.98600000
 O      23.32900000       8.73800000      27.59600000
 H      23.75000000       7.89800000      27.91800000
 H      22.55900000       8.93600000      28.18600000
 O      20.78000000      13.76200000      27.06000000
 H      20.55000000      12.82100000      27.14300000
 H      21.47100000      13.94100000      26.35500000
 O      23.06500000      11.90800000      29.01800000
 H      22.77600000      12.67600000      29.56500000
 H      24.07800000      11.75600000      29.18900000
 O      29.50100000      14.29900000      28.98100000
 H      29.77300000      14.69900000      28.07200000
 H      29.13600000      15.14600000      29.33300000
 O      27.37000000       8.92900000      30.68300000
 H      27.26600000       8.19100000      30.03300000
 H      27.75900000       9.60500000      30.21700000
 O      21.00200000       7.01100000      28.94400000
 H      20.45400000       6.22200000      29.03300000
 H      20.84900000       7.30200000      28.05800000
 O      26.35700000      11.07900000      27.97100000
 H      26.37800000      11.31600000      28.95100000
 H      26.19400000      11.82900000      27.37300000
 O      28.08500000       8.93400000      26.92300000
 H      27.36900000       8.53000000      26.31900000
 H      27.54800000       9.50900000      27.53300000
 O      29.72000000      11.91000000      27.17600000
 H      29.73300000      12.40100000      27.99500000
 H      29.78000000      10.97500000      27.49500000
 O      25.10100000      11.14000000      36.40000000
 H      24.76800000      11.34900000      35.45300000
 H      24.74400000      10.20600000      36.59000000
 O      22.21100000       9.22800000      34.55400000
 H      21.54400000       8.49600000      34.60300000
 H      22.90200000       8.89900000      33.92100000
 O      22.61200000       5.45200000      35.55700000
 H      21.99100000       5.59000000      36.29500000
 H      23.45700000       5.84900000      35.79200000
 O      20.87800000      12.08200000      33.27400000
 H      20.93800000      12.17400000      34.26600000
 H      20.93600000      13.00800000      32.96100000
 O      26.40400000      14.69100000      33.17200000
 H      25.73200000      14.72400000      33.93800000
 H      25.79600000      15.09600000      32.49100000
 O      21.21900000       6.70600000      33.35900000
 H      21.65200000       5.99000000      33.91200000
 H      21.58900000       6.67800000      32.53600000
 O      29.47200000      12.22400000      37.02500000
 H      29.75100000      11.42000000      37.50200000
 H      29.38600000      11.95000000      36.08400000
 O      30.09800000       9.01000000      34.84100000
 H      29.59800000       9.55600000      34.20400000
 H      29.39000000       8.39300000      35.10700000
 O      27.41400000       9.72700000      36.23400000
 H      26.90600000      10.52500000      36.31300000
 H      26.97800000       9.14400000      35.61300000
 O      29.32100000      11.83800000      34.23300000
 H      28.44500000      12.12800000      33.86100000
 H      30.00900000      12.27700000      33.63200000
 O      23.56000000      11.64600000      34.21100000
 H      22.97800000      10.95500000      34.49200000
 H      23.02900000      12.19600000      33.60300000
 O      24.42000000      14.98900000      35.04300000
 H      23.45900000      15.08300000      35.20000000
 H      24.76000000      14.91300000      35.95000000
 O      23.03700000      13.99700000      32.35000000
 H      22.75500000      14.79400000      31.80300000
 H      23.22800000      14.47400000      33.18600000
 O      23.59700000       8.77700000      32.14000000
 H      23.72400000       8.02200000      31.58900000
 H      23.86500000       9.48700000      31.69200000
 O      21.72200000      14.53200000      35.15800000
 H      20.92500000      15.15400000      34.77600000
 H      21.36200000      14.03800000      36.00600000
 O      25.50800000       6.04800000      33.10600000
 H      24.56300000       6.01000000      32.93200000
 H      25.90100000       5.59100000      32.36400000
 O      29.95300000       7.03300000      32.21000000
 H      30.12000000       7.92400000      31.78300000
 H      29.88300000       7.13600000      33.20500000
 O      28.46000000       6.37000000      34.60400000
 H      27.60300000       6.69900000      34.22500000
 H      28.22600000       5.59300000      35.11000000
 O      26.13100000       8.47700000      34.27000000
 H      25.48200000       7.80300000      33.86900000
 H      26.57900000       8.69600000      33.39900000
