129
XYZ file of cluster: frame_6500_236a5.4b655.9c524 - created by MolEdiTo
 O       7.68100000      16.13200000      30.31100000
 H       7.82700000      15.63000000      31.16900000
 H       8.16900000      16.96400000      30.46200000
 O      10.92500000      16.95300000      24.05500000
 H       9.97000000      17.06300000      24.36900000
 H      10.94900000      16.61300000      23.12900000
 O       8.26000000      20.81900000      29.67600000
 H       7.48000000      20.24700000      29.56200000
 H       7.97500000      21.78200000      29.94400000
 O       6.49600000      14.31200000      20.84500000
 H       6.54200000      13.49200000      20.23800000
 H       5.61800000      14.68000000      20.62600000
 O      11.00500000      11.95500000      23.19300000
 H      10.24600000      11.68700000      23.78000000
 H      11.67200000      11.24500000      23.42200000
 O       4.85100000      11.30600000      22.79900000
 H       5.35700000      10.64900000      23.29100000
 H       5.32000000      12.25400000      22.91500000
 O       9.75600000      12.23100000      20.56200000
 H      10.34300000      12.10200000      21.28900000
 H      10.09800000      12.94900000      20.00400000
 O      10.33500000      17.82200000      28.74300000
 H       9.84800000      18.41900000      29.25600000
 H      10.67800000      18.48800000      28.05700000
 O      15.13500000      17.74200000      24.73400000
 H      14.95400000      18.76100000      24.74700000
 H      15.64200000      17.57600000      25.59300000
 O       5.96500000      19.71800000      25.28400000
 H       5.04300000      19.76300000      25.04600000
 H       6.27700000      20.55700000      24.89300000
 O      16.00100000      12.84600000      26.66200000
 H      14.99500000      12.73100000      26.55100000
 H      16.22900000      13.52300000      26.02600000
 O      12.61300000      18.30500000      26.06900000
 H      12.33100000      18.34200000      25.17300000
 H      12.08100000      19.09400000      26.46900000
 O      11.96800000      11.87700000      28.68000000
 H      12.34100000      12.52000000      28.11000000
 H      12.39300000      11.03900000      28.46000000
 O      13.07900000      17.81300000      22.44900000
 H      12.58300000      17.00400000      22.31300000
 H      13.23100000      17.74700000      23.39700000
 O       7.26900000      12.72000000      26.30000000
 H       7.96800000      13.28500000      26.62900000
 H       6.50200000      12.91900000      26.88600000
 O       4.67400000      16.03000000      30.11400000
 H       4.54100000      15.78000000      30.97900000
 H       5.58700000      16.22700000      30.04900000
 O       6.07500000      16.64000000      26.11500000
 H       5.33000000      17.04500000      26.59400000
 H       6.24800000      17.29600000      25.40600000
 O      11.59500000      15.03900000      25.97200000
 H      11.69400000      15.63700000      25.21200000
 H      10.80700000      15.38100000      26.41600000
 O      12.88400000      12.59000000      26.08700000
 H      13.09700000      12.13900000      25.25100000
 H      12.36100000      13.40600000      25.94200000
 O       5.95300000      20.32900000      28.05700000
 H       4.97700000      20.12100000      27.92400000
 H       6.29100000      20.17800000      27.21000000
 O       6.56800000      10.36200000      30.04700000
 H       5.82200000       9.72600000      30.17900000
 H       7.01800000      10.51300000      30.86900000
 O       7.45600000      11.34700000      21.88400000
 H       6.99000000      12.17400000      21.67100000
 H       8.28800000      11.45000000      21.34400000
 O      14.08600000      18.96400000      28.29200000
 H      13.76900000      18.55100000      27.37200000
 H      13.44300000      18.83100000      28.99300000
 O       7.94800000      21.29100000      22.61400000
 H       7.05300000      21.65100000      22.53500000
 H       7.97100000      20.40000000      22.19500000
 O      13.90800000      20.71900000      24.06300000
 H      13.28500000      21.49900000      24.20200000
 H      14.58500000      20.92600000      24.72700000
 O       7.14800000      16.19700000      23.26100000
 H       7.04000000      17.18200000      23.22200000
 H       7.00800000      16.10800000      22.34500000
 O      10.70300000      16.28900000      21.28000000
 H       9.78300000      16.21600000      21.01500000
 H      11.21100000      16.81700000      20.57900000
 O      15.59700000      20.76300000      29.39000000
 H      15.06600000      19.90900000      29.23000000
 H      14.91800000      21.51300000      29.48800000
 O       8.87300000      18.40900000      25.38100000
 H       8.03400000      18.84600000      25.14300000
 H       9.50700000      19.23200000      25.45800000
 O       8.56800000      11.39200000      24.45000000
 H       8.16400000      11.41800000      23.55100000
 H       8.12400000      12.12000000      24.96400000
 O      12.65600000      15.77100000      29.73200000
 H      11.84600000      16.30400000      29.55600000
 H      12.23700000      15.16500000      30.42400000
 O       6.25800000      18.67800000      22.02200000
 H       5.91300000      18.31300000      21.13500000
 H       7.12800000      19.01100000      21.82300000
 O       8.40200000      15.29400000      26.83600000
 H       7.66300000      15.79700000      26.37900000
 H       8.40100000      15.62200000      27.79700000
 O       9.20400000      18.82400000      22.43700000
 H       9.23900000      18.13400000      23.14600000
 H      10.06900000      19.37200000      22.51400000
 O      11.74100000      20.26800000      22.06000000
 H      11.86100000      21.07500000      22.66200000
 H      12.36600000      19.58400000      22.29300000
 O       7.09500000      10.02400000      27.12300000
 H       7.23700000       9.99700000      28.09100000
 H       7.52400000      10.82700000      26.79500000
 O      14.78900000      15.81100000      27.56100000
 H      14.66900000      15.73800000      28.50800000
 H      13.84900000      15.91600000      27.33000000
 O      15.07900000      16.94600000      20.59400000
 H      14.48500000      17.38200000      21.20400000
 H      15.68700000      17.68500000      20.32600000
 O      12.27200000      14.02900000      21.56600000
 H      11.58800000      14.77900000      21.63000000
 H      11.96700000      13.51700000      22.29100000
 O       5.07500000      14.36300000      24.03500000
 H       5.99100000      14.61900000      23.94500000
 H       5.05000000      14.14400000      25.00400000
 O      14.58500000      12.32600000      22.48600000
 H      14.20900000      12.99400000      21.94300000
 H      15.37800000      12.14700000      21.91300000
 O      11.32500000      20.59700000      27.64600000
 H      10.64300000      21.19600000      28.05300000
 H      11.79200000      21.23000000      27.02500000
 O       9.39400000      10.79300000      29.39600000
 H       9.23100000      11.08800000      30.35300000
 H      10.15600000      11.27700000      29.14900000
