138
XYZ file of cluster: frame_6500_9bc51.75518.1ebe0 - created by MolEdiTo
 O      23.66400000      19.29900000       6.15900000
 H      23.14400000      18.57500000       6.55100000
 H      23.10000000      19.47100000       5.35900000
 O      26.78500000      23.63600000      14.97200000
 H      27.69000000      23.47000000      14.57500000
 H      26.61500000      22.94500000      15.61800000
 O      27.39700000      23.95600000       6.70500000
 H      26.45200000      23.92300000       6.93200000
 H      27.57800000      23.02600000       7.11000000
 O      30.57700000      21.74000000       5.71300000
 H      30.47100000      22.60700000       6.01100000
 H      29.67700000      21.51500000       5.40900000
 O      24.84300000      25.42600000       7.04200000
 H      25.59900000      25.94300000       7.30900000
 H      24.28800000      26.09600000       6.54600000
 O      29.65700000      20.08200000       9.02800000
 H      29.40600000      19.14900000       8.84600000
 H      30.66600000      20.13900000       8.86200000
 O      26.72600000      17.10500000       8.52600000
 H      25.86500000      17.62800000       8.72300000
 H      26.75600000      16.65300000       9.43100000
 O      29.34500000      23.23400000      14.46500000
 H      30.06200000      22.78300000      13.92900000
 H      29.88900000      23.97600000      14.85200000
 O      21.64700000      19.45200000      10.86200000
 H      21.97000000      18.68900000      11.43300000
 H      21.64700000      19.12300000       9.93700000
 O      24.84300000      24.85000000      13.10500000
 H      25.37400000      24.26000000      13.73800000
 H      24.02000000      24.82800000      13.60500000
 O      29.74000000      19.46500000      13.24100000
 H      29.70700000      18.53700000      13.08900000
 H      30.61100000      19.67400000      12.78600000
 O      24.12300000      18.45300000       8.99400000
 H      23.66600000      18.21300000       9.83100000
 H      23.44800000      19.01200000       8.48000000
 O      22.23100000      16.97300000       5.87600000
 H      21.27000000      17.27700000       5.59400000
 H      22.59300000      16.37300000       5.24700000
 O      22.92300000      24.17000000       8.71100000
 H      22.13600000      24.49700000       9.15300000
 H      23.37400000      23.51100000       9.27800000
 O      24.35900000      21.55000000       8.84600000
 H      24.68800000      21.37400000       7.94800000
 H      23.46500000      21.04900000       8.99900000
 O      22.43700000      24.63900000      14.21000000
 H      22.36900000      24.93300000      15.14800000
 H      21.51200000      24.48400000      13.88400000
 O      21.09600000      21.00200000       7.41300000
 H      21.68700000      21.38700000       6.78200000
 H      20.50500000      20.35100000       6.98000000
 O      29.58100000      17.19300000       7.97800000
 H      29.53100000      16.29800000       7.49600000
 H      28.60100000      17.29200000       8.18600000
 O      23.76500000      27.04200000       9.21700000
 H      24.71400000      26.94100000       9.64800000
 H      23.56400000      26.16500000       8.75400000
 O      26.28900000      18.13600000      12.37200000
 H      26.89100000      18.85400000      12.01900000
 H      25.98200000      17.61300000      11.60500000
 O      22.47400000      16.97900000      11.15400000
 H      21.94600000      17.03900000      10.35100000
 H      22.83700000      16.09900000      11.08300000
 O      28.74100000      22.93400000       8.97200000
 H      28.99100000      21.96100000       9.02200000
 H      28.03300000      22.94800000       9.67900000
 O      25.81500000      21.15400000       6.29800000
 H      26.71200000      20.78600000       6.33800000
 H      25.25100000      20.31600000       6.37500000
 O      29.06000000      25.54500000      10.78200000
 H      29.56400000      24.83300000      11.36000000
 H      28.73900000      26.15600000      11.50600000
 O      22.55600000      26.55500000       5.53900000
 H      21.70000000      26.14000000       5.37000000
 H      22.39800000      27.17600000       6.36600000
 O      24.02100000      23.18400000       5.42500000
 H      24.27600000      23.76700000       6.18000000
 H      24.59400000      22.46300000       5.59800000
 O      30.37900000      17.16400000      15.38900000
 H      30.31800000      17.23900000      14.37400000
 H      30.19800000      18.15600000      15.74200000
 O      27.07600000      25.69300000       4.59200000
 H      27.28000000      25.25300000       5.44300000
 H      27.52300000      25.15900000       3.93400000
 O      29.49100000      25.50800000       8.04000000
 H      28.82600000      24.77600000       7.73000000
 H      29.38300000      25.59300000       9.03900000
 O      26.60400000      26.20200000       9.24900000
 H      26.33400000      25.23000000       9.19700000
 H      27.56500000      26.13200000       9.58700000
 O      27.02600000      17.08900000       5.84100000
 H      26.77600000      17.21100000       6.82500000
 H      26.49300000      17.67600000       5.28000000
 O      21.26200000      18.40400000       8.28000000
 H      20.82200000      17.71100000       7.81800000
 H      20.55400000      19.03000000       8.60500000
 O      23.34300000      17.66300000      13.64800000
 H      24.21000000      17.69700000      13.31500000
 H      22.77800000      17.85800000      12.87400000
 O      27.08700000      20.30100000      10.80500000
 H      26.72500000      20.94200000      10.19500000
 H      27.97800000      20.49700000      11.04700000
 O      27.33200000      15.90600000      10.85800000
 H      26.69600000      15.34700000      11.41200000
 H      27.93700000      16.40900000      11.56100000
 O      22.91000000      26.62400000      11.94700000
 H      23.09500000      25.67800000      11.82600000
 H      22.57400000      26.82700000      11.02900000
 O      20.55000000      21.54900000      14.05700000
 H      19.97300000      21.76100000      13.26800000
 H      21.08200000      20.84900000      13.53100000
 O      29.97000000      16.71800000      12.50300000
 H      30.47500000      16.94500000      11.60200000
 H      30.14600000      15.75100000      12.59900000
 O      22.10100000      23.75600000      11.28700000
 H      22.37600000      23.57700000      12.19900000
 H      21.36900000      23.06800000      11.20000000
 O      26.22000000      15.16600000      15.55900000
 H      26.15000000      16.09900000      15.82300000
 H      26.95900000      15.13400000      14.96000000
 O      22.30100000      16.64500000      15.87300000
 H      23.13300000      16.37200000      16.32700000
 H      22.62300000      17.11600000      15.08000000
 O      27.75100000      26.58500000      15.01500000
 H      28.14700000      26.65700000      14.15500000
 H      27.47100000      25.67400000      15.13300000
 O      27.57100000      20.39800000      15.27200000
 H      28.13400000      20.18000000      14.52800000
 H      26.68600000      19.90000000      15.13600000
 O      28.26100000      19.56800000       6.47900000
 H      28.07300000      18.67400000       6.09000000
 H      29.16800000      19.49800000       6.77000000
 O      23.05900000      15.70200000       8.17600000
 H      23.64900000      16.44300000       8.29500000
 H      22.90800000      15.58400000       7.25800000
 O      25.86200000      23.57200000      10.03600000
 H      25.27800000      22.90600000       9.57600000
 H      25.41800000      23.83200000      10.89900000
