117
XYZ file of cluster: frame_6500_4c126.9b4d9.2422 - created by MolEdiTo
 O      13.45200000      21.14800000       8.16800000
 H      13.61000000      22.08000000       8.02600000
 H      12.96100000      20.92400000       7.30800000
 O      20.35400000      20.58600000       4.70100000
 H      19.64500000      20.03400000       4.24300000
 H      19.98000000      21.49900000       4.91900000
 O      13.52100000      28.56600000       4.97000000
 H      14.45600000      28.64600000       4.71300000
 H      13.30400000      29.55800000       4.99900000
 O      10.09700000      26.72600000       9.07400000
 H       9.89700000      26.53100000      10.02100000
 H      10.64500000      27.50200000       9.06500000
 O      19.05400000      29.61700000       8.33800000
 H      19.05100000      29.10700000       7.46600000
 H      19.54800000      30.47000000       8.22300000
 O      10.12100000      28.22400000       5.88400000
 H       9.94900000      28.08500000       4.93200000
 H      10.69700000      29.04300000       5.90400000
 O      17.94200000      27.87500000       5.80400000
 H      18.63400000      27.25000000       6.04000000
 H      17.04900000      27.43400000       6.04300000
 O      13.53700000      27.45600000       9.14600000
 H      14.19700000      28.17900000       9.23400000
 H      13.32500000      27.44800000       8.15900000
 O      20.69100000      22.94100000       2.77600000
 H      20.81400000      22.63300000       3.75600000
 H      21.60000000      23.03200000       2.44000000
 O      17.95100000      20.48600000       6.32500000
 H      17.70200000      20.22200000       7.26900000
 H      18.09100000      21.41000000       6.55800000
 O      19.49900000      23.09000000       5.66500000
 H      18.97300000      23.48400000       4.99000000
 H      20.12100000      23.80100000       5.97500000
 O      20.27800000      25.65400000       7.07700000
 H      19.59500000      25.07200000       7.50100000
 H      20.64200000      26.35400000       7.70700000
 O      20.22700000      20.27600000       1.51100000
 H      19.70200000      20.61300000       0.69900000
 H      20.14900000      21.02400000       2.18700000
 O      16.94600000      27.86200000       9.56300000
 H      16.25200000      28.44000000       9.93300000
 H      17.65400000      28.47300000       9.27600000
 O      12.18000000      25.97100000       4.76800000
 H      11.31900000      25.45400000       4.58400000
 H      11.98900000      26.93400000       4.48600000
 O      21.09600000      21.00200000       7.41300000
 H      21.68700000      21.38700000       6.78200000
 H      20.50500000      20.35100000       6.98000000
 O      15.21200000      26.92200000       6.57400000
 H      14.31100000      27.11300000       6.17700000
 H      15.07400000      26.07300000       7.13200000
 O      10.52000000      21.73500000       6.10700000
 H       9.97200000      22.51500000       6.38400000
 H      10.71600000      21.84400000       5.09400000
 O      19.38200000      25.39900000      10.43500000
 H      19.78000000      24.91400000      11.15100000
 H      18.94700000      24.67700000       9.98700000
 O      10.30800000      27.87700000       2.99200000
 H      10.49100000      28.10300000       2.04800000
 H       9.75400000      27.10500000       2.87300000
 O      14.71400000      29.46900000       7.81000000
 H      15.13900000      30.23700000       7.38400000
 H      14.08400000      29.28300000       7.08500000
 O      16.43300000      25.36300000       8.78000000
 H      16.82500000      26.26800000       9.07000000
 H      15.73100000      25.21600000       9.42800000
 O      19.78700000      27.67000000       3.04400000
 H      19.16000000      26.91600000       3.27500000
 H      20.46000000      27.30800000       2.47200000
 O      19.95400000      29.73700000       4.94700000
 H      20.82900000      29.65900000       5.03700000
 H      19.82300000      29.05800000       4.28700000
 O      14.00800000      23.65200000       9.58800000
 H      14.36300000      23.82800000       8.62500000
 H      13.06100000      23.90000000       9.58900000
 O       9.91600000      25.18100000       6.87300000
 H      10.56200000      25.66400000       6.23500000
 H      10.03000000      25.76800000       7.65300000
 O      13.12100000      23.49200000       1.61200000
 H      12.35400000      22.92000000       1.84900000
 H      13.08800000      24.09300000       2.37800000
 O      16.40600000      22.30000000      10.65500000
 H      17.00200000      22.32400000       9.82400000
 H      15.62500000      22.79800000      10.44500000
 O      16.95400000      22.91900000       7.44700000
 H      17.45200000      23.12000000       8.14900000
 H      16.54600000      23.73400000       7.13600000
 O      16.33100000      28.77100000       2.97900000
 H      16.10400000      28.66700000       2.01500000
 H      17.18900000      29.36200000       3.04700000
 O      17.49400000      25.63800000       3.07300000
 H      17.09500000      26.47300000       3.40400000
 H      16.88000000      24.94500000       3.28900000
 O      17.44200000      23.07400000       1.30400000
 H      16.88000000      23.00300000       2.17300000
 H      18.42400000      23.02100000       1.58700000
 O      16.90500000      22.11300000       4.05400000
 H      16.99500000      21.25000000       3.63200000
 H      16.72000000      21.94500000       5.03500000
 O      19.43400000      23.17500000       8.69600000
 H      20.00000000      22.54000000       9.14600000
 H      19.71800000      23.10400000       7.76400000
 O      11.28800000      23.78000000       8.92800000
 H      11.17700000      22.84900000       8.77300000
 H      10.60200000      24.18900000       8.35700000
 O      14.40100000      25.20600000       3.63900000
 H      13.68500000      25.85000000       3.90100000
 H      14.88900000      25.74100000       2.94100000
 O      10.90600000      21.41700000       0.75000000
 H      10.06500000      21.18600000       0.28900000
 H      10.64200000      21.07400000       1.66800000
 O      20.59500000      27.94700000      10.17300000
 H      19.89400000      28.62300000       9.90100000
 H      20.15600000      27.04600000      10.09300000
 O      13.81700000      24.30600000       6.38700000
 H      14.51400000      24.31300000       5.71400000
 H      13.01300000      24.76300000       6.01700000
