132
XYZ file of cluster: frame_11000_77c31.5e50.1e4f5 - created by MolEdiTo
 O      25.88900000      11.13900000      12.63300000
 H      26.79400000      10.97700000      12.31400000
 H      25.56000000      10.22800000      12.79300000
 O      17.86400000       4.30100000       7.54100000
 H      17.68600000       4.99800000       8.19600000
 H      17.81600000       4.79500000       6.68700000
 O      22.26300000       7.69600000       9.16100000
 H      21.26300000       7.65100000       9.04300000
 H      22.63200000       6.78700000       9.15700000
 O      24.21100000       3.24300000       8.63200000
 H      24.73500000       3.78500000       7.90700000
 H      24.26100000       3.69200000       9.48900000
 O      20.55900000       5.26000000       8.13900000
 H      19.72000000       4.86800000       8.46700000
 H      20.13900000       6.03600000       7.93400000
 O      23.17200000       6.74600000       6.18800000
 H      22.84000000       7.42700000       6.79900000
 H      24.16600000       6.83800000       6.29900000
 O      17.48900000       3.94000000      13.56400000
 H      17.21600000       3.27000000      14.22400000
 H      17.14300000       3.67200000      12.67000000
 O      21.68300000      10.27500000       5.62900000
 H      21.58000000       9.82100000       4.77000000
 H      21.50900000      11.25600000       5.46800000
 O      22.41500000       6.22000000      13.93800000
 H      22.19400000       7.13100000      14.15100000
 H      23.35900000       6.16100000      14.11600000
 O      26.25600000       1.57800000      11.09100000
 H      26.91200000       2.31900000      11.10900000
 H      26.23800000       1.14100000      10.20400000
 O      16.27300000       1.70600000      14.29200000
 H      16.85800000       1.10900000      13.80300000
 H      15.74400000       0.93800000      14.70500000
 O      21.65200000       3.18300000      10.18700000
 H      21.28700000       2.78200000       9.38000000
 H      21.03900000       3.96100000      10.42300000
 O      20.52400000       1.71500000      13.28900000
 H      20.22800000       2.38200000      13.98200000
 H      20.19700000       2.20200000      12.44700000
 O      19.66400000       8.39500000      10.96100000
 H      19.56400000       9.32700000      10.91400000
 H      18.75900000       8.13800000      10.99800000
 O      18.83700000       2.77900000       4.63800000
 H      19.07200000       3.39500000       3.88500000
 H      18.93600000       3.38900000       5.41600000
 O      24.90000000       8.77600000       9.96600000
 H      24.96600000       9.73800000       9.90400000
 H      24.17200000       8.55500000       9.40000000
 O      19.91900000       9.76300000       7.88600000
 H      20.49900000      10.04300000       7.13700000
 H      19.15200000       9.23000000       7.52200000
 O      20.68700000       4.13400000      14.96300000
 H      21.39900000       4.65900000      15.29100000
 H      20.43100000       4.83800000      14.38500000
 O      26.01800000       3.20900000      14.26000000
 H      26.65900000       3.76100000      13.73900000
 H      25.21500000       3.48900000      13.74700000
 O      17.42800000      10.12100000       5.25100000
 H      17.26400000      10.21200000       4.30300000
 H      16.66500000       9.59900000       5.67300000
 O      24.83400000       0.77900000      13.88900000
 H      25.31100000       1.66400000      13.71100000
 H      23.97700000       0.76200000      13.34900000
 O      24.96400000       6.13500000      14.98500000
 H      25.85600000       6.19000000      15.44400000
 H      24.65200000       7.05100000      15.07000000
 O      18.31900000      10.19100000      15.75600000
 H      17.67800000      10.12600000      14.91600000
 H      17.83600000       9.59400000      16.34400000
 O      17.07000000       6.51200000       9.61000000
 H      16.23900000       6.61600000       9.09700000
 H      17.24200000       7.42500000       9.90700000
 O      24.94400000       8.71700000      13.20700000
 H      25.19100000       8.43600000      12.25100000
 H      23.97400000       8.75000000      13.14800000
 O      16.16300000       5.69200000       5.28200000
 H      15.97200000       6.68900000       5.39100000
 H      15.51300000       5.30800000       5.87900000
 O      21.67900000       3.18700000       6.61200000
 H      21.44900000       4.10800000       6.89800000
 H      22.57100000       3.02700000       6.95700000
 O      23.35500000       1.16100000      11.02200000
 H      22.90400000       2.07500000      10.95300000
 H      24.31400000       1.32400000      10.78300000
 O      25.83100000       9.65000000      15.80300000
 H      26.05300000       8.79500000      16.22400000
 H      25.36700000       9.24100000      15.03700000
 O      16.96700000       9.72800000       8.75600000
 H      16.68800000      10.57700000       8.44900000
 H      17.70200000      10.03400000       9.26500000
 O      19.67000000       5.11900000      10.95000000
 H      18.75800000       5.02100000      11.23000000
 H      19.70700000       6.07300000      10.75900000
 O      22.71100000       8.82000000      15.65300000
 H      22.53200000       9.23100000      16.57600000
 H      22.98500000       9.59700000      15.19400000
 O      16.78600000       7.16400000      15.95600000
 H      17.02800000       7.57100000      16.73900000
 H      17.52900000       7.22600000      15.31500000
 O      17.28300000       7.97800000      12.03100000
 H      17.81800000       7.22100000      12.44500000
 H      17.23700000       8.72000000      12.73400000
 O      25.53700000       5.95900000      11.64900000
 H      25.31600000       6.10100000      10.68600000
 H      24.71300000       5.75000000      12.12800000
 O      22.50500000       8.86500000      11.75200000
 H      22.40300000       8.74200000      10.80600000
 H      21.53900000       8.87300000      12.09600000
 O      25.52300000       3.91800000       5.82500000
 H      25.14000000       3.11500000       5.43700000
 H      25.32500000       4.64400000       5.11300000
 O      16.62200000      10.33800000      13.54800000
 H      16.58900000      10.99400000      12.80900000
 H      15.72200000      10.59900000      13.95400000
 O      25.45000000       9.16400000       4.93700000
 H      25.82200000      10.00600000       5.45900000
 H      24.55600000       9.35800000       4.79000000
 O      18.60300000       7.57300000       6.88000000
 H      17.76700000       7.91800000       7.17700000
 H      18.67500000       8.09300000       6.07600000
 O      16.79000000       1.63700000       7.55300000
 H      15.97800000       2.14000000       7.72500000
 H      17.44000000       2.27500000       7.20200000
 O      18.79700000       6.29400000      13.82000000
 H      19.36000000       6.37900000      14.68600000
 H      18.35100000       5.42900000      13.90500000
 O      17.23800000       3.30400000      10.32800000
 H      17.31400000       2.28500000      10.32900000
 H      17.35800000       3.49300000       9.37600000
 O      23.39900000       3.89600000      12.80400000
 H      22.90200000       3.79400000      11.96000000
 H      22.95800000       4.68400000      13.26800000
