111
XYZ file of cluster: frame_11000_c1fda.2c571.a7112 - created by MolEdiTo
 O      25.73700000       6.56500000      26.63900000
 H      25.61500000       7.29500000      27.24500000
 H      26.42400000       6.05600000      27.20800000
 O      28.94000000       6.07300000      24.81000000
 H      29.38600000       6.49100000      25.56800000
 H      28.95600000       6.76200000      24.10700000
 O      26.12600000       5.73200000      23.73000000
 H      27.13300000       5.80800000      23.55700000
 H      26.01500000       6.05900000      24.60700000
 O      29.87100000      10.96700000      23.76200000
 H      29.88500000      10.09100000      23.38600000
 H      30.24900000      11.57000000      23.06500000
 O      28.38200000      11.88600000      26.60700000
 H      28.20400000      12.79600000      26.93600000
 H      29.40800000      11.87600000      26.47800000
 O      26.42900000       8.37600000      21.67200000
 H      27.17300000       8.16200000      22.32500000
 H      25.64600000       8.64700000      22.06700000
 O      27.62000000       8.96800000      24.47500000
 H      27.55500000       8.48400000      25.38600000
 H      27.93600000       9.88500000      24.61800000
 O      27.58900000      10.03900000      28.90400000
 H      27.45000000      10.63600000      28.13700000
 H      26.69000000       9.78600000      29.16400000
 O      27.10900000       6.75200000      28.91100000
 H      27.26300000       5.76000000      29.03300000
 H      26.50000000       6.95700000      29.67400000
 O      30.19300000      14.81400000      30.41000000
 H      30.73300000      15.43000000      29.85200000
 H      30.46900000      15.21800000      31.26400000
 O      27.02500000      12.14600000      24.12200000
 H      27.59600000      12.28300000      24.97300000
 H      27.21000000      11.30300000      23.74800000
 O      25.56200000      12.51300000      30.07500000
 H      26.42300000      12.74100000      30.56600000
 H      25.12800000      11.99600000      30.73800000
 O      30.16300000       8.40300000      22.35000000
 H      29.96800000       8.20900000      21.41500000
 H      31.11600000       8.35400000      22.27700000
 O      25.78500000      14.51600000      26.14700000
 H      26.44600000      14.74500000      26.85300000
 H      26.12900000      15.09600000      25.47300000
 O      30.08600000       8.95600000      29.54500000
 H      29.35900000       9.51300000      29.29200000
 H      30.13000000       9.03200000      30.47900000
 O      28.48300000       7.94600000      27.06100000
 H      28.03500000       7.66700000      27.96800000
 H      29.40500000       8.36100000      27.39300000
 O      27.87600000      16.47400000      23.18300000
 H      27.32300000      16.95900000      22.52400000
 H      28.02100000      15.62000000      22.71400000
 O      27.04300000      15.18100000      29.00900000
 H      27.56700000      14.69900000      29.70200000
 H      26.13600000      15.15200000      29.25500000
 O      27.39500000      14.08100000      22.20500000
 H      27.09600000      13.39600000      22.81500000
 H      26.81800000      14.00000000      21.41400000
 O      30.18500000      12.18300000      29.93500000
 H      29.98900000      13.17700000      29.97700000
 H      30.12300000      12.06300000      28.94200000
 O      33.30600000      14.88400000      25.42700000
 H      33.22400000      14.65000000      24.51800000
 H      33.83300000      14.14600000      25.79600000
 O      35.74500000      13.93200000      23.50200000
 H      36.33700000      13.72900000      22.69200000
 H      35.28200000      14.75800000      23.17800000
 O      35.53800000       7.30500000      25.08100000
 H      34.79600000       6.69300000      24.85400000
 H      35.41700000       7.89600000      24.35200000
 O      35.25400000      10.68100000      26.55700000
 H      36.13000000      10.49300000      26.90600000
 H      35.47800000      10.91100000      25.59300000
 O      32.68100000       9.32200000      26.10900000
 H      32.29200000       9.75700000      25.33300000
 H      33.56900000       9.74700000      26.25200000
 O      36.73700000      15.54600000      30.59900000
 H      37.35400000      16.28100000      30.59300000
 H      37.15800000      14.92200000      31.29300000
 O      32.98300000       6.35200000      26.37000000
 H      33.10300000       7.29600000      26.15300000
 H      32.98600000       6.26000000      27.35500000
 O      33.23200000      12.60800000      22.29600000
 H      34.07000000      12.08300000      22.46200000
 H      33.33000000      13.51900000      22.62300000
 O      35.06300000      13.92500000      28.62700000
 H      35.51900000      14.49900000      29.32900000
 H      35.64500000      13.92100000      27.84200000
 O      36.59700000      14.08600000      26.35500000
 H      37.26200000      14.82100000      26.15700000
 H      36.36500000      13.94900000      25.43100000
 O      37.75200000      12.13000000      28.48600000
 H      38.28400000      12.93400000      28.60100000
 H      36.82200000      12.33500000      28.66600000
 O      34.81900000       9.22200000      23.08700000
 H      35.10700000       8.98300000      22.16400000
 H      35.35500000       9.95800000      23.36000000
 O      33.20900000      15.55100000      22.25800000
 H      32.68800000      15.11700000      21.52700000
 H      32.91900000      16.43600000      22.13900000
 O      34.49900000       9.55200000      29.47100000
 H      33.67100000       9.04800000      29.48200000
 H      35.19000000       8.89900000      29.12200000
 O      33.11800000       6.25500000      29.41800000
 H      33.11900000       6.04700000      30.40000000
 H      32.85400000       7.22700000      29.41800000
 O      32.53400000      12.59400000      27.23900000
 H      33.15100000      13.21700000      27.72400000
 H      33.13500000      11.79400000      27.28200000
 O      35.70700000       7.67700000      27.91800000
 H      36.43400000       8.28200000      27.77100000
 H      35.69900000       7.15000000      27.13800000
