129
XYZ file of cluster: frame_11000_6fb9b.c49d1.79494 - created by MolEdiTo
 O      24.74300000      27.82900000      21.28700000
 H      25.38700000      28.52600000      21.12700000
 H      25.20300000      26.96000000      21.09600000
 O      16.44100000      28.94300000      25.79300000
 H      16.45100000      28.21000000      25.11100000
 H      16.84700000      28.53200000      26.53200000
 O      20.39000000      28.37000000      16.53000000
 H      20.85200000      27.51200000      16.56900000
 H      20.48300000      28.78900000      15.69400000
 O      16.91800000      26.05800000      16.05400000
 H      16.80400000      26.68200000      16.78700000
 H      17.77400000      26.25500000      15.54600000
 O      21.99800000      30.07700000      18.39900000
 H      21.56500000      29.88300000      17.51100000
 H      22.81800000      30.53400000      18.17100000
 O      22.39000000      27.36700000      22.65700000
 H      22.86500000      27.37600000      21.75700000
 H      23.05900000      27.98600000      22.99400000
 O      22.39900000      25.66000000      16.88300000
 H      22.39500000      25.41700000      17.81600000
 H      22.64400000      26.59000000      16.92600000
 O      23.96900000      28.45600000      16.60100000
 H      24.05700000      28.25800000      15.62500000
 H      23.80200000      29.47300000      16.59400000
 O      22.38600000      28.40500000      25.72500000
 H      21.51300000      28.84900000      25.91100000
 H      22.84500000      28.91200000      24.94600000
 O      20.05000000      30.02300000      25.92300000
 H      19.70100000      29.93400000      25.01200000
 H      19.70300000      30.88400000      26.13100000
 O      25.89400000      29.34300000      19.15100000
 H      26.79000000      29.07700000      19.56700000
 H      25.70800000      28.74000000      18.37900000
 O      20.03900000      28.83100000      20.12500000
 H      19.71400000      29.77500000      20.08200000
 H      20.73700000      28.73400000      19.50300000
 O      19.33800000      27.93300000      23.16600000
 H      19.90200000      27.16100000      23.45900000
 H      19.76700000      28.30500000      22.35700000
 O      24.21200000      29.92900000      23.89700000
 H      24.82100000      29.76500000      24.57400000
 H      24.82500000      30.05800000      23.14400000
 O      18.51100000      26.45200000      20.43500000
 H      18.88700000      25.60400000      20.86000000
 H      19.31900000      26.89600000      20.06600000
 O      21.91100000      30.50500000      22.07900000
 H      22.84400000      30.52100000      21.80900000
 H      21.69800000      29.56900000      22.25200000
 O      17.19100000      28.86000000      21.72000000
 H      18.03200000      28.95400000      22.18400000
 H      17.30700000      27.97400000      21.30700000
 O      15.37800000      27.12700000      19.07600000
 H      14.47200000      27.51000000      18.97500000
 H      16.09900000      27.79500000      18.78400000
 O      25.61400000      26.89100000      24.08500000
 H      24.86700000      26.98900000      23.44100000
 H      25.84400000      25.95100000      24.01000000
 O      17.21900000      25.81800000      23.45700000
 H      17.77500000      26.58000000      23.10800000
 H      16.82600000      25.53600000      22.65300000
 O      17.11800000      28.91600000      18.05600000
 H      17.33600000      29.55700000      18.85200000
 H      17.99700000      29.02600000      17.73000000
 O      17.56800000      36.20900000      16.75700000
 H      18.39800000      35.67200000      16.79600000
 H      17.79500000      37.17200000      16.84600000
 O      23.95800000      36.08400000      21.48700000
 H      23.34400000      35.55700000      20.94400000
 H      24.72200000      36.38000000      20.92400000
 O      26.17900000      34.09000000      25.75700000
 H      25.81600000      33.17600000      26.00100000
 H      25.47600000      34.52300000      25.24400000
 O      20.29100000      36.17400000      22.92100000
 H      19.66500000      36.89700000      23.05300000
 H      20.12200000      36.05600000      21.95100000
 O      19.35000000      32.47600000      23.39400000
 H      20.19600000      32.38500000      22.89400000
 H      18.97900000      33.29400000      22.94900000
 O      22.47500000      33.39200000      26.69100000
 H      21.72100000      33.78000000      27.12200000
 H      22.26500000      33.46000000      25.73300000
 O      17.58300000      34.55000000      22.56000000
 H      17.40000000      35.31700000      21.89000000
 H      16.79100000      34.58000000      23.14900000
 O      21.59600000      34.19800000      23.99400000
 H      20.98700000      34.94200000      23.84600000
 H      21.55800000      33.51900000      23.24100000
 O      19.32900000      36.40200000      20.18400000
 H      18.39000000      36.34700000      19.90600000
 H      19.70300000      36.16200000      19.31800000
 O      24.15700000      33.22700000      16.91500000
 H      24.56300000      33.13800000      16.03600000
 H      24.75200000      33.83400000      17.42400000
 O      24.68200000      32.56400000      21.30000000
 H      24.98300000      33.48400000      21.22000000
 H      24.91800000      32.14200000      20.47500000
 O      22.01800000      36.95500000      17.55200000
 H      22.54400000      37.67900000      17.89600000
 H      22.40500000      36.18500000      17.99700000
 O      15.56800000      34.17000000      17.27400000
 H      15.83100000      33.73800000      16.41900000
 H      15.72800000      35.15500000      17.19400000
 O      24.07500000      35.00000000      24.18900000
 H      23.19200000      34.48800000      24.24800000
 H      23.85400000      35.73400000      23.51700000
 O      21.85400000      33.95900000      19.81100000
 H      21.87000000      33.12300000      19.42300000
 H      21.34700000      33.93600000      20.64900000
 O      16.37500000      33.12600000      25.80100000
 H      16.42100000      32.10900000      25.89500000
 H      15.87400000      33.22400000      26.68200000
 O      16.29700000      35.55500000      19.66100000
 H      16.48500000      35.21600000      18.79000000
 H      15.86600000      36.39500000      19.53000000
 O      18.62700000      34.55900000      25.39000000
 H      17.70600000      34.36600000      25.68400000
 H      18.59600000      34.39100000      24.47400000
 O      23.02300000      36.87100000      26.03500000
 H      23.59300000      36.16600000      25.79200000
 H      23.69100000      37.49400000      26.35700000
 O      18.15200000      32.72200000      19.05500000
 H      17.42800000      33.21700000      19.52200000
 H      18.49800000      33.50100000      18.43800000
 O      26.97300000      33.76700000      22.86500000
 H      26.07400000      34.16200000      22.81900000
 H      27.12500000      33.73300000      23.85300000
 O      19.95700000      34.57000000      17.35300000
 H      20.32600000      34.78000000      16.47400000
 H      20.70700000      34.47700000      17.96600000
