160
XYZ file of cluster: frame_11000_489b9.6557d.1ed52 - created by MolEdiTo
 O      14.45800000      25.83400000       8.88300000
 H      13.68500000      25.38500000       9.35800000
 H      14.09300000      26.10600000       7.98900000
 O      19.16100000      23.62300000       6.31000000
 H      19.75900000      23.05700000       6.75100000
 H      18.38700000      23.09500000       5.98000000
 O      20.08300000      15.46900000      16.62700000
 H      20.64100000      16.14200000      17.05100000
 H      20.07400000      15.73500000      15.62100000
 O      11.63900000      19.48000000      11.19100000
 H      12.29300000      19.36900000      11.96600000
 H      10.93400000      20.09200000      11.52700000
 O      19.37700000      20.38800000       6.07000000
 H      18.76400000      20.22200000       5.32700000
 H      19.48700000      19.53600000       6.59700000
 O      16.55400000      22.43300000      15.61100000
 H      17.40400000      22.16100000      15.88400000
 H      16.74700000      23.38400000      15.46400000
 O      15.98100000      25.18000000       5.75600000
 H      15.70400000      24.77500000       4.88000000
 H      16.44100000      25.99000000       5.56200000
 O      11.57400000      21.95500000      13.87300000
 H      11.50300000      22.42900000      14.70300000
 H      12.56500000      21.79300000      13.79300000
 O      21.84700000      26.96800000       6.82200000
 H      21.05100000      27.24700000       7.18900000
 H      21.87400000      26.03800000       7.24700000
 O      19.95400000      17.98300000      10.96100000
 H      19.68000000      17.02600000      10.93900000
 H      19.99300000      18.33600000      11.89400000
 O      13.93700000      21.78400000       9.17500000
 H      13.36200000      22.38000000       9.67400000
 H      14.78400000      22.23600000       8.94900000
 O      16.91800000      26.05800000      16.05400000
 H      16.80400000      26.68200000      16.78700000
 H      17.77400000      26.25500000      15.54600000
 O      10.78100000      26.15000000       8.14000000
 H      11.03100000      25.67600000       7.36900000
 H       9.85000000      26.17800000       8.15600000
 O      20.99700000      21.97200000       7.97100000
 H      20.70000000      21.09900000       7.62300000
 H      20.92100000      21.84500000       8.96600000
 O      21.15300000      19.79400000      13.15800000
 H      20.38600000      19.80000000      13.82100000
 H      21.85100000      19.68900000      13.85600000
 O      13.64600000      19.67600000      13.50500000
 H      14.51900000      20.06200000      13.26500000
 H      13.92100000      19.57900000      14.46900000
 O      16.67900000      16.44100000       7.71700000
 H      17.57700000      16.83100000       7.85200000
 H      16.68000000      16.17100000       6.79800000
 O      19.24200000      25.04200000      12.07300000
 H      18.33300000      25.15100000      12.34400000
 H      19.64000000      24.21800000      12.43300000
 O      10.20700000      22.65100000       9.13300000
 H      10.59600000      23.03700000       9.95400000
 H      10.72000000      22.94200000       8.33000000
 O      11.87000000      17.29200000      13.63500000
 H      11.21300000      16.67100000      13.32400000
 H      12.41600000      17.31200000      12.85400000
 C      16.98500000      16.55700000      17.00300000
 C      16.54300000      16.25100000      15.58700000
 C      15.14400000      14.19800000      14.61000000
 H      15.38900000      14.73200000      16.69700000
 H      16.43300000      18.16900000      16.25100000
 O      14.10200000      16.13100000      15.94500000
 O      17.12600000      15.85900000      17.99800000
 O      16.96200000      17.85300000      17.09900000
 C      15.27400000      15.31900000      15.68300000
 O      16.23900000      17.39900000      14.77000000
 H      17.41000000      15.65700000      15.32400000
 O      14.50600000      14.37100000      13.58300000
 O      15.85400000      13.10100000      14.77100000
 H      16.24600000      13.16400000      15.66700000
 H      16.63300000      17.16200000      13.87000000
 H      13.76100000      16.58000000      15.19100000
 O      17.06100000      17.95300000      12.15200000
 H      16.12200000      17.84400000      12.06200000
 H      17.41700000      18.21900000      11.26300000
 O      10.76300000      19.46800000      14.77700000
 H      10.75200000      20.43400000      14.64300000
 H      11.55500000      19.08900000      14.27500000
 O      18.87800000      18.27500000       8.53700000
 H      19.45400000      18.34100000       9.33400000
 H      19.51900000      18.07300000       7.80600000
 O      16.29900000      18.96800000       5.86300000
 H      15.92000000      18.25100000       5.28700000
 H      16.56200000      18.44300000       6.63400000
 O      13.20500000      25.80800000       6.28700000
 H      13.03100000      26.75700000       6.60900000
 H      14.15500000      25.69800000       5.98000000
 O      11.73400000      23.29500000       6.56100000
 H      12.24200000      22.48200000       6.44900000
 H      12.21700000      24.05100000       6.21100000
 O      19.53800000      17.45200000       5.76600000
 H      20.23100000      16.80700000       5.93800000
 H      19.28700000      17.24800000       4.94600000
 O      14.24300000      23.51000000      13.29100000
 H      14.67900000      22.67800000      13.48500000
 H      14.75400000      23.82100000      12.49900000
 O      13.49600000      20.69900000       6.09800000
 H      13.58100000      20.94900000       7.03600000
 H      14.34000000      20.20800000       6.05300000
 O      10.57400000      18.99700000       7.12000000
 H      10.69800000      18.00800000       6.83800000
 H      10.38200000      19.58200000       6.31600000
 O      11.25800000      16.14200000       5.79700000
 H      11.59100000      15.46600000       5.12700000
 H      10.77700000      15.64800000       6.43500000
 O      12.20500000      26.14200000      14.55800000
 H      12.76600000      26.08400000      15.34400000
 H      12.24400000      25.26000000      14.06100000
 O      14.35700000      24.74000000      15.97900000
 H      15.28900000      25.01300000      16.25900000
 H      14.60600000      24.05500000      15.29100000
 O      16.35500000      23.01000000       7.82600000
 H      16.08600000      23.86500000       7.36900000
 H      17.29700000      23.09200000       8.20700000
 O      19.44300000      21.02500000      15.58000000
 H      19.33900000      21.09600000      16.50400000
 H      19.22100000      20.09800000      15.33400000
 O       9.69600000      26.80100000       5.24500000
 H       9.40500000      25.89700000       5.05900000
 H      10.71000000      26.71300000       5.06900000
 O      17.99600000      24.50600000       9.50400000
 H      18.85800000      24.47300000       9.92700000
 H      17.64900000      25.39200000       9.45600000
 O      16.28400000      23.27500000      11.43800000
 H      16.93000000      23.52200000      10.71800000
 H      16.82100000      22.81000000      12.05600000
 O      21.90400000      23.67000000       4.93200000
 H      20.97500000      23.78900000       5.23600000
 H      21.84700000      23.52500000       3.95200000
 O      16.19700000      20.66100000      12.91500000
 H      16.20600000      21.08100000      12.06100000
 H      16.94400000      20.04400000      12.84600000
 O      12.29700000      23.57000000      11.20500000
 H      11.54800000      23.26000000      11.75800000
 H      13.03300000      23.65700000      11.86100000
 O      15.36900000      26.07300000      11.83700000
 H      15.28100000      25.25900000      11.40900000
 H      14.82000000      26.59700000      11.23100000
 O      10.86200000      16.07600000      16.34700000
 H       9.95500000      16.27500000      16.14100000
 H      11.39400000      16.27800000      15.55000000
 O      19.47700000      22.24700000      11.71700000
 H      20.39000000      22.43800000      11.33500000
 H      19.69500000      21.57300000      12.36600000
 O      19.52700000      18.27000000      15.14400000
 H      20.07800000      17.96700000      15.86700000
 H      19.28100000      17.43500000      14.72500000
 O      14.95200000      18.92400000       9.86600000
 H      14.34100000      19.54400000       9.41700000
 H      15.34400000      18.39400000       9.16200000
 O      13.20800000      16.96200000      11.07400000
 H      12.87100000      17.80100000      10.85000000
 H      14.06900000      16.94400000      10.62700000
 O      13.67000000      16.98300000       7.15800000
 H      13.22600000      17.67000000       7.63100000
 H      12.96400000      16.74600000       6.48900000
