126
XYZ file of cluster: frame_11000_49d7c.74794.a03d9 - created by MolEdiTo
 O      16.81200000      26.43400000      27.02000000
 H      16.41900000      25.57600000      26.85300000
 H      16.89200000      26.26100000      28.02400000
 O      13.79200000      23.01000000      27.64000000
 H      13.97200000      23.51400000      28.48500000
 H      13.53800000      22.08700000      27.83300000
 O      18.24100000      21.51700000      23.17100000
 H      17.20500000      21.73800000      22.99600000
 H      18.26000000      20.56300000      23.41300000
 O      16.89000000      23.84000000      25.69000000
 H      15.98800000      23.54300000      25.68300000
 H      16.95800000      24.32700000      24.81400000
 O      20.57300000      17.85000000      29.12700000
 H      20.76200000      17.02200000      28.57000000
 H      19.57600000      18.02600000      29.36400000
 O      14.43800000      19.32900000      22.12200000
 H      13.84200000      18.83100000      21.53800000
 H      13.98700000      20.19400000      21.97200000
 O      19.34700000      17.07800000      25.33100000
 H      20.17200000      17.58100000      25.12700000
 H      18.79300000      17.62100000      25.86800000
 O      10.51100000      16.25100000      26.15800000
 H      11.49700000      16.12200000      26.30300000
 H      10.34900000      17.02200000      26.66900000
 O      14.76000000      20.91300000      25.29000000
 H      13.92600000      20.54700000      24.91900000
 H      15.40100000      20.11800000      25.12600000
 O      11.99600000      17.80700000      24.19600000
 H      11.79300000      17.65000000      25.11500000
 H      11.25200000      18.37000000      23.81900000
 O      11.46500000      15.05700000      23.14100000
 H      11.29200000      15.79700000      23.80600000
 H      11.39800000      15.52900000      22.30600000
 O      17.20300000      18.89100000      23.21800000
 H      16.23100000      18.78100000      23.02100000
 H      17.44700000      18.20400000      23.82900000
 O      11.00200000      20.78000000      28.61200000
 H      11.03200000      21.15300000      29.54300000
 H      10.88400000      21.52200000      27.98100000
 O      15.84400000      22.66500000      22.08600000
 H      15.75200000      23.47200000      21.51900000
 H      15.39600000      22.99600000      22.88200000
 O      10.67300000      26.08400000      21.26700000
 H      11.47400000      25.71600000      21.69900000
 H      10.78000000      27.06500000      21.29900000
 O      18.67500000      21.53200000      29.30800000
 H      18.26600000      22.36100000      29.55800000
 H      19.60800000      21.58900000      29.29300000
 O      13.30900000      16.54100000      26.73800000
 H      14.06700000      15.89600000      26.88900000
 H      13.41600000      17.11000000      27.46300000
 O      12.08000000      26.12100000      30.03000000
 H      12.72300000      25.39800000      29.79500000
 H      11.21200000      25.66800000      29.96400000
 O      18.01500000      18.82800000      29.28900000
 H      18.14000000      19.78800000      29.05400000
 H      17.41400000      18.83400000      30.06200000
 O      17.28500000      18.83300000      26.32100000
 H      16.56400000      18.22500000      26.06700000
 H      17.39100000      18.76500000      27.28200000
 O      12.96200000      24.35800000      22.00700000
 H      13.13600000      23.96600000      21.09300000
 H      13.27100000      23.55500000      22.54300000
 O      19.16600000      21.13200000      26.26900000
 H      18.47300000      21.64800000      26.87300000
 H      18.58700000      20.50800000      25.75700000
 O      12.83800000      21.52000000      21.41500000
 H      12.55400000      21.53700000      22.38500000
 H      12.04500000      21.06000000      21.05800000
 O      10.36400000      22.60700000      26.71700000
 H       9.56500000      23.22900000      26.71000000
 H      11.00200000      23.07100000      26.10100000
 O      13.88800000      18.68500000      28.78200000
 H      14.24500000      17.80300000      29.14700000
 H      13.34000000      18.96000000      29.53300000
 O      12.35600000      24.72400000      26.12200000
 H      12.33900000      25.60500000      26.50100000
 H      13.08600000      24.16800000      26.51200000
 O      20.12700000      24.05100000      25.69600000
 H      19.11900000      23.85600000      25.66500000
 H      20.51700000      23.14000000      25.90600000
 O      14.81800000      18.09900000      24.94900000
 H      14.43000000      18.61300000      24.17500000
 H      13.91100000      17.71400000      25.09400000
 O      14.44300000      15.44000000      22.89100000
 H      14.87000000      15.53700000      21.99100000
 H      13.87000000      16.20300000      23.08400000
 O      19.46600000      26.16300000      27.35000000
 H      19.78300000      25.48300000      26.66500000
 H      18.55900000      26.29200000      26.99800000
 O      17.67700000      23.92200000      30.55600000
 H      18.42600000      24.20900000      31.07200000
 H      17.06900000      24.70600000      30.56000000
 O      12.28400000      19.56100000      26.45800000
 H      13.05600000      19.53000000      27.08000000
 H      11.52100000      19.96100000      26.91500000
 O      11.80800000      21.71500000      24.11700000
 H      12.13500000      21.50100000      24.99500000
 H      10.91700000      22.10600000      24.33500000
 O      19.81200000      16.31400000      21.91200000
 H      19.26900000      17.02300000      22.26700000
 H      19.87500000      16.57200000      20.95800000
 O      21.36600000      22.08800000      23.12200000
 H      21.81500000      21.28700000      22.82200000
 H      20.92200000      21.80100000      23.94000000
 O      14.39800000      23.67500000      24.31900000
 H      14.57800000      22.85100000      24.71200000
 H      13.61200000      24.04400000      24.75900000
 O      19.62900000      23.98700000      21.76900000
 H      20.40200000      23.43900000      21.93200000
 H      18.99800000      23.35500000      22.20000000
 O      20.84200000      25.28000000      29.42000000
 H      21.71900000      25.04700000      29.10300000
 H      20.35300000      25.60100000      28.61700000
 O      17.21900000      25.81800000      23.45700000
 H      17.77500000      26.58000000      23.10800000
 H      16.82600000      25.53600000      22.65300000
 O      15.60400000      25.18700000      21.25300000
 H      15.35900000      25.84500000      20.53900000
 H      14.90800000      25.38200000      21.91300000
 O      15.28600000      16.36300000      29.12800000
 H      15.40300000      15.37300000      29.41600000
 H      16.03500000      16.50300000      28.51800000
 O      13.80800000      24.11200000      30.35600000
 H      14.30800000      23.44400000      30.88500000
 H      14.04400000      24.90500000      30.88400000
