129
XYZ file of cluster: frame_11000_76027.76c96.c4beb - created by MolEdiTo
 O      16.81200000      26.43400000      27.02000000
 H      16.41900000      25.57600000      26.85300000
 H      16.89200000      26.26100000      28.02400000
 O      21.97900000      21.00400000      26.96300000
 H      21.08800000      20.89900000      26.53700000
 H      21.91300000      21.35800000      27.89700000
 O      20.57300000      17.85000000      29.12700000
 H      20.76200000      17.02200000      28.57000000
 H      19.57600000      18.02600000      29.36400000
 O      24.70300000      24.24900000      29.34700000
 H      25.15600000      24.86900000      28.68800000
 H      25.22200000      23.45500000      29.21600000
 O      24.96900000      21.37800000      29.40100000
 H      25.50700000      21.65700000      30.14400000
 H      24.63900000      20.45600000      29.59000000
 O      18.67500000      21.53200000      29.30800000
 H      18.26600000      22.36100000      29.55800000
 H      19.60800000      21.58900000      29.29300000
 O      26.45500000      23.43800000      27.00800000
 H      26.73200000      22.49600000      27.13500000
 H      25.68200000      23.19800000      26.38000000
 O      18.01500000      18.82800000      29.28900000
 H      18.14000000      19.78800000      29.05400000
 H      17.41400000      18.83400000      30.06200000
 O      17.28500000      18.83300000      26.32100000
 H      16.56400000      18.22500000      26.06700000
 H      17.39100000      18.76500000      27.28200000
 O      19.16600000      21.13200000      26.26900000
 H      18.47300000      21.64800000      26.87300000
 H      18.58700000      20.50800000      25.75700000
 O      25.24900000      18.52900000      30.29400000
 H      24.74400000      18.20000000      31.12000000
 H      26.00800000      19.00500000      30.64500000
 O      21.62500000      22.19800000      29.36400000
 H      21.45300000      23.17900000      29.29700000
 H      22.06500000      22.00400000      30.21100000
 O      19.46600000      26.16300000      27.35000000
 H      19.78300000      25.48300000      26.66500000
 H      18.55900000      26.29200000      26.99800000
 O      17.67700000      23.92200000      30.55600000
 H      18.42600000      24.20900000      31.07200000
 H      17.06900000      24.70600000      30.56000000
 O      23.94800000      16.61300000      27.81500000
 H      24.09800000      17.39500000      28.36300000
 H      23.84700000      15.88400000      28.43700000
 O      20.84200000      25.28000000      29.42000000
 H      21.71900000      25.04700000      29.10300000
 H      20.35300000      25.60100000      28.61700000
 O      21.67900000      18.12400000      26.15800000
 H      22.18100000      18.96100000      26.09400000
 H      21.85100000      17.80300000      27.09200000
 O      15.28600000      16.36300000      29.12800000
 H      15.40300000      15.37300000      29.41600000
 H      16.03500000      16.50300000      28.51800000
 O      24.31300000      22.86100000      25.53400000
 H      23.86600000      22.27300000      26.25300000
 H      23.55600000      23.38500000      25.21800000
 O      20.81500000      24.49600000      33.50700000
 H      20.37500000      25.35300000      33.56800000
 H      21.39200000      24.67800000      32.67900000
 O      16.71000000      20.97600000      35.16200000
 H      17.45800000      20.61800000      34.65200000
 H      16.65200000      20.52300000      36.04800000
 O      15.98100000      25.18000000      37.04900000
 H      15.70400000      24.77500000      36.17300000
 H      16.44100000      25.99000000      36.85500000
 O      26.40400000      18.04700000      36.04700000
 H      26.90100000      17.22000000      35.76900000
 H      25.82800000      17.56400000      36.60200000
 O      18.83600000      25.72200000      35.52800000
 H      17.87100000      25.89800000      35.64500000
 H      19.16700000      25.35800000      36.38300000
 O      26.60400000      25.99700000      33.31300000
 H      25.65800000      25.96800000      33.55300000
 H      26.95500000      26.53500000      33.99300000
 O      23.58400000      26.60300000      36.08400000
 H      22.95800000      26.98100000      36.77300000
 H      23.07800000      25.97100000      35.61900000
 O      19.53800000      17.45200000      37.05900000
 H      20.23100000      16.80700000      37.23100000
 H      19.28700000      17.24800000      36.23900000
 O      24.12500000      17.60700000      33.83600000
 H      24.20500000      16.62500000      33.87700000
 H      24.14200000      17.73400000      34.80000000
 O      15.51800000      22.41100000      32.90800000
 H      16.34000000      22.69800000      32.56900000
 H      15.85200000      21.97300000      33.74800000
 O      22.94300000      21.94500000      33.25200000
 H      23.12400000      21.18300000      33.82700000
 H      23.84800000      22.38300000      33.10500000
 O      24.10300000      16.33200000      36.72000000
 H      23.29800000      16.28800000      36.14400000
 H      23.62900000      16.72700000      37.48500000
 O      16.51100000      16.28400000      36.01300000
 H      15.75100000      16.07300000      35.46500000
 H      17.26100000      16.30400000      35.36400000
 O      21.28600000      18.65400000      33.10400000
 H      22.16900000      18.35600000      33.12500000
 H      21.00900000      18.51500000      32.16600000
 O      21.70600000      16.05900000      35.51800000
 H      20.93200000      16.52500000      35.08300000
 H      21.92900000      15.35600000      34.86300000
 O      25.96300000      20.56600000      35.45600000
 H      26.34600000      19.63700000      35.37100000
 H      25.51600000      20.70300000      36.32400000
 O      16.69800000      16.86200000      32.99000000
 H      16.25400000      16.24900000      32.39100000
 H      15.99800000      17.55100000      33.17700000
 O      23.45300000      25.88100000      32.58300000
 H      23.56800000      26.74100000      32.20600000
 H      23.84000000      25.28900000      31.91000000
 O      15.74300000      19.78000000      32.15200000
 H      15.29700000      20.61500000      31.82700000
 H      16.40700000      20.20500000      32.80200000
 O      21.90400000      23.67000000      36.22500000
 H      20.97500000      23.78900000      36.52900000
 H      21.84700000      23.52500000      35.24500000
 O      25.70600000      22.34500000      33.32400000
 H      26.43900000      22.98100000      33.36700000
 H      25.85600000      21.63400000      33.98100000
 O      19.32200000      20.55100000      33.78000000
 H      19.76200000      21.31000000      34.24100000
 H      20.15500000      20.00300000      33.57100000
 O      23.17500000      19.37600000      36.28600000
 H      23.45700000      20.32900000      36.48300000
 H      22.31800000      19.26800000      36.73800000
 O      19.15500000      16.98200000      34.42300000
 H      18.51400000      16.50300000      33.80800000
 H      19.43200000      17.79100000      33.89400000
