117
XYZ file of cluster: frame_11000_c1fda.22d93.c5a46 - created by MolEdiTo
 O      25.73700000       6.56500000      26.63900000
 H      25.61500000       7.29500000      27.24500000
 H      26.42400000       6.05600000      27.20800000
 O      27.10900000       6.75200000      28.91100000
 H      27.26300000       5.76000000      29.03300000
 H      26.50000000       6.95700000      29.67400000
 O      30.19300000      14.81400000      30.41000000
 H      30.73300000      15.43000000      29.85200000
 H      30.46900000      15.21800000      31.26400000
 O      30.08600000       8.95600000      29.54500000
 H      29.35900000       9.51300000      29.29200000
 H      30.13000000       9.03200000      30.47900000
 O      28.48300000       7.94600000      27.06100000
 H      28.03500000       7.66700000      27.96800000
 H      29.40500000       8.36100000      27.39300000
 O      27.04300000      15.18100000      29.00900000
 H      27.56700000      14.69900000      29.70200000
 H      26.13600000      15.15200000      29.25500000
 O      28.38200000      11.88600000      26.60700000
 H      28.20400000      12.79600000      26.93600000
 H      29.40800000      11.87600000      26.47800000
 O      25.56200000      12.51300000      30.07500000
 H      26.42300000      12.74100000      30.56600000
 H      25.12800000      11.99600000      30.73800000
 O      30.18500000      12.18300000      29.93500000
 H      29.98900000      13.17700000      29.97700000
 H      30.12300000      12.06300000      28.94200000
 O      25.78500000      14.51600000      26.14700000
 H      26.44600000      14.74500000      26.85300000
 H      26.12900000      15.09600000      25.47300000
 O      27.58900000      10.03900000      28.90400000
 H      27.45000000      10.63600000      28.13700000
 H      26.69000000       9.78600000      29.16400000
 O      27.13200000      10.17400000      34.14900000
 H      26.69600000       9.73000000      34.96200000
 H      27.09400000       9.53500000      33.43200000
 O      30.51600000       9.52400000      33.37200000
 H      30.24300000      10.41300000      33.06600000
 H      31.11000000       9.71100000      34.12400000
 O      28.48400000       4.50500000      35.94000000
 H      27.64800000       4.80200000      36.38000000
 H      28.57600000       5.30400000      35.44800000
 O      30.58900000       6.71700000      33.81300000
 H      30.88600000       7.59400000      33.46400000
 H      29.89200000       6.95700000      34.49800000
 O      29.00800000       7.86500000      35.99800000
 H      28.77300000       8.44200000      36.79800000
 H      28.41700000       8.11200000      35.29600000
 O      27.68500000       7.39600000      33.06500000
 H      27.83400000       7.69200000      32.14100000
 H      28.01300000       6.49000000      33.11700000
 O      29.01600000      12.16300000      35.70500000
 H      29.24000000      11.88800000      36.61500000
 H      28.67000000      11.27700000      35.45500000
 O      27.89600000      13.04800000      32.87000000
 H      28.62300000      12.45300000      32.57300000
 H      28.16700000      13.40100000      33.73600000
 O      35.25400000      10.68100000      26.55700000
 H      36.13000000      10.49300000      26.90600000
 H      35.47800000      10.91100000      25.59300000
 O      32.68100000       9.32200000      26.10900000
 H      32.29200000       9.75700000      25.33300000
 H      33.56900000       9.74700000      26.25200000
 O      36.73700000      15.54600000      30.59900000
 H      37.35400000      16.28100000      30.59300000
 H      37.15800000      14.92200000      31.29300000
 O      32.98300000       6.35200000      26.37000000
 H      33.10300000       7.29600000      26.15300000
 H      32.98600000       6.26000000      27.35500000
 O      35.06300000      13.92500000      28.62700000
 H      35.51900000      14.49900000      29.32900000
 H      35.64500000      13.92100000      27.84200000
 O      36.59700000      14.08600000      26.35500000
 H      37.26200000      14.82100000      26.15700000
 H      36.36500000      13.94900000      25.43100000
 O      37.75200000      12.13000000      28.48600000
 H      38.28400000      12.93400000      28.60100000
 H      36.82200000      12.33500000      28.66600000
 O      34.49900000       9.55200000      29.47100000
 H      33.67100000       9.04800000      29.48200000
 H      35.19000000       8.89900000      29.12200000
 O      33.11800000       6.25500000      29.41800000
 H      33.11900000       6.04700000      30.40000000
 H      32.85400000       7.22700000      29.41800000
 O      32.53400000      12.59400000      27.23900000
 H      33.15100000      13.21700000      27.72400000
 H      33.13500000      11.79400000      27.28200000
 O      35.70700000       7.67700000      27.91800000
 H      36.43400000       8.28200000      27.77100000
 H      35.69900000       7.15000000      27.13800000
 O      37.40000000      11.02400000      33.03300000
 H      37.26400000      10.18900000      33.60500000
 H      36.47100000      11.45000000      32.93500000
 O      36.75100000       6.51000000      33.23800000
 H      36.24700000       7.38300000      33.33000000
 H      36.10000000       5.80500000      33.04300000
 O      33.78700000      13.25800000      35.30100000
 H      34.75400000      12.99200000      35.37700000
 H      33.39000000      12.61100000      34.67800000
 O      35.60200000      16.05500000      35.21900000
 H      34.66000000      15.66900000      35.12500000
 H      35.48400000      16.89300000      35.77900000
 O      35.99900000       9.03700000      34.55400000
 H      36.18600000       8.54900000      35.43600000
 H      35.27400000       9.66500000      34.76400000
 O      36.22400000      11.97200000      35.63900000
 H      37.01000000      11.30100000      35.67600000
 H      35.49400000      11.35300000      35.78100000
 O      34.36000000      12.02800000      32.52700000
 H      33.58300000      12.38600000      31.99000000
 H      34.37800000      11.10100000      32.17400000
 O      33.73000000      10.24500000      35.58200000
 H      33.75700000       9.40500000      36.15300000
 H      33.41400000      10.94400000      36.18600000
 O      32.91500000      15.72700000      36.15700000
 H      33.02300000      14.83500000      35.74500000
 H      32.44500000      15.52300000      36.99100000
