 Entering Gaussian System, Link 0=g16
 Input=G98.INP
 Output=G98.OUT
 Initial command:
 /usr/local/g16-A.03/sse4/g16/l1.exe "/scratch/zronyj/cluster_510/Gau-8191.inp" -scrdir="/scratch/zronyj/cluster_510/"
 Entering Link 1 = /usr/local/g16-A.03/sse4/g16/l1.exe PID=      8192.
  
 Copyright (c) 1988,1990,1992,1993,1995,1998,2003,2009,2016,
            Gaussian, Inc.  All Rights Reserved.
  
 This is part of the Gaussian(R) 16 program.  It is based on
 the Gaussian(R) 09 system (copyright 2009, Gaussian, Inc.),
 the Gaussian(R) 03 system (copyright 2003, Gaussian, Inc.),
 the Gaussian(R) 98 system (copyright 1998, Gaussian, Inc.),
 the Gaussian(R) 94 system (copyright 1995, Gaussian, Inc.),
 the Gaussian 92(TM) system (copyright 1992, Gaussian, Inc.),
 the Gaussian 90(TM) system (copyright 1990, Gaussian, Inc.),
 the Gaussian 88(TM) system (copyright 1988, Gaussian, Inc.),
 the Gaussian 86(TM) system (copyright 1986, Carnegie Mellon
 University), and the Gaussian 82(TM) system (copyright 1983,
 Carnegie Mellon University). Gaussian is a federally registered
 trademark of Gaussian, Inc.
  
 This software contains proprietary and confidential information,
 including trade secrets, belonging to Gaussian, Inc.
  
 This software is provided under written license and may be
 used, copied, transmitted, or stored only in accord with that
 written license.
  
 The following legend is applicable only to US Government
 contracts under FAR:
  
                    RESTRICTED RIGHTS LEGEND
  
 Use, reproduction and disclosure by the US Government is
 subject to restrictions as set forth in subparagraphs (a)
 and (c) of the Commercial Computer Software - Restricted
 Rights clause in FAR 52.227-19.
  
 Gaussian, Inc.
 340 Quinnipiac St., Bldg. 40, Wallingford CT 06492
  
  
 ---------------------------------------------------------------
 Warning -- This program may not be used in any manner that
 competes with the business of Gaussian, Inc. or will provide
 assistance to any competitor of Gaussian, Inc.  The licensee
 of this program is prohibited from giving any competitor of
 Gaussian, Inc. access to this program.  By using this program,
 the user acknowledges that Gaussian, Inc. is engaged in the
 business of creating and licensing software in the field of
 computational chemistry and represents and warrants to the
 licensee that it is not a competitor of Gaussian, Inc. and that
 it will not use this program in any manner prohibited above.
 ---------------------------------------------------------------
  

 Cite this work as:
 Gaussian 16, Revision A.03,
 M. J. Frisch, G. W. Trucks, H. B. Schlegel, G. E. Scuseria, 
 M. A. Robb, J. R. Cheeseman, G. Scalmani, V. Barone, 
 G. A. Petersson, H. Nakatsuji, X. Li, M. Caricato, A. V. Marenich, 
 J. Bloino, B. G. Janesko, R. Gomperts, B. Mennucci, H. P. Hratchian, 
 J. V. Ortiz, A. F. Izmaylov, J. L. Sonnenberg, D. Williams-Young, 
 F. Ding, F. Lipparini, F. Egidi, J. Goings, B. Peng, A. Petrone, 
 T. Henderson, D. Ranasinghe, V. G. Zakrzewski, J. Gao, N. Rega, 
 G. Zheng, W. Liang, M. Hada, M. Ehara, K. Toyota, R. Fukuda, 
 J. Hasegawa, M. Ishida, T. Nakajima, Y. Honda, O. Kitao, H. Nakai, 
 T. Vreven, K. Throssell, J. A. Montgomery, Jr., J. E. Peralta, 
 F. Ogliaro, M. J. Bearpark, J. J. Heyd, E. N. Brothers, K. N. Kudin, 
 V. N. Staroverov, T. A. Keith, R. Kobayashi, J. Normand, 
 K. Raghavachari, A. P. Rendell, J. C. Burant, S. S. Iyengar, 
 J. Tomasi, M. Cossi, J. M. Millam, M. Klene, C. Adamo, R. Cammi, 
 J. W. Ochterski, R. L. Martin, K. Morokuma, O. Farkas, 
 J. B. Foresman, and D. J. Fox, Gaussian, Inc., Wallingford CT, 2016.
 
 ******************************************
 Gaussian 16:  ES64L-G16RevA.03 25-Dec-2016
                23-Aug-2023 
 ******************************************
 %chk=cluster_510.chk
 %mem=8GB
 %nproc=8
 Will use up to    8 processors via shared memory.
 ----------------------------------------------------------------------
 #b3lyp/6-31G** scrf=(cpcm,Solvent=Water) nosymm force iop(2/11=1) Geom
 =(NoDistance,NoAngle) guess=checkpoint
 ----------------------------------------------------------------------
 1/10=7,30=1,38=1/1,3;
 2/9=11,11=1,12=2,15=1,17=6,18=5,40=1/2;
 3/5=1,6=6,7=101,11=2,25=1,30=1,70=2101,71=1,72=1,74=-5,116=-2/1,2,3;
 4/5=1/1;
 5/5=2,38=6,53=1/2;
 6/7=2,8=2,9=2,10=2,28=1/1;
 7/29=1,30=1/1,2,3,16;
 1/10=7,30=1/3;
 99//99;
 -----------
 cluster_510
 -----------
 Symbolic Z-matrix:
 Charge =  0 Multiplicity = 1
 O                     18.75791   7.2046    4.03002 
 H                     19.4638   7.8675    4.17923 
 H                     18.40374   7.45286   3.15715 
 O                     17.51612   10.93409   4.21961 
 H                     17.78451   10.75037   5.14487 
 H                     17.10497   10.10819   3.92864 
 O                     20.05385   4.44015   4.09444 
 H                     19.66917   5.32112   3.92679 
 H                     19.32611   3.82478   3.93024 
 O                     17.62792   5.98114   6.22359 
 H                     17.46784   5.06943   5.94446 
 H                     17.89189   6.45126   5.4022 
 O                     20.48093   9.51836   4.20621 
 H                     21.03658   9.65186   3.4104 
 H                     19.68879   10.05996   4.03315 
 O                     18.4341   8.63562   1.21104 
 H                     17.62049   8.94066   0.79096 
 H                     19.12326   8.83645   0.56535 
 O                     20.25582   5.81739   7.00172 
 H                     19.28656   5.94205   6.91369 
 H                     20.44311   5.31117   6.19549 
 O                     18.66958   10.33474   6.51245 
 H                     19.32928   9.70212   6.19042 
 H                     19.19135   11.12652   6.71355 
 O                     22.20921   9.97062   1.76524 
 H                     21.93122   10.03887   0.83952 
 H                     23.0881   9.53289   1.73893 
 O                     21.68057   6.77326   2.05832 
 H                     20.82573   6.56992   1.65609 
 H                     21.82143   7.71843   1.86585 
 O                     25.1209   3.37257   5.24833 
 H                     24.85043   4.29525   5.1183 
 H                     24.3398   2.87675   4.97757 
 O                     24.01042   5.20647   2.20664 
 H                     23.15197   5.63093   2.0068 
 H                     23.99809   4.37515   1.71336 
 O                     23.04995   7.5034    5.25051 
 H                     22.60819   7.30485   6.09022 
 H                     22.32879   7.87993   4.7246 
 O                     24.68349   8.42212   1.65434 
 H                     24.99172   8.3911    0.73765 
 H                     24.67975   7.4853    1.91615 
 O                     25.03392   9.78381   7.64427 
 H                     24.71169   9.38526   6.81883 
 H                     24.47088   9.35747   8.31019 
 

 GradGradGradGradGradGradGradGradGradGradGradGradGradGradGradGradGradGrad
 Berny optimization.
 Initialization pass.
 Trust Radius=3.00D-01 FncErr=1.00D-07 GrdErr=1.00D-07 EigMax=2.50D+02 EigMin=1.00D-04
 Number of steps in this run=      2 maximum allowed number of steps=      2.
 GradGradGradGradGradGradGradGradGradGradGradGradGradGradGradGradGradGrad

                          Input orientation:                          
 ---------------------------------------------------------------------
 Center     Atomic      Atomic             Coordinates (Angstroms)
 Number     Number       Type             X           Y           Z
 ---------------------------------------------------------------------
      1          8           0       18.757913    7.204600    4.030019
      2          1           0       19.463796    7.867496    4.179231
      3          1           0       18.403738    7.452864    3.157148
      4          8           0       17.516121   10.934089    4.219612
      5          1           0       17.784508   10.750372    5.144866
      6          1           0       17.104965   10.108188    3.928644
      7          8           0       20.053846    4.440148    4.094440
      8          1           0       19.669167    5.321117    3.926787
      9          1           0       19.326109    3.824778    3.930236
     10          8           0       17.627924    5.981135    6.223591
     11          1           0       17.467836    5.069433    5.944464
     12          1           0       17.891892    6.451261    5.402199
     13          8           0       20.480927    9.518364    4.206208
     14          1           0       21.036579    9.651855    3.410397
     15          1           0       19.688785   10.059964    4.033152
     16          8           0       18.434104    8.635618    1.211040
     17          1           0       17.620494    8.940657    0.790956
     18          1           0       19.123262    8.836445    0.565352
     19          8           0       20.255817    5.817386    7.001720
     20          1           0       19.286557    5.942052    6.913692
     21          1           0       20.443114    5.311174    6.195493
     22          8           0       18.669581   10.334741    6.512445
     23          1           0       19.329284    9.702118    6.190418
     24          1           0       19.191353   11.126519    6.713552
     25          8           0       22.209210    9.970620    1.765238
     26          1           0       21.931220   10.038872    0.839516
     27          1           0       23.088101    9.532885    1.738928
     28          8           0       21.680571    6.773260    2.058321
     29          1           0       20.825727    6.569920    1.656087
     30          1           0       21.821434    7.718430    1.865849
     31          8           0       25.120904    3.372573    5.248327
     32          1           0       24.850429    4.295248    5.118299
     33          1           0       24.339798    2.876749    4.977570
     34          8           0       24.010416    5.206474    2.206641
     35          1           0       23.151969    5.630927    2.006798
     36          1           0       23.998088    4.375149    1.713361
     37          8           0       23.049948    7.503399    5.250512
     38          1           0       22.608190    7.304852    6.090221
     39          1           0       22.328785    7.879926    4.724596
     40          8           0       24.683491    8.422116    1.654340
     41          1           0       24.991722    8.391099    0.737653
     42          1           0       24.679755    7.485298    1.916150
     43          8           0       25.033915    9.783805    7.644275
     44          1           0       24.711686    9.385257    6.818827
     45          1           0       24.470879    9.357466    8.310188
 ---------------------------------------------------------------------
 Symmetry turned off by external request.
 Stoichiometry    H30O15
 Framework group  C1[X(H30O15)]
 Deg. of freedom   129
 Full point group                 C1      NOp   1
 Rotational constants (GHZ):           0.2239346           0.1631866           0.1538193
 Standard basis: 6-31G(d,p) (6D, 7F)
   375 basis functions,   630 primitive gaussians,   375 cartesian basis functions
    75 alpha electrons       75 beta electrons
       nuclear repulsion energy      1269.7729383337 Hartrees.
 NAtoms=   45 NActive=   45 NUniq=   45 SFac= 1.00D+00 NAtFMM=   60 NAOKFM=F Big=F
 Integral buffers will be    131072 words long.
 Raffenetti 2 integral format.
 Two-electron integral symmetry is turned off.
 ------------------------------------------------------------------------------
 Polarizable Continuum Model (PCM)
 =================================
 Model                : C-PCM.
 Atomic radii         : UFF (Universal Force Field).
 Polarization charges : Total charges.
 Charge compensation  : None.
 Solution method      : On-the-fly selection.
 Cavity type          : Scaled VdW (van der Waals Surface) (Alpha=1.100).
 Cavity algorithm     : GePol (No added spheres)
                        Default sphere list used, NSphG=   45.
                        Lebedev-Laikov grids with approx.  5.0 points / Ang**2.
                        Smoothing algorithm: York/Karplus (Gamma=1.0000).
                        Polarization charges: spherical gaussians, with
                                              point-specific exponents (IZeta= 3).
                        Self-potential: point-specific (ISelfS= 7).
                        Self-field    : sphere-specific E.n sum rule (ISelfD= 2).
 1st derivatives      : Analytical E(r).r(x)/FMM algorithm (CHGder, D1EAlg=3).
                        Cavity 1st derivative terms included.
 Solvent              : Water, Eps=  78.355300 Eps(inf)=   1.777849
 ------------------------------------------------------------------------------
 One-electron integrals computed using PRISM.
 NBasis=   375 RedAO= T EigKep=  1.06D-02  NBF=   375
 NBsUse=   375 1.00D-06 EigRej= -1.00D+00 NBFU=   375
 Initial guess from the checkpoint file:  "cluster_510.chk"
 B after Tr=     0.000882   -0.001721   -0.001373
         Rot=    1.000000   -0.000017    0.000009   -0.000030 Ang=  -0.00 deg.
 Requested convergence on RMS density matrix=1.00D-08 within 128 cycles.
 Requested convergence on MAX density matrix=1.00D-06.
 Requested convergence on             energy=1.00D-06.
 No special actions if energy rises.
 Inv3:  Mode=1 IEnd=    57895347.
 Iteration    1 A*A^-1 deviation from unit magnitude is 9.77D-15 for    922.
 Iteration    1 A*A^-1 deviation from orthogonality  is 6.18D-15 for   4378   1608.
 Iteration    1 A^-1*A deviation from unit magnitude is 9.77D-15 for    922.
 Iteration    1 A^-1*A deviation from orthogonality  is 3.95D-15 for   4354   1638.
 Error on total polarization charges =  0.00450
 SCF Done:  E(RB3LYP) =  -1146.52864363     A.U. after    8 cycles
            NFock=  8  Conv=0.79D-08     -V/T= 2.0086

 **********************************************************************

            Population analysis using the SCF density.

 **********************************************************************

 Alpha  occ. eigenvalues --  -19.17059 -19.16164 -19.16133 -19.16039 -19.16014
 Alpha  occ. eigenvalues --  -19.16005 -19.15445 -19.14259 -19.14132 -19.14033
 Alpha  occ. eigenvalues --  -19.13799 -19.13741 -19.13070 -19.12573 -19.10834
 Alpha  occ. eigenvalues --   -1.03044  -1.02024  -1.01741  -1.01337  -1.01094
 Alpha  occ. eigenvalues --   -1.00948  -1.00621  -0.99834  -0.99661  -0.99505
 Alpha  occ. eigenvalues --   -0.99421  -0.99367  -0.98492  -0.98136  -0.96456
 Alpha  occ. eigenvalues --   -0.54608  -0.53598  -0.53082  -0.52936  -0.52750
 Alpha  occ. eigenvalues --   -0.52583  -0.52421  -0.52105  -0.51339  -0.51031
 Alpha  occ. eigenvalues --   -0.50975  -0.50900  -0.50804  -0.50666  -0.48134
 Alpha  occ. eigenvalues --   -0.42445  -0.41700  -0.41289  -0.40250  -0.40034
 Alpha  occ. eigenvalues --   -0.39137  -0.38312  -0.37821  -0.37699  -0.37618
 Alpha  occ. eigenvalues --   -0.37563  -0.37471  -0.36825  -0.36405  -0.35957
 Alpha  occ. eigenvalues --   -0.32315  -0.32252  -0.32120  -0.31859  -0.31348
 Alpha  occ. eigenvalues --   -0.31129  -0.30927  -0.29776  -0.29704  -0.29584
 Alpha  occ. eigenvalues --   -0.29510  -0.29419  -0.28995  -0.28888  -0.27204
 Alpha virt. eigenvalues --    0.00460   0.04637   0.05221   0.05954   0.06961
 Alpha virt. eigenvalues --    0.07434   0.08898   0.09347   0.09996   0.11473
 Alpha virt. eigenvalues --    0.11959   0.12738   0.13750   0.14058   0.16168
 Alpha virt. eigenvalues --    0.16485   0.16547   0.16777   0.17619   0.18068
 Alpha virt. eigenvalues --    0.18573   0.19724   0.21909   0.22620   0.23572
 Alpha virt. eigenvalues --    0.24366   0.25350   0.25639   0.27169   0.27827
 Alpha virt. eigenvalues --    0.68368   0.69153   0.69987   0.71245   0.72196
 Alpha virt. eigenvalues --    0.72711   0.73637   0.74341   0.74694   0.75308
 Alpha virt. eigenvalues --    0.75760   0.76077   0.76977   0.77199   0.77564
 Alpha virt. eigenvalues --    0.78723   0.78809   0.79282   0.79582   0.80110
 Alpha virt. eigenvalues --    0.80306   0.81197   0.81499   0.82007   0.82901
 Alpha virt. eigenvalues --    0.83408   0.83441   0.83980   0.84249   0.84793
 Alpha virt. eigenvalues --    0.86079   0.86394   0.86761   0.87664   0.87932
 Alpha virt. eigenvalues --    0.88495   0.88612   0.89031   0.89200   0.90044
 Alpha virt. eigenvalues --    0.91009   0.91747   0.92878   0.93233   0.93711
 Alpha virt. eigenvalues --    0.93820   0.94684   0.94927   0.95159   0.96544
 Alpha virt. eigenvalues --    0.96878   0.97122   0.98611   0.99042   0.99656
 Alpha virt. eigenvalues --    1.00422   1.01383   1.01951   1.02379   1.03007
 Alpha virt. eigenvalues --    1.03710   1.03881   1.04143   1.04634   1.07376
 Alpha virt. eigenvalues --    1.07904   1.08580   1.09678   1.10393   1.11600
 Alpha virt. eigenvalues --    1.13554   1.14752   1.15939   1.19408   1.20296
 Alpha virt. eigenvalues --    1.21623   1.22103   1.22914   1.23539   1.24125
 Alpha virt. eigenvalues --    1.25968   1.29673   1.32084   1.32456   1.35429
 Alpha virt. eigenvalues --    1.37813   1.40891   1.44005   1.46265   1.48003
 Alpha virt. eigenvalues --    1.48900   1.49647   1.50774   1.51203   1.51562
 Alpha virt. eigenvalues --    1.51780   1.51894   1.52030   1.52424   1.52495
 Alpha virt. eigenvalues --    1.52603   1.53087   1.53177   1.53257   1.53419
 Alpha virt. eigenvalues --    1.53467   1.53656   1.54180   1.55108   1.55543
 Alpha virt. eigenvalues --    1.55865   1.56734   1.56836   1.57118   1.58586
 Alpha virt. eigenvalues --    1.59507   1.60468   1.61471   1.61989   1.63233
 Alpha virt. eigenvalues --    1.63680   1.63770   1.63966   1.64276   1.65892
 Alpha virt. eigenvalues --    1.67329   1.68183   1.68380   1.70398   1.71242
 Alpha virt. eigenvalues --    1.71573   1.71785   1.73824   1.77373   1.79229
 Alpha virt. eigenvalues --    2.15901   2.20486   2.21315   2.22358   2.22611
 Alpha virt. eigenvalues --    2.22808   2.23312   2.23429   2.23616   2.23866
 Alpha virt. eigenvalues --    2.24423   2.25073   2.26147   2.26412   2.26556
 Alpha virt. eigenvalues --    2.27247   2.27818   2.27895   2.27953   2.28146
 Alpha virt. eigenvalues --    2.28400   2.28907   2.29677   2.30090   2.30554
 Alpha virt. eigenvalues --    2.31191   2.32317   2.33446   2.37017   2.37086
 Alpha virt. eigenvalues --    2.41531   2.43631   2.44036   2.44376   2.44751
 Alpha virt. eigenvalues --    2.44875   2.45050   2.45326   2.46041   2.46665
 Alpha virt. eigenvalues --    2.47905   2.50127   2.50675   2.54468   2.54816
 Alpha virt. eigenvalues --    2.59403   2.61142   2.62060   2.62298   2.62943
 Alpha virt. eigenvalues --    2.63068   2.63369   2.63463   2.63514   2.63620
 Alpha virt. eigenvalues --    2.63831   2.64445   2.64605   2.64705   2.65657
 Alpha virt. eigenvalues --    2.65828   2.66069   2.66978   2.67273   2.67482
 Alpha virt. eigenvalues --    2.67549   2.67574   2.67939   2.68188   2.68555
 Alpha virt. eigenvalues --    2.69256   2.69482   2.71330   2.76681   2.81365
 Alpha virt. eigenvalues --    3.00539   3.01259   3.01681   3.01896   3.01925
 Alpha virt. eigenvalues --    3.02485   3.02701   3.02737   3.02802   3.03131
 Alpha virt. eigenvalues --    3.03443   3.05031   3.05151   3.05250   3.07751
 Alpha virt. eigenvalues --    3.27970   3.29704   3.31173   3.31810   3.32648
 Alpha virt. eigenvalues --    3.33314   3.34603   3.34953   3.35347   3.37009
 Alpha virt. eigenvalues --    3.37830   3.38873   3.40221   3.41322   3.42850
 Alpha virt. eigenvalues --    3.52174   3.52891   3.53636   3.53931   3.54996
 Alpha virt. eigenvalues --    3.55089   3.55964   3.56959   3.58156   3.58631
 Alpha virt. eigenvalues --    3.60032   3.60970   3.62429   3.64840   3.65973
 Alpha virt. eigenvalues --    3.68063   3.68412   3.73682   3.75286   3.76470
 Alpha virt. eigenvalues --    3.79054   3.81222   3.86753   3.90348   3.94808
 Alpha virt. eigenvalues --    3.97296   4.01353   4.07713   4.17737   4.33833
          Condensed to atoms (all electrons):
               1          2          3          4          5          6
     1  O    8.061911   0.262048   0.285081  -0.000207   0.000044   0.001623
     2  H    0.262048   0.370262  -0.023159   0.000150   0.000056   0.000183
     3  H    0.285081  -0.023159   0.370413   0.000124  -0.000029   0.000447
     4  O   -0.000207   0.000150   0.000124   8.139154   0.262103   0.284109
     5  H    0.000044   0.000056  -0.000029   0.262103   0.368393  -0.026139
     6  H    0.001623   0.000183   0.000447   0.284109  -0.026139   0.424009
     7  O   -0.008983   0.000155   0.000283  -0.000000   0.000000   0.000000
     8  H    0.040809  -0.000265  -0.001049   0.000000  -0.000000  -0.000002
     9  H    0.000280  -0.000003   0.000015   0.000000  -0.000000  -0.000000
    10  O   -0.020735   0.000765   0.000601   0.000000  -0.000000  -0.000003
    11  H    0.000973  -0.000020  -0.000030  -0.000000  -0.000000   0.000000
    12  H    0.049317  -0.002088  -0.001698  -0.000003   0.000009   0.000057
    13  O   -0.015964   0.057474   0.001088  -0.005482   0.001166   0.000272
    14  H    0.000613  -0.002072   0.000050  -0.000171   0.000009   0.000026
    15  H    0.001771  -0.004359   0.000432   0.041510  -0.004821  -0.000681
    16  O   -0.004092   0.000444   0.026694  -0.000157  -0.000022   0.001519
    17  H    0.000186   0.000002  -0.001226   0.000071  -0.000002  -0.000037
    18  H    0.000207   0.000004  -0.001229   0.000009   0.000000  -0.000035
    19  O   -0.000341   0.000789   0.000006   0.000000  -0.000000   0.000000
    20  H    0.000809  -0.000073  -0.000009   0.000000  -0.000000  -0.000000
    21  H    0.000287   0.000048  -0.000004   0.000000   0.000000  -0.000000
    22  O   -0.000090   0.000057   0.000002  -0.034858   0.065931   0.002141
    23  H    0.000891   0.000646  -0.000040   0.002567  -0.006095   0.000070
    24  H    0.000002  -0.000035   0.000000   0.002116  -0.005725  -0.000083
    25  O   -0.000000  -0.000012  -0.000001   0.000000   0.000000   0.000000
    26  H    0.000000  -0.000002  -0.000001   0.000000  -0.000000   0.000000
    27  H    0.000000  -0.000006  -0.000000   0.000000  -0.000000  -0.000000
    28  O   -0.000590   0.001921   0.000155  -0.000000   0.000000   0.000000
    29  H    0.001737  -0.000014   0.000637   0.000000  -0.000000  -0.000000
    30  H   -0.000017   0.000178   0.000057   0.000000  -0.000000   0.000000
    31  O   -0.000000  -0.000000   0.000000   0.000000  -0.000000   0.000000
    32  H    0.000000  -0.000000  -0.000000   0.000000   0.000000  -0.000000
    33  H    0.000000  -0.000000  -0.000000   0.000000  -0.000000  -0.000000
    34  O   -0.000000   0.000000   0.000000  -0.000000   0.000000   0.000000
    35  H    0.000001  -0.000002  -0.000001   0.000000  -0.000000  -0.000000
    36  H    0.000000  -0.000000  -0.000000   0.000000  -0.000000  -0.000000
    37  O   -0.000008  -0.000014  -0.000000  -0.000000  -0.000000   0.000000
    38  H   -0.000011   0.000150  -0.000000   0.000000  -0.000000  -0.000000
    39  H   -0.000049   0.001423  -0.000006   0.000000  -0.000000  -0.000000
    40  O   -0.000000  -0.000000   0.000000  -0.000000  -0.000000   0.000000
    41  H    0.000000   0.000000  -0.000000   0.000000  -0.000000  -0.000000
    42  H    0.000000  -0.000000  -0.000000   0.000000   0.000000  -0.000000
    43  O   -0.000000   0.000000  -0.000000  -0.000000  -0.000000  -0.000000
    44  H    0.000000  -0.000000   0.000000   0.000000  -0.000000   0.000000
    45  H   -0.000000   0.000000   0.000000   0.000000  -0.000000  -0.000000
               7          8          9         10         11         12
     1  O   -0.008983   0.040809   0.000280  -0.020735   0.000973   0.049317
     2  H    0.000155  -0.000265  -0.000003   0.000765  -0.000020  -0.002088
     3  H    0.000283  -0.001049   0.000015   0.000601  -0.000030  -0.001698
     4  O   -0.000000   0.000000   0.000000   0.000000  -0.000000  -0.000003
     5  H    0.000000  -0.000000  -0.000000  -0.000000  -0.000000   0.000009
     6  H    0.000000  -0.000002  -0.000000  -0.000003   0.000000   0.000057
     7  O    8.087887   0.265188   0.289815  -0.000712   0.001776   0.000939
     8  H    0.265188   0.390632  -0.023503   0.001221   0.000306  -0.000112
     9  H    0.289815  -0.023503   0.405735   0.000183   0.000536   0.000107
    10  O   -0.000712   0.001221   0.000183   8.082561   0.288429   0.265419
    11  H    0.001776   0.000306   0.000536   0.288429   0.405736  -0.021928
    12  H    0.000939  -0.000112   0.000107   0.265419  -0.021928   0.358894
    13  O   -0.000000  -0.000004   0.000000  -0.000001   0.000000   0.000023
    14  H   -0.000000   0.000003   0.000000   0.000000  -0.000000  -0.000001
    15  H    0.000000  -0.000004  -0.000000  -0.000000   0.000000   0.000002
    16  O    0.000000  -0.000014   0.000000  -0.000000   0.000000   0.000003
    17  H   -0.000000   0.000001  -0.000000   0.000000  -0.000000  -0.000001
    18  H   -0.000000  -0.000001  -0.000000   0.000000  -0.000000  -0.000000
    19  O   -0.005138   0.001278   0.000244  -0.027313   0.001906   0.003540
    20  H    0.000375   0.000216   0.000005   0.071626  -0.004645  -0.006511
    21  H    0.033070  -0.002487  -0.001245   0.003070   0.000579   0.000151
    22  O   -0.000000   0.000000   0.000000  -0.000003   0.000000   0.000024
    23  H    0.000000  -0.000004  -0.000000   0.000019  -0.000002   0.000095
    24  H   -0.000000   0.000000  -0.000000   0.000000   0.000000  -0.000002
    25  O   -0.000000   0.000000   0.000000  -0.000000   0.000000   0.000000
    26  H    0.000000  -0.000000  -0.000000   0.000000  -0.000000   0.000000
    27  H    0.000000  -0.000000  -0.000000   0.000000  -0.000000  -0.000000
    28  O   -0.000251   0.002493   0.000003  -0.000000   0.000000  -0.000000
    29  H    0.000978   0.000420  -0.000008   0.000000  -0.000000  -0.000008
    30  H    0.000015  -0.000065  -0.000001   0.000000  -0.000000   0.000000
    31  O   -0.000000   0.000000   0.000000  -0.000000   0.000000   0.000000
    32  H    0.000001   0.000000  -0.000000   0.000000  -0.000000  -0.000000
    33  H    0.000006  -0.000000  -0.000000   0.000000  -0.000000  -0.000000
    34  O   -0.000008   0.000001   0.000001  -0.000000   0.000000   0.000000
    35  H    0.000190  -0.000008  -0.000005   0.000000  -0.000000  -0.000000
    36  H    0.000002   0.000000   0.000000   0.000000  -0.000000  -0.000000
    37  O   -0.000005   0.000002   0.000000  -0.000000   0.000000  -0.000000
    38  H   -0.000007   0.000016  -0.000000   0.000002  -0.000000  -0.000001
    39  H    0.000002   0.000132  -0.000000   0.000000  -0.000000  -0.000002
    40  O    0.000000   0.000000   0.000000  -0.000000   0.000000   0.000000
    41  H    0.000000  -0.000000  -0.000000   0.000000  -0.000000  -0.000000
    42  H   -0.000000  -0.000000   0.000000   0.000000   0.000000  -0.000000
    43  O   -0.000000   0.000000   0.000000  -0.000000  -0.000000  -0.000000
    44  H    0.000000  -0.000000  -0.000000  -0.000000   0.000000   0.000000
    45  H    0.000000   0.000000   0.000000   0.000000  -0.000000   0.000000
              13         14         15         16         17         18
     1  O   -0.015964   0.000613   0.001771  -0.004092   0.000186   0.000207
     2  H    0.057474  -0.002072  -0.004359   0.000444   0.000002   0.000004
     3  H    0.001088   0.000050   0.000432   0.026694  -0.001226  -0.001229
     4  O   -0.005482  -0.000171   0.041510  -0.000157   0.000071   0.000009
     5  H    0.001166   0.000009  -0.004821  -0.000022  -0.000002   0.000000
     6  H    0.000272   0.000026  -0.000681   0.001519  -0.000037  -0.000035
     7  O   -0.000000  -0.000000   0.000000   0.000000  -0.000000  -0.000000
     8  H   -0.000004   0.000003  -0.000004  -0.000014   0.000001  -0.000001
     9  H    0.000000   0.000000  -0.000000   0.000000  -0.000000  -0.000000
    10  O   -0.000001   0.000000  -0.000000  -0.000000   0.000000   0.000000
    11  H    0.000000  -0.000000   0.000000   0.000000  -0.000000  -0.000000
    12  H    0.000023  -0.000001   0.000002   0.000003  -0.000001  -0.000000
    13  O    8.099820   0.267173   0.243223  -0.000200   0.000011   0.000054
    14  H    0.267173   0.362987  -0.016071   0.000448  -0.000011   0.000048
    15  H    0.243223  -0.016071   0.427345   0.001260  -0.000008  -0.000005
    16  O   -0.000200   0.000448   0.001260   8.030961   0.292571   0.290669
    17  H    0.000011  -0.000011  -0.000008   0.292571   0.393440  -0.024296
    18  H    0.000054   0.000048  -0.000005   0.290669  -0.024296   0.395255
    19  O   -0.000007  -0.000000  -0.000001  -0.000000   0.000000   0.000000
    20  H   -0.000000  -0.000000  -0.000000   0.000000  -0.000000  -0.000000
    21  H   -0.000002  -0.000000   0.000000   0.000000  -0.000000   0.000000
    22  O   -0.003897   0.000171   0.005582   0.000000   0.000000   0.000000
    23  H    0.017568  -0.000520  -0.003882  -0.000001  -0.000000  -0.000000
    24  H    0.000571  -0.000007   0.000481   0.000000  -0.000000  -0.000000
    25  O   -0.008813   0.042030   0.000213  -0.000073   0.000000   0.000664
    26  H    0.000388  -0.002332   0.000016   0.000098  -0.000004   0.000248
    27  H    0.000402  -0.002408   0.000006   0.000000   0.000000  -0.000032
    28  O   -0.000389   0.001022  -0.000017  -0.000180   0.000006   0.000161
    29  H    0.000009   0.000004  -0.000006   0.002080  -0.000054   0.000107
    30  H    0.000616   0.001400   0.000014   0.000084  -0.000006   0.000538
    31  O   -0.000000   0.000000   0.000000  -0.000000   0.000000   0.000000
    32  H    0.000000  -0.000000  -0.000000   0.000000  -0.000000  -0.000000
    33  H    0.000000  -0.000000   0.000000   0.000000  -0.000000  -0.000000
    34  O   -0.000000   0.000000  -0.000000  -0.000000   0.000000   0.000000
    35  H    0.000001  -0.000005   0.000000   0.000000  -0.000000  -0.000000
    36  H    0.000000  -0.000000  -0.000000   0.000000  -0.000000  -0.000000
    37  O   -0.001213   0.000238   0.000051   0.000000  -0.000000   0.000000
    38  H    0.000102  -0.000025  -0.000002   0.000000  -0.000000   0.000000
    39  H    0.011579  -0.000586  -0.000450  -0.000000   0.000000  -0.000000
    40  O   -0.000000   0.000004   0.000000  -0.000000   0.000000   0.000000
    41  H    0.000000  -0.000001  -0.000000   0.000000  -0.000000  -0.000000
    42  H    0.000000  -0.000008  -0.000000   0.000000  -0.000000  -0.000000
    43  O   -0.000000  -0.000000  -0.000000  -0.000000   0.000000   0.000000
    44  H    0.000000   0.000002   0.000000   0.000000  -0.000000  -0.000000
    45  H    0.000000   0.000000   0.000000  -0.000000   0.000000   0.000000
              19         20         21         22         23         24
     1  O   -0.000341   0.000809   0.000287  -0.000090   0.000891   0.000002
     2  H    0.000789  -0.000073   0.000048   0.000057   0.000646  -0.000035
     3  H    0.000006  -0.000009  -0.000004   0.000002  -0.000040   0.000000
     4  O    0.000000   0.000000   0.000000  -0.034858   0.002567   0.002116
     5  H   -0.000000  -0.000000   0.000000   0.065931  -0.006095  -0.005725
     6  H    0.000000  -0.000000  -0.000000   0.002141   0.000070  -0.000083
     7  O   -0.005138   0.000375   0.033070  -0.000000   0.000000  -0.000000
     8  H    0.001278   0.000216  -0.002487   0.000000  -0.000004   0.000000
     9  H    0.000244   0.000005  -0.001245   0.000000  -0.000000  -0.000000
    10  O   -0.027313   0.071626   0.003070  -0.000003   0.000019   0.000000
    11  H    0.001906  -0.004645   0.000579   0.000000  -0.000002   0.000000
    12  H    0.003540  -0.006511   0.000151   0.000024   0.000095  -0.000002
    13  O   -0.000007  -0.000000  -0.000002  -0.003897   0.017568   0.000571
    14  H   -0.000000  -0.000000  -0.000000   0.000171  -0.000520  -0.000007
    15  H   -0.000001  -0.000000   0.000000   0.005582  -0.003882   0.000481
    16  O   -0.000000   0.000000   0.000000   0.000000  -0.000001   0.000000
    17  H    0.000000  -0.000000  -0.000000   0.000000  -0.000000  -0.000000
    18  H    0.000000  -0.000000   0.000000   0.000000  -0.000000  -0.000000
    19  O    8.190610   0.271371   0.276997  -0.000003   0.000144  -0.000000
    20  H    0.271371   0.381882  -0.035279   0.000005   0.000054  -0.000000
    21  H    0.276997  -0.035279   0.428878   0.000000  -0.000007   0.000000
    22  O   -0.000003   0.000005   0.000000   8.015082   0.283316   0.292234
    23  H    0.000144   0.000054  -0.000007   0.283316   0.382436  -0.021629
    24  H   -0.000000  -0.000000   0.000000   0.292234  -0.021629   0.383109
    25  O    0.000000   0.000000   0.000000  -0.000000   0.000001   0.000000
    26  H    0.000000  -0.000000   0.000000   0.000000  -0.000000  -0.000000
    27  H    0.000000  -0.000000  -0.000000   0.000000  -0.000000  -0.000000
    28  O   -0.000000  -0.000000  -0.000006   0.000000  -0.000000   0.000000
    29  H    0.000000  -0.000000  -0.000006   0.000000  -0.000000   0.000000
    30  H   -0.000000  -0.000000   0.000000   0.000000   0.000000  -0.000000
    31  O   -0.000000  -0.000000  -0.000000  -0.000000   0.000000  -0.000000
    32  H   -0.000000  -0.000000   0.000004   0.000000  -0.000000   0.000000
    33  H   -0.000000  -0.000000   0.000001  -0.000000  -0.000000  -0.000000
    34  O   -0.000000  -0.000000   0.000000  -0.000000   0.000000   0.000000
    35  H    0.000000  -0.000000   0.000000   0.000000  -0.000000  -0.000000
    36  H    0.000000  -0.000000  -0.000000   0.000000  -0.000000  -0.000000
    37  O   -0.000842   0.000015   0.000727   0.000000  -0.000009  -0.000000
    38  H    0.009092  -0.000142  -0.000478  -0.000001   0.000044  -0.000000
    39  H    0.000187   0.000002   0.000073  -0.000005   0.000113   0.000000
    40  O   -0.000000   0.000000  -0.000000  -0.000000   0.000000   0.000000
    41  H    0.000000  -0.000000   0.000000   0.000000  -0.000000  -0.000000
    42  H    0.000000  -0.000000  -0.000000   0.000000  -0.000000  -0.000000
    43  O    0.000000  -0.000000   0.000000  -0.000000   0.000000   0.000000
    44  H   -0.000000   0.000000  -0.000000  -0.000000   0.000000  -0.000000
    45  H    0.000000   0.000000  -0.000000  -0.000000   0.000000   0.000000
              25         26         27         28         29         30
     1  O   -0.000000   0.000000   0.000000  -0.000590   0.001737  -0.000017
     2  H   -0.000012  -0.000002  -0.000006   0.001921  -0.000014   0.000178
     3  H   -0.000001  -0.000001  -0.000000   0.000155   0.000637   0.000057
     4  O    0.000000   0.000000   0.000000  -0.000000   0.000000   0.000000
     5  H    0.000000  -0.000000  -0.000000   0.000000  -0.000000  -0.000000
     6  H    0.000000   0.000000  -0.000000   0.000000  -0.000000   0.000000
     7  O   -0.000000   0.000000   0.000000  -0.000251   0.000978   0.000015
     8  H    0.000000  -0.000000  -0.000000   0.002493   0.000420  -0.000065
     9  H    0.000000  -0.000000  -0.000000   0.000003  -0.000008  -0.000001
    10  O   -0.000000   0.000000   0.000000  -0.000000   0.000000   0.000000
    11  H    0.000000  -0.000000  -0.000000   0.000000  -0.000000  -0.000000
    12  H    0.000000   0.000000  -0.000000  -0.000000  -0.000008   0.000000
    13  O   -0.008813   0.000388   0.000402  -0.000389   0.000009   0.000616
    14  H    0.042030  -0.002332  -0.002408   0.001022   0.000004   0.001400
    15  H    0.000213   0.000016   0.000006  -0.000017  -0.000006   0.000014
    16  O   -0.000073   0.000098   0.000000  -0.000180   0.002080   0.000084
    17  H    0.000000  -0.000004   0.000000   0.000006  -0.000054  -0.000006
    18  H    0.000664   0.000248  -0.000032   0.000161   0.000107   0.000538
    19  O    0.000000   0.000000   0.000000  -0.000000   0.000000  -0.000000
    20  H    0.000000  -0.000000  -0.000000  -0.000000  -0.000000  -0.000000
    21  H    0.000000   0.000000  -0.000000  -0.000006  -0.000006   0.000000
    22  O   -0.000000   0.000000   0.000000   0.000000   0.000000   0.000000
    23  H    0.000001  -0.000000  -0.000000  -0.000000  -0.000000   0.000000
    24  H    0.000000  -0.000000  -0.000000   0.000000   0.000000  -0.000000
    25  O    8.041203   0.291249   0.265518  -0.005746  -0.000040   0.038310
    26  H    0.291249   0.390263  -0.022098   0.000173   0.000021   0.000112
    27  H    0.265518  -0.022098   0.361855   0.000509  -0.000024  -0.001604
    28  O   -0.005746   0.000173   0.000509   8.056121   0.286674   0.255975
    29  H   -0.000040   0.000021  -0.000024   0.286674   0.394733  -0.021377
    30  H    0.038310   0.000112  -0.001604   0.255975  -0.021377   0.414134
    31  O   -0.000000   0.000000   0.000000  -0.000000   0.000000  -0.000000
    32  H    0.000000  -0.000000  -0.000000   0.000001  -0.000000  -0.000000
    33  H    0.000000  -0.000000  -0.000000   0.000000  -0.000000   0.000000
    34  O    0.000000   0.000000  -0.000007  -0.017434   0.000614   0.000686
    35  H   -0.000011   0.000000   0.000045   0.047937  -0.002066  -0.002451
    36  H    0.000000  -0.000000  -0.000000   0.000628  -0.000055  -0.000006
    37  O   -0.000012   0.000000   0.000033  -0.000475   0.000025   0.000113
    38  H    0.000000   0.000000  -0.000002  -0.000011  -0.000001  -0.000003
    39  H    0.000167  -0.000010   0.000049   0.005296  -0.000144  -0.000186
    40  O   -0.014193   0.000736   0.053970  -0.000634   0.000019   0.003720
    41  H    0.000877   0.000040  -0.003524   0.000025  -0.000002   0.000023
    42  H    0.000574  -0.000014  -0.002865   0.001256  -0.000038  -0.000268
    43  O    0.000000   0.000000  -0.000000  -0.000000   0.000000   0.000000
    44  H   -0.000000  -0.000000   0.000000   0.000000  -0.000000  -0.000000
    45  H    0.000000   0.000000  -0.000000   0.000000  -0.000000  -0.000000
              31         32         33         34         35         36
     1  O   -0.000000   0.000000   0.000000  -0.000000   0.000001   0.000000
     2  H   -0.000000  -0.000000  -0.000000   0.000000  -0.000002  -0.000000
     3  H    0.000000  -0.000000  -0.000000   0.000000  -0.000001  -0.000000
     4  O    0.000000   0.000000   0.000000  -0.000000   0.000000   0.000000
     5  H   -0.000000   0.000000  -0.000000   0.000000  -0.000000  -0.000000
     6  H    0.000000  -0.000000  -0.000000   0.000000  -0.000000  -0.000000
     7  O   -0.000000   0.000001   0.000006  -0.000008   0.000190   0.000002
     8  H    0.000000   0.000000  -0.000000   0.000001  -0.000008   0.000000
     9  H    0.000000  -0.000000  -0.000000   0.000001  -0.000005   0.000000
    10  O   -0.000000   0.000000   0.000000  -0.000000   0.000000   0.000000
    11  H    0.000000  -0.000000  -0.000000   0.000000  -0.000000  -0.000000
    12  H    0.000000  -0.000000  -0.000000   0.000000  -0.000000  -0.000000
    13  O   -0.000000   0.000000   0.000000  -0.000000   0.000001   0.000000
    14  H    0.000000  -0.000000  -0.000000   0.000000  -0.000005  -0.000000
    15  H    0.000000  -0.000000   0.000000  -0.000000   0.000000  -0.000000
    16  O   -0.000000   0.000000   0.000000  -0.000000   0.000000   0.000000
    17  H    0.000000  -0.000000  -0.000000   0.000000  -0.000000  -0.000000
    18  H    0.000000  -0.000000  -0.000000   0.000000  -0.000000  -0.000000
    19  O   -0.000000  -0.000000  -0.000000  -0.000000   0.000000   0.000000
    20  H   -0.000000  -0.000000  -0.000000  -0.000000  -0.000000  -0.000000
    21  H   -0.000000   0.000004   0.000001   0.000000   0.000000  -0.000000
    22  O   -0.000000   0.000000  -0.000000  -0.000000   0.000000   0.000000
    23  H    0.000000  -0.000000  -0.000000   0.000000  -0.000000  -0.000000
    24  H   -0.000000   0.000000  -0.000000   0.000000  -0.000000  -0.000000
    25  O   -0.000000   0.000000   0.000000   0.000000  -0.000011   0.000000
    26  H    0.000000  -0.000000  -0.000000   0.000000   0.000000  -0.000000
    27  H    0.000000  -0.000000  -0.000000  -0.000007   0.000045  -0.000000
    28  O   -0.000000   0.000001   0.000000  -0.017434   0.047937   0.000628
    29  H    0.000000  -0.000000  -0.000000   0.000614  -0.002066  -0.000055
    30  H   -0.000000  -0.000000   0.000000   0.000686  -0.002451  -0.000006
    31  O    8.080918   0.285673   0.291777  -0.000419   0.000018   0.000213
    32  H    0.285673   0.413134  -0.027268   0.004154  -0.000078  -0.000212
    33  H    0.291777  -0.027268   0.407896   0.000387   0.000000   0.000047
    34  O   -0.000419   0.004154   0.000387   8.123532   0.261423   0.286843
    35  H    0.000018  -0.000078   0.000000   0.261423   0.376257  -0.019884
    36  H    0.000213  -0.000212   0.000047   0.286843  -0.019884   0.410487
    37  O   -0.000014   0.000766  -0.000003   0.000009   0.000257   0.000001
    38  H    0.000003  -0.000025   0.000001   0.000004  -0.000005  -0.000000
    39  H    0.000000  -0.000018   0.000000   0.000033  -0.000039  -0.000001
    40  O   -0.000000  -0.000000   0.000000  -0.003439   0.001254   0.000117
    41  H    0.000000  -0.000000  -0.000000   0.000100   0.000054   0.000005
    42  H   -0.000000   0.000003  -0.000000   0.028644  -0.002758  -0.001004
    43  O   -0.000000   0.000000  -0.000000  -0.000000   0.000000   0.000000
    44  H    0.000000  -0.000001   0.000000   0.000000  -0.000000  -0.000000
    45  H    0.000000  -0.000000   0.000000   0.000000  -0.000000  -0.000000
              37         38         39         40         41         42
     1  O   -0.000008  -0.000011  -0.000049  -0.000000   0.000000   0.000000
     2  H   -0.000014   0.000150   0.001423  -0.000000   0.000000  -0.000000
     3  H   -0.000000  -0.000000  -0.000006   0.000000  -0.000000  -0.000000
     4  O   -0.000000   0.000000   0.000000  -0.000000   0.000000   0.000000
     5  H   -0.000000  -0.000000  -0.000000  -0.000000  -0.000000   0.000000
     6  H    0.000000  -0.000000  -0.000000   0.000000  -0.000000  -0.000000
     7  O   -0.000005  -0.000007   0.000002   0.000000   0.000000  -0.000000
     8  H    0.000002   0.000016   0.000132   0.000000  -0.000000  -0.000000
     9  H    0.000000  -0.000000  -0.000000   0.000000  -0.000000   0.000000
    10  O   -0.000000   0.000002   0.000000  -0.000000   0.000000   0.000000
    11  H    0.000000  -0.000000  -0.000000   0.000000  -0.000000   0.000000
    12  H   -0.000000  -0.000001  -0.000002   0.000000  -0.000000  -0.000000
    13  O   -0.001213   0.000102   0.011579  -0.000000   0.000000   0.000000
    14  H    0.000238  -0.000025  -0.000586   0.000004  -0.000001  -0.000008
    15  H    0.000051  -0.000002  -0.000450   0.000000  -0.000000  -0.000000
    16  O    0.000000   0.000000  -0.000000  -0.000000   0.000000   0.000000
    17  H   -0.000000  -0.000000   0.000000   0.000000  -0.000000  -0.000000
    18  H    0.000000   0.000000  -0.000000   0.000000  -0.000000  -0.000000
    19  O   -0.000842   0.009092   0.000187  -0.000000   0.000000   0.000000
    20  H    0.000015  -0.000142   0.000002   0.000000  -0.000000  -0.000000
    21  H    0.000727  -0.000478   0.000073  -0.000000   0.000000  -0.000000
    22  O    0.000000  -0.000001  -0.000005  -0.000000   0.000000   0.000000
    23  H   -0.000009   0.000044   0.000113   0.000000  -0.000000  -0.000000
    24  H   -0.000000  -0.000000   0.000000   0.000000  -0.000000  -0.000000
    25  O   -0.000012   0.000000   0.000167  -0.014193   0.000877   0.000574
    26  H    0.000000   0.000000  -0.000010   0.000736   0.000040  -0.000014
    27  H    0.000033  -0.000002   0.000049   0.053970  -0.003524  -0.002865
    28  O   -0.000475  -0.000011   0.005296  -0.000634   0.000025   0.001256
    29  H    0.000025  -0.000001  -0.000144   0.000019  -0.000002  -0.000038
    30  H    0.000113  -0.000003  -0.000186   0.003720   0.000023  -0.000268
    31  O   -0.000014   0.000003   0.000000  -0.000000   0.000000  -0.000000
    32  H    0.000766  -0.000025  -0.000018  -0.000000  -0.000000   0.000003
    33  H   -0.000003   0.000001   0.000000   0.000000  -0.000000  -0.000000
    34  O    0.000009   0.000004   0.000033  -0.003439   0.000100   0.028644
    35  H    0.000257  -0.000005  -0.000039   0.001254   0.000054  -0.002758
    36  H    0.000001  -0.000000  -0.000001   0.000117   0.000005  -0.001004
    37  O    8.088306   0.281103   0.281748  -0.000017  -0.000000   0.000291
    38  H    0.281103   0.415736  -0.027208   0.000001  -0.000000  -0.000008
    39  H    0.281748  -0.027208   0.406544   0.000078  -0.000003  -0.000048
    40  O   -0.000017   0.000001   0.000078   8.031213   0.291699   0.274597
    41  H   -0.000000  -0.000000  -0.000003   0.291699   0.393205  -0.023522
    42  H    0.000291  -0.000008  -0.000048   0.274597  -0.023522   0.394132
    43  O   -0.000601   0.000161   0.000020  -0.000000   0.000000  -0.000000
    44  H    0.009370  -0.000288  -0.000246   0.000000  -0.000000   0.000000
    45  H    0.000019   0.000138   0.000000  -0.000000   0.000000  -0.000000
              43         44         45
     1  O   -0.000000   0.000000  -0.000000
     2  H    0.000000  -0.000000   0.000000
     3  H   -0.000000   0.000000   0.000000
     4  O   -0.000000   0.000000   0.000000
     5  H   -0.000000  -0.000000  -0.000000
     6  H   -0.000000   0.000000  -0.000000
     7  O   -0.000000   0.000000   0.000000
     8  H    0.000000  -0.000000   0.000000
     9  H    0.000000  -0.000000   0.000000
    10  O   -0.000000  -0.000000   0.000000
    11  H   -0.000000   0.000000  -0.000000
    12  H   -0.000000   0.000000   0.000000
    13  O   -0.000000   0.000000   0.000000
    14  H   -0.000000   0.000002   0.000000
    15  H   -0.000000   0.000000   0.000000
    16  O   -0.000000   0.000000  -0.000000
    17  H    0.000000  -0.000000   0.000000
    18  H    0.000000  -0.000000   0.000000
    19  O    0.000000  -0.000000   0.000000
    20  H   -0.000000   0.000000   0.000000
    21  H    0.000000  -0.000000  -0.000000
    22  O   -0.000000  -0.000000  -0.000000
    23  H    0.000000   0.000000   0.000000
    24  H    0.000000  -0.000000   0.000000
    25  O    0.000000  -0.000000   0.000000
    26  H    0.000000  -0.000000   0.000000
    27  H   -0.000000   0.000000  -0.000000
    28  O   -0.000000   0.000000   0.000000
    29  H    0.000000  -0.000000  -0.000000
    30  H    0.000000  -0.000000  -0.000000
    31  O   -0.000000   0.000000   0.000000
    32  H    0.000000  -0.000001  -0.000000
    33  H   -0.000000   0.000000   0.000000
    34  O   -0.000000   0.000000   0.000000
    35  H    0.000000  -0.000000  -0.000000
    36  H    0.000000  -0.000000  -0.000000
    37  O   -0.000601   0.009370   0.000019
    38  H    0.000161  -0.000288   0.000138
    39  H    0.000020  -0.000246   0.000000
    40  O   -0.000000   0.000000  -0.000000
    41  H    0.000000  -0.000000   0.000000
    42  H   -0.000000   0.000000  -0.000000
    43  O    8.089443   0.280096   0.290152
    44  H    0.280096   0.420125  -0.028155
    45  H    0.290152  -0.028155   0.410553
 Mulliken charges:
               1
     1  O   -0.657503
     2  H    0.335366
     3  H    0.342400
     4  O   -0.691034
     5  H    0.345123
     6  H    0.312524
     7  O   -0.665575
     8  H    0.324800
     9  H    0.327843
    10  O   -0.665128
    11  H    0.326384
    12  H    0.353776
    13  O   -0.665569
    14  H    0.347991
    15  H    0.308400
    16  O   -0.642094
    17  H    0.339355
    18  H    0.337631
    19  O   -0.722519
    20  H    0.320299
    21  H    0.295627
    22  O   -0.625685
    23  H    0.344226
    24  H    0.348969
    25  O   -0.651907
    26  H    0.341117
    27  H    0.350183
    28  O   -0.634623
    29  H    0.335783
    30  H    0.310008
    31  O   -0.658169
    32  H    0.323865
    33  H    0.327157
    34  O   -0.685125
    35  H    0.339878
    36  H    0.322818
    37  O   -0.659862
    38  H    0.321666
    39  H    0.321553
    40  O   -0.639125
    41  H    0.341024
    42  H    0.331034
    43  O   -0.659272
    44  H    0.319096
    45  H    0.327292
 Sum of Mulliken charges =  -0.00000
 Mulliken charges with hydrogens summed into heavy atoms:
               1
     1  O    0.020263
     4  O   -0.033387
     7  O   -0.012933
    10  O    0.015032
    13  O   -0.009177
    16  O    0.034893
    19  O   -0.106593
    22  O    0.067511
    25  O    0.039392
    28  O    0.011169
    31  O   -0.007147
    34  O   -0.022428
    37  O   -0.016642
    40  O    0.032933
    43  O   -0.012884
 Electronic spatial extent (au):  <R**2>=         288756.9182
 Charge=             -0.0000 electrons
 Dipole moment (field-independent basis, Debye):
    X=             -8.6449    Y=              0.8275    Z=            -16.3186  Tot=             18.4856
 Quadrupole moment (field-independent basis, Debye-Ang):
   XX=           -493.7468   YY=            -92.9769   ZZ=           -202.9837
   XY=            -29.9434   XZ=           -384.8853   YZ=           -116.8394
 Traceless Quadrupole moment (field-independent basis, Debye-Ang):
   XX=           -230.5110   YY=            170.2589   ZZ=             60.2521
   XY=            -29.9434   XZ=           -384.8853   YZ=           -116.8394
 Octapole moment (field-independent basis, Debye-Ang**2):
  XXX=         -19913.0360  YYY=          -2334.5055  ZZZ=          -1928.1166  XYY=          -2282.3125
  XXY=          -2635.7994  XXZ=          -9705.9593  XZZ=          -4467.5013  YZZ=          -1429.4425
  YYZ=          -1337.2913  XYZ=          -2697.7850
 Hexadecapole moment (field-independent basis, Debye-Ang**3):
 XXXX=        -691467.8156 YYYY=         -40228.9383 ZZZZ=         -17590.3779 XXXY=        -119817.6950
 XXXZ=        -254637.8809 YYYX=         -51313.2771 YYYZ=         -17443.8471 ZZZX=         -41409.3907
 ZZZY=         -13593.6121 XXYY=         -64465.1009 XXZZ=        -103058.7383 YYZZ=         -13220.4200
 XXYZ=         -67566.9902 YYXZ=         -30073.1327 ZZXY=         -31276.8741
 N-N= 1.269772938334D+03 E-N=-5.246986372448D+03  KE= 1.136765844846D+03
 D1PCM: C-PCM CHGder 1st derivatives, ID1Alg=3 FixD1E=F DoIter=F DoCFld=F I1PDM=0.
 Calling FoFJK, ICntrl=      2127 FMM=F ISym2X=0 I1Cent= 0 IOpClX= 0 NMat=1 NMatS=1 NMatT=0.
 -------------------------------------------------------------------
 Center     Atomic                   Forces (Hartrees/Bohr)
 Number     Number              X              Y              Z
 -------------------------------------------------------------------
      1        8           0.002105667   -0.000290957   -0.006334473
      2        1           0.001096093    0.000793604   -0.000519866
      3        1           0.000631456   -0.000212893    0.000511505
      4        8           0.001008653   -0.001299712   -0.008564187
      5        1           0.000027809   -0.000655289    0.000340944
      6        1           0.000426698    0.000961680    0.000181348
      7        8           0.000100871    0.004138561    0.001249763
      8        1          -0.000337513   -0.000032772   -0.000004518
      9        1           0.000192649    0.001323903    0.000960886
     10        8          -0.003283479    0.001328125   -0.000163125
     11        1           0.000601609    0.000670167   -0.000417732
     12        1          -0.000334403   -0.000151305    0.000463660
     13        8          -0.003217806   -0.000252858   -0.003807835
     14        1          -0.000454499    0.000192401    0.000161819
     15        1          -0.000859495    0.000192640   -0.000485500
     16        8           0.000229570   -0.002181201    0.004535982
     17        1          -0.000703552   -0.000137979   -0.000264890
     18        1           0.000218827   -0.000114896    0.000402866
     19        8           0.002768117   -0.000299015   -0.002643825
     20        1           0.000988420    0.000237996    0.000295154
     21        1           0.000740390   -0.001266474   -0.000312898
     22        8           0.004213164   -0.000540220    0.007220536
     23        1           0.001328082    0.000317108    0.000464580
     24        1          -0.000651271   -0.001165104    0.000637518
     25        8           0.000412594   -0.007391303    0.002215956
     26        1           0.000962386   -0.000155280    0.002818526
     27        1          -0.000178685   -0.000013548   -0.000649639
     28        8          -0.000531300    0.005829939    0.000074776
     29        1           0.000251344   -0.000619045    0.000273931
     30        1           0.000113883   -0.002651428    0.000359366
     31        8           0.000836963    0.005208664    0.000583711
     32        1           0.000442449   -0.003487523   -0.001147723
     33        1          -0.001936997   -0.000973184   -0.000851538
     34        8          -0.000024462    0.003094702    0.000559043
     35        1          -0.000691630   -0.000156295    0.002060310
     36        1           0.000778526    0.002274919   -0.000636561
     37        8          -0.002415800    0.001740830    0.003361793
     38        1          -0.000326059   -0.001386957   -0.001324805
     39        1           0.001130360   -0.000266496   -0.000133125
     40        8          -0.000733820   -0.002061875   -0.000478365
     41        1          -0.000670785    0.001395820    0.000273080
     42        1          -0.002575205   -0.000282703    0.000217973
     43        8          -0.005002826   -0.004755874   -0.001975447
     44        1           0.000569784    0.000828122    0.002313420
     45        1           0.002753224    0.002273006   -0.001822395
 -------------------------------------------------------------------
 Cartesian Forces:  Max     0.008564187 RMS     0.002105112

 GradGradGradGradGradGradGradGradGradGradGradGradGradGradGradGradGradGrad
 Berny optimization.
 Search for a local minimum.
 Step number   1 out of a maximum of    2
 All quantities printed in internal units (Hartrees-Bohrs-Radians)
 Second derivative matrix not updated -- first step.
 ITU=  0
     Eigenvalues ---   -0.00000  -0.00000  -0.00000  -0.00000  -0.00000
     Eigenvalues ---   -0.00000  -0.00000  -0.00000  -0.00000  -0.00000
     Eigenvalues ---   -0.00000  -0.00000  -0.00000  -0.00000  -0.00000
     Eigenvalues ---   -0.00000  -0.00000  -0.00000  -0.00000  -0.00000
     Eigenvalues ---   -0.00000  -0.00000  -0.00000  -0.00000  -0.00000
     Eigenvalues ---   -0.00000  -0.00000  -0.00000  -0.00000  -0.00000
     Eigenvalues ---   -0.00000  -0.00000  -0.00000  -0.00000  -0.00000
     Eigenvalues ---   -0.00000  -0.00000  -0.00000  -0.00000  -0.00000
     Eigenvalues ---   -0.00000  -0.00000  -0.00000  -0.00000  -0.00000
     Eigenvalues ---    0.00000   0.00000   0.00000   0.00000   0.00000
     Eigenvalues ---    0.00000   0.00000   0.00000   0.00000   0.00000
     Eigenvalues ---    0.00000   0.00000   0.00000   0.00000   0.00000
     Eigenvalues ---    0.00000   0.00000   0.00000   0.00000   0.00000
     Eigenvalues ---    0.00000   0.00000   0.00000   0.00000   0.00000
     Eigenvalues ---    0.00000   0.00000   0.00000   0.00000   0.00000
     Eigenvalues ---    0.00000   0.00000   0.00000   0.00000   0.00000
     Eigenvalues ---    0.00000   0.00000   0.00000   0.00000   0.14313
     Eigenvalues ---    0.14585   0.14781   0.14820   0.14909   0.14952
     Eigenvalues ---    0.15027   0.15043   0.15090   0.15178   0.15206
     Eigenvalues ---    0.15240   0.15251   0.15278   0.15400   0.87605
     Eigenvalues ---    0.87940   0.91017   0.92978   0.95422   0.96224
     Eigenvalues ---    0.97660   0.98196   0.98650   0.99296   0.99890
     Eigenvalues ---    1.00625   1.01047   1.01071   1.01563   1.07925
     Eigenvalues ---    1.11210   1.12021   1.13552   1.14780   1.15441
     Eigenvalues ---    1.17215   1.17796   1.18113   1.18624   1.19058
     Eigenvalues ---    1.19385   1.19395   1.19675   1.21028
 Eigenvalue     1 is  -3.00D-15 should be greater than     0.000000 Eigenvector:
                          Z24       X30       Z35       Z33       X42
   1                    0.41021  -0.30623  -0.20104  -0.19573   0.19348
                          Z32       Z30       Y37       Z36       Z27
   1                    0.19151   0.17822   0.17054   0.16670  -0.15367
 Eigenvalue     2 is  -2.22D-15 should be greater than     0.000000 Eigenvector:
                          Z17       Y18       X42       Z29       X24
   1                    0.36323   0.26055   0.20516  -0.19328  -0.18927
                          Z19       Z42       Z26       Y19       Y25
   1                   -0.17956   0.17687  -0.17133   0.16514   0.14761
 Eigenvalue     3 is  -2.22D-15 should be greater than     0.000000 Eigenvector:
                          Z22       Z31       Z36       Z34       X44
   1                    0.45795   0.24993  -0.23454  -0.23101  -0.20831
                          Y45       Z30       X43       Z33       Z35
   1                   -0.17757   0.16690  -0.16649   0.16560  -0.16394
 Eigenvalue     4 is  -2.00D-15 should be greater than     0.000000 Eigenvector:
                          Z33       Y39       X42       Y38       Y33
   1                    0.33892   0.25480   0.21789  -0.21152  -0.20653
                          X44       Y26       Z39       Y45       Y41
   1                    0.19793   0.19256   0.18955  -0.17434   0.15963
 Eigenvalue     5 is  -1.89D-15 should be greater than     0.000000 Eigenvector:
                          Z12       Z37       X36       Y5        Y38
   1                    0.32238   0.18951   0.18878  -0.18857  -0.18744
                          Y29       X44       Y35       Z10       Y12
   1                    0.18706  -0.18653  -0.16959   0.16658   0.15728
 Eigenvalue     6 is  -1.89D-15 should be greater than     0.000000 Eigenvector:
                          Z33       X24       Z36       Y39       Y36
   1                    0.22710  -0.22653  -0.21492  -0.20908   0.18075
                          X23       Y41       X39       Y1        Y25
   1                    0.17968  -0.17818  -0.16234  -0.15277  -0.14870
 Eigenvalue     7 is  -1.78D-15 should be greater than     0.000000 Eigenvector:
                          Y44       Z29       Y33       X32       Y38
   1                    0.38752   0.34179  -0.25806  -0.20485   0.17159
                          Y45       Z23       Y32       Y41       X20
   1                   -0.14664  -0.14596  -0.14588  -0.14223  -0.13855
 Eigenvalue     8 is  -1.78D-15 should be greater than     0.000000 Eigenvector:
                          Y45       Z33       X45       Y38       X40
   1                    0.25435   0.24210  -0.21860  -0.20865   0.20515
                          X41       Y44       X6        Z24       X27
   1                    0.19931  -0.19148   0.18578   0.17377  -0.17348
 Eigenvalue     9 is  -1.67D-15 should be greater than     0.000000 Eigenvector:
                          Y17       Z2        Z6        Y5        Y14
   1                    0.33917  -0.22092   0.21909   0.20696   0.18419
                          X35       X38       Y3        Y6        Z11
   1                    0.17298   0.16823  -0.16718  -0.16640   0.15776
 Eigenvalue    10 is  -1.67D-15 should be greater than     0.000000 Eigenvector:
                          Z29       Z33       X41       X45       Y45
   1                    0.38318  -0.26079   0.23317  -0.22642   0.20608
                          Z40       X30       X44       X29       Y30
   1                   -0.20592  -0.18618  -0.16807  -0.16494   0.16263
 Eigenvalue    11 is  -1.33D-15 should be greater than     0.000000 Eigenvector:
                          Y26       X32       X11       Z20       X2
   1                    0.38423   0.21957  -0.17460   0.16602  -0.16193
                          Z10       X9        Z11       X27       X21
   1                    0.15736  -0.15136   0.15079  -0.14467  -0.14434
 Eigenvalue    12 is  -1.33D-15 should be greater than     0.000000 Eigenvector:
                          Y16       Y26       X19       Y19       Z39
   1                    0.25007  -0.24995  -0.22545  -0.21548   0.20564
                          X20       X39       Y29       Z3        Z24
   1                   -0.19153  -0.16711  -0.16527   0.16150  -0.15842
 Eigenvalue    13 is  -1.22D-15 should be greater than     0.000000 Eigenvector:
                          X26       Z14       Y14       Z26       Z32
   1                    0.26439   0.26341  -0.19436  -0.18572  -0.18234
                          Y41       Y26       Z21       Z13       Y42
   1                   -0.17343   0.17244  -0.16954   0.16151  -0.15659
 Eigenvalue    14 is  -1.11D-15 should be greater than     0.000000 Eigenvector:
                          Z32       X23       X22       Z8        X10
   1                    0.25897  -0.24308  -0.23912   0.18727  -0.18514
                          X24       Z11       Z28       Y21       Y19
   1                   -0.18185  -0.17499  -0.17338   0.17013   0.17007
 Eigenvalue    15 is  -1.11D-15 should be greater than     0.000000 Eigenvector:
                          Y15       Z15       X6        X12       Y18
   1                    0.36466  -0.31500   0.23445  -0.18130  -0.17804
                          Y20       X13       Y16       Y13       X38
   1                   -0.16698  -0.16278   0.15315   0.14576   0.13902
 Eigenvalue    16 is  -1.11D-15 should be greater than     0.000000 Eigenvector:
                          X41       X36       X30       Z39       Y39
   1                    0.30088   0.22041   0.20107   0.18937   0.18434
                          Y35       X39       Y37       X42       Z5
   1                   -0.17619  -0.16106   0.15556   0.14568  -0.14123
 Eigenvalue    17 is  -9.99D-16 should be greater than     0.000000 Eigenvector:
                          X6        Y20       X9        X21       Y25
   1                    0.29597   0.27218   0.23907  -0.19132  -0.19102
                          Z34       Z6        Z7        Z31       X30
   1                   -0.17546  -0.17517   0.17363  -0.15510   0.14892
 Eigenvalue    18 is  -9.99D-16 should be greater than     0.000000 Eigenvector:
                          X9        Z8        Y9        X8        Z12
   1                    0.31916  -0.27815  -0.22911  -0.19703  -0.19079
                          Z32       Y14       X5        Z5        X30
   1                    0.19064  -0.16336  -0.14432   0.14209  -0.14050
 Eigenvalue    19 is  -9.99D-16 should be greater than     0.000000 Eigenvector:
                          Z29       X39       Z24       Y37       Y41
   1                    0.25748  -0.23392  -0.22422   0.21604   0.21372
                          Z36       Z27       X30       Y29       Z38
   1                   -0.19897   0.19443  -0.17674  -0.17584  -0.16457
 Eigenvalue    20 is  -8.88D-16 should be greater than     0.000000 Eigenvector:
                          Y16       Y17       Y19       Y15       Y25
   1                    0.33361  -0.22974   0.21681  -0.19335  -0.18901
                          Z16       Y26       X24       X12       Z21
   1                    0.17968  -0.17961  -0.17442  -0.16160   0.16124
 Eigenvalue    21 is  -8.88D-16 should be greater than     0.000000 Eigenvector:
                          Z24       X40       X44       X23       Z27
   1                    0.26655   0.21203  -0.21149   0.19222  -0.19170
                          Y35       Y34       Z33       Z25       Z29
   1                   -0.19033  -0.18354   0.17153  -0.16953   0.16241
 Eigenvalue    22 is  -7.77D-16 should be greater than     0.000000 Eigenvector:
                          Z22       Z32       Z26       X23       Z14
   1                    0.30452  -0.26700   0.22507  -0.21372  -0.19439
                          Z35       Y44       Z25       X40       Z4
   1                    0.18716  -0.16450   0.15755   0.15714   0.13686
 Eigenvalue    23 is  -6.66D-16 should be greater than     0.000000 Eigenvector:
                          Y27       X24       Y21       X25       Y36
   1                    0.22219   0.20705   0.20261  -0.20005   0.18857
                          Y38       X38       Z22       Z23       Y28
   1                   -0.16675   0.16654  -0.16424   0.16378  -0.16015
 Eigenvalue    24 is  -6.66D-16 should be greater than     0.000000 Eigenvector:
                          Y20       Y44       X42       Z32       X35
   1                    0.21649   0.21368  -0.21168  -0.20728   0.20660
                          Z18       Z36       Y35       Y2        Z17
   1                   -0.20399  -0.18643   0.17925  -0.17261   0.15735
 Eigenvalue    25 is  -6.66D-16 should be greater than     0.000000 Eigenvector:
                          Z43       Z44       Z45       Y45       X43
   1                    0.52505   0.46062   0.43612  -0.23148  -0.14484
                          Z31       Z40       X44       Z41       X10
   1                   -0.13791  -0.13090   0.10357  -0.09759   0.09121
 Eigenvalue    26 is  -6.66D-16 should be greater than     0.000000 Eigenvector:
                          X28       X29       Z40       Z4        Y44
   1                    0.30017   0.29258  -0.20879   0.19836  -0.19021
                          X34       Y38       X40       Y4        Y6
   1                    0.18695   0.18035  -0.17809   0.17023   0.17020
 Eigenvalue    27 is  -5.55D-16 should be greater than     0.000000 Eigenvector:
                          Y13       Y21       X11       Y20       Z12
   1                    0.35260   0.28062   0.25924   0.20849   0.19852
                          X6        Z21       Z30       Z11       Z13
   1                   -0.18391  -0.17535   0.16948  -0.16822   0.16779
 Eigenvalue    28 is  -5.55D-16 should be greater than     0.000000 Eigenvector:
                          Y17       Y21       Y1        Y20       Z19
   1                    0.31332  -0.22370  -0.21973  -0.18572  -0.17728
                          Z14       Y3        Z7        Y37       Y19
   1                   -0.17175  -0.16943   0.16669  -0.16665   0.15249
 Eigenvalue    29 is  -5.55D-16 should be greater than     0.000000 Eigenvector:
                          Y17       X11       X33       X15       Z35
   1                    0.28906   0.28352   0.21961   0.21369   0.17928
                          X13       Z9        X6        Y15       X9
   1                    0.17924   0.17158   0.16349   0.16095  -0.15160
 Eigenvalue    30 is  -5.55D-16 should be greater than     0.000000 Eigenvector:
                          Z32       Y14       Y5        Z22       Z6
   1                    0.34525   0.21575  -0.20552   0.20335  -0.18834
                          Z30       X23       Z18       X6        Z34
   1                    0.18018  -0.17499  -0.16730   0.16565   0.15619
 Eigenvalue    31 is  -5.55D-16 should be greater than     0.000000 Eigenvector:
                          Z17       Z18       X16       Y18       X44
   1                    0.24844  -0.24797   0.21258   0.20648  -0.20069
                          Z20       Y39       X40       Z19       Y44
   1                   -0.18859  -0.17442  -0.17006  -0.15369  -0.15165
 Eigenvalue    32 is  -5.55D-16 should be greater than     0.000000 Eigenvector:
                          Z27       X4        X42       X35       Y26
   1                    0.33503   0.23594   0.18994   0.18953  -0.18854
                          Z30       Z32       Y4        Z23       Y21
   1                   -0.17498   0.17454  -0.17402   0.16872  -0.16676
 Eigenvalue    33 is  -4.44D-16 should be greater than     0.000000 Eigenvector:
                          Y17       X5        X6        Y16       Y26
   1                    0.31680  -0.25933  -0.24695   0.21393   0.19535
                          Y3        Y5        Y2        Y14       X9
   1                    0.18593  -0.18238   0.17941  -0.16888   0.16234
 Eigenvalue    34 is  -4.44D-16 should be greater than     0.000000 Eigenvector:
                          X10       Z28       X11       Y38       Y20
   1                    0.37678  -0.28215   0.24826  -0.21583  -0.17062
                          X12       X7        Z9        X28       Z15
   1                   -0.16986  -0.16377  -0.15773   0.15186  -0.14860
 Eigenvalue    35 is  -4.44D-16 should be greater than     0.000000 Eigenvector:
                          Y17       Z14       Y13       Z36       Z31
   1                    0.26342   0.24540  -0.24207  -0.21243   0.21156
                          Z17       X11       Y19       Z22       X13
   1                    0.20511   0.20459   0.17608  -0.16200  -0.15091
 Eigenvalue    36 is  -4.44D-16 should be greater than     0.000000 Eigenvector:
                          Y20       Z30       X3        Y43       Y22
   1                    0.28473  -0.28068   0.21066   0.19666  -0.19575
                          X33       Z29       X32       X31       Z32
   1                   -0.18656  -0.16823  -0.16737  -0.16715   0.16543
 Eigenvalue    37 is  -3.33D-16 should be greater than     0.000000 Eigenvector:
                          X12       Z28       Z16       Y3        Z34
   1                    0.28003  -0.21445   0.19511   0.19400   0.18993
                          X41       X45       Z9        Y45       X28
   1                   -0.18655  -0.16761  -0.16449   0.16023   0.15518
 Eigenvalue    38 is  -3.33D-16 should be greater than     0.000000 Eigenvector:
                          Y15       Y19       Z30       Z31       Y18
   1                    0.32497   0.32348  -0.21831  -0.20806  -0.19702
                          X15       X33       Y10       X38       Z21
   1                    0.17710  -0.16296  -0.15170  -0.13728   0.13698
 Eigenvalue    39 is  -3.33D-16 should be greater than     0.000000 Eigenvector:
                          Y25       Z1        X25       Z27       X26
   1                    0.26256   0.24985   0.21206   0.20818   0.18786
                          X4        X32       Z30       Y1        X24
   1                   -0.18069   0.17121   0.16116   0.15627  -0.15042
 Eigenvalue    40 is  -2.22D-16 should be greater than     0.000000 Eigenvector:
                          Y21       X1        Y44       Z39       X4
   1                    0.21087   0.20078  -0.18274  -0.18134   0.17326
                          X6        Z11       X32       Y25       Y39
   1                    0.16558   0.16115   0.16066   0.15751  -0.15586
 Eigenvalue    41 is  -2.22D-16 should be greater than     0.000000 Eigenvector:
                          Z8        Z9        Y14       Y3        X11
   1                    0.27994   0.23192   0.22128   0.21488   0.21421
                          Z28       X39       X2        Y19       Y17
   1                    0.19796  -0.19220   0.17695   0.17580  -0.17319
 Eigenvalue    42 is  -2.22D-16 should be greater than     0.000000 Eigenvector:
                          Y16       Y14       X3        X12       Y31
   1                    0.29500  -0.27326   0.21141   0.20472   0.19880
                          Z29       X8        Z17       Y3        X39
   1                    0.19046  -0.18700  -0.15980  -0.15624  -0.15108
 Eigenvalue    43 is  -1.11D-16 should be greater than     0.000000 Eigenvector:
                          X5        Z2        X10       X2        Y19
   1                    0.28364   0.27199   0.27079  -0.25534   0.20303
                          Y14       X11       X3        X26       Y5
   1                    0.16679  -0.15706   0.15658   0.15458  -0.15388
 Eigenvalue    44 is  -1.11D-16 should be greater than     0.000000 Eigenvector:
                          X3        Y19       Z18       Z15       X41
   1                    0.26422  -0.24171   0.21596  -0.21166  -0.20534
                          Y18       Y1        Z28       Y5        Y16
   1                    0.19800   0.16311   0.16276   0.15650  -0.15606
 Eigenvalue    45 is  -1.11D-16 should be greater than     0.000000 Eigenvector:
                          Z8        X14       Z15       Y12       X45
   1                    0.33643   0.25953  -0.24797  -0.17927  -0.16608
                          Y19       Y25       Y22       Y18       Z6
   1                    0.16233   0.16113  -0.16018   0.15704   0.15081
 Eigenvalue    46 is   0.00D+00 Eigenvector:
                          Z7        Y45       Z11       Y39       X36
   1                    0.25560  -0.23763  -0.23353  -0.22288   0.22066
                          X6        X41       X9        Y42       Y2
   1                   -0.19504   0.19149   0.18013   0.17675   0.16901
 Eigenvalue    47 is   0.00D+00 Eigenvector:
                          X10       X14       X40       Z11       Y15
   1                    0.27944  -0.24030   0.23174   0.22972   0.20510
                          Y14       Y25       Z6        Z28       Z18
   1                   -0.18044  -0.17853   0.17019   0.16162  -0.15251
 Eigenvalue    48 is   0.00D+00 Eigenvector:
                          X5        X12       Y2        Y3        Z5
   1                    0.36446  -0.23142  -0.21574   0.21371  -0.19717
                          Z15       Z7        Y15       Z8        Y43
   1                   -0.19368   0.19010  -0.18738  -0.15575  -0.15202
 Eigenvalue    49 is   0.00D+00 Eigenvector:
                          Y20       Y38       Z20       X21       Z17
   1                    0.31319  -0.23233  -0.22951   0.20966  -0.19022
                          X23       Z22       X20       Z2        Y12
   1                   -0.18722   0.17803   0.16496  -0.16139   0.15771
 Eigenvalue    50 is   0.00D+00 Eigenvector:
                          Z24       Z30       Z35       Y26       Z28
   1                    0.29833  -0.27952  -0.20478  -0.19149   0.17531
                          X6        Z31       X31       Z42       X26
   1                   -0.17509  -0.16541   0.16527  -0.15960   0.15712
 Eigenvalue    51 is   2.22D-16 Eigenvector:
                          Z9        Y3        Y17       X38       Y21
   1                    0.56045  -0.26367  -0.19165   0.18097  -0.15849
                          X5        X24       X23       Y13       Y14
   1                   -0.15356   0.15166  -0.15054   0.14966  -0.14576
 Eigenvalue    52 is   2.22D-16 Eigenvector:
                          X8        X12       Z17       Y3        Z29
   1                    0.39152   0.27641  -0.21172  -0.18938  -0.18692
                          Y7        X7        Z20       Z15       Z31
   1                   -0.18056   0.17908   0.17223  -0.16749   0.15657
 Eigenvalue    53 is   4.44D-16 Eigenvector:
                          Z2        X4        Y15       X21       X38
   1                    0.35637  -0.29119   0.25341   0.19431   0.16447
                          Y3        X2        Z30       X45       Z37
   1                    0.16114  -0.15943  -0.15939  -0.15005  -0.14981
 Eigenvalue    54 is   4.44D-16 Eigenvector:
                          Z15       X11       X12       Y18       Z35
   1                    0.24831   0.21192  -0.20772   0.19915  -0.19048
                          Z21       X6        Y2        X8        X14
   1                    0.18842   0.17818   0.17192   0.17135  -0.16590
 Eigenvalue    55 is   4.44D-16 Eigenvector:
                          Z9        X12       Z11       Z8        Y10
   1                    0.38520   0.28449  -0.28245  -0.22105  -0.20517
                          Y5        Y21       X11       Z7        Y45
   1                    0.19693   0.16727  -0.16328   0.15544   0.14275
 Eigenvalue    56 is   4.44D-16 Eigenvector:
                          X4        X35       X8        Y2        X1
   1                    0.26759  -0.23398   0.22405  -0.21709  -0.21605
                          Y18       Y21       Y26       X39       Y34
   1                   -0.20055  -0.17741   0.16527   0.16238   0.15513
 Eigenvalue    57 is   4.44D-16 Eigenvector:
                          X10       X8        X18       X4        X5
   1                    0.35042   0.28178   0.21255  -0.20137  -0.18512
                          Z18       Y14       Y42       Z7        X17
   1                    0.18015   0.16695  -0.16552   0.15947   0.15331
 Eigenvalue    58 is   4.44D-16 Eigenvector:
                          Z21       Z7        X38       X24       Y21
   1                    0.34582  -0.25681   0.21981   0.19792  -0.18841
                          Z8        X32       X41       Y5        Z19
   1                   -0.18036  -0.16241   0.16126   0.15849   0.15561
 Eigenvalue    59 is   4.44D-16 Eigenvector:
                          Y18       Z7        Z30       Z31       X29
   1                    0.30558  -0.30497  -0.20709   0.20288  -0.19895
                          Y29       X32       Y3        Z35       Y1
   1                    0.18440   0.17846  -0.16664   0.16493  -0.15591
 Eigenvalue    60 is   4.44D-16 Eigenvector:
                          Z17       Y18       Z20       Z28       X32
   1                    0.31371  -0.24730   0.23245  -0.19812  -0.19326
                          X42       Z7        Z41       Z42       Y10
   1                    0.19323  -0.17757   0.16830   0.16649   0.16090
 Eigenvalue    61 is   4.44D-16 Eigenvector:
                          Z20       X21       X41       Y20       Y38
   1                    0.35461  -0.25408  -0.22989  -0.20036  -0.19712
                          Z18       X40       X13       X10       X36
   1                   -0.18664  -0.16377   0.16252   0.15643   0.15603
 Eigenvalue    62 is   6.66D-16 Eigenvector:
                          X42       Z35       X12       X11       X40
   1                    0.30019  -0.28986   0.24010   0.21613   0.21521
                          X34       X2        Y14       X44       Y37
   1                   -0.17111  -0.17079   0.16369  -0.16286  -0.14811
 Eigenvalue    63 is   6.66D-16 Eigenvector:
                          Y18       Z35       Z33       X12       Y39
   1                    0.29687  -0.22013  -0.19894  -0.19093   0.17891
                          X45       Z18       Z31       Y26       X43
   1                    0.17395   0.16959   0.16159  -0.16005   0.15388
 Eigenvalue    64 is   6.66D-16 Eigenvector:
                          Y37       X6        Z23       X3        X38
   1                    0.25901  -0.24320   0.22744   0.21861   0.19597
                          Z7        X37       X41       Y3        Z3
   1                    0.18532   0.18152  -0.17186  -0.16939  -0.15242
 Eigenvalue    65 is   6.66D-16 Eigenvector:
                          X4        Y5        Z15       Y15       Y38
   1                    0.26702   0.22904   0.20374   0.18317  -0.16892
                          X1        Z31       Z35       Z6        Z19
   1                   -0.15843  -0.15724   0.15452   0.15439   0.15289
 Eigenvalue    66 is   6.66D-16 Eigenvector:
                          X42       Y23       Y24       Z3        Z35
   1                    0.33520   0.26471   0.21992  -0.19036   0.18136
                          Y5        Y39       Y27       Z36       Z12
   1                   -0.17648   0.16667  -0.16304  -0.15652   0.15564
 Eigenvalue    67 is   8.88D-16 Eigenvector:
                          Z2        X12       X5        Y3        X8
   1                    0.27295  -0.24508  -0.22956   0.22448   0.21953
                          Y20       Y5        Z20       X32       Y18
   1                    0.19245   0.18687  -0.16836   0.15443  -0.15124
 Eigenvalue    68 is   8.88D-16 Eigenvector:
                          Z9        X12       X8        Z28       X24
   1                    0.28137   0.23088  -0.21754  -0.21177  -0.19789
                          Y9        X18       Z18       Z22       Z8
   1                   -0.18421   0.16769   0.16585   0.16099  -0.15033
 Eigenvalue    69 is   8.88D-16 Eigenvector:
                          Y27       X36       Y6        Z37       X1
   1                    0.39224  -0.18988   0.18771  -0.18760   0.17841
                          Y7        Z38       Y29       X45       Y36
   1                    0.17368  -0.17134  -0.17091  -0.16897  -0.16850
 Eigenvalue    70 is   8.88D-16 Eigenvector:
                          Y21       X11       X26       X1        X36
   1                    0.30235   0.21384   0.21153  -0.21034   0.17957
                          X44       Z11       X2        X23       Y13
   1                    0.17752   0.15733  -0.15697   0.15529  -0.15501
 Eigenvalue    71 is   8.88D-16 Eigenvector:
                          Y37       Z42       Z15       Y43       X4
   1                    0.25247  -0.24369  -0.24364  -0.21383   0.20451
                          X36       X15       X44       Y18       Z7
   1                    0.18652  -0.17658  -0.17389  -0.16590  -0.16415
 Eigenvalue    72 is   8.88D-16 Eigenvector:
                          Y18       X45       Z35       X42       X3
   1                    0.22754  -0.21334  -0.21224   0.20456  -0.20112
                          Z18       Y29       Y2        Z42       Z36
   1                    0.19360  -0.19164  -0.19144   0.17248   0.15759
 Eigenvalue    73 is   1.11D-15 Eigenvector:
                          Y39       Z27       Y44       X21       X2
   1                    0.23340   0.23270  -0.21974   0.20201   0.19974
                          Z28       X30       Z21       X39       X45
   1                   -0.18083  -0.17763   0.17268   0.16879  -0.15877
 Eigenvalue    74 is   1.11D-15 Eigenvector:
                          Z8        X11       Z18       Z14       Y16
   1                    0.31575   0.24234  -0.23716  -0.21124   0.18233
                          Y35       X28       Z9        Y18       X29
   1                    0.18064  -0.16902  -0.16732  -0.16288  -0.15450
 Eigenvalue    75 is   1.11D-15 Eigenvector:
                          X40       Y42       Z32       X5        Z3
   1                    0.27534   0.25267  -0.20040  -0.19293  -0.18566
                          Y40       Z41       Z34       Z36       Y41
   1                    0.18334  -0.16996   0.16874   0.16509  -0.16349
 Eigenvalue    76 is   1.11D-15 Eigenvector:
                          Y6        Y4        Z36       Y13       X35
   1                    0.34919   0.30100  -0.20170   0.19838   0.19360
                          Z13       X15       Z28       Z40       X34
   1                    0.19224  -0.16862  -0.16833   0.16080   0.15514
 Eigenvalue    77 is   1.11D-15 Eigenvector:
                          X32       Y37       Y42       Y41       Y40
   1                    0.25131   0.23289  -0.21708  -0.21204  -0.21147
                          X38       Y28       Z24       Y22       Y29
   1                    0.19358   0.18139  -0.17983  -0.17337   0.15826
 Eigenvalue    78 is   1.33D-15 Eigenvector:
                          Z20       Y44       X43       Z34       Z32
   1                    0.31594  -0.27404  -0.24810   0.16856  -0.16389
                          X44       Z12       Z13       Z42       Y14
   1                   -0.16118   0.16039  -0.15689   0.15550   0.14868
 Eigenvalue    79 is   1.33D-15 Eigenvector:
                          Z23       X38       Y37       X36       X39
   1                    0.26609   0.23725   0.22880  -0.21288  -0.19527
                          X23       Y45       X45       X25       X24
   1                    0.19254  -0.18032  -0.17046   0.16359  -0.15711
 Eigenvalue    80 is   1.78D-15 Eigenvector:
                          Z8        X11       X41       Y17       Y14
   1                    0.49902  -0.35186  -0.18398   0.18061  -0.17494
                          X10       Y21       Z4        X7        Z36
   1                    0.16342   0.15270  -0.14914   0.14116   0.13854
 Eigenvalue    81 is   1.78D-15 Eigenvector:
                          Y23       Y24       Y38       X42       X32
   1                    0.29968   0.29448  -0.27651  -0.22662  -0.20673
                          Y44       X36       Y39       Y22       Z32
   1                   -0.18459   0.17508  -0.17447   0.16985   0.16676
 Eigenvalue    82 is   1.78D-15 Eigenvector:
                          Y39       X37       Z42       X1        X16
   1                    0.23235  -0.22118   0.21374  -0.20515   0.20112
                          Y41       Y26       X17       Y38       X39
   1                   -0.19776  -0.19620   0.19525   0.19143  -0.17607
 Eigenvalue    83 is   2.66D-15 Eigenvector:
                          Y27       X1        X44       Z35       Y44
   1                    0.54562  -0.26121   0.23068   0.19710  -0.17952
                          X27       Y6        Y13       Z28       Y35
   1                    0.17334  -0.16528   0.16442   0.16401  -0.16266
 Eigenvalue    84 is   2.89D-15 Eigenvector:
                          Z23       Y37       X41       Z24       Y23
   1                    0.60268  -0.24268   0.22213  -0.21564  -0.17753
                          X45       Z32       X42       Z31       Z35
   1                    0.17372   0.15210  -0.13971  -0.13955  -0.13291
 Quadratic step=1.766D+02 exceeds max=3.000D-01 adjusted using Lamda=-5.898D-02.
 Angle between NR and scaled steps=   5.11 degrees.
 Angle between quadratic step and forces=  40.06 degrees.
 Linear search not attempted -- first point.
 B after Tr=     0.001297   -0.005652    0.002208
         Rot=    1.000000    0.000065    0.000009   -0.000035 Ang=   0.01 deg.
 Variable       Old X    -DE/DX   Delta X   Delta X   Delta X     New X
                                 (Linear)    (Quad)   (Total)
    X1       35.44732   0.00211   0.00000   0.04962   0.04984  35.49716
    Y1       13.61472  -0.00029   0.00000  -0.02003  -0.02224  13.59248
    Z1        7.61563  -0.00633   0.00000  -0.06134  -0.06026   7.55537
    X2       36.78124   0.00110   0.00000   0.01010   0.01022  36.79147
    Y2       14.86741   0.00079   0.00000   0.01448   0.01239  14.87981
    Z2        7.89760  -0.00052   0.00000  -0.02158  -0.02065   7.87696
    X3       34.77802   0.00063   0.00000   0.00456   0.00477  34.78279
    Y3       14.08387  -0.00021   0.00000   0.01732   0.01484  14.09872
    Z3        5.96614   0.00051   0.00000  -0.02754  -0.02654   5.93960
    X4       33.10067   0.00101   0.00000   0.04396   0.04369  33.14436
    Y4       20.66243  -0.00130   0.00000  -0.01843  -0.02076  20.64167
    Z4        7.97391  -0.00856   0.00000  -0.07188  -0.07177   7.90214
    X5       33.60785   0.00003   0.00000  -0.00852  -0.00881  33.59904
    Y5       20.31526  -0.00066   0.00000   0.01392   0.01186  20.32712
    Z5        9.72239   0.00034   0.00000  -0.04369  -0.04352   9.67887
    X6       32.32370   0.00043   0.00000  -0.00983  -0.00999  32.31371
    Y6       19.10171   0.00096   0.00000  -0.00526  -0.00772  19.09399
    Z6        7.42406   0.00018   0.00000  -0.02080  -0.02050   7.40356
    X7       37.89628   0.00010   0.00000  -0.00038   0.00019  37.89647
    Y7        8.39066   0.00414   0.00000   0.04281   0.04079   8.43146
    Z7        7.73737   0.00125   0.00000   0.01963   0.02142   7.75879
    X8       37.16934  -0.00034   0.00000  -0.01427  -0.01381  37.15553
    Y8       10.05545  -0.00003   0.00000   0.02839   0.02627  10.08172
    Z8        7.42055  -0.00000   0.00000  -0.00527  -0.00370   7.41685
    X9       36.52105   0.00019   0.00000   0.01210   0.01276  36.53381
    Y9        7.22778   0.00132   0.00000   0.02702   0.02487   7.25265
    Z9        7.42707   0.00096   0.00000   0.01741   0.01933   7.44640
   X10       33.31195  -0.00328   0.00000  -0.05692  -0.05662  33.25533
   Y10       11.30271   0.00133   0.00000   0.02074   0.01892  11.32163
   Z10       11.76088  -0.00016   0.00000  -0.00718  -0.00584  11.75504
   X11       33.00943   0.00060   0.00000   0.00793   0.00836  33.01779
   Y11        9.57984   0.00067   0.00000   0.00835   0.00644   9.58628
   Z11       11.23341  -0.00042   0.00000  -0.00283  -0.00127  11.23214
   X12       33.81077  -0.00033   0.00000  -0.00310  -0.00283  33.80795
   Y12       12.19112  -0.00015   0.00000   0.00780   0.00582  12.19694
   Z12       10.20868   0.00046   0.00000   0.00380   0.00503  10.21371
   X13       38.70334  -0.00322   0.00000  -0.04436  -0.04445  38.65889
   Y13       17.98710  -0.00025   0.00000  -0.02026  -0.02221  17.96489
   Z13        7.94858  -0.00381   0.00000  -0.04058  -0.04002   7.90856
   X14       39.75337  -0.00045   0.00000  -0.01006  -0.01014  39.74324
   Y14       18.23936   0.00019   0.00000   0.01273   0.01067  18.25003
   Z14        6.44472   0.00016   0.00000  -0.00974  -0.00919   6.43553
   X15       37.20641  -0.00086   0.00000  -0.02193  -0.02208  37.18433
   Y15       19.01058   0.00019   0.00000   0.01584   0.01375  19.02433
   Z15        7.62155  -0.00049   0.00000  -0.02104  -0.02063   7.60092
   X16       34.83541   0.00023   0.00000  -0.00322  -0.00309  34.83232
   Y16       16.31895  -0.00218   0.00000  -0.01052  -0.01347  16.30549
   Z16        2.28853   0.00454   0.00000   0.03184   0.03255   2.32109
   X17       33.29791  -0.00070   0.00000   0.00132   0.00142  33.29933
   Y17       16.89539  -0.00014   0.00000  -0.01176  -0.01492  16.88048
   Z17        1.49469  -0.00026   0.00000   0.01618   0.01679   1.51148
   X18       36.13773   0.00022   0.00000  -0.00275  -0.00263  36.13510
   Y18       16.69846  -0.00011   0.00000  -0.00952  -0.01253  16.68593
   Z18        1.06836   0.00040   0.00000   0.02912   0.02980   1.09816
   X19       38.27795   0.00277   0.00000   0.03554   0.03584  38.31379
   Y19       10.99327  -0.00030   0.00000   0.00716   0.00588  10.99915
   Z19       13.23133  -0.00264   0.00000  -0.03359  -0.03212  13.19921
   X20       36.44631   0.00099   0.00000   0.02998   0.03026  36.47657
   Y20       11.22885   0.00024   0.00000   0.00064  -0.00078  11.22807
   Z20       13.06498   0.00030   0.00000   0.00101   0.00241  13.06740
   X21       38.63189   0.00074   0.00000   0.00958   0.00998  38.64186
   Y21       10.03666  -0.00127   0.00000  -0.02634  -0.02780  10.00886
   Z21       11.70778  -0.00031   0.00000  -0.01706  -0.01545  11.69233
   X22       35.28039   0.00421   0.00000   0.04171   0.04143  35.32183
   Y22       19.52983  -0.00054   0.00000  -0.03382  -0.03541  19.49442
   Z22       12.30674   0.00722   0.00000   0.11663   0.11693  12.42367
   X23       36.52705   0.00133   0.00000   0.02903   0.02885  36.55590
   Y23       18.33435   0.00032   0.00000   0.00894   0.00734  18.34169
   Z23       11.69820   0.00046   0.00000   0.00755   0.00803  11.70622
   X24       36.26640  -0.00065   0.00000   0.01293   0.01254  36.27895
   Y24       21.02607  -0.00117   0.00000   0.00608   0.00459  21.03067
   Z24       12.68677   0.00064   0.00000   0.01600   0.01612  12.70289
   X25       41.96932   0.00041   0.00000  -0.01526  -0.01532  41.95400
   Y25       18.84174  -0.00739   0.00000  -0.10967  -0.11198  18.72976
   Z25        3.33582   0.00222   0.00000   0.03852   0.03904   3.37486
   X26       41.44400   0.00096   0.00000   0.00866   0.00862  41.45262
   Y26       18.97072  -0.00016   0.00000   0.00232  -0.00025  18.97047
   Z26        1.58646   0.00282   0.00000   0.04062   0.04111   1.62756
   X27       43.63019  -0.00018   0.00000   0.02706   0.02705  43.65724
   Y27       18.01454  -0.00001   0.00000  -0.01335  -0.01556  17.99899
   Z27        3.28610  -0.00065   0.00000  -0.00635  -0.00570   3.28040
   X28       40.97034  -0.00053   0.00000  -0.00932  -0.00898  40.96136
   Y28       12.79961   0.00583   0.00000   0.03113   0.02882  12.82842
   Z28        3.88966   0.00007   0.00000   0.01949   0.02077   3.91043
   X29       39.35492   0.00025   0.00000   0.00555   0.00594  39.36086
   Y29       12.41535  -0.00062   0.00000   0.00335   0.00082  12.41617
   Z29        3.12955   0.00027   0.00000   0.00118   0.00248   3.13203
   X30       41.23653   0.00011   0.00000  -0.00005   0.00018  41.23671
   Y30       14.58572  -0.00265   0.00000   0.01615   0.01381  14.59952
   Z30        3.52594   0.00036   0.00000  -0.01245  -0.01140   3.51454
   X31       47.47163   0.00084   0.00000  -0.00525  -0.00457  47.46705
   Y31        6.37324   0.00521   0.00000   0.01326   0.01218   6.38542
   Z31        9.91790   0.00058   0.00000   0.00163   0.00387   9.92177
   X32       46.96050   0.00044   0.00000  -0.00732  -0.00676  46.95375
   Y32        8.11684  -0.00349   0.00000   0.00128   0.00014   8.11698
   Z32        9.67218  -0.00115   0.00000  -0.02800  -0.02600   9.64618
   X33       45.99555  -0.00194   0.00000  -0.00070   0.00005  45.99560
   Y33        5.43627  -0.00097   0.00000   0.00137   0.00012   5.43639
   Z33        9.40624  -0.00085   0.00000  -0.00452  -0.00219   9.40406
   X34       45.37311  -0.00002   0.00000   0.00330   0.00384  45.37695
   Y34        9.83881   0.00309   0.00000   0.04229   0.04032   9.87913
   Z34        4.16995   0.00056   0.00000   0.00077   0.00251   4.17246
   X35       43.75088  -0.00069   0.00000  -0.02063  -0.02013  43.73075
   Y35       10.64091  -0.00016   0.00000   0.00665   0.00452  10.64543
   Z35        3.79230   0.00206   0.00000   0.03399   0.03561   3.82791
   X36       45.34981   0.00078   0.00000   0.01663   0.01730  45.36711
   Y36        8.26783   0.00227   0.00000   0.04553   0.04343   8.31127
   Z36        3.23778  -0.00064   0.00000  -0.00667  -0.00472   3.23306
   X37       43.55809  -0.00242   0.00000  -0.00359  -0.00345  43.55464
   Y37       14.17937   0.00174   0.00000   0.03141   0.03007  14.20944
   Z37        9.92203   0.00336   0.00000   0.03021   0.03135   9.95338
   X38       42.72329  -0.00033   0.00000  -0.02840  -0.02827  42.69502
   Y38       13.80417  -0.00139   0.00000  -0.02547  -0.02667  13.77750
   Z38       11.50885  -0.00132   0.00000  -0.00023   0.00096  11.50981
   X39       42.19529   0.00113   0.00000   0.00431   0.00442  42.19971
   Y39       14.89090  -0.00027   0.00000  -0.00045  -0.00202  14.88888
   Z39        8.92819  -0.00013   0.00000  -0.00115  -0.00012   8.92807
   X40       46.64504  -0.00073   0.00000  -0.01841  -0.01827  46.62677
   Y40       15.91549  -0.00206   0.00000  -0.00942  -0.01145  15.90405
   Z40        3.12625  -0.00048   0.00000   0.00165   0.00263   3.12888
   X41       47.22751  -0.00067   0.00000  -0.01017  -0.00999  47.21752
   Y41       15.85688   0.00140   0.00000   0.01124   0.00903  15.86591
   Z41        1.39396   0.00027   0.00000   0.00384   0.00484   1.39880
   X42       46.63798  -0.00258   0.00000  -0.03928  -0.03903  46.59895
   Y42       14.14516  -0.00028   0.00000  -0.01158  -0.01354  14.13162
   Z42        3.62100   0.00022   0.00000  -0.00831  -0.00710   3.61390
   X43       47.30724  -0.00500   0.00000  -0.01331  -0.01355  47.29369
   Y43       18.48871  -0.00476   0.00000  -0.01347  -0.01397  18.47474
   Z43       14.44559  -0.00198   0.00000  -0.01965  -0.01899  14.42659
   X44       46.69832   0.00057   0.00000  -0.02023  -0.02039  46.67793
   Y44       17.73557   0.00083   0.00000  -0.01859  -0.01934  17.71623
   Z44       12.88572   0.00231   0.00000  -0.00637  -0.00563  12.88009
   X45       46.24326   0.00275   0.00000   0.00581   0.00560  46.24886
   Y45       17.68305   0.00227   0.00000   0.00534   0.00493  17.68798
   Z45       15.70398  -0.00182   0.00000  -0.00101  -0.00027  15.70371
         Item               Value     Threshold  Converged?
 Maximum Force            0.008564     0.000450     NO 
 RMS     Force            0.002105     0.000300     NO 
 Maximum Displacement     0.116931     0.001800     NO 
 RMS     Displacement     0.025790     0.001200     NO 
 Predicted change in Energy=-5.468659D-03
 GradGradGradGradGradGradGradGradGradGradGradGradGradGradGradGradGradGrad


 Test job not archived.
 1\1\GINC-LENKA5\Force\RB3LYP\6-31G(d,p)\H30O15\ZRONYJ\23-Aug-2023\0\\#
 b3lyp/6-31G** scrf=(cpcm,Solvent=Water) nosymm force iop(2/11=1) Geom=
 (NoDistance,NoAngle) guess=checkpoint\\cluster_510\\0,1\O,18.75791307,
 7.20459952,4.03001902\H,19.46379626,7.86749571,4.17923147\H,18.4037375
 3,7.45286402,3.1571475\O,17.51612124,10.9340894,4.21961219\H,17.784508
 49,10.75037238,5.14486623\H,17.10496507,10.10818825,3.92864367\O,20.05
 384601,4.44014789,4.0944396\H,19.66916711,5.3211172,3.92678702\H,19.32
 610882,3.82477817,3.93023578\O,17.62792421,5.98113521,6.22359082\H,17.
 46783553,5.06943276,5.94446374\H,17.8918915,6.45126121,5.40219885\O,20
 .48092691,9.51836373,4.20620816\H,21.03657878,9.65185542,3.41039744\H,
 19.68878535,10.05996357,4.03315159\O,18.43410402,8.63561824,1.21103976
 \H,17.62049419,8.9406568,0.79095565\H,19.12326189,8.83644529,0.5653518
 3\O,20.25581746,5.81738555,7.00171993\H,19.28655697,5.94205199,6.91369
 229\H,20.44311415,5.31117366,6.19549289\O,18.66958058,10.33474081,6.51
 24453\H,19.32928432,9.70211806,6.19041828\H,19.19135325,11.12651868,6.
 71355178\O,22.20921007,9.97061962,1.76523828\H,21.93122002,10.03887242
 ,0.83951584\H,23.0881007,9.53288528,1.7389278\O,21.6805714,6.77325957,
 2.05832078\H,20.82572661,6.56991995,1.65608697\H,21.82143413,7.7184295
 8,1.86584857\O,25.12090369,3.37257314,5.24832715\H,24.85042858,4.29524
 784,5.11829931\H,24.33979769,2.87674902,4.97757029\O,24.010416,5.20647
 409,2.2066405\H,23.15196924,5.63092688,2.00679785\H,23.99808761,4.3751
 486,1.71336079\O,23.04994813,7.50339903,5.25051248\H,22.6081897,7.3048
 5203,6.09022091\H,22.32878508,7.87992633,4.72459586\O,24.6834914,8.422
 11573,1.65433967\H,24.99172175,8.39109861,0.73765315\H,24.67975498,7.4
 8529751,1.91615014\O,25.03391544,9.78380524,7.64427486\H,24.71168596,9
 .38525723,6.81882704\H,24.47087853,9.35746561,8.31018759\\Version=ES64
 L-G16RevA.03\HF=-1146.5286436\RMSD=7.903e-09\RMSF=2.105e-03\Dipole=-3.
 4011577,0.3255742,-6.4202431\Quadrupole=-171.379309,126.5833355,44.795
 9734,-22.262171,-286.152768,-86.867231\PG=C01 [X(H30O15)]\\@


 EVANS BOLDLY PUT 50 ATM. OF ETHYLENE IN A CELL WITH 25 ATM. OF OXYGEN.
 THE APPARATUS SUBSEQUENTLY BLEW UP, BUT LUCKILY NOT BEFORE HE
 OBTAINED THE SPECTRA SHOWN IN FIGURE 8.
 A.J.MERER AND R.S.MULLIKEN, CHEM.REV. 69, 645 (1969)
 Job cpu time:       0 days  0 hours 19 minutes  2.8 seconds.
 Elapsed time:       0 days  0 hours  4 minutes 38.4 seconds.
 File lengths (MBytes):  RWF=    241 Int=      0 D2E=      0 Chk=     33 Scr=      1
 Normal termination of Gaussian 16 at Wed Aug 23 09:51:33 2023.
