36
XYZ file of cluster: frame_15500_c92ba.72330.55b4a - created by MolEdiTo
 O      19.81500000      12.39000000      13.42400000
 H      19.47300000      11.46400000      13.66200000
 H      20.49300000      12.50300000      14.13900000
 O      20.32100000      11.12000000       8.00100000
 H      20.33600000      11.17000000       8.98800000
 H      20.87200000      11.91500000       7.90200000
 O      19.60700000      14.17200000       8.41000000
 H      19.02200000      13.41100000       8.20700000
 H      20.41300000      13.92400000       7.94000000
 O      17.20500000      15.82600000       9.18400000
 H      17.57200000      15.12800000       9.68400000
 H      17.39800000      16.63000000       9.77700000
 O      18.43500000      14.27500000      11.99200000
 H      18.81500000      13.43100000      12.38300000
 H      19.22100000      14.51300000      11.52800000
 O      20.18100000      16.15900000      14.42700000
 H      20.18700000      16.81500000      13.67800000
 H      19.28200000      15.72900000      14.46600000
 O      19.59100000      17.01600000       7.77100000
 H      19.37800000      16.30700000       8.50800000
 H      18.74500000      17.10800000       7.27200000
 O      21.61600000      10.78300000      10.69000000
 H      21.47000000      10.74400000      11.64300000
 H      21.71400000       9.77900000      10.48700000
 O      22.22600000      16.50400000      11.18500000
 H      22.85000000      16.31600000      11.95100000
 H      22.41300000      17.52300000      11.03600000
 O      23.09500000      13.39600000       7.32900000
 H      23.18800000      14.36300000       7.60700000
 H      23.99400000      13.01700000       7.48000000
 O      23.12700000      15.87200000       8.65300000
 H      23.00200000      16.08400000       9.63400000
 H      22.90600000      16.67900000       8.14500000
 O      24.05600000      11.80300000      12.52700000
 H      23.61400000      12.43800000      13.12300000
 H      23.60300000      10.93700000      12.62000000
