33
XYZ file of cluster: frame_15500_0.98e38.1b2 - created by MolEdiTo
 O       7.04000000      13.71500000       1.87200000
 H       6.48000000      13.86200000       2.69900000
 H       7.29800000      14.57400000       1.67500000
 O       1.11200000      18.93000000       6.44000000
 H       0.54200000      18.34700000       6.93000000
 H       1.51800000      19.57000000       7.13000000
 O       2.49200000      16.54000000       1.13700000
 H       2.91800000      15.69900000       1.18000000
 H       1.96100000      16.52500000       1.98600000
 O       3.24000000      17.24800000       5.77000000
 H       3.91800000      17.13900000       6.52200000
 H       2.47100000      17.69400000       6.22200000
 O       0.44400000      14.21300000       2.39800000
 H       1.29800000      14.00700000       2.84600000
 H       0.00000000      14.70500000       3.12500000
 O       2.69400000      14.22700000       3.98300000
 H       3.66200000      14.41100000       4.26100000
 H       2.26100000      14.73000000       4.62200000
 O       3.74700000      13.90200000       0.43300000
 H       3.96300000      13.09200000       1.00800000
 H       4.64700000      14.08800000       0.18900000
 O       7.18900000      18.91400000       0.71500000
 H       7.31200000      19.91100000       0.80700000
 H       6.53200000      19.01600000       0.00900000
 O       5.26400000      14.78800000       4.82300000
 H       5.57600000      14.18200000       5.50600000
 H       5.76700000      15.56500000       4.97000000
 O       6.91700000      18.11600000       3.63700000
 H       6.10600000      18.73500000       3.73500000
 H       7.15700000      18.16100000       2.69600000
 O       4.69700000      20.10100000       3.28900000
 H       4.37200000      20.84800000       2.77200000
 H       3.97200000      19.66200000       3.69400000
