27
XYZ file of cluster: frame_15500_6566.c8264.0 - created by MolEdiTo
 O       1.11200000      18.93000000       6.44000000
 H       0.54200000      18.34700000       6.93000000
 H       1.51800000      19.57000000       7.13000000
 O       3.24000000      17.24800000       5.77000000
 H       3.91800000      17.13900000       6.52200000
 H       2.47100000      17.69400000       6.22200000
 O       7.18900000      18.91400000       0.71500000
 H       7.31200000      19.91100000       0.80700000
 H       6.53200000      19.01600000       0.00900000
 O       6.91700000      18.11600000       3.63700000
 H       6.10600000      18.73500000       3.73500000
 H       7.15700000      18.16100000       2.69600000
 O       4.69700000      20.10100000       3.28900000
 H       4.37200000      20.84800000       2.77200000
 H       3.97200000      19.66200000       3.69400000
 O       5.97500000      22.66100000       5.06600000
 H       5.90900000      23.36700000       4.40200000
 H       5.63100000      21.93500000       4.53900000
 O       2.93500000      22.40600000       0.81600000
 H       3.03500000      21.49700000       0.45500000
 H       3.11000000      23.02400000       0.00000000
 O       2.92400000      22.90300000       4.92800000
 H       3.26800000      23.33200000       5.72200000
 H       2.18200000      22.21300000       5.13100000
 O       7.16000000      22.21800000       1.99300000
 H       7.57300000      22.80400000       2.62900000
 H       6.28500000      22.01200000       2.39400000
