42
XYZ file of cluster: frame_15500_d48.25ac6.6e8fc - created by MolEdiTo
 O       1.16200000       7.99700000      10.14500000
 H       1.76200000       8.25900000       9.38100000
 H       1.56700000       7.07600000      10.43800000
 O       7.55200000       8.59400000      16.98400000
 H       6.90900000       8.30900000      16.28000000
 H       7.22700000       9.52900000      17.10600000
 O       6.17500000       4.69700000      16.81200000
 H       6.45900000       4.62000000      15.89900000
 H       6.93200000       4.71100000      17.45100000
 O       3.08900000       9.22600000      14.02200000
 H       2.13700000       9.17300000      14.20800000
 H       3.49500000       8.78900000      14.75200000
 O       6.25400000       9.43800000      12.19900000
 H       6.49500000      10.21000000      12.76000000
 H       6.51200000       8.64800000      12.74000000
 O       0.73600000      10.78300000      10.69000000
 H       0.59000000      10.74400000      11.64300000
 H       0.83400000       9.77900000      10.48700000
 O       3.06900000       5.98900000      13.22700000
 H       3.58300000       6.82700000      13.19500000
 H       3.61900000       5.29200000      12.77300000
 O       4.84600000       7.63900000      16.08200000
 H       4.08100000       7.55300000      16.63600000
 H       5.14900000       6.75700000      16.10900000
 O       5.48100000       5.56500000       9.95400000
 H       4.53500000       5.43500000       9.92100000
 H       5.71900000       5.38500000      10.82800000
 O       0.50400000       6.41000000      13.75000000
 H       0.07100000       6.28900000      12.93500000
 H       1.49500000       6.37300000      13.60300000
 O       5.23300000       3.97700000      12.30600000
 H       5.14800000       3.73900000      13.23600000
 H       4.80900000       3.22600000      11.89200000
 O       3.96600000       8.33800000      11.28500000
 H       4.82300000       8.76000000      11.39700000
 H       3.52700000       8.69100000      12.05800000
 O       6.45600000       6.64700000      13.18600000
 H       5.78800000       6.38900000      12.55900000
 H       7.15600000       6.09000000      12.81000000
 O       2.19000000       8.73300000      16.59600000
 H       2.23400000       9.71700000      16.54400000
 H       1.66200000       8.50700000      17.35400000
