%chk=cluster_343.chk
%mem=6GB
%nproc=4
#b3lyp/6-311++G** scrf=(cpcm,Solvent=Water) nosymm freq
iop(2/11=1) 
 Geom=(NoDistance,NoAngle)

cluster_343

0 1
 O      13.86700000      15.29500000      14.49600000
 H      13.57500000      15.39400000      15.41500000
 H      14.84200000      15.17900000      14.50300000
 O      16.98400000      13.84600000      14.37900000
 H      17.36500000      14.66200000      14.00300000
 H      16.88500000      14.06600000      15.33300000
 O      16.08500000      17.05900000      16.57600000
 H      16.35700000      17.19800000      15.63200000
 H      16.47800000      16.18500000      16.78100000
 O      13.72000000      15.95500000      11.74600000
 H      13.71700000      15.71300000      12.74300000
 H      12.74400000      16.01800000      11.54900000
 O      12.77900000      19.42200000      12.01300000
 H      12.36300000      18.71900000      11.50000000
 H      12.93100000      20.10200000      11.32600000
 O      10.80000000      14.43000000      14.63500000
 H      10.26200000      13.65000000      14.40800000
 H      11.65600000      14.07000000      14.77900000
 O      17.34800000      14.66500000      17.07000000
 H      17.50800000      14.54700000      18.05800000
 H      18.31600000      14.76800000      16.93200000
 O      17.25600000      20.44300000      16.14600000
 H      16.78400000      20.87200000      15.43000000
 H      17.28000000      19.49600000      15.88800000
 O      11.81600000      16.44700000      16.73400000
 H      11.62900000      17.16000000      17.43000000
 H      10.94100000      16.19700000      16.37000000
 O      10.80500000      20.16100000      14.26700000
 H      11.21800000      21.06200000      13.93800000
 H      11.52200000      19.59500000      13.86100000
 O      16.23400000      16.61800000      13.12400000
 H      15.32100000      16.54500000      12.55700000
 H      16.55200000      17.53500000      12.88300000
 O      13.96300000      19.22200000      16.80200000
 H      14.50700000      18.40300000      16.59400000
 H      13.19900000      18.82200000      17.28100000
 O      16.45600000      19.42000000      13.07200000
 H      16.74400000      20.27000000      12.62000000
 H      15.53000000      19.52200000      13.33700000

