%chk=cluster_343.chk
%mem=6GB
%nproc=8
#b3lyp/6-31G** scrf=(cpcm,Solvent=Water) nosymm force
iop(2/11=1)
 Geom=(NoDistance,NoAngle)
guess=checkpoint

cluster_343

0 1
 O      13.86621477    15.30262943    14.51412077
 H      13.92964486    15.97004030    15.21254147
 H      14.73964957    14.87480689    14.49625282
 O      16.99499292    13.81927159    14.39116358
 H      17.04690428    14.67829732    13.93994241
 H      17.13550875    14.04829201    15.32865579
 O      16.09112126    17.05225011    16.58349892
 H      16.14234467    17.00057787    15.61643434
 H      16.68227380    16.33315674    16.88345237
 O      13.69518046    15.91851605    11.74477168
 H      13.53659831    15.73864737    12.69477023
 H      13.00850675    16.54801168    11.49610111
 O      12.78970535    19.41077241    12.00552088
 H      12.35381063    18.71618404    11.49514652
 H      12.78075290    20.16808455    11.40353051
 O      10.76594632    14.40405266    14.60951957
 H      10.61176159    13.52195251    14.97827440
 H      11.73490037    14.45194405    14.50964127
 O      17.38604157    14.69893368    17.05867496
 H      16.84376152    14.26755935    17.73474702
 H      18.30284264    14.50936601    17.31284946
 O      17.27613507    20.44509725    16.14195458
 H      16.81706219    20.92870718    15.44171779
 H      17.06685420    19.52508710    15.92723977
 O      11.80949046    16.50356603    16.74190381
 H      11.36295764    16.51924876    17.60114826
 H      11.26849475    15.91558226    16.18844883
 O      10.82557786    20.14199503    14.26768853
 H      10.90731420    21.10091748    14.33782467
 H      11.44131816    19.91629567    13.54739956
 O      16.22890870    16.63339452    13.10126934
 H      15.41778357    16.52485629    12.57061115
 H      16.41501416    17.59357871    13.07960519
 O      13.95451824    19.22827977    16.82502293
 H      14.70244981    18.61321582    16.91670760
 H      13.21917532    18.63317786    16.61263958
 O      16.44206693    19.43994136    13.11335866
 H      17.01201136    19.78226320    12.41027443
 H      15.54168649    19.62107593    12.80449671

