126
XYZ file of cluster: frame_1500_7262f.23b16.82cf - created by MolEdiTo
 O      18.46500000      15.65300000       5.71000000
 H      18.10900000      15.00800000       6.39400000
 H      17.87700000      16.40700000       5.77200000
 O      24.85800000       6.21500000       8.64200000
 H      25.82000000       6.29900000       8.37400000
 H      24.71000000       7.20700000       8.72700000
 O      24.31500000      14.83700000       3.91500000
 H      24.52600000      14.13000000       4.59100000
 H      24.93300000      15.54300000       4.05500000
 O      23.31700000       7.68300000       5.42300000
 H      22.73200000       7.97800000       4.67100000
 H      22.68400000       7.69800000       6.15000000
 O      18.86500000      10.38000000       2.56600000
 H      18.19300000       9.82400000       2.09800000
 H      19.76700000      10.12400000       2.32200000
 O      17.91700000       5.64900000       6.67800000
 H      18.13700000       6.21300000       7.52000000
 H      17.28600000       4.95700000       7.03600000
 O      22.21300000       5.14100000       8.48600000
 H      23.18500000       5.41500000       8.38000000
 H      22.00800000       4.58200000       7.68100000
 O      21.69800000       9.58200000       4.14400000
 H      20.75000000       9.62600000       3.96200000
 H      21.92500000      10.49900000       4.35700000
 O      19.61900000      12.21700000       8.47900000
 H      19.02400000      13.03300000       8.39300000
 H      20.28500000      12.33900000       7.82100000
 O      25.81400000      12.84000000      10.84800000
 H      25.83900000      13.63800000      11.44300000
 H      25.84900000      13.25700000      10.03000000
 O      21.41000000      15.53300000       2.39500000
 H      21.65000000      16.34200000       1.82600000
 H      22.22200000      15.03300000       2.51800000
 O      22.00300000      15.67800000       5.31400000
 H      21.72200000      14.75400000       5.33200000
 H      22.83400000      15.60900000       4.81700000
 O      25.55500000      16.20600000       1.57100000
 H      25.02300000      15.45600000       1.26000000
 H      24.99300000      16.89400000       1.06600000
 O      22.19500000      12.33200000       7.30500000
 H      23.18400000      12.41800000       7.01900000
 H      22.22100000      11.83800000       8.13500000
 O      17.17100000      10.34300000       7.68600000
 H      16.95400000      10.46900000       8.61400000
 H      17.52500000      11.23400000       7.40100000
 O      20.41000000      16.11200000       8.09100000
 H      20.61500000      16.38700000       7.17900000
 H      20.42700000      15.14400000       8.14000000
 O      22.94700000       4.77600000       4.48600000
 H      22.05200000       4.59100000       4.80700000
 H      22.90000000       5.73000000       4.55700000
 O      16.91400000       7.83900000       9.86000000
 H      16.45300000       8.29900000      10.53900000
 H      17.71500000       7.40900000      10.31700000
 O      15.45300000       7.40100000       7.56500000
 H      15.37200000       8.21300000       6.99200000
 H      16.13500000       7.63300000       8.23700000
 O      16.92300000      13.72500000       1.90200000
 H      16.49800000      14.61600000       2.13600000
 H      16.42500000      12.94300000       2.45200000
 O      19.82500000       9.33900000       8.71800000
 H      19.66100000      10.28400000       8.53500000
 H      18.95900000       9.09000000       8.96600000
 O      15.58600000      11.28600000       3.34900000
 H      15.71600000      10.95600000       2.45400000
 H      14.70800000      10.93000000       3.64200000
 O      18.50900000      11.59400000       4.90200000
 H      18.37700000      11.14600000       3.99800000
 H      17.65600000      12.06800000       5.14000000
 O      24.40800000       9.77800000       2.71300000
 H      24.31000000      10.71600000       2.62100000
 H      23.79100000       9.56200000       3.40900000
 O      20.73500000       7.10700000       7.11300000
 H      20.65800000       7.92800000       7.64400000
 H      21.24700000       6.56300000       7.74600000
 O      21.32600000      12.22300000       4.49100000
 H      20.40900000      12.34900000       4.28700000
 H      21.33500000      12.18100000       5.48400000
 O      17.33400000       8.07200000       1.61800000
 H      16.60900000       7.39000000       1.81200000
 H      17.82600000       8.06000000       2.50300000
 O      16.87600000      16.36100000       3.44500000
 H      17.78800000      16.21500000       3.78800000
 H      16.45200000      15.63400000       4.06700000
 O      21.74800000       7.25500000      11.10600000
 H      21.48300000       7.32700000      12.06700000
 H      20.95600000       7.28500000      10.57300000
 O      16.50000000      11.01600000      10.74900000
 H      16.19700000      10.97400000      11.67500000
 H      15.87300000      11.72600000      10.46800000
 O      16.04900000       8.97200000       5.47700000
 H      15.88900000       9.76700000       4.82900000
 H      16.52200000       9.40200000       6.25800000
 O      17.97600000       7.32100000       4.46700000
 H      17.11700000       7.65900000       4.75100000
 H      18.21200000       6.75600000       5.19800000
 O      25.23200000       6.08300000       2.72800000
 H      25.36300000       7.01200000       2.47800000
 H      24.29500000       6.04000000       3.06500000
 O      17.63600000      14.13800000       7.92600000
 H      17.64000000      14.09600000       8.93700000
 H      16.73100000      13.86400000       7.64300000
 O      25.71000000      10.33300000       9.87100000
 H      25.74100000      11.03800000      10.56900000
 H      26.24900000       9.60200000      10.28600000
 O      20.29300000       5.88600000       3.86400000
 H      20.25500000       5.32000000       4.66800000
 H      19.72600000       6.70900000       4.06700000
 O      24.83900000      12.47100000       5.99300000
 H      25.13500000      12.12200000       5.19500000
 H      25.34700000      12.04900000       6.67800000
 O      19.68500000      13.46200000       1.56900000
 H      18.75400000      13.46600000       1.86000000
 H      20.04800000      14.34500000       1.83100000
 O      26.06900000      12.40900000       3.20000000
 H      25.76000000      13.18700000       2.73200000
 H      26.99100000      12.25200000       2.83400000
 O      26.47700000       8.10100000       6.98500000
 H      25.81400000       8.03200000       6.26800000
 H      27.28200000       7.64100000       6.61700000
 O      22.72900000      12.48600000       2.04100000
 H      22.67000000      12.60800000       3.05900000
 H      21.81400000      12.37800000       1.79600000
 O      22.10500000       6.24700000       1.85700000
 H      21.71300000       7.10500000       1.51200000
 H      21.41400000       5.93600000       2.41500000
