156
XYZ file of cluster: frame_1500_46f37.c2cad.1ee47 - created by MolEdiTo
 O      20.80700000      25.70900000      11.70500000
 H      20.48600000      25.00600000      11.07000000
 H      20.60600000      26.56200000      11.27100000
 O      20.21500000      27.68900000       5.82000000
 H      20.42000000      27.35000000       6.68100000
 H      20.86000000      27.15100000       5.28000000
 O      19.87900000      26.03700000       8.07700000
 H      19.59700000      25.28500000       8.61700000
 H      19.94800000      26.73700000       8.75800000
 O      16.02900000      28.32600000       8.51900000
 H      16.78500000      28.30300000       7.91800000
 H      16.30600000      28.01200000       9.42800000
 O      17.76600000      30.44800000       9.94300000
 H      16.84200000      30.82700000      10.08900000
 H      18.10700000      31.18500000       9.43400000
 O      12.63100000      29.17700000      15.87900000
 H      12.48600000      28.37100000      16.46500000
 H      13.57700000      29.37500000      15.79600000
 O      13.11900000      26.10800000      10.78200000
 H      14.03600000      26.42600000      10.65800000
 H      12.97900000      26.37000000      11.70100000
 O      16.33200000      30.46800000       5.72100000
 H      17.19900000      30.16700000       6.01100000
 H      15.75700000      29.90600000       6.40800000
 O      14.24600000      29.62400000      10.37500000
 H      13.49000000      29.13200000       9.82900000
 H      14.38600000      30.38700000       9.83400000
 O      19.24900000      27.99200000      10.11900000
 H      18.47400000      28.50500000       9.85900000
 H      19.84700000      28.74500000      10.39600000
 O      18.28900000      28.19700000      12.99300000
 H      18.28900000      28.05800000      11.99700000
 H      17.58900000      27.58200000      13.31400000
 O      10.37500000      29.08300000      13.42900000
 H      10.84300000      29.85200000      13.53600000
 H      10.43100000      28.78200000      14.40500000
 O      14.21300000      26.06600000       7.45000000
 H      14.66400000      26.76900000       7.06900000
 H      14.85300000      25.44600000       7.90700000
 O      15.51000000      26.72400000      13.10200000
 H      15.22100000      26.07000000      13.84000000
 H      14.83200000      27.40900000      12.97600000
 O      12.09500000      27.86100000       8.60000000
 H      11.73300000      27.39800000       7.78600000
 H      12.63200000      27.09400000       8.93800000
 O      20.63000000      29.98300000      11.86200000
 H      19.97900000      29.52900000      12.46900000
 H      21.56600000      29.88500000      12.17800000
 O      13.51000000      28.99800000      12.92200000
 H      12.56200000      28.86600000      12.74600000
 H      13.80500000      29.23500000      11.98200000
 O      10.52500000      29.49000000       9.14700000
 H      10.95500000      30.01700000       9.85800000
 H      11.20300000      29.38800000       8.40600000
 O      11.55300000      26.38600000       6.25000000
 H      11.19400000      26.37500000       5.36200000
 H      12.46400000      26.09000000       6.29100000
 O      16.43200000      26.27600000      10.58200000
 H      16.05800000      26.17300000      11.48000000
 H      17.32200000      25.86800000      10.73700000
 O      11.49300000      30.37700000       7.29200000
 H      12.06000000      31.12900000       7.18700000
 H      12.15800000      29.60800000       7.46600000
 O      18.86700000      29.84800000       6.42400000
 H      19.35900000      30.23900000       5.65900000
 H      19.21700000      28.87700000       6.46900000
 O      20.11100000      26.52700000      16.71100000
 H      19.82900000      25.86200000      17.38500000
 H      20.23200000      26.03600000      15.81600000
 O      11.26600000      26.01700000      10.06000000
 H      12.15400000      26.34100000      10.14300000
 H      11.10300000      25.82700000       9.04700000
 O      18.52600000      28.94200000      15.86400000
 H      18.42700000      29.02100000      14.89800000
 H      18.76200000      28.02400000      16.07800000
 O      19.19400000      34.63800000      11.89500000
 H      18.99700000      33.89600000      11.29900000
 H      19.07200000      34.29700000      12.77200000
 O      13.27600000      32.61700000       6.56800000
 H      13.70600000      32.73800000       5.71300000
 H      12.81200000      33.42400000       6.86300000
 O      15.35100000      33.07100000      15.53800000
 H      15.15400000      32.38400000      16.21900000
 H      15.26900000      32.70300000      14.67400000
 O      20.86000000      32.82000000      13.71600000
 H      21.58000000      32.20200000      13.83800000
 H      21.25900000      33.71200000      13.99600000
 O      13.13600000      32.86300000      13.34500000
 H      13.61200000      33.66000000      13.86000000
 H      13.76200000      32.17400000      13.07400000
 O      14.57000000      34.89600000      15.25900000
 H      14.58800000      35.77900000      14.76000000
 H      15.50900000      34.85700000      15.61500000
 O      10.74000000      32.57200000      15.00100000
 H      11.26300000      31.88800000      15.53500000
 H      11.32600000      32.96100000      14.29200000
 O      17.91700000      36.99000000       6.67800000
 H      18.13700000      37.55400000       7.52000000
 H      17.28600000      36.29800000       7.03600000
 O      15.41000000      35.85300000       8.63400000
 H      15.31600000      36.83700000       8.62300000
 H      14.57000000      35.46000000       8.62700000
 O      16.15300000      33.21900000      12.69300000
 H      16.20400000      33.45000000      11.70900000
 H      16.57900000      32.37500000      12.75200000
 O      11.40100000      32.93200000       5.56300000
 H      11.78400000      33.77200000       5.75000000
 H      12.13000000      32.31000000       5.51400000
 O      11.96700000      36.51700000      14.68800000
 H      12.01500000      35.74200000      15.26200000
 H      12.93700000      36.75200000      14.56000000
 O      14.87800000      37.07400000       5.18900000
 H      15.06800000      37.73200000       5.89200000
 H      14.99200000      36.16900000       5.55800000
 O      10.44500000      36.56200000      10.36800000
 H      10.31600000      35.92400000      11.15300000
 H      11.25400000      37.02500000      10.49400000
 O      20.21000000      35.40000000       6.26000000
 H      19.40500000      35.87700000       6.38000000
 H      19.90700000      34.54200000       6.51500000
 O      19.43300000      32.43100000       4.73900000
 H      18.77100000      32.32200000       4.02800000
 H      18.86600000      32.95300000       5.40900000
 O      17.36400000      34.19200000      14.48900000
 H      17.63800000      33.65900000      15.20000000
 H      16.68600000      33.63100000      13.93100000
 O      18.05300000      37.24600000      14.89400000
 H      17.08800000      37.27200000      15.12500000
 H      18.22400000      36.34000000      14.58800000
 O      18.87900000      33.35400000       9.07000000
 H      19.65000000      32.76100000       8.86100000
 H      19.30500000      34.15700000       9.46700000
 O      17.06800000      33.84800000       6.26800000
 H      17.50400000      33.26400000       6.91500000
 H      16.28200000      33.35600000       6.00200000
 O      15.51400000      35.45000000      12.32100000
 H      15.89500000      34.53400000      12.37100000
 H      15.95900000      35.88500000      11.52600000
 O      12.78100000      33.51700000      10.47000000
 H      13.14900000      33.64200000      11.35900000
 H      11.90800000      33.01100000      10.62200000
 O      11.24100000      32.95400000      11.42100000
 H      11.18700000      33.66800000      12.11400000
 H      10.28800000      32.79500000      11.19400000
 O      11.93700000      34.86100000       7.89500000
 H      11.84900000      34.58400000       8.86600000
 H      12.52800000      35.69700000       7.91800000
 O      10.19500000      35.31400000       7.69900000
 H      10.47000000      35.65200000       8.57900000
 H      11.04800000      34.84800000       7.43300000
 O      16.30600000      33.15800000       9.80300000
 H      17.00000000      33.55200000       9.25100000
 H      15.52600000      33.77400000       9.68900000
 O      10.06700000      34.50400000      12.69700000
 H      10.51600000      35.20900000      13.22100000
 H       9.12300000      34.75300000      12.73800000
