111
XYZ file of cluster: frame_1500_9d570.77bec.98be8 - created by MolEdiTo
 O      25.43100000      21.38600000      25.73100000
 H      25.80200000      20.74900000      25.10400000
 H      26.20000000      21.33000000      26.41800000
 O      26.38100000      17.44300000      24.39200000
 H      26.39900000      18.41200000      24.30200000
 H      25.62300000      17.07900000      23.90000000
 O      23.39800000      22.52600000      22.69800000
 H      22.53500000      22.35900000      23.20900000
 H      23.55700000      21.59400000      22.29800000
 O      27.68000000      20.59600000      27.77100000
 H      28.27100000      20.10100000      27.26600000
 H      27.44500000      19.91900000      28.46900000
 O      22.14800000      26.28200000      30.36900000
 H      22.01100000      25.73100000      31.16900000
 H      22.80200000      26.87500000      30.88300000
 O      20.97500000      22.13000000      25.18500000
 H      20.47600000      21.45800000      24.57500000
 H      20.31100000      22.43300000      25.85200000
 O      23.13400000      23.39900000      26.44900000
 H      22.67000000      23.03700000      25.69000000
 H      24.08400000      23.09000000      26.34500000
 O      26.92500000      15.37200000      26.27700000
 H      27.10100000      15.84700000      25.43000000
 H      27.19200000      15.99400000      26.91300000
 O      26.68400000      19.96300000      23.56400000
 H      27.64000000      19.75700000      23.54700000
 H      26.50300000      20.09000000      22.64100000
 O      26.15400000      20.94900000      20.90600000
 H      25.73400000      21.74600000      21.23700000
 H      26.22000000      21.03000000      19.91600000
 O      26.27600000      23.02800000      23.58600000
 H      26.56300000      23.79000000      24.08100000
 H      25.57600000      22.67700000      24.13200000
 O      29.54000000      18.68400000      24.50900000
 H      30.35000000      19.14900000      24.85500000
 H      29.89900000      17.97800000      23.98600000
 O      27.56300000      19.00500000      29.99800000
 H      28.22100000      18.21800000      30.07600000
 H      27.95300000      19.82600000      30.47000000
 O      21.53400000      26.29300000      21.67500000
 H      20.99400000      26.82400000      22.30600000
 H      20.84900000      25.89200000      21.05200000
 O      23.22100000      16.60800000      26.85500000
 H      23.98500000      17.07200000      27.29400000
 H      22.74500000      17.33200000      26.44800000
 O      23.00200000      19.25800000      29.13800000
 H      23.86100000      19.04600000      29.50300000
 H      23.23800000      19.17700000      28.13300000
 O      28.68800000      23.06100000      28.79500000
 H      28.75900000      22.98500000      29.75800000
 H      28.20500000      22.24500000      28.45500000
 O      29.16800000      25.89500000      29.71000000
 H      28.58800000      25.63200000      30.50500000
 H      30.14400000      25.90900000      30.09600000
 O      28.43900000      17.35000000      27.29200000
 H      28.98500000      17.97100000      27.93200000
 H      28.22700000      17.96800000      26.52200000
 O      24.00800000      25.25300000      22.37200000
 H      23.82000000      24.30800000      22.29200000
 H      23.27900000      25.74400000      21.86700000
 O      29.57300000      16.79400000      30.25000000
 H      29.72200000      16.71800000      29.24600000
 H      29.61100000      15.85300000      30.58100000
 O      23.72700000      22.10700000      29.05500000
 H      23.01600000      21.35700000      29.13000000
 H      23.44200000      22.60900000      28.29600000
 O      29.21000000      15.85400000      21.11400000
 H      28.25700000      15.98800000      20.90800000
 H      29.18700000      15.70600000      22.07500000
 O      24.36600000      26.25400000      25.00200000
 H      24.32000000      25.87000000      24.12200000
 H      23.48600000      26.40300000      25.36200000
 O      28.52700000      22.61200000      25.50100000
 H      28.14200000      23.47100000      25.71100000
 H      27.97500000      22.01600000      25.97800000
 O      22.95700000      19.98000000      21.51600000
 H      22.76400000      19.03500000      21.80300000
 H      23.71900000      19.87700000      20.92500000
 O      29.08600000      22.08300000      22.25200000
 H      29.22500000      23.02600000      22.15700000
 H      28.31100000      21.94900000      22.76400000
 O      25.68200000      17.20100000      28.82400000
 H      26.47300000      17.76200000      29.14400000
 H      25.99200000      16.44900000      28.23500000
 O      30.25700000      19.34700000      28.35900000
 H      30.86200000      18.82400000      28.95200000
 H      30.66000000      20.25600000      28.55100000
 O      29.36700000      25.09000000      22.58600000
 H      30.14000000      25.04400000      23.19700000
 H      28.65400000      25.14800000      23.22400000
 O      26.88400000      17.63000000      20.64800000
 H      26.47200000      18.00200000      21.46100000
 H      27.68000000      18.19600000      20.61200000
 O      27.24000000      25.56000000      24.34500000
 H      27.27300000      25.72100000      25.36100000
 H      27.23000000      26.45700000      23.98600000
 O      23.49800000      16.27600000      22.50100000
 H      23.66400000      16.67100000      21.59700000
 H      22.61500000      15.84500000      22.41400000
 O      23.16000000      19.59200000      26.15800000
 H      22.19000000      19.73800000      25.85200000
 H      23.67800000      20.41100000      25.95200000
 O      27.20100000      25.45500000      27.13200000
 H      26.64000000      26.03700000      27.74200000
 H      27.81900000      25.06500000      27.74600000
 O      20.42900000      23.63400000      28.01800000
 H      20.23100000      24.53600000      28.47000000
 H      21.22400000      23.76800000      27.45700000
 O      29.41600000      19.41600000      21.34000000
 H      29.18300000      20.19600000      21.94100000
 H      30.37700000      19.57400000      21.07900000
