96
XYZ file of cluster: frame_1500_0.a22d2.9f436 - created by MolEdiTo
 O       8.07700000      25.31700000      30.16000000
 H       7.51700000      25.99300000      29.87100000
 H       8.16000000      24.83400000      29.30000000
 O       5.20500000      27.81800000      22.49200000
 H       5.21400000      27.44200000      21.62500000
 H       4.26300000      27.74800000      22.94200000
 O       3.10000000      26.05200000      26.48900000
 H       3.20300000      26.91000000      27.01200000
 H       2.27300000      25.76300000      26.96000000
 O       6.71500000      22.99600000      21.20800000
 H       6.90300000      23.64600000      21.88000000
 H       5.73600000      23.10600000      20.96900000
 O       8.31000000      20.93300000      26.45800000
 H       7.93100000      21.45700000      27.17100000
 H       9.16100000      21.37900000      26.30400000
 O       4.95000000      23.58400000      27.56600000
 H       4.74200000      24.43900000      27.91600000
 H       4.16500000      23.20500000      27.05100000
 O       3.94800000      28.48300000      29.87400000
 H       3.37200000      29.30400000      29.80900000
 H       4.96000000      28.85600000      29.83000000
 O       9.72000000      22.15600000      21.65500000
 H       9.35900000      21.93100000      20.76600000
 H       8.85400000      22.02700000      22.18200000
 O      10.50100000      30.55900000      25.30200000
 H      10.06000000      29.68400000      25.31800000
 H       9.81800000      31.19700000      25.02000000
 O       9.96600000      25.26000000      25.12300000
 H      10.31100000      24.59000000      24.51100000
 H       9.70700000      26.01600000      24.63700000
 O       5.84800000      21.82100000      29.84400000
 H       5.44000000      22.39700000      29.13200000
 H       5.86100000      20.94600000      29.36300000
 O       0.83100000      24.97300000      27.65700000
 H       0.34200000      24.21600000      28.09300000
 H       0.63500000      25.72400000      28.17700000
 O       9.47000000      28.34500000      30.24200000
 H       9.78700000      29.31100000      30.30300000
 H      10.31200000      27.93300000      30.44400000
 O      11.34500000      30.47800000      21.80300000
 H      10.43600000      30.93000000      21.77600000
 H      11.89900000      31.05300000      21.21500000
 O       5.40000000      26.34900000      28.96500000
 H       5.30400000      26.88000000      28.13400000
 H       4.67600000      26.69400000      29.51700000
 O       6.86200000      30.25200000      22.39500000
 H       6.50700000      29.49300000      22.94000000
 H       6.16200000      30.92600000      22.17600000
 O       2.45700000      27.31200000      24.01600000
 H       2.68000000      26.88000000      24.84200000
 H       1.64800000      27.93800000      24.10700000
 O       1.94300000      26.39100000      30.73900000
 H       2.55500000      27.15100000      30.63300000
 H       1.67300000      26.41500000      31.66300000
 O       6.34100000      27.94200000      26.71800000
 H       6.71200000      27.05900000      26.39300000
 H       7.15600000      28.40800000      27.08700000
 O       9.35700000      28.07800000      27.36500000
 H       9.50500000      28.28500000      28.33400000
 H       9.20300000      27.07800000      27.54900000
 O       2.17300000      30.35500000      30.21500000
 H       2.51400000      30.01800000      31.09000000
 H       2.15000000      31.30300000      30.31500000
 O       2.16800000      22.64200000      28.94000000
 H       2.41900000      22.57300000      29.87900000
 H       1.66100000      23.43100000      29.01500000
 O       7.93200000      24.80100000      27.20400000
 H       7.12600000      24.39000000      26.88500000
 H       8.50300000      24.93700000      26.47600000
 O       6.67900000      25.48800000      22.79700000
 H       5.96500000      25.29600000      23.44600000
 H       6.44800000      26.35400000      22.55700000
 O       4.23800000      24.63100000      24.39900000
 H       3.88100000      24.99400000      25.22400000
 H       3.61600000      24.00200000      23.96600000
 O       4.55100000      29.59300000      24.94900000
 H       4.96300000      28.94700000      24.37200000
 H       5.13700000      29.38900000      25.73900000
 O       3.01400000      25.40200000      21.57300000
 H       2.71300000      24.48700000      21.62200000
 H       2.78200000      25.87200000      22.42200000
 O       2.43100000      22.72100000      23.01200000
 H       2.31300000      21.88000000      23.37900000
 H       1.84200000      23.25600000      23.60600000
 O       2.42400000      29.07900000      27.15400000
 H       2.71600000      29.52100000      26.38600000
 H       2.58500000      29.63200000      27.90900000
 O       2.54200000      21.71400000      26.05400000
 H       2.19800000      22.06600000      26.87700000
 H       2.95800000      20.81900000      26.19600000
 O       9.40000000      27.78800000      23.31600000
 H      10.38600000      27.91000000      23.25700000
 H       9.00900000      28.67000000      23.47700000
 O       0.79100000      23.97000000      24.90300000
 H       1.20000000      24.40800000      25.61900000
 H       0.00000000      23.50100000      25.16200000
