129
XYZ file of cluster: frame_1500_751fc.c975d.72425 - created by MolEdiTo
 O      22.61400000      29.89000000      17.73900000
 H      22.74300000      29.45700000      18.59700000
 H      21.67400000      29.87900000      17.71700000
 O      21.76500000      28.52500000      15.40500000
 H      20.97500000      28.24200000      15.85900000
 H      22.45400000      28.66500000      16.11600000
 O      18.86400000      27.53900000      23.03500000
 H      19.00000000      28.42000000      23.36300000
 H      18.12000000      27.62600000      22.37500000
 O      16.12300000      28.31000000      18.27700000
 H      16.39200000      27.45600000      18.71900000
 H      16.56200000      28.16300000      17.44200000
 O      23.51600000      27.68900000      19.19300000
 H      23.60600000      27.25400000      18.31000000
 H      23.91300000      26.98400000      19.71800000
 O      22.87200000      28.75200000      23.09800000
 H      23.86500000      28.76200000      22.78900000
 H      22.45000000      28.11400000      22.51500000
 O      21.53400000      26.29300000      21.67500000
 H      20.99400000      26.82400000      22.30600000
 H      20.84900000      25.89200000      21.05200000
 O      26.63700000      27.77200000      18.37600000
 H      27.44700000      27.24200000      18.07800000
 H      25.89600000      27.21200000      18.41700000
 O      25.25600000      30.46300000      19.35300000
 H      24.95200000      29.54100000      19.31500000
 H      26.21900000      30.33800000      19.22600000
 O      23.19500000      29.53600000      25.84500000
 H      22.34500000      29.98000000      26.14300000
 H      23.18400000      29.63600000      24.87000000
 O      24.36600000      26.25400000      25.00200000
 H      24.32000000      25.87000000      24.12200000
 H      23.48600000      26.40300000      25.36200000
 O      19.88200000      30.19900000      18.04000000
 H      19.39000000      29.89100000      17.26100000
 H      19.04100000      30.32100000      18.52900000
 O      16.27500000      26.79700000      21.48400000
 H      15.67700000      27.31000000      22.06000000
 H      15.61400000      26.48200000      20.88000000
 O      26.60400000      29.62400000      16.16200000
 H      26.10000000      29.14400000      15.47500000
 H      26.55000000      29.11700000      17.00300000
 O      25.69800000      28.41300000      26.10100000
 H      24.77100000      28.77700000      26.15300000
 H      25.53000000      27.51100000      25.63700000
 O      20.11100000      26.52700000      16.71100000
 H      19.82900000      25.86200000      17.38500000
 H      20.23200000      26.03600000      15.81600000
 O      19.09900000      27.68400000      19.69600000
 H      19.40800000      26.74700000      19.35000000
 H      19.37500000      28.28900000      18.97300000
 O      17.45300000      30.14000000      19.66500000
 H      17.98700000      29.31300000      19.94300000
 H      17.88500000      30.96800000      20.00200000
 O      18.52600000      28.94200000      15.86400000
 H      18.42700000      29.02100000      14.89800000
 H      18.76200000      28.02400000      16.07800000
 O      21.87000000      33.62600000      25.86000000
 H      22.61600000      33.99200000      25.34300000
 H      22.30900000      32.92700000      26.32200000
 O      18.86400000      35.69000000      17.95400000
 H      18.40600000      34.96900000      17.52500000
 H      19.85200000      35.45000000      17.81900000
 O      17.29200000      33.62200000      22.04900000
 H      16.57000000      34.06400000      21.48800000
 H      18.08900000      34.14700000      21.84000000
 O      24.13000000      33.13600000      15.40700000
 H      23.62000000      33.99400000      15.54300000
 H      23.78600000      32.60000000      16.14100000
 O      23.17100000      33.00700000      18.54600000
 H      23.87000000      32.66100000      19.17100000
 H      22.93500000      32.22600000      18.08800000
 O      24.78700000      36.52300000      23.62000000
 H      25.51500000      37.09700000      23.93800000
 H      24.01900000      36.56300000      24.27600000
 O      24.45300000      34.93100000      16.50900000
 H      24.67200000      34.33800000      17.28300000
 H      25.05500000      35.66900000      16.59600000
 O      18.63700000      32.56500000      25.77200000
 H      18.16100000      32.31000000      26.61200000
 H      18.52100000      33.51800000      25.74700000
 O      20.76600000      33.11300000      23.61800000
 H      20.51100000      33.52800000      24.44200000
 H      20.46400000      32.21200000      23.70900000
 O      15.83600000      32.28000000      18.46700000
 H      16.30600000      32.30400000      19.37200000
 H      15.98100000      31.34100000      18.12500000
 O      18.44900000      33.32400000      19.81000000
 H      18.23300000      33.81400000      19.00900000
 H      19.37300000      33.18500000      19.73300000
 O      20.44400000      36.92900000      25.86500000
 H      19.85500000      37.67900000      26.01900000
 H      19.98100000      36.09600000      26.22100000
 O      15.06000000      32.35400000      21.24200000
 H      15.71900000      31.81300000      20.81600000
 H      15.49900000      32.68500000      22.11700000
 O      16.34100000      35.75100000      24.27100000
 H      16.74100000      35.54100000      23.38700000
 H      15.83400000      36.62600000      24.12300000
 O      16.75200000      33.77800000      25.93100000
 H      16.65100000      34.75600000      25.87600000
 H      16.10000000      33.54000000      25.30900000
 O      20.07300000      34.25500000      21.89100000
 H      20.25800000      33.56400000      22.61500000
 H      20.79300000      34.92900000      21.91500000
 O      16.38400000      32.65700000      23.87000000
 H      17.19000000      32.43200000      24.46100000
 H      16.71600000      33.46700000      23.39700000
 O      24.66700000      34.11900000      25.10500000
 H      24.86600000      34.79300000      24.37200000
 H      25.59700000      33.69200000      25.17700000
 O      25.40800000      32.37300000      22.24700000
 H      25.19500000      32.00000000      21.35700000
 H      24.63300000      32.91900000      22.39100000
 O      21.39000000      34.97500000      17.59200000
 H      21.89500000      34.19500000      17.89700000
 H      21.57500000      34.85200000      16.64100000
 O      21.13000000      36.41200000      19.28500000
 H      21.73400000      35.63900000      19.44000000
 H      20.28200000      36.07100000      19.47700000
 O      22.48800000      36.20100000      21.83700000
 H      22.79300000      36.67200000      21.04400000
 H      23.18100000      36.17500000      22.52700000
 O      16.90600000      33.52700000      17.44100000
 H      16.55700000      32.62700000      17.80100000
 H      16.18000000      33.70500000      16.80000000
 O      18.07900000      36.46000000      19.68200000
 H      18.07200000      36.25800000      18.67300000
 H      17.21400000      36.39400000      20.07800000
