126
XYZ file of cluster: frame_1500_280b7.22ca1.c4292 - created by MolEdiTo
 O      15.29600000       4.95700000      29.14200000
 H      14.70100000       4.85400000      28.40600000
 H      16.05300000       5.36800000      28.65200000
 O      11.45100000      14.58300000      27.54000000
 H      11.64600000      14.58300000      26.57000000
 H      11.58100000      15.49400000      27.79500000
 O       5.14900000      14.95200000      29.68400000
 H       5.60300000      15.67700000      29.23900000
 H       5.64900000      14.88600000      30.52500000
 O       5.72300000      11.57400000      30.91000000
 H       5.47200000      11.63400000      31.77900000
 H       5.89000000      10.62300000      30.83600000
 O       6.06400000      10.14700000      26.54600000
 H       6.63900000      10.42400000      27.24500000
 H       5.50400000      10.91400000      26.41300000
 O      15.75900000      14.73000000      26.06500000
 H      15.75100000      14.26600000      27.03100000
 H      15.13500000      14.19400000      25.57700000
 O       8.08800000       4.46600000      29.26800000
 H       8.09400000       4.83400000      28.32300000
 H       8.22100000       5.26800000      29.82400000
 O      12.04000000       5.98800000      28.54800000
 H      12.07600000       5.87800000      29.46200000
 H      11.16500000       5.64000000      28.34200000
 O      15.39300000      11.88300000      27.42900000
 H      16.18000000      11.33100000      27.23800000
 H      14.85500000      11.42100000      28.13400000
 O       7.08900000      12.32400000      28.44800000
 H       6.51000000      12.29300000      29.27300000
 H       7.92400000      12.24500000      28.90900000
 O      12.96500000       8.01900000      28.21400000
 H      13.29200000       7.53000000      27.39700000
 H      13.75500000       8.50700000      28.51700000
 O       8.86600000       6.75300000      30.38600000
 H       8.35700000       7.45100000      30.73100000
 H       9.82100000       6.92200000      30.52100000
 O       8.70900000       7.46500000      27.19400000
 H       8.28100000       7.11500000      26.36300000
 H       8.11700000       7.04700000      27.94500000
 O      11.37900000      13.51900000      30.25600000
 H      11.20200000      13.68700000      29.33400000
 H      12.12200000      14.12600000      30.55400000
 O       6.30300000       8.62600000      29.12600000
 H       7.19800000       8.73700000      28.77500000
 H       5.71300000       8.33200000      28.31500000
 O      15.50800000      15.83000000      29.86000000
 H      14.82900000      16.40400000      30.33500000
 H      15.20500000      14.95200000      30.13000000
 O       7.68700000      14.09000000      30.80400000
 H       7.07700000      14.04200000      31.59900000
 H       7.83500000      13.15400000      30.77100000
 O      11.42600000       8.73100000      27.01100000
 H      11.79100000       8.15400000      27.81000000
 H      10.41200000       8.77600000      27.20200000
 O      12.32200000      10.93100000      28.15700000
 H      11.63300000      11.23100000      27.47900000
 H      12.15900000       9.98300000      28.10000000
 O      11.85500000       8.71800000      30.53900000
 H      12.29000000       8.29800000      29.76400000
 H      12.55700000       9.28000000      30.88000000
 O       7.21400000      14.40100000      26.83800000
 H       7.63900000      15.07700000      27.41400000
 H       7.31000000      13.46500000      27.17500000
 O      12.45700000      12.27300000      37.68700000
 H      12.48800000      11.56900000      36.92800000
 H      11.75700000      12.80400000      37.27600000
 O      10.04000000      15.53900000      33.84500000
 H       9.10000000      15.74800000      33.56900000
 H      10.23800000      14.69300000      33.36000000
 O      10.69600000       9.47900000      35.89400000
 H      11.31700000       9.85600000      35.23400000
 H      10.66600000       8.57100000      35.49600000
 O       6.81500000      15.09700000      35.42600000
 H       6.33600000      14.44700000      35.90100000
 H       7.67700000      14.98200000      35.84900000
 O       8.78700000      11.57900000      33.07200000
 H       9.72400000      11.22700000      32.91100000
 H       8.56900000      11.03500000      33.89200000
 O      14.87800000       5.73300000      37.02200000
 H      15.06800000       6.39100000      37.72500000
 H      14.99200000       4.82800000      37.39100000
 O      10.92900000       5.83800000      36.96900000
 H      10.78500000       5.65200000      37.92400000
 H      10.19700000       6.46800000      36.66100000
 O      15.19400000       5.79600000      33.63900000
 H      14.94400000       5.01500000      34.05700000
 H      14.99900000       5.69100000      32.69200000
 O      13.88900000       8.33000000      34.69600000
 H      14.31100000       7.93600000      33.93400000
 H      13.93600000       7.65700000      35.40500000
 O       8.90300000      14.35600000      37.27500000
 H       9.89200000      14.19200000      37.05400000
 H       8.96900000      14.95800000      38.01400000
 O      15.58600000      11.28600000      35.18200000
 H      15.71600000      10.95600000      34.28700000
 H      14.70800000      10.93000000      35.47500000
 O       8.51000000       5.25400000      34.93500000
 H       8.99000000       4.60500000      34.37000000
 H       8.17500000       4.64400000      35.66500000
 O      14.17700000      14.60000000      35.98100000
 H      14.55000000      15.00500000      36.73500000
 H      13.18300000      14.60800000      36.20300000
 O       7.03300000       7.36600000      36.60500000
 H       7.72000000       6.84300000      36.32700000
 H       6.62600000       6.95300000      37.47500000
 O      12.60000000      10.56800000      35.40100000
 H      12.82000000       9.60700000      35.10100000
 H      12.54000000      11.11000000      34.57000000
 O      11.28500000      10.89700000      32.99500000
 H      11.67100000      11.76200000      32.76300000
 H      11.74800000      10.25600000      32.49800000
 O       5.61000000      11.21800000      35.87100000
 H       6.33500000      10.58900000      35.96000000
 H       5.44200000      11.55200000      36.74600000
 O      11.24800000       7.23900000      33.88400000
 H      11.87400000       7.71500000      33.26100000
 H      11.60700000       6.39200000      34.16400000
 O      13.44100000      11.16300000      32.82100000
 H      13.04000000      11.27600000      31.83300000
 H      14.37800000      11.05900000      32.56400000
 O      13.04400000      15.45300000      33.31200000
 H      13.34400000      15.06100000      34.19200000
 H      12.29100000      16.03200000      33.55700000
 O       7.98100000      10.22400000      35.39300000
 H       7.80600000       9.25100000      35.63200000
 H       8.87400000      10.43700000      35.73300000
