105
XYZ file of cluster: frame_1500_a106b.424f.c4139 - created by MolEdiTo
 O      22.19700000       7.54000000      28.40300000
 H      23.08900000       7.10000000      28.36100000
 H      21.58200000       6.79300000      28.57900000
 O      25.34000000       4.44000000      27.70000000
 H      25.46800000       3.97000000      26.85100000
 H      24.49600000       4.08000000      28.15300000
 O      24.21000000       6.22400000      30.02700000
 H      25.17300000       6.34900000      30.32300000
 H      23.61000000       6.66500000      30.65500000
 O      27.03000000       4.39300000      30.21000000
 H      26.31400000       4.43500000      29.48700000
 H      27.28600000       3.46600000      30.06800000
 O      29.81000000       9.72100000      30.24800000
 H      30.14700000      10.48900000      29.82700000
 H      29.05100000      10.00100000      30.67800000
 O      20.78200000       5.28800000      29.18700000
 H      20.70500000       4.31800000      29.19100000
 H      21.21800000       5.42900000      30.11200000
 O      21.04800000       8.75000000      30.55500000
 H      21.54100000       8.49600000      29.72800000
 H      21.25800000       9.61600000      30.74600000
 O      25.62600000       8.42500000      30.82700000
 H      24.86600000       8.93700000      31.18100000
 H      25.83100000       8.75100000      29.96600000
 O      22.38200000      10.21100000      26.97900000
 H      22.21800000      10.93600000      27.57900000
 H      22.20900000       9.34000000      27.41000000
 O      23.20600000       3.50000000      29.76600000
 H      23.17000000       4.46700000      29.95800000
 H      23.52700000       3.12300000      30.61000000
 O      21.82300000       1.83200000      28.73100000
 H      22.36800000       1.20200000      29.15300000
 H      22.28900000       2.65000000      28.91200000
 O      27.12200000       2.26400000      29.98000000
 H      27.77700000       2.13300000      30.66100000
 H      27.40000000       1.58700000      29.41800000
 O      26.31800000       6.96900000      26.15200000
 H      27.11300000       6.80200000      25.56600000
 H      26.10000000       6.11100000      26.62000000
 O      29.88000000       2.85400000      27.17000000
 H      30.53700000       3.22400000      26.53700000
 H      29.33500000       3.55400000      27.46800000
 O      29.56700000      10.37400000      27.24200000
 H      29.65300000      11.23800000      27.74500000
 H      30.41200000       9.87900000      27.40300000
 O      27.22300000       8.77600000      28.27800000
 H      27.97500000       9.31800000      27.90200000
 H      27.07600000       7.95700000      27.72200000
 O      28.60000000       5.77600000      28.20000000
 H      29.30600000       5.69100000      28.81000000
 H      27.72400000       5.79600000      28.68400000
 O      29.63400000       4.67200000      33.24900000
 H      28.92800000       5.31600000      33.25000000
 H      30.41300000       5.08400000      32.88200000
 O      29.73000000       2.97600000      35.42600000
 H      28.90000000       3.28400000      35.82900000
 H      29.72500000       3.53100000      34.57800000
 O      24.40800000       9.77800000      34.54600000
 H      24.31000000      10.71600000      34.45400000
 H      23.79100000       9.56200000      35.24200000
 O      26.91700000       4.41000000      36.35800000
 H      27.49400000       5.06000000      36.76900000
 H      26.55100000       4.97600000      35.62700000
 O      25.23200000       6.08300000      34.56100000
 H      25.36300000       7.01200000      34.31100000
 H      24.29500000       6.04000000      34.89800000
 O      23.92600000       2.83400000      34.44000000
 H      23.62700000       3.23200000      35.25400000
 H      24.87600000       3.06700000      34.19200000
 O      29.02700000       7.44500000      33.85700000
 H      28.36500000       8.02000000      34.32900000
 H      29.51700000       6.97900000      34.63200000
 O      22.10500000       6.24700000      33.69000000
 H      21.71300000       7.10500000      33.34500000
 H      21.41400000       5.93600000      34.24800000
 O      23.31700000       7.68300000      37.25600000
 H      22.73200000       7.97800000      36.50400000
 H      22.68400000       7.69800000      37.98300000
 O      30.43400000       7.70900000      37.10800000
 H      30.33200000       8.55600000      36.69000000
 H      31.36600000       7.41100000      36.89900000
 O      30.47100000       1.54100000      36.74400000
 H      31.08000000       2.07400000      37.29400000
 H      29.98100000       2.11600000      36.04200000
 O      27.17900000       9.17800000      34.99900000
 H      27.32800000      10.10600000      35.37100000
 H      26.49200000       9.28500000      34.28700000
 O      30.30300000       9.94900000      35.00100000
 H      30.35100000       9.43000000      34.19500000
 H      29.51700000      10.44400000      34.85000000
 O      21.69800000       9.58200000      35.97700000
 H      20.75000000       9.62600000      35.79500000
 H      21.92500000      10.49900000      36.19000000
 O      29.16000000       1.52000000      33.62900000
 H      28.96700000       1.07800000      34.44500000
 H      30.09400000       1.45700000      33.50500000
 O      22.94300000       1.18200000      33.72500000
 H      23.36000000       0.53200000      34.34700000
 H      23.12300000       2.12000000      34.02800000
 O      22.94700000       4.77600000      36.31900000
 H      22.05200000       4.59100000      36.64000000
 H      22.90000000       5.73000000      36.39000000
 O      26.07500000       1.69300000      36.30200000
 H      26.57900000       2.54700000      36.22900000
 H      25.53000000       1.63200000      35.49700000
