48
XYZ file of cluster: frame_4000_1ff48.9a3cd.5066d - created by MolEdiTo
 O      10.23500000      16.92700000       7.90300000
 H      10.93800000      16.48600000       8.38300000
 H      10.63300000      17.53800000       7.24500000
 O      10.16200000      16.10000000      10.95700000
 H      10.79000000      15.66700000      10.28300000
 H       9.41000000      16.31000000      10.34800000
 O       5.05500000      20.49100000       8.15100000
 H       5.48800000      21.00000000       8.85500000
 H       4.18100000      20.32100000       8.48100000
 O      10.15900000      17.25800000      13.49200000
 H      10.01700000      16.99600000      12.51000000
 H      11.07200000      16.98400000      13.61400000
 O       9.09900000      14.31200000      13.67200000
 H       9.66100000      14.19500000      12.87500000
 H       9.57100000      14.92500000      14.33300000
 O       6.14600000      17.07400000       9.39200000
 H       6.14100000      16.31700000       8.75900000
 H       6.50500000      16.64600000      10.23200000
 O       8.40200000      19.99000000      12.02900000
 H       8.75900000      20.86400000      11.63900000
 H       9.20900000      19.41000000      12.20900000
 O       4.97100000      18.08900000      12.47200000
 H       5.23200000      19.01900000      12.19400000
 H       3.96700000      18.03400000      12.45800000
 O       3.13900000      20.69400000      11.07300000
 H       2.76500000      20.92400000      11.99900000
 H       4.11600000      20.87200000      11.08600000
 O       4.07500000      14.60100000       9.44100000
 H       3.46400000      14.27100000      10.07800000
 H       3.51200000      14.69000000       8.64900000
 O       7.79600000      19.14900000       8.38900000
 H       6.82600000      19.23000000       8.15900000
 H       7.72000000      18.32000000       8.95700000
 O       7.34900000      16.39000000      11.79600000
 H       6.66000000      16.96400000      12.14100000
 H       7.42900000      15.69400000      12.51200000
 O       9.88000000      14.30000000       6.98300000
 H      10.01100000      15.09900000       7.49600000
 H       9.58000000      13.63900000       7.66000000
 O       5.70300000      14.76900000       6.99100000
 H       6.07100000      13.94000000       7.47000000
 H       4.75400000      14.71800000       7.03800000
 O       3.38500000      17.59600000       7.62500000
 H       3.96000000      17.64900000       8.40500000
 H       2.74800000      18.37600000       7.64000000
 O       6.25000000      20.70200000      10.61000000
 H       6.74600000      21.51100000      10.93300000
 H       6.84000000      19.97600000      10.73200000
