36
XYZ file of cluster: frame_4000_c45ee.24246.93b34 - created by MolEdiTo
 O      19.80200000      11.18700000      19.85600000
 H      19.56000000      11.61700000      20.74200000
 H      20.28800000      10.39400000      20.13900000
 O      18.20500000       4.68400000      13.56100000
 H      18.49700000       5.15100000      14.35900000
 H      18.90200000       4.83800000      12.82800000
 O      19.79600000       9.56100000      17.43100000
 H      20.64600000       9.21800000      17.29800000
 H      19.92400000      10.19800000      18.19900000
 O      17.22500000       9.96300000      16.92100000
 H      18.25000000      10.05300000      17.19800000
 H      16.88700000      10.85200000      16.96800000
 O      19.01400000       3.37200000      17.34600000
 H      18.96200000       4.36000000      17.22500000
 H      18.02400000       3.19600000      17.60800000
 O      18.84800000       6.67500000      20.28900000
 H      18.07500000       6.95600000      19.62700000
 H      18.70900000       5.72900000      20.62300000
 O      18.72800000       7.63600000      15.41500000
 H      18.03400000       7.51900000      14.77800000
 H      18.62400000       8.60700000      15.69800000
 O      19.46900000       6.30400000      17.75600000
 H      19.76900000       6.66700000      18.54100000
 H      19.39300000       7.11700000      17.17300000
 O      22.62600000      11.34600000      15.42100000
 H      22.42700000      12.21000000      15.79600000
 H      21.98900000      10.78000000      15.92600000
 O      23.58900000       8.40300000      17.14900000
 H      24.04500000       9.24600000      17.50700000
 H      24.26000000       7.72000000      17.10000000
 O      21.84500000       5.31100000      15.24600000
 H      21.07500000       5.43000000      15.78000000
 H      22.16600000       6.20500000      15.14600000
 O      22.09100000       8.05600000      13.73100000
 H      22.07700000       9.01300000      13.32800000
 H      21.21800000       8.00500000      14.18000000
