48
XYZ file of cluster: frame_4000_22778.4a7d5.cac28 - created by MolEdiTo
 O      10.11200000       8.07400000      17.87900000
 H       9.99800000       7.22800000      18.30200000
 H      10.90900000       8.37100000      18.41200000
 O       7.30700000       9.36600000      18.80800000
 H       7.16300000       9.05400000      19.75400000
 H       8.14400000       8.94400000      18.56100000
 O       3.87700000      10.22900000      19.70200000
 H       3.69100000       9.94200000      20.65000000
 H       4.81900000      10.47300000      19.66300000
 O       6.05700000      12.27300000      19.00100000
 H       6.38600000      13.05500000      18.59100000
 H       6.12700000      11.58800000      18.33800000
 O      10.30300000      10.31400000      20.23400000
 H      10.59300000      11.24600000      20.27200000
 H       9.34100000      10.33800000      20.43700000
 O       9.76700000      13.28000000      17.61000000
 H      10.71000000      13.16100000      17.96000000
 H       9.18900000      13.62900000      18.35500000
 O       2.96400000      12.65400000      18.78100000
 H       3.41500000      11.87800000      19.24900000
 H       3.57100000      13.41400000      18.98500000
 O       7.20300000      11.25100000      22.96100000
 H       6.54900000      11.18600000      23.70600000
 H       6.73100000      11.85700000      22.39000000
 O      10.41500000      14.92700000      25.00700000
 H       9.96600000      14.06800000      24.91000000
 H      11.07000000      14.94900000      24.28600000
 O       7.00000000      14.80000000      23.20500000
 H       6.61900000      15.46700000      23.85800000
 H       6.61900000      14.05700000      23.68700000
 O       8.17300000       8.05600000      22.19200000
 H       8.69400000       8.58600000      22.87600000
 H       7.92900000       7.23200000      22.60100000
 O       9.38900000      13.24000000      21.88000000
 H       8.72200000      13.90400000      22.12700000
 H       9.39300000      12.53700000      22.65900000
 O       3.98100000      10.21500000      23.81200000
 H       3.56900000      10.69200000      24.48500000
 H       4.78800000       9.70800000      24.24900000
 O      10.42700000      12.47300000      24.50200000
 H      10.90300000      12.08800000      25.21200000
 H       9.52600000      12.43400000      24.98800000
 O       5.01600000       7.22200000      25.01100000
 H       5.88800000       7.35000000      24.67000000
 H       4.60900000       6.58700000      24.38300000
 O       9.51200000       9.58200000      24.43200000
 H       8.70900000       9.18600000      24.83600000
 H      10.01800000      10.11200000      25.07400000
