39
XYZ file of cluster: frame_4000_c267d.53384.2d519 - created by MolEdiTo
 O      17.77900000      12.35100000       7.68000000
 H      16.81900000      12.21500000       7.59900000
 H      17.82100000      13.33100000       7.63800000
 O      19.38800000       8.32100000       8.43600000
 H      18.91700000       8.73600000       9.22300000
 H      19.41900000       7.35900000       8.60200000
 O      20.27700000      12.23000000       6.06000000
 H      20.67600000      12.75900000       6.78300000
 H      19.66100000      11.71100000       6.64700000
 O      19.62100000       9.89900000       4.72000000
 H      20.50100000       9.85800000       5.10800000
 H      19.41900000      10.86000000       4.79900000
 O      19.78800000      12.04600000       9.47800000
 H      19.64200000      12.26800000      10.43200000
 H      18.97500000      11.93700000       8.89300000
 O      18.22200000       7.71900000       5.93300000
 H      18.53800000       7.85900000       6.91600000
 H      18.97300000       8.23200000       5.49500000
 O      17.68300000       9.85300000      10.52800000
 H      17.63400000      10.85200000      10.61200000
 H      16.71800000       9.68400000      10.31100000
 O      22.83600000      13.22600000       8.07100000
 H      23.51600000      12.62900000       8.49200000
 H      22.05700000      13.23000000       8.61600000
 O      23.35000000       8.70200000       4.64700000
 H      23.95600000       8.47000000       3.93600000
 H      23.17500000       7.75100000       4.95400000
 O      22.55500000       8.11700000      10.17200000
 H      22.40500000       8.67700000      10.93500000
 H      21.68700000       8.24900000       9.58400000
 O      23.68600000      11.73900000       4.59400000
 H      23.15600000      12.13700000       5.23900000
 H      23.09700000      10.98300000       4.41500000
 O      25.07000000      14.60100000       9.44100000
 H      24.45900000      14.27100000      10.07800000
 H      24.50700000      14.69000000       8.64900000
 O      25.19100000       8.67300000       9.61000000
 H      25.57800000       8.59900000      10.49700000
 H      24.22600000       8.43600000       9.77000000
