36
XYZ file of cluster: frame_4000_a14c9.24130.2bd8 - created by MolEdiTo
 O      16.32200000       9.90500000       5.88800000
 H      17.13300000       9.67100000       5.43000000
 H      16.19100000       9.21500000       6.62100000
 O      19.62100000       9.89900000       4.72000000
 H      20.50100000       9.85800000       5.10800000
 H      19.41900000      10.86000000       4.79900000
 O      15.65700000       6.06100000       0.89200000
 H      16.14200000       6.60300000       0.23800000
 H      16.06700000       5.20200000       0.92600000
 O      19.39900000       5.58800000       3.99000000
 H      18.41900000       5.71800000       3.88900000
 H      19.44000000       4.86100000       3.31600000
 O      18.19100000       8.76800000       2.32600000
 H      18.63000000       8.27300000       1.57900000
 H      18.88900000       8.93900000       2.98300000
 O      14.07000000      11.40600000       5.02100000
 H      13.87100000      11.97700000       5.76100000
 H      14.58000000      10.68200000       5.49300000
 O      17.78000000       4.71800000       6.56000000
 H      16.95700000       4.85300000       7.13200000
 H      17.68300000       5.41800000       5.85700000
 O      16.75200000       5.45600000       3.42200000
 H      16.39400000       6.09700000       4.03200000
 H      16.51800000       5.83300000       2.55600000
 O      16.52900000      11.52400000       3.13400000
 H      16.03200000      10.72100000       2.85600000
 H      16.33500000      11.58500000       4.10100000
 O      15.26800000       8.75900000       2.81400000
 H      14.86100000       7.95400000       2.47900000
 H      16.17600000       8.76300000       2.36800000
 O      18.30500000       4.05700000       1.08900000
 H      17.60500000       4.05700000       1.83400000
 H      18.19500000       3.19000000       0.58400000
 O      18.22200000       7.71900000       5.93300000
 H      18.53800000       7.85900000       6.91600000
 H      18.97300000       8.23200000       5.49500000
