36
XYZ file of cluster: frame_4000_49aab.c4d64.821b6 - created by MolEdiTo
 O       8.24300000      18.30800000      16.99400000
 H       7.63900000      18.34100000      17.73500000
 H       8.64400000      17.40600000      17.12500000
 O      11.73200000      20.12700000      14.36200000
 H      11.46100000      19.08900000      14.32400000
 H      11.61900000      20.33700000      15.27400000
 O      12.87800000      20.33500000      17.46600000
 H      13.47600000      20.54200000      16.71200000
 H      13.44600000      20.40200000      18.21500000
 O       8.40200000      19.99000000      12.02900000
 H       8.75900000      20.86400000      11.63900000
 H       9.20900000      19.41000000      12.20900000
 O       9.79600000      22.43200000      16.86100000
 H       9.19300000      21.73600000      17.16800000
 H      10.61600000      22.38400000      17.45300000
 O      10.53000000      26.03000000      17.14700000
 H      10.26200000      25.08100000      17.14200000
 H      10.38200000      26.24600000      18.13600000
 O      14.13800000      23.23100000      14.17600000
 H      13.18000000      22.86700000      14.16000000
 H      13.96700000      24.17300000      14.10500000
 O       6.67300000      22.58800000      14.71700000
 H       7.61600000      22.48000000      14.37900000
 H       6.55200000      21.95600000      15.48100000
 O      11.78500000      22.35700000      11.50700000
 H      12.25500000      23.21200000      11.30000000
 H      11.85400000      22.31000000      12.52900000
 O       9.94000000      24.41000000      11.72400000
 H      10.46900000      24.55800000      12.56100000
 H       9.62300000      25.33800000      11.50300000
 O       6.33500000      25.32400000      16.88300000
 H       6.49100000      26.34700000      16.84200000
 H       7.08000000      24.90800000      16.34300000
 O       7.98900000      25.49800000      13.90400000
 H       8.76400000      26.15400000      13.98700000
 H       8.38000000      24.97100000      13.19700000
