48
XYZ file of cluster: frame_4000_9abda.6d832.76b84 - created by MolEdiTo
 O      18.66800000      12.59800000      17.58000000
 H      18.86900000      12.09000000      18.37000000
 H      19.38300000      13.29900000      17.68400000
 O      13.85100000      16.30500000      11.18700000
 H      13.30700000      15.45300000      11.47300000
 H      14.13900000      16.72400000      12.03600000
 O      17.31600000      12.91900000      12.10500000
 H      17.70200000      12.58600000      13.01400000
 H      17.95800000      13.50800000      11.75400000
 O      17.22500000       9.96300000      16.92100000
 H      18.25000000      10.05300000      17.19800000
 H      16.88700000      10.85200000      16.96800000
 O      14.63500000      11.82400000      12.10400000
 H      14.40400000      11.34400000      12.89000000
 H      15.53600000      12.24200000      12.17200000
 O      13.42400000      17.09200000      16.72700000
 H      14.00900000      17.96100000      16.73100000
 H      14.07600000      16.42200000      16.43000000
 O      19.71600000      16.22000000      10.79900000
 H      20.24500000      15.61900000      11.46800000
 H      18.83100000      16.36100000      11.28300000
 O      18.18800000      12.17500000      14.66000000
 H      17.53200000      11.47900000      14.86900000
 H      18.45300000      12.52700000      15.55200000
 O      20.14200000      16.18300000      14.88100000
 H      20.97400000      16.79400000      14.84000000
 H      20.58900000      15.38000000      15.11200000
 O      20.08700000      10.21700000      12.35400000
 H      19.85100000      11.10000000      12.66100000
 H      19.25800000       9.98100000      11.93200000
 O      15.74600000      12.86800000      17.73200000
 H      16.64600000      13.38500000      17.58500000
 H      15.88300000      12.39400000      18.54100000
 O      17.49600000      15.97100000      12.57800000
 H      17.15600000      15.09800000      12.80500000
 H      17.50600000      16.28500000      13.48800000
 O      18.01400000      15.14500000      16.90600000
 H      17.98500000      16.13200000      16.57200000
 H      18.23300000      15.26100000      17.84000000
 O      15.32000000      15.05100000      15.79600000
 H      15.70600000      14.39400000      15.28000000
 H      15.61800000      14.84100000      16.68300000
 O      20.12300000      12.93100000      12.93800000
 H      19.43200000      13.05900000      13.59200000
 H      20.99500000      13.10300000      13.43300000
 O      17.68300000       9.85300000      10.52800000
 H      17.63400000      10.85200000      10.61200000
 H      16.71800000       9.68400000      10.31100000
