39
XYZ file of cluster: frame_6500_c2567.98726.f4c - created by MolEdiTo
 O      18.48900000      16.45500000       1.10300000
 H      18.70600000      15.62000000       1.74300000
 H      18.24400000      17.08000000       1.78400000
 O      17.98500000      19.71700000       6.13100000
 H      17.06400000      20.04400000       6.23400000
 H      17.98700000      19.02100000       5.46300000
 O      18.83200000      16.69000000       6.45200000
 H      19.54000000      16.36300000       7.09200000
 H      19.04400000      16.31900000       5.60600000
 O      17.94600000      19.81200000       0.96000000
 H      17.63200000      19.73400000       0.08300000
 H      18.95100000      19.87800000       1.10800000
 O      20.54100000      18.95600000       4.65800000
 H      20.32300000      18.87500000       5.61300000
 H      21.43700000      18.58100000       4.67100000
 O      20.32800000      13.84100000       1.26500000
 H      20.84500000      14.18500000       2.05700000
 H      19.66400000      13.22400000       1.67800000
 O      18.08100000      17.87400000       3.51500000
 H      17.56400000      18.65600000       3.31000000
 H      18.95300000      18.28700000       3.79400000
 O      20.38300000      14.81800000       4.66100000
 H      21.16600000      14.19300000       4.54700000
 H      19.63300000      14.15800000       4.46500000
 O      22.54200000      20.02500000       1.68500000
 H      22.70000000      20.08700000       2.66200000
 H      21.91600000      20.73600000       1.52000000
 O      23.53800000      17.39200000       1.82300000
 H      22.88600000      18.05100000       1.45700000
 H      24.04100000      17.88600000       2.48300000
 O      24.45000000      16.47400000       5.28400000
 H      24.09200000      15.65400000       5.76600000
 H      25.34100000      16.50200000       5.75700000
 O      24.22600000      14.84000000       2.65900000
 H      23.89000000      15.77700000       2.55900000
 H      24.54100000      14.88100000       3.55600000
 O      24.69100000      19.11900000       3.98800000
 H      24.88900000      18.22300000       4.39100000
 H      25.54000000      19.60200000       3.93100000
