42
XYZ file of cluster: frame_6500_b035.c9db1.73054 - created by MolEdiTo
 O       1.82800000      18.73700000      16.58300000
 H       2.74100000      18.79000000      16.32900000
 H       1.76100000      18.54300000      17.61000000
 O       4.99100000      17.51000000      10.42000000
 H       5.55000000      18.14800000      11.03200000
 H       4.13700000      17.57300000      10.82600000
 O       4.43000000      19.35400000      15.71400000
 H       5.25200000      19.68300000      16.13000000
 H       4.26500000      19.44900000      14.72900000
 O       2.52300000      17.63400000      12.45800000
 H       2.33500000      18.43300000      12.97600000
 H       2.17800000      17.81000000      11.54500000
 O       6.44400000      19.78600000      17.37500000
 H       7.12200000      19.08600000      17.35100000
 H       7.06500000      20.49000000      17.81300000
 O       6.60600000      18.90400000      11.92500000
 H       6.40900000      19.75600000      12.47000000
 H       7.48100000      19.03300000      11.60300000
 O       7.08300000      23.13800000      10.84900000
 H       7.80200000      22.51600000      11.09400000
 H       7.27900000      24.02000000      11.21400000
 O       4.00400000      24.47100000      14.51300000
 H       4.13500000      24.47600000      13.60000000
 H       3.34100000      25.19500000      14.71500000
 O       6.28700000      22.56500000      13.58400000
 H       5.38000000      22.79300000      13.83500000
 H       6.43800000      23.18200000      12.85600000
 O       3.81500000      23.34200000      17.42800000
 H       3.56300000      24.23500000      17.69400000
 H       3.43900000      23.23900000      16.47900000
 O       6.40200000      23.64900000      16.61900000
 H       5.71500000      23.84100000      15.85600000
 H       5.73500000      23.36700000      17.30900000
 O       3.64400000      22.18500000      12.35800000
 H       2.72600000      22.45000000      12.42600000
 H       3.49200000      21.65600000      11.54500000
 O       3.89000000      24.81700000      10.67000000
 H       4.54000000      24.77600000       9.98500000
 H       3.73500000      23.87900000      11.03800000
 O       1.47300000      24.69300000      13.44300000
 H       2.03800000      25.46900000      13.32600000
 H       0.96700000      24.98300000      14.31500000
