42
XYZ file of cluster: frame_8500_70d4b.bd8bc.7b03f - created by MolEdiTo
 O      10.33000000      17.29500000      18.06300000
 H      10.95600000      17.95500000      18.22100000
 H      10.84100000      16.54000000      17.76700000
 O      15.00200000      20.64000000      16.78800000
 H      14.20500000      20.25800000      16.42500000
 H      15.21600000      20.09700000      17.50100000
 O      18.32400000      19.80000000      15.82700000
 H      18.46100000      19.54600000      16.79300000
 H      17.60200000      20.53800000      15.83100000
 O      17.99800000      18.82000000      12.56000000
 H      17.71900000      19.02500000      13.52000000
 H      18.91100000      18.54200000      12.48900000
 O      11.53800000      20.49500000      12.62600000
 H      12.04900000      20.80300000      11.83100000
 H      11.05200000      19.67700000      12.33400000
 O      14.68100000      19.06100000      13.53100000
 H      15.35200000      19.17700000      12.83400000
 H      14.76900000      19.89300000      14.06300000
 O      11.78800000      19.33500000      15.22600000
 H      11.93400000      19.55500000      14.35200000
 H      11.31000000      18.47500000      15.08300000
 O      12.70800000      19.14200000      17.79400000
 H      12.26300000      19.67000000      17.06300000
 H      12.73900000      18.25400000      17.36600000
 O      15.92100000      22.11200000      11.40800000
 H      16.75000000      21.81900000      11.84400000
 H      15.69900000      21.30400000      10.86900000
 O      17.58500000      24.93200000      12.74300000
 H      16.99600000      24.41000000      13.36400000
 H      18.32600000      25.19900000      13.40100000
 O      12.01500000      24.18600000      14.52400000
 H      11.76700000      25.08500000      14.45400000
 H      11.97500000      23.77900000      13.63300000
 O      10.11500000      22.58700000      16.55000000
 H       9.97100000      23.46400000      16.88900000
 H      10.93900000      22.66600000      16.08200000
 O      15.23500000      25.15000000      10.94300000
 H      16.14200000      25.11700000      11.39500000
 H      14.59600000      24.67600000      11.50100000
 O      16.72100000      23.92500000      15.38100000
 H      16.71500000      24.94300000      15.48300000
 H      16.08300000      23.50300000      15.95700000
