45
XYZ file of cluster: frame_8500_4af4e.28b5.0 - created by MolEdiTo
 O       8.99200000       3.90100000       5.79900000
 H       9.95400000       3.80700000       5.60100000
 H       8.49200000       3.83800000       4.90500000
 O       9.65200000       6.89300000       6.71400000
 H       9.14300000       6.10100000       6.87300000
 H      10.59700000       6.58200000       6.83700000
 O       7.35200000       1.40000000       4.18600000
 H       7.89400000       1.03300000       3.47200000
 H       7.35000000       2.33600000       3.88500000
 O       7.24400000       1.51600000       0.76200000
 H       6.62400000       1.31000000       0.00000000
 H       7.91900000       0.76100000       0.74800000
 O       9.85600000       2.60900000       2.35500000
 H      10.73800000       2.98200000       2.54800000
 H      10.01900000       1.65800000       2.24000000
 O       7.59900000       4.26200000       3.31100000
 H       7.00200000       4.79300000       2.74200000
 H       8.29000000       3.89800000       2.64500000
 O      12.58700000       3.67100000       2.29200000
 H      13.49900000       3.31900000       2.25000000
 H      12.41600000       3.88300000       1.44300000
 O       7.08700000       1.51700000       6.99100000
 H       8.07100000       1.52700000       7.24000000
 H       7.08900000       1.43000000       5.99800000
 O      11.97800000       3.17800000       5.00400000
 H      12.11500000       3.76900000       4.19300000
 H      12.50600000       3.62900000       5.66500000
 O      14.31700000       3.88900000       6.56600000
 H      14.85200000       3.72300000       7.36000000
 H      14.81600000       4.57700000       5.96800000
 O      13.22000000       6.53600000       4.21100000
 H      13.62900000       6.19800000       3.46100000
 H      13.46100000       7.46500000       4.19200000
 O       8.00000000       7.66500000       4.21300000
 H       8.19000000       7.40300000       5.12500000
 H       8.60700000       7.08500000       3.70900000
 O      13.47200000       6.90800000       6.86600000
 H      14.42500000       6.65600000       6.77500000
 H      13.18900000       6.85600000       5.88900000
 O      14.20000000       0.95900000       5.18600000
 H      13.84800000       0.22200000       4.73100000
 H      13.52000000       1.68900000       5.21900000
 O      10.77000000       6.72300000       3.11900000
 H      11.62900000       6.35800000       3.48300000
 H      10.82700000       7.60500000       3.55400000
