33
XYZ file of cluster: frame_8500_9fd65.cc515.35e86 - created by MolEdiTo
 O      17.89400000      17.82900000       9.79000000
 H      18.60500000      18.51000000       9.76800000
 H      17.55000000      17.88700000      10.65700000
 O      17.90200000      20.50600000       8.06400000
 H      17.47300000      20.97800000       8.78300000
 H      17.48200000      20.87200000       7.26400000
 O      17.58800000      18.94700000       5.26800000
 H      17.47400000      18.34700000       6.05200000
 H      17.35200000      19.95200000       5.42900000
 O      19.92400000      18.33300000       7.07000000
 H      19.25800000      18.86900000       7.45200000
 H      19.53600000      17.94700000       6.22400000
 O      14.49600000      19.77400000       8.10300000
 H      14.12500000      19.58300000       7.21500000
 H      14.74500000      20.65900000       8.02500000
 O      20.04000000      19.42700000       9.90200000
 H      20.37500000      20.07100000      10.57000000
 H      20.49200000      19.70100000       9.12500000
 O      18.78900000      25.54000000       6.39300000
 H      18.97400000      24.58800000       6.30300000
 H      19.65200000      25.97900000       5.94900000
 O      19.97100000      22.69700000       5.35400000
 H      20.80300000      22.11300000       5.51500000
 H      19.27700000      22.07100000       4.91200000
 O      16.02000000      24.31000000       8.61500000
 H      17.02700000      24.38300000       8.75300000
 H      15.71500000      24.45500000       9.51100000
 O      16.81300000      22.81900000       5.11500000
 H      15.79800000      22.80500000       5.26600000
 H      16.97800000      23.72600000       4.76300000
 O      18.60400000      23.95300000       9.92900000
 H      18.98100000      24.33500000      10.74200000
 H      19.37900000      23.48900000       9.45900000
