64
XYZ file of cluster: frame_8500_2d3db.1c07e.1c2ba - created by MolEdiTo
 O       8.99200000       3.90100000       5.79900000
 H       9.95400000       3.80700000       5.60100000
 H       8.49200000       3.83800000       4.90500000
 O       9.65200000       6.89300000       6.71400000
 H       9.14300000       6.10100000       6.87300000
 H      10.59700000       6.58200000       6.83700000
 O       6.79500000       4.32200000       7.71300000
 H       7.62600000       4.62000000       7.35300000
 H       6.44700000       3.49200000       7.29700000
 O       4.47000000       6.10900000       7.04900000
 H       5.35200000       5.94200000       7.41300000
 H       4.42200000       5.37100000       6.43700000
 O       4.93000000       7.24400000       4.15100000
 H       5.48800000       7.78500000       4.77700000
 H       4.99000000       6.40900000       4.65600000
 O       5.10600000      10.41900000       5.46200000
 H       5.62400000      10.07200000       6.26500000
 H       4.16700000      10.14900000       5.66400000
 O       6.90000000       8.47800000       7.05100000
 H       7.88800000       8.37800000       7.10200000
 H       6.42900000       7.98300000       7.75700000
 O       7.83500000       2.65000000      10.85500000
 H       7.97200000       3.64600000      10.73600000
 H       8.51000000       2.44600000      11.51700000
 O       5.01100000       4.35400000      10.60800000
 H       5.59100000       4.08200000       9.83500000
 H       5.19100000       3.62100000      11.20000000
 C      10.22100000       9.42900000      10.39500000
 C       9.98400000      10.95800000      10.76400000
 C      12.50000000      11.37600000      11.39700000
 H      11.51600000      12.02000000       9.70000000
 H      10.81600000       8.33100000       8.89200000
 O      10.87100000      13.25400000      11.23800000
 O       9.17200000       8.59000000      10.80600000
 O      10.38600000       9.22700000       9.03000000
 C      11.21100000      11.94100000      10.74600000
 O       8.90100000      11.71200000      10.13400000
 H       9.71700000      10.86800000      11.78400000
 O      12.19200000      10.60500000      12.54400000
 O      13.09400000      10.37400000      10.47400000
 H      14.07700000      10.41100000      10.64100000
 H       9.13900000      11.93900000       9.15100000
 H      11.58800000      13.94000000      11.24100000
 O      10.95500000       9.24100000       4.10300000
 H      11.77800000       9.79300000       4.00900000
 H      10.74900000       9.27700000       5.09500000
 O       8.00000000       7.66500000       4.21300000
 H       8.19000000       7.40300000       5.12500000
 H       8.60700000       7.08500000       3.70900000
 O       6.92500000       7.16500000      10.02500000
 H       7.47600000       6.27700000      10.10900000
 H       7.56200000       7.75100000      10.51300000
 O       9.91200000       4.56600000       8.51400000
 H      10.93000000       4.59700000       8.56900000
 H       9.57200000       5.08700000       9.28100000
 O       4.70400000       4.50700000       4.74700000
 H       5.53200000       4.36100000       4.20800000
 H       3.99800000       4.27400000       4.10500000
 O       8.55900000      10.49100000       4.62400000
 H       7.79200000       9.98300000       4.31900000
 H       9.27900000      10.10400000       4.14300000
 O       5.04000000      10.22100000       2.74500000
 H       5.08900000      10.20000000       3.73400000
 H       4.55800000       9.45600000       2.48900000
