51
XYZ file of cluster: frame_8500_18f68.48dca.aa39 - created by MolEdiTo
 O       9.34500000      12.26000000       7.64200000
 H       9.11400000      13.14000000       7.30300000
 H      10.01000000      11.82100000       7.05200000
 O       8.92400000       8.79800000       1.52000000
 H       9.12700000       8.06600000       2.16200000
 H       8.28900000       8.20800000       0.94000000
 O       3.07100000      12.30400000       4.42900000
 H       2.20600000      11.78500000       4.54000000
 H       3.68400000      11.69700000       3.92400000
 O      10.77000000       6.72300000       3.11900000
 H      11.62900000       6.35800000       3.48300000
 H      10.82700000       7.60500000       3.55400000
 O       4.93000000       7.24400000       4.15100000
 H       5.48800000       7.78500000       4.77700000
 H       4.99000000       6.40900000       4.65600000
 O       6.84300000      13.06100000       3.42000000
 H       6.19100000      12.50000000       2.92200000
 H       7.15600000      12.78100000       4.29400000
 O       4.22500000       7.78600000       1.53800000
 H       4.33500000       7.44000000       2.56300000
 H       5.04200000       7.41400000       1.10700000
 O       5.10600000      10.41900000       5.46200000
 H       5.62400000      10.07200000       6.26500000
 H       4.16700000      10.14900000       5.66400000
 O       8.55900000      10.49100000       4.62400000
 H       7.79200000       9.98300000       4.31900000
 H       9.27900000      10.10400000       4.14300000
 O       4.38900000      12.79900000       1.68300000
 H       3.72100000      12.59700000       2.40700000
 H       4.35500000      12.02300000       1.11700000
 O       6.90000000       8.47800000       7.05100000
 H       7.88800000       8.37800000       7.10200000
 H       6.42900000       7.98300000       7.75700000
 O      10.95500000       9.24100000       4.10300000
 H      11.77800000       9.79300000       4.00900000
 H      10.74900000       9.27700000       5.09500000
 O       8.00000000       7.66500000       4.21300000
 H       8.19000000       7.40300000       5.12500000
 H       8.60700000       7.08500000       3.70900000
 O      10.61700000      12.85900000       4.04100000
 H      10.09600000      12.57900000       4.75900000
 H      11.24000000      12.08900000       3.84500000
 O       9.20100000      11.48300000       1.60700000
 H       8.87300000      11.74400000       2.49100000
 H       9.20200000      10.47100000       1.70900000
 O       4.71700000      13.35100000       6.68500000
 H       4.24000000      13.52400000       7.53700000
 H       4.64300000      12.37600000       6.49300000
 O       5.04000000      10.22100000       2.74500000
 H       5.08900000      10.20000000       3.73400000
 H       4.55800000       9.45600000       2.48900000
