42
XYZ file of cluster: frame_8500_6c50e.0.438bc - created by MolEdiTo
 O      12.52000000       5.62400000      11.77400000
 H      12.48300000       5.35700000      12.67200000
 H      13.51700000       5.79500000      11.69900000
 O      10.89500000       5.34800000      14.25300000
 H      10.70400000       6.23500000      13.89700000
 H      10.19900000       5.16800000      14.83900000
 O      16.06100000       6.35000000       9.00800000
 H      16.88300000       6.39400000       9.52300000
 H      15.50000000       6.97800000       9.52300000
 O      16.02000000       3.00600000       8.61500000
 H      17.02700000       3.07900000       8.75300000
 H      15.71500000       3.15100000       9.51100000
 O      15.23500000       3.84600000      10.94300000
 H      16.14200000       3.81300000      11.39500000
 H      14.59600000       3.37200000      11.50100000
 O      13.78000000       6.31900000      14.35500000
 H      12.98400000       6.16900000      14.86400000
 H      14.29800000       6.97100000      14.90100000
 O      17.58500000       3.62800000      12.74300000
 H      16.99600000       3.10600000      13.36400000
 H      18.32600000       3.89500000      13.40100000
 O      12.01500000       2.88200000      14.52400000
 H      11.76700000       3.78100000      14.45400000
 H      11.97500000       2.47500000      13.63300000
 O      12.25800000       1.00300000      10.03600000
 H      12.11200000       0.06900000       9.67300000
 H      11.75200000       1.62000000       9.47000000
 O      11.96000000       6.67400000       9.27400000
 H      12.71800000       6.80000000       8.66800000
 H      12.17700000       5.80600000       9.77900000
 O       9.91200000       4.56600000       8.51400000
 H      10.93000000       4.59700000       8.56900000
 H       9.57200000       5.08700000       9.28100000
 O      14.31700000       3.88900000       6.56600000
 H      14.85200000       3.72300000       7.36000000
 H      14.81600000       4.57700000       5.96800000
 O      15.92100000       0.80800000      11.40800000
 H      16.75000000       0.51500000      11.84400000
 H      15.69900000       0.00000000      10.86900000
 O      12.68900000       3.68600000       8.63700000
 H      13.31300000       3.91100000       7.90800000
 H      13.23500000       3.77800000       9.46700000
