30
XYZ file of cluster: frame_8500_c352e.667f.10468 - created by MolEdiTo
 O      18.78900000       4.23600000       6.39300000
 H      18.97400000       3.28400000       6.30300000
 H      19.65200000       4.67500000       5.94900000
 O      19.97100000       1.39300000       5.35400000
 H      20.80300000       0.80900000       5.51500000
 H      19.27700000       0.76700000       4.91200000
 O      19.12900000       6.52000000       2.21800000
 H      19.05500000       5.86500000       1.43800000
 H      19.96400000       6.37700000       2.71500000
 O      17.39400000       3.79100000       3.22100000
 H      18.08300000       4.11300000       3.78200000
 H      17.26100000       4.54800000       2.63800000
 O      19.62400000       7.41400000       5.79100000
 H      20.36600000       7.67800000       6.32400000
 H      20.14800000       6.75700000       5.25800000
 O      24.78200000       1.28000000       5.65800000
 H      25.51500000       1.85700000       5.53200000
 H      24.97300000       0.61700000       4.98900000
 O      23.60100000       1.39300000       2.89400000
 H      22.61200000       1.36500000       3.10700000
 H      23.86000000       0.55900000       3.41000000
 O      22.62700000       5.31300000       4.72600000
 H      23.27400000       5.00100000       5.29700000
 H      23.10400000       5.44100000       3.87700000
 O      23.59700000       3.57000000       6.60500000
 H      24.01200000       2.82000000       6.22500000
 H      23.78900000       3.41800000       7.51500000
 O      24.41200000       4.45600000       2.79100000
 H      24.57800000       5.10300000       2.13700000
 H      23.75200000       3.76300000       2.46400000
