33
XYZ file of cluster: frame_8500_9c033.56abc.c958e - created by MolEdiTo
 O      16.91300000      13.19400000      19.33900000
 H      16.24400000      12.86000000      18.66600000
 H      16.43700000      12.85900000      20.11200000
 O      19.12100000      11.00200000      18.24100000
 H      18.17100000      11.13600000      18.52400000
 H      19.62800000      10.53100000      18.98000000
 O      16.09000000       7.83000000      20.15100000
 H      15.49100000       7.56300000      19.42600000
 H      16.83200000       7.69200000      19.68700000
 O      15.88500000      10.92400000      18.19400000
 H      15.00700000      10.58300000      18.32500000
 H      16.35700000      10.10200000      17.79000000
 O      13.78700000       8.63500000      23.68900000
 H      14.01900000       9.49100000      24.20000000
 H      14.70100000       8.22500000      23.72900000
 O      18.58000000      12.96500000      25.89100000
 H      17.71700000      13.18800000      26.17700000
 H      18.63000000      13.39500000      25.04100000
 O      17.92700000       8.47400000      25.25100000
 H      18.61600000       8.32300000      25.97900000
 H      18.44700000       7.81900000      24.68600000
 O      20.59700000      10.97200000      25.82600000
 H      20.36200000      10.38300000      25.10600000
 H      19.74700000      11.47500000      26.14600000
 O      19.15300000      13.70300000      23.03100000
 H      18.70000000      13.77000000      22.19600000
 H      20.07200000      13.50800000      22.85600000
 O      16.79600000      10.29700000      23.49400000
 H      16.98600000       9.75200000      22.74000000
 H      17.18700000       9.79100000      24.23700000
 O      16.34700000      13.79000000      24.40700000
 H      16.34400000      12.81500000      24.27600000
 H      17.15800000      14.12600000      23.86600000
