129
XYZ file of cluster: frame_20000_243d5.c59fe.9ac06 - created by MolEdiTo
 O      11.65100000      29.08100000      21.66900000
 H      12.45500000      28.51200000      21.75100000
 H      11.43900000      29.31900000      22.57800000
 O       8.71600000      30.59700000      26.30600000
 H       8.11100000      30.17700000      25.69500000
 H       8.33900000      30.41200000      27.22800000
 O       6.15500000      25.65400000      26.72100000
 H       6.97600000      26.11100000      26.99500000
 H       5.76900000      26.41200000      26.16100000
 O      14.68800000      29.23100000      25.89600000
 H      15.43200000      29.89200000      25.57200000
 H      14.67800000      28.46100000      25.19600000
 O      15.77400000      26.12200000      30.07200000
 H      14.75000000      25.92500000      30.20200000
 H      16.08200000      26.50900000      30.99700000
 O      15.27800000      29.26700000      20.75100000
 H      15.46300000      28.48300000      21.28600000
 H      15.05500000      28.93000000      19.85700000
 O       8.41000000      27.59300000      27.37800000
 H       7.88100000      27.86700000      28.14000000
 H       8.68200000      28.45200000      26.92700000
 O      14.48300000      27.99600000      28.38900000
 H      15.03800000      28.56600000      27.81700000
 H      15.09100000      27.29300000      28.78200000
 O      10.56800000      26.26700000      28.23900000
 H       9.68400000      26.70200000      27.92400000
 H      10.66600000      26.73800000      29.08100000
 O       7.87300000      28.37900000      22.08500000
 H       7.62200000      28.12100000      23.00100000
 H       8.82600000      28.56600000      22.19200000
 O      12.12000000      29.46200000      27.63900000
 H      12.11600000      28.75400000      28.41600000
 H      12.87500000      29.25300000      27.06400000
 O      14.96900000      27.15000000      24.12400000
 H      15.67400000      26.50400000      23.76200000
 H      14.45400000      26.62400000      24.81100000
 O      12.52900000      26.69100000      26.17000000
 H      13.22800000      27.02000000      26.72900000
 H      11.78100000      26.66200000      26.83100000
 O       8.33600000      25.55900000      22.64400000
 H       8.20000000      26.45800000      22.34600000
 H       8.97000000      25.65900000      23.38300000
 O       8.08900000      30.01900000      28.93500000
 H       8.84000000      30.64500000      29.03100000
 H       7.55000000      30.17700000      29.71100000
 O       9.36500000      27.33200000      24.61300000
 H      10.18700000      26.80000000      24.62000000
 H       9.03800000      27.16200000      25.59900000
 O       5.51800000      26.27200000      23.03500000
 H       5.52500000      26.85000000      22.13800000
 H       4.66700000      26.55300000      23.48600000
 O      10.97400000      29.89500000      24.40200000
 H      10.36100000      29.17900000      24.54100000
 H      11.67700000      29.81100000      25.04500000
 O       6.43700000      29.64600000      24.72100000
 H       5.79000000      30.31300000      25.11300000
 H       5.88900000      28.85000000      24.95500000
 O       6.22600000      36.55400000      25.21100000
 H       5.45800000      36.87700000      25.75800000
 H       6.92400000      37.17500000      25.38300000
 O      11.60600000      36.98000000      25.19200000
 H      12.05800000      37.20700000      26.04800000
 H      11.32000000      36.04700000      25.34000000
 O       9.66400000      35.77700000      28.10900000
 H       9.90100000      35.21900000      27.35600000
 H      10.48900000      35.98900000      28.50700000
 O      11.43100000      35.11600000      22.35700000
 H      10.82100000      34.32200000      22.57700000
 H      11.48100000      35.01600000      21.40800000
 O      10.57400000      32.73800000      28.96600000
 H      10.71800000      33.68700000      28.77100000
 H      10.99300000      32.19500000      28.34800000
 O       8.33700000      34.46700000      30.26800000
 H       8.13900000      35.13200000      30.92200000
 H       8.67800000      35.00600000      29.46200000
 O       5.74100000      33.82600000      24.96600000
 H       6.49900000      33.53800000      24.44300000
 H       5.93900000      34.75900000      24.91000000
 O       5.53100000      36.52000000      22.45700000
 H       4.72000000      36.41900000      23.05900000
 H       6.39800000      36.67500000      22.91800000
 O       7.95300000      36.69800000      21.04400000
 H       7.11400000      36.33300000      21.38800000
 H       8.49100000      36.87100000      21.87600000
 O      13.00800000      32.29500000      30.46800000
 H      13.47200000      31.77500000      29.85900000
 H      12.19600000      32.50700000      29.93900000
 O      12.31700000      36.99100000      29.49200000
 H      12.28100000      36.44500000      30.26300000
 H      12.74800000      36.41300000      28.74900000
 O      16.25500000      34.24600000      22.43800000
 H      15.30000000      33.95600000      22.22800000
 H      16.18900000      35.17800000      22.83600000
 O      15.19800000      34.14700000      26.90900000
 H      14.99800000      34.10200000      25.93300000
 H      16.13900000      34.28700000      26.79200000
 O      12.49500000      34.89100000      27.54000000
 H      12.24900000      34.42500000      26.64200000
 H      13.43100000      34.75800000      27.62500000
 O      10.29300000      34.15700000      25.54400000
 H      10.79700000      33.56100000      24.88200000
 H       9.57900000      33.48100000      25.76600000
 O       5.79400000      32.81500000      21.69100000
 H       4.77700000      32.61000000      21.78100000
 H       6.03600000      31.92000000      21.84600000
 O      15.76300000      36.37100000      24.06200000
 H      15.47000000      37.24800000      24.33500000
 H      16.39800000      36.09100000      24.77100000
 O       9.59100000      33.31300000      22.49900000
 H      10.08700000      32.52200000      22.74100000
 H       9.22200000      32.93200000      21.66300000
 O      13.00400000      34.88600000      20.06700000
 H      12.94000000      34.43700000      20.95700000
 H      13.67900000      35.64700000      20.14200000
 O      15.06400000      36.76200000      21.31900000
 H      15.57500000      37.57100000      21.14500000
 H      14.80600000      36.70800000      22.27800000
 O      13.49800000      34.22000000      24.62500000
 H      12.64800000      34.55800000      24.23700000
 H      13.56700000      33.56500000      23.90600000
 O      13.75300000      32.73400000      22.22900000
 H      12.96600000      32.12300000      22.24300000
 H      14.31400000      32.38800000      21.46500000
 O       9.26400000      36.73200000      23.36100000
 H      10.16800000      36.44400000      23.01100000
 H       8.87600000      35.95900000      23.83000000
 O      15.83600000      36.59600000      29.15400000
 H      15.67100000      37.26700000      29.86000000
 H      15.27700000      35.84400000      29.43400000
