120
XYZ file of cluster: frame_20000_250e0.74408.0 - created by MolEdiTo
 O      14.11400000      22.40900000       8.63200000
 H      13.61300000      22.31400000       9.46900000
 H      13.39400000      22.30700000       7.95300000
 O      12.33100000      18.64700000       3.26100000
 H      12.55900000      19.34400000       3.85900000
 H      11.56700000      19.06600000       2.76900000
 O      12.22000000      22.97300000       6.58400000
 H      11.78000000      23.87600000       6.70900000
 H      11.68000000      22.64300000       5.83500000
 O       6.18900000      26.34100000       0.81900000
 H       5.67100000      26.87900000       1.47000000
 H       5.63900000      25.78700000       0.22100000
 O       6.44000000      16.92100000       1.57800000
 H       6.43800000      16.52500000       0.68000000
 H       6.33200000      16.15500000       2.24900000
 O      10.48600000      20.19300000       5.82600000
 H      11.45900000      20.00000000       5.94300000
 H      10.22300000      20.62400000       6.60800000
 O      10.11100000      23.63800000       4.35200000
 H       9.97600000      24.46600000       3.77900000
 H       9.49700000      23.02200000       3.89000000
 O      13.29600000      15.49700000       7.82800000
 H      13.47300000      16.27700000       7.27900000
 H      12.57500000      15.03500000       7.39400000
 O      11.30300000      23.10400000       1.37200000
 H      10.94000000      22.32400000       1.03000000
 H      11.96700000      22.84900000       2.01100000
 O      10.67100000      16.81100000       9.08000000
 H      10.03500000      17.48100000       9.43600000
 H      11.62400000      17.15800000       9.19600000
 O       5.90600000      19.71100000       5.31400000
 H       6.62600000      19.11500000       4.94400000
 H       6.29300000      20.61900000       5.23700000
 O      11.10200000      16.17600000       3.10900000
 H      11.44200000      17.03600000       3.45500000
 H      10.65800000      16.47100000       2.28400000
 O       7.99500000      26.14300000       7.08700000
 H       8.19600000      26.11400000       8.04400000
 H       7.41500000      26.96200000       6.94800000
 O       5.89100000      23.97300000       7.68900000
 H       6.07200000      23.14100000       7.15900000
 H       6.21100000      24.65100000       7.06800000
 O       6.57100000      20.14000000      10.87500000
 H       5.68800000      20.61400000      10.87800000
 H       6.93500000      20.44800000       9.97000000
 O      10.76200000      25.65300000       7.12000000
 H      10.24500000      25.75900000       6.30100000
 H      10.06100000      25.74300000       7.73400000
 O      14.78300000      17.78700000       2.30600000
 H      14.67600000      17.07900000       1.59800000
 H      13.94500000      18.22600000       2.43000000
 O       8.98300000      25.86600000       1.13600000
 H       9.07900000      25.16100000       0.45600000
 H       8.11600000      26.22800000       0.89000000
 O       5.59100000      26.34000000       3.99700000
 H       5.68900000      27.30700000       4.31100000
 H       4.77200000      26.20200000       3.49600000
 O      10.07000000      17.73200000       0.88700000
 H       9.60500000      17.67000000       0.01700000
 H      10.00100000      18.67700000       1.21300000
 O      13.06700000      19.30600000       6.34200000
 H      13.66200000      18.61400000       5.84800000
 H      13.77200000      19.79900000       6.81400000
 O      11.20300000      22.30300000      10.43000000
 H      11.26200000      21.51900000       9.81200000
 H      11.71000000      21.93600000      11.17800000
 O       7.98900000      18.17200000       3.97600000
 H       8.60200000      17.40600000       3.99100000
 H       7.34400000      17.89100000       3.27700000
 O      14.80000000      17.02100000       5.69900000
 H      15.03300000      16.87600000       4.81500000
 H      15.65400000      17.21900000       6.16200000
 O       7.23000000      24.40300000       3.09900000
 H       7.66400000      24.94000000       2.36200000
 H       6.57800000      25.00300000       3.45700000
 O      14.85300000      23.39500000       2.89700000
 H      14.14600000      23.55700000       2.17600000
 H      15.66300000      23.18600000       2.40900000
 O      13.03900000      18.30700000       9.71100000
 H      13.84900000      18.20200000       9.16900000
 H      13.25000000      17.67000000      10.38600000
 O       6.01200000      16.44200000       6.62200000
 H       6.13600000      17.38900000       6.43700000
 H       5.58000000      16.34000000       7.54800000
 O       7.36600000      22.89000000       5.57100000
 H       7.53500000      23.67700000       5.03500000
 H       7.52300000      22.17700000       4.93800000
 O       8.51300000      21.01700000       3.85600000
 H       8.27000000      20.06100000       3.79600000
 H       9.23200000      21.04900000       4.53700000
 O      14.17300000      25.23200000       7.67400000
 H      13.48500000      25.68700000       8.18700000
 H      14.16700000      24.28300000       7.93100000
 O      11.00400000      20.51400000       0.79400000
 H      11.84600000      20.66700000       0.21600000
 H      10.39300000      20.39200000       0.00000000
 O       7.12100000      21.55300000       8.35000000
 H       7.34100000      21.88300000       7.46300000
 H       6.27000000      21.94200000       8.49900000
 O       9.86700000      17.32500000       6.52800000
 H      10.42900000      17.31700000       7.31400000
 H      10.14500000      18.14600000       5.92000000
 O      11.17400000      20.13200000       8.72500000
 H      10.33000000      19.68400000       8.82200000
 H      11.85400000      19.45600000       8.88100000
 O      12.98200000      25.11600000       4.48200000
 H      13.98000000      25.11900000       4.52600000
 H      12.77100000      24.29200000       4.87600000
 O       8.66000000      18.25100000      10.47100000
 H       8.30300000      17.39600000      10.86900000
 H       7.94700000      18.86300000      10.39500000
 O      15.81400000      20.14900000       3.06100000
 H      15.25400000      19.37000000       2.89100000
 H      15.33500000      20.71100000       2.42100000
 O      10.47600000      26.33400000       3.56500000
 H      11.40900000      25.98900000       3.60300000
 H      10.00200000      25.94900000       2.76100000
 O       9.69700000      25.64600000       9.85300000
 H      10.16800000      24.78700000      10.03700000
 H       8.76000000      25.40500000      10.14900000
