33
XYZ file of cluster: frame_13000_a4b9.a1e95.7145b - created by MolEdiTo
 O       2.14900000      14.78600000      16.05100000
 H       2.08500000      15.71100000      16.40000000
 H       1.28800000      14.48600000      16.07400000
 O       3.23500000      20.49500000      11.20500000
 H       2.90900000      19.77500000      10.56800000
 H       3.59100000      19.85100000      11.88300000
 O       3.50800000      19.63600000      16.78200000
 H       2.88300000      18.79900000      16.59800000
 H       4.43800000      19.16800000      16.89200000
 O       4.78400000      14.04900000      16.98800000
 H       4.92600000      14.49400000      17.78700000
 H       3.78400000      14.21900000      16.83300000
 O       6.28200000      18.95900000      17.24800000
 H       6.86200000      19.69100000      17.43900000
 H       6.64300000      18.28100000      17.78700000
 O       6.09200000      18.47400000      11.51400000
 H       6.13300000      18.13100000      10.61400000
 H       5.87600000      17.62700000      12.00700000
 O       4.46100000      15.42500000      12.13000000
 H       4.22100000      16.26600000      12.59800000
 H       4.48200000      14.70000000      12.83900000
 O       2.00900000      18.03800000      10.60400000
 H       2.39100000      17.32500000      10.05500000
 H       2.47100000      17.85300000      11.44100000
 O       1.62100000      17.38900000      17.01700000
 H       0.92000000      18.12300000      16.86000000
 H       1.42400000      17.16400000      17.96000000
 O       5.78800000      18.30800000      14.66000000
 H       6.75900000      18.07800000      14.60900000
 H       5.62200000      18.33500000      15.62000000
 O       3.04300000      18.53600000      13.46200000
 H       3.93900000      18.68700000      13.87000000
 H       2.40900000      19.04600000      14.11300000
