30
XYZ file of cluster: frame_13000_616.a47b.cdeaf - created by MolEdiTo
 O       5.95400000       2.20600000      19.37400000
 H       5.60800000       1.68500000      20.14700000
 H       5.20900000       1.93600000      18.71400000
 O       4.20000000       5.11100000      18.92400000
 H       3.73600000       4.29000000      18.64300000
 H       5.20100000       4.92200000      18.69400000
 O       7.12000000       4.69400000      19.26200000
 H       8.06000000       4.70600000      19.44400000
 H       6.87800000       3.80100000      19.57200000
 O       3.85700000       7.83900000      19.19600000
 H       3.85700000       8.07600000      18.27900000
 H       3.92300000       6.83900000      19.09900000
 O       0.93200000       5.05900000      19.89200000
 H       0.81800000       4.95100000      18.94000000
 H       0.03400000       5.31600000      20.23400000
 O       4.17400000       7.06300000      24.70100000
 H       4.78600000       6.32300000      25.01500000
 H       4.89800000       7.73000000      24.60800000
 O       5.70200000       1.01300000      23.43400000
 H       6.42100000       1.35000000      23.97800000
 H       4.91000000       0.89200000      23.93500000
 O       2.57300000       4.73700000      25.05000000
 H       3.24500000       4.59000000      25.76000000
 H       2.69800000       5.61100000      24.66200000
 O       2.70700000       2.60200000      22.53800000
 H       3.32100000       2.74100000      21.77200000
 H       2.39900000       3.53100000      22.68900000
 O       1.89200000       7.44500000      23.27800000
 H       2.92500000       7.49200000      23.33200000
 H       1.74200000       6.53600000      22.91400000
