33
XYZ file of cluster: frame_13000_c76c8.a152e.9434b - created by MolEdiTo
 O      19.41800000      14.54100000      16.36400000
 H      18.98900000      15.37400000      16.22700000
 H      18.70900000      13.99800000      16.79500000
 O      18.22400000      14.82000000      19.72500000
 H      17.82100000      14.45200000      20.51900000
 H      19.18100000      14.60000000      19.62900000
 O      20.48300000      16.74600000      13.45700000
 H      20.58000000      16.54900000      14.44900000
 H      21.33700000      16.97800000      13.15600000
 O      17.93800000      20.07900000      18.80200000
 H      18.08600000      19.10300000      18.98900000
 H      18.82400000      20.59600000      18.90400000
 O      19.45900000      17.98500000      20.48600000
 H      19.99500000      17.45800000      19.84100000
 H      18.58800000      17.51300000      20.38700000
 O      19.75300000      19.26900000      16.48600000
 H      19.89400000      20.20200000      16.75900000
 H      19.20000000      19.15900000      15.69800000
 O      23.96600000      14.78600000      16.05100000
 H      23.90200000      15.71100000      16.40000000
 H      23.10500000      14.48600000      16.07400000
 O      25.32500000      19.63600000      16.78200000
 H      24.70000000      18.79900000      16.59800000
 H      26.25500000      19.16800000      16.89200000
 O      25.03200000      19.01000000      19.78000000
 H      24.99900000      19.29400000      20.73900000
 H      24.16300000      19.35400000      19.40400000
 O      23.43800000      17.38900000      17.01700000
 H      22.73700000      18.12300000      16.86000000
 H      23.24100000      17.16400000      17.96000000
 O      23.04700000      15.98100000      19.59500000
 H      23.48700000      16.23700000      20.47600000
 H      23.28300000      15.04500000      19.60200000
