30
XYZ file of cluster: frame_13000_c0822.75a80.16768 - created by MolEdiTo
 O      20.76000000      16.80800000       6.96000000
 H      20.38900000      17.67100000       6.58200000
 H      20.17900000      16.72000000       7.79100000
 O      19.72100000      17.65700000       3.42900000
 H      19.58300000      17.75600000       2.44800000
 H      20.68100000      17.43600000       3.36700000
 O      20.33400000      11.74000000       6.72300000
 H      19.71900000      10.99400000       6.98400000
 H      19.74500000      12.41400000       6.47000000
 O      20.34500000      13.62200000       3.15100000
 H      20.74500000      13.30900000       2.26700000
 H      21.04400000      13.70600000       3.88700000
 O      17.63000000      14.33500000       2.88700000
 H      18.59500000      14.23300000       3.24000000
 H      17.20300000      14.85800000       3.61100000
 O      24.21600000      15.58700000       4.94600000
 H      23.49300000      15.91500000       5.47800000
 H      24.50900000      14.85300000       5.49100000
 O      24.05700000      16.60400000       2.16700000
 H      24.11700000      15.93700000       2.85600000
 H      24.66600000      17.33700000       2.52400000
 O      23.34200000      11.04300000       4.43000000
 H      23.02500000      10.20900000       3.95700000
 H      23.10900000      11.05400000       5.39000000
 O      25.12800000      13.17300000       6.10900000
 H      26.00500000      12.75600000       6.27200000
 H      24.57700000      12.46800000       5.77200000
 O      24.62400000      12.95700000       2.08300000
 H      24.36100000      11.93400000       1.99400000
 H      25.39100000      12.86400000       2.67200000
