39
XYZ file of cluster: frame_13000_70e66.5fe3.ca501 - created by MolEdiTo
 O      15.04500000       1.27200000      18.79800000
 H      15.68600000       1.49500000      19.47400000
 H      14.16300000       1.57600000      19.02300000
 O      14.35600000       6.80300000      18.75000000
 H      14.67100000       6.34700000      17.95900000
 H      14.17300000       6.10000000      19.47200000
 O      18.70700000       3.84600000      18.54900000
 H      17.88800000       3.86900000      19.01300000
 H      19.05500000       3.03600000      19.08100000
 O      10.18300000       5.10600000      19.35700000
 H      10.08900000       4.67700000      20.25100000
 H      11.15800000       5.23500000      19.26400000
 O      13.45300000       4.48800000      20.18400000
 H      13.29300000       3.73000000      19.59600000
 H      13.81500000       4.08900000      20.96600000
 O      12.60400000       2.09400000      19.10200000
 H      11.88600000       1.56400000      19.51200000
 H      12.46800000       1.96300000      18.17300000
 O      17.49900000       2.85800000      23.36100000
 H      16.90800000       3.62400000      23.58600000
 H      18.26700000       3.04200000      23.94600000
 O      15.22600000       4.07700000      25.25100000
 H      14.76700000       3.24200000      24.92400000
 H      14.63200000       4.80100000      25.07300000
 O      11.34100000       1.25300000      24.13300000
 H      11.45800000       1.17500000      25.02900000
 H      10.38400000       1.48800000      23.93900000
 O      12.70200000       5.48600000      24.74900000
 H      11.87800000       6.02600000      24.97400000
 H      12.16400000       4.90400000      24.12600000
 O      17.47800000       1.06100000      25.79800000
 H      17.27200000       1.88800000      25.29300000
 H      18.00400000       0.52000000      25.20500000
 O      17.54900000       6.64100000      23.43200000
 H      18.41600000       6.53200000      23.96800000
 H      16.85600000       6.47100000      24.16100000
 O      14.19000000       1.98100000      24.07700000
 H      13.31000000       1.79800000      23.67000000
 H      14.56100000       1.07800000      24.02800000
