76
XYZ file of cluster: frame_13000_61c81.682c2.4ac76 - created by MolEdiTo
 O      15.44400000      16.32600000      13.18300000
 H      14.78800000      16.55900000      13.94200000
 H      15.60200000      15.33600000      13.42200000
 O      18.84500000      16.19600000       8.60700000
 H      18.70100000      17.04800000       9.12500000
 H      17.96700000      15.94000000       8.30300000
 O      18.07400000      13.20600000       8.38400000
 H      17.35600000      13.81900000       8.11900000
 H      17.59800000      12.70400000       9.11100000
 O      16.89100000      14.88700000      10.78200000
 H      16.94600000      15.52200000      11.56200000
 H      16.19700000      15.18100000      10.20600000
 O      15.27600000      11.14900000      12.95100000
 H      15.26800000      11.28800000      13.92300000
 H      16.06300000      10.51200000      12.82400000
 O      11.26700000      16.43700000       6.91500000
 H      10.79600000      15.57800000       6.65500000
 H      11.21400000      16.46900000       7.90700000
 O      17.66700000      10.23600000       7.84900000
 H      16.85500000      10.75100000       7.62300000
 H      17.92800000      10.78500000       8.59300000
 O      12.97400000      13.03700000      14.04300000
 H      13.58100000      12.50600000      13.52400000
 H      12.07800000      12.76000000      13.70900000
 O      17.15800000      11.58700000      10.39300000
 H      16.84400000      11.96700000      11.23200000
 H      18.01200000      11.17900000      10.68200000
 O      13.68600000      17.79600000      11.37500000
 H      14.42000000      17.49700000      12.01700000
 H      13.71000000      17.14600000      10.67600000
 O      11.32900000      14.94600000      10.72200000
 H      10.87800000      15.67300000      10.12400000
 H      11.03700000      15.12900000      11.63400000
 O      15.99200000      15.77200000       7.85100000
 H      15.21400000      16.30800000       8.06800000
 H      15.68000000      15.44100000       6.91500000
 O      14.17100000      12.77700000      11.10900000
 H      14.45300000      12.02800000      11.69500000
 H      14.89800000      13.46900000      11.26200000
 O      13.54900000      16.06400000       9.12100000
 H      12.63600000      15.71700000       9.41200000
 H      13.55800000      15.57900000       8.22700000
 O      15.97100000      13.64500000      14.03300000
 H      16.85700000      13.68400000      13.51800000
 H      16.43900000      13.33200000      14.82700000
 C      10.47600000      11.01100000      12.84200000
 C      11.06000000      11.38300000      11.49000000
 C      12.20000000      10.60300000       9.30700000
 H      11.73400000       9.34800000      10.88200000
 H       8.73800000      10.65200000      11.99500000
 O       9.93300000       9.84600000      10.03500000
 O      10.23400000      12.16000000      13.60800000
 O       9.23900000      10.28800000      12.68400000
 C      11.23800000      10.23700000      10.46900000
 O      10.25300000      12.45800000      10.97900000
 H      12.09200000      11.65000000      11.67800000
 O      11.81700000      11.69700000       8.52600000
 O      12.39400000       9.54400000       8.40400000
 H      12.59800000       9.99200000       7.54400000
 H      10.89700000      13.09300000      10.68700000
 H      10.01100000       9.03900000       9.40900000
 O      10.96900000      15.32800000      13.95900000
 H      11.35000000      14.69100000      14.58700000
 H      10.18200000      14.80300000      13.75600000
 O      18.06400000      10.70100000      14.06000000
 H      18.69500000      10.45400000      14.78200000
 H      18.30400000      11.58000000      13.71700000
 O      18.07700000      17.47800000      12.15400000
 H      17.53500000      17.53100000      12.96400000
 H      19.01000000      17.25600000      12.43000000
 O      15.46800000      12.00800000       7.54300000
 H      15.18400000      12.80000000       8.05900000
 H      15.32400000      12.23400000       6.63800000
 O      11.40200000      17.89400000      13.17600000
 H      12.28700000      17.94200000      12.77400000
 H      11.37000000      16.93100000      13.51100000
