57
XYZ file of cluster: frame_13000_9b74f.1951e.6f6f9 - created by MolEdiTo
 O      14.35600000       6.80300000      18.75000000
 H      14.67100000       6.34700000      17.95900000
 H      14.17300000       6.10000000      19.47200000
 O      20.84000000       6.44800000      16.95100000
 H      21.81700000       6.51300000      16.86200000
 H      20.65800000       5.79900000      16.23200000
 O      15.27600000      11.14900000      12.95100000
 H      15.26800000      11.28800000      13.92300000
 H      16.06300000      10.51200000      12.82400000
 O      19.17700000       9.73800000      11.20300000
 H      19.57100000       8.92300000      10.91700000
 H      19.66300000      10.02800000      12.03200000
 O      18.03100000       6.13000000      13.74400000
 H      17.49200000       6.86300000      13.35700000
 H      17.57000000       5.91500000      14.60900000
 O      14.80400000       4.15600000      16.61900000
 H      15.23800000       3.75300000      15.79600000
 H      14.72600000       3.37200000      17.21800000
 O      20.14700000       8.45600000      13.98000000
 H      19.65900000       7.73500000      14.43500000
 H      21.01000000       8.17700000      13.97600000
 O      14.55300000       9.48400000      10.53400000
 H      14.73000000       9.78000000      11.48500000
 H      15.20100000       9.95700000       9.89200000
 O      15.72900000       8.31800000      14.97300000
 H      15.07300000       7.58500000      14.89200000
 H      16.18500000       8.27700000      14.10700000
 O      16.97800000       8.38700000      12.43600000
 H      16.72300000       7.84000000      11.59900000
 H      17.87500000       8.67400000      12.11800000
 O      15.60700000      10.90800000      15.62800000
 H      15.86100000      10.01300000      15.37900000
 H      15.71200000      10.86200000      16.62200000
 O      17.78400000       5.90700000      16.49500000
 H      17.95000000       5.20900000      17.13900000
 H      18.33100000       6.66200000      16.93200000
 O      20.29000000       4.71600000      14.64700000
 H      20.44400000       5.26900000      13.86400000
 H      19.40300000       4.97700000      14.88500000
 O      20.20700000       5.86600000      12.12600000
 H      19.33200000       5.80800000      12.52600000
 H      19.98500000       6.32800000      11.25500000
 O      17.50300000       8.51700000      17.13600000
 H      17.20600000       8.88700000      18.02400000
 H      16.65000000       8.32100000      16.61000000
 O      19.50700000      10.46500000      16.72500000
 H      20.40100000      10.10300000      16.75800000
 H      18.84400000       9.73400000      16.84300000
 O      14.63100000       5.73900000      13.37300000
 H      14.27400000       5.87700000      12.47000000
 H      13.89200000       5.90000000      14.00000000
 O      18.06400000      10.70100000      14.06000000
 H      18.69500000      10.45400000      14.78200000
 H      18.30400000      11.58000000      13.71700000
 O      15.87500000       2.75300000      14.38500000
 H      15.77100000       3.64600000      13.92900000
 H      16.20900000       2.19700000      13.61400000
