42
XYZ file of cluster: frame_13000_70e66.20f01.c3bbe - created by MolEdiTo
 O      13.57500000       9.13600000      17.90500000
 H      12.78800000       8.92000000      17.37500000
 H      13.78800000       8.23200000      18.26300000
 O      17.27700000       8.68700000      20.01700000
 H      18.22500000       8.51300000      19.70300000
 H      16.96600000       7.92900000      20.59000000
 O      14.35600000       6.80300000      18.75000000
 H      14.67100000       6.34700000      17.95900000
 H      14.17300000       6.10000000      19.47200000
 O      18.70700000       3.84600000      18.54900000
 H      17.88800000       3.86900000      19.01300000
 H      19.05500000       3.03600000      19.08100000
 O      16.16200000      10.95500000      18.49100000
 H      15.35100000      10.44000000      18.77200000
 H      16.70200000      10.89800000      19.31600000
 O      10.18300000       5.10600000      19.35700000
 H      10.08900000       4.67700000      20.25100000
 H      11.15800000       5.23500000      19.26400000
 O      13.45100000      11.09800000      20.03400000
 H      12.44900000      11.30100000      19.91400000
 H      13.63100000      10.49400000      19.20200000
 O      13.45300000       4.48800000      20.18400000
 H      13.29300000       3.73000000      19.59600000
 H      13.81500000       4.08900000      20.96600000
 O      17.49900000       2.85800000      23.36100000
 H      16.90800000       3.62400000      23.58600000
 H      18.26700000       3.04200000      23.94600000
 O      14.44000000      10.72100000      24.59300000
 H      14.05700000      10.91600000      23.72600000
 H      13.84800000       9.99600000      24.95400000
 O      15.22600000       4.07700000      25.25100000
 H      14.76700000       3.24200000      24.92400000
 H      14.63200000       4.80100000      25.07300000
 O      11.33800000       9.02100000      25.48500000
 H      10.82100000       9.38900000      24.73300000
 H      11.00300000       9.60200000      26.20600000
 O      12.70200000       5.48600000      24.74900000
 H      11.87800000       6.02600000      24.97400000
 H      12.16400000       4.90400000      24.12600000
 O      17.54900000       6.64100000      23.43200000
 H      18.41600000       6.53200000      23.96800000
 H      16.85600000       6.47100000      24.16100000
