%chk=cluster_331_i.chk
%mem=1GB
%nproc=4
#b3lyp/6-311++G** scrf=(cpcm,Solvent=Water) nosymm force
iop(2/11=1) 
 Geom=(NoDistance,NoAngle)

cluster_331_i

0 1
 O      14.18700000      12.47100000       9.69400000
 H      14.78900000      13.13400000       9.93900000
 H      14.52900000      11.69400000      10.10300000
 O      13.78600000      11.85100000       6.85200000
 H      12.89800000      11.49600000       7.06500000
 H      14.27600000      11.79700000       7.70200000
 O      13.07200000      17.58000000       6.80500000
 H      12.52300000      18.41700000       6.76200000
 H      13.33200000      17.45500000       5.85400000
 O      12.32100000      17.49300000      10.75500000
 H      12.58600000      17.39600000       9.82300000
 H      12.86000000      18.26700000      10.97800000
 O      10.65500000      12.26800000       3.76100000
 H      11.12400000      12.69200000       4.44500000
 H       9.97000000      12.90900000       3.46400000
 O      13.81400000      14.79700000       4.63800000
 H      13.04300000      14.62300000       5.21900000
 H      13.94200000      15.80600000       4.59000000
 O      11.99300000      13.91900000       8.74000000
 H      12.86800000      13.55000000       8.81500000
 H      11.68600000      13.98000000       9.66000000
 C      11.34000000      10.01400000       9.54500000
 C      11.34800000      10.75000000      10.98100000
 C       8.97500000      11.70800000      10.54700000
 H       9.46800000      10.04600000      11.73200000
 H      11.34900000       8.21100000       8.92400000
 O      10.11600000      11.73500000      12.77500000
 O      12.67200000       9.90300000       9.14100000
 O      10.83400000       8.71200000       9.63300000
 C       9.97800000      11.01600000      11.53500000
 O      12.11600000       9.91700000      11.89700000
 H      11.86900000      11.66200000      10.70600000
 O       9.55200000      12.98800000      10.37800000
 O       7.74400000      12.02200000      11.22900000
 H       7.56100000      12.95900000      11.03600000
 H      12.51100000       9.16400000      11.35200000
 H      10.56600000      12.57300000      12.54200000
 O      16.69300000      17.26100000       7.61800000
 H      17.11500000      16.44900000       7.35400000
 H      16.66800000      17.24400000       8.62800000
 O      14.72100000      15.26800000       8.55600000
 H      15.22200000      15.72200000       7.85100000
 H      13.87300000      15.82000000       8.56500000
 O      14.55800000      17.74800000       4.31300000
 H      14.10300000      18.39400000       3.69800000
 H      15.32600000      18.33200000       4.44700000
 O      17.73600000      15.42000000       6.17100000
 H      18.65400000      15.56900000       5.89600000
 H      17.33900000      16.22600000       5.74700000
 O      16.83900000      14.24100000      10.29300000
 H      17.51100000      14.19700000       9.58100000
 H      16.11600000      14.67400000       9.76800000
 O      15.18200000      11.99400000       3.74800000
 H      14.49500000      11.28200000       3.88700000
 H      14.97500000      12.47700000       4.55000000
 O      11.50300000      14.75200000       5.92400000
 H      11.67500000      13.91000000       6.45200000
 H      11.91300000      15.40000000       6.61900000
 O      16.80700000      17.31600000      10.30800000
 H      17.76100000      17.09800000      10.43200000
 H      16.48600000      16.49800000      10.71600000

