93
XYZ file of cluster: frame_9500_a2e9.c55dd.c7391 - created by MolEdiTo
 O       3.23800000      27.77300000      30.40200000
 H       2.43200000      27.88600000      29.81400000
 H       3.42800000      26.78600000      30.23300000
 O       8.60100000      27.15600000      28.34500000
 H       7.71000000      26.87300000      28.06200000
 H       8.39100000      27.86700000      28.96300000
 O       5.38100000      29.88100000      30.52600000
 H       4.72200000      29.66800000      31.25600000
 H       4.87100000      29.72100000      29.71700000
 O      11.31200000      26.99600000      26.97200000
 H      11.02200000      27.12800000      25.96600000
 H      10.48500000      27.22800000      27.50700000
 O       5.48600000      30.04000000      26.88200000
 H       5.11000000      30.26200000      27.76100000
 H       5.29200000      29.09800000      26.57600000
 O       8.07800000      29.33100000      30.04600000
 H       8.60700000      29.39500000      30.88100000
 H       7.17900000      29.55300000      30.40400000
 O       8.45000000      29.74100000      26.51000000
 H       8.47800000      28.96000000      25.90200000
 H       7.51300000      29.83100000      26.79200000
 O       3.55200000      27.40100000      27.17300000
 H       3.47900000      27.14700000      26.24600000
 H       2.56800000      27.40300000      27.43300000
 O       6.18000000      26.43600000      27.56800000
 H       6.18000000      25.58200000      27.07500000
 H       5.22200000      26.68200000      27.47600000
 O       3.95100000      27.39900000      36.24200000
 H       3.74900000      28.15800000      35.68200000
 H       3.31700000      27.51800000      37.06300000
 O       6.36900000      27.28600000      33.69700000
 H       5.76800000      27.62800000      32.96900000
 H       5.82200000      26.78200000      34.30200000
 O       8.45900000      28.45000000      35.10900000
 H       8.75500000      28.38600000      36.00600000
 H       7.70200000      27.86900000      35.01900000
 O       3.66300000      29.63300000      34.40500000
 H       2.88600000      30.17500000      34.59400000
 H       3.42700000      28.98700000      33.67500000
 O      10.61800000      29.61000000      33.78500000
 H      11.28800000      28.87900000      33.80400000
 H       9.87900000      29.26300000      34.30700000
 O       8.92800000      25.58200000      33.52300000
 H       8.64600000      26.57000000      33.53800000
 H       8.02400000      25.19500000      33.41800000
 O       3.50500000      32.02000000      28.67200000
 H       2.59300000      31.85300000      28.30100000
 H       3.29700000      32.86300000      29.12700000
 O       1.85700000      33.79700000      30.55800000
 H       1.34800000      33.41200000      31.27300000
 H       2.21200000      34.57700000      31.05300000
 O      10.33700000      34.80400000      28.88000000
 H      11.17300000      35.02700000      28.37700000
 H      10.19300000      33.82400000      28.68400000
 O       7.72000000      36.37400000      28.50100000
 H       8.39900000      35.73200000      28.79900000
 H       8.02000000      36.48000000      27.56900000
 O       5.20000000      35.88000000      27.33500000
 H       5.25000000      34.93600000      27.35500000
 H       6.06100000      36.07700000      27.82400000
 O      10.01700000      31.97700000      28.44200000
 H       9.33400000      31.55300000      27.77200000
 H       9.96300000      31.28400000      29.15700000
 O       7.29400000      33.13100000      28.77000000
 H       7.77600000      32.35500000      29.11100000
 H       7.22800000      32.77400000      27.80000000
 O       7.27400000      35.13100000      33.01200000
 H       7.57300000      34.75800000      32.09300000
 H       6.93000000      36.01600000      32.66600000
 O       4.90800000      33.68300000      33.54900000
 H       5.72700000      34.12100000      33.21000000
 H       4.98100000      32.72200000      33.15700000
 O       9.58300000      36.81600000      34.86600000
 H       8.89800000      36.13900000      34.58800000
 H      10.09000000      37.18700000      34.10100000
 O       7.13000000      36.05900000      36.39900000
 H       7.54000000      35.13500000      36.29700000
 H       6.33800000      35.97000000      35.92100000
 O       2.13700000      32.11000000      36.94800000
 H       1.32300000      32.60800000      36.85100000
 H       2.80800000      32.78500000      37.30400000
 O       8.15900000      33.13400000      36.20200000
 H       7.31200000      32.74900000      35.91100000
 H       8.63500000      32.52200000      36.74500000
 O       5.73900000      31.99100000      35.91000000
 H       5.24800000      31.48600000      35.23800000
 H       5.13900000      32.57800000      36.44500000
 O       2.80300000      35.30300000      34.36900000
 H       3.29400000      36.14700000      34.25200000
 H       3.50300000      34.71100000      34.19500000
 O      10.03100000      33.82400000      34.40700000
 H       9.37400000      33.95700000      35.20200000
 H       9.47000000      34.23200000      33.69600000
