129
XYZ file of cluster: frame_9500_98383.21c94.385d - created by MolEdiTo
 O      28.40200000      13.18300000       8.43200000
 H      29.31300000      12.89700000       8.24100000
 H      27.91700000      12.36900000       8.45800000
 O      28.11100000       8.31300000       1.87700000
 H      28.52200000       8.79900000       2.54600000
 H      27.57100000       7.80000000       2.46000000
 O      22.57800000      16.50300000       4.25700000
 H      22.62500000      15.54900000       4.52000000
 H      21.57200000      16.72100000       4.34400000
 O      28.01400000      13.04800000       2.63500000
 H      28.77900000      12.37700000       2.50200000
 H      28.64300000      13.80800000       2.86100000
 O      30.60300000      11.53900000       2.88300000
 H      29.94800000      11.11200000       3.46800000
 H      31.12500000      10.80900000       2.44800000
 O      23.73600000       6.41300000       8.97900000
 H      23.64700000       6.12100000       9.93600000
 H      22.79500000       6.52700000       8.73500000
 O      23.95300000       5.58200000       2.89700000
 H      24.45700000       5.07700000       2.16800000
 H      23.91200000       4.93700000       3.63800000
 O      29.02300000      11.17000000      11.29300000
 H      28.41900000      10.92200000      10.52200000
 H      29.69700000      10.44300000      11.36600000
 O      26.03600000      16.21200000       4.09600000
 H      25.54700000      15.87100000       4.91900000
 H      26.62200000      15.41300000       3.81100000
 O      28.96900000      10.05300000       4.18500000
 H      29.09100000      10.31900000       5.13800000
 H      27.95700000      10.12800000       4.11900000
 O      29.98300000      15.26300000       2.79800000
 H      30.60100000      15.93000000       2.47000000
 H      30.23100000      15.21400000       3.71700000
 O      24.76200000      10.64800000       2.56400000
 H      25.32500000      10.49400000       1.74900000
 H      24.02400000      11.18300000       2.19700000
 O      25.15100000       9.38300000       6.54900000
 H      24.30800000       9.21400000       7.10800000
 H      25.43400000       8.48300000       6.21800000
 O      22.91500000       8.26700000       0.88900000
 H      22.89000000       9.18900000       0.50200000
 H      23.65700000       7.80700000       0.45800000
 O      26.82800000       6.89000000       3.76900000
 H      26.28100000       6.10900000       4.05300000
 H      27.27300000       7.05600000       4.62200000
 O      25.46000000      14.01600000       1.83700000
 H      25.57600000      13.76900000       0.86800000
 H      26.29500000      13.65000000       2.14000000
 O      26.71400000      11.03700000       8.11100000
 H      26.36400000      10.93300000       9.05300000
 H      26.07000000      10.63300000       7.48700000
 O      26.45800000       7.35800000       8.20200000
 H      25.50200000       7.10700000       8.17400000
 H      26.45900000       8.06900000       8.81500000
 O      29.15300000      10.63500000       6.67700000
 H      29.70400000      10.96900000       7.42100000
 H      28.23600000      10.93700000       6.91500000
 O      23.01300000      11.17100000       5.86000000
 H      23.80300000      10.99400000       5.27200000
 H      22.54200000      10.29300000       5.72100000
 O      30.30200000      15.75700000       6.00000000
 H      29.29200000      15.99800000       5.92000000
 H      30.26800000      14.77900000       5.91700000
 O      23.57700000      14.27000000      10.02400000
 H      24.46800000      14.66100000       9.95500000
 H      23.29800000      14.58700000      10.96400000
 O      24.09100000       5.40700000       6.28300000
 H      24.07500000       6.01600000       7.09100000
 H      24.97600000       4.95000000       6.50800000
 O      22.19900000      11.95700000       2.03600000
 H      21.56800000      12.15600000       1.32300000
 H      22.22200000      12.79800000       2.51600000
 O      26.10500000      15.02500000       8.97500000
 H      26.96400000      14.50100000       9.10700000
 H      26.50000000      15.89300000       9.40700000
 O      23.62100000       8.30300000       3.90900000
 H      23.61300000       7.46700000       3.40000000
 H      24.03800000       9.01600000       3.28200000
 O      20.61500000      13.77300000       7.69600000
 H      20.33200000      14.46900000       7.16000000
 H      21.32200000      14.16800000       8.14100000
 O      24.02800000      10.96300000       9.74800000
 H      23.92500000      11.83700000       9.34800000
 H      24.06100000      11.13600000      10.73400000
 O      20.93100000      15.52900000      10.05900000
 H      21.81600000      15.31900000       9.79600000
 H      20.68900000      16.22100000       9.36800000
 O      22.62800000       8.15700000       6.73000000
 H      21.88300000       7.56000000       6.72400000
 H      23.06200000       8.05600000       5.83300000
 O      20.61700000       8.25600000       2.75200000
 H      20.74000000       7.64600000       3.52700000
 H      21.37500000       8.25200000       2.16300000
 O      28.25700000       4.78800000       2.44800000
 H      27.57400000       4.31300000       3.03700000
 H      28.08800000       5.73000000       2.65900000
 O      22.07100000      13.62200000       4.52600000
 H      21.13600000      13.37300000       4.63500000
 H      22.46300000      13.06100000       5.15300000
 O      26.02600000       9.24900000      10.42600000
 H      25.67500000       8.65800000      11.11700000
 H      25.17700000       9.62500000      10.15000000
 O      20.47000000       9.69700000       5.04900000
 H      19.77900000       9.31200000       4.39700000
 H      21.27200000       9.37200000       4.63100000
 O      22.98700000      15.31700000       1.56700000
 H      23.92700000      14.91500000       1.54200000
 H      22.79300000      15.02800000       2.48100000
 O      27.78100000      14.35200000       5.77900000
 H      26.85900000      13.91700000       5.85000000
 H      28.32400000      13.55200000       5.56100000
 O      26.46700000      10.70900000       4.68400000
 H      25.73400000      10.69200000       4.00200000
 H      26.02100000      10.31400000       5.48200000
 O      20.56900000       6.01100000       4.66700000
 H      21.32200000       5.36000000       4.59400000
 H      19.95900000       5.71800000       3.93200000
 O      30.63500000      15.53200000       8.70600000
 H      30.72200000      15.21800000       7.82200000
 H      31.44700000      15.37100000       9.06000000
 O      21.70600000       9.64500000      10.79100000
 H      22.12900000       9.53000000      11.62300000
 H      22.35300000       9.99000000      10.18500000
 O      28.11800000       7.40800000       6.08400000
 H      27.76700000       7.08700000       6.91300000
 H      29.02300000       7.70600000       6.20900000
 O      25.21000000      13.92300000       6.38000000
 H      24.29900000      13.58600000       6.56100000
 H      25.43400000      14.14000000       7.31700000
