 Entering Gaussian System, Link 0=g16
 Input=G98.INP
 Output=G98.OUT
 Initial command:
 /usr/local/g16-A.03/sse4/g16/l1.exe "/scratch/zronyj/cluster_404/Gau-5313.inp" -scrdir="/scratch/zronyj/cluster_404/"
 Entering Link 1 = /usr/local/g16-A.03/sse4/g16/l1.exe PID=      5314.
  
 Copyright (c) 1988,1990,1992,1993,1995,1998,2003,2009,2016,
            Gaussian, Inc.  All Rights Reserved.
  
 This is part of the Gaussian(R) 16 program.  It is based on
 the Gaussian(R) 09 system (copyright 2009, Gaussian, Inc.),
 the Gaussian(R) 03 system (copyright 2003, Gaussian, Inc.),
 the Gaussian(R) 98 system (copyright 1998, Gaussian, Inc.),
 the Gaussian(R) 94 system (copyright 1995, Gaussian, Inc.),
 the Gaussian 92(TM) system (copyright 1992, Gaussian, Inc.),
 the Gaussian 90(TM) system (copyright 1990, Gaussian, Inc.),
 the Gaussian 88(TM) system (copyright 1988, Gaussian, Inc.),
 the Gaussian 86(TM) system (copyright 1986, Carnegie Mellon
 University), and the Gaussian 82(TM) system (copyright 1983,
 Carnegie Mellon University). Gaussian is a federally registered
 trademark of Gaussian, Inc.
  
 This software contains proprietary and confidential information,
 including trade secrets, belonging to Gaussian, Inc.
  
 This software is provided under written license and may be
 used, copied, transmitted, or stored only in accord with that
 written license.
  
 The following legend is applicable only to US Government
 contracts under FAR:
  
                    RESTRICTED RIGHTS LEGEND
  
 Use, reproduction and disclosure by the US Government is
 subject to restrictions as set forth in subparagraphs (a)
 and (c) of the Commercial Computer Software - Restricted
 Rights clause in FAR 52.227-19.
  
 Gaussian, Inc.
 340 Quinnipiac St., Bldg. 40, Wallingford CT 06492
  
  
 ---------------------------------------------------------------
 Warning -- This program may not be used in any manner that
 competes with the business of Gaussian, Inc. or will provide
 assistance to any competitor of Gaussian, Inc.  The licensee
 of this program is prohibited from giving any competitor of
 Gaussian, Inc. access to this program.  By using this program,
 the user acknowledges that Gaussian, Inc. is engaged in the
 business of creating and licensing software in the field of
 computational chemistry and represents and warrants to the
 licensee that it is not a competitor of Gaussian, Inc. and that
 it will not use this program in any manner prohibited above.
 ---------------------------------------------------------------
  

 Cite this work as:
 Gaussian 16, Revision A.03,
 M. J. Frisch, G. W. Trucks, H. B. Schlegel, G. E. Scuseria, 
 M. A. Robb, J. R. Cheeseman, G. Scalmani, V. Barone, 
 G. A. Petersson, H. Nakatsuji, X. Li, M. Caricato, A. V. Marenich, 
 J. Bloino, B. G. Janesko, R. Gomperts, B. Mennucci, H. P. Hratchian, 
 J. V. Ortiz, A. F. Izmaylov, J. L. Sonnenberg, D. Williams-Young, 
 F. Ding, F. Lipparini, F. Egidi, J. Goings, B. Peng, A. Petrone, 
 T. Henderson, D. Ranasinghe, V. G. Zakrzewski, J. Gao, N. Rega, 
 G. Zheng, W. Liang, M. Hada, M. Ehara, K. Toyota, R. Fukuda, 
 J. Hasegawa, M. Ishida, T. Nakajima, Y. Honda, O. Kitao, H. Nakai, 
 T. Vreven, K. Throssell, J. A. Montgomery, Jr., J. E. Peralta, 
 F. Ogliaro, M. J. Bearpark, J. J. Heyd, E. N. Brothers, K. N. Kudin, 
 V. N. Staroverov, T. A. Keith, R. Kobayashi, J. Normand, 
 K. Raghavachari, A. P. Rendell, J. C. Burant, S. S. Iyengar, 
 J. Tomasi, M. Cossi, J. M. Millam, M. Klene, C. Adamo, R. Cammi, 
 J. W. Ochterski, R. L. Martin, K. Morokuma, O. Farkas, 
 J. B. Foresman, and D. J. Fox, Gaussian, Inc., Wallingford CT, 2016.
 
 ******************************************
 Gaussian 16:  ES64L-G16RevA.03 25-Dec-2016
                23-Aug-2023 
 ******************************************
 %chk=cluster_404.chk
 %mem=8GB
 %nproc=8
 Will use up to    8 processors via shared memory.
 ----------------------------------------------------------------------
 #b3lyp/6-31G** scrf=(cpcm,Solvent=Water) nosymm force iop(2/11=1) Geom
 =(NoDistance,NoAngle) guess=checkpoint
 ----------------------------------------------------------------------
 1/10=7,30=1,38=1/1,3;
 2/9=11,11=1,12=2,15=1,17=6,18=5,40=1/2;
 3/5=1,6=6,7=101,11=2,25=1,30=1,70=2101,71=1,72=1,74=-5,116=-2/1,2,3;
 4/5=1/1;
 5/5=2,38=6,53=1/2;
 6/7=2,8=2,9=2,10=2,28=1/1;
 7/29=1,30=1/1,2,3,16;
 1/10=7,30=1/3;
 99//99;
 -----------
 cluster_404
 -----------
 Symbolic Z-matrix:
 Charge =  0 Multiplicity = 1
 O                     14.93325   4.54179   13.75288 
 H                     15.37728   5.05543   14.44678 
 H                     14.78653   3.67398   14.17338 
 O                     17.05361   5.7396    15.93271 
 H                     17.14729   6.37435   16.65503 
 H                     17.68323   5.02973   16.15838 
 O                     14.4728   1.88247   18.14451 
 H                     14.87147   1.07202   18.48772 
 H                     13.5204   1.7305    18.22685 
 O                     20.46296   2.54324   20.21942 
 H                     20.17009   2.64838   19.29886 
 H                     19.72711   2.0645    20.63209 
 O                     18.53448   6.94863   13.78446 
 H                     17.99338   6.56155   14.50081 
 H                     19.41674   7.00643   14.17685 
 O                     17.81461   2.94998   15.06128 
 H                     17.17777   2.227     15.21154 
 H                     17.36035   3.47866   14.3922 
 O                     19.52713   4.28406   17.25304 
 H                     19.50947   3.67483   16.49767 
 H                     18.67331   4.08063   17.69382 
 O                     17.09683   2.39733   20.61227 
 H                     17.40502   3.18888   21.08339 
 H                     16.27263   2.15124   21.05802 
 O                     16.92395   4.00268   18.3486 
 H                     16.85202   3.32779   19.05824 
 H                     16.31907   3.69961   17.6549 
 O                     15.08954   1.68933   15.08164 
 H                     14.61336   0.9457    14.69083 
 H                     14.81799   1.70302   16.02184 
 O                     13.44384   6.14772   16.92957 
 H                     13.32786   6.96763   17.42589 
 H                     14.36384   6.19071   16.6369 
 O                     19.02658   5.22841   20.63615 
 H                     18.58621   5.2807    19.77476 
 H                     19.63627   4.47084   20.54005 
 

 GradGradGradGradGradGradGradGradGradGradGradGradGradGradGradGradGradGrad
 Berny optimization.
 Initialization pass.
 Trust Radius=3.00D-01 FncErr=1.00D-07 GrdErr=1.00D-07 EigMax=2.50D+02 EigMin=1.00D-04
 Number of steps in this run=      2 maximum allowed number of steps=      2.
 GradGradGradGradGradGradGradGradGradGradGradGradGradGradGradGradGradGrad

                          Input orientation:                          
 ---------------------------------------------------------------------
 Center     Atomic      Atomic             Coordinates (Angstroms)
 Number     Number       Type             X           Y           Z
 ---------------------------------------------------------------------
      1          8           0       14.933252    4.541789   13.752879
      2          1           0       15.377281    5.055431   14.446783
      3          1           0       14.786533    3.673976   14.173384
      4          8           0       17.053608    5.739598   15.932707
      5          1           0       17.147293    6.374350   16.655026
      6          1           0       17.683234    5.029726   16.158381
      7          8           0       14.472804    1.882472   18.144507
      8          1           0       14.871470    1.072024   18.487724
      9          1           0       13.520404    1.730502   18.226849
     10          8           0       20.462961    2.543240   20.219417
     11          1           0       20.170092    2.648381   19.298856
     12          1           0       19.727107    2.064497   20.632093
     13          8           0       18.534483    6.948628   13.784456
     14          1           0       17.993381    6.561555   14.500807
     15          1           0       19.416743    7.006428   14.176852
     16          8           0       17.814608    2.949978   15.061284
     17          1           0       17.177772    2.227002   15.211539
     18          1           0       17.360347    3.478659   14.392197
     19          8           0       19.527132    4.284061   17.253040
     20          1           0       19.509472    3.674833   16.497673
     21          1           0       18.673309    4.080626   17.693817
     22          8           0       17.096825    2.397325   20.612275
     23          1           0       17.405019    3.188883   21.083391
     24          1           0       16.272625    2.151240   21.058017
     25          8           0       16.923952    4.002677   18.348599
     26          1           0       16.852015    3.327789   19.058239
     27          1           0       16.319072    3.699615   17.654895
     28          8           0       15.089538    1.689327   15.081641
     29          1           0       14.613360    0.945699   14.690832
     30          1           0       14.817989    1.703024   16.021838
     31          8           0       13.443835    6.147721   16.929566
     32          1           0       13.327863    6.967632   17.425887
     33          1           0       14.363839    6.190715   16.636899
     34          8           0       19.026585    5.228408   20.636146
     35          1           0       18.586215    5.280703   19.774761
     36          1           0       19.636275    4.470837   20.540049
 ---------------------------------------------------------------------
 Symmetry turned off by external request.
 Stoichiometry    H24O12
 Framework group  C1[X(H24O12)]
 Deg. of freedom   102
 Full point group                 C1      NOp   1
 Rotational constants (GHZ):           0.3950333           0.2590703           0.2144145
 Standard basis: 6-31G(d,p) (6D, 7F)
   300 basis functions,   504 primitive gaussians,   300 cartesian basis functions
    60 alpha electrons       60 beta electrons
       nuclear repulsion energy       886.4767259925 Hartrees.
 NAtoms=   36 NActive=   36 NUniq=   36 SFac= 1.00D+00 NAtFMM=   60 NAOKFM=F Big=F
 Integral buffers will be    131072 words long.
 Raffenetti 2 integral format.
 Two-electron integral symmetry is turned off.
 ------------------------------------------------------------------------------
 Polarizable Continuum Model (PCM)
 =================================
 Model                : C-PCM.
 Atomic radii         : UFF (Universal Force Field).
 Polarization charges : Total charges.
 Charge compensation  : None.
 Solution method      : On-the-fly selection.
 Cavity type          : Scaled VdW (van der Waals Surface) (Alpha=1.100).
 Cavity algorithm     : GePol (No added spheres)
                        Default sphere list used, NSphG=   36.
                        Lebedev-Laikov grids with approx.  5.0 points / Ang**2.
                        Smoothing algorithm: York/Karplus (Gamma=1.0000).
                        Polarization charges: spherical gaussians, with
                                              point-specific exponents (IZeta= 3).
                        Self-potential: point-specific (ISelfS= 7).
                        Self-field    : sphere-specific E.n sum rule (ISelfD= 2).
 1st derivatives      : Analytical E(r).r(x)/FMM algorithm (CHGder, D1EAlg=3).
                        Cavity 1st derivative terms included.
 Solvent              : Water, Eps=  78.355300 Eps(inf)=   1.777849
 ------------------------------------------------------------------------------
 One-electron integrals computed using PRISM.
 NBasis=   300 RedAO= T EigKep=  1.07D-02  NBF=   300
 NBsUse=   300 1.00D-06 EigRej= -1.00D+00 NBFU=   300
 Initial guess from the checkpoint file:  "cluster_404.chk"
 B after Tr=    -0.000245    0.000618    0.000116
         Rot=    1.000000   -0.000008    0.000002   -0.000004 Ang=  -0.00 deg.
 Requested convergence on RMS density matrix=1.00D-08 within 128 cycles.
 Requested convergence on MAX density matrix=1.00D-06.
 Requested convergence on             energy=1.00D-06.
 No special actions if energy rises.
 Inv3:  Mode=1 IEnd=    32314572.
 Iteration    1 A*A^-1 deviation from unit magnitude is 1.09D-14 for    409.
 Iteration    1 A*A^-1 deviation from orthogonality  is 4.65D-15 for   1758    744.
 Iteration    1 A^-1*A deviation from unit magnitude is 1.11D-14 for    409.
 Iteration    1 A^-1*A deviation from orthogonality  is 3.54D-15 for   2847    407.
 Error on total polarization charges =  0.00403
 SCF Done:  E(RB3LYP) =  -917.226550433     A.U. after    8 cycles
            NFock=  8  Conv=0.64D-08     -V/T= 2.0086

 **********************************************************************

            Population analysis using the SCF density.

 **********************************************************************

 Alpha  occ. eigenvalues --  -19.17237 -19.16849 -19.16604 -19.15838 -19.15773
 Alpha  occ. eigenvalues --  -19.14708 -19.14701 -19.13834 -19.13723 -19.13718
 Alpha  occ. eigenvalues --  -19.13175 -19.11813  -1.02769  -1.02322  -1.02006
 Alpha  occ. eigenvalues --   -1.01236  -1.01012  -1.00228  -1.00022  -0.99658
 Alpha  occ. eigenvalues --   -0.99057  -0.98883  -0.98585  -0.97548  -0.54545
 Alpha  occ. eigenvalues --   -0.53934  -0.53466  -0.52967  -0.52541  -0.52067
 Alpha  occ. eigenvalues --   -0.51361  -0.51219  -0.50971  -0.50464  -0.50352
 Alpha  occ. eigenvalues --   -0.49626  -0.41875  -0.41282  -0.40552  -0.40073
 Alpha  occ. eigenvalues --   -0.39222  -0.39043  -0.38220  -0.37630  -0.37532
 Alpha  occ. eigenvalues --   -0.36938  -0.36619  -0.36321  -0.32805  -0.32079
 Alpha  occ. eigenvalues --   -0.31824  -0.31427  -0.31365  -0.30806  -0.30407
 Alpha  occ. eigenvalues --   -0.29705  -0.29586  -0.29562  -0.29067  -0.27956
 Alpha virt. eigenvalues --    0.00921   0.03852   0.04879   0.07181   0.08893
 Alpha virt. eigenvalues --    0.09273   0.10570   0.11499   0.12315   0.13116
 Alpha virt. eigenvalues --    0.13700   0.14798   0.15722   0.16687   0.18055
 Alpha virt. eigenvalues --    0.18573   0.19281   0.19922   0.21298   0.22098
 Alpha virt. eigenvalues --    0.22984   0.24412   0.25630   0.27971   0.68359
 Alpha virt. eigenvalues --    0.69541   0.70404   0.71929   0.72942   0.73225
 Alpha virt. eigenvalues --    0.74720   0.75789   0.76126   0.76791   0.77450
 Alpha virt. eigenvalues --    0.77724   0.78420   0.79249   0.79726   0.80133
 Alpha virt. eigenvalues --    0.80305   0.81113   0.81593   0.82204   0.82661
 Alpha virt. eigenvalues --    0.82757   0.83653   0.83872   0.86453   0.86904
 Alpha virt. eigenvalues --    0.87165   0.88036   0.88904   0.89504   0.90045
 Alpha virt. eigenvalues --    0.90455   0.91204   0.91740   0.91804   0.92586
 Alpha virt. eigenvalues --    0.93250   0.93759   0.94617   0.95630   0.97415
 Alpha virt. eigenvalues --    0.97596   0.98090   0.99135   0.99318   1.01405
 Alpha virt. eigenvalues --    1.02877   1.03632   1.04801   1.06037   1.06955
 Alpha virt. eigenvalues --    1.08236   1.09819   1.10675   1.11151   1.12688
 Alpha virt. eigenvalues --    1.14028   1.14945   1.18196   1.19458   1.20349
 Alpha virt. eigenvalues --    1.22852   1.25571   1.25934   1.27537   1.31194
 Alpha virt. eigenvalues --    1.35593   1.39936   1.41964   1.43091   1.45487
 Alpha virt. eigenvalues --    1.46785   1.50347   1.50500   1.51301   1.51391
 Alpha virt. eigenvalues --    1.51708   1.52179   1.52447   1.52798   1.53021
 Alpha virt. eigenvalues --    1.53185   1.53444   1.54031   1.54491   1.54834
 Alpha virt. eigenvalues --    1.55048   1.55503   1.55966   1.56236   1.57167
 Alpha virt. eigenvalues --    1.58393   1.59144   1.59539   1.59735   1.60705
 Alpha virt. eigenvalues --    1.63603   1.63971   1.64312   1.65448   1.65596
 Alpha virt. eigenvalues --    1.66404   1.68169   1.72800   1.74294   1.75513
 Alpha virt. eigenvalues --    1.77041   1.84814   2.17893   2.19252   2.20825
 Alpha virt. eigenvalues --    2.21216   2.22628   2.23263   2.23413   2.23790
 Alpha virt. eigenvalues --    2.25066   2.25370   2.25664   2.26047   2.26578
 Alpha virt. eigenvalues --    2.27155   2.27543   2.27890   2.28065   2.28640
 Alpha virt. eigenvalues --    2.29442   2.29953   2.30930   2.33149   2.34262
 Alpha virt. eigenvalues --    2.36296   2.42143   2.42356   2.43113   2.43803
 Alpha virt. eigenvalues --    2.44904   2.45356   2.45785   2.46209   2.47517
 Alpha virt. eigenvalues --    2.49697   2.50457   2.51147   2.60062   2.60522
 Alpha virt. eigenvalues --    2.62021   2.62071   2.62439   2.62925   2.63314
 Alpha virt. eigenvalues --    2.64094   2.64222   2.64782   2.65028   2.65630
 Alpha virt. eigenvalues --    2.66115   2.66539   2.67135   2.67598   2.67672
 Alpha virt. eigenvalues --    2.68199   2.68401   2.69649   2.70161   2.71324
 Alpha virt. eigenvalues --    2.71886   2.74801   2.99620   3.00445   3.00939
 Alpha virt. eigenvalues --    3.01520   3.02624   3.02690   3.02945   3.03061
 Alpha virt. eigenvalues --    3.03453   3.04934   3.05241   3.05998   3.28697
 Alpha virt. eigenvalues --    3.30308   3.32283   3.32969   3.34026   3.34950
 Alpha virt. eigenvalues --    3.36626   3.37861   3.39350   3.40941   3.42088
 Alpha virt. eigenvalues --    3.43119   3.51411   3.52334   3.53954   3.54842
 Alpha virt. eigenvalues --    3.55438   3.57857   3.59210   3.60612   3.60915
 Alpha virt. eigenvalues --    3.62642   3.63245   3.63724   3.68920   3.70256
 Alpha virt. eigenvalues --    3.71639   3.75071   3.80543   3.82516   3.85458
 Alpha virt. eigenvalues --    3.93080   3.98987   4.05985   4.11720   4.20208
          Condensed to atoms (all electrons):
               1          2          3          4          5          6
     1  O    8.122147   0.284337   0.276944  -0.002897   0.000108   0.000091
     2  H    0.284337   0.398891  -0.028509   0.019941  -0.000752  -0.000815
     3  H    0.276944  -0.028509   0.395860   0.000108   0.000002   0.000024
     4  O   -0.002897   0.019941   0.000108   8.033639   0.287011   0.246316
     5  H    0.000108  -0.000752   0.000002   0.287011   0.387251  -0.018792
     6  H    0.000091  -0.000815   0.000024   0.246316  -0.018792   0.396770
     7  O   -0.000000   0.000000   0.000002  -0.000000   0.000000  -0.000004
     8  H    0.000000  -0.000000  -0.000001  -0.000000  -0.000000   0.000000
     9  H    0.000000  -0.000000   0.000000  -0.000000  -0.000000   0.000000
    10  O   -0.000000   0.000000   0.000000  -0.000000   0.000000   0.000001
    11  H    0.000000  -0.000000  -0.000000   0.000001  -0.000000  -0.000052
    12  H   -0.000000   0.000000  -0.000000   0.000000  -0.000000  -0.000000
    13  O   -0.000013   0.000061   0.000000  -0.017617   0.001006   0.001124
    14  H    0.000129   0.000238  -0.000020   0.057137  -0.002469  -0.002271
    15  H    0.000000  -0.000010   0.000000   0.001096   0.000071   0.000336
    16  O   -0.001656   0.000725   0.000767  -0.003713   0.000157   0.017735
    17  H    0.000017   0.000027  -0.000148   0.000151  -0.000011  -0.000504
    18  H    0.014712   0.000452   0.000138   0.002250  -0.000044  -0.002840
    19  O   -0.000000   0.000001   0.000000  -0.006425   0.000774   0.035786
    20  H    0.000000  -0.000003  -0.000000   0.000088  -0.000073  -0.000208
    21  H    0.000000  -0.000001  -0.000000   0.000692   0.000156  -0.001127
    22  O   -0.000000   0.000000   0.000000  -0.000000   0.000000   0.000001
    23  H    0.000000   0.000000   0.000000   0.000000  -0.000000  -0.000000
    24  H    0.000000   0.000000  -0.000000   0.000000  -0.000000  -0.000000
    25  O   -0.000000  -0.000012  -0.000003  -0.001716   0.002602   0.002590
    26  H   -0.000000  -0.000001  -0.000000   0.000149  -0.000038  -0.000082
    27  H   -0.000005   0.000166   0.000087   0.005141  -0.000474  -0.000130
    28  O   -0.006336   0.000155   0.036775  -0.000002   0.000000  -0.000002
    29  H    0.000254  -0.000002  -0.001313   0.000000   0.000000   0.000000
    30  H    0.000281   0.000032  -0.001276  -0.000001   0.000000   0.000001
    31  O   -0.000142   0.000423   0.000028  -0.000659   0.000138   0.000014
    32  H    0.000004  -0.000044  -0.000002  -0.000021   0.000033   0.000001
    33  H    0.000764   0.001798   0.000087   0.009044  -0.000058  -0.000206
    34  O   -0.000000   0.000000   0.000000   0.000000  -0.000004  -0.000008
    35  H    0.000000  -0.000000  -0.000000  -0.000015   0.000158   0.000049
    36  H    0.000000   0.000000  -0.000000   0.000000  -0.000001  -0.000006
               7          8          9         10         11         12
     1  O   -0.000000   0.000000   0.000000  -0.000000   0.000000  -0.000000
     2  H    0.000000  -0.000000  -0.000000   0.000000  -0.000000   0.000000
     3  H    0.000002  -0.000001   0.000000   0.000000  -0.000000  -0.000000
     4  O   -0.000000  -0.000000  -0.000000  -0.000000   0.000001   0.000000
     5  H    0.000000  -0.000000  -0.000000   0.000000  -0.000000  -0.000000
     6  H   -0.000004   0.000000   0.000000   0.000001  -0.000052  -0.000000
     7  O    7.991942   0.290203   0.290879  -0.000000  -0.000000   0.000000
     8  H    0.290203   0.389047  -0.022893  -0.000000   0.000000   0.000000
     9  H    0.290879  -0.022893   0.388075   0.000000  -0.000000  -0.000000
    10  O   -0.000000  -0.000000   0.000000   8.035548   0.273260   0.284705
    11  H   -0.000000   0.000000  -0.000000   0.273260   0.411471  -0.025326
    12  H    0.000000   0.000000  -0.000000   0.284705  -0.025326   0.398144
    13  O   -0.000000   0.000000   0.000000  -0.000000   0.000000   0.000000
    14  H    0.000000   0.000000  -0.000000   0.000000   0.000000  -0.000000
    15  H    0.000000  -0.000000  -0.000000   0.000000  -0.000000   0.000000
    16  O   -0.000004  -0.000000   0.000000  -0.000000   0.000001   0.000000
    17  H    0.000013   0.000013  -0.000002   0.000000  -0.000001   0.000000
    18  H    0.000001  -0.000000  -0.000000  -0.000000   0.000000  -0.000000
    19  O    0.000000   0.000000   0.000000  -0.001659   0.015812  -0.000055
    20  H    0.000000  -0.000000  -0.000000   0.000011   0.000051  -0.000001
    21  H   -0.000000  -0.000001  -0.000000   0.000228   0.001606   0.000071
    22  O   -0.000335   0.000816   0.000007  -0.001381   0.000355   0.011580
    23  H   -0.000004  -0.000029   0.000000   0.001050  -0.000058  -0.000598
    24  H    0.000978  -0.000045  -0.000005   0.000048  -0.000005  -0.000255
    25  O   -0.001863   0.000216   0.000096  -0.000029   0.000128   0.000022
    26  H    0.004039   0.000055  -0.000080   0.000059   0.000151  -0.000065
    27  H    0.008740  -0.000535  -0.000250  -0.000000   0.000007  -0.000001
    28  O   -0.008064   0.000490   0.000403  -0.000000   0.000000   0.000000
    29  H    0.000160   0.000011   0.000017   0.000000  -0.000000  -0.000000
    30  H    0.045847  -0.002039  -0.001897   0.000000   0.000000  -0.000000
    31  O   -0.000000   0.000000   0.000006  -0.000000   0.000000  -0.000000
    32  H    0.000000  -0.000000  -0.000000  -0.000000  -0.000000   0.000000
    33  H    0.000001  -0.000000  -0.000001   0.000000  -0.000000  -0.000000
    34  O   -0.000000   0.000000   0.000000  -0.009875   0.001072   0.000942
    35  H    0.000000  -0.000000  -0.000000   0.000239   0.000200  -0.000028
    36  H    0.000000   0.000000  -0.000000   0.051141  -0.002662  -0.002828
              13         14         15         16         17         18
     1  O   -0.000013   0.000129   0.000000  -0.001656   0.000017   0.014712
     2  H    0.000061   0.000238  -0.000010   0.000725   0.000027   0.000452
     3  H    0.000000  -0.000020   0.000000   0.000767  -0.000148   0.000138
     4  O   -0.017617   0.057137   0.001096  -0.003713   0.000151   0.002250
     5  H    0.001006  -0.002469   0.000071   0.000157  -0.000011  -0.000044
     6  H    0.001124  -0.002271   0.000336   0.017735  -0.000504  -0.002840
     7  O   -0.000000   0.000000   0.000000  -0.000004   0.000013   0.000001
     8  H    0.000000   0.000000  -0.000000  -0.000000   0.000013  -0.000000
     9  H    0.000000  -0.000000  -0.000000   0.000000  -0.000002  -0.000000
    10  O   -0.000000   0.000000   0.000000  -0.000000   0.000000  -0.000000
    11  H    0.000000   0.000000  -0.000000   0.000001  -0.000001   0.000000
    12  H    0.000000  -0.000000   0.000000   0.000000   0.000000  -0.000000
    13  O    8.155319   0.271707   0.290155  -0.000036  -0.000000   0.000363
    14  H    0.271707   0.382342  -0.029499   0.000044  -0.000006   0.000382
    15  H    0.290155  -0.029499   0.425679   0.000001   0.000000  -0.000010
    16  O   -0.000036   0.000044   0.000001   8.076428   0.282900   0.274179
    17  H   -0.000000  -0.000006   0.000000   0.282900   0.380876  -0.028929
    18  H    0.000363   0.000382  -0.000010   0.274179  -0.028929   0.424429
    19  O   -0.000011   0.000004   0.000083  -0.004734   0.000204   0.000211
    20  H    0.000008   0.000043   0.000006   0.019484  -0.000560  -0.000874
    21  H   -0.000001  -0.000024  -0.000007   0.001111   0.000122  -0.000023
    22  O   -0.000000   0.000000   0.000000   0.000000   0.000000   0.000000
    23  H    0.000000  -0.000000  -0.000000   0.000000  -0.000000  -0.000000
    24  H    0.000000  -0.000000  -0.000000   0.000000  -0.000000  -0.000000
    25  O   -0.000000   0.000005   0.000000  -0.000751   0.000295   0.000024
    26  H    0.000000  -0.000000  -0.000000  -0.000038   0.000007   0.000000
    27  H    0.000001  -0.000015  -0.000000   0.003988   0.000221  -0.000096
    28  O   -0.000000   0.000000   0.000000  -0.007349   0.033556   0.001361
    29  H    0.000000  -0.000000  -0.000000   0.000273  -0.000981   0.000003
    30  H    0.000000  -0.000000   0.000000   0.000552  -0.001657  -0.000018
    31  O   -0.000000   0.000001   0.000000   0.000000  -0.000000   0.000000
    32  H   -0.000000   0.000000   0.000000   0.000000   0.000000   0.000000
    33  H    0.000002  -0.000041  -0.000000   0.000000  -0.000001  -0.000015
    34  O   -0.000000  -0.000000  -0.000000  -0.000000   0.000000   0.000000
    35  H   -0.000000   0.000000   0.000000  -0.000000  -0.000000  -0.000000
    36  H    0.000000   0.000000  -0.000000   0.000000  -0.000000  -0.000000
              19         20         21         22         23         24
     1  O   -0.000000   0.000000   0.000000  -0.000000   0.000000   0.000000
     2  H    0.000001  -0.000003  -0.000001   0.000000   0.000000   0.000000
     3  H    0.000000  -0.000000  -0.000000   0.000000   0.000000  -0.000000
     4  O   -0.006425   0.000088   0.000692  -0.000000   0.000000   0.000000
     5  H    0.000774  -0.000073   0.000156   0.000000  -0.000000  -0.000000
     6  H    0.035786  -0.000208  -0.001127   0.000001  -0.000000  -0.000000
     7  O    0.000000   0.000000  -0.000000  -0.000335  -0.000004   0.000978
     8  H    0.000000  -0.000000  -0.000001   0.000816  -0.000029  -0.000045
     9  H    0.000000  -0.000000  -0.000000   0.000007   0.000000  -0.000005
    10  O   -0.001659   0.000011   0.000228  -0.001381   0.001050   0.000048
    11  H    0.015812   0.000051   0.001606   0.000355  -0.000058  -0.000005
    12  H   -0.000055  -0.000001   0.000071   0.011580  -0.000598  -0.000255
    13  O   -0.000011   0.000008  -0.000001  -0.000000   0.000000   0.000000
    14  H    0.000004   0.000043  -0.000024   0.000000  -0.000000  -0.000000
    15  H    0.000083   0.000006  -0.000007   0.000000  -0.000000  -0.000000
    16  O   -0.004734   0.019484   0.001111   0.000000   0.000000   0.000000
    17  H    0.000204  -0.000560   0.000122   0.000000  -0.000000  -0.000000
    18  H    0.000211  -0.000874  -0.000023   0.000000  -0.000000  -0.000000
    19  O    8.125210   0.285740   0.249435  -0.000005  -0.000001   0.000000
    20  H    0.285740   0.391511  -0.025479   0.000000  -0.000000  -0.000000
    21  H    0.249435  -0.025479   0.389248   0.000050  -0.000016   0.000001
    22  O   -0.000005   0.000000   0.000050   8.017585   0.264984   0.289628
    23  H   -0.000001  -0.000000  -0.000016   0.264984   0.408087  -0.018887
    24  H    0.000000  -0.000000   0.000001   0.289628  -0.018887   0.379483
    25  O   -0.019768   0.000823   0.057235  -0.021420   0.002028   0.000796
    26  H    0.000649  -0.000003  -0.001616   0.061981  -0.005879  -0.002548
    27  H    0.000610  -0.000043  -0.002333   0.000456   0.000010  -0.000032
    28  O   -0.000000   0.000002  -0.000001  -0.000000   0.000000   0.000000
    29  H    0.000000  -0.000000   0.000000   0.000000  -0.000000  -0.000000
    30  H    0.000000  -0.000001   0.000000   0.000000   0.000000  -0.000002
    31  O   -0.000000   0.000000   0.000000  -0.000000   0.000000   0.000000
    32  H    0.000000  -0.000000   0.000000  -0.000000  -0.000000  -0.000000
    33  H    0.000000  -0.000000  -0.000003   0.000000   0.000000  -0.000000
    34  O   -0.000477   0.000023   0.000889  -0.002400   0.020219  -0.000025
    35  H    0.002671  -0.000146   0.000716   0.000447  -0.000744   0.000000
    36  H    0.000588  -0.000016   0.000727   0.000380  -0.000663   0.000003
              25         26         27         28         29         30
     1  O   -0.000000  -0.000000  -0.000005  -0.006336   0.000254   0.000281
     2  H   -0.000012  -0.000001   0.000166   0.000155  -0.000002   0.000032
     3  H   -0.000003  -0.000000   0.000087   0.036775  -0.001313  -0.001276
     4  O   -0.001716   0.000149   0.005141  -0.000002   0.000000  -0.000001
     5  H    0.002602  -0.000038  -0.000474   0.000000   0.000000   0.000000
     6  H    0.002590  -0.000082  -0.000130  -0.000002   0.000000   0.000001
     7  O   -0.001863   0.004039   0.008740  -0.008064   0.000160   0.045847
     8  H    0.000216   0.000055  -0.000535   0.000490   0.000011  -0.002039
     9  H    0.000096  -0.000080  -0.000250   0.000403   0.000017  -0.001897
    10  O   -0.000029   0.000059  -0.000000  -0.000000   0.000000   0.000000
    11  H    0.000128   0.000151   0.000007   0.000000  -0.000000   0.000000
    12  H    0.000022  -0.000065  -0.000001   0.000000  -0.000000  -0.000000
    13  O   -0.000000   0.000000   0.000001  -0.000000   0.000000   0.000000
    14  H    0.000005  -0.000000  -0.000015   0.000000  -0.000000  -0.000000
    15  H    0.000000  -0.000000  -0.000000   0.000000  -0.000000   0.000000
    16  O   -0.000751  -0.000038   0.003988  -0.007349   0.000273   0.000552
    17  H    0.000295   0.000007   0.000221   0.033556  -0.000981  -0.001657
    18  H    0.000024   0.000000  -0.000096   0.001361   0.000003  -0.000018
    19  O   -0.019768   0.000649   0.000610  -0.000000   0.000000   0.000000
    20  H    0.000823  -0.000003  -0.000043   0.000002  -0.000000  -0.000001
    21  H    0.057235  -0.001616  -0.002333  -0.000001   0.000000   0.000000
    22  O   -0.021420   0.061981   0.000456  -0.000000   0.000000   0.000000
    23  H    0.002028  -0.005879   0.000010   0.000000  -0.000000   0.000000
    24  H    0.000796  -0.002548  -0.000032   0.000000  -0.000000  -0.000002
    25  O    8.115812   0.250462   0.276736  -0.000012   0.000000  -0.000020
    26  H    0.250462   0.370236  -0.016452  -0.000001   0.000000  -0.000018
    27  H    0.276736  -0.016452   0.394994   0.000268  -0.000016   0.000660
    28  O   -0.000012  -0.000001   0.000268   8.038409   0.291069   0.263499
    29  H    0.000000   0.000000  -0.000016   0.291069   0.391085  -0.020539
    30  H   -0.000020  -0.000018   0.000660   0.263499  -0.020539   0.386050
    31  O   -0.000024  -0.000001   0.000177  -0.000000  -0.000000   0.000001
    32  H    0.000000   0.000000  -0.000009   0.000000   0.000000  -0.000000
    33  H    0.000185   0.000000   0.000345  -0.000000   0.000000  -0.000000
    34  O   -0.001391   0.000785   0.000065  -0.000000   0.000000   0.000000
    35  H    0.011534  -0.001020  -0.000356   0.000000  -0.000000  -0.000000
    36  H   -0.000034   0.000020   0.000001   0.000000  -0.000000  -0.000000
              31         32         33         34         35         36
     1  O   -0.000142   0.000004   0.000764  -0.000000   0.000000   0.000000
     2  H    0.000423  -0.000044   0.001798   0.000000  -0.000000   0.000000
     3  H    0.000028  -0.000002   0.000087   0.000000  -0.000000  -0.000000
     4  O   -0.000659  -0.000021   0.009044   0.000000  -0.000015   0.000000
     5  H    0.000138   0.000033  -0.000058  -0.000004   0.000158  -0.000001
     6  H    0.000014   0.000001  -0.000206  -0.000008   0.000049  -0.000006
     7  O   -0.000000   0.000000   0.000001  -0.000000   0.000000   0.000000
     8  H    0.000000  -0.000000  -0.000000   0.000000  -0.000000   0.000000
     9  H    0.000006  -0.000000  -0.000001   0.000000  -0.000000  -0.000000
    10  O   -0.000000  -0.000000   0.000000  -0.009875   0.000239   0.051141
    11  H    0.000000  -0.000000  -0.000000   0.001072   0.000200  -0.002662
    12  H   -0.000000   0.000000  -0.000000   0.000942  -0.000028  -0.002828
    13  O   -0.000000  -0.000000   0.000002  -0.000000  -0.000000   0.000000
    14  H    0.000001   0.000000  -0.000041  -0.000000   0.000000   0.000000
    15  H    0.000000   0.000000  -0.000000  -0.000000   0.000000  -0.000000
    16  O    0.000000   0.000000   0.000000  -0.000000  -0.000000   0.000000
    17  H   -0.000000   0.000000  -0.000001   0.000000  -0.000000  -0.000000
    18  H    0.000000   0.000000  -0.000015   0.000000  -0.000000  -0.000000
    19  O   -0.000000   0.000000   0.000000  -0.000477   0.002671   0.000588
    20  H    0.000000  -0.000000  -0.000000   0.000023  -0.000146  -0.000016
    21  H    0.000000   0.000000  -0.000003   0.000889   0.000716   0.000727
    22  O   -0.000000  -0.000000   0.000000  -0.002400   0.000447   0.000380
    23  H    0.000000  -0.000000   0.000000   0.020219  -0.000744  -0.000663
    24  H    0.000000  -0.000000  -0.000000  -0.000025   0.000000   0.000003
    25  O   -0.000024   0.000000   0.000185  -0.001391   0.011534  -0.000034
    26  H   -0.000001   0.000000   0.000000   0.000785  -0.001020   0.000020
    27  H    0.000177  -0.000009   0.000345   0.000065  -0.000356   0.000001
    28  O   -0.000000   0.000000  -0.000000  -0.000000   0.000000   0.000000
    29  H   -0.000000   0.000000   0.000000   0.000000  -0.000000  -0.000000
    30  H    0.000001  -0.000000  -0.000000   0.000000  -0.000000  -0.000000
    31  O    8.086614   0.292317   0.281157   0.000000  -0.000000   0.000000
    32  H    0.292317   0.406080  -0.027000   0.000000   0.000000  -0.000000
    33  H    0.281157  -0.027000   0.415944  -0.000000   0.000000  -0.000000
    34  O    0.000000   0.000000  -0.000000   8.116980   0.287219   0.265543
    35  H   -0.000000   0.000000   0.000000   0.287219   0.405407  -0.029947
    36  H    0.000000  -0.000000  -0.000000   0.265543  -0.029947   0.406967
 Mulliken charges:
               1
     1  O   -0.688739
     2  H    0.322899
     3  H    0.320450
     4  O   -0.629697
     5  H    0.343248
     6  H    0.326208
     7  O   -0.622531
     8  H    0.344692
     9  H    0.345645
    10  O   -0.633346
    11  H    0.323990
    12  H    0.333693
    13  O   -0.702069
    14  H    0.322313
    15  H    0.312099
    16  O   -0.660065
    17  H    0.334396
    18  H    0.314342
    19  O   -0.684643
    20  H    0.329618
    21  H    0.328344
    22  O   -0.622728
    23  H    0.330503
    24  H    0.350867
    25  O   -0.674545
    26  H    0.339250
    27  H    0.328074
    28  O   -0.644221
    29  H    0.339979
    30  H    0.330544
    31  O   -0.660049
    32  H    0.328640
    33  H    0.317995
    34  O   -0.679558
    35  H    0.323615
    36  H    0.310786
 Sum of Mulliken charges =  -0.00000
 Mulliken charges with hydrogens summed into heavy atoms:
               1
     1  O   -0.045389
     4  O    0.039759
     7  O    0.067806
    10  O    0.024337
    13  O   -0.067658
    16  O   -0.011327
    19  O   -0.026681
    22  O    0.058642
    25  O   -0.007221
    28  O    0.026302
    31  O   -0.013413
    34  O   -0.045156
 Electronic spatial extent (au):  <R**2>=         262881.7713
 Charge=              0.0000 electrons
 Dipole moment (field-independent basis, Debye):
    X=             -7.2684    Y=             -9.9679    Z=              7.6257  Tot=             14.5031
 Quadrupole moment (field-independent basis, Debye-Ang):
   XX=           -336.8547   YY=           -134.0445   ZZ=            156.4045
   XY=           -182.2596   XZ=            -19.6889   YZ=           -135.6027
 Traceless Quadrupole moment (field-independent basis, Debye-Ang):
   XX=           -232.0231   YY=            -29.2129   ZZ=            261.2361
   XY=           -182.2596   XZ=            -19.6889   YZ=           -135.6027
 Octapole moment (field-independent basis, Debye-Ang**2):
  XXX=         -10955.8473  YYY=          -1200.2878  ZZZ=           1468.2219  XYY=          -2359.9534
  XXY=          -3731.0872  XXZ=          -4427.6207  XZZ=           -386.3729  YZZ=          -2280.8203
  YYZ=          -2099.2586  XYZ=          -2638.4459
 Hexadecapole moment (field-independent basis, Debye-Ang**3):
 XXXX=        -306053.2069 YYYY=         -10019.8508 ZZZZ=         -24561.8224 XXXY=         -81326.7937
 XXXZ=        -173371.5555 YYYX=         -21212.1636 YYYZ=         -18971.3466 ZZZX=         -37282.9190
 ZZZY=         -47010.7480 XXYY=         -43736.1862 XXZZ=         -86261.9062 YYZZ=         -36186.0996
 XXYZ=         -57553.3892 YYXZ=         -37750.2280 ZZXY=         -46658.2218
 N-N= 8.864767259925D+02 E-N=-3.938271574385D+03  KE= 9.093739694527D+02
 D1PCM: C-PCM CHGder 1st derivatives, ID1Alg=3 FixD1E=F DoIter=F DoCFld=F I1PDM=0.
 Calling FoFJK, ICntrl=      2127 FMM=F ISym2X=0 I1Cent= 0 IOpClX= 0 NMat=1 NMatS=1 NMatT=0.
 -------------------------------------------------------------------
 Center     Atomic                   Forces (Hartrees/Bohr)
 Number     Number              X              Y              Z
 -------------------------------------------------------------------
      1        8           0.003663245   -0.003474746    0.004703033
      2        1           0.000183759   -0.001142486   -0.000347383
      3        1           0.001026521    0.000775173   -0.000111220
      4        8          -0.000750169   -0.001752012   -0.002820844
      5        1          -0.000392969    0.000570773    0.001094325
      6        1          -0.001091209    0.001562584   -0.000774727
      7        8           0.001340686    0.001050303   -0.005654216
      8        1           0.000202651   -0.000760448    0.000114616
      9        1           0.000842294    0.000398014    0.000100856
     10        8          -0.005714380    0.003666295   -0.001957688
     11        1           0.002346522    0.000210978    0.000299255
     12        1           0.000020098    0.000334830   -0.001232788
     13        8           0.000762935   -0.000369584    0.001210924
     14        1           0.000626414    0.000473537   -0.000692497
     15        1          -0.001704537   -0.000247377   -0.000484095
     16        8          -0.002013045   -0.002310839    0.001794858
     17        1          -0.000391377    0.002511716   -0.000063278
     18        1          -0.000841662    0.001581720   -0.001963626
     19        8          -0.004828544   -0.003945878    0.000675935
     20        1          -0.000516415   -0.000128366   -0.000095219
     21        1          -0.000918020   -0.000511504    0.000475668
     22        8           0.002496162    0.002598720    0.000716280
     23        1           0.000442759    0.000308801   -0.000213032
     24        1           0.001180145    0.000662467   -0.000662406
     25        8           0.000963991   -0.001299995   -0.000452991
     26        1           0.000215991    0.000117343   -0.000040970
     27        1           0.001075459    0.000752737    0.001896085
     28        8           0.001645950    0.005494273    0.005710496
     29        1           0.000211752   -0.000468212    0.000121855
     30        1           0.000100291   -0.000075197   -0.001442190
     31        8           0.000362014   -0.001120407   -0.000792534
     32        1           0.000319160    0.000804390    0.000201163
     33        1           0.000920433   -0.000572822    0.000494229
     34        8          -0.001004875   -0.006482178   -0.000739646
     35        1           0.000486047   -0.000369867    0.001088934
     36        1          -0.001268075    0.001157262   -0.000157158
 -------------------------------------------------------------------
 Cartesian Forces:  Max     0.006482178 RMS     0.001875605

 GradGradGradGradGradGradGradGradGradGradGradGradGradGradGradGradGradGrad
 Berny optimization.
 Search for a local minimum.
 Step number   1 out of a maximum of    2
 All quantities printed in internal units (Hartrees-Bohrs-Radians)
 Second derivative matrix not updated -- first step.
 ITU=  0
     Eigenvalues ---   -0.00000  -0.00000  -0.00000  -0.00000  -0.00000
     Eigenvalues ---   -0.00000  -0.00000  -0.00000  -0.00000  -0.00000
     Eigenvalues ---   -0.00000  -0.00000  -0.00000  -0.00000  -0.00000
     Eigenvalues ---   -0.00000  -0.00000  -0.00000  -0.00000  -0.00000
     Eigenvalues ---   -0.00000  -0.00000  -0.00000  -0.00000  -0.00000
     Eigenvalues ---   -0.00000  -0.00000  -0.00000  -0.00000  -0.00000
     Eigenvalues ---   -0.00000  -0.00000  -0.00000  -0.00000  -0.00000
     Eigenvalues ---   -0.00000   0.00000   0.00000   0.00000   0.00000
     Eigenvalues ---    0.00000   0.00000   0.00000   0.00000   0.00000
     Eigenvalues ---    0.00000   0.00000   0.00000   0.00000   0.00000
     Eigenvalues ---    0.00000   0.00000   0.00000   0.00000   0.00000
     Eigenvalues ---    0.00000   0.00000   0.00000   0.00000   0.00000
     Eigenvalues ---    0.00000   0.00000   0.00000   0.00000   0.00000
     Eigenvalues ---    0.00000   0.14437   0.14761   0.14858   0.14906
     Eigenvalues ---    0.14931   0.14990   0.15071   0.15161   0.15188
     Eigenvalues ---    0.15230   0.15292   0.15360   0.88035   0.90173
     Eigenvalues ---    0.92208   0.92944   0.94616   0.98031   0.98769
     Eigenvalues ---    0.99211   0.99423   0.99741   1.00534   1.00994
     Eigenvalues ---    1.09760   1.10454   1.12519   1.13714   1.15780
     Eigenvalues ---    1.16548   1.17746   1.18249   1.18813   1.19085
     Eigenvalues ---    1.20076   1.20518
 Eigenvalue     1 is  -2.33D-15 should be greater than     0.000000 Eigenvector:
                          Y33       Y34       Z33       X34       Z23
   1                    0.30174  -0.25871   0.21533  -0.20601  -0.18615
                          Y24       Z2        X26       Z36       Z17
   1                    0.17911  -0.17864  -0.17629  -0.17326   0.17238
 Eigenvalue     2 is  -2.00D-15 should be greater than     0.000000 Eigenvector:
                          Y20       Y29       Z19       X34       Z29
   1                    0.38780   0.25950   0.24207   0.22028  -0.21057
                          X32       Y24       Y27       Z2        Y30
   1                   -0.20813   0.19019  -0.18802   0.16914  -0.16731
 Eigenvalue     3 is  -2.00D-15 should be greater than     0.000000 Eigenvector:
                          Z36       X35       Z32       Z22       X27
   1                    0.35659   0.31544  -0.24135  -0.22753   0.21400
                          Y33       Z34       Z28       Z30       X26
   1                   -0.20841   0.19103   0.18400   0.17700  -0.16192
 Eigenvalue     4 is  -1.55D-15 should be greater than     0.000000 Eigenvector:
                          X25       Z27       X26       Z26       Y32
   1                    0.44741   0.31011   0.29509   0.26502  -0.21334
                          X28       Y26       X30       X34       Y22
   1                   -0.19828   0.19513   0.18974  -0.17605   0.16521
 Eigenvalue     5 is  -1.55D-15 should be greater than     0.000000 Eigenvector:
                          Y27       X7        X30       X9        X26
   1                    0.33138  -0.30899   0.27707  -0.26339  -0.25201
                          X23       Y9        Y19       Y20       Y35
   1                    0.22935  -0.21547   0.18631   0.17933  -0.17073
 Eigenvalue     6 is  -1.44D-15 should be greater than     0.000000 Eigenvector:
                          Z12       Y12       Y13       X18       Z14
   1                    0.36066   0.34288  -0.29862  -0.21413   0.19214
                          Z15       X17       Y24       Z5        Y17
   1                    0.19041  -0.17013  -0.16073  -0.15329   0.15328
 Eigenvalue     7 is  -1.44D-15 should be greater than     0.000000 Eigenvector:
                          Z17       Z15       Y14       Z18       Z7
   1                    0.32845  -0.26641  -0.24092   0.19893  -0.17939
                          X21       Y15       Z5        Y17       Z20
   1                   -0.17776  -0.16922   0.15779   0.15715   0.15531
 Eigenvalue     8 is  -1.22D-15 should be greater than     0.000000 Eigenvector:
                          X23       Z6        X20       Y24       Y5
   1                    0.23049  -0.23008  -0.22196   0.20303  -0.19908
                          X1        Y8        Z8        Y19       Y10
   1                   -0.19733  -0.18825  -0.18229  -0.17449   0.17448
 Eigenvalue     9 is  -1.22D-15 should be greater than     0.000000 Eigenvector:
                          Y9        Y21       X8        X33       Z32
   1                    0.33295  -0.27480  -0.24861  -0.19893   0.19053
                          Z31       Y18       X3        X31       X20
   1                    0.18250  -0.18060   0.17391  -0.16765   0.16172
 Eigenvalue    10 is  -1.22D-15 should be greater than     0.000000 Eigenvector:
                          Z14       Y14       X25       Y27       X30
   1                    0.32680   0.27912   0.23534   0.21977  -0.21112
                          Z5        Z2        Y30       X27       Y18
   1                   -0.19314  -0.18626   0.18365   0.18350  -0.17654
 Eigenvalue    11 is  -1.22D-15 should be greater than     0.000000 Eigenvector:
                          Z23       Y27       Z24       Y4        Z5
   1                    0.29824   0.24408  -0.22303   0.21719   0.21601
                          X27       Y31       Z31       Y13       Z18
   1                   -0.20703  -0.19399   0.18452  -0.18092  -0.17383
 Eigenvalue    12 is  -1.11D-15 should be greater than     0.000000 Eigenvector:
                          X30       Y10       Z27       Z26       Z15
   1                    0.20087  -0.20017  -0.20015  -0.19798   0.18935
                          Z33       Y2        Y17       X17       Y26
   1                   -0.18727  -0.18160   0.17824  -0.16907  -0.16866
 Eigenvalue    13 is  -1.11D-15 should be greater than     0.000000 Eigenvector:
                          X30       Y12       Z21       Y18       Y24
   1                    0.30671  -0.25684  -0.22172   0.19176   0.18961
                          X25       Z5        X21       Z14       Z12
   1                   -0.17142  -0.17041  -0.16354   0.16077  -0.15848
 Eigenvalue    14 is  -9.99D-16 should be greater than     0.000000 Eigenvector:
                          Y21       Y33       X25       Y14       Z14
   1                    0.44649  -0.33469   0.31523  -0.21716  -0.17735
                          X31       Z24       Z33       Z7        Z25
   1                   -0.16397   0.16264   0.14792   0.14365  -0.14031
 Eigenvalue    15 is  -9.99D-16 should be greater than     0.000000 Eigenvector:
                          Y30       Z31       X28       Y29       Y20
   1                    0.35368  -0.31517   0.24955   0.24777  -0.24285
                          Z33       Y35       X1        Z23       Y1
   1                   -0.21691  -0.19559  -0.17048   0.15304   0.15244
 Eigenvalue    16 is  -8.88D-16 should be greater than     0.000000 Eigenvector:
                          X11       X5        Z9        X2        X19
   1                    0.28105  -0.27393  -0.24869   0.23428   0.21146
                          Z6        X29       X22       X28       Y19
   1                    0.20548  -0.19842   0.19553  -0.18573  -0.18299
 Eigenvalue    17 is  -8.88D-16 should be greater than     0.000000 Eigenvector:
                          Z15       Y27       Y19       Y21       Y16
   1                    0.30648  -0.30537   0.24528   0.22139  -0.18954
                          X12       X14       Z16       Y20       Z25
   1                   -0.18760  -0.17781  -0.17663   0.17626  -0.17483
 Eigenvalue    18 is  -8.88D-16 should be greater than     0.000000 Eigenvector:
                          Z35       Y35       Z34       Z36       X36
   1                    0.48907   0.40549   0.34065  -0.32832   0.29134
                          Z10       Y36       Z11       Z25       X35
   1                   -0.18363   0.16523  -0.16476   0.12892  -0.11907
 Eigenvalue    19 is  -7.77D-16 should be greater than     0.000000 Eigenvector:
                          Y13       Z18       Z16       Z12       Z2
   1                    0.29906  -0.26490  -0.26005   0.23487  -0.22729
                          X1        X11       Z29       Z22       Z7
   1                   -0.20208  -0.19534   0.19452   0.16584  -0.16240
 Eigenvalue    20 is  -7.77D-16 should be greater than     0.000000 Eigenvector:
                          Z23       Y24       Z18       Y7        Y20
   1                    0.33271  -0.27425   0.23402  -0.23043   0.21412
                          X24       Y8        Y26       Y32       Z36
   1                    0.19633  -0.18799   0.17897   0.17113  -0.16863
 Eigenvalue    21 is  -5.55D-16 should be greater than     0.000000 Eigenvector:
                          Z7        Z9        Z31       X6        Y6
   1                    0.44375   0.28113  -0.25794   0.19507   0.18575
                          Z13       Y14       Z6        X32       Y15
   1                    0.17219  -0.16278  -0.15768  -0.14871  -0.14216
 Eigenvalue    22 is  -5.55D-16 should be greater than     0.000000 Eigenvector:
                          Z16       Y12       Y4        X10       Z18
   1                    0.28641   0.26032   0.22522   0.21184   0.20529
                          Z2        Y24       X30       X6        X24
   1                   -0.19302   0.18245   0.17580  -0.16938  -0.16420
 Eigenvalue    23 is  -5.55D-16 should be greater than     0.000000 Eigenvector:
                          X17       Y17       Z5        Y18       Z17
   1                    0.27050  -0.22774  -0.22051  -0.21358   0.21077
                          Y15       Y30       X6        Z20       Y8
   1                    0.20948  -0.20065   0.18887  -0.18806   0.18202
 Eigenvalue    24 is  -4.44D-16 should be greater than     0.000000 Eigenvector:
                          Z3        X2        Y19       Y2        X6
   1                    0.30218  -0.26916  -0.23011   0.20936  -0.19831
                          Z25       X23       Y5        Y14       X11
   1                   -0.19741   0.19453   0.18707   0.17408  -0.17354
 Eigenvalue    25 is  -4.44D-16 should be greater than     0.000000 Eigenvector:
                          Z17       Z8        X30       Y14       X17
   1                    0.35702   0.25872   0.20893   0.19724  -0.19482
                          Z2        Z21       Y17       Y36       Y30
   1                    0.18682  -0.17230   0.16503  -0.16496   0.16238
 Eigenvalue    26 is  -4.44D-16 should be greater than     0.000000 Eigenvector:
                          X12       Y13       Y12       X2        Z5
   1                    0.28754  -0.28054  -0.24434   0.20914   0.19408
                          X6        X1        Z29       Z4        Y35
   1                   -0.17174  -0.16916   0.16783   0.16591   0.15047
 Eigenvalue    27 is  -4.44D-16 should be greater than     0.000000 Eigenvector:
                          Z21       Y35       X35       X20       Y26
   1                    0.28451  -0.27834  -0.26852  -0.24593  -0.22442
                          Y12       Z31       Y20       Y22       X24
   1                   -0.20608   0.19890  -0.17087   0.16486   0.15161
 Eigenvalue    28 is  -3.33D-16 should be greater than     0.000000 Eigenvector:
                          Y14       Z9        Z29       X2        Y2
   1                    0.33545   0.25866  -0.21609   0.20606  -0.19775
                          Y9        Y21       Y30       Z3        Z25
   1                   -0.19536  -0.19261  -0.17291  -0.17066  -0.16979
 Eigenvalue    29 is  -3.33D-16 should be greater than     0.000000 Eigenvector:
                          Y11       Y26       Y10       Z23       Z4
   1                    0.26503   0.24757  -0.23779   0.21958  -0.21133
                          Z24       Y30       Z11       Y25       Y20
   1                   -0.20990  -0.19180   0.18755   0.18546  -0.17183
 Eigenvalue    30 is  -3.33D-16 should be greater than     0.000000 Eigenvector:
                          Z9        Y9        X6        Z6        Z8
   1                    0.42373   0.27771  -0.26606   0.25055   0.24567
                          Y11       Y6        Z2        Z27       X18
   1                    0.23089  -0.22548   0.19006  -0.14244   0.13762
 Eigenvalue    31 is  -2.22D-16 should be greater than     0.000000 Eigenvector:
                          Y9        Z8        X19       X4        Y15
   1                    0.33721  -0.32962   0.23813  -0.21222  -0.20739
                          Z23       Y14       X6        Y6        X21
   1                    0.16909   0.16193   0.16063   0.16032   0.16022
 Eigenvalue    32 is  -2.22D-16 should be greater than     0.000000 Eigenvector:
                          X18       Z11       Y15       Z36       Y12
   1                    0.28788   0.22037   0.21912  -0.21094  -0.20389
                          Z15       Z10       Z14       X14       Y10
   1                    0.19947   0.18691  -0.18537  -0.17139  -0.16458
 Eigenvalue    33 is  -2.22D-16 should be greater than     0.000000 Eigenvector:
                          X1        X20       Y3        Y11       X21
   1                    0.25155  -0.22059   0.21110   0.19712  -0.19052
                          Z10       Y10       Y1        X19       Z16
   1                   -0.18569  -0.18108   0.17402  -0.17385   0.17109
 Eigenvalue    34 is  -1.11D-16 should be greater than     0.000000 Eigenvector:
                          X3        X18       Z15       X11       Y20
   1                    0.24244   0.22003   0.19771   0.19647  -0.19327
                          Z6        Z36       X5        X1        Y19
   1                   -0.18824  -0.18756  -0.18594   0.17559  -0.17388
 Eigenvalue    35 is  -1.11D-16 should be greater than     0.000000 Eigenvector:
                          Z3        Z9        X6        X1        Z1
   1                    0.37813  -0.25478   0.25247  -0.22731   0.20760
                          X17       Y11       X20       Y8        X8
   1                    0.18755   0.18377   0.18352  -0.18215  -0.16839
 Eigenvalue    36 is  -1.11D-16 should be greater than     0.000000 Eigenvector:
                          Y11       Y16       Y13       Z5        X17
   1                    0.26804   0.24982  -0.20190  -0.18930   0.18589
                          X1        X28       Y5        Z18       Z32
   1                   -0.18452   0.17746   0.17702  -0.17191   0.15957
 Eigenvalue    37 is   0.00D+00 Eigenvector:
                          Z3        Z9        Y11       Y14       Z21
   1                    0.33857   0.32295  -0.28534   0.21828   0.20624
                          Z13       Z18       Z15       Y21       Z20
   1                   -0.18717  -0.17101  -0.17031   0.17023   0.16483
 Eigenvalue    38 is   0.00D+00 Eigenvector:
                          X2        Z9        X12       X22       X1
   1                    0.25966   0.22614   0.21159  -0.20922   0.19405
                          Z8        Z19       X18       Y9        X24
   1                   -0.19161  -0.18340  -0.18018  -0.17756  -0.17433
 Eigenvalue    39 is   0.00D+00 Eigenvector:
                          X2        Y15       Y11       Z14       Z19
   1                    0.30734   0.28678  -0.25152   0.24323  -0.20270
                          X3        X12       Z24       X14       Z9
   1                    0.20060  -0.18082   0.17826   0.17707  -0.16037
 Eigenvalue    40 is   0.00D+00 Eigenvector:
                          X5        X11       Z6        Y15       X2
   1                    0.47635   0.29248  -0.24227   0.17844  -0.17794
                          Z7        Y19       X3        X1        Z24
   1                   -0.17570  -0.16764   0.16307  -0.15450   0.14551
 Eigenvalue    41 is   0.00D+00 Eigenvector:
                          X3        X5        Z32       Z3        Y14
   1                    0.34216  -0.23361   0.22768  -0.21006   0.19660
                          Z18       Y18       X13       Y3        X2
   1                    0.19648   0.19131   0.18101  -0.18057  -0.16474
 Eigenvalue    42 is   2.22D-16 Eigenvector:
                          Z8        Y11       X5        X2        Z15
   1                    0.32691   0.28346  -0.24026   0.22575  -0.20884
                          Z33       X17       X4        Z14       Y29
   1                   -0.18993   0.16841  -0.15695   0.15611   0.15522
 Eigenvalue    43 is   2.22D-16 Eigenvector:
                          Z8        Z17       X16       Y11       X6
   1                    0.23577   0.23537   0.21961  -0.21772  -0.21513
                          X17       Y17       Z9        X8        Z22
   1                    0.19764   0.18808  -0.18635  -0.18016   0.17531
 Eigenvalue    44 is   2.22D-16 Eigenvector:
                          Y5        Y6        X8        Y8        X17
   1                    0.33367   0.28698  -0.22195  -0.21363  -0.20371
                          X19       X21       Z23       X30       Y20
   1                   -0.18891  -0.18316  -0.17088   0.16076  -0.14954
 Eigenvalue    45 is   2.22D-16 Eigenvector:
                          Z5        Z21       Y15       Z24       Z16
   1                    0.29016   0.25462   0.24274   0.20870  -0.19036
                          Y11       Z7        X18       X31       Z15
   1                    0.18479  -0.18271  -0.17597  -0.16392   0.15930
 Eigenvalue    46 is   4.44D-16 Eigenvector:
                          Z6        X11       Y11       Z23       X21
   1                    0.28108   0.25324  -0.21821   0.21510  -0.20209
                          Y28       X36       Y29       Y5        Y30
   1                   -0.19013   0.17886  -0.17647   0.17385  -0.16398
 Eigenvalue    47 is   4.44D-16 Eigenvector:
                          X35       Y21       Z24       Y35       X26
   1                    0.29134   0.24088  -0.23202   0.23080   0.22112
                          Z21       Z20       X33       X6        Z17
   1                    0.18419   0.18249  -0.17586   0.16530   0.15911
 Eigenvalue    48 is   4.44D-16 Eigenvector:
                          X3        X11       Y14       X10       Z21
   1                    0.58421  -0.33238  -0.20412  -0.15961   0.15739
                          Z1        Y2        Z18       Z22       Y22
   1                    0.15614   0.14874  -0.13367   0.13020  -0.12391
 Eigenvalue    49 is   6.66D-16 Eigenvector:
                          X20       Y21       Y1        X17       Z7
   1                    0.27465  -0.24593   0.23474  -0.22602   0.19635
                          Y8        Y3        Y15       Z3        Y22
   1                   -0.19198   0.18108   0.16546  -0.16494  -0.16181
 Eigenvalue    50 is   6.66D-16 Eigenvector:
                          X36       X30       Y15       Y16       Y30
   1                    0.29219   0.27501  -0.27053   0.22223  -0.20283
                          X16       Y36       X26       Z23       Z3
   1                   -0.19050   0.16783   0.16608   0.16581  -0.15827
 Eigenvalue    51 is   6.66D-16 Eigenvector:
                          X4        Y4        Z24       X22       Z4
   1                    0.41955   0.23895   0.23870  -0.23228  -0.22909
                          X13       X15       Z8        X23       Y18
   1                   -0.18402  -0.17603  -0.17121  -0.16749   0.16444
 Eigenvalue    52 is   6.66D-16 Eigenvector:
                          Y12       X12       Z29       X17       X2
   1                    0.32064  -0.28809   0.19705   0.19627   0.19422
                          X31       X32       X10       X34       Y19
   1                   -0.19415  -0.17333  -0.17265   0.16848  -0.16824
 Eigenvalue    53 is   6.66D-16 Eigenvector:
                          Z33       Y21       X35       Z20       X28
   1                    0.31165  -0.26036   0.21464  -0.19781   0.18841
                          X21       X26       X29       Z24       X5
   1                    0.18198   0.17956   0.16923   0.15398  -0.15379
 Eigenvalue    54 is   8.88D-16 Eigenvector:
                          X5        X2        X18       Z3        Y34
   1                    0.32479   0.22992   0.22469   0.20916  -0.20432
                          Y17       X17       Y23       Y10       X23
   1                    0.19128  -0.17945  -0.17500   0.16728   0.16625
 Eigenvalue    55 is   8.88D-16 Eigenvector:
                          Z31       Y26       Y36       Y25       Z27
   1                    0.29136   0.25100  -0.23417   0.22875  -0.22805
                          Y30       Y11       Z25       Z16       Y23
   1                   -0.19640  -0.19501  -0.17906   0.17165   0.16149
 Eigenvalue    56 is   8.88D-16 Eigenvector:
                          X26       X20       X35       Y30       Y27
   1                    0.31456   0.29688  -0.28598  -0.24255  -0.20390
                          X27       X36       Z28       Z30       X19
   1                    0.19555  -0.18487   0.18052   0.16436   0.15844
 Eigenvalue    57 is   8.88D-16 Eigenvector:
                          X18       Y4        X32       X22       Y27
   1                    0.23707  -0.21608   0.20951  -0.20879   0.19684
                          X27       X30       Y8        Y28       Y18
   1                   -0.18803   0.18729  -0.18387   0.17674  -0.17097
 Eigenvalue    58 is   1.11D-15 Eigenvector:
                          Z6        Z2        X6        Z17       X26
   1                    0.28673  -0.24376   0.20606   0.20586   0.20553
                          X20       Z1        X3        Y33       Z4
   1                   -0.19014  -0.18346   0.18284  -0.17484   0.16519
 Eigenvalue    59 is   1.11D-15 Eigenvector:
                          Z8        Z28       X12       X6        X28
   1                    0.44598  -0.20698   0.20365   0.19911  -0.19509
                          Z30       X33       X27       Y29       X30
   1                   -0.19314   0.17501   0.16382  -0.15164  -0.14549
 Eigenvalue    60 is   1.11D-15 Eigenvector:
                          Z33       Y36       Z23       X20       Z24
   1                    0.30053  -0.27538   0.22905  -0.21420  -0.20637
                          X36       X30       X23       Z35       Z27
   1                   -0.19770   0.18898  -0.18141   0.18024  -0.17290
 Eigenvalue    61 is   1.11D-15 Eigenvector:
                          Y25       Y36       X26       X27       X6
   1                    0.26359  -0.23241   0.23144   0.22356  -0.22263
                          X21       Y35       Y27       Y34       Z33
   1                   -0.20644  -0.20286   0.19088  -0.18463  -0.17550
 Eigenvalue    62 is   1.33D-15 Eigenvector:
                          Y15       Y34       Z22       Y22       Z32
   1                    0.33038  -0.21356   0.20666  -0.20511  -0.19809
                          Z15       X32       Y7        Z20       Y8
   1                   -0.19382   0.18217   0.17400   0.17364   0.16301
 Eigenvalue    63 is   1.33D-15 Eigenvector:
                          Z23       X35       Z24       X24       Y26
   1                    0.28149   0.27535   0.24347   0.23117  -0.20677
                          Y35       Z29       Y36       X23       Z28
   1                    0.20524  -0.20436  -0.19748   0.19170  -0.17622
 Eigenvalue    64 is   1.55D-15 Eigenvector:
                          X27       X18       Y27       X33       Z26
   1                    0.38043   0.31584  -0.24412  -0.23392   0.20462
                          Y33       Y32       Z33       Y23       X26
   1                    0.19205   0.17258  -0.17204  -0.17081  -0.16953
 Eigenvalue    65 is   1.55D-15 Eigenvector:
                          X29       X34       Z32       X32       Y29
   1                    0.32618   0.31550  -0.26993  -0.26270  -0.24073
                          Y33       X27       Y26       Z35       Y36
   1                    0.21691  -0.21004   0.19348   0.18732  -0.16364
 Eigenvalue    66 is   2.22D-15 Eigenvector:
                          X29       X32       Y29       Y23       Z32
   1                    0.38961   0.34411  -0.29550   0.26613   0.25983
                          Y33       Y34       Y27       Y22       Z36
   1                   -0.25325  -0.18622  -0.17294   0.17187  -0.15744
 Quadratic step=1.339D+02 exceeds max=3.000D-01 adjusted using Lamda=-4.467D-02.
 Angle between NR and scaled steps=   4.75 degrees.
 Angle between quadratic step and forces=  43.28 degrees.
 Linear search not attempted -- first point.
 B after Tr=     0.034462   -0.013426   -0.032088
         Rot=    1.000000   -0.000041    0.000490   -0.000240 Ang=  -0.06 deg.
 Variable       Old X    -DE/DX   Delta X   Delta X   Delta X     New X
                                 (Linear)    (Quad)   (Total)
    X1       28.21976   0.00366   0.00000   0.05588   0.06073  28.28049
    Y1        8.58274  -0.00347   0.00000  -0.03867  -0.04068   8.54206
    Z1       25.98917   0.00470   0.00000   0.03185   0.02816  26.01733
    X2       29.05885   0.00018   0.00000   0.02000   0.02308  29.08193
    Y2        9.55338  -0.00114   0.00000  -0.01776  -0.01949   9.53389
    Z2       27.30046  -0.00035   0.00000   0.03455   0.03172  27.33218
    X3       27.94250   0.00103   0.00000   0.01987   0.02471  27.96721
    Y3        6.94281   0.00078   0.00000  -0.02374  -0.02596   6.91684
    Z3       26.78381  -0.00011   0.00000   0.03925   0.03511  26.81893
    X4       32.22665  -0.00075   0.00000  -0.01577  -0.01601  32.21063
    Y4       10.84627  -0.00175   0.00000   0.00398   0.00353  10.84980
    Z4       30.10845  -0.00282   0.00000  -0.02372  -0.02337  30.08509
    X5       32.40369  -0.00039   0.00000  -0.02024  -0.02241  32.38128
    Y5       12.04577   0.00057   0.00000  -0.00502  -0.00551  12.04027
    Z5       31.47344   0.00109   0.00000  -0.01089  -0.01027  31.46317
    X6       33.41647  -0.00109   0.00000  -0.01185  -0.01187  33.40460
    Y6        9.50480   0.00156   0.00000   0.01051   0.01059   9.51539
    Z6       30.53492  -0.00077   0.00000  -0.02325  -0.02184  30.51307
    X7       27.34964   0.00134   0.00000   0.02277   0.02201  27.37165
    Y7        3.55736   0.00105   0.00000  -0.01579  -0.01890   3.53845
    Z7       34.28815  -0.00565   0.00000  -0.09773  -0.10272  34.18542
    X8       28.10301   0.00020   0.00000   0.00937   0.00860  28.11161
    Y8        2.02583  -0.00076   0.00000   0.01341   0.01059   2.03643
    Z8       34.93673   0.00011   0.00000  -0.00703  -0.01142  34.92532
    X9       25.54986   0.00084   0.00000   0.02359   0.02270  25.57256
    Y9        3.27018   0.00040   0.00000   0.02782   0.02383   3.29401
    Z9       34.44375   0.00010   0.00000  -0.00063  -0.00740  34.43635
   X10       38.66939  -0.00571   0.00000  -0.06221  -0.06756  38.60183
   Y10        4.80603   0.00367   0.00000   0.09282   0.09476   4.90079
   Z10       38.20916  -0.00196   0.00000  -0.00309   0.00304  38.21220
   X11       38.11595   0.00235   0.00000   0.02234   0.01868  38.13463
   Y11        5.00472   0.00021   0.00000  -0.00157   0.00029   5.00501
   Z11       36.46955   0.00030   0.00000  -0.03658  -0.03090  36.43865
   X12       37.27883   0.00002   0.00000  -0.02005  -0.02565  37.25318
   Y12        3.90133   0.00033   0.00000  -0.00204  -0.00080   3.90053
   Z12       38.98901  -0.00123   0.00000  -0.04145  -0.03673  38.95228
   X13       35.02510   0.00076   0.00000  -0.00374  -0.00112  35.02398
   Y13       13.13100  -0.00037   0.00000  -0.00518  -0.00396  13.12704
   Z13       26.04885   0.00121   0.00000  -0.00409  -0.00080  26.04804
   X14       34.00256   0.00063   0.00000  -0.00234  -0.00069  34.00187
   Y14       12.39954   0.00047   0.00000   0.00122   0.00184  12.40138
   Z14       27.40255  -0.00069   0.00000  -0.00225  -0.00002  27.40253
   X15       36.69233  -0.00170   0.00000  -0.00729  -0.00544  36.68688
   Y15       13.24023  -0.00025   0.00000  -0.00346  -0.00150  13.23873
   Z15       26.79037  -0.00048   0.00000  -0.00325   0.00168  26.79204
   X16       33.66473  -0.00201   0.00000  -0.03257  -0.02870  33.63603
   Y16        5.57465  -0.00231   0.00000   0.00678   0.00713   5.58179
   Z16       28.46170   0.00179   0.00000   0.00557   0.00689  28.46859
   X17       32.46129  -0.00039   0.00000  -0.04570  -0.04145  32.41983
   Y17        4.20842   0.00251   0.00000   0.02315   0.02290   4.23132
   Z17       28.74564  -0.00006   0.00000   0.00234   0.00235  28.74799
   X18       32.80630  -0.00084   0.00000  -0.00631  -0.00166  32.80464
   Y18        6.57371   0.00158   0.00000   0.00904   0.00911   6.58282
   Z18       27.19731  -0.00196   0.00000  -0.01541  -0.01483  27.18248
   X19       36.90093  -0.00483   0.00000  -0.04779  -0.04917  36.85176
   Y19        8.09570  -0.00395   0.00000  -0.04837  -0.04680   8.04890
   Z19       32.60352   0.00068   0.00000   0.01370   0.01837  32.62189
   X20       36.86756  -0.00052   0.00000  -0.03642  -0.03584  36.83171
   Y20        6.94443  -0.00013   0.00000  -0.02142  -0.01975   6.92468
   Z20       31.17608  -0.00010   0.00000  -0.00689  -0.00234  31.17375
   X21       35.28744  -0.00092   0.00000  -0.05226  -0.05427  35.23317
   Y21        7.71126  -0.00051   0.00000  -0.03689  -0.03617   7.67510
   Z21       33.43647   0.00048   0.00000   0.00412   0.00717  33.44364
   X22       32.30832   0.00250   0.00000   0.04808   0.04216  32.35048
   Y22        4.53029   0.00260   0.00000   0.03131   0.03020   4.56049
   Z22       38.95155   0.00072   0.00000   0.00437   0.00434  38.95590
   X23       32.89072   0.00044   0.00000   0.02385   0.01634  32.90706
   Y23        6.02612   0.00031   0.00000   0.03354   0.03263   6.05874
   Z23       39.84184  -0.00021   0.00000   0.01093   0.01157  39.85341
   X24       30.75081   0.00118   0.00000   0.03878   0.03229  30.78309
   Y24        4.06525   0.00066   0.00000   0.01937   0.01744   4.08269
   Z24       39.79389  -0.00066   0.00000  -0.01765  -0.01925  39.77464
   X25       31.98164   0.00096   0.00000   0.04115   0.03800  32.01963
   Y25        7.56396  -0.00130   0.00000  -0.01640  -0.01732   7.54664
   Z25       34.67383  -0.00045   0.00000   0.00177   0.00167  34.67549
   X26       31.84569   0.00022   0.00000   0.00940   0.00552  31.85122
   Y26        6.28861   0.00012   0.00000  -0.00238  -0.00350   6.28511
   Z26       36.01485  -0.00004   0.00000   0.01045   0.01007  36.02493
   X27       30.83858   0.00108   0.00000   0.00872   0.00709  30.84567
   Y27        6.99126   0.00075   0.00000   0.01269   0.01131   7.00257
   Z27       33.36292   0.00190   0.00000   0.02061   0.01930  33.38222
   X28       28.51509   0.00165   0.00000   0.00189   0.00680  28.52189
   Y28        3.19237   0.00549   0.00000   0.06136   0.05926   3.25162
   Z28       28.50017   0.00571   0.00000   0.04950   0.04561  28.54578
   X29       27.61525   0.00021   0.00000   0.03915   0.04549  27.66074
   Y29        1.78711  -0.00047   0.00000   0.04498   0.04253   1.82964
   Z29       27.76165   0.00012   0.00000   0.02165   0.01680  27.77844
   X30       28.00194   0.00010   0.00000  -0.01183  -0.00864  27.99330
   Y30        3.21825  -0.00008   0.00000   0.01081   0.00832   3.22656
   Z30       30.27689  -0.00144   0.00000   0.03994   0.03553  30.31242
   X31       25.40517   0.00036   0.00000   0.01324   0.01077  25.41594
   Y31       11.61751  -0.00112   0.00000  -0.00122  -0.00509  11.61242
   Z31       31.99224  -0.00079   0.00000   0.00215  -0.00409  31.98815
   X32       25.18601   0.00032   0.00000   0.01265   0.00851  25.19452
   Y32       13.16692   0.00080   0.00000   0.00335  -0.00070  13.16622
   Z32       32.93015   0.00020   0.00000  -0.00228  -0.00861  32.92154
   X33       27.14372   0.00092   0.00000   0.01817   0.01619  27.15991
   Y33       11.69876  -0.00057   0.00000  -0.01065  -0.01364  11.68512
   Z33       31.43918   0.00049   0.00000   0.01518   0.01065  31.44983
   X34       35.95503  -0.00100   0.00000  -0.04084  -0.04933  35.90571
   Y34        9.88026  -0.00648   0.00000  -0.08538  -0.08479   9.79547
   Z34       38.99666  -0.00074   0.00000   0.01735   0.02124  39.01790
   X35       35.12286   0.00049   0.00000   0.00982   0.00287  35.12573
   Y35        9.97908  -0.00037   0.00000  -0.01521  -0.01486   9.96422
   Z35       37.36888   0.00109   0.00000  -0.00205   0.00108  37.36996
   X36       37.10718  -0.00127   0.00000   0.01489   0.00727  37.11446
   Y36        8.44866   0.00116   0.00000  -0.02801  -0.02683   8.42183
   Z36       38.81507  -0.00016   0.00000  -0.02273  -0.01777  38.79730
         Item               Value     Threshold  Converged?
 Maximum Force            0.006482     0.000450     NO 
 RMS     Force            0.001876     0.000300     NO 
 Maximum Displacement     0.102724     0.001800     NO 
 RMS     Displacement     0.028663     0.001200     NO 
 Predicted change in Energy=-4.144924D-03
 GradGradGradGradGradGradGradGradGradGradGradGradGradGradGradGradGradGrad


 Test job not archived.
 1\1\GINC-LENKA10\Force\RB3LYP\6-31G(d,p)\H24O12\ZRONYJ\23-Aug-2023\0\\
 #b3lyp/6-31G** scrf=(cpcm,Solvent=Water) nosymm force iop(2/11=1) Geom
 =(NoDistance,NoAngle) guess=checkpoint\\cluster_404\\0,1\O,14.9332517,
 4.54178945,13.75287876\H,15.37728102,5.0554307,14.44678261\H,14.786533
 09,3.67397573,14.17338357\O,17.0536078,5.73959797,15.93270694\H,17.147
 29274,6.37434951,16.65502626\H,17.68323364,5.02972569,16.15838117\O,14
 .47280385,1.88247173,18.1445069\H,14.87146988,1.07202439,18.4877239\H,
 13.52040436,1.73050213,18.22684869\O,20.46296107,2.54323994,20.2194174
 9\H,20.17009187,2.64838145,19.29885591\H,19.72710717,2.06449703,20.632
 093\O,18.53448255,6.94862757,13.78445576\H,17.99338072,6.5615545,14.50
 080681\H,19.41674265,7.00642845,14.17685225\O,17.81460782,2.94997826,1
 5.06128394\H,17.17777229,2.22700153,15.21153902\H,17.36034691,3.478658
 81,14.39219665\O,19.5271315,4.2840608,17.25304013\H,19.50947232,3.6748
 3321,16.49767267\H,18.67330889,4.08062555,17.69381695\O,17.09682502,2.
 39732526,20.61227497\H,17.40501913,3.18888314,21.08339129\H,16.2726254
 7,2.15123982,21.05801732\O,16.92395249,4.00267714,18.34859877\H,16.852
 01515,3.32778922,19.05823867\H,16.31907226,3.69961453,17.65489546\O,15
 .0895375,1.68932694,15.08164122\H,14.61336019,0.94569929,14.69083235\H
 ,14.81798874,1.7030236,16.02183814\O,13.44383542,6.14772133,16.9295660
 6\H,13.32786327,6.96763186,17.42588663\H,14.36383868,6.19071479,16.636
 89856\O,19.02658486,5.22840835,20.63614623\H,18.58621453,5.28070279,19
 .77476081\H,19.63627468,4.47083732,20.54004947\\Version=ES64L-G16RevA.
 03\HF=-917.2265504\RMSD=6.357e-09\RMSF=1.876e-03\Dipole=-2.8596188,-3.
 9216788,3.0001909\Quadrupole=-172.5035216,-21.7191093,194.2226309,-135
 .5055545,-14.6382371,-100.8173164\PG=C01 [X(H24O12)]\\@


 ALL PAPERS THAT YOU SAVE WILL NEVER BE NEEDED UNTIL
 SUCH TIME AS THEY ARE DISPOSED OF, WHEN THEY BECOME
 ESSENTIAL.

           -- JOHN CORCORAN IN
              PAUL DICKSON'S "THE OFFICIAL RULES"
 Job cpu time:       0 days  0 hours 12 minutes  5.2 seconds.
 Elapsed time:       0 days  0 hours  2 minutes 54.8 seconds.
 File lengths (MBytes):  RWF=    143 Int=      0 D2E=      0 Chk=     23 Scr=      1
 Normal termination of Gaussian 16 at Wed Aug 23 09:06:05 2023.
