%chk=cluster_554.chk
%mem=1GB
%nproc=4
#b3lyp/6-311++G** scrf=(cpcm,Solvent=Water) nosymm freq
iop(2/11=1) 
 Geom=(NoDistance,NoAngle)

cluster_554

0 1
 O      18.52000000      20.45500000      17.09700000
 H      19.18900000      20.78100000      17.66500000
 H      18.22900000      21.19600000      16.49700000
 O      19.29600000      18.55700000      20.57700000
 H      18.92700000      19.13100000      21.29300000
 H      18.89700000      18.99000000      19.76300000
 O      17.97200000      24.55000000      15.54500000
 H      18.60900000      25.31000000      15.61200000
 H      17.93500000      24.40700000      14.59500000
 O      18.86400000      23.79700000      19.64900000
 H      17.91700000      23.98800000      19.93600000
 H      19.14400000      24.47900000      18.96700000
 O      22.26800000      20.10300000      18.99100000
 H      21.81400000      19.34900000      19.51600000
 H      23.25500000      19.89600000      18.81700000
 O      22.90400000      24.13600000      17.04500000
 H      23.92500000      24.06400000      16.96900000
 H      22.64900000      23.49100000      17.71100000
 O      23.93700000      23.15300000      14.07000000
 H      24.76400000      22.71200000      14.20400000
 H      23.39800000      22.72700000      14.72000000

