114
XYZ file of cluster: frame_6500_5af5.c3801.48860 - created by MolEdiTo
 O       9.29900000      28.37900000      12.88900000
 H       9.38200000      27.76400000      12.17200000
 H       8.47100000      28.87900000      12.70800000
 O       6.07200000      30.30500000      18.15900000
 H       6.29500000      31.26600000      18.34200000
 H       5.12700000      30.45700000      18.04400000
 O       8.21100000      28.01600000      21.08100000
 H       8.25100000      27.83600000      22.02400000
 H       8.20300000      27.08500000      20.66900000
 O      10.28700000      29.31500000      17.13500000
 H      10.09500000      28.42700000      17.49500000
 H       9.59100000      29.90700000      17.55200000
 O       5.29500000      26.61400000      10.72200000
 H       4.93300000      27.43800000      11.13500000
 H       5.54100000      26.94200000       9.82700000
 O       4.08200000      28.95700000      11.70400000
 H       3.14200000      29.07400000      11.97800000
 H       4.19900000      29.71300000      11.02300000
 O       4.63600000      27.26700000      14.09000000
 H       5.34200000      27.11800000      14.74900000
 H       4.78200000      28.14800000      13.75200000
 O       7.62900000      27.52900000      18.45000000
 H       6.92500000      26.86600000      18.73700000
 H       8.16100000      27.87200000      19.24100000
 O       1.20500000      26.32600000      10.48200000
 H       2.02500000      26.83800000      10.73500000
 H       1.61800000      25.53400000      10.15600000
 O       6.81100000      29.27400000      16.12700000
 H       6.26900000      29.70200000      16.86400000
 H       7.59300000      28.78200000      16.56700000
 O       1.43100000      30.48300000      18.66300000
 H       0.83700000      31.13900000      18.30100000
 H       0.78300000      29.79100000      18.97000000
 O       8.90900000      26.15600000      14.74200000
 H       9.34000000      25.41800000      14.32600000
 H       8.95200000      26.84000000      14.02500000
 O       7.38800000      30.52300000      20.64300000
 H       7.76300000      29.61100000      20.96600000
 H       7.96500000      30.60400000      19.77200000
 O       2.16400000      27.23000000      14.97600000
 H       2.54000000      26.80400000      15.80800000
 H       3.05500000      27.50000000      14.59300000
 O       7.28400000      26.11500000      12.83000000
 H       7.69300000      26.97400000      12.93100000
 H       6.60900000      26.23500000      12.09900000
 O       4.99700000      27.19900000      18.50700000
 H       5.79700000      26.61300000      18.75200000
 H       5.23600000      28.13700000      18.42900000
 O       2.93000000      26.37500000      20.31900000
 H       3.65700000      26.76200000      19.71900000
 H       2.90200000      26.98100000      21.07600000
 O       3.55000000      29.54800000      20.44200000
 H       3.13500000      29.49500000      21.33100000
 H       2.79000000      29.92200000      19.90300000
 O       7.40000000      28.98200000      13.55300000
 H       7.27900000      29.96300000      13.38900000
 H       7.58200000      28.88500000      14.50100000
 O       1.56000000      29.26700000      12.84000000
 H       0.73400000      28.96100000      12.45600000
 H       1.46700000      28.90700000      13.69400000
 O      11.16400000      35.79800000      13.68400000
 H      11.67400000      35.09700000      13.09900000
 H      10.19100000      35.75800000      13.35300000
 O       6.76300000      36.83900000      12.86700000
 H       6.22300000      36.87200000      12.12100000
 H       6.09700000      36.89100000      13.56400000
 O       7.79900000      33.80900000      12.68400000
 H       7.81600000      34.77000000      12.67400000
 H       6.76500000      33.74300000      12.71300000
 O       2.61000000      33.54900000      12.69900000
 H       2.40000000      33.90000000      11.82100000
 H       2.01000000      32.79500000      12.72400000
 O       8.95500000      33.18900000      18.20900000
 H       9.45500000      33.77500000      17.54300000
 H       8.65500000      33.87600000      18.82200000
 O       3.09700000      34.27800000      21.81900000
 H       2.65200000      34.42800000      20.95400000
 H       3.98600000      34.00100000      21.57100000
 O       7.49800000      36.45200000      16.73000000
 H       7.72300000      37.24600000      16.18600000
 H       8.32600000      35.91500000      16.55100000
 O       8.31700000      36.19300000      12.69500000
 H       7.50900000      36.68500000      12.96300000
 H       8.54400000      36.54900000      11.88000000
 O       6.62400000      33.19900000       9.90000000
 H       7.10500000      33.37200000      10.68000000
 H       7.29100000      32.76100000       9.36500000
 O       9.78500000      34.74600000      20.35400000
 H      10.41600000      34.72400000      21.16200000
 H      10.22900000      34.21200000      19.64800000
 O       9.44800000      33.29400000      11.66500000
 H      10.09300000      32.81500000      12.27800000
 H       8.77300000      33.50700000      12.32400000
 O       5.21300000      34.11600000      13.07000000
 H       5.15700000      34.81700000      13.75000000
 H       4.26800000      33.97900000      12.92500000
 O       5.00400000      35.94600000      10.83200000
 H       4.82500000      35.12900000      11.32100000
 H       4.07600000      36.18200000      10.64900000
 O       5.59700000      33.27500000      20.99400000
 H       6.53900000      33.05700000      20.60300000
 H       5.03900000      32.54400000      20.71600000
 O       4.63900000      36.20000000      15.05900000
 H       5.39500000      36.60600000      15.55100000
 H       4.18500000      35.57600000      15.80100000
 O       5.75700000      36.26400000      21.32500000
 H       5.29300000      36.86300000      21.86900000
 H       5.19900000      36.13400000      20.53400000
 O       7.23300000      34.91800000      18.52700000
 H       7.16000000      35.28900000      17.63000000
 H       7.79200000      35.61400000      18.89700000
 O       3.62100000      32.59600000      17.20800000
 H       3.39500000      31.88500000      16.46700000
 H       3.02300000      32.33500000      17.92000000
