33
XYZ file of cluster: frame_10500_cc653.bcb67.661b - created by MolEdiTo
 O      18.67500000      19.45200000       3.90500000
 H      17.88600000      20.07900000       3.74900000
 H      19.29600000      20.02800000       4.33100000
 O      18.08000000      23.61400000       4.00300000
 H      18.91000000      23.98800000       4.33100000
 H      18.15200000      23.59400000       2.99500000
 O      19.40800000      22.94700000       7.15000000
 H      20.29900000      22.92500000       7.62200000
 H      19.65200000      23.13400000       6.23600000
 O      19.51900000      24.22500000       1.42400000
 H      19.52200000      23.79600000       0.55900000
 H      19.72700000      25.14800000       1.24700000
 O      24.86700000      18.76100000       7.91000000
 H      25.70000000      18.57000000       8.36800000
 H      25.05800000      18.46900000       7.04400000
 O      22.88900000      18.97900000       1.01400000
 H      21.94600000      19.12900000       0.70700000
 H      22.90100000      18.08000000       1.46700000
 O      24.02400000      17.09800000       5.54600000
 H      24.49600000      17.94700000       5.24400000
 H      24.72900000      16.39000000       5.45200000
 O      24.82200000      20.52400000       4.41800000
 H      25.19100000      19.62200000       4.16600000
 H      25.45100000      20.84100000       5.10100000
 O      24.95500000      22.26100000       1.50400000
 H      24.81900000      22.19200000       2.48000000
 H      24.41100000      21.54300000       1.20000000
 O      23.92100000      24.93700000       6.36800000
 H      23.71100000      24.04700000       6.72500000
 H      23.96200000      25.57200000       7.11800000
 O      22.14500000      23.27400000       4.72000000
 H      22.62600000      22.44600000       4.72900000
 H      22.86300000      23.94100000       4.96600000
