45
XYZ file of cluster: frame_10500_49bb3.c9113.4e531 - created by MolEdiTo
 O      13.81400000      19.59200000       7.99200000
 H      14.50200000      20.09800000       7.50300000
 H      13.28600000      19.13500000       7.28900000
 O      13.65900000      17.46300000      11.22800000
 H      14.10700000      18.18100000      11.74800000
 H      13.79600000      17.49400000      10.29300000
 O       7.82400000      20.46100000      13.31300000
 H       8.48800000      21.09800000      13.72600000
 H       7.85500000      20.81700000      12.37800000
 O       7.19800000      19.29200000       8.25400000
 H       6.75400000      18.50500000       7.79100000
 H       7.78700000      19.03700000       9.01200000
 O       7.58200000      17.91200000      11.68300000
 H       6.78900000      18.32600000      11.99000000
 H       8.21400000      18.09800000      12.35700000
 O      10.71100000      19.72600000       9.28500000
 H      10.86500000      20.18600000       8.41300000
 H      10.57900000      18.77800000       8.99900000
 O      13.29700000      19.50800000      13.53100000
 H      13.73700000      20.13200000      12.88700000
 H      14.03500000      18.81600000      13.57700000
 O      13.57400000      20.40200000      10.65000000
 H      13.25200000      19.91300000       9.86700000
 H      13.00000000      21.20400000      10.69300000
 O      10.53800000      19.46900000      12.27500000
 H      10.50500000      19.60300000      11.35100000
 H      11.51500000      19.22000000      12.51500000
 O      11.85400000      24.13900000      14.63500000
 H      12.46800000      24.53200000      13.98100000
 H      11.57200000      24.86100000      15.24900000
 O       7.11800000      23.65600000       9.30400000
 H       7.41500000      22.78200000       9.02700000
 H       6.45200000      23.49700000      10.04000000
 O      13.25700000      24.12700000      11.94700000
 H      12.88800000      24.66000000      11.11700000
 H      14.07100000      24.58200000      12.20400000
 O       9.72100000      23.28500000      12.00800000
 H      10.27900000      23.74600000      11.36000000
 H      10.01000000      22.36300000      12.14600000
 O      11.81500000      23.25900000       7.80200000
 H      12.07300000      23.45100000       6.86100000
 H      12.49200000      23.62300000       8.31700000
 O       6.83600000      24.32400000      12.18900000
 H       7.66100000      23.90100000      12.58300000
 H       7.18300000      24.86700000      11.45100000
