33
XYZ file of cluster: frame_10500_22d1f.3e74.c2e76 - created by MolEdiTo
 O      10.05000000       7.25400000      18.99400000
 H       9.72600000       6.99300000      18.16400000
 H      10.28300000       8.18700000      18.96800000
 O      10.63700000       2.87200000      17.40600000
 H      10.01000000       2.97700000      18.18900000
 H      10.50700000       1.94800000      17.07300000
 O      10.39900000       4.87400000      19.87900000
 H      10.05000000       5.76400000      19.57900000
 H      11.08400000       4.71600000      19.22000000
 O       7.69600000       3.66900000      19.97800000
 H       6.91400000       3.69500000      20.52100000
 H       8.35300000       4.00400000      20.60800000
 O       5.88700000       3.17400000      17.65600000
 H       6.23600000       2.31200000      17.41400000
 H       6.51900000       3.32800000      18.49300000
 O       5.22800000       3.85100000      22.89700000
 H       4.71500000       3.47000000      22.10500000
 H       4.89600000       3.45900000      23.64300000
 O       7.64100000       5.48000000      23.83900000
 H       7.54700000       4.86100000      24.57200000
 H       6.77500000       5.57400000      23.39600000
 O       4.52500000       6.55800000      24.83500000
 H       4.89200000       7.00400000      25.68800000
 H       3.55200000       6.64300000      24.87000000
 O      10.28100000       4.69400000      25.07500000
 H      10.77900000       5.46100000      24.69500000
 H       9.66400000       4.57600000      24.40300000
 O       9.69000000       1.75700000      23.31200000
 H      10.40800000       2.02500000      22.73700000
 H       8.84600000       1.83700000      22.88900000
 O       3.59100000       1.05700000      22.89000000
 H       3.45500000       0.98800000      23.86600000
 H       3.04700000       0.33900000      22.58600000
