36
XYZ file of cluster: frame_10500_27845.9c67a.b679 - created by MolEdiTo
 O       9.59900000      16.71900000       4.40900000
 H       8.64100000      16.65700000       4.13200000
 H       9.92300000      15.81100000       4.25300000
 O       6.18700000      17.13900000       6.87500000
 H       6.84900000      16.60700000       6.34100000
 H       5.35500000      16.56000000       6.71600000
 O       7.82900000      15.08100000       5.67100000
 H       8.47300000      14.78100000       6.33500000
 H       8.15900000      14.53800000       4.89900000
 O       6.60400000      19.63400000       1.01400000
 H       6.66300000      19.25700000       1.91800000
 H       5.78800000      20.14600000       0.99900000
 O      10.61400000      18.40900000       6.40700000
 H      11.43100000      18.56800000       5.91900000
 H      10.21700000      17.75900000       5.75600000
 O       6.87200000      16.81300000       3.02100000
 H       6.67700000      16.56400000       2.09600000
 H       7.25400000      17.73200000       3.05900000
 O       4.87700000      15.35600000       4.88000000
 H       5.44200000      16.00900000       4.40300000
 H       5.54300000      14.76300000       5.18800000
 O       3.45800000      20.52400000       4.41800000
 H       3.82700000      19.62200000       4.16600000
 H       4.08700000      20.84100000       5.10100000
 O       3.50300000      18.76100000       7.91000000
 H       4.33600000      18.57000000       8.36800000
 H       3.69400000      18.46900000       7.04400000
 O       4.17700000      18.10300000       3.35600000
 H       4.94500000      17.53100000       3.15200000
 H       3.79500000      18.20600000       2.45100000
 O       8.06700000      14.01100000       1.81500000
 H       7.88400000      14.20500000       2.74900000
 H       7.21200000      13.58400000       1.41400000
 O       7.97500000      19.27700000       3.65800000
 H       8.28500000      20.13800000       3.23000000
 H       8.77000000      18.91100000       4.09700000
