45
XYZ file of cluster: frame_10500_c60d8.6d096.0 - created by MolEdiTo
 O      18.94400000      16.55300000       0.65500000
 H      19.27700000      17.00600000       1.42800000
 H      18.69700000      17.29800000       0.00000000
 O      19.74200000      12.86300000       0.70200000
 H      19.58400000      12.98700000       1.65400000
 H      20.59600000      13.37300000       0.56000000
 O      17.33100000      14.18300000       0.89800000
 H      17.92800000      13.44000000       0.58100000
 H      17.75000000      15.00900000       0.56400000
 O      19.72100000      14.41500000       5.32000000
 H      19.66300000      15.39100000       5.39600000
 H      20.58200000      14.17600000       5.73000000
 O      18.52100000      12.91300000       7.61500000
 H      19.07500000      12.15900000       7.30900000
 H      17.89300000      12.87900000       6.84400000
 O      19.86200000      10.81600000       5.95500000
 H      20.88300000      10.71300000       6.04500000
 H      19.66700000      10.06500000       6.56500000
 O      19.64000000      17.18100000       5.59900000
 H      20.49500000      17.35200000       5.84400000
 H      19.29100000      17.58500000       4.74000000
 O      18.88700000      12.03900000       3.83900000
 H      19.07200000      11.30900000       4.55600000
 H      18.94400000      12.80300000       4.47200000
 O      24.01600000      10.15300000       3.55700000
 H      23.60300000      10.19700000       4.42700000
 H      23.68100000      10.87800000       2.92400000
 O      23.66600000      13.25000000       6.53100000
 H      24.56800000      12.99900000       6.89500000
 H      23.25600000      13.85500000       7.22100000
 O      23.71500000      10.25400000       6.68500000
 H      23.74200000      10.91800000       7.46900000
 H      24.34300000       9.47000000       7.07300000
 O      24.02400000      17.09800000       5.54600000
 H      24.49600000      17.94700000       5.24400000
 H      24.72900000      16.39000000       5.45200000
 O      22.29000000      16.69100000       2.94700000
 H      22.69800000      16.77700000       3.78800000
 H      22.63900000      15.92800000       2.45500000
 O      24.25700000      13.86000000       3.53600000
 H      24.87300000      14.43500000       4.12800000
 H      23.69100000      13.44800000       4.16200000
 O      23.67100000      14.10100000       0.69200000
 H      24.02500000      14.23000000       1.56000000
 H      24.47800000      14.00800000       0.12500000
