36
XYZ file of cluster: frame_10500_bf66e.3e74.c06a4 - created by MolEdiTo
 O      17.27700000       6.15000000      19.14700000
 H      17.94700000       6.01200000      18.34200000
 H      16.74900000       5.35000000      19.18700000
 O      19.39000000       2.92600000      18.60400000
 H      18.84100000       2.50000000      17.87100000
 H      19.97100000       3.59100000      18.16400000
 O      18.08000000       2.41000000      25.38900000
 H      18.91000000       2.78400000      25.71700000
 H      18.15200000       2.39000000      24.38100000
 O      18.43700000       6.16400000      23.11400000
 H      18.92000000       7.02300000      23.05400000
 H      18.20400000       6.02800000      22.14100000
 O      19.51900000       3.02100000      22.81000000
 H      19.52200000       2.59200000      21.94500000
 H      19.72700000       3.94400000      22.63300000
 O      23.27900000       1.01600000      17.71300000
 H      22.81500000       1.09500000      16.85500000
 H      22.64300000       0.57200000      18.33700000
 O      22.68400000       5.11400000      18.18600000
 H      22.37900000       6.01400000      18.42700000
 H      23.52900000       5.06000000      18.63900000
 O      24.43800000       6.51000000      20.42300000
 H      23.46200000       6.49000000      20.31800000
 H      24.63400000       6.26500000      21.38600000
 O      24.43000000       3.00100000      19.46300000
 H      24.31400000       2.55300000      18.56800000
 H      24.45300000       2.23900000      20.06900000
 O      24.95500000       1.05700000      22.89000000
 H      24.81900000       0.98800000      23.86600000
 H      24.41100000       0.33900000      22.58600000
 O      23.82800000       4.53000000      24.10500000
 H      23.30700000       3.77800000      23.84700000
 H      24.35500000       4.09700000      24.81400000
 O      25.88900000       6.55800000      24.83500000
 H      26.25600000       7.00400000      25.68800000
 H      24.91600000       6.64300000      24.87000000
