252
XYZ file of cluster: frame_20000_9d2ed.c7bf4.9f14b - created by MolEdiTo
 O      36.72900000      35.78800000      29.47700000
 H      36.42100000      35.44200000      28.59200000
 H      36.63400000      36.73400000      29.30300000
 O      32.66800000      38.79900000      34.42000000
 H      32.56500000      39.42900000      35.11400000
 H      33.24000000      39.26400000      33.73900000
 O      29.12900000      35.86300000      31.52200000
 H      28.80100000      36.66200000      31.92800000
 H      28.62000000      35.85500000      30.67100000
 O      36.36400000      38.75000000      36.23400000
 H      36.25900000      39.69300000      36.04500000
 H      36.28400000      38.72500000      37.18400000
 O      27.67000000      39.34000000      28.82100000
 H      27.29200000      39.69200000      27.94700000
 H      28.11600000      38.56300000      28.44900000
 O      33.97600000      40.39100000      27.75000000
 H      34.76000000      40.13500000      28.25600000
 H      33.49000000      40.98800000      28.40700000
 O      34.68100000      37.00100000      34.75700000
 H      35.29600000      37.59100000      35.27400000
 H      33.91300000      37.64000000      34.76700000
 O      27.59800000      35.65200000      29.23100000
 H      28.20200000      35.26300000      28.56700000
 H      26.94300000      36.05500000      28.59200000
 O      39.19600000      39.85700000      31.16200000
 H      39.67100000      39.21000000      31.76700000
 H      39.64600000      40.64800000      31.31600000
 O      33.35900000      35.12600000      33.53100000
 H      33.95600000      35.72000000      34.02600000
 H      32.49300000      35.61800000      33.73300000
 O      38.11600000      36.07300000      39.30200000
 H      38.34800000      35.76800000      40.18600000
 H      39.01100000      36.16900000      38.91300000
 O      40.37200000      40.58500000      34.53400000
 H      39.85300000      39.71300000      34.69200000
 H      40.62500000      40.76200000      35.45000000
 O      36.66000000      34.85100000      34.68300000
 H      37.14400000      34.83400000      35.53100000
 H      35.72800000      34.89900000      35.07200000
 O      40.54100000      37.85200000      32.36300000
 H      41.05900000      37.04600000      32.23300000
 H      39.65500000      37.40100000      32.59700000
 O      37.25100000      34.38600000      37.52400000
 H      37.31800000      35.10500000      38.20400000
 H      36.27000000      34.19900000      37.58800000
 O      30.95000000      39.32600000      31.84300000
 H      30.69700000      40.21000000      32.26800000
 H      30.43500000      38.77200000      32.45000000
 O      33.37900000      35.71200000      39.03100000
 H      33.92200000      35.17800000      39.67600000
 H      33.70500000      35.38700000      38.16900000
 O      31.22400000      36.32600000      34.30200000
 H      31.71400000      37.18100000      34.18200000
 H      30.28900000      36.60200000      34.11800000
 O      29.18800000      40.36200000      36.69000000
 H      28.39100000      40.26800000      36.05200000
 H      29.36100000      41.32700000      36.52100000
 O      38.33400000      34.69100000      31.34000000
 H      37.83300000      34.97100000      30.54600000
 H      38.06000000      35.28000000      32.00800000
 O      28.65100000      37.85500000      33.81600000
 H      27.88500000      38.18400000      33.21000000
 H      28.14700000      37.96300000      34.64100000
 O      34.26700000      39.74000000      32.58300000
 H      33.83600000      39.25900000      31.78600000
 H      35.20200000      39.50500000      32.34500000
 O      37.25300000      38.48900000      28.90300000
 H      36.91500000      39.37500000      29.09900000
 H      38.08300000      38.53200000      29.39700000
 O      30.67700000      34.53700000      35.87800000
 H      31.05000000      35.31100000      35.39700000
 H      29.71900000      34.64500000      35.66100000
 O      37.26000000      40.77900000      34.46600000
 H      36.64200000      41.34700000      34.95200000
 H      38.13200000      41.08000000      34.91000000
 O      31.71800000      36.23300000      29.01700000
 H      31.08900000      35.81000000      29.67000000
 H      32.24700000      35.44600000      28.76800000
 O      33.81600000      38.17700000      39.73400000
 H      33.59500000      37.21600000      39.35000000
 H      33.28200000      38.64700000      39.06800000
 O      37.32100000      38.50200000      39.04400000
 H      37.50400000      37.56000000      38.91400000
 H      37.07500000      38.47800000      39.98200000
 O      33.89500000      36.90400000      27.28500000
 H      33.28200000      37.15000000      27.98300000
 H      33.86700000      35.92000000      27.42200000
 O      38.31800000      36.77800000      33.23300000
 H      37.75400000      36.17000000      33.72800000
 H      37.72500000      37.48800000      32.96300000
 O      31.68600000      38.95400000      37.73700000
 H      31.70400000      39.90400000      38.02900000
 H      30.86500000      39.07500000      37.16000000
 O      36.94800000      38.97200000      32.43400000
 H      36.94000000      39.51300000      33.26800000
 H      37.59800000      39.40000000      31.88700000
 O      30.69100000      36.67500000      39.90000000
 H      31.12800000      35.92800000      39.43900000
 H      31.30900000      37.37900000      39.61900000
 O      28.08300000      38.79100000      38.48400000
 H      27.90700000      39.36600000      39.30600000
 H      28.88100000      39.26600000      38.09500000
 O      35.94900000      34.75300000      40.87200000
 H      36.53300000      33.93500000      40.69800000
 H      36.46000000      35.18200000      41.53800000
 O      33.05600000      38.29300000      30.68700000
 H      32.67600000      37.59000000      30.10300000
 H      32.23500000      38.38900000      31.23400000
 O      28.52900000      36.24400000      37.79300000
 H      29.12400000      35.72800000      38.32000000
 H      28.56900000      37.17800000      38.12900000
 O      40.57400000      36.62600000      38.59700000
 H      41.15500000      35.97100000      39.05900000
 H      41.35500000      37.11100000      38.19800000
 O      39.44300000      38.39200000      35.74400000
 H      38.91200000      37.75500000      35.23500000
 H      38.89500000      38.52800000      36.54300000
 O      38.68700000      48.99000000      40.27600000
 H      39.22600000      48.14600000      40.51400000
 H      38.79900000      48.99000000      39.30200000
 O      32.24600000      46.45100000      37.05900000
 H      31.80500000      45.92900000      37.76800000
 H      33.17200000      46.03400000      37.11000000
 O      34.68300000      45.66500000      27.16500000
 H      34.94900000      46.50300000      27.58600000
 H      34.34600000      45.17500000      27.96600000
 O      39.38900000      46.92100000      36.20900000
 H      38.90800000      47.28500000      35.37600000
 H      39.10300000      46.01400000      36.17600000
 O      31.71400000      42.62400000      29.83900000
 H      31.68100000      41.78500000      30.36000000
 H      30.79000000      42.90600000      30.11500000
 O      35.99600000      48.41400000      34.13100000
 H      35.12600000      48.32600000      33.62200000
 H      36.24800000      49.31200000      33.98900000
 O      36.62800000      47.09600000      30.98200000
 H      35.81700000      47.47900000      30.56200000
 H      37.19600000      47.89400000      30.84000000
 O      27.93700000      48.49900000      35.98400000
 H      27.76700000      48.04700000      36.87500000
 H      26.99200000      48.59300000      35.69900000
 O      32.60500000      46.95700000      30.96200000
 H      33.04900000      46.24300000      30.38700000
 H      32.03800000      47.35600000      30.36000000
 O      29.04100000      48.12100000      39.58500000
 H      28.85300000      48.67700000      40.33700000
 H      29.98200000      47.85600000      39.80400000
 O      34.62000000      46.67600000      40.86900000
 H      35.22000000      46.13500000      40.37500000
 H      34.55800000      46.16400000      41.69000000
 O      29.04600000      46.81700000      31.97700000
 H      29.60400000      47.20400000      31.29000000
 H      29.72600000      46.44500000      32.57400000
 O      28.90900000      45.66100000      28.53300000
 H      28.67000000      46.55700000      28.13100000
 H      28.66400000      45.77700000      29.42100000
 O      37.98400000      44.67400000      29.90800000
 H      37.51800000      45.50300000      30.06100000
 H      38.42200000      44.53900000      30.76400000
 O      31.74000000      48.16600000      40.76500000
 H      32.02900000      48.86300000      41.37500000
 H      32.39400000      47.55500000      40.72200000
 O      32.77900000      43.25800000      34.82200000
 H      33.01300000      43.99700000      34.19800000
 H      31.82800000      43.57600000      35.01400000
 O      31.05100000      48.42900000      34.92900000
 H      31.21800000      47.66400000      35.54800000
 H      30.16200000      48.47000000      34.87600000
 O      28.80200000      43.17000000      29.87800000
 H      28.44800000      42.34100000      29.60100000
 H      28.58700000      43.79900000      29.15700000
 O      29.77100000      44.43100000      36.13700000
 H      30.16900000      44.81400000      36.90100000
 H      29.25100000      45.20000000      35.76900000
 O      34.86900000      49.18300000      39.62600000
 H      35.10200000      48.84200000      38.72200000
 H      34.56200000      48.33300000      40.00800000
 O      31.03000000      45.03400000      38.99400000
 H      30.10000000      45.03900000      39.16900000
 H      31.28400000      44.14500000      39.38200000
 O      38.26800000      42.39100000      38.50800000
 H      39.14900000      42.32500000      38.77200000
 H      37.82500000      41.53200000      38.75600000
 O      35.37700000      43.07200000      36.19600000
 H      34.64700000      42.91800000      35.58700000
 H      35.14700000      43.96700000      36.56700000
 O      33.37900000      48.48400000      32.83700000
 H      32.58200000      49.04700000      32.96900000
 H      33.03400000      47.94700000      32.03800000
 O      38.93700000      43.83400000      36.19600000
 H      39.81900000      43.73100000      36.54700000
 H      38.39100000      43.37200000      36.94500000
 O      39.77800000      43.91400000      32.61000000
 H      39.93800000      43.42500000      33.44000000
 H      39.02900000      44.50000000      32.94000000
 O      31.12600000      48.15700000      29.05500000
 H      30.11500000      48.01500000      29.00700000
 H      31.31800000      47.78000000      28.17300000
 O      35.32200000      47.82500000      28.70700000
 H      34.96300000      48.71400000      28.54600000
 H      36.32700000      48.02400000      28.49300000
 O      38.94400000      49.06900000      37.57400000
 H      38.88300000      48.09900000      37.25500000
 H      39.87500000      49.23200000      37.33500000
 O      27.82200000      46.01900000      34.83700000
 H      26.90400000      45.82800000      34.64500000
 H      27.90100000      46.98800000      34.71400000
 O      34.84100000      43.66900000      31.83100000
 H      34.63000000      42.86300000      32.37000000
 H      35.05200000      44.27700000      32.63000000
 O      38.62800000      48.33000000      33.90300000
 H      37.64900000      48.42600000      34.04700000
 H      38.84500000      49.28200000      33.64800000
 O      31.29700000      42.64300000      40.22900000
 H      30.49500000      42.37300000      40.75200000
 H      31.98200000      42.29500000      40.82400000
 O      36.38900000      42.48700000      29.72300000
 H      37.08600000      43.22300000      29.65600000
 H      36.08200000      42.74300000      30.60300000
 O      28.17000000      48.09100000      29.33800000
 H      28.16900000      48.70400000      30.16100000
 H      27.45200000      48.57100000      28.86600000
 O      32.04200000      45.47800000      33.50500000
 H      32.01500000      46.10500000      34.22000000
 H      32.16000000      45.99700000      32.70800000
 O      37.90500000      45.99100000      32.84500000
 H      38.33000000      46.85700000      33.02600000
 H      37.33900000      46.29700000      32.09900000
 O      33.68000000      44.42400000      29.58000000
 H      34.27000000      44.00600000      30.22400000
 H      32.90100000      43.75500000      29.76600000
 O      37.87500000      48.42200000      28.15000000
 H      38.50700000      48.26900000      27.41200000
 H      38.49200000      48.53900000      28.90800000
 O      35.36200000      45.05200000      34.02400000
 H      36.21500000      45.36600000      33.72500000
 H      35.15000000      45.83800000      34.57800000
 O      34.98000000      45.52200000      37.24700000
 H      35.16700000      46.45500000      37.09400000
 H      35.50600000      45.35300000      38.06700000
 O      29.79500000      43.07900000      32.93800000
 H      28.93000000      43.47300000      33.12500000
 H      30.38100000      43.42600000      33.60400000
 O      35.07500000      48.33000000      37.02400000
 H      35.82600000      48.74400000      36.57200000
 H      34.35100000      48.74600000      36.46700000
 O      36.74300000      45.11400000      39.62500000
 H      36.66500000      44.20300000      39.27600000
 H      37.61800000      45.04600000      40.09900000
 O      40.22600000      46.77800000      40.78000000
 H      41.16400000      46.97500000      40.97400000
 H      40.07100000      46.01800000      41.42200000
