1449
XYZ file of cluster: frame_20000_2caf.4ad63.c5943 - created by MolEdiTo
 O      10.31000000      33.66200000      34.94200000
 H      10.89700000      32.88000000      34.80800000
 H      11.11400000      34.25100000      35.24900000
 O      22.86800000      25.39200000      38.28700000
 H      22.59600000      25.48300000      39.23300000
 H      23.38100000      26.19800000      38.16000000
 O      16.34400000      31.86100000      40.39100000
 H      17.23100000      31.50500000      40.30900000
 H      15.84300000      31.06200000      40.19900000
 O      17.96700000      27.90000000      37.52900000
 H      17.88300000      27.59200000      38.41200000
 H      17.79300000      27.19200000      36.94500000
 O       6.71100000      33.22100000      37.49400000
 H       6.09000000      33.83600000      36.94000000
 H       6.52600000      33.65800000      38.35100000
 O      27.88100000      33.32300000      39.67100000
 H      27.96700000      32.34600000      39.55500000
 H      28.76400000      33.60400000      39.24500000
 O      23.52000000      35.07700000      35.26000000
 H      24.45800000      35.35500000      35.18700000
 H      23.18300000      35.72300000      35.91000000
 O      24.77000000      28.02900000      38.01600000
 H      24.76000000      28.88100000      37.56000000
 H      25.75500000      27.87900000      38.07000000
 O      15.84800000      19.54800000      38.30500000
 H      16.45200000      19.96100000      37.68000000
 H      16.46000000      19.22400000      39.07800000
 O      34.68100000      37.00100000      34.75700000
 H      35.29600000      37.59100000      35.27400000
 H      33.91300000      37.64000000      34.76700000
 O      18.76500000      15.15800000      35.30000000
 H      19.42900000      15.46100000      35.95000000
 H      18.77300000      15.86300000      34.66100000
 O      35.07500000      18.64400000      36.42500000
 H      35.59000000      18.32100000      37.23200000
 H      34.89300000      19.54700000      36.69600000
 O       9.51900000      32.78300000      37.70000000
 H       8.53500000      32.74900000      37.59000000
 H       9.72600000      33.24100000      36.84400000
 O       8.40800000      18.42600000      40.18000000
 H       8.55000000      17.68400000      40.73500000
 H       9.30400000      18.77100000      39.96800000
 O       2.66200000      14.95300000      35.74400000
 H       2.28700000      15.50500000      36.47500000
 H       3.58000000      14.79900000      36.09600000
 O      17.31800000      18.44400000      40.10500000
 H      17.53800000      18.75700000      40.99000000
 H      18.19700000      18.15200000      39.78700000
 O      34.81000000      24.37500000      37.55900000
 H      35.46300000      25.01700000      37.82900000
 H      34.54600000      24.62300000      36.67100000
 O       8.36500000      36.66200000      38.48600000
 H       7.72400000      36.22000000      39.05100000
 H       7.73400000      37.26200000      38.03200000
 O      24.75200000      16.89900000      40.78200000
 H      24.45400000      16.12000000      40.33400000
 H      25.33600000      17.26800000      40.09700000
 O       1.42600000      33.72600000      34.91600000
 H       1.01600000      32.93200000      35.34400000
 H       2.39100000      33.40500000      34.90200000
 O      24.01400000      27.89700000      40.87100000
 H      24.71900000      27.68700000      41.49000000
 H      24.56400000      27.93200000      40.03400000
 O      31.15000000      30.19400000      36.08700000
 H      30.78400000      30.32100000      36.95500000
 H      31.58800000      31.04400000      35.88300000
 O      23.79900000      35.36700000      40.90000000
 H      24.35800000      35.11300000      41.68200000
 H      23.16000000      35.90500000      41.30400000
 O      29.36400000      24.53800000      35.83400000
 H      29.78400000      24.95800000      35.10600000
 H      28.98800000      23.75000000      35.44900000
 O      25.24600000      37.08800000      39.41400000
 H      24.80100000      36.39700000      39.94100000
 H      26.16800000      36.93300000      39.51700000
 O      19.15100000      31.81300000      40.64000000
 H      19.18500000      30.94600000      40.96300000
 H      20.13200000      32.01500000      40.42900000
 O       7.53000000      23.95800000      37.13600000
 H       7.08200000      24.49100000      37.85600000
 H       6.81800000      23.74100000      36.53700000
 O      32.71100000      19.85500000      38.85500000
 H      32.31600000      20.12800000      39.72100000
 H      31.93400000      19.30800000      38.54900000
 O       4.08500000      32.97300000      39.78300000
 H       4.48300000      33.19000000      40.62700000
 H       3.20000000      32.71900000      40.04200000
 O      34.49700000      15.41400000      40.10500000
 H      34.29800000      14.47200000      39.96300000
 H      33.62300000      15.78800000      40.00500000
 O      26.19600000      18.32500000      39.00500000
 H      26.06900000      18.98400000      38.31500000
 H      26.96200000      18.68100000      39.51800000
 O      13.17600000      33.14900000      37.63300000
 H      12.93100000      32.68000000      38.45800000
 H      14.11700000      33.11900000      37.64500000
 O      30.14500000      23.14300000      38.27300000
 H      30.16900000      23.45400000      37.35000000
 H      31.06000000      23.21900000      38.51900000
 O       5.65300000      39.83100000      40.37300000
 H       5.58800000      40.68600000      39.85000000
 H       6.07400000      39.24100000      39.68900000
 O       5.50700000      22.80000000      34.69100000
 H       5.69000000      21.79900000      34.86300000
 H       5.97100000      22.86100000      33.85500000
 O      19.85000000      22.29400000      39.38300000
 H      19.23300000      22.30500000      40.12600000
 H      20.55400000      21.68000000      39.68500000
 O       2.79900000      22.56100000      36.42200000
 H       3.61500000      22.96700000      36.34300000
 H       2.57300000      22.72900000      37.34600000
 O      15.05200000      40.50700000      40.29800000
 H      14.55800000      41.35400000      40.30900000
 H      14.51500000      39.99500000      40.92000000
 O      22.20600000      36.62900000      37.23100000
 H      21.37900000      36.88500000      36.76000000
 H      21.81800000      35.96400000      37.88300000
 O      37.26000000      40.77900000      34.46600000
 H      36.64200000      41.34700000      34.95200000
 H      38.13200000      41.08000000      34.91000000
 O       8.23600000      15.01500000      38.70500000
 H       7.90300000      14.17700000      39.09400000
 H       8.81500000      15.32700000      39.43900000
 O      40.19400000      13.86700000      35.29300000
 H      41.07900000      14.31700000      35.30900000
 H      40.20400000      13.43100000      36.17600000
 O       8.46700000      15.60400000      35.88200000
 H       8.44300000      15.74500000      36.81900000
 H       8.41100000      14.66700000      35.73100000
 O       8.96000000      18.22900000      35.22500000
 H       8.55600000      17.30800000      35.36600000
 H       8.55900000      18.63400000      36.08500000
 O       1.10400000      22.74700000      34.42100000
 H       1.80400000      22.56900000      33.75000000
 H       1.66500000      22.52000000      35.22300000
 O      25.55400000      23.31000000      38.51200000
 H      25.13300000      23.70000000      37.67700000
 H      25.50900000      22.42700000      38.34700000
 O       6.73400000      20.54400000      35.31500000
 H       7.68900000      20.62500000      35.61600000
 H       6.44800000      19.73100000      35.77600000
 O      30.21800000      18.28900000      38.31700000
 H      29.69800000      18.47400000      37.50700000
 H      29.48100000      18.10600000      38.99500000
 O      23.63200000      14.43600000      40.32100000
 H      23.01900000      14.07800000      41.06800000
 H      23.01900000      14.81800000      39.70300000
 O      15.85200000      22.84900000      34.73500000
 H      15.09100000      22.27400000      34.79800000
 H      16.45300000      22.38200000      35.29200000
 O      27.42000000      27.97300000      38.29900000
 H      27.47700000      27.08800000      38.66300000
 H      27.64800000      27.80300000      37.38200000
 O       6.57900000      34.63100000      39.85900000
 H       6.58000000      34.49500000      40.83500000
 H       6.01600000      35.46800000      39.79700000
 O       9.47500000      34.38100000      39.94400000
 H       8.48600000      34.40700000      40.00100000
 H       9.59800000      33.69800000      39.21400000
 O      20.05800000      32.20700000      35.05200000
 H      19.99600000      32.17100000      36.00600000
 H      20.72300000      32.92100000      34.92100000
 O       6.96900000      18.55400000      37.28200000
 H       7.40100000      18.34400000      38.12500000
 H       6.02300000      18.66700000      37.52400000
 O      18.96700000      14.79000000      39.41200000
 H      18.18800000      14.59800000      39.92600000
 H      19.22700000      13.96800000      39.03800000
 O      25.49900000      24.10900000      35.79000000
 H      24.81200000      24.11800000      35.09100000
 H      25.91100000      24.98100000      35.59800000
 O      36.58100000      26.29200000      40.17400000
 H      35.70500000      26.02300000      39.85100000
 H      36.93100000      26.85400000      39.51000000
 O       5.06400000      30.07900000      35.08300000
 H       5.32400000      29.64400000      34.24900000
 H       5.86200000      29.89500000      35.64700000
 O      40.57400000      36.62600000      38.59700000
 H      41.15500000      35.97100000      39.05900000
 H      41.35500000      37.11100000      38.19800000
 O      37.24800000      15.82200000      36.28200000
 H      37.92800000      15.59500000      35.64800000
 H      37.73600000      15.62100000      37.10900000
 O      32.02200000      16.05400000      39.43600000
 H      31.88300000      16.86200000      38.92600000
 H      31.87700000      15.36600000      38.74000000
 O      39.44300000      38.39200000      35.74400000
 H      38.91200000      37.75500000      35.23500000
 H      38.89500000      38.52800000      36.54300000
 O       1.18700000      25.96700000      40.51700000
 H       1.92100000      25.29900000      40.70400000
 H       1.65200000      26.60300000      39.95300000
 O       8.84300000      26.36700000      34.91200000
 H       8.79000000      26.68900000      35.79500000
 H       9.73800000      26.64900000      34.64300000
 O      38.41900000      15.64700000      39.02800000
 H      38.67000000      14.65400000      39.07000000
 H      39.31100000      15.99100000      38.88000000
 O      25.74500000      39.97400000      40.11500000
 H      25.93400000      39.12600000      40.55700000
 H      24.80900000      39.75500000      39.87100000
 O      11.94700000      22.56000000      37.05600000
 H      11.86600000      21.90000000      36.38200000
 H      11.41400000      23.27900000      36.63600000
 O      13.17200000      20.20800000      35.53800000
 H      12.52700000      19.71000000      34.99100000
 H      13.46200000      19.54900000      36.17000000
 O       6.01300000      34.94900000      35.07500000
 H       5.36500000      34.42300000      34.57700000
 H       5.41300000      35.47000000      35.68800000
 O      38.11600000      36.07300000      39.30200000
 H      38.34800000      35.76800000      40.18600000
 H      39.01100000      36.16900000      38.91300000
 O      13.16400000      32.88000000      40.40100000
 H      12.37700000      32.64300000      40.92600000
 H      13.83000000      32.93000000      41.06600000
 O      28.63500000      18.72400000      40.42600000
 H      28.87800000      19.66000000      40.45300000
 H      29.30800000      18.37000000      41.02300000
 O      21.58500000      14.58200000      36.64600000
 H      21.09900000      13.90700000      36.18800000
 H      21.14600000      14.53400000      37.52800000
 O       9.78100000      39.49100000      34.72700000
 H      10.00200000      38.94700000      35.56500000
 H       9.19600000      38.83400000      34.27000000
 O       7.38900000      29.43600000      36.55000000
 H       7.74500000      28.64400000      36.95500000
 H       8.09800000      29.68800000      35.91300000
 O      35.72500000      17.63600000      39.34600000
 H      35.31600000      16.75500000      39.40300000
 H      35.43900000      18.03500000      40.22300000
 O      32.37500000      32.56400000      35.75400000
 H      32.61100000      32.57600000      34.76000000
 H      31.69900000      33.22700000      35.78800000
 O      13.82900000      20.94200000      39.53100000
 H      14.37200000      20.91200000      38.72900000
 H      13.16000000      20.31900000      39.37400000
 O      14.23600000      40.07100000      36.97500000
 H      14.71800000      40.07500000      37.82900000
 H      13.94700000      39.19100000      36.83800000
 O       4.34100000      18.98100000      36.59500000
 H       3.39400000      18.87000000      36.87200000
 H       4.36700000      19.93600000      36.44000000
 O      32.96800000      23.76600000      39.17700000
 H      33.65400000      23.89800000      38.45800000
 H      32.76900000      24.66700000      39.35200000
 O       5.49700000      14.99700000      36.89300000
 H       6.47600000      15.19500000      37.15300000
 H       5.17300000      15.50400000      37.70400000
 O      16.93900000      26.91600000      39.83300000
 H      16.80900000      26.65800000      40.78600000
 H      16.45100000      26.19500000      39.37400000
 O      13.89200000      26.26100000      37.75000000
 H      14.15800000      26.38900000      36.83100000
 H      14.04000000      25.29400000      37.90800000
 O      27.90400000      16.30100000      38.04200000
 H      27.45800000      17.09700000      38.41100000
 H      27.12700000      15.67400000      38.29800000
 O      23.54200000      32.94800000      37.05500000
 H      23.47200000      33.64700000      36.42500000
 H      24.16700000      33.27200000      37.69700000
 O      35.49400000      31.72800000      36.39600000
 H      36.10200000      31.16800000      35.91500000
 H      34.63700000      31.33000000      36.21100000
 O      37.32100000      38.50200000      39.04400000
 H      37.50400000      37.56000000      38.91400000
 H      37.07500000      38.47800000      39.98200000
 O      21.64800000      32.60800000      40.51500000
 H      22.42400000      32.99900000      41.05800000
 H      21.90900000      31.65500000      40.60800000
 O      29.19500000      21.38700000      40.33500000
 H      29.28900000      21.89200000      39.52300000
 H      30.11900000      21.51900000      40.77900000
 O      38.89900000      32.09000000      38.13700000
 H      38.15000000      32.31100000      38.72700000
 H      38.63500000      32.58400000      37.33900000
 O       3.98300000      34.01100000      37.25400000
 H       4.24600000      33.59000000      38.10200000
 H       3.29500000      33.33300000      36.96300000
 O      35.94900000      34.75300000      40.87200000
 H      36.53300000      33.93500000      40.69800000
 H      36.46000000      35.18200000      41.53800000
 O      21.55100000      28.01000000      35.87900000
 H      22.43700000      27.97700000      35.42900000
 H      21.38500000      27.05200000      35.92900000
 O       1.73300000      19.24200000      37.18300000
 H       1.33000000      19.96400000      37.63500000
 H       1.11800000      19.12300000      36.42400000
 O      12.35700000      14.07500000      39.32100000
 H      11.41300000      14.06000000      39.45700000
 H      12.43000000      14.16200000      38.35800000
 O      31.93400000      16.38900000      35.01200000
 H      32.04800000      16.09700000      34.09300000
 H      32.84000000      16.48200000      35.34600000
 O      15.22700000      29.09900000      39.64800000
 H      14.60300000      28.82400000      40.35800000
 H      15.75500000      28.23600000      39.58300000
 O      23.86000000      19.31600000      34.61100000
 H      24.36300000      18.62200000      35.12000000
 H      24.35000000      19.24800000      33.77000000
 O      25.92900000      20.07200000      37.11300000
 H      26.23300000      20.76300000      36.52700000
 H      24.94300000      20.31000000      37.21800000
 O       8.95600000      21.23300000      36.59000000
 H       9.34000000      22.10600000      36.42400000
 H       9.36200000      20.93000000      37.37300000
 O       5.12200000      36.75000000      39.49500000
 H       4.92500000      36.70700000      38.55200000
 H       4.81300000      37.65900000      39.71300000
 O      12.50200000      35.12900000      35.92500000
 H      12.52400000      34.52300000      36.75500000
 H      13.31600000      35.63300000      36.06500000
 O      29.84300000      21.10800000      36.26800000
 H      29.60900000      20.18100000      36.40000000
 H      28.93200000      21.46000000      36.03100000
 O       2.61400000      16.73900000      40.44200000
 H       2.12000000      16.58500000      41.21300000
 H       3.11100000      17.56300000      40.74500000
 O      24.92700000      30.51100000      35.96400000
 H      25.44900000      30.94800000      35.33000000
 H      24.30900000      31.19400000      36.28400000
 O      26.79800000      26.35600000      34.98600000
 H      27.00900000      26.74900000      34.07000000
 H      27.46200000      26.86400000      35.50000000
 O      13.73900000      23.52100000      38.77300000
 H      12.88300000      23.37500000      38.25800000
 H      13.88500000      22.61200000      39.09600000
 O      19.70300000      22.15700000      36.78300000
 H      19.80300000      22.05000000      37.73500000
 H      20.56900000      22.53900000      36.51900000
 O      36.21700000      27.16200000      37.40900000
 H      35.44300000      27.54000000      36.99100000
 H      36.94400000      27.72800000      36.96700000
 O      39.42500000      20.60800000      38.09900000
 H      38.72300000      20.93800000      37.48900000
 H      39.13100000      19.70200000      38.24500000
 O       6.28000000      19.84400000      40.87200000
 H       6.70800000      20.64400000      41.26900000
 H       7.10800000      19.30900000      40.68600000
 O      36.97400000      22.06500000      36.17900000
 H      36.18600000      21.83300000      36.67300000
 H      36.83000000      23.04000000      36.04900000
 O      30.62600000      34.25900000      38.57300000
 H      30.84000000      34.02900000      37.59000000
 H      31.36500000      33.77700000      38.94600000
 O       2.16400000      39.39500000      39.24500000
 H       1.87100000      38.74600000      39.90200000
 H       2.25300000      38.90200000      38.41800000
 O      34.78100000      28.69000000      35.70000000
 H      34.16800000      28.63000000      34.97400000
 H      35.55200000      29.02900000      35.22300000
 O      17.24000000      39.98800000      34.54900000
 H      17.45700000      40.78400000      35.00400000
 H      16.28500000      39.78100000      34.78100000
 O      36.36400000      38.75000000      36.23400000
 H      36.25900000      39.69300000      36.04500000
 H      36.28400000      38.72500000      37.18400000
 O       1.80200000      16.18100000      38.01400000
 H       1.73000000      17.10900000      37.72600000
 H       1.96800000      16.29500000      38.96400000
 O      23.92300000      14.45000000      35.45200000
 H      24.22000000      15.33300000      35.23200000
 H      23.00300000      14.52400000      35.66100000
 O       6.96800000      25.70000000      39.06200000
 H       7.29000000      25.76700000      39.96800000
 H       6.20600000      26.36100000      39.12400000
 O      37.69800000      32.77600000      40.75200000
 H      38.52800000      32.88500000      41.25900000
 H      37.56200000      31.79800000      41.03200000
 O      15.47700000      25.48900000      35.48300000
 H      15.20000000      24.69300000      34.99200000
 H      16.31700000      25.11200000      35.85500000
 O      34.33100000      34.06700000      36.85200000
 H      34.84400000      33.23500000      36.59900000
 H      33.58200000      33.99300000      36.23400000
 O      16.70400000      38.32700000      38.63300000
 H      16.37000000      39.16200000      39.01800000
 H      16.49000000      37.72200000      39.39700000
 O      32.45700000      22.38300000      35.58800000
 H      31.74500000      21.96800000      36.12900000
 H      32.41900000      21.76600000      34.79700000
 O       3.97100000      39.92800000      36.14000000
 H       4.90200000      40.19700000      36.30800000
 H       3.70400000      40.63800000      35.57000000
 O      24.12100000      27.62400000      34.75100000
 H      24.65900000      26.88200000      35.08900000
 H      24.62300000      28.34400000      35.21700000
 O      24.35500000      38.15500000      34.67300000
 H      24.09100000      38.66300000      35.49300000
 H      25.28700000      37.92700000      34.88500000
 O      36.66000000      34.85100000      34.68300000
 H      37.14400000      34.83400000      35.53100000
 H      35.72800000      34.89900000      35.07200000
 O      25.98000000      14.70800000      39.03300000
 H      25.04200000      14.59600000      39.25700000
 H      26.08200000      13.86600000      38.47200000
 O       2.42700000      36.43400000      34.51700000
 H       1.63500000      36.76900000      34.92300000
 H       2.18500000      35.56500000      34.26200000
 O      10.64600000      39.54400000      38.23500000
 H      10.36600000      38.76300000      37.71900000
 H      11.50300000      39.19900000      38.50900000
 O      16.26800000      24.29700000      39.18100000
 H      15.28600000      24.17800000      39.10400000
 H      16.53200000      24.13000000      38.25000000
 O       9.24000000      38.24800000      40.51900000
 H       9.86600000      38.80600000      40.12800000
 H       9.04900000      37.60600000      39.79300000
 O       4.28200000      36.59900000      36.78300000
 H       4.03500000      35.67500000      36.81400000
 H       3.50300000      36.99000000      36.30800000
 O       4.94900000      15.59000000      39.54700000
 H       4.10800000      16.16300000      39.66800000
 H       5.20100000      15.57000000      40.52400000
 O       1.75800000      25.39800000      34.96700000
 H       1.41300000      24.47800000      35.12800000
 H       2.69000000      25.17200000      34.94900000
 O      15.25100000      36.35400000      37.19200000
 H      14.94300000      36.42500000      38.10100000
 H      16.08400000      36.87700000      37.24700000
 O      28.78100000      27.83100000      35.82200000
 H      28.97600000      28.78500000      35.84300000
 H      29.43800000      27.51600000      35.15200000
 O       2.13300000      38.20700000      36.82900000
 H       1.40000000      38.42500000      36.22900000
 H       2.85300000      38.79900000      36.42000000
 O      38.19600000      29.21200000      37.18900000
 H      38.99700000      28.75900000      37.01900000
 H      38.46400000      30.06300000      37.59100000
 O      12.19600000      31.90100000      35.32600000
 H      12.64700000      32.34800000      36.09700000
 H      12.99600000      31.74100000      34.78300000
 O      17.75800000      24.47000000      36.84000000
 H      18.44700000      24.69300000      37.52900000
 H      18.33800000      23.87500000      36.30500000
 O      21.34800000      17.02000000      34.10300000
 H      21.39700000      16.90300000      35.08200000
 H      21.20600000      18.02300000      34.11500000
 O      34.92100000      30.55700000      38.93000000
 H      35.60300000      30.67500000      38.16700000
 H      35.61200000      30.60200000      39.66300000
 O      32.16000000      24.99900000      34.47100000
 H      32.19600000      24.18800000      35.02200000
 H      33.09600000      25.32800000      34.56600000
 O      18.24600000      34.64500000      35.66300000
 H      17.45700000      34.03500000      35.59200000
 H      18.73500000      34.17000000      36.36000000
 O      12.34300000      18.35000000      40.07700000
 H      11.83900000      17.91600000      40.78200000
 H      13.16500000      17.80400000      40.08900000
 O      12.73600000      38.29400000      39.57300000
 H      13.01400000      37.31200000      39.60700000
 H      13.16500000      38.59500000      40.36600000
 O      37.75700000      18.33500000      37.90000000
 H      37.08100000      18.23800000      38.61500000
 H      37.63800000      17.48000000      37.44800000
 O      19.05100000      39.36100000      40.78000000
 H      18.52700000      40.16200000      40.50200000
 H      18.39200000      38.71400000      40.48600000
 O      30.67700000      34.53700000      35.87800000
 H      31.05000000      35.31100000      35.39700000
 H      29.71900000      34.64500000      35.66100000
 O      16.32100000      16.54000000      38.36200000
 H      16.74900000      16.84500000      39.18000000
 H      15.42600000      16.41800000      38.74800000
 O      26.16900000      36.01100000      36.72700000
 H      25.45900000      36.12400000      37.40300000
 H      26.98000000      36.27900000      37.21500000
 O      29.04300000      18.28100000      35.78000000
 H      28.40900000      18.31500000      35.06300000
 H      29.77100000      17.86200000      35.37300000
 O      15.89100000      29.85300000      37.13500000
 H      15.37600000      29.81000000      37.96900000
 H      16.50900000      29.11500000      37.27800000
 O      33.81600000      38.17700000      39.73400000
 H      33.59500000      37.21600000      39.35000000
 H      33.28200000      38.64700000      39.06800000
 O      17.85500000      18.45100000      36.32700000
 H      17.30200000      17.73500000      36.77900000
 H      18.73600000      18.12100000      36.60600000
 O      27.78100000      13.43800000      34.97200000
 H      28.49400000      14.07800000      34.72100000
 H      27.54500000      13.09200000      34.07700000
 O      14.85800000      16.81600000      35.36200000
 H      14.45300000      17.18300000      36.22100000
 H      15.22200000      16.02800000      35.67600000
 O      11.87400000      28.24400000      37.51300000
 H      11.49700000      27.86600000      36.67500000
 H      12.68000000      27.70300000      37.54300000
 O      10.12900000      23.59800000      35.38300000
 H       9.34800000      24.08700000      35.62800000
 H      10.38800000      24.19600000      34.60000000
 O      30.51900000      14.81800000      36.89800000
 H      30.89300000      15.41900000      36.15200000
 H      29.83200000      15.36200000      37.25100000
 O      19.63500000      17.45500000      39.54200000
 H      20.58200000      17.45500000      39.84000000
 H      19.38300000      16.50300000      39.64900000
 O      40.24400000      27.25300000      36.02300000
 H      40.95300000      26.72100000      35.69100000
 H      39.53600000      27.12000000      35.33100000
 O      25.18700000      17.11800000      35.51400000
 H      25.62300000      16.98600000      36.33300000
 H      25.99700000      17.25000000      34.86500000
 O      19.84300000      36.90600000      35.70400000
 H      19.08600000      36.26100000      35.84400000
 H      20.04400000      36.76600000      34.77800000
 O      19.92100000      24.72500000      38.36600000
 H      20.76100000      24.89500000      37.94100000
 H      20.19300000      23.94500000      38.94300000
 O      20.77100000      28.68900000      38.34400000
 H      19.99600000      29.13400000      37.99900000
 H      21.14700000      28.28300000      37.49500000
 O      22.17300000      20.74600000      40.23100000
 H      22.11100000      19.83100000      40.57500000
 H      22.99700000      20.98100000      40.75000000
 O      12.80300000      37.95700000      35.40300000
 H      12.39500000      37.53800000      34.60000000
 H      11.99800000      38.05700000      35.92100000
 O      22.27400000      23.26800000      36.63300000
 H      22.51400000      23.61000000      35.70000000
 H      22.54000000      24.10200000      37.13000000
 O      16.45400000      32.63200000      36.05500000
 H      16.20200000      33.07200000      36.92000000
 H      16.23300000      31.68900000      36.33900000
 O      14.72800000      13.72800000      34.15100000
 H      15.63100000      13.63500000      33.78500000
 H      14.91900000      14.03200000      35.07100000
 O      27.60500000      24.98400000      38.78400000
 H      28.14200000      24.67200000      38.01500000
 H      26.80100000      24.47300000      38.60700000
 O      19.48700000      32.99400000      37.75700000
 H      19.89900000      33.62400000      38.31100000
 H      19.28200000      32.26000000      38.29400000
 O      33.59700000      26.61700000      39.89200000
 H      33.31000000      27.12600000      39.05600000
 H      33.55300000      27.32900000      40.54600000
 O      32.66800000      38.79900000      34.42000000
 H      32.56500000      39.42900000      35.11400000
 H      33.24000000      39.26400000      33.73900000
 O      15.89100000      33.63900000      38.39600000
 H      15.97400000      33.06500000      39.22000000
 H      16.22700000      34.46700000      38.73500000
 O      34.61600000      21.19200000      37.21400000
 H      34.00800000      21.62400000      36.59400000
 H      33.93800000      21.02700000      37.96000000
 O       5.82200000      13.75900000      34.13500000
 H       5.55200000      14.12400000      35.01700000
 H       6.07300000      14.63400000      33.79100000
 O       1.39200000      30.81700000      38.58400000
 H       1.56500000      31.34100000      39.41400000
 H       0.47800000      31.09300000      38.37300000
 O      27.01000000      38.79900000      35.94000000
 H      26.30000000      39.35200000      36.31700000
 H      27.57400000      38.61700000      36.67200000
 O       3.25600000      24.42000000      40.72100000
 H       3.12100000      23.82300000      39.99500000
 H       3.63000000      23.77400000      41.43000000
 O      37.12900000      20.00000000      34.41700000
 H      36.24200000      19.71500000      34.68200000
 H      37.36400000      20.51200000      35.24200000
 O      17.47100000      21.06900000      35.85600000
 H      17.82700000      20.13100000      35.99000000
 H      18.34200000      21.53300000      36.09700000
 O       4.43800000      25.47100000      34.90500000
 H       4.78100000      24.59300000      35.05400000
 H       5.24500000      25.81600000      34.37600000
 O      11.46700000      15.81200000      35.55400000
 H      11.73600000      16.65900000      35.11900000
 H      10.50100000      15.83600000      35.45000000
 O      21.98400000      29.44600000      40.50400000
 H      21.35400000      29.05900000      39.77500000
 H      22.69300000      28.71800000      40.37600000
 O      22.45500000      16.42900000      38.69700000
 H      22.50000000      17.36800000      38.28500000
 H      22.29200000      15.95400000      37.88200000
 O      40.37200000      40.58500000      34.53400000
 H      39.85300000      39.71300000      34.69200000
 H      40.62500000      40.76200000      35.45000000
 O      13.30300000      35.68200000      39.43200000
 H      12.99400000      34.78100000      39.11900000
 H      13.97000000      35.37400000      40.13300000
 O      39.79100000      18.78800000      35.01600000
 H      39.55600000      17.99100000      34.60900000
 H      38.95000000      19.30600000      34.92200000
 O      37.25100000      34.38600000      37.52400000
 H      37.31800000      35.10500000      38.20400000
 H      36.27000000      34.19900000      37.58800000
 O      10.37600000      30.44800000      39.13500000
 H      10.67800000      29.71000000      38.64600000
 H      10.15400000      31.12500000      38.52700000
 O      33.37900000      35.71200000      39.03100000
 H      33.92200000      35.17800000      39.67600000
 H      33.70500000      35.38700000      38.16900000
 O       6.13200000      30.88400000      38.73000000
 H       6.67100000      30.71800000      37.91900000
 H       6.12900000      31.87200000      38.72900000
 O      29.18800000      40.36200000      36.69000000
 H      28.39100000      40.26800000      36.05200000
 H      29.36100000      41.32700000      36.52100000
 O       1.25200000      22.50700000      38.73900000
 H       0.70800000      21.81000000      38.32900000
 H       1.34700000      22.01400000      39.62000000
 O      13.72500000      18.28700000      37.40600000
 H      14.58300000      18.65500000      37.81200000
 H      13.17200000      18.20400000      38.16300000
 O      13.98200000      16.34700000      39.61200000
 H      14.24200000      16.10100000      40.52200000
 H      13.47300000      15.50600000      39.41200000
 O       6.76600000      38.36700000      37.30500000
 H       6.83400000      39.36600000      37.12900000
 H       5.85700000      38.21500000      36.98400000
 O      10.10100000      20.45900000      39.33200000
 H      11.06900000      20.43200000      39.26900000
 H       9.98900000      20.74900000      40.28800000
 O      10.04600000      30.20000000      35.48000000
 H      10.75600000      30.68800000      35.99400000
 H      10.01900000      30.66000000      34.64800000
 O       1.42900000      32.69400000      40.80700000
 H       1.21300000      33.66200000      40.80200000
 H       0.96700000      32.39900000      41.62500000
 O      23.58000000      21.25800000      37.55400000
 H      23.13900000      22.02900000      37.11200000
 H      23.05800000      21.22700000      38.41500000
 O      38.26800000      21.01700000      40.64100000
 H      38.57600000      21.86300000      40.90900000
 H      38.56300000      20.93200000      39.71500000
 O      20.48400000      40.20500000      34.69500000
 H      20.51400000      39.34000000      34.22200000
 H      20.03600000      39.93500000      35.50000000
 O      27.24300000      21.95300000      35.73800000
 H      26.62600000      22.72000000      35.85600000
 H      27.27100000      21.90600000      34.77300000
 O       4.91600000      27.61500000      39.00600000
 H       4.01800000      27.70900000      38.66100000
 H       5.29600000      28.47100000      38.73400000
 O       2.46100000      35.45900000      40.51400000
 H       3.30700000      35.45900000      39.98300000
 H       2.82900000      35.07400000      41.37100000
 O      15.47200000      14.41500000      36.72600000
 H      16.08500000      14.89100000      37.30300000
 H      15.93400000      13.56900000      36.61700000
 O      10.28300000      25.90300000      39.55800000
 H       9.84600000      25.06300000      39.36900000
 H      10.46500000      25.71500000      40.53200000
 O       2.12800000      27.65700000      38.40100000
 H       1.73900000      28.57300000      38.46900000
 H       1.96700000      27.54900000      37.44300000
 O      31.08300000      29.84900000      38.87500000
 H      31.72000000      30.43000000      39.33500000
 H      31.76100000      29.33700000      38.36200000
 O      12.74600000      13.68700000      36.65600000
 H      12.23200000      14.47200000      36.23000000
 H      13.66000000      14.08300000      36.55200000
 O      27.80400000      34.24600000      35.03500000
 H      27.28100000      34.91500000      35.48500000
 H      27.12000000      33.53700000      34.75200000
 O      23.16600000      40.63800000      39.06300000
 H      22.85900000      40.15500000      39.85300000
 H      23.40500000      39.94600000      38.39800000
 O      21.52100000      34.49400000      38.74100000
 H      22.20900000      33.88600000      38.38000000
 H      21.44600000      34.07000000      39.61200000
 O      31.68600000      38.95400000      37.73700000
 H      31.70400000      39.90400000      38.02900000
 H      30.86500000      39.07500000      37.16000000
 O      10.20500000      37.49500000      36.61100000
 H       9.52600000      37.25500000      37.26200000
 H      10.30800000      36.61800000      36.19100000
 O      30.69100000      36.67500000      39.90000000
 H      31.12800000      35.92800000      39.43900000
 H      31.30900000      37.37900000      39.61900000
 O      34.47200000      15.81200000      36.17600000
 H      35.39100000      15.62300000      36.44700000
 H      34.53800000      16.80700000      36.05800000
 O      28.08300000      38.79100000      38.48400000
 H      27.90700000      39.36600000      39.30600000
 H      28.88100000      39.26600000      38.09500000
 O      20.36800000      17.10400000      36.93600000
 H      20.05800000      16.76200000      37.80900000
 H      21.00300000      17.81000000      37.27400000
 O      32.77000000      32.11100000      39.86800000
 H      33.62100000      31.71400000      39.45700000
 H      33.31300000      32.51700000      40.66600000
 O      19.13200000      39.41800000      37.17400000
 H      18.17100000      39.26400000      37.34800000
 H      19.40800000      38.57300000      36.78400000
 O      24.18100000      38.51200000      37.63000000
 H      24.74400000      37.99500000      38.26900000
 H      23.48000000      37.88400000      37.36500000
 O      28.30900000      30.24200000      39.87100000
 H      29.26100000      29.97800000      39.64100000
 H      27.88300000      29.39500000      39.64200000
 O      36.70500000      24.89400000      35.60500000
 H      36.27500000      25.65800000      35.16900000
 H      37.46600000      25.41400000      36.02000000
 O      22.44600000      25.69500000      40.79300000
 H      22.94900000      25.11200000      41.42600000
 H      22.76700000      26.54700000      41.13800000
 O       1.75400000      20.50100000      40.72800000
 H       1.23100000      20.21300000      41.49500000
 H       2.39000000      19.77300000      40.74600000
 O      15.99000000      36.19700000      40.35800000
 H      16.93500000      36.12700000      40.46800000
 H      15.63900000      35.99500000      41.23800000
 O      22.81800000      18.65500000      37.06300000
 H      23.08600000      19.54700000      37.34600000
 H      23.30000000      18.52200000      36.22400000
 O       9.56400000      23.38400000      38.97100000
 H       9.11100000      23.53600000      38.10300000
 H       9.75300000      22.45700000      38.96500000
 O       8.57500000      26.97000000      37.48500000
 H       9.38200000      26.73500000      37.92600000
 H       7.92100000      26.46900000      38.05900000
 O      12.68100000      26.83200000      40.22600000
 H      11.70200000      26.85800000      40.02600000
 H      13.02300000      26.75400000      39.30000000
 O      28.52900000      36.24400000      37.79300000
 H      29.12400000      35.72800000      38.32000000
 H      28.56900000      37.17800000      38.12900000
 O      25.12900000      33.54300000      39.13700000
 H      24.56800000      34.01000000      39.77600000
 H      25.96700000      33.61100000      39.58000000
 O      33.39100000      28.41100000      37.97100000
 H      33.64000000      28.39900000      37.06600000
 H      34.05500000      29.02800000      38.38300000
 O       2.71000000      31.69700000      36.40800000
 H       2.25900000      31.28300000      37.19600000
 H       3.29400000      30.96900000      36.12000000
 O      21.57800000      27.91000000      48.28400000
 H      21.12900000      27.04100000      48.28200000
 H      22.51600000      27.68000000      48.33500000
 O      16.27500000      27.57700000      46.52200000
 H      15.58400000      28.13000000      46.20600000
 H      16.36800000      26.91400000      45.85800000
 O       5.14600000      32.00800000      45.07800000
 H       4.53100000      31.38100000      45.50100000
 H       5.43200000      31.45400000      44.32000000
 O      29.33100000      31.92100000      48.78200000
 H      29.19600000      32.00700000      47.76700000
 H      28.88300000      31.04500000      48.93500000
 O      20.85800000      34.57400000      46.06100000
 H      21.18900000      33.67500000      46.34800000
 H      20.91600000      35.08600000      46.91800000
 O      30.94500000      24.05200000      48.58400000
 H      30.73500000      23.75400000      47.70100000
 H      31.01000000      24.98500000      48.54200000
 O       9.36400000      27.96500000      45.76000000
 H       9.22000000      27.91700000      44.83200000
 H       9.36000000      27.05800000      46.13500000
 O      25.13500000      19.90000000      47.13800000
 H      25.39200000      19.44000000      46.31400000
 H      26.00700000      19.92300000      47.57900000
 O      26.67300000      31.56800000      43.69400000
 H      27.06700000      30.83200000      43.14200000
 H      27.04900000      32.36300000      43.19900000
 O      30.36700000      27.58300000      44.05000000
 H      30.77000000      26.70400000      44.29000000
 H      31.15800000      27.97300000      43.63000000
 O       9.30200000      28.88300000      42.97100000
 H       9.32600000      29.09400000      42.02000000
 H       9.80400000      29.61400000      43.37700000
 O       9.01000000      18.49300000      47.14400000
 H       8.36000000      19.13600000      47.42400000
 H       9.84100000      18.95700000      47.20500000
 O       1.80500000      17.78400000      47.01800000
 H       1.07600000      17.16200000      47.33200000
 H       2.50200000      17.14400000      46.70700000
 O      32.57600000      35.62100000      45.12000000
 H      32.27500000      35.41600000      45.97600000
 H      33.26000000      34.94300000      44.88200000
 O      19.29200000      21.71000000      44.64900000
 H      18.44800000      22.17700000      44.55800000
 H      18.97500000      20.81600000      44.27300000
 O       6.03000000      16.81000000      45.35400000
 H       5.92000000      17.48900000      46.13700000
 H       7.00600000      17.12500000      45.15900000
 O      10.47300000      32.05400000      43.07300000
 H      10.03400000      32.90600000      42.79100000
 H      10.55100000      31.58300000      42.26000000
 O      14.85200000      38.36400000      47.21500000
 H      14.97300000      37.53200000      47.74200000
 H      13.92000000      38.57700000      47.44200000
 O      17.02400000      34.66600000      48.42900000
 H      16.70900000      34.25500000      47.58500000
 H      17.71700000      35.28900000      48.00300000
 O       6.83900000      34.65800000      44.31000000
 H       7.27000000      35.50900000      44.33700000
 H       6.88100000      34.44200000      45.27600000
 O      22.25400000      16.04300000      48.63800000
 H      23.23200000      15.89300000      48.61100000
 H      22.25900000      16.80900000      49.23500000
 O      24.98500000      24.36200000      48.20600000
 H      24.92300000      23.74600000      49.00700000
 H      25.93400000      24.69400000      48.28300000
 O       6.81500000      39.66200000      48.43300000
 H       7.31600000      40.51500000      48.46300000
 H       6.96100000      39.35700000      47.51700000
 O      39.57600000      33.12500000      49.28500000
 H      39.23800000      33.31100000      48.37500000
 H      39.84300000      32.19100000      49.11700000
 O      32.29100000      21.72200000      42.68900000
 H      33.06500000      21.44600000      43.21800000
 H      32.56300000      22.67500000      42.53100000
 O      15.84600000      33.56500000      46.27800000
 H      14.97900000      33.09400000      46.47700000
 H      16.33800000      32.71900000      46.03500000
 O       7.01200000      14.23000000      47.49000000
 H       6.22500000      14.73900000      47.67500000
 H       7.63600000      14.68500000      48.09100000
 O      30.06800000      18.59900000      47.42400000
 H      30.87800000      19.06300000      47.86300000
 H      30.57100000      17.76900000      47.14800000
 O      27.41400000      39.06200000      49.13500000
 H      27.81400000      39.18900000      48.29000000
 H      26.94900000      39.89400000      49.21700000
 O      35.08800000      30.17600000      44.78500000
 H      35.58900000      30.84200000      45.28900000
 H      34.36400000      30.02400000      45.36400000
 O      18.01400000      21.53200000      48.47900000
 H      18.92500000      21.22400000      48.22600000
 H      17.44300000      20.81800000      48.27700000
 O      37.47200000      38.58400000      47.15900000
 H      36.50600000      38.79200000      47.33600000
 H      37.84400000      38.81600000      48.06600000
 O       5.19800000      20.92200000      48.63000000
 H       4.75100000      21.53600000      48.07000000
 H       4.50800000      20.64300000      49.26300000
 O      11.79500000      20.23700000      47.72700000
 H      12.28000000      20.88200000      48.24400000
 H      12.53700000      19.89400000      47.11600000
 O      22.05300000      26.82400000      45.08900000
 H      22.87600000      26.27700000      45.14500000
 H      21.56400000      26.45200000      45.86200000
 O      34.55600000      33.41900000      45.99600000
 H      34.23000000      33.81200000      46.81100000
 H      35.21000000      32.76500000      46.34400000
 O      15.13600000      24.11600000      49.05800000
 H      15.98900000      24.00300000      48.52500000
 H      15.52000000      24.62100000      49.77300000
 O      11.09300000      36.15900000      43.23700000
 H      11.66600000      36.58400000      42.61700000
 H      10.36000000      35.86300000      42.65900000
 O      24.26500000      20.97200000      43.65900000
 H      25.13400000      21.39500000      43.51300000
 H      23.95400000      21.37700000      44.50900000
 O       2.89300000      23.66600000      48.66200000
 H       3.27800000      23.14500000      47.95900000
 H       3.00000000      24.59700000      48.37400000
 O      13.38700000      27.30100000      44.31300000
 H      12.75000000      27.21800000      43.55400000
 H      13.41800000      28.24400000      44.50200000
 O      32.44600000      19.54900000      48.26100000
 H      33.07100000      18.85000000      48.16700000
 H      32.48700000      19.72700000      49.20300000
 O      28.57900000      32.77300000      46.10000000
 H      29.37000000      33.34100000      45.99000000
 H      28.90500000      31.90700000      45.76700000
 O      36.60300000      22.89400000      43.94300000
 H      36.00700000      23.64100000      43.78200000
 H      37.45100000      23.36100000      43.73900000
 O      14.22500000      15.28300000      43.69500000
 H      13.66700000      14.47500000      43.49100000
 H      14.26800000      15.18100000      44.69100000
 O       6.23800000      29.94400000      43.02100000
 H       6.33000000      30.32800000      42.08300000
 H       7.14000000      29.54300000      43.04800000
 O       7.34400000      26.25100000      48.02600000
 H       7.40900000      27.23900000      48.16200000
 H       6.65700000      26.00900000      48.69100000
 O      31.28300000      16.16700000      46.45900000
 H      32.05700000      16.32200000      45.87500000
 H      30.77700000      15.61900000      45.83800000
 O      35.91500000      19.22200000      46.29200000
 H      36.22500000      18.51100000      46.82500000
 H      36.33400000      18.99600000      45.40000000
 O      24.25100000      25.25100000      45.22700000
 H      24.59400000      24.51300000      45.75100000
 H      24.69200000      24.99900000      44.35500000
 O      33.16200000      21.33000000      46.14000000
 H      33.12900000      20.75400000      46.93100000
 H      33.85000000      20.90900000      45.59500000
 O      26.35700000      13.07400000      45.60900000
 H      26.59900000      13.99800000      45.28100000
 H      27.27700000      12.71400000      45.64000000
 O      28.84700000      28.74800000      48.67900000
 H      29.21400000      28.01900000      48.11600000
 H      29.60300000      28.83000000      49.33200000
 O      36.87000000      29.94500000      42.71200000
 H      37.46400000      29.26800000      43.08800000
 H      36.08900000      29.80800000      43.30000000
 O      22.27100000      29.44400000      44.84600000
 H      22.08000000      29.40000000      43.91200000
 H      22.09500000      28.48600000      45.06200000
 O      28.54700000      36.89600000      47.29800000
 H      27.87000000      36.21100000      47.16400000
 H      28.34800000      37.16300000      48.18800000
 O      34.86600000      20.91700000      43.82900000
 H      35.58700000      20.32500000      43.98800000
 H      35.37400000      21.72300000      43.48100000
 O      37.65700000      23.96800000      47.78100000
 H      37.68800000      23.05000000      47.52300000
 H      38.33400000      24.32700000      47.19400000
 O      27.62600000      24.80700000      48.50200000
 H      28.17500000      25.59500000      48.67200000
 H      27.99500000      24.52900000      47.64200000
 O      11.63500000      17.44700000      49.26000000
 H      12.22700000      18.19600000      49.03500000
 H      11.26300000      17.20000000      48.43800000
 O      33.56600000      34.15300000      48.27800000
 H      33.14800000      33.44800000      48.81600000
 H      32.82900000      34.82900000      48.23600000
 O      36.89200000      17.05800000      47.23700000
 H      37.44600000      16.83400000      48.04000000
 H      36.22400000      16.33300000      47.35000000
 O       1.35800000      39.36400000      47.63100000
 H       0.67200000      40.05700000      47.74700000
 H       2.08900000      39.91300000      47.31700000
 O      28.06000000      14.52000000      42.91200000
 H      27.62800000      14.74700000      42.04100000
 H      27.56100000      15.06600000      43.50200000
 O      10.92300000      31.81300000      46.62400000
 H      10.81400000      32.16700000      45.69900000
 H      10.29000000      32.38700000      47.06700000
 O      25.26500000      24.28300000      42.95400000
 H      25.27300000      24.24200000      41.97700000
 H      25.85300000      23.46500000      43.09300000
 O      37.14400000      26.76500000      44.45800000
 H      37.09600000      26.73300000      43.46800000
 H      38.11500000      26.69500000      44.55800000
 O       4.66900000      28.60600000      44.77800000
 H       4.76700000      27.73400000      44.39100000
 H       5.14500000      29.21000000      44.17000000
 O      39.67900000      14.33700000      45.96600000
 H      38.80400000      14.06700000      45.60900000
 H      40.10700000      13.48300000      45.97800000
 O      31.39400000      37.95600000      44.25400000
 H      31.76600000      37.10300000      44.55200000
 H      30.67100000      37.68900000      43.66600000
 O       1.45400000      37.72800000      43.41000000
 H       1.22700000      37.39900000      44.30100000
 H       1.70800000      36.90900000      42.96600000
 O      29.64800000      26.44000000      47.22200000
 H      30.57200000      26.45600000      46.79000000
 H      29.11800000      25.88200000      46.63000000
 O      18.07100000      27.64600000      49.04700000
 H      18.38200000      28.55200000      48.90000000
 H      17.37500000      27.59300000      48.34300000
 O      24.37500000      27.31000000      48.31400000
 H      24.76200000      27.55200000      47.42600000
 H      24.26200000      26.33400000      48.19100000
 O       8.55800000      16.25300000      48.65200000
 H       8.91200000      16.63400000      49.46300000
 H       8.58900000      16.91500000      47.96900000
 O       7.19900000      22.12400000      43.93200000
 H       7.80500000      22.92500000      43.70600000
 H       7.70000000      21.83900000      44.74200000
 O      36.03800000      38.09200000      43.18000000
 H      35.37600000      38.22700000      42.41500000
 H      35.41500000      37.61000000      43.78600000
 O      12.36100000      40.54000000      45.34400000
 H      11.56100000      40.46800000      44.86300000
 H      12.00600000      40.50500000      46.25300000
 O       9.05200000      25.12900000      46.14900000
 H       8.34800000      25.50400000      46.72200000
 H       9.18300000      24.28500000      46.53400000
 O      39.84800000      29.43800000      45.62300000
 H      39.38300000      29.13400000      46.43000000
 H      39.95400000      28.57100000      45.19500000
 O      22.68800000      19.74600000      48.72000000
 H      22.83100000      19.41700000      49.63500000
 H      23.64300000      19.86300000      48.43200000
 O      31.14400000      18.01000000      43.57000000
 H      32.13400000      18.21700000      43.56700000
 H      31.24400000      17.05400000      43.71400000
 O      21.39600000      23.41800000      45.25700000
 H      22.23600000      22.88200000      45.43100000
 H      20.94000000      22.67700000      44.82100000
 O      14.60800000      23.59200000      44.84100000
 H      15.41400000      23.51900000      45.45000000
 H      14.23700000      22.66200000      44.92900000
 O       7.60800000      29.38300000      47.43100000
 H       7.98000000      29.89800000      48.21700000
 H       8.38400000      29.29000000      46.88000000
 O      22.46600000      17.21000000      45.65600000
 H      22.52800000      17.30000000      46.61500000
 H      23.35100000      17.55900000      45.39800000
 O       5.06500000      37.11900000      48.67000000
 H       5.56000000      37.90700000      48.30000000
 H       5.71700000      36.49500000      48.95200000
 O      39.55200000      32.16300000      44.53200000
 H      39.71600000      31.28500000      44.99800000
 H      39.27300000      32.67300000      45.36500000
 O      38.94400000      24.03700000      43.33500000
 H      39.32400000      24.47900000      44.12600000
 H      39.27200000      24.56600000      42.61200000
 O       1.74500000      33.59500000      46.79100000
 H       2.18700000      33.31100000      45.97400000
 H       2.11600000      32.95900000      47.45400000
 O      11.40800000      35.05500000      47.13700000
 H      11.18300000      35.60900000      47.88500000
 H      10.66600000      34.38900000      47.18700000
 O      12.47000000      34.40000000      44.74700000
 H      11.88400000      34.99300000      44.26500000
 H      12.25000000      34.55500000      45.68600000
 O       7.08000000      37.15900000      46.64100000
 H       6.21500000      37.33800000      46.18100000
 H       7.68300000      37.50000000      45.91500000
 O      37.34100000      21.67700000      46.56400000
 H      37.01600000      22.22600000      45.78000000
 H      36.70500000      20.95800000      46.44500000
 O      22.42700000      40.58500000      45.34600000
 H      21.58900000      40.43200000      45.88200000
 H      22.06200000      40.20500000      44.48100000
 O       5.79000000      14.78900000      43.68800000
 H       5.76400000      14.03800000      44.38800000
 H       5.73700000      15.54900000      44.37800000
 O       8.55600000      24.20500000      43.11200000
 H       9.25800000      24.52500000      43.70600000
 H       9.05400000      23.90000000      42.36000000
 O      29.10800000      39.37400000      46.24900000
 H      28.70600000      38.51300000      46.51100000
 H      29.33500000      39.19700000      45.32800000
 O      30.20700000      30.06500000      45.46500000
 H      31.09300000      29.71600000      45.74500000
 H      29.87400000      29.37400000      44.88400000
 O       3.91900000      40.27400000      48.06600000
 H       4.62900000      39.89800000      47.54700000
 H       3.91000000      41.20800000      47.85800000
 O      28.27100000      24.56900000      45.84800000
 H      28.38100000      23.62800000      45.64300000
 H      28.38400000      24.86200000      44.89700000
 O       6.57400000      33.87900000      46.97000000
 H       6.34000000      33.11600000      46.42000000
 H       5.96300000      33.89100000      47.64500000
 O      31.32100000      23.01300000      45.72900000
 H      30.84000000      22.17900000      45.44600000
 H      32.15200000      22.45100000      46.03700000
 O      15.05400000      30.07300000      44.93200000
 H      14.43000000      30.63600000      45.41500000
 H      15.89700000      30.49500000      45.17700000
 O      21.32800000      36.27100000      48.14400000
 H      22.04100000      35.59100000      48.44000000
 H      21.04900000      36.64500000      48.99800000
 O      10.21100000      19.93400000      43.93500000
 H      11.19800000      19.87300000      44.10800000
 H       9.98300000      20.61300000      44.61300000
 O      38.75300000      28.18100000      47.86600000
 H      38.01300000      27.62400000      47.67000000
 H      38.84800000      28.00800000      48.85400000
 O      20.25100000      40.39500000      46.67100000
 H      19.53700000      39.75600000      46.79200000
 H      20.67300000      40.35400000      47.55500000
 O      32.93500000      28.33300000      43.45400000
 H      33.55200000      29.06600000      43.23400000
 H      32.88300000      28.48400000      44.46100000
 O      25.05500000      17.92000000      49.47400000
 H      25.31300000      18.25800000      48.55800000
 H      25.89300000      18.20300000      49.97500000
 O      40.18600000      40.43300000      43.24800000
 H      40.67600000      39.61000000      43.20400000
 H      39.29600000      40.12800000      43.56100000
 O       7.82600000      35.84700000      49.02700000
 H       7.69600000      36.15200000      48.08300000
 H       7.39000000      34.97500000      48.92100000
 O      18.58500000      24.95200000      44.96900000
 H      18.78500000      25.62400000      44.26200000
 H      19.48300000      24.50800000      45.04600000
 O      39.82800000      36.37100000      48.48500000
 H      40.76500000      36.19400000      48.66500000
 H      39.86200000      36.66500000      47.52500000
 O       5.02200000      39.32100000      45.52900000
 H       4.42300000      39.60800000      44.82700000
 H       5.83600000      39.73000000      45.14100000
 O      25.09100000      14.58900000      48.13800000
 H      26.07100000      14.72900000      47.97800000
 H      24.71100000      14.54500000      47.21000000
 O       2.23700000      26.03100000      46.01100000
 H       2.99500000      25.45300000      45.69900000
 H       2.65900000      26.42100000      46.79100000
 O      21.21600000      31.71900000      46.69300000
 H      20.51200000      31.14800000      47.07400000
 H      21.74800000      31.04000000      46.20900000
 O      17.23200000      31.21300000      46.25400000
 H      16.97800000      30.90700000      47.15200000
 H      18.07500000      30.72100000      46.17200000
 O       8.67000000      36.99200000      44.56800000
 H       8.88800000      37.51700000      43.82000000
 H       9.36900000      36.34700000      44.60400000
 O      15.76300000      25.94800000      43.93000000
 H      15.25300000      25.10500000      44.13200000
 H      14.96900000      26.55100000      44.05000000
 O       3.60300000      16.18300000      46.20800000
 H       4.44300000      16.55700000      45.82100000
 H       3.98400000      15.64200000      46.92000000
 O       2.68200000      36.12200000      48.36400000
 H       3.51800000      36.65700000      48.43000000
 H       3.08200000      35.25500000      48.46400000
 O      17.28600000      23.00500000      43.21800000
 H      17.54200000      23.80400000      43.70300000
 H      16.94300000      23.43600000      42.43100000
 O      21.82500000      39.37800000      42.86500000
 H      21.64100000      38.41800000      43.05100000
 H      20.84400000      39.58800000      42.73500000
 O      19.62500000      26.01600000      47.55700000
 H      19.35300000      26.74300000      48.14000000
 H      18.84100000      26.01000000      46.98300000
 O      14.02100000      31.64000000      46.84700000
 H      13.05600000      31.78600000      46.92000000
 H      14.19000000      31.02900000      47.58200000
 O      18.48600000      35.80500000      46.01900000
 H      19.33500000      35.31500000      45.95700000
 H      18.15800000      35.59700000      45.12000000
 O      13.11600000      24.90100000      47.31400000
 H      13.84100000      24.47300000      47.80300000
 H      13.38800000      24.78500000      46.38800000
 O      27.80400000      15.14200000      47.84900000
 H      28.44600000      14.42800000      47.89200000
 H      27.94200000      15.43500000      48.82600000
 O      24.21700000      38.79000000      47.89700000
 H      24.81900000      39.46500000      47.42600000
 H      23.46400000      39.43500000      48.08800000
 O       5.23300000      18.42800000      47.39700000
 H       5.07300000      19.23600000      47.89800000
 H       5.31100000      17.76000000      48.11300000
 O       0.91300000      30.14100000      48.96000000
 H       1.00400000      29.31600000      48.49200000
 H       1.83700000      30.28500000      49.20700000
 O      18.31800000      36.65600000      42.88700000
 H      18.79000000      37.39000000      43.23600000
 H      18.85700000      35.86600000      43.17600000
 O      28.64800000      40.34700000      42.84600000
 H      28.11100000      39.56500000      43.04800000
 H      27.98300000      41.05600000      43.00200000
 O      26.92900000      34.90100000      46.82500000
 H      26.20000000      35.08300000      46.26100000
 H      27.14000000      33.97300000      46.58600000
 O      10.91900000      29.08900000      47.72600000
 H      10.90200000      30.00000000      47.35400000
 H      10.62700000      28.58400000      46.95700000
 O       4.13800000      34.29100000      43.97300000
 H       4.24900000      33.46200000      44.52300000
 H       5.02200000      34.65500000      44.18300000
 O      26.54300000      15.92300000      44.46300000
 H      25.93000000      16.29000000      43.81000000
 H      26.58100000      16.76800000      45.05600000
 O      11.21700000      15.94800000      46.87600000
 H      11.24200000      15.16300000      46.30400000
 H      10.85300000      15.60000000      47.69400000
 O      16.22200000      40.36800000      46.56500000
 H      15.68700000      39.57300000      46.82300000
 H      17.12700000      40.00700000      46.87200000
 O      15.10000000      21.12800000      43.81500000
 H      15.84500000      21.78200000      43.70800000
 H      14.77500000      21.02900000      42.87500000
 O      39.56400000      21.14600000      48.22400000
 H      38.82400000      21.18100000      47.50900000
 H      40.31600000      21.52800000      47.68900000
 O      23.14800000      32.79900000      44.51800000
 H      22.34500000      32.82100000      45.07800000
 H      23.63500000      32.06900000      44.91900000
 O      20.97900000      23.69700000      48.45900000
 H      20.47200000      24.51100000      48.39900000
 H      21.00400000      23.41700000      47.48300000
 O       2.51600000      30.76000000      45.60000000
 H       3.00900000      29.90400000      45.71000000
 H       1.58400000      30.41700000      45.53900000
 O      32.97900000      39.84200000      43.49900000
 H      33.46100000      39.35500000      42.75300000
 H      32.46100000      39.03800000      43.84300000
 O      18.56200000      15.46600000      45.75000000
 H      18.74500000      14.84200000      45.03000000
 H      18.03300000      14.87300000      46.37100000
 O      18.34900000      38.53300000      47.02300000
 H      18.24600000      37.57500000      46.80400000
 H      18.24200000      38.52700000      47.94800000
 O      34.99300000      14.73300000      45.40100000
 H      34.58300000      13.90100000      45.77800000
 H      35.83000000      14.40400000      45.15400000
 O      11.16400000      25.14700000      43.66000000
 H      12.09300000      25.00900000      43.54700000
 H      11.11500000      25.24000000      44.62500000
 O      38.90400000      33.85600000      46.86100000
 H      38.28200000      34.55900000      46.70900000
 H      39.72400000      34.39000000      47.09000000
 O       4.02100000      18.83600000      43.06100000
 H       4.95900000      19.03400000      42.82700000
 H       3.96000000      19.11300000      44.01200000
 O      19.30700000      34.25700000      43.72600000
 H      19.85100000      33.81600000      44.42600000
 H      19.21200000      33.45600000      43.12200000
 O       7.65400000      20.81800000      47.44600000
 H       6.81400000      20.71100000      48.02900000
 H       7.92500000      21.65000000      47.92300000
 O      27.81300000      20.64500000      48.14500000
 H      28.50800000      19.95000000      48.17900000
 H      27.91900000      21.08700000      48.99900000
 O      32.68700000      28.93400000      46.15500000
 H      32.88500000      29.52000000      46.92800000
 H      32.97800000      28.05900000      46.60400000
 O      31.55300000      35.96100000      47.63700000
 H      31.89600000      36.89100000      47.75000000
 H      30.59400000      36.09300000      47.72000000
 O      11.14000000      26.49100000      48.44600000
 H      11.94400000      26.13100000      48.04600000
 H      11.32000000      27.44900000      48.29500000
 O       5.04800000      29.04000000      47.54100000
 H       6.01200000      29.18000000      47.63400000
 H       5.00300000      28.90200000      46.53300000
 O       4.30200000      22.11700000      43.64600000
 H       4.11100000      21.22400000      43.24300000
 H       5.26100000      21.98300000      43.87400000
 O       8.84200000      17.47200000      44.67100000
 H       9.06000000      17.65900000      45.61500000
 H       9.02400000      18.37400000      44.27000000
 O       4.02800000      22.26800000      46.61000000
 H       4.36300000      21.58200000      46.01600000
 H       4.09600000      23.04100000      45.99300000
 O      40.55400000      19.17800000      44.73000000
 H      39.72800000      18.75800000      44.88800000
 H      41.15800000      18.63800000      45.28800000
 O       3.73000000      26.66000000      48.46900000
 H       3.94800000      26.73300000      49.45300000
 H       4.08400000      27.51900000      48.21100000
 O      37.04500000      15.86100000      43.02000000
 H      36.10300000      15.90700000      42.76700000
 H      37.47700000      16.02100000      42.17700000
 O      25.20600000      31.17800000      45.91900000
 H      25.85300000      31.37300000      45.16300000
 H      25.41900000      30.19000000      46.05700000
 O      28.69900000      24.54000000      43.03700000
 H      29.50800000      23.98300000      42.97900000
 H      28.59200000      24.79300000      42.12000000
 O      22.14800000      18.01500000      43.03300000
 H      21.99600000      17.52200000      43.80200000
 H      22.88000000      17.55300000      42.58800000
 O      26.17100000      40.34900000      46.61800000
 H      25.76800000      41.05700000      46.12300000
 H      27.05700000      40.33900000      46.18100000
 O      16.76900000      23.76300000      46.64800000
 H      17.21200000      23.13900000      47.19400000
 H      17.44700000      24.09200000      46.06200000
 O      19.31300000      27.70400000      44.98600000
 H      19.13000000      27.35300000      44.08600000
 H      20.21800000      27.46200000      44.99100000
 O      40.09000000      26.86400000      44.49900000
 H      40.84600000      26.56200000      45.07900000
 H      40.48400000      26.59000000      43.64800000
 O      37.78100000      39.66000000      44.51800000
 H      37.78700000      39.20600000      45.34800000
 H      37.26400000      39.10400000      43.91700000
 O      21.77800000      14.42000000      45.92300000
 H      21.76000000      15.35800000      46.06800000
 H      21.39200000      14.05000000      46.77100000
 O      16.81500000      14.23900000      42.84600000
 H      16.31300000      13.47900000      43.25200000
 H      16.23100000      14.98100000      43.15100000
 O      31.02800000      15.27000000      43.81000000
 H      31.40400000      15.24900000      42.89900000
 H      30.09300000      15.01900000      43.61000000
 O      19.71000000      17.81200000      45.94000000
 H      20.58600000      17.51700000      45.52500000
 H      19.34300000      16.88000000      46.05300000
 O      19.62200000      26.32100000      42.67000000
 H      19.32700000      26.23700000      41.69000000
 H      20.54100000      26.05700000      42.56000000
 O      34.97700000      26.54000000      46.23800000
 H      34.82800000      25.79800000      45.57000000
 H      35.85100000      26.86900000      45.85400000
 O      40.78900000      21.92600000      45.78900000
 H      40.59400000      21.10500000      45.29100000
 H      41.78800000      21.87300000      45.80000000
 O      17.82300000      19.03500000      44.30000000
 H      18.25800000      19.02600000      45.16100000
 H      16.95600000      18.68900000      44.53400000
 O      24.76800000      18.38200000      44.55700000
 H      24.63300000      19.29100000      44.23100000
 H      24.64400000      17.87500000      43.69400000
 O      32.61600000      15.89400000      48.66300000
 H      31.92800000      16.11200000      48.02900000
 H      32.75400000      14.91500000      48.37400000
 O      34.94400000      37.02900000      45.44000000
 H      34.71900000      37.60800000      46.27800000
 H      34.06000000      36.67000000      45.23600000
 O      22.84900000      37.06700000      46.01300000
 H      23.47400000      37.55200000      46.60800000
 H      22.13000000      36.85600000      46.70900000
 O       9.88500000      21.59000000      46.04300000
 H       9.09600000      21.53300000      46.55400000
 H      10.55200000      21.43300000      46.67700000
 O      36.39200000      26.08600000      48.55800000
 H      36.53800000      25.12300000      48.40800000
 H      35.90300000      26.34600000      47.73500000
 O       9.14200000      33.60300000      47.32200000
 H       9.21600000      33.41900000      48.29300000
 H       8.15900000      33.74200000      47.22900000
 O      40.00100000      24.47000000      46.33300000
 H      40.38100000      23.53600000      46.13100000
 H      40.85500000      24.95800000      46.45700000
 O      26.89000000      27.14500000      43.33700000
 H      27.84000000      27.15600000      43.50800000
 H      26.69800000      26.21800000      43.15700000
 O      38.43100000      17.38600000      44.96300000
 H      38.13600000      16.64700000      44.38100000
 H      38.00500000      17.19400000      45.79100000
 O      14.54400000      15.33700000      46.29000000
 H      15.33900000      14.92800000      46.67100000
 H      14.04300000      15.49400000      47.09200000
 O      13.10700000      17.60400000      45.79000000
 H      12.27800000      17.14500000      45.96900000
 H      13.64500000      16.83100000      45.35700000
 O      21.47100000      36.53700000      43.76900000
 H      21.83400000      36.69500000      44.66100000
 H      20.78900000      35.85200000      43.92700000
 O      33.56800000      17.15000000      45.49900000
 H      34.12200000      17.65800000      44.87100000
 H      34.15400000      16.40700000      45.69200000
 O       9.75200000      15.52700000      42.93300000
 H       9.44500000      16.00300000      43.73500000
 H       9.40100000      14.64500000      43.16600000
 O      13.87800000      38.90300000      43.74100000
 H      14.35400000      38.22500000      44.20200000
 H      13.27000000      39.21300000      44.44000000
 O       4.77700000      24.81300000      45.72200000
 H       5.36600000      25.00200000      44.99700000
 H       5.50100000      24.86600000      46.42600000
 O      27.15200000      38.20300000      43.51900000
 H      27.38100000      37.28200000      43.22400000
 H      26.31200000      38.00500000      43.98200000
 O      23.00900000      33.99200000      48.41700000
 H      23.79300000      34.02200000      48.98200000
 H      23.07900000      33.05000000      48.02700000
 O      34.76900000      39.05100000      47.29800000
 H      34.61800000      39.90200000      46.79200000
 H      33.86900000      38.93000000      47.66200000
 O       1.47700000      15.57600000      44.35000000
 H       0.79100000      15.13700000      44.93900000
 H       2.11700000      15.79700000      45.03700000
 O      36.90600000      19.22700000      43.65400000
 H      37.67300000      18.63700000      43.87100000
 H      37.37200000      19.89600000      43.15400000
 O      24.58100000      38.33000000      44.41200000
 H      24.69700000      39.16000000      44.91000000
 H      23.67700000      37.98000000      44.68700000
 O       4.76400000      15.27400000      48.58200000
 H       4.65400000      14.50700000      49.17900000
 H       4.76300000      16.00500000      49.22700000
 O      14.18200000      18.75700000      48.50900000
 H      14.94900000      18.18600000      48.76900000
 H      14.27800000      18.61800000      47.50200000
 O      33.70700000      18.53300000      43.06200000
 H      33.37700000      18.64000000      42.18400000
 H      34.02400000      19.45200000      43.29700000
 O      26.22400000      28.25000000      46.30600000
 H      26.94900000      27.68700000      46.64200000
 H      26.25400000      28.07200000      45.37300000
 O      32.09200000      38.64800000      48.10400000
 H      32.17100000      38.99600000      48.99600000
 H      31.31200000      38.97700000      47.75100000
 O      37.36900000      13.79500000      44.54100000
 H      37.28700000      12.90200000      44.13100000
 H      37.31600000      14.35800000      43.71900000
 O      16.37500000      17.96900000      46.30900000
 H      15.98300000      17.12600000      46.05400000
 H      16.75500000      17.78100000      47.18900000
 O      27.89100000      21.78600000      45.49400000
 H      27.57500000      21.58700000      46.44800000
 H      28.73700000      21.24300000      45.46500000
 O      33.87500000      29.76000000      48.52000000
 H      33.36200000      30.60300000      48.63800000
 H      33.42900000      29.18800000      49.17800000
 O      26.61400000      21.99700000      43.15000000
 H      27.10500000      21.91300000      44.01600000
 H      27.37000000      21.83300000      42.49400000
 O      12.09100000      39.07300000      48.02200000
 H      11.29000000      38.52500000      48.20200000
 H      12.28700000      39.50800000      48.78400000
 O      20.19500000      20.01800000      47.95200000
 H      21.11000000      19.92300000      48.28300000
 H      20.23500000      19.25900000      47.35500000
 O       7.34800000      39.98100000      44.60000000
 H       8.20400000      39.94800000      45.17600000
 H       7.75900000      39.81700000      43.77200000
 O      39.14000000      35.50100000      43.65000000
 H      39.10000000      36.36400000      44.11300000
 H      39.07500000      34.92400000      44.42500000
 O      33.00400000      26.91000000      47.97300000
 H      33.03800000      26.30900000      48.81100000
 H      33.73300000      26.53900000      47.45200000
 O       1.17100000      37.20500000      46.11500000
 H       1.84800000      36.75000000      46.66000000
 H       1.10800000      38.05700000      46.58000000
 O      36.03600000      31.61400000      47.37300000
 H      36.35400000      32.14200000      48.16600000
 H      35.48300000      30.95700000      47.85700000
 O       3.62300000      31.10000000      49.22800000
 H       3.89700000      30.59600000      48.42600000
 H       4.35500000      30.99600000      49.81300000
 O      28.03900000      35.79000000      42.71000000
 H      28.08700000      34.83200000      42.49300000
 H      28.86400000      36.12500000      42.35600000
 O      40.22500000      15.89100000      47.95700000
 H      40.14900000      15.35800000      47.06800000
 H      39.95800000      15.23200000      48.57900000
 O       4.94900000      26.50400000      43.16400000
 H       4.36000000      25.72900000      42.86500000
 H       4.81500000      27.08700000      42.38200000
 O      33.96900000      33.23600000      43.34500000
 H      34.04000000      33.15600000      44.33800000
 H      34.69400000      33.85200000      43.19800000
 O      37.27000000      35.80900000      46.29500000
 H      37.51200000      36.69800000      46.72200000
 H      36.38500000      36.13100000      45.94800000
 O       3.55500000      19.56200000      45.62400000
 H       4.33700000      19.34000000      46.10300000
 H       2.83800000      19.14100000      46.16300000
 O      31.77500000      25.62400000      45.25300000
 H      32.67500000      25.47100000      44.96200000
 H      31.59800000      24.63400000      45.46700000
 O      14.93000000      35.69100000      44.64300000
 H      14.04700000      35.35100000      44.67800000
 H      15.38300000      34.98000000      45.14400000
 O       3.28600000      40.70200000      43.59500000
 H       2.37400000      40.40300000      43.33400000
 H       3.82100000      40.49900000      42.81800000
 O      27.04600000      17.53100000      46.97900000
 H      27.06100000      16.56300000      47.22400000
 H      27.84800000      17.79400000      47.48700000
 O      30.35500000      20.33500000      45.22300000
 H      30.32400000      19.53100000      45.85200000
 H      30.83600000      19.91900000      44.49200000
 O      24.74200000      35.27400000      45.16800000
 H      24.26500000      34.51400000      45.47000000
 H      24.10700000      36.00300000      45.38400000
 O      12.93200000      20.13200000      44.97500000
 H      13.11300000      19.31800000      45.45800000
 H      13.76800000      20.39300000      44.61100000
 O      23.66500000      22.12400000      46.38000000
 H      23.72600000      22.85200000      47.04700000
 H      24.18900000      21.43900000      46.91900000
 O      24.24700000      31.22900000      48.41900000
 H      24.86900000      30.60100000      48.83200000
 H      24.63700000      31.29900000      47.51100000
 O      19.35300000      29.29300000      47.09300000
 H      19.43100000      28.65500000      46.30100000
 H      20.17400000      29.04300000      47.54000000
 O      34.64100000      24.96800000      43.65200000
 H      34.27500000      25.39100000      42.82800000
 H      35.58600000      25.32800000      43.63700000
