246
XYZ file of cluster: frame_20000_c5aea.c7bf4.9f14b - created by MolEdiTo
 O      36.72900000      35.78800000      29.47700000
 H      36.42100000      35.44200000      28.59200000
 H      36.63400000      36.73400000      29.30300000
 O      36.36400000      38.75000000      36.23400000
 H      36.25900000      39.69300000      36.04500000
 H      36.28400000      38.72500000      37.18400000
 O      34.68100000      37.00100000      34.75700000
 H      35.29600000      37.59100000      35.27400000
 H      33.91300000      37.64000000      34.76700000
 O      39.19600000      39.85700000      31.16200000
 H      39.67100000      39.21000000      31.76700000
 H      39.64600000      40.64800000      31.31600000
 O      38.11600000      36.07300000      39.30200000
 H      38.34800000      35.76800000      40.18600000
 H      39.01100000      36.16900000      38.91300000
 O      40.37200000      40.58500000      34.53400000
 H      39.85300000      39.71300000      34.69200000
 H      40.62500000      40.76200000      35.45000000
 O      36.66000000      34.85100000      34.68300000
 H      37.14400000      34.83400000      35.53100000
 H      35.72800000      34.89900000      35.07200000
 O      40.54100000      37.85200000      32.36300000
 H      41.05900000      37.04600000      32.23300000
 H      39.65500000      37.40100000      32.59700000
 O      37.25100000      34.38600000      37.52400000
 H      37.31800000      35.10500000      38.20400000
 H      36.27000000      34.19900000      37.58800000
 O      38.33400000      34.69100000      31.34000000
 H      37.83300000      34.97100000      30.54600000
 H      38.06000000      35.28000000      32.00800000
 O      34.26700000      39.74000000      32.58300000
 H      33.83600000      39.25900000      31.78600000
 H      35.20200000      39.50500000      32.34500000
 O      37.25300000      38.48900000      28.90300000
 H      36.91500000      39.37500000      29.09900000
 H      38.08300000      38.53200000      29.39700000
 O      37.26000000      40.77900000      34.46600000
 H      36.64200000      41.34700000      34.95200000
 H      38.13200000      41.08000000      34.91000000
 O      37.32100000      38.50200000      39.04400000
 H      37.50400000      37.56000000      38.91400000
 H      37.07500000      38.47800000      39.98200000
 O      38.31800000      36.77800000      33.23300000
 H      37.75400000      36.17000000      33.72800000
 H      37.72500000      37.48800000      32.96300000
 O      36.94800000      38.97200000      32.43400000
 H      36.94000000      39.51300000      33.26800000
 H      37.59800000      39.40000000      31.88700000
 O      35.94900000      34.75300000      40.87200000
 H      36.53300000      33.93500000      40.69800000
 H      36.46000000      35.18200000      41.53800000
 O      40.57400000      36.62600000      38.59700000
 H      41.15500000      35.97100000      39.05900000
 H      41.35500000      37.11100000      38.19800000
 O      39.44300000      38.39200000      35.74400000
 H      38.91200000      37.75500000      35.23500000
 H      38.89500000      38.52800000      36.54300000
 O      38.68700000      48.99000000      40.27600000
 H      39.22600000      48.14600000      40.51400000
 H      38.79900000      48.99000000      39.30200000
 O      35.99600000      48.41400000      34.13100000
 H      35.12600000      48.32600000      33.62200000
 H      36.24800000      49.31200000      33.98900000
 O      34.68300000      45.66500000      27.16500000
 H      34.94900000      46.50300000      27.58600000
 H      34.34600000      45.17500000      27.96600000
 O      39.38900000      46.92100000      36.20900000
 H      38.90800000      47.28500000      35.37600000
 H      39.10300000      46.01400000      36.17600000
 O      36.62800000      47.09600000      30.98200000
 H      35.81700000      47.47900000      30.56200000
 H      37.19600000      47.89400000      30.84000000
 O      34.62000000      46.67600000      40.86900000
 H      35.22000000      46.13500000      40.37500000
 H      34.55800000      46.16400000      41.69000000
 O      37.98400000      44.67400000      29.90800000
 H      37.51800000      45.50300000      30.06100000
 H      38.42200000      44.53900000      30.76400000
 O      34.86900000      49.18300000      39.62600000
 H      35.10200000      48.84200000      38.72200000
 H      34.56200000      48.33300000      40.00800000
 O      38.26800000      42.39100000      38.50800000
 H      39.14900000      42.32500000      38.77200000
 H      37.82500000      41.53200000      38.75600000
 O      35.37700000      43.07200000      36.19600000
 H      34.64700000      42.91800000      35.58700000
 H      35.14700000      43.96700000      36.56700000
 O      38.93700000      43.83400000      36.19600000
 H      39.81900000      43.73100000      36.54700000
 H      38.39100000      43.37200000      36.94500000
 O      39.77800000      43.91400000      32.61000000
 H      39.93800000      43.42500000      33.44000000
 H      39.02900000      44.50000000      32.94000000
 O      35.32200000      47.82500000      28.70700000
 H      34.96300000      48.71400000      28.54600000
 H      36.32700000      48.02400000      28.49300000
 O      38.94400000      49.06900000      37.57400000
 H      38.88300000      48.09900000      37.25500000
 H      39.87500000      49.23200000      37.33500000
 O      34.84100000      43.66900000      31.83100000
 H      34.63000000      42.86300000      32.37000000
 H      35.05200000      44.27700000      32.63000000
 O      38.62800000      48.33000000      33.90300000
 H      37.64900000      48.42600000      34.04700000
 H      38.84500000      49.28200000      33.64800000
 O      36.38900000      42.48700000      29.72300000
 H      37.08600000      43.22300000      29.65600000
 H      36.08200000      42.74300000      30.60300000
 O      37.90500000      45.99100000      32.84500000
 H      38.33000000      46.85700000      33.02600000
 H      37.33900000      46.29700000      32.09900000
 O      37.87500000      48.42200000      28.15000000
 H      38.50700000      48.26900000      27.41200000
 H      38.49200000      48.53900000      28.90800000
 O      35.36200000      45.05200000      34.02400000
 H      36.21500000      45.36600000      33.72500000
 H      35.15000000      45.83800000      34.57800000
 O      34.98000000      45.52200000      37.24700000
 H      35.16700000      46.45500000      37.09400000
 H      35.50600000      45.35300000      38.06700000
 O      35.07500000      48.33000000      37.02400000
 H      35.82600000      48.74400000      36.57200000
 H      34.35100000      48.74600000      36.46700000
 O      36.74300000      45.11400000      39.62500000
 H      36.66500000      44.20300000      39.27600000
 H      37.61800000      45.04600000      40.09900000
 O      40.22600000      46.77800000      40.78000000
 H      41.16400000      46.97500000      40.97400000
 H      40.07100000      46.01800000      41.42200000
 O      43.95200000      39.39500000      39.24500000
 H      43.65900000      38.74600000      39.90200000
 H      44.04100000      38.90200000      38.41800000
 O      47.80100000      34.94900000      35.07500000
 H      47.15300000      34.42300000      34.57700000
 H      47.20100000      35.47000000      35.68800000
 O      44.48400000      40.27500000      29.69900000
 H      44.62900000      40.89500000      28.86600000
 H      45.36700000      39.98500000      29.90900000
 O      43.11800000      34.88100000      32.44400000
 H      42.23200000      34.92700000      32.10900000
 H      42.92200000      34.26200000      33.21900000
 O      45.75900000      39.92800000      36.14000000
 H      46.69000000      40.19700000      36.30800000
 H      45.49200000      40.63800000      35.57000000
 O      45.77100000      35.11600000      31.62200000
 H      45.80100000      35.81300000      32.31100000
 H      44.82600000      34.83100000      31.76100000
 O      44.21500000      36.43400000      34.51700000
 H      43.42300000      36.76900000      34.92300000
 H      43.97300000      35.56500000      34.26200000
 O      46.07000000      36.59900000      36.78300000
 H      45.82300000      35.67500000      36.81400000
 H      45.29100000      36.99000000      36.30800000
 O      47.07500000      39.43100000      30.01900000
 H      47.37700000      40.18700000      29.47900000
 H      47.62100000      39.50300000      30.82600000
 O      43.92100000      38.20700000      36.82900000
 H      43.18800000      38.42500000      36.22900000
 H      44.64100000      38.79900000      36.42000000
 O      44.51200000      39.70400000      33.04900000
 H      44.01900000      39.09300000      32.44400000
 H      43.71600000      40.05900000      33.53400000
 O      47.44100000      39.83100000      40.37300000
 H      47.37600000      40.68600000      39.85000000
 H      47.86200000      39.24100000      39.68900000
 O      48.55400000      38.36700000      37.30500000
 H      48.62200000      39.36600000      37.12900000
 H      47.64500000      38.21500000      36.98400000
 O      49.28500000      38.27000000      33.22500000
 H      49.28800000      39.03900000      32.65200000
 H      48.37100000      37.90500000      33.14400000
 O      46.57400000      37.51400000      28.31400000
 H      47.46100000      37.52200000      27.96400000
 H      46.71800000      38.12000000      29.11900000
 O      44.24900000      35.45900000      40.51400000
 H      45.09500000      35.45900000      39.98300000
 H      44.61700000      35.07400000      41.37100000
 O      46.56000000      37.65700000      33.11800000
 H      46.39700000      38.58800000      33.23500000
 H      45.96300000      37.28500000      33.79000000
 O      42.78600000      38.09100000      28.55400000
 H      43.17000000      37.58200000      29.29200000
 H      42.90400000      39.01100000      28.87400000
 O      44.93700000      35.63500000      29.25500000
 H      45.46100000      36.41900000      28.97000000
 H      45.30000000      35.47400000      30.13700000
 O      48.36700000      34.63100000      39.85900000
 H      48.36800000      34.49500000      40.83500000
 H      47.80400000      35.46800000      39.79700000
 O      46.91000000      36.75000000      39.49500000
 H      46.71300000      36.70700000      38.55200000
 H      46.60100000      37.65900000      39.71300000
 O      44.36700000      49.03000000      30.58000000
 H      44.18400000      48.21500000      30.05900000
 H      45.05700000      49.46800000      29.93200000
 O      48.21800000      47.33400000      32.27000000
 H      48.40200000      46.65800000      32.86500000
 H      47.31000000      47.57600000      32.49800000
 O      46.87000000      46.07800000      40.12400000
 H      46.99700000      46.68100000      40.89000000
 H      47.12400000      46.68200000      39.38800000
 O      45.35000000      43.69100000      33.08600000
 H      45.14000000      42.75300000      32.96900000
 H      45.03100000      44.02400000      32.22600000
 O      47.49600000      45.21100000      34.11000000
 H      48.20300000      44.56100000      34.03000000
 H      46.85700000      44.90600000      33.53400000
 O      45.37700000      43.21800000      27.71400000
 H      46.34100000      43.41200000      28.00800000
 H      45.12700000      44.14100000      27.46500000
 O      47.93600000      47.95000000      29.50600000
 H      48.72200000      47.59100000      29.07400000
 H      48.08800000      47.75100000      30.42900000
 O      43.90700000      46.78700000      29.11900000
 H      44.76600000      46.60900000      28.75100000
 H      43.63000000      45.97900000      29.57300000
 O      43.38400000      44.39900000      30.73000000
 H      43.12200000      43.54900000      30.43400000
 H      43.06300000      44.48000000      31.62300000
 O      46.97900000      43.69200000      39.17800000
 H      46.88300000      44.56200000      39.64800000
 H      47.23100000      43.96800000      38.31100000
 O      47.12700000      47.33000000      35.97500000
 H      46.16100000      47.41800000      36.13900000
 H      47.10200000      46.64600000      35.28100000
 O      46.30200000      46.22100000      27.77600000
 H      46.89600000      46.94700000      28.08100000
 H      46.92400000      45.67100000      27.32200000
 O      48.68900000      42.36700000      36.51700000
 H      49.19500000      43.11600000      36.98900000
 H      48.78700000      42.75300000      35.63000000
 O      44.09500000      47.79500000      38.68600000
 H      43.90200000      46.94300000      39.11500000
 H      44.84300000      48.15500000      39.22100000
 O      43.98700000      46.73400000      36.15100000
 H      44.15800000      47.19700000      36.99600000
 H      43.02400000      46.94000000      36.08300000
 O      48.25900000      43.25800000      28.81000000
 H      48.62900000      44.08900000      29.17000000
 H      49.02100000      43.05200000      28.20200000
 O      45.02600000      44.44900000      35.81200000
 H      45.18100000      44.30700000      34.85900000
 H      44.70200000      45.39900000      35.81600000
 O      43.07700000      42.92600000      37.18500000
 H      43.43200000      42.37100000      37.89000000
 H      43.80100000      43.45300000      36.80000000
