291
XYZ file of cluster: frame_20000_4c472.73c97.0 - created by MolEdiTo
 O      21.57800000      27.91000000       6.59400000
 H      21.12900000      27.04100000       6.59200000
 H      22.51600000      27.68000000       6.64500000
 O      16.27500000      27.57700000       4.83200000
 H      15.58400000      28.13000000       4.51600000
 H      16.36800000      26.91400000       4.16800000
 O      22.75700000      32.17000000      10.67900000
 H      22.42900000      31.47400000      10.06800000
 H      22.49500000      31.68900000      11.49100000
 O      20.85800000      34.57400000       4.37100000
 H      21.18900000      33.67500000       4.65800000
 H      20.91600000      35.08600000       5.22800000
 O      26.67300000      31.56800000       2.00400000
 H      27.06700000      30.83200000       1.45200000
 H      27.04900000      32.36300000       1.50900000
 O      19.41100000      28.69800000      12.91800000
 H      18.46300000      28.96300000      12.99000000
 H      19.27000000      27.97300000      12.27500000
 O      17.02400000      34.66600000       6.73900000
 H      16.70900000      34.25500000       5.89500000
 H      17.71700000      35.28900000       6.31300000
 O      19.29200000      21.71000000       2.95900000
 H      18.44800000      22.17700000       2.86800000
 H      18.97500000      20.81600000       2.58300000
 O      16.94900000      29.35400000       9.87400000
 H      16.14500000      29.31200000      10.39800000
 H      17.39700000      28.56200000      10.12300000
 O      16.85800000      29.63200000      12.90400000
 H      16.71500000      30.02100000      13.83400000
 H      15.94100000      29.89800000      12.55700000
 O      24.98500000      24.36200000       6.51600000
 H      24.92300000      23.74600000       7.31700000
 H      25.93400000      24.69400000       6.59300000
 O      14.24900000      34.90800000       9.55200000
 H      14.90900000      34.23200000       9.67500000
 H      14.68600000      35.56200000       8.92700000
 O      15.84600000      33.56500000       4.58800000
 H      14.97900000      33.09400000       4.78700000
 H      16.33800000      32.71900000       4.34500000
 O      18.01400000      21.53200000       6.78900000
 H      18.92500000      21.22400000       6.53600000
 H      17.44300000      20.81800000       6.58700000
 O      22.05300000      26.82400000       3.39900000
 H      22.87600000      26.27700000       3.45500000
 H      21.56400000      26.45200000       4.17200000
 O      15.13600000      24.11600000       7.36800000
 H      15.98900000      24.00300000       6.83500000
 H      15.52000000      24.62100000       8.08300000
 O      23.63700000      28.14500000      12.02600000
 H      23.37900000      27.41500000      12.64900000
 H      24.39500000      27.66400000      11.61800000
 O      24.26500000      20.97200000       1.96900000
 H      25.13400000      21.39500000       1.82300000
 H      23.95400000      21.37700000       2.81900000
 O      18.76500000      32.97500000       7.80700000
 H      18.26600000      33.84600000       7.75400000
 H      18.05800000      32.35300000       7.95300000
 O      24.25100000      25.25100000       3.53700000
 H      24.59400000      24.51300000       4.06100000
 H      24.69200000      24.99900000       2.66500000
 O      22.27100000      29.44400000       3.15600000
 H      22.08000000      29.40000000       2.22200000
 H      22.09500000      28.48600000       3.37200000
 O      27.62600000      24.80700000       6.81200000
 H      28.17500000      25.59500000       6.98200000
 H      27.99500000      24.52900000       5.95200000
 O      25.26500000      24.28300000       1.26400000
 H      25.27300000      24.24200000       0.28700000
 H      25.85300000      23.46500000       1.40300000
 O      15.73200000      20.19400000       8.67500000
 H      15.13700000      19.67100000       8.07000000
 H      15.11400000      20.82400000       9.09600000
 O      22.26900000      22.61000000      11.44200000
 H      22.38600000      21.79500000      11.90500000
 H      23.07500000      22.61200000      10.93900000
 O      18.07100000      27.64600000       7.35700000
 H      18.38200000      28.55200000       7.21000000
 H      17.37500000      27.59300000       6.65300000
 O      24.37500000      27.31000000       6.62400000
 H      24.76200000      27.55200000       5.73600000
 H      24.26200000      26.33400000       6.50100000
 O      13.98600000      25.31200000      11.51500000
 H      14.73000000      24.86000000      11.10100000
 H      13.30700000      24.57400000      11.44800000
 O      26.74600000      33.28000000      11.49200000
 H      26.34700000      32.36500000      11.32000000
 H      27.46900000      33.18800000      10.80400000
 O      20.27800000      34.23300000      11.27700000
 H      20.83300000      33.47500000      11.45600000
 H      20.48900000      34.33900000      10.29800000
 O      17.77600000      22.65000000       9.29400000
 H      18.04300000      22.23700000       8.38700000
 H      18.60200000      22.99800000       9.59200000
 O      21.39600000      23.41800000       3.56700000
 H      22.23600000      22.88200000       3.74100000
 H      20.94000000      22.67700000       3.13100000
 O      14.60800000      23.59200000       3.15100000
 H      15.41400000      23.51900000       3.76000000
 H      14.23700000      22.66200000       3.23900000
 O      21.94600000      30.10000000      12.38200000
 H      21.13000000      29.59300000      12.27200000
 H      22.64100000      29.38200000      12.19600000
 O      21.73800000      27.69300000       9.97500000
 H      22.58000000      27.81000000      10.41600000
 H      21.60000000      28.56300000       9.57200000
 O      15.05400000      30.07300000       3.24200000
 H      14.43000000      30.63600000       3.72500000
 H      15.89700000      30.49500000       3.48700000
 O      18.58500000      24.95200000       3.27900000
 H      18.78500000      25.62400000       2.57200000
 H      19.48300000      24.50800000       3.35600000
 O      27.25900000      30.74000000      13.58600000
 H      26.45700000      30.45500000      13.10800000
 H      27.09300000      31.71900000      13.58300000
 O      25.85200000      34.33100000       7.97900000
 H      25.56400000      35.25800000       7.86300000
 H      26.21800000      34.18600000       7.09700000
 O      21.21600000      31.71900000       5.00300000
 H      20.51200000      31.14800000       5.38400000
 H      21.74800000      31.04000000       4.51900000
 O      24.81400000      23.17200000      13.48800000
 H      25.67300000      22.66900000      13.35100000
 H      24.96600000      23.84700000      12.73400000
 O      17.23200000      31.21300000       4.56400000
 H      16.97800000      30.90700000       5.46200000
 H      18.07500000      30.72100000       4.48200000
 O      15.76300000      25.94800000       2.24000000
 H      15.25300000      25.10500000       2.44200000
 H      14.96900000      26.55100000       2.36000000
 O      17.71200000      33.86800000      12.56000000
 H      18.10600000      33.34000000      13.31100000
 H      18.52500000      33.95900000      11.97100000
 O      25.18200000      32.75500000      14.08700000
 H      25.12900000      33.43800000      13.40400000
 H      25.31700000      33.31800000      14.85800000
 O      17.28600000      23.00500000       1.52800000
 H      17.54200000      23.80400000       2.01300000
 H      16.94300000      23.43600000       0.74100000
 O      19.62500000      26.01600000       5.86700000
 H      19.35300000      26.74300000       6.45000000
 H      18.84100000      26.01000000       5.29300000
 O      14.02100000      31.64000000       5.15700000
 H      13.05600000      31.78600000       5.23000000
 H      14.19000000      31.02900000       5.89200000
 O      14.53800000      30.74100000      11.09000000
 H      13.69800000      30.27600000      10.94700000
 H      14.25100000      31.46600000      11.64700000
 O      25.40600000      24.08900000      10.88500000
 H      25.46300000      25.04100000      10.95700000
 H      26.30800000      23.91900000      10.49000000
 O      27.81800000      29.54900000       9.67100000
 H      27.05600000      29.92600000      10.14100000
 H      27.43100000      29.41200000       8.82300000
 O      14.15500000      29.56600000       7.13200000
 H      13.27000000      29.48300000       7.60100000
 H      14.45200000      28.58500000       7.27700000
 O      23.78600000      30.69600000      14.49600000
 H      23.12900000      30.89000000      13.80700000
 H      24.30700000      31.48000000      14.47100000
 O      26.04100000      20.98200000      11.70600000
 H      26.39300000      20.14700000      12.11300000
 H      26.73900000      21.61700000      12.01900000
 O      26.92900000      34.90100000       5.13500000
 H      26.20000000      35.08300000       4.57100000
 H      27.14000000      33.97300000       4.89600000
 O      25.96300000      26.74200000      14.07600000
 H      25.07500000      26.51000000      13.85100000
 H      25.83700000      27.33100000      14.86100000
 O      15.10000000      21.12800000       2.12500000
 H      15.84500000      21.78200000       2.01800000
 H      14.77500000      21.02900000       1.18500000
 O      28.39100000      25.61500000      13.43700000
 H      27.46500000      25.85800000      13.64000000
 H      28.89200000      26.38000000      13.59200000
 O      23.14800000      32.79900000       2.82800000
 H      22.34500000      32.82100000       3.38800000
 H      23.63500000      32.06900000       3.22900000
 O      20.97900000      23.69700000       6.76900000
 H      20.47200000      24.51100000       6.70900000
 H      21.00400000      23.41700000       5.79300000
 O      23.31700000      20.94200000      13.43500000
 H      24.05400000      20.46700000      13.81600000
 H      23.69200000      21.82100000      13.34200000
 O      25.68700000      26.78600000      11.40800000
 H      26.54300000      26.73900000      10.91400000
 H      26.03900000      26.92400000      12.30700000
 O      19.30700000      34.25700000       2.03600000
 H      19.85100000      33.81600000       2.73600000
 H      19.21200000      33.45600000       1.43200000
 O      27.81300000      20.64500000       6.45500000
 H      28.50800000      19.95000000       6.48900000
 H      27.91900000      21.08700000       7.30900000
 O      16.43100000      33.05100000       9.67700000
 H      16.24000000      32.21400000      10.12300000
 H      17.27300000      33.31700000      10.06100000
 O      16.75700000      25.68800000       8.93300000
 H      17.32300000      26.18500000       8.27200000
 H      17.14100000      26.00800000       9.75200000
 O      25.20600000      31.17800000       4.22900000
 H      25.85300000      31.37300000       3.47300000
 H      25.41900000      30.19000000       4.36700000
 O      15.97500000      23.19200000      11.17400000
 H      15.51700000      22.30600000      11.05200000
 H      16.70900000      23.05800000      10.44900000
 O      16.76900000      23.76300000       4.95800000
 H      17.21200000      23.13900000       5.50400000
 H      17.44700000      24.09200000       4.37200000
 O      19.31300000      27.70400000       3.29600000
 H      19.13000000      27.35300000       2.39600000
 H      20.21800000      27.46200000       3.30100000
 O      21.02100000      34.02800000       8.77900000
 H      20.36500000      33.38100000       8.43300000
 H      21.74300000      33.96100000       8.15700000
 O      19.62200000      26.32100000       0.98000000
 H      19.32700000      26.23700000       0.00000000
 H      20.54100000      26.05700000       0.87000000
 O      25.34200000      30.96800000      10.67600000
 H      24.79900000      30.15100000      10.66500000
 H      24.66000000      31.56600000      10.26200000
 O      24.65300000      22.56100000       8.55400000
 H      24.63000000      23.15700000       9.34600000
 H      24.21500000      21.76400000       8.94600000
 O      26.89000000      27.14500000       1.64700000
 H      27.84000000      27.15600000       1.81800000
 H      26.69800000      26.21800000       1.46700000
 O      19.33200000      20.32000000      11.02400000
 H      18.67300000      19.83200000      10.47000000
 H      19.35500000      21.15800000      10.50400000
 O      27.64200000      21.23000000       9.24400000
 H      28.01500000      22.14600000       9.19800000
 H      26.92300000      21.41400000       9.95100000
 O      17.55500000      26.36600000      11.45300000
 H      17.93200000      25.43800000      11.50400000
 H      16.99000000      26.35400000      12.25300000
 O      25.99900000      29.10000000       7.66800000
 H      26.78100000      28.75900000       7.15200000
 H      25.37000000      28.42800000       7.37200000
 O      23.00900000      33.99200000       6.72700000
 H      23.79300000      34.02200000       7.29200000
 H      23.07900000      33.05000000       6.33700000
 O      27.73200000      23.95900000       9.61100000
 H      28.21800000      24.71100000      10.03600000
 H      27.59200000      24.26800000       8.71800000
 O      28.43000000      33.27800000       9.42200000
 H      29.10600000      33.02000000       8.75000000
 H      27.63800000      33.42600000       8.90200000
 O      26.22400000      28.25000000       4.61600000
 H      26.94900000      27.68700000       4.95200000
 H      26.25400000      28.07200000       3.68300000
 O      20.47100000      22.56400000       9.26000000
 H      20.68800000      22.76600000       8.30200000
 H      21.33100000      22.48200000       9.68000000
 O      16.54400000      24.27000000      13.46600000
 H      16.88600000      23.41700000      13.80900000
 H      16.39000000      23.93600000      12.49900000
 O      27.89100000      21.78600000       3.80400000
 H      27.57500000      21.58700000       4.75800000
 H      28.73700000      21.24300000       3.77500000
 O      26.61400000      21.99700000       1.46000000
 H      27.10500000      21.91300000       2.32600000
 H      27.37000000      21.83300000       0.80400000
 O      21.74200000      24.09500000      13.92200000
 H      21.50000000      23.22200000      14.37200000
 H      21.82700000      23.75200000      13.00100000
 O      16.93700000      30.93500000       7.48900000
 H      17.03700000      30.54600000       8.43200000
 H      16.00800000      30.96400000       7.42000000
 O      24.74200000      35.27400000       3.47800000
 H      24.26500000      34.51400000       3.78000000
 H      24.10700000      36.00300000       3.69400000
 O      19.78400000      24.98600000      10.40900000
 H      20.34700000      24.27900000      10.09200000
 H      20.37000000      25.76300000      10.34600000
 O      15.00900000      26.48100000      13.84300000
 H      15.52300000      25.60600000      13.79000000
 H      14.42000000      26.32000000      13.06600000
 O      22.13600000      30.00200000       8.54100000
 H      21.89200000      29.36200000       7.82600000
 H      22.82400000      30.50200000       8.03300000
 O      23.66500000      22.12400000       4.69000000
 H      23.72600000      22.85200000       5.35700000
 H      24.18900000      21.43900000       5.22900000
 O      24.24700000      31.22900000       6.72900000
 H      24.86900000      30.60100000       7.14200000
 H      24.63700000      31.29900000       5.82100000
 O      19.35300000      29.29300000       5.40300000
 H      19.43100000      28.65500000       4.61100000
 H      20.17400000      29.04300000       5.85000000
 O      23.96200000      34.88200000      10.48600000
 H      24.39900000      34.91000000       9.58800000
 H      24.02400000      33.91000000      10.62000000
