348
XYZ file of cluster: frame_20000_9c94c.73f82.c5943 - created by MolEdiTo
 O      36.21700000      27.16200000      37.40900000
 H      35.44300000      27.54000000      36.99100000
 H      36.94400000      27.72800000      36.96700000
 O      39.42500000      20.60800000      38.09900000
 H      38.72300000      20.93800000      37.48900000
 H      39.13100000      19.70200000      38.24500000
 O      27.60500000      24.98400000      38.78400000
 H      28.14200000      24.67200000      38.01500000
 H      26.80100000      24.47300000      38.60700000
 O      30.62600000      34.25900000      38.57300000
 H      30.84000000      34.02900000      37.59000000
 H      31.36500000      33.77700000      38.94600000
 O      36.97400000      22.06500000      36.17900000
 H      36.18600000      21.83300000      36.67300000
 H      36.83000000      23.04000000      36.04900000
 O      33.59700000      26.61700000      39.89200000
 H      33.31000000      27.12600000      39.05600000
 H      33.55300000      27.32900000      40.54600000
 O      34.78100000      28.69000000      35.70000000
 H      34.16800000      28.63000000      34.97400000
 H      35.55200000      29.02900000      35.22300000
 O      27.88100000      33.32300000      39.67100000
 H      27.96700000      32.34600000      39.55500000
 H      28.76400000      33.60400000      39.24500000
 O      32.66800000      38.79900000      34.42000000
 H      32.56500000      39.42900000      35.11400000
 H      33.24000000      39.26400000      33.73900000
 O      34.61600000      21.19200000      37.21400000
 H      34.00800000      21.62400000      36.59400000
 H      33.93800000      21.02700000      37.96000000
 O      36.36400000      38.75000000      36.23400000
 H      36.25900000      39.69300000      36.04500000
 H      36.28400000      38.72500000      37.18400000
 O      34.68100000      37.00100000      34.75700000
 H      35.29600000      37.59100000      35.27400000
 H      33.91300000      37.64000000      34.76700000
 O      37.69800000      32.77600000      40.75200000
 H      38.52800000      32.88500000      41.25900000
 H      37.56200000      31.79800000      41.03200000
 O      34.33100000      34.06700000      36.85200000
 H      34.84400000      33.23500000      36.59900000
 H      33.58200000      33.99300000      36.23400000
 O      32.45700000      22.38300000      35.58800000
 H      31.74500000      21.96800000      36.12900000
 H      32.41900000      21.76600000      34.79700000
 O      38.11600000      36.07300000      39.30200000
 H      38.34800000      35.76800000      40.18600000
 H      39.01100000      36.16900000      38.91300000
 O      40.37200000      40.58500000      34.53400000
 H      39.85300000      39.71300000      34.69200000
 H      40.62500000      40.76200000      35.45000000
 O      34.81000000      24.37500000      37.55900000
 H      35.46300000      25.01700000      37.82900000
 H      34.54600000      24.62300000      36.67100000
 O      36.66000000      34.85100000      34.68300000
 H      37.14400000      34.83400000      35.53100000
 H      35.72800000      34.89900000      35.07200000
 O      37.25100000      34.38600000      37.52400000
 H      37.31800000      35.10500000      38.20400000
 H      36.27000000      34.19900000      37.58800000
 O      36.58100000      26.29200000      40.17400000
 H      35.70500000      26.02300000      39.85100000
 H      36.93100000      26.85400000      39.51000000
 O      33.37900000      35.71200000      39.03100000
 H      33.92200000      35.17800000      39.67600000
 H      33.70500000      35.38700000      38.16900000
 O      31.15000000      30.19400000      36.08700000
 H      30.78400000      30.32100000      36.95500000
 H      31.58800000      31.04400000      35.88300000
 O      32.37500000      32.56400000      35.75400000
 H      32.61100000      32.57600000      34.76000000
 H      31.69900000      33.22700000      35.78800000
 O      29.18800000      40.36200000      36.69000000
 H      28.39100000      40.26800000      36.05200000
 H      29.36100000      41.32700000      36.52100000
 O      29.36400000      24.53800000      35.83400000
 H      29.78400000      24.95800000      35.10600000
 H      28.98800000      23.75000000      35.44900000
 O      28.78100000      27.83100000      35.82200000
 H      28.97600000      28.78500000      35.84300000
 H      29.43800000      27.51600000      35.15200000
 O      38.19600000      29.21200000      37.18900000
 H      38.99700000      28.75900000      37.01900000
 H      38.46400000      30.06300000      37.59100000
 O      32.96800000      23.76600000      39.17700000
 H      33.65400000      23.89800000      38.45800000
 H      32.76900000      24.66700000      39.35200000
 O      30.14500000      23.14300000      38.27300000
 H      30.16900000      23.45400000      37.35000000
 H      31.06000000      23.21900000      38.51900000
 O      32.16000000      24.99900000      34.47100000
 H      32.19600000      24.18800000      35.02200000
 H      33.09600000      25.32800000      34.56600000
 O      34.92100000      30.55700000      38.93000000
 H      35.60300000      30.67500000      38.16700000
 H      35.61200000      30.60200000      39.66300000
 O      38.26800000      21.01700000      40.64100000
 H      38.57600000      21.86300000      40.90900000
 H      38.56300000      20.93200000      39.71500000
 O      30.67700000      34.53700000      35.87800000
 H      31.05000000      35.31100000      35.39700000
 H      29.71900000      34.64500000      35.66100000
 O      35.49400000      31.72800000      36.39600000
 H      36.10200000      31.16800000      35.91500000
 H      34.63700000      31.33000000      36.21100000
 O      31.08300000      29.84900000      38.87500000
 H      31.72000000      30.43000000      39.33500000
 H      31.76100000      29.33700000      38.36200000
 O      37.26000000      40.77900000      34.46600000
 H      36.64200000      41.34700000      34.95200000
 H      38.13200000      41.08000000      34.91000000
 O      33.81600000      38.17700000      39.73400000
 H      33.59500000      37.21600000      39.35000000
 H      33.28200000      38.64700000      39.06800000
 O      37.32100000      38.50200000      39.04400000
 H      37.50400000      37.56000000      38.91400000
 H      37.07500000      38.47800000      39.98200000
 O      31.68600000      38.95400000      37.73700000
 H      31.70400000      39.90400000      38.02900000
 H      30.86500000      39.07500000      37.16000000
 O      29.19500000      21.38700000      40.33500000
 H      29.28900000      21.89200000      39.52300000
 H      30.11900000      21.51900000      40.77900000
 O      30.69100000      36.67500000      39.90000000
 H      31.12800000      35.92800000      39.43900000
 H      31.30900000      37.37900000      39.61900000
 O      38.89900000      32.09000000      38.13700000
 H      38.15000000      32.31100000      38.72700000
 H      38.63500000      32.58400000      37.33900000
 O      28.08300000      38.79100000      38.48400000
 H      27.90700000      39.36600000      39.30600000
 H      28.88100000      39.26600000      38.09500000
 O      35.94900000      34.75300000      40.87200000
 H      36.53300000      33.93500000      40.69800000
 H      36.46000000      35.18200000      41.53800000
 O      32.77000000      32.11100000      39.86800000
 H      33.62100000      31.71400000      39.45700000
 H      33.31300000      32.51700000      40.66600000
 O      28.30900000      30.24200000      39.87100000
 H      29.26100000      29.97800000      39.64100000
 H      27.88300000      29.39500000      39.64200000
 O      40.24400000      27.25300000      36.02300000
 H      40.95300000      26.72100000      35.69100000
 H      39.53600000      27.12000000      35.33100000
 O      36.70500000      24.89400000      35.60500000
 H      36.27500000      25.65800000      35.16900000
 H      37.46600000      25.41400000      36.02000000
 O      29.84300000      21.10800000      36.26800000
 H      29.60900000      20.18100000      36.40000000
 H      28.93200000      21.46000000      36.03100000
 O      28.52900000      36.24400000      37.79300000
 H      29.12400000      35.72800000      38.32000000
 H      28.56900000      37.17800000      38.12900000
 O      33.39100000      28.41100000      37.97100000
 H      33.64000000      28.39900000      37.06600000
 H      34.05500000      29.02800000      38.38300000
 O      40.57400000      36.62600000      38.59700000
 H      41.15500000      35.97100000      39.05900000
 H      41.35500000      37.11100000      38.19800000
 O      39.44300000      38.39200000      35.74400000
 H      38.91200000      37.75500000      35.23500000
 H      38.89500000      38.52800000      36.54300000
 O      40.00100000      24.47000000      46.33300000
 H      40.38100000      23.53600000      46.13100000
 H      40.85500000      24.95800000      46.45700000
 O      29.33100000      31.92100000      48.78200000
 H      29.19600000      32.00700000      47.76700000
 H      28.88300000      31.04500000      48.93500000
 O      30.94500000      24.05200000      48.58400000
 H      30.73500000      23.75400000      47.70100000
 H      31.01000000      24.98500000      48.54200000
 O      37.14400000      26.76500000      44.45800000
 H      37.09600000      26.73300000      43.46800000
 H      38.11500000      26.69500000      44.55800000
 O      30.36700000      27.58300000      44.05000000
 H      30.77000000      26.70400000      44.29000000
 H      31.15800000      27.97300000      43.63000000
 O      34.94400000      37.02900000      45.44000000
 H      34.71900000      37.60800000      46.27800000
 H      34.06000000      36.67000000      45.23600000
 O      31.39400000      37.95600000      44.25400000
 H      31.76600000      37.10300000      44.55200000
 H      30.67100000      37.68900000      43.66600000
 O      29.64800000      26.44000000      47.22200000
 H      30.57200000      26.45600000      46.79000000
 H      29.11800000      25.88200000      46.63000000
 O      34.76900000      39.05100000      47.29800000
 H      34.61800000      39.90200000      46.79200000
 H      33.86900000      38.93000000      47.66200000
 O      32.57600000      35.62100000      45.12000000
 H      32.27500000      35.41600000      45.97600000
 H      33.26000000      34.94300000      44.88200000
 O      36.03800000      38.09200000      43.18000000
 H      35.37600000      38.22700000      42.41500000
 H      35.41500000      37.61000000      43.78600000
 O      28.64800000      40.34700000      42.84600000
 H      28.11100000      39.56500000      43.04800000
 H      27.98300000      41.05600000      43.00200000
 O      36.39200000      26.08600000      48.55800000
 H      36.53800000      25.12300000      48.40800000
 H      35.90300000      26.34600000      47.73500000
 O      39.57600000      33.12500000      49.28500000
 H      39.23800000      33.31100000      48.37500000
 H      39.84300000      32.19100000      49.11700000
 O      39.84800000      29.43800000      45.62300000
 H      39.38300000      29.13400000      46.43000000
 H      39.95400000      28.57100000      45.19500000
 O      32.29100000      21.72200000      42.68900000
 H      33.06500000      21.44600000      43.21800000
 H      32.56300000      22.67500000      42.53100000
 O      35.08800000      30.17600000      44.78500000
 H      35.58900000      30.84200000      45.28900000
 H      34.36400000      30.02400000      45.36400000
 O      37.47200000      38.58400000      47.15900000
 H      36.50600000      38.79200000      47.33600000
 H      37.84400000      38.81600000      48.06600000
 O      32.09200000      38.64800000      48.10400000
 H      32.17100000      38.99600000      48.99600000
 H      31.31200000      38.97700000      47.75100000
 O      39.56400000      21.14600000      48.22400000
 H      38.82400000      21.18100000      47.50900000
 H      40.31600000      21.52800000      47.68900000
 O      28.54700000      36.89600000      47.29800000
 H      27.87000000      36.21100000      47.16400000
 H      28.34800000      37.16300000      48.18800000
 O      34.55600000      33.41900000      45.99600000
 H      34.23000000      33.81200000      46.81100000
 H      35.21000000      32.76500000      46.34400000
 O      27.89100000      21.78600000      45.49400000
 H      27.57500000      21.58700000      46.44800000
 H      28.73700000      21.24300000      45.46500000
 O      32.97900000      39.84200000      43.49900000
 H      33.46100000      39.35500000      42.75300000
 H      32.46100000      39.03800000      43.84300000
 O      33.87500000      29.76000000      48.52000000
 H      33.36200000      30.60300000      48.63800000
 H      33.42900000      29.18800000      49.17800000
 O      39.55200000      32.16300000      44.53200000
 H      39.71600000      31.28500000      44.99800000
 H      39.27300000      32.67300000      45.36500000
 O      38.94400000      24.03700000      43.33500000
 H      39.32400000      24.47900000      44.12600000
 H      39.27200000      24.56600000      42.61200000
 O      38.90400000      33.85600000      46.86100000
 H      38.28200000      34.55900000      46.70900000
 H      39.72400000      34.39000000      47.09000000
 O      37.34100000      21.67700000      46.56400000
 H      37.01600000      22.22600000      45.78000000
 H      36.70500000      20.95800000      46.44500000
 O      39.14000000      35.50100000      43.65000000
 H      39.10000000      36.36400000      44.11300000
 H      39.07500000      34.92400000      44.42500000
 O      31.32100000      23.01300000      45.72900000
 H      30.84000000      22.17900000      45.44600000
 H      32.15200000      22.45100000      46.03700000
 O      33.00400000      26.91000000      47.97300000
 H      33.03800000      26.30900000      48.81100000
 H      33.73300000      26.53900000      47.45200000
 O      29.10800000      39.37400000      46.24900000
 H      28.70600000      38.51300000      46.51100000
 H      29.33500000      39.19700000      45.32800000
 O      30.20700000      30.06500000      45.46500000
 H      31.09300000      29.71600000      45.74500000
 H      29.87400000      29.37400000      44.88400000
 O      27.81300000      20.64500000      48.14500000
 H      28.50800000      19.95000000      48.17900000
 H      27.91900000      21.08700000      48.99900000
 O      28.27100000      24.56900000      45.84800000
 H      28.38100000      23.62800000      45.64300000
 H      28.38400000      24.86200000      44.89700000
 O      32.68700000      28.93400000      46.15500000
 H      32.88500000      29.52000000      46.92800000
 H      32.97800000      28.05900000      46.60400000
 O      31.55300000      35.96100000      47.63700000
 H      31.89600000      36.89100000      47.75000000
 H      30.59400000      36.09300000      47.72000000
 O      28.57900000      32.77300000      46.10000000
 H      29.37000000      33.34100000      45.99000000
 H      28.90500000      31.90700000      45.76700000
 O      36.03600000      31.61400000      47.37300000
 H      36.35400000      32.14200000      48.16600000
 H      35.48300000      30.95700000      47.85700000
 O      28.03900000      35.79000000      42.71000000
 H      28.08700000      34.83200000      42.49300000
 H      28.86400000      36.12500000      42.35600000
 O      36.60300000      22.89400000      43.94300000
 H      36.00700000      23.64100000      43.78200000
 H      37.45100000      23.36100000      43.73900000
 O      37.27000000      35.80900000      46.29500000
 H      37.51200000      36.69800000      46.72200000
 H      36.38500000      36.13100000      45.94800000
 O      38.75300000      28.18100000      47.86600000
 H      38.01300000      27.62400000      47.67000000
 H      38.84800000      28.00800000      48.85400000
 O      32.93500000      28.33300000      43.45400000
 H      33.55200000      29.06600000      43.23400000
 H      32.88300000      28.48400000      44.46100000
 O      33.96900000      33.23600000      43.34500000
 H      34.04000000      33.15600000      44.33800000
 H      34.69400000      33.85200000      43.19800000
 O      31.77500000      25.62400000      45.25300000
 H      32.67500000      25.47100000      44.96200000
 H      31.59800000      24.63400000      45.46700000
 O      40.18600000      40.43300000      43.24800000
 H      40.67600000      39.61000000      43.20400000
 H      39.29600000      40.12800000      43.56100000
 O      33.56600000      34.15300000      48.27800000
 H      33.14800000      33.44800000      48.81600000
 H      32.82900000      34.82900000      48.23600000
 O      28.69900000      24.54000000      43.03700000
 H      29.50800000      23.98300000      42.97900000
 H      28.59200000      24.79300000      42.12000000
 O      40.09000000      26.86400000      44.49900000
 H      40.84600000      26.56200000      45.07900000
 H      40.48400000      26.59000000      43.64800000
 O      37.78100000      39.66000000      44.51800000
 H      37.78700000      39.20600000      45.34800000
 H      37.26400000      39.10400000      43.91700000
 O      39.82800000      36.37100000      48.48500000
 H      40.76500000      36.19400000      48.66500000
 H      39.86200000      36.66500000      47.52500000
 O      33.16200000      21.33000000      46.14000000
 H      33.12900000      20.75400000      46.93100000
 H      33.85000000      20.90900000      45.59500000
 O      40.78900000      21.92600000      45.78900000
 H      40.59400000      21.10500000      45.29100000
 H      41.78800000      21.87300000      45.80000000
 O      28.84700000      28.74800000      48.67900000
 H      29.21400000      28.01900000      48.11600000
 H      29.60300000      28.83000000      49.33200000
 O      34.97700000      26.54000000      46.23800000
 H      34.82800000      25.79800000      45.57000000
 H      35.85100000      26.86900000      45.85400000
 O      36.87000000      29.94500000      42.71200000
 H      37.46400000      29.26800000      43.08800000
 H      36.08900000      29.80800000      43.30000000
 O      34.64100000      24.96800000      43.65200000
 H      34.27500000      25.39100000      42.82800000
 H      35.58600000      25.32800000      43.63700000
 O      37.65700000      23.96800000      47.78100000
 H      37.68800000      23.05000000      47.52300000
 H      38.33400000      24.32700000      47.19400000
 O      34.86600000      20.91700000      43.82900000
 H      35.58700000      20.32500000      43.98800000
 H      35.37400000      21.72300000      43.48100000
 O      27.62600000      24.80700000      48.50200000
 H      28.17500000      25.59500000      48.67200000
 H      27.99500000      24.52900000      47.64200000
