573
XYZ file of cluster: frame_20000_75193.c5679.7367f - created by MolEdiTo
 O      35.31500000      37.69600000      25.14500000
 H      34.75300000      37.64900000      25.93100000
 H      36.21400000      37.60200000      25.61200000
 O      25.92800000      39.88100000      23.85900000
 H      26.80700000      39.68000000      23.36200000
 H      25.61600000      40.58700000      23.23100000
 O      36.72900000      35.78800000      29.47700000
 H      36.42100000      35.44200000      28.59200000
 H      36.63400000      36.73400000      29.30300000
 O      27.67000000      39.34000000      28.82100000
 H      27.29200000      39.69200000      27.94700000
 H      28.11600000      38.56300000      28.44900000
 O      29.90400000      34.86100000      24.32100000
 H      29.10100000      34.51800000      23.89200000
 H      29.75800000      35.83200000      24.06800000
 O      23.52000000      35.07700000      35.26000000
 H      24.45800000      35.35500000      35.18700000
 H      23.18300000      35.72300000      35.91000000
 O      34.68100000      37.00100000      34.75700000
 H      35.29600000      37.59100000      35.27400000
 H      33.91300000      37.64000000      34.76700000
 O      27.59800000      35.65200000      29.23100000
 H      28.20200000      35.26300000      28.56700000
 H      26.94300000      36.05500000      28.59200000
 O      40.07500000      37.41900000      26.03400000
 H      40.70400000      36.70300000      25.75900000
 H      40.50800000      37.64300000      26.91700000
 O      31.77100000      36.54100000      22.06100000
 H      30.94100000      37.01000000      22.20900000
 H      32.28900000      36.82800000      22.82400000
 O      33.35900000      35.12600000      33.53100000
 H      33.95600000      35.72000000      34.02600000
 H      32.49300000      35.61800000      33.73300000
 O      23.79900000      35.36700000      40.90000000
 H      24.35800000      35.11300000      41.68200000
 H      23.16000000      35.90500000      41.30400000
 O      25.24600000      37.08800000      39.41400000
 H      24.80100000      36.39700000      39.94100000
 H      26.16800000      36.93300000      39.51700000
 O      22.86200000      39.16700000      23.03200000
 H      22.38200000      39.89800000      23.51900000
 H      23.43400000      38.88100000      23.78400000
 O      26.58800000      40.29500000      26.59900000
 H      27.08500000      41.12400000      26.56200000
 H      26.63300000      39.97500000      25.65900000
 O      21.43800000      34.91500000      33.25400000
 H      22.17700000      34.74700000      33.85600000
 H      21.41400000      34.07300000      32.83400000
 O      34.26700000      39.74000000      32.58300000
 H      33.83600000      39.25900000      31.78600000
 H      35.20200000      39.50500000      32.34500000
 O      24.43300000      38.59000000      25.58100000
 H      25.03300000      39.18000000      25.03200000
 H      24.20000000      39.26000000      26.29400000
 O      28.44600000      39.32100000      22.88400000
 H      28.29300000      38.50600000      22.38900000
 H      29.09200000      39.78400000      22.21400000
 O      22.20600000      36.62900000      37.23100000
 H      21.37900000      36.88500000      36.76000000
 H      21.81800000      35.96400000      37.88300000
 O      37.26000000      40.77900000      34.46600000
 H      36.64200000      41.34700000      34.95200000
 H      38.13200000      41.08000000      34.91000000
 O      36.06700000      38.23800000      21.62600000
 H      36.75700000      38.31700000      22.28900000
 H      35.35200000      38.69400000      22.06300000
 O      23.92900000      39.64000000      32.32700000
 H      24.26300000      39.05800000      33.00400000
 H      23.65600000      40.39900000      32.89500000
 O      33.89500000      36.90400000      27.28500000
 H      33.28200000      37.15000000      27.98300000
 H      33.86700000      35.92000000      27.42200000
 O      22.13700000      34.78000000      29.77700000
 H      22.18400000      34.16400000      30.58000000
 H      22.14500000      35.63500000      30.19600000
 O      28.21800000      36.85600000      21.60400000
 H      28.21100000      35.96400000      21.96600000
 H      28.03700000      36.64400000      20.60900000
 O      21.21300000      34.57100000      25.56000000
 H      21.70500000      34.02000000      24.87400000
 H      21.87500000      35.19800000      25.81500000
 O      40.57400000      36.62600000      38.59700000
 H      41.15500000      35.97100000      39.05900000
 H      41.35500000      37.11100000      38.19800000
 O      24.27400000      34.41400000      27.77000000
 H      23.72300000      34.54600000      28.53700000
 H      24.44200000      35.32900000      27.53000000
 O      39.44300000      38.39200000      35.74400000
 H      38.91200000      37.75500000      35.23500000
 H      38.89500000      38.52800000      36.54300000
 O      23.87500000      40.43700000      27.24300000
 H      24.70500000      40.89600000      27.17300000
 H      23.44600000      40.83900000      27.97300000
 O      24.74000000      38.20700000      29.33900000
 H      25.14400000      37.58100000      28.65300000
 H      24.99500000      37.65300000      30.14800000
 O      22.98600000      36.56300000      26.32500000
 H      23.63600000      37.23600000      26.09900000
 H      22.32700000      37.22900000      26.71700000
 O      25.74500000      39.97400000      40.11500000
 H      25.93400000      39.12600000      40.55700000
 H      24.80900000      39.75500000      39.87100000
 O      36.42500000      34.71000000      27.02800000
 H      36.22500000      34.25000000      26.19000000
 H      36.51300000      35.66000000      26.69100000
 O      38.11600000      36.07300000      39.30200000
 H      38.34800000      35.76800000      40.18600000
 H      39.01100000      36.16900000      38.91300000
 O      40.08700000      40.52600000      26.78700000
 H      39.36600000      40.12500000      26.30600000
 H      39.77200000      41.47700000      26.93900000
 O      40.54100000      37.85200000      32.36300000
 H      41.05900000      37.04600000      32.23300000
 H      39.65500000      37.40100000      32.59700000
 O      21.07500000      37.57900000      33.15800000
 H      21.84800000      37.94000000      32.64900000
 H      21.17100000      36.62000000      32.98300000
 O      26.00900000      36.78400000      27.40500000
 H      26.11900000      36.03100000      26.75500000
 H      25.47200000      37.37900000      26.78900000
 O      38.33400000      34.69100000      31.34000000
 H      37.83300000      34.97100000      30.54600000
 H      38.06000000      35.28000000      32.00800000
 O      21.37300000      35.90800000      21.70000000
 H      21.17500000      36.14700000      20.74000000
 H      21.26900000      34.95500000      21.67600000
 O      28.65100000      37.85500000      33.81600000
 H      27.88500000      38.18400000      33.21000000
 H      28.14700000      37.96300000      34.64100000
 O      36.73400000      35.80500000      20.04800000
 H      36.55000000      36.01600000      20.93500000
 H      37.08500000      36.64100000      19.70700000
 O      37.32100000      38.50200000      39.04400000
 H      37.50400000      37.56000000      38.91400000
 H      37.07500000      38.47800000      39.98200000
 O      38.88100000      36.49700000      22.54900000
 H      39.06700000      35.50800000      22.36700000
 H      38.02200000      36.29100000      23.01700000
 O      35.94900000      34.75300000      40.87200000
 H      36.53300000      33.93500000      40.69800000
 H      36.46000000      35.18200000      41.53800000
 O      33.05600000      38.29300000      30.68700000
 H      32.67600000      37.59000000      30.10300000
 H      32.23500000      38.38900000      31.23400000
 O      27.04700000      38.63000000      31.89400000
 H      27.19200000      38.89200000      30.97900000
 H      26.25800000      37.99400000      31.73900000
 O      32.30100000      37.48000000      24.57700000
 H      31.83300000      38.16800000      25.05300000
 H      32.71200000      36.92600000      25.31800000
 O      29.12900000      35.86300000      31.52200000
 H      28.80100000      36.66200000      31.92800000
 H      28.62000000      35.85500000      30.67100000
 O      36.36400000      38.75000000      36.23400000
 H      36.25900000      39.69300000      36.04500000
 H      36.28400000      38.72500000      37.18400000
 O      39.19600000      39.85700000      31.16200000
 H      39.67100000      39.21000000      31.76700000
 H      39.64600000      40.64800000      31.31600000
 O      24.35500000      38.15500000      34.67300000
 H      24.09100000      38.66300000      35.49300000
 H      25.28700000      37.92700000      34.88500000
 O      36.66000000      34.85100000      34.68300000
 H      37.14400000      34.83400000      35.53100000
 H      35.72800000      34.89900000      35.07200000
 O      30.95000000      39.32600000      31.84300000
 H      30.69700000      40.21000000      32.26800000
 H      30.43500000      38.77200000      32.45000000
 O      40.74100000      38.07500000      23.56400000
 H      40.05800000      37.35900000      23.43500000
 H      40.85200000      37.97300000      24.53100000
 O      37.34400000      37.29100000      26.54500000
 H      37.33600000      37.68900000      27.49300000
 H      38.32700000      37.16100000      26.49600000
 O      36.46700000      36.01000000      23.56700000
 H      36.11300000      35.18900000      23.96200000
 H      35.99900000      36.65200000      24.14500000
 O      37.25300000      38.48900000      28.90300000
 H      36.91500000      39.37500000      29.09900000
 H      38.08300000      38.53200000      29.39700000
 O      30.67700000      34.53700000      35.87800000
 H      31.05000000      35.31100000      35.39700000
 H      29.71900000      34.64500000      35.66100000
 O      26.16900000      36.01100000      36.72700000
 H      25.45900000      36.12400000      37.40300000
 H      26.98000000      36.27900000      37.21500000
 O      31.71800000      36.23300000      29.01700000
 H      31.08900000      35.81000000      29.67000000
 H      32.24700000      35.44600000      28.76800000
 O      33.81600000      38.17700000      39.73400000
 H      33.59500000      37.21600000      39.35000000
 H      33.28200000      38.64700000      39.06800000
 O      38.31800000      36.77800000      33.23300000
 H      37.75400000      36.17000000      33.72800000
 H      37.72500000      37.48800000      32.96300000
 O      26.33900000      36.04200000      24.14500000
 H      25.54200000      35.74900000      23.64600000
 H      26.59200000      35.27000000      24.66500000
 O      29.22700000      37.50300000      27.25600000
 H      30.12700000      37.17800000      27.39600000
 H      29.07300000      37.27100000      26.30400000
 O      23.90900000      35.47200000      22.77900000
 H      23.13200000      35.93600000      22.43600000
 H      23.41300000      34.63800000      23.05400000
 O      20.90300000      38.45700000      26.41500000
 H      21.07800000      38.07500000      25.49800000
 H      20.10000000      39.00400000      26.24900000
 O      32.66800000      38.79900000      34.42000000
 H      32.56500000      39.42900000      35.11400000
 H      33.24000000      39.26400000      33.73900000
 O      27.01000000      38.79900000      35.94000000
 H      26.30000000      39.35200000      36.31700000
 H      27.57400000      38.61700000      36.67200000
 O      33.97600000      40.39100000      27.75000000
 H      34.76000000      40.13500000      28.25600000
 H      33.49000000      40.98800000      28.40700000
 O      25.10700000      36.73200000      31.46400000
 H      25.43600000      35.86200000      31.26300000
 H      24.41700000      36.57000000      32.07500000
 O      21.58300000      39.46300000      19.98400000
 H      21.80000000      39.45900000      20.97800000
 H      20.89700000      40.20600000      20.05500000
 O      40.37200000      40.58500000      34.53400000
 H      39.85300000      39.71300000      34.69200000
 H      40.62500000      40.76200000      35.45000000
 O      37.25100000      34.38600000      37.52400000
 H      37.31800000      35.10500000      38.20400000
 H      36.27000000      34.19900000      37.58800000
 O      33.37900000      35.71200000      39.03100000
 H      33.92200000      35.17800000      39.67600000
 H      33.70500000      35.38700000      38.16900000
 O      25.68600000      34.74700000      21.10600000
 H      25.16700000      34.94200000      21.92900000
 H      26.56000000      34.76700000      21.48600000
 O      31.22400000      36.32600000      34.30200000
 H      31.71400000      37.18100000      34.18200000
 H      30.28900000      36.60200000      34.11800000
 O      28.57000000      37.16100000      24.65900000
 H      28.41800000      38.12900000      24.41100000
 H      27.66900000      36.81500000      24.53000000
 O      29.18800000      40.36200000      36.69000000
 H      28.39100000      40.26800000      36.05200000
 H      29.36100000      41.32700000      36.52100000
 O      34.54200000      40.18300000      23.82100000
 H      34.23800000      39.33300000      24.17700000
 H      34.93000000      40.54100000      24.62800000
 O      22.15600000      37.46600000      30.03100000
 H      21.56100000      38.27200000      29.80200000
 H      23.02300000      37.77700000      29.79600000
 O      31.86500000      40.72800000      26.18600000
 H      32.77600000      40.66400000      26.53500000
 H      31.44600000      40.55900000      27.05500000
 O      20.88100000      37.61200000      23.64300000
 H      20.74900000      37.01600000      22.80400000
 H      21.67500000      38.09500000      23.24100000
 O      27.80400000      34.24600000      35.03500000
 H      27.28100000      34.91500000      35.48500000
 H      27.12000000      33.53700000      34.75200000
 O      23.16600000      40.63800000      39.06300000
 H      22.85900000      40.15500000      39.85300000
 H      23.40500000      39.94600000      38.39800000
 O      31.68600000      38.95400000      37.73700000
 H      31.70400000      39.90400000      38.02900000
 H      30.86500000      39.07500000      37.16000000
 O      36.94800000      38.97200000      32.43400000
 H      36.94000000      39.51300000      33.26800000
 H      37.59800000      39.40000000      31.88700000
 O      30.69100000      36.67500000      39.90000000
 H      31.12800000      35.92800000      39.43900000
 H      31.30900000      37.37900000      39.61900000
 O      28.08300000      38.79100000      38.48400000
 H      27.90700000      39.36600000      39.30600000
 H      28.88100000      39.26600000      38.09500000
 O      24.18100000      38.51200000      37.63000000
 H      24.74400000      37.99500000      38.26900000
 H      23.48000000      37.88400000      37.36500000
 O      28.52900000      36.24400000      37.79300000
 H      29.12400000      35.72800000      38.32000000
 H      28.56900000      37.17800000      38.12900000
 O      27.02100000      47.09700000      38.15100000
 H      27.79700000      47.48400000      38.72500000
 H      27.42000000      46.13400000      38.13000000
 O      34.68300000      45.66500000      27.16500000
 H      34.94900000      46.50300000      27.58600000
 H      34.34600000      45.17500000      27.96600000
 O      25.28000000      43.34800000      22.27600000
 H      24.73300000      43.30200000      21.45900000
 H      26.06200000      43.79500000      21.88900000
 O      40.42200000      48.07000000      26.15500000
 H      40.76100000      48.76500000      26.69700000
 H      41.13900000      47.45600000      26.03600000
 O      27.77500000      44.60500000      38.37700000
 H      27.36900000      44.19100000      39.14100000
 H      27.32200000      44.17200000      37.63400000
 O      20.98800000      48.05100000      26.31700000
 H      20.45900000      47.66400000      25.57400000
 H      20.61300000      47.51000000      27.06800000
 O      40.70500000      45.61200000      21.50000000
 H      39.82200000      45.62700000      21.87400000
 H      41.17500000      46.25400000      22.09800000
 O      22.99700000      43.01000000      34.07300000
 H      23.05200000      43.92300000      34.37300000
 H      22.28200000      42.62000000      34.55900000
 O      25.11400000      44.87900000      32.50000000
 H      24.69100000      44.32000000      33.16700000
 H      25.73000000      44.23700000      32.09400000
 O      22.87400000      46.84300000      31.39900000
 H      23.74600000      46.38900000      31.34600000
 H      23.01800000      47.56500000      30.69300000
 O      31.05100000      48.42900000      34.92900000
 H      31.21800000      47.66400000      35.54800000
 H      30.16200000      48.47000000      34.87600000
 O      38.26800000      42.39100000      38.50800000
 H      39.14900000      42.32500000      38.77200000
 H      37.82500000      41.53200000      38.75600000
 O      31.03000000      45.03400000      38.99400000
 H      30.10000000      45.03900000      39.16900000
 H      31.28400000      44.14500000      39.38200000
 O      35.37700000      43.07200000      36.19600000
 H      34.64700000      42.91800000      35.58700000
 H      35.14700000      43.96700000      36.56700000
 O      39.77800000      43.91400000      32.61000000
 H      39.93800000      43.42500000      33.44000000
 H      39.02900000      44.50000000      32.94000000
 O      31.12600000      48.15700000      29.05500000
 H      30.11500000      48.01500000      29.00700000
 H      31.31800000      47.78000000      28.17300000
 O      35.32200000      47.82500000      28.70700000
 H      34.96300000      48.71400000      28.54600000
 H      36.32700000      48.02400000      28.49300000
 O      26.64700000      47.53100000      32.46200000
 H      26.19000000      46.61700000      32.39100000
 H      27.57300000      47.19600000      32.23700000
 O      20.81000000      45.47800000      30.44900000
 H      21.65800000      45.75700000      30.68300000
 H      20.31700000      45.47800000      31.28000000
 O      21.71700000      48.81900000      32.75900000
 H      22.44900000      49.47200000      32.57000000
 H      21.98200000      48.01900000      32.25700000
 O      28.17000000      48.09100000      29.33800000
 H      28.16900000      48.70400000      30.16100000
 H      27.45200000      48.57100000      28.86600000
 O      25.52600000      48.26200000      34.74300000
 H      25.07000000      49.10900000      34.51100000
 H      25.84900000      47.99400000      33.85800000
 O      24.29800000      45.45700000      23.88400000
 H      23.77200000      45.15200000      24.62000000
 H      24.30100000      44.63200000      23.31200000
 O      23.67400000      47.43400000      22.09300000
 H      22.92500000      47.81400000      22.49700000
 H      23.90100000      46.68500000      22.69400000
 O      26.00300000      43.33400000      36.72700000
 H      25.66700000      43.96300000      36.09600000
 H      25.31900000      43.29300000      37.41100000
 O      24.22100000      47.14700000      37.83400000
 H      24.00200000      46.30000000      38.23900000
 H      25.19300000      47.11800000      37.82700000
 O      36.81300000      43.61300000      23.22700000
 H      36.45700000      43.59600000      24.14300000
 H      36.03900000      43.55600000      22.71500000
 O      22.30000000      45.62200000      35.35700000
 H      21.81800000      45.51200000      36.19700000
 H      21.85700000      46.33300000      34.83600000
 O      39.38900000      46.92100000      36.20900000
 H      38.90800000      47.28500000      35.37600000
 H      39.10300000      46.01400000      36.17600000
 O      27.93700000      48.49900000      35.98400000
 H      27.76700000      48.04700000      36.87500000
 H      26.99200000      48.59300000      35.69900000
 O      32.60500000      46.95700000      30.96200000
 H      33.04900000      46.24300000      30.38700000
 H      32.03800000      47.35600000      30.36000000
 O      26.48600000      43.86600000      40.90700000
 H      26.21100000      43.05800000      40.38000000
 H      25.78600000      43.71500000      41.65100000
 O      29.04100000      48.12100000      39.58500000
 H      28.85300000      48.67700000      40.33700000
 H      29.98200000      47.85600000      39.80400000
 O      25.01100000      44.77300000      28.63100000
 H      25.03000000      45.37900000      29.37900000
 H      25.00000000      43.92000000      29.10700000
 O      34.62000000      46.67600000      40.86900000
 H      35.22000000      46.13500000      40.37500000
 H      34.55800000      46.16400000      41.69000000
 O      28.90900000      45.66100000      28.53300000
 H      28.67000000      46.55700000      28.13100000
 H      28.66400000      45.77700000      29.42100000
 O      37.98400000      44.67400000      29.90800000
 H      37.51800000      45.50300000      30.06100000
 H      38.42200000      44.53900000      30.76400000
 O      39.36500000      44.66400000      26.88700000
 H      39.92600000      45.33200000      27.35900000
 H      38.52400000      44.73500000      27.34600000
 O      32.77900000      43.25800000      34.82200000
 H      33.01300000      43.99700000      34.19800000
 H      31.82800000      43.57600000      35.01400000
 O      24.46800000      48.27600000      29.58500000
 H      24.22300000      48.25200000      28.62700000
 H      25.02700000      49.06500000      29.65900000
 O      30.52300000      43.40500000      24.24500000
 H      30.96400000      42.97300000      25.04100000
 H      31.24000000      43.31800000      23.61400000
 O      29.77100000      44.43100000      36.13700000
 H      30.16900000      44.81400000      36.90100000
 H      29.25100000      45.20000000      35.76900000
 O      34.86900000      49.18300000      39.62600000
 H      35.10200000      48.84200000      38.72200000
 H      34.56200000      48.33300000      40.00800000
 O      32.73700000      43.29800000      22.70000000
 H      33.32400000      42.84800000      23.32600000
 H      33.16400000      42.89800000      21.90000000
 O      31.69400000      45.93600000      22.09300000
 H      32.45200000      46.41700000      21.76000000
 H      32.11600000      45.10100000      22.39500000
 O      38.94400000      49.06900000      37.57400000
 H      38.88300000      48.09900000      37.25500000
 H      39.87500000      49.23200000      37.33500000
 O      22.98500000      44.85800000      38.87500000
 H      22.25600000      44.91900000      39.52600000
 H      23.04900000      43.85200000      38.84000000
 O      21.85100000      42.42100000      24.96800000
 H      21.04600000      42.79500000      25.36600000
 H      22.46800000      42.34200000      25.68700000
 O      34.84100000      43.66900000      31.83100000
 H      34.63000000      42.86300000      32.37000000
 H      35.05200000      44.27700000      32.63000000
 O      29.72200000      47.93900000      26.49700000
 H      29.14600000      47.22400000      26.11600000
 H      30.61500000      47.44600000      26.34400000
 O      38.43400000      48.03400000      24.55700000
 H      38.36500000      48.98300000      24.47400000
 H      39.26500000      48.07600000      25.13800000
 O      27.15100000      43.21900000      32.01500000
 H      27.23000000      42.27500000      32.15200000
 H      27.69100000      43.34500000      31.19300000
 O      37.90500000      45.99100000      32.84500000
 H      38.33000000      46.85700000      33.02600000
 H      37.33900000      46.29700000      32.09900000
 O      34.98000000      45.52200000      37.24700000
 H      35.16700000      46.45500000      37.09400000
 H      35.50600000      45.35300000      38.06700000
 O      35.07500000      48.33000000      37.02400000
 H      35.82600000      48.74400000      36.57200000
 H      34.35100000      48.74600000      36.46700000
 O      28.71700000      45.97200000      24.69000000
 H      29.27200000      45.15400000      24.63700000
 H      29.03900000      46.35000000      23.83500000
 O      40.22600000      46.77800000      40.78000000
 H      41.16400000      46.97500000      40.97400000
 H      40.07100000      46.01800000      41.42200000
 O      35.52600000      43.58500000      25.65700000
 H      35.34400000      44.45600000      26.08600000
 H      35.18000000      42.96400000      26.34200000
 O      24.95900000      45.38900000      35.28100000
 H      25.34300000      46.26000000      35.46500000
 H      24.02100000      45.72800000      35.19200000
 O      38.68700000      48.99000000      40.27600000
 H      39.22600000      48.14600000      40.51400000
 H      38.79900000      48.99000000      39.30200000
 O      30.78500000      48.54000000      23.06300000
 H      31.35800000      49.10400000      23.54000000
 H      31.30900000      47.93100000      22.57500000
 O      39.11500000      42.62300000      21.65700000
 H      39.62500000      42.70400000      22.48400000
 H      38.29100000      43.00100000      21.88500000
 O      22.73200000      48.66400000      36.34400000
 H      23.36700000      48.12800000      36.86400000
 H      23.29800000      49.28200000      35.88300000
 O      36.62800000      47.09600000      30.98200000
 H      35.81700000      47.47900000      30.56200000
 H      37.19600000      47.89400000      30.84000000
 O      29.04600000      46.81700000      31.97700000
 H      29.60400000      47.20400000      31.29000000
 H      29.72600000      46.44500000      32.57400000
 O      35.41300000      47.99700000      23.07000000
 H      34.84700000      48.65100000      23.47700000
 H      36.05800000      47.83000000      23.78100000
 O      39.91500000      48.56100000      20.41100000
 H      38.96800000      48.26100000      20.40800000
 H      40.16500000      48.27900000      21.31600000
 O      28.80200000      43.17000000      29.87800000
 H      28.44800000      42.34100000      29.60100000
 H      28.58700000      43.79900000      29.15700000
 O      21.02600000      48.25900000      22.60900000
 H      20.28100000      47.59400000      22.53400000
 H      20.64300000      48.96800000      22.06700000
 O      33.37900000      48.48400000      32.83700000
 H      32.58200000      49.04700000      32.96900000
 H      33.03400000      47.94700000      32.03800000
 O      38.93700000      43.83400000      36.19600000
 H      39.81900000      43.73100000      36.54700000
 H      38.39100000      43.37200000      36.94500000
 O      27.82200000      46.01900000      34.83700000
 H      26.90400000      45.82800000      34.64500000
 H      27.90100000      46.98800000      34.71400000
 O      20.57500000      42.87200000      38.40300000
 H      20.04300000      42.27800000      37.81500000
 H      21.38800000      42.44500000      38.51500000
 O      38.62800000      48.33000000      33.90300000
 H      37.64900000      48.42600000      34.04700000
 H      38.84500000      49.28200000      33.64800000
 O      32.04200000      45.47800000      33.50500000
 H      32.01500000      46.10500000      34.22000000
 H      32.16000000      45.99700000      32.70800000
 O      34.01800000      46.88200000      20.64600000
 H      33.72400000      47.66200000      20.16500000
 H      34.39700000      47.27200000      21.45100000
 O      37.87500000      48.42200000      28.15000000
 H      38.50700000      48.26900000      27.41200000
 H      38.49200000      48.53900000      28.90800000
 O      26.25400000      46.79600000      25.51800000
 H      25.50300000      46.52200000      24.95400000
 H      27.02400000      46.49700000      25.08000000
 O      32.24600000      46.45100000      37.05900000
 H      31.80500000      45.92900000      37.76800000
 H      33.17200000      46.03400000      37.11000000
 O      31.71400000      42.62400000      29.83900000
 H      31.68100000      41.78500000      30.36000000
 H      30.79000000      42.90600000      30.11500000
 O      35.99600000      48.41400000      34.13100000
 H      35.12600000      48.32600000      33.62200000
 H      36.24800000      49.31200000      33.98900000
 O      21.38300000      47.07500000      40.78800000
 H      21.38400000      47.42000000      39.85700000
 H      20.92800000      46.25600000      40.63600000
 O      38.40600000      46.02600000      22.72700000
 H      38.41900000      46.64200000      23.49400000
 H      37.84000000      45.34200000      22.94000000
 O      31.74000000      48.16600000      40.76500000
 H      32.02900000      48.86300000      41.37500000
 H      32.39400000      47.55500000      40.72200000
 O      23.23100000      45.48600000      26.38100000
 H      23.82700000      45.29600000      27.06800000
 H      22.36100000      45.36300000      26.76800000
 O      31.29700000      42.64300000      40.22900000
 H      30.49500000      42.37300000      40.75200000
 H      31.98200000      42.29500000      40.82400000
 O      32.09300000      46.36500000      26.38300000
 H      31.82100000      45.43400000      26.35600000
 H      33.02400000      46.38700000      26.22300000
 O      36.38900000      42.48700000      29.72300000
 H      37.08600000      43.22300000      29.65600000
 H      36.08200000      42.74300000      30.60300000
 O      37.38200000      47.61400000      20.49800000
 H      37.85200000      47.10400000      21.16900000
 H      36.57900000      47.81700000      21.08000000
 O      28.24200000      43.74200000      21.85100000
 H      28.57600000      43.66500000      22.76300000
 H      28.80900000      43.03100000      21.44700000
 O      33.68000000      44.42400000      29.58000000
 H      34.27000000      44.00600000      30.22400000
 H      32.90100000      43.75500000      29.76600000
 O      35.36200000      45.05200000      34.02400000
 H      36.21500000      45.36600000      33.72500000
 H      35.15000000      45.83800000      34.57800000
 O      29.79500000      43.07900000      32.93800000
 H      28.93000000      43.47300000      33.12500000
 H      30.38100000      43.42600000      33.60400000
 O      23.63700000      48.49500000      26.63700000
 H      22.74800000      48.29900000      26.17700000
 H      24.12000000      47.71300000      26.35900000
 O      27.71100000      44.01200000      26.81200000
 H      28.36400000      44.61700000      27.17200000
 H      26.86900000      44.43100000      27.18000000
 O      24.51700000      42.37500000      29.80600000
 H      24.14200000      42.08400000      30.71900000
 H      24.64400000      41.47700000      29.44900000
 O      36.74300000      45.11400000      39.62500000
 H      36.66500000      44.20300000      39.27600000
 H      37.61800000      45.04600000      40.09900000
 O      20.90300000      47.62500000      38.07800000
 H      20.58000000      46.80600000      37.64900000
 H      21.62100000      47.89000000      37.45800000
