102
XYZ file of cluster: frame_10500_c2d39.9ed8e.c4643 - created by MolEdiTo
 O      25.77000000      21.13000000      29.57400000
 H      25.16600000      20.49900000      29.07800000
 H      26.36000000      20.59500000      30.22100000
 O      26.23700000      25.10200000      28.67300000
 H      25.79200000      25.75200000      29.23400000
 H      26.29400000      24.23300000      29.09200000
 O      29.90100000      21.43300000      28.14500000
 H      29.78000000      21.79200000      29.04900000
 H      28.95600000      21.28700000      27.72400000
 O      28.50900000      28.42700000      26.09700000
 H      28.31000000      27.51100000      26.31700000
 H      29.34100000      28.35400000      25.53700000
 O      26.64600000      28.77600000      28.14700000
 H      27.55100000      28.62400000      27.84200000
 H      26.44500000      29.71800000      28.13500000
 O      28.40100000      25.59800000      26.85700000
 H      28.06200000      24.85000000      26.31500000
 H      27.91400000      25.36200000      27.62600000
 O      29.67900000      29.94200000      28.66800000
 H      30.25000000      29.61700000      27.90800000
 H      29.11000000      30.65000000      28.23400000
 O      28.22800000      30.25800000      33.90200000
 H      28.99000000      29.98300000      34.37300000
 H      27.78400000      30.95800000      34.45700000
 O      30.60000000      26.02400000      34.69600000
 H      31.14700000      25.95600000      35.56100000
 H      30.05700000      25.24300000      34.66600000
 O      26.69700000      27.22200000      36.89500000
 H      27.52900000      26.75200000      36.93400000
 H      26.31600000      26.89700000      36.04400000
 O      27.82200000      27.28800000      32.41500000
 H      28.23500000      28.23100000      32.48400000
 H      26.94700000      27.58700000      32.01700000
 O      26.44900000      23.31900000      32.42600000
 H      26.35100000      22.58400000      31.77500000
 H      25.83400000      23.05200000      33.12100000
 O      28.96900000      24.74300000      32.51400000
 H      28.71200000      25.73000000      32.53400000
 H      28.11100000      24.38100000      32.63600000
 O      29.53200000      30.47400000      37.30600000
 H      28.56900000      30.38800000      37.53000000
 H      29.65500000      29.75500000      36.67800000
 O      27.33900000      23.84700000      35.53400000
 H      27.22100000      23.73400000      36.59700000
 H      26.49900000      24.05800000      35.11200000
 O      29.58900000      21.93200000      32.53200000
 H      29.19000000      21.56300000      33.29400000
 H      29.74100000      22.83300000      32.85600000
 O      35.51200000      21.49100000      25.99100000
 H      36.37400000      21.47300000      25.46000000
 H      35.64100000      21.91200000      26.84800000
 O      35.81100000      24.75900000      26.29900000
 H      36.07200000      24.83200000      25.37700000
 H      34.84000000      24.49500000      26.17500000
 O      33.13800000      29.20500000      26.62100000
 H      32.76600000      28.64000000      25.90500000
 H      34.10900000      29.08100000      26.42400000
 O      32.44100000      26.71900000      28.34800000
 H      31.56100000      26.36200000      28.03100000
 H      32.41200000      27.74300000      28.27200000
 O      32.91700000      24.10000000      27.15800000
 H      32.71600000      23.41600000      27.75800000
 H      32.70500000      25.00600000      27.62500000
 O      35.97000000      30.62000000      28.09200000
 H      35.45800000      30.04300000      28.68800000
 H      36.56500000      30.00600000      27.70900000
 O      35.58700000      22.51000000      30.26400000
 H      35.86700000      22.88700000      29.36400000
 H      34.78900000      23.08200000      30.59400000
 O      35.08300000      28.95000000      30.05800000
 H      35.31000000      28.08600000      29.64600000
 H      35.38500000      28.82300000      31.03700000
 O      35.36500000      26.77500000      28.32300000
 H      35.62700000      26.51700000      27.41600000
 H      34.42300000      26.73600000      28.35200000
 O      32.30700000      22.35400000      35.98500000
 H      31.53600000      22.41000000      35.35900000
 H      31.92600000      22.63100000      36.89100000
 O      33.41600000      24.35100000      32.39800000
 H      33.27200000      24.00500000      31.55400000
 H      32.58500000      24.83000000      32.54500000
 O      34.17200000      30.35100000      36.47200000
 H      33.32600000      30.45100000      35.96000000
 H      34.14100000      30.60800000      37.42400000
 O      35.24000000      21.94200000      35.80400000
 H      34.35200000      22.23100000      35.48700000
 H      35.52400000      22.89600000      35.76500000
 O      36.69400000      20.63200000      33.81000000
 H      36.74400000      21.52100000      33.45700000
 H      35.98600000      20.86000000      34.44100000
 O      35.71100000      29.16400000      34.32200000
 H      36.39000000      28.76500000      34.85300000
 H      35.29100000      29.79300000      35.01100000
 O      33.15600000      25.02800000      37.17200000
 H      33.77600000      24.62900000      36.50900000
 H      33.02500000      24.34200000      37.88200000
 O      32.30500000      29.17800000      34.35200000
 H      32.52500000      28.23900000      34.13200000
 H      32.63200000      29.77100000      33.61400000
 O      34.89300000      24.57300000      34.94700000
 H      35.76000000      25.00200000      34.76600000
 H      34.41700000      24.64700000      34.12200000
