129
XYZ file of cluster: frame_10500_7064b.54ce.770a6 - created by MolEdiTo
 O      22.69700000       2.96800000      16.53000000
 H      22.83800000       3.92600000      16.43000000
 H      23.42000000       2.59500000      17.00900000
 O      19.77200000      10.14800000      21.82200000
 H      19.99400000      10.80600000      21.15400000
 H      20.40600000       9.40800000      21.71900000
 O      15.80100000       1.34200000      15.38200000
 H      16.40100000       0.68400000      15.70900000
 H      15.32700000       1.55100000      16.20900000
 O      20.15000000       7.39100000      26.82000000
 H      19.54000000       7.72400000      26.12000000
 H      19.57900000       6.96400000      27.52400000
 O      19.20300000       4.92900000      20.39700000
 H      18.82900000       5.75400000      19.99800000
 H      18.76800000       4.70700000      21.23000000
 O      24.61200000       1.64700000      23.86100000
 H      23.94500000       1.35000000      24.52300000
 H      25.07000000       2.38600000      24.31900000
 O      25.73100000       4.10000000      25.00700000
 H      25.26500000       4.26700000      25.89100000
 H      26.59000000       4.50800000      25.16500000
 O      20.81500000       5.99300000      22.67700000
 H      21.40500000       6.74500000      22.44600000
 H      20.47100000       5.82300000      21.74800000
 O      18.68400000       8.54700000      24.51300000
 H      17.76400000       8.63500000      24.09000000
 H      19.31300000       8.88400000      23.86000000
 O      23.93300000       4.40300000      22.73100000
 H      23.22400000       3.86700000      23.14700000
 H      24.71700000       4.10400000      23.16100000
 O      19.23700000       1.94700000      26.23600000
 H      19.07100000       1.47300000      25.35400000
 H      18.24700000       2.15700000      26.53500000
 O      17.68800000       3.69800000      17.95000000
 H      17.68800000       4.43800000      18.54600000
 H      17.26900000       4.04500000      17.15200000
 O      16.32900000       7.83700000      23.25100000
 H      15.87300000       7.24400000      22.71100000
 H      16.30500000       8.52400000      22.54100000
 O      23.76100000       5.26100000      16.45500000
 H      23.93100000       6.09100000      16.97200000
 H      23.79200000       5.44700000      15.46500000
 O      15.37900000       5.81000000      18.99400000
 H      15.96300000       6.56700000      18.85000000
 H      14.91600000       6.00700000      19.79900000
 O      23.42600000      10.25600000      26.64700000
 H      24.11000000       9.67400000      26.24500000
 H      22.69000000      10.51800000      26.05200000
 O      22.46100000      10.43700000      23.93700000
 H      21.58200000      10.88700000      23.83900000
 H      22.20500000       9.55100000      24.42000000
 O      26.82700000       1.30400000      20.79200000
 H      25.82100000       1.14400000      20.48700000
 H      26.73900000       2.17900000      21.32100000
 O      20.34200000       4.62300000      16.52500000
 H      20.93700000       3.91600000      16.25400000
 H      19.98300000       4.32400000      17.35700000
 O      23.12900000      11.17400000      20.59700000
 H      23.17200000      10.21000000      20.58500000
 H      23.85300000      11.42300000      20.08800000
 O      21.56300000       6.82800000      17.98200000
 H      21.27400000       6.12200000      17.30400000
 H      21.84400000       7.50900000      17.26000000
 O      24.92700000       8.06300000      16.82700000
 H      24.71900000       8.37600000      15.91300000
 H      25.29200000       8.88000000      17.22100000
 O      26.35200000       9.31900000      21.79000000
 H      25.75000000      10.06400000      21.86000000
 H      25.86900000       8.51200000      22.13500000
 O      26.32400000       5.03200000      19.56600000
 H      26.57100000       5.93500000      19.43700000
 H      25.36900000       5.02800000      19.56800000
 O      17.60500000       7.19600000      18.17100000
 H      17.32900000       7.30300000      17.22900000
 H      18.18100000       7.95900000      18.31800000
 O      21.72300000       3.78000000      24.29100000
 H      21.17100000       3.08800000      23.99600000
 H      21.39700000       4.56900000      23.87600000
 O      17.17500000       9.98900000      18.68300000
 H      17.25500000      10.95400000      18.67100000
 H      17.65600000       9.71800000      17.84700000
 O      22.57100000       7.94800000      22.07300000
 H      23.12200000       8.15000000      22.93500000
 H      23.25200000       7.87700000      21.31200000
 O      24.41100000       7.90600000      19.80000000
 H      25.41800000       8.02800000      19.75200000
 H      24.17900000       7.76700000      18.89600000
 O      23.20800000       7.88700000      25.00300000
 H      23.73600000       7.03900000      25.09200000
 H      22.65400000       7.86800000      25.84200000
 O      17.26600000       2.99600000      21.28700000
 H      17.86600000       3.10900000      22.09600000
 H      17.92200000       2.94700000      20.52600000
 O      15.36200000       9.12900000      20.88300000
 H      14.51800000       9.22500000      20.49100000
 H      16.01900000       9.60300000      20.32000000
 O      18.73000000       9.31300000      16.53900000
 H      19.64800000       9.48300000      16.27100000
 H      18.35500000       9.25900000      15.57800000
 O      25.22000000       6.88400000      22.71500000
 H      24.82700000       5.97600000      22.57700000
 H      25.12000000       6.95900000      23.67500000
 O      18.86700000       3.83100000      23.60700000
 H      18.67900000       3.32800000      24.46200000
 H      19.06600000       4.75300000      23.94100000
 O      17.32000000       5.61600000      25.75700000
 H      16.50200000       5.32900000      25.27600000
 H      17.51900000       6.56500000      25.59000000
 O      23.00000000       5.39600000      26.43700000
 H      22.30000000       5.13200000      25.83300000
 H      22.71500000       4.92300000      27.26900000
 O      18.95700000       1.13600000      18.23600000
 H      18.90700000       2.10000000      17.83100000
 H      19.90400000       1.08700000      18.11300000
 O      26.02500000       6.86000000      26.05500000
 H      25.93500000       6.55300000      27.04800000
 H      26.73600000       7.52100000      25.95100000
 O      17.18400000      10.95000000      22.33500000
 H      16.50900000      10.43800000      21.79500000
 H      18.10800000      10.68300000      21.94700000
 O      26.19100000       3.28200000      17.28400000
 H      26.23700000       3.93900000      18.01800000
 H      25.39500000       3.64000000      16.76300000
 O      23.38400000       4.33200000      20.09100000
 H      23.72700000       4.09600000      21.01200000
 H      23.21700000       5.29700000      20.22300000
 O      21.06300000       2.63600000      20.22700000
 H      21.77100000       3.24100000      19.91200000
 H      20.33700000       3.27500000      20.20300000
