145
XYZ file of cluster: frame_10500_24138.67d24.6fb24 - created by MolEdiTo
 O       8.98100000      21.92900000      22.23200000
 H       8.07700000      22.15600000      22.10900000
 H       9.43400000      22.71200000      22.63000000
 O      11.07900000      18.64300000      18.82400000
 H      10.14700000      18.75900000      19.02500000
 H      11.25700000      19.57500000      18.62600000
 O      13.69800000      16.95100000      25.25300000
 H      14.41800000      17.56000000      25.40700000
 H      13.80900000      16.60600000      24.29200000
 O      15.90400000      15.95100000      18.87000000
 H      15.26900000      15.82100000      18.14100000
 H      15.42700000      15.36800000      19.59700000
 O       7.43600000      17.40500000      21.19900000
 H       7.90300000      16.56100000      20.97600000
 H       7.00300000      17.63000000      20.40100000
 O      10.81000000      24.17600000      22.30300000
 H      10.21900000      24.92400000      21.98800000
 H      11.64700000      24.27800000      21.74700000
 O       6.02200000      23.92100000      17.28600000
 H       5.94100000      24.28700000      16.39000000
 H       5.34300000      24.26600000      17.90200000
 O       6.65400000      26.39700000      22.18600000
 H       7.41400000      26.19600000      22.74000000
 H       7.02100000      26.73300000      21.39900000
 O      12.83000000      19.51600000      20.83900000
 H      13.38900000      20.00700000      21.50800000
 H      12.41000000      18.78100000      21.33200000
 O       8.83500000      20.28300000      20.06800000
 H       9.18500000      20.90400000      20.77900000
 H       8.46600000      20.98100000      19.52500000
 O      11.36000000      17.85800000      22.96200000
 H      10.48000000      18.17800000      23.20600000
 H      11.14600000      16.92700000      22.71700000
 O      14.52600000      21.13700000      22.49800000
 H      14.98100000      21.78500000      23.12800000
 H      15.07400000      21.00800000      21.74100000
 C      17.11700000      14.53300000      15.49400000
 C      16.37600000      15.79300000      15.43700000
 C      14.16100000      17.08600000      15.35600000
 H      14.44800000      15.20400000      14.74400000
 H      18.54800000      15.61600000      15.54600000
 O      14.33900000      15.06200000      16.73900000
 O      16.59800000      13.39800000      15.35600000
 O      18.43400000      14.64800000      15.36600000
 C      14.80400000      15.71700000      15.54200000
 O      17.03400000      16.77900000      16.37100000
 H      16.61200000      16.12200000      14.43300000
 O      14.78200000      18.00100000      14.82900000
 O      13.19500000      17.45200000      16.21600000
 H      13.02000000      16.64000000      16.77400000
 H      16.93100000      17.71300000      16.05700000
 H      14.94200000      14.32800000      16.87700000
 O      12.93000000      24.29000000      20.65800000
 H      13.73700000      23.68100000      20.69900000
 H      13.25500000      25.08800000      20.25700000
 O      13.25700000      20.98100000      18.51100000
 H      13.22100000      20.28800000      19.20600000
 H      13.72900000      21.76800000      18.90400000
 O       8.56600000      25.00500000      18.24100000
 H       7.61900000      25.09800000      17.94700000
 H       8.77600000      25.89400000      18.59400000
 O      13.44400000      16.87300000      19.82500000
 H      13.55600000      17.85000000      19.81800000
 H      12.79000000      16.72600000      19.11700000
 O       7.73300000      15.69200000      18.82700000
 H       7.84800000      16.60900000      18.38400000
 H       8.17200000      15.16100000      18.12200000
 O      13.81000000      25.99100000      23.61800000
 H      12.95700000      25.47900000      23.88700000
 H      14.16000000      25.56000000      22.82100000
 O      16.14600000      25.05500000      15.27500000
 H      16.76000000      24.57900000      15.88900000
 H      15.27700000      24.59300000      15.31900000
 O      14.44800000      22.33600000      25.74700000
 H      14.91600000      21.84900000      26.45600000
 H      13.54600000      22.02900000      25.92600000
 O      16.15000000      18.12200000      22.19600000
 H      15.65600000      17.69800000      21.46700000
 H      16.48600000      18.93200000      21.75700000
 O      11.42400000      24.78200000      17.97500000
 H      10.61700000      25.12300000      18.34800000
 H      11.99700000      24.80300000      18.78400000
 O       7.93000000      18.18700000      17.66700000
 H       8.04500000      18.83200000      18.45100000
 H       7.48400000      18.72800000      16.96600000
 O       8.61100000      19.27000000      26.67700000
 H       8.07900000      18.90400000      27.35700000
 H       8.11000000      19.27900000      25.84600000
 O       6.38500000      19.69200000      25.09800000
 H       5.81100000      19.86300000      24.30400000
 H       5.88300000      18.89700000      25.42400000
 O      11.79300000      20.06800000      25.16800000
 H      11.14300000      19.81600000      24.47300000
 H      12.63900000      19.81500000      24.68400000
 O      11.18300000      15.93400000      17.50000000
 H      10.71500000      16.02000000      16.60700000
 H      10.78700000      16.61100000      18.12100000
 O      10.50300000      17.10300000      26.05500000
 H       9.93500000      17.86200000      25.73700000
 H      11.37000000      17.40100000      25.79600000
 O       9.92100000      17.95800000      15.46700000
 H       9.47600000      17.93800000      16.33200000
 H      10.38800000      18.85700000      15.45500000
 O      10.01800000      25.97700000      15.58200000
 H      10.00700000      25.16600000      16.09300000
 H       9.14400000      26.38700000      15.74800000
 O       8.89400000      18.76600000      23.62900000
 H       8.85000000      18.63400000      22.65200000
 H       8.36500000      19.60000000      23.67100000
 O       7.20900000      23.18600000      24.63200000
 H       7.22000000      22.30700000      25.07300000
 H       7.72600000      23.73900000      25.22100000
 O       7.78600000      21.52800000      17.56300000
 H       7.24800000      22.40600000      17.45500000
 H       7.59200000      21.04500000      16.77400000
 O       6.63200000      26.42700000      25.29900000
 H       7.01700000      26.19500000      24.45000000
 H       6.96500000      25.75000000      25.94000000
 O      15.23400000      22.86800000      19.65600000
 H      15.58100000      23.82100000      19.45900000
 H      16.12400000      22.40800000      19.65300000
 O      16.52400000      26.83100000      24.69400000
 H      15.61500000      26.69500000      24.15700000
 H      17.06900000      26.17200000      24.26200000
 O       4.66000000      21.57000000      15.81100000
 H       4.84100000      22.28300000      16.48100000
 H       5.48700000      21.29900000      15.41200000
 O      10.10600000      22.65300000      16.66000000
 H       9.52200000      22.13300000      17.34200000
 H      10.75300000      23.19900000      17.21000000
 O      11.51300000      24.63600000      25.04800000
 H      11.15700000      24.10500000      24.29800000
 H      11.33900000      24.04100000      25.87700000
 O      13.97500000      22.80800000      16.06400000
 H      13.21200000      22.91700000      16.63900000
 H      13.86300000      21.99200000      15.65000000
 O       7.85300000      15.52500000      24.92600000
 H       7.90800000      15.24900000      25.85600000
 H       8.14700000      16.48500000      24.91500000
 O      15.49700000      18.57800000      18.25400000
 H      14.67700000      18.43400000      17.66400000
 H      15.98100000      17.79400000      18.18900000
 O       6.98500000      23.84000000      20.86500000
 H       6.74100000      24.56300000      21.55800000
 H       7.97100000      23.79700000      20.58900000
