129
XYZ file of cluster: frame_10500_7875c.771a4.c5daa - created by MolEdiTo
 O      21.69700000      19.52800000      29.52300000
 H      20.94500000      19.19800000      29.01800000
 H      22.41000000      19.66800000      28.90500000
 O      18.93900000      16.18900000      26.41000000
 H      18.47600000      16.20600000      25.56600000
 H      18.39500000      15.50800000      26.86100000
 O      19.86700000      15.71600000      29.34800000
 H      20.03000000      16.18800000      30.28300000
 H      19.98400000      16.46500000      28.78600000
 O      20.44900000      23.41800000      29.70600000
 H      21.06000000      23.35400000      28.96300000
 H      19.83800000      22.68100000      29.54600000
 O      26.23700000      25.10200000      28.67300000
 H      25.79200000      25.75200000      29.23400000
 H      26.29400000      24.23300000      29.09200000
 O      17.65800000      23.80400000      26.71800000
 H      18.43700000      24.40100000      26.42300000
 H      17.13500000      24.55700000      27.12500000
 O      25.77000000      21.13000000      29.57400000
 H      25.16600000      20.49900000      29.07800000
 H      26.36000000      20.59500000      30.22100000
 O      21.61600000      21.00300000      26.78800000
 H      21.94200000      20.35900000      26.12500000
 H      21.17700000      21.64000000      26.16600000
 O      24.27000000      19.46900000      27.94900000
 H      24.47100000      18.74900000      28.61100000
 H      24.24400000      19.05200000      27.10300000
 O      20.25200000      25.09800000      26.34600000
 H      21.03900000      25.37100000      25.82200000
 H      20.43300000      25.58900000      27.07400000
 O      19.62200000      18.78900000      28.14100000
 H      18.80500000      18.41100000      27.76600000
 H      19.54300000      19.67800000      27.75100000
 O      24.71000000      23.89000000      26.43000000
 H      24.74800000      24.83500000      26.52100000
 H      24.12800000      23.70200000      25.65300000
 O      15.94100000      17.06200000      29.53100000
 H      15.58100000      17.60100000      30.27300000
 H      16.14100000      17.84000000      28.91600000
 O      23.23600000      16.57500000      27.28400000
 H      22.99400000      16.13400000      28.15100000
 H      24.07100000      16.14400000      26.91000000
 O      25.53300000      17.21800000      29.25300000
 H      26.05000000      16.44000000      28.88300000
 H      24.66200000      16.88000000      28.99400000
 O      16.68900000      18.82600000      27.69600000
 H      16.49200000      18.77800000      26.71800000
 H      16.29400000      19.68200000      28.07100000
 O      22.86200000      23.09700000      28.31400000
 H      23.76000000      23.33200000      27.89000000
 H      22.52300000      22.34200000      27.76200000
 O      18.54500000      21.29700000      27.15800000
 H      18.17500000      20.88100000      26.36600000
 H      18.19400000      22.21000000      27.10600000
 O      17.72700000      20.03800000      34.95700000
 H      18.62600000      20.15600000      34.59400000
 H      17.42900000      20.93000000      35.08100000
 O      18.82000000      18.61100000      37.20000000
 H      18.65300000      19.04200000      36.31000000
 H      17.94900000      18.39600000      37.46000000
 O      23.38600000      21.15000000      33.49900000
 H      23.56000000      22.01000000      33.94000000
 H      23.32300000      21.47000000      32.59800000
 O      16.15400000      18.86100000      33.14000000
 H      16.62000000      19.03600000      33.96700000
 H      16.34000000      19.65000000      32.62800000
 O      17.09600000      22.18500000      33.16500000
 H      16.17100000      22.33800000      32.90800000
 H      17.60200000      23.01800000      32.91300000
 O      21.48900000      18.84600000      36.69500000
 H      20.54600000      18.59300000      36.84600000
 H      21.82200000      18.95600000      37.61100000
 O      18.50300000      22.69700000      36.49800000
 H      19.03800000      23.45000000      36.77000000
 H      18.72200000      22.57600000      35.58900000
 O      19.35600000      25.39400000      35.60500000
 H      20.24600000      25.06700000      35.19800000
 H      18.90200000      25.26800000      34.74000000
 O      26.44900000      23.31900000      32.42600000
 H      26.35100000      22.58400000      31.77500000
 H      25.83400000      23.05200000      33.12100000
 O      24.56300000      20.95100000      36.58900000
 H      24.50800000      20.86300000      35.64900000
 H      23.79600000      20.36200000      36.90000000
 O      20.88500000      15.86600000      36.07900000
 H      20.38900000      16.64200000      36.46200000
 H      20.14500000      15.37000000      35.63300000
 O      18.12200000      16.71400000      33.09000000
 H      17.66100000      17.54600000      32.99800000
 H      19.07600000      16.96300000      33.26600000
 O      22.77300000      18.64200000      34.37200000
 H      22.62800000      18.61300000      35.35100000
 H      22.68800000      19.63100000      34.24600000
 O      20.74600000      23.65300000      34.14500000
 H      21.11000000      23.10900000      34.83800000
 H      21.32500000      23.62700000      33.37000000
 O      22.42300000      26.99200000      35.00700000
 H      22.31300000      26.18600000      35.53200000
 H      22.35100000      26.64700000      34.01200000
 O      20.00200000      20.15200000      33.53800000
 H      19.49500000      20.62000000      32.85400000
 H      20.44000000      19.40300000      33.08000000
 O      17.64600000      16.12900000      35.99800000
 H      17.69900000      16.06900000      34.99200000
 H      16.72500000      15.68400000      36.14900000
 O      23.82000000      23.59600000      34.71100000
 H      24.15700000      24.47300000      34.38200000
 H      23.32600000      23.88000000      35.44900000
 O      15.95300000      25.33100000      35.54300000
 H      15.83700000      25.50300000      34.57200000
 H      16.54800000      24.53500000      35.56500000
 O      18.37000000      24.56700000      32.57800000
 H      18.01000000      25.12000000      31.72700000
 H      19.19100000      24.14100000      32.24000000
 O      20.92700000      17.27900000      33.11200000
 H      21.06900000      17.66200000      33.96600000
 H      21.64100000      17.74500000      32.63600000
 O      22.34500000      25.67600000      32.63100000
 H      21.74300000      25.28700000      31.95400000
 H      23.22600000      25.71100000      32.18400000
 O      24.13400000      16.46200000      33.45500000
 H      23.85900000      17.30200000      33.84700000
 H      24.84000000      16.74100000      32.75000000
 O      21.32200000      21.81100000      36.13300000
 H      21.72400000      21.77600000      37.01400000
 H      20.92300000      20.91000000      35.95500000
 O      15.56000000      25.70200000      32.78100000
 H      15.65900000      25.01900000      32.07100000
 H      15.88000000      26.56700000      32.36000000
