%chk=cluster_314.chk
%mem=6GB
%nproc=4
#b3lyp/6-311++G** scrf=(cpcm,Solvent=Water) nosymm freq
iop(2/11=1) 
 Geom=(NoDistance,NoAngle)

cluster_314

0 1
 O      10.06000000       3.99200000      14.60500000
 H      10.93000000       3.66200000      14.72600000
 H      10.12300000       4.52400000      15.46100000
 O      14.95700000       4.54800000      13.75500000
 H      15.52300000       4.60700000      14.51500000
 H      14.30900000       3.86700000      14.13900000
 O      17.07800000       5.75700000      15.93300000
 H      17.19300000       6.38300000      16.66700000
 H      17.34000000       4.84600000      16.17200000
 O      10.87600000       4.41700000      17.12400000
 H      11.74500000       4.65600000      17.45500000
 H      10.54700000       3.57600000      17.44600000
 O      11.39700000       7.02100000      18.73800000
 H      10.47600000       6.86900000      18.35200000
 H      11.30600000       6.79600000      19.72900000
 O      12.58300000       4.40700000      19.88600000
 H      12.63400000       5.29100000      19.41500000
 H      13.49100000       4.54200000      20.34100000
 O      17.59100000       7.65200000      17.90400000
 H      17.88400000       8.59600000      17.97800000
 H      16.71900000       7.53100000      18.37700000
 O      15.18500000       8.82500000      18.33700000
 H      14.42900000       9.27400000      18.75000000
 H      15.71700000       9.62300000      18.11500000
 O      16.94700000       3.99400000      18.33000000
 H      16.91700000       3.40600000      19.12100000
 H      16.13000000       3.78600000      17.79400000
 O      15.40000000       8.61500000      15.51700000
 H      15.11100000       8.78700000      16.45600000
 H      14.88900000       7.80800000      15.27600000
 O      10.59500000       9.12600000      16.71300000
 H       9.60900000       8.90400000      16.53400000
 H      10.83600000       8.49800000      17.42300000
 O      13.47800000       6.14600000      16.89800000
 H      12.84800000       6.64600000      17.52000000
 H      14.34000000       6.54300000      17.02000000
 O      11.89400000       8.85100000      13.85800000
 H      11.07200000       9.21500000      13.38100000
 H      11.39100000       8.48000000      14.60800000

