%chk=cluster_314.chk
%mem=8GB
%nproc=8
#b3lyp/6-31G** scrf=(cpcm,Solvent=Water) nosymm force
iop(2/11=1)
 Geom=(NoDistance,NoAngle)
guess=checkpoint

cluster_314

0 1
 O      10.06137203     4.00580275    14.61796982
 H      10.86385993     3.48110055    14.49512616
 H      10.24429880     4.42301842    15.47954256
 O      14.95320236     4.51412314    13.74630264
 H      15.62552164     4.84575013    14.36862719
 H      14.27783532     4.14029927    14.32766213
 O      17.07761173     5.74351466    15.91325850
 H      17.15145943     6.57856249    16.41952288
 H      17.19366252     5.07075819    16.61156357
 O      10.86758129     4.42153195    17.11424091
 H      11.82228246     4.38024429    17.29890617
 H      10.50212268     3.59795005    17.46973768
 O      11.39122941     7.02310070    18.74868233
 H      10.92879488     6.27158586    18.32943192
 H      10.89299096     7.22336183    19.55485094
 O      12.59539678     4.41464144    19.89052120
 H      12.41226534     5.34238401    19.66850409
 H      13.54504325     4.40873221    20.06579502
 O      17.59145947     7.62110517    17.94643133
 H      18.05306509     8.42102301    17.66104635
 H      16.72227453     7.94609893    18.24767312
 O      15.19921946     8.85371475    18.30874420
 H      14.38508007     8.68266761    18.80403776
 H      15.43728769     9.76103363    18.54242004
 O      16.93400291     4.01363447    18.34037748
 H      17.35210968     3.20066606    18.65947167
 H      16.00712252     3.76597932    18.22127799
 O      15.41062914     8.59176770    15.51572332
 H      15.25138226     8.74673551    16.46355899
 H      14.57229145     8.22080026    15.20761922
 O      10.58592690     9.13128941    16.71498783
 H       9.66131308     8.89012133    16.56575777
 H      10.88998277     8.48164171    17.37548956
 O      13.45552971     6.17244940    16.91906605
 H      13.16322112     6.70545623    17.66968943
 H      14.41512936     6.28090555    16.86046041
 O      11.86405066     8.80797931    13.83467774
 H      11.51760744     9.63112475    13.46393033
 H      11.47497573     8.79502551    14.73338702

