612
XYZ file of cluster: frame_11000_9ba99.c4ff9.218ff - created by MolEdiTo
 O      33.71000000      36.17300000       8.49800000
 H      33.62000000      37.13500000       8.56500000
 H      33.39500000      35.99200000       7.57000000
 O      39.51000000      36.92800000      23.66900000
 H      40.39200000      36.73700000      23.27500000
 H      39.35700000      36.18700000      24.30200000
 O      29.46000000      36.69300000      36.21200000
 H      29.37800000      36.92400000      35.27600000
 H      28.71100000      36.10600000      36.41300000
 O      33.61800000      36.02600000      26.83100000
 H      33.77000000      36.21700000      25.86100000
 H      32.64200000      35.81200000      26.80700000
 O      31.21500000      37.68400000      10.56400000
 H      31.01000000      38.40700000       9.94900000
 H      32.18400000      37.96100000      10.75500000
 O      38.82400000      36.05500000      29.75800000
 H      39.60500000      35.57600000      29.36900000
 H      38.60700000      36.62600000      28.97400000
 O      29.90900000      35.67800000      17.76600000
 H      30.60100000      35.56000000      17.08400000
 H      29.17400000      36.08500000      17.29500000
 O      31.89800000      35.67100000      15.60700000
 H      31.59700000      36.60400000      15.56700000
 H      31.90000000      35.46400000      14.63500000
 O      34.77500000      39.97500000      20.86400000
 H      35.69300000      40.21700000      20.88800000
 H      34.47500000      40.25300000      21.77700000
 O      36.67100000      34.66300000      30.95800000
 H      37.38200000      35.20800000      30.53200000
 H      37.17600000      34.17400000      31.64200000
 O      33.02500000      40.22300000      14.72400000
 H      33.97800000      40.11400000      14.53800000
 H      33.02000000      40.97500000      15.36200000
 O      31.68900000      39.34400000      34.16800000
 H      31.89700000      38.41100000      33.95100000
 H      31.18500000      39.22300000      35.02000000
 O      34.93500000      36.29500000      20.79000000
 H      34.85700000      37.22700000      20.43600000
 H      35.84500000      36.47000000      21.27100000
 O      27.05100000      34.63800000      23.83800000
 H      27.70000000      33.92700000      24.14000000
 H      27.50600000      34.79200000      22.97100000
 O      35.19400000      37.25000000      13.23300000
 H      35.76100000      36.68600000      13.87100000
 H      34.84600000      36.52800000      12.67900000
 O      33.15100000      38.98000000       7.94800000
 H      32.36500000      39.41300000       8.32600000
 H      33.86400000      39.33500000       8.46000000
 O      39.27900000      39.29800000      29.98300000
 H      39.74000000      40.03300000      29.52600000
 H      38.47900000      39.30200000      29.39900000
 O      31.66800000      34.32800000       8.77300000
 H      30.98100000      34.84300000       9.23500000
 H      32.42700000      34.86800000       8.91100000
 O      39.32500000      39.38800000      25.35500000
 H      39.29300000      38.56200000      24.85000000
 H      40.26100000      39.65300000      25.01000000
 O      30.46000000      39.32600000      36.82000000
 H      30.11600000      39.65500000      37.66300000
 H      29.89500000      38.54300000      36.65000000
 O      32.57600000      39.21400000      40.06300000
 H      32.94600000      38.42000000      40.57600000
 H      33.37100000      39.84400000      40.18900000
 O      38.33400000      40.25700000      38.47800000
 H      37.87600000      39.92100000      39.26600000
 H      37.80500000      41.09400000      38.40600000
 O      27.14500000      39.32300000      37.36700000
 H      27.53200000      39.20500000      36.46200000
 H      27.95400000      39.33100000      37.89100000
 O      35.71900000      37.71000000      38.70300000
 H      35.19400000      38.43300000      38.40200000
 H      35.10300000      36.98000000      38.67100000
 O      32.14300000      39.18200000      25.66500000
 H      31.47200000      39.35500000      26.40700000
 H      31.61700000      39.57700000      24.90700000
 O      30.97200000      38.46400000      30.05300000
 H      31.93600000      38.43100000      29.93800000
 H      30.72600000      37.54400000      30.15000000
 O      38.42000000      34.65500000       7.40400000
 H      37.54700000      34.61800000       7.09900000
 H      38.77100000      33.80200000       6.97400000
 O      39.19800000      36.58700000      40.36800000
 H      39.58000000      37.34300000      40.88200000
 H      38.25800000      36.97800000      40.38900000
 O      40.69200000      40.26200000      35.23600000
 H      41.30200000      39.47000000      35.07600000
 H      40.01200000      40.08500000      34.54300000
 O      39.53900000      37.96500000      15.46200000
 H      39.14800000      37.41300000      14.77000000
 H      40.37000000      37.49800000      15.59800000
 O      28.20000000      39.75500000      13.56600000
 H      28.97400000      39.13400000      13.52100000
 H      28.67300000      40.58600000      13.64800000
 O      29.84800000      37.04800000      19.96500000
 H      30.42400000      37.77600000      19.80300000
 H      29.94200000      36.54700000      19.16000000
 O      34.98300000      40.66800000      40.23200000
 H      35.75600000      40.56500000      40.88100000
 H      35.17100000      41.53300000      39.84400000
 O      35.08300000      36.53500000      17.49200000
 H      35.85400000      36.72700000      16.92500000
 H      35.47200000      36.09700000      18.23400000
 O      28.19100000      38.92300000      23.46400000
 H      27.87200000      39.31200000      22.61200000
 H      29.03400000      39.42100000      23.61500000
 O      37.49600000      40.40300000      21.86500000
 H      37.90700000      40.96400000      21.16600000
 H      37.66500000      40.92800000      22.69100000
 O      39.50400000      37.37600000       7.26200000
 H      38.88700000      36.59200000       7.31000000
 H      39.70700000      37.46500000       8.29700000
 O      32.63600000      35.51800000      22.06400000
 H      33.51200000      35.78500000      21.62200000
 H      32.08800000      35.43500000      21.29400000
 O      29.46700000      35.40400000      29.91400000
 H      29.89200000      34.48600000      29.82300000
 H      28.81700000      35.23100000      29.18100000
 O      28.04500000      37.66700000      30.43700000
 H      28.40500000      36.88000000      30.07400000
 H      27.31200000      37.28200000      30.94200000
 O      29.77200000      35.56600000      10.57100000
 H      30.30800000      36.42700000      10.61300000
 H      28.86500000      35.97400000      10.46700000
 O      37.27500000      34.82100000      36.18700000
 H      36.54900000      34.11200000      36.03100000
 H      37.72700000      34.41600000      36.94800000
 O      36.00700000      38.64100000       8.69800000
 H      36.14600000      37.86800000       8.06600000
 H      36.22700000      39.36900000       8.06700000
 O      39.54900000      35.94800000      13.23700000
 H      40.30400000      35.34300000      13.21700000
 H      38.98200000      35.58700000      12.50700000
 O      38.10300000      36.92500000      37.52800000
 H      37.34000000      37.20900000      38.11700000
 H      37.70700000      36.20200000      36.99100000
 O      38.04200000      34.53300000      16.75800000
 H      38.08900000      35.41500000      17.07600000
 H      38.75500000      34.03500000      17.23000000
 O      34.38300000      39.80500000      33.89800000
 H      34.93600000      39.10400000      34.22100000
 H      33.51500000      39.48800000      34.16500000
 O      35.49200000      39.81400000      14.06000000
 H      35.79300000      38.99100000      13.70400000
 H      36.25900000      40.12200000      14.57300000
 O      37.41000000      37.41900000      33.49600000
 H      36.64100000      37.48100000      34.09300000
 H      37.03300000      37.56900000      32.62100000
 O      32.26200000      35.71300000      36.45500000
 H      31.30400000      35.89800000      36.63400000
 H      32.63000000      35.86500000      37.34000000
 O      33.84600000      34.47800000      30.04700000
 H      34.16000000      35.01500000      29.25300000
 H      34.70600000      34.45200000      30.48600000
 O      40.20100000      37.37800000      33.88800000
 H      40.38000000      36.95400000      34.75900000
 H      39.19500000      37.50600000      33.96600000
 O      34.12300000      35.15400000      39.17300000
 H      33.80400000      35.30000000      40.06100000
 H      34.71400000      34.36900000      39.30200000
 O      33.78400000      38.34600000      30.12100000
 H      34.37700000      38.41700000      30.85700000
 H      34.35200000      37.86200000      29.49900000
 O      32.71200000      37.50300000      18.44600000
 H      33.62300000      37.40800000      18.11200000
 H      32.24400000      36.83100000      17.94100000
 O      36.34400000      35.92400000      24.82100000
 H      35.50500000      35.46200000      24.77000000
 H      36.92400000      35.20900000      25.08100000
 O      38.64100000      39.25400000      12.59500000
 H      37.86600000      39.83400000      12.55200000
 H      38.35200000      38.44000000      12.18800000
 O      40.35000000      35.85200000      36.35600000
 H      39.48900000      36.14800000      36.74100000
 H      40.61100000      35.18400000      36.92100000
 O      33.59700000      34.25100000      16.99300000
 H      34.41100000      34.83400000      16.95100000
 H      33.01100000      34.77100000      16.43000000
 O      40.31400000      38.62700000      38.09000000
 H      39.75800000      37.92500000      37.62600000
 H      39.65600000      39.38800000      38.05400000
 O      27.85800000      37.10700000      16.12400000
 H      27.72300000      36.71600000      15.23600000
 H      26.98600000      37.52200000      16.31800000
 O      35.44300000      38.78800000      24.30900000
 H      35.91100000      38.47200000      23.52400000
 H      34.90600000      38.06700000      24.59700000
 O      36.31200000      39.99800000      29.68100000
 H      36.01900000      39.58400000      28.87100000
 H      36.51200000      39.21900000      30.27400000
 O      30.85600000      39.54500000      18.55100000
 H      31.64000000      38.87300000      18.49300000
 H      31.41600000      40.36400000      18.42600000
 O      29.23400000      40.29600000      39.00100000
 H      28.58100000      40.57200000      39.70500000
 H      29.78200000      41.12900000      38.95800000
 O      28.21200000      39.25700000      18.52800000
 H      29.20800000      39.32100000      18.71900000
 H      28.30800000      38.59600000      17.81300000
 O      29.66300000      34.83500000      39.31400000
 H      29.24800000      35.69600000      39.54600000
 H      29.13300000      34.64000000      38.53500000
 O      33.52300000      38.83900000      11.92200000
 H      34.25200000      38.58200000      12.53600000
 H      33.93500000      39.68900000      11.55800000
 O      31.42800000      35.13600000      12.99200000
 H      30.96400000      34.25400000      13.28900000
 H      30.93900000      35.25100000      12.18200000
 O      30.60200000      39.96600000       9.12500000
 H      29.80000000      40.05900000       8.66500000
 H      30.93400000      40.89500000       9.08000000
 O      32.30900000      36.80300000      33.76600000
 H      31.90800000      36.15900000      33.10300000
 H      32.17400000      36.35300000      34.59600000
 O      33.22600000      36.95800000      24.42800000
 H      32.79300000      36.58800000      23.56800000
 H      32.46600000      37.57000000      24.65600000
 O      28.02900000      35.45300000      21.36100000
 H      27.44500000      35.46400000      20.59100000
 H      28.69800000      36.12300000      21.08200000
 O      35.44900000      36.64400000      28.43200000
 H      34.72600000      36.49400000      27.78800000
 H      35.96100000      35.79800000      28.26000000
 O      28.85700000      37.64900000      25.89800000
 H      28.09400000      37.14200000      26.14200000
 H      28.45800000      38.31200000      25.32000000
 O      33.00600000      38.92200000      37.16300000
 H      32.05700000      38.91700000      37.00500000
 H      32.97800000      39.02800000      38.15500000
 O      28.16600000      34.28900000      27.74400000
 H      27.61400000      35.04200000      27.43000000
 H      27.79500000      33.53900000      27.20800000
 O      36.96000000      35.70500000      14.69500000
 H      37.31900000      35.22200000      15.49400000
 H      37.76200000      35.61500000      14.10600000
 O      39.37800000      35.17700000      25.62600000
 H      38.90400000      34.32000000      25.81800000
 H      39.87300000      35.31800000      26.43300000
 O      36.15400000      35.36900000      10.47100000
 H      35.32900000      35.47900000      11.06100000
 H      35.68600000      35.37800000       9.59300000
 O      28.89600000      36.20200000      33.25500000
 H      28.47900000      36.57500000      32.40400000
 H      29.02900000      35.27600000      33.02700000
 O      37.14700000      36.81300000      22.27400000
 H      36.70200000      36.52600000      23.11100000
 H      38.04400000      36.88700000      22.52300000
 O      31.49900000      38.21900000      15.45400000
 H      31.22000000      38.81000000      16.25400000
 H      32.23200000      38.84400000      15.15800000
 O      27.67200000      36.60900000      13.36500000
 H      27.45500000      36.55100000      12.40900000
 H      28.53200000      37.11200000      13.37400000
 O      30.60000000      35.88600000      26.61200000
 H      29.81300000      35.45700000      26.96800000
 H      30.13100000      36.67600000      26.17200000
 O      30.64600000      40.28400000      23.72200000
 H      30.28700000      40.96500000      24.29900000
 H      30.81600000      40.80300000      22.92600000
 O      38.20100000      34.81700000      33.45100000
 H      37.86900000      34.58300000      34.37600000
 H      37.94600000      35.72800000      33.39600000
 O      38.12300000      37.64200000      27.72600000
 H      38.44800000      38.38500000      27.25500000
 H      37.19200000      37.50700000      27.43300000
 O      33.93400000      35.19300000      12.13000000
 H      33.06200000      35.46700000      12.42100000
 H      33.69200000      34.34900000      11.62600000
 O      30.17400000      38.06400000      13.18200000
 H      30.72200000      37.81600000      12.41500000
 H      30.78800000      38.01600000      13.93700000
 O      28.30100000      38.94100000      34.87200000
 H      27.42500000      38.52000000      34.68400000
 H      28.54400000      39.35700000      34.04100000
 O      28.23500000      37.04300000      40.12600000
 H      28.47100000      37.53200000      40.96100000
 H      27.63800000      37.65400000      39.69600000
 O      36.29300000      37.53000000      31.05100000
 H      37.14700000      37.07000000      30.83900000
 H      35.72900000      37.09400000      30.41100000
 O      35.13300000      37.48000000      35.19600000
 H      34.49000000      36.93800000      34.76000000
 H      34.62000000      37.55900000      36.03700000
 O      29.93400000      39.97000000      27.47500000
 H      29.09500000      39.45400000      27.55000000
 H      30.39500000      39.73900000      28.29100000
 O      40.20100000      37.42100000       9.80300000
 H      40.91800000      37.64300000      10.41500000
 H      39.40100000      37.78300000      10.19800000
 O      27.38100000      40.25600000      21.22000000
 H      27.65600000      40.45500000      20.29500000
 H      27.55200000      41.14500000      21.62200000
 O      39.12800000      38.27300000      20.04100000
 H      38.33600000      38.31700000      20.63100000
 H      39.76500000      37.76600000      20.63900000
 O      39.84200000      39.88000000      32.61000000
 H      40.01300000      38.93200000      32.80100000
 H      39.57000000      39.82800000      31.67400000
 O      34.88600000      39.31700000      27.23900000
 H      34.05800000      38.80300000      27.21300000
 H      35.14400000      39.15900000      26.32900000
 O      37.46000000      37.65100000      10.89700000
 H      37.01500000      38.08200000      10.11200000
 H      37.18300000      36.71800000      10.80600000
 O      29.57300000      39.65200000      32.46400000
 H      30.47600000      39.52500000      32.98500000
 H      29.87500000      39.40800000      31.56900000
 O      38.18400000      37.22800000      17.65700000
 H      38.58400000      37.60000000      16.83900000
 H      38.54900000      37.80200000      18.32200000
 O      31.54700000      35.20500000      31.74000000
 H      31.07900000      35.31600000      30.89900000
 H      32.41300000      34.82900000      31.47500000
 O      36.69200000      42.41500000       6.67200000
 H      36.56000000      43.36800000       6.96700000
 H      36.42900000      42.44000000       5.71400000
 O      35.41500000      47.44600000      14.95300000
 H      34.43900000      47.39400000      15.06100000
 H      35.53700000      48.39900000      15.00400000
 O      29.13700000      48.24700000      33.60400000
 H      29.38800000      47.30900000      33.30600000
 H      28.22000000      48.23000000      33.19300000
 O      30.87500000      48.13200000      24.15200000
 H      30.20500000      48.58900000      24.71100000
 H      31.45500000      47.79000000      24.83600000
 O      38.78800000      47.13500000      38.59500000
 H      38.09900000      47.82400000      38.53800000
 H      39.11900000      47.43800000      39.49100000
 O      32.20100000      48.11300000       7.20500000
 H      32.79700000      48.83900000       7.17600000
 H      32.71800000      47.36800000       6.83200000
 O      39.22400000      42.71500000      19.87500000
 H      39.55200000      41.80600000      19.92100000
 H      39.49700000      43.04700000      19.04600000
 O      29.85600000      49.31100000      17.03500000
 H      30.15200000      48.35700000      17.04400000
 H      28.88200000      49.14900000      17.12500000
 O      37.98700000      42.35500000      15.10100000
 H      38.49000000      41.57600000      14.91600000
 H      38.65400000      43.02400000      15.03400000
 O      38.67300000      47.96800000      22.61900000
 H      38.08900000      47.25700000      22.52100000
 H      38.64500000      48.04000000      23.63000000
 O      29.60800000      45.90500000      32.36100000
 H      30.12700000      45.37300000      31.74200000
 H      29.07100000      45.13300000      32.76900000
 O      33.45300000      44.03600000      12.32600000
 H      34.04400000      43.87000000      11.64600000
 H      33.63000000      43.30300000      12.95400000
 O      36.17000000      45.23400000       9.16700000
 H      37.02900000      45.39400000       9.65500000
 H      36.44400000      45.44700000       8.28500000
 O      40.20200000      47.31600000      20.61100000
 H      40.60000000      46.47700000      20.76000000
 H      39.52200000      47.39300000      21.31900000
 O      37.47500000      44.36900000      38.61700000
 H      37.82600000      45.23600000      38.62900000
 H      37.05300000      44.32100000      37.72400000
 O      33.36000000      48.16500000      10.70200000
 H      33.81500000      47.40200000      10.35000000
 H      34.01500000      48.86000000      10.81000000
 O      38.17500000      43.50900000      17.48900000
 H      38.85100000      43.97000000      16.85700000
 H      38.06700000      42.66900000      17.04000000
 O      38.55500000      46.53900000       9.46500000
 H      38.40600000      47.46900000       9.47500000
 H      39.50800000      46.41100000       9.28800000
 O      36.88300000      45.57700000      18.60500000
 H      37.40300000      44.81800000      18.14700000
 H      37.09900000      46.25900000      17.91700000
 O      28.11000000      43.95200000      23.03700000
 H      28.25100000      44.88400000      22.76000000
 H      27.92500000      44.05500000      23.96700000
 O      33.95300000      42.89200000      36.26600000
 H      34.10200000      42.63100000      35.32500000
 H      33.60700000      42.03500000      36.61500000
 O      32.91500000      45.12900000      37.55100000
 H      33.11100000      44.32100000      37.03300000
 H      33.84200000      45.48600000      37.69200000
 O      34.80000000      45.24100000      21.93000000
 H      34.65600000      44.40000000      22.47300000
 H      34.46300000      45.83800000      22.67800000
 O      28.91400000      47.90800000      30.77100000
 H      29.32500000      47.36500000      31.47500000
 H      28.95900000      47.19600000      30.06500000
 O      29.30800000      44.05000000      27.58700000
 H      30.25100000      44.02500000      27.33800000
 H      29.20600000      43.11100000      27.83000000
 O      27.68400000      46.78400000      38.43300000
 H      27.29500000      47.67600000      38.53400000
 H      27.55300000      46.50200000      37.52100000
 O      28.54800000      46.75400000      22.73400000
 H      29.18400000      46.86200000      21.98700000
 H      29.17500000      47.06200000      23.47600000
 O      35.76200000      48.07300000      38.18900000
 H      35.32500000      47.92600000      37.32200000
 H      35.50500000      47.22800000      38.61800000
 O      38.57700000      47.13800000      30.30300000
 H      38.68000000      46.88600000      29.39100000
 H      37.71600000      47.59300000      30.35100000
 O      30.89100000      45.34000000      11.65500000
 H      31.84900000      45.18000000      11.90000000
 H      30.59800000      45.95200000      12.31100000
 O      31.42600000      44.69100000      22.57500000
 H      31.28100000      43.94700000      21.97300000
 H      31.89200000      45.33600000      22.00300000
 O      27.88100000      42.94600000      31.62000000
 H      27.47700000      42.42700000      30.84700000
 H      28.56100000      42.27800000      31.89600000
 O      39.81000000      44.56000000      21.92000000
 H      39.01500000      45.04600000      21.58400000
 H      39.66900000      43.71100000      21.43400000
 O      33.28600000      42.44500000      29.01900000
 H      33.53400000      41.61900000      29.53900000
 H      33.62500000      42.25800000      28.17200000
 O      40.49900000      46.27100000      36.54600000
 H      40.13000000      46.43400000      37.45100000
 H      40.57500000      45.31200000      36.58300000
 O      36.60500000      44.06700000      36.09600000
 H      37.04400000      43.59500000      35.35400000
 H      35.71800000      43.64100000      36.08700000
 O      31.11500000      44.66500000      25.19100000
 H      31.17500000      44.81100000      24.22000000
 H      31.08400000      45.61200000      25.44700000
 O      34.26100000      44.84000000      18.72800000
 H      34.03900000      45.18100000      19.61300000
 H      35.25900000      45.02800000      18.74500000
 O      31.14000000      42.68000000      20.88500000
 H      30.60200000      42.45100000      20.07800000
 H      32.03300000      42.55300000      20.46600000
 O      33.09000000      42.53200000      18.94200000
 H      33.68900000      42.11000000      19.59700000
 H      33.63800000      43.32800000      18.73500000
 O      31.85000000      48.11900000      35.62100000
 H      31.93400000      48.02500000      34.63300000
 H      31.12400000      47.48400000      35.76700000
 O      39.47800000      44.98900000      15.68400000
 H      39.49900000      45.03700000      14.69200000
 H      39.72500000      45.94300000      15.85200000
 O      40.50000000      44.66500000      27.18500000
 H      40.57200000      44.56800000      26.18400000
 H      41.36500000      44.93600000      27.41400000
 O      29.03600000      47.85900000      13.93900000
 H      28.69200000      47.62000000      13.05900000
 H      29.61600000      48.61200000      13.75200000
 O      36.55400000      46.20000000      24.48000000
 H      35.66200000      46.59100000      24.41100000
 H      36.36900000      45.28900000      24.72400000
 O      34.61800000      43.07900000      23.30400000
 H      35.48500000      42.98100000      23.79400000
 H      34.02200000      42.90500000      24.08800000
 O      38.02700000      42.90200000      34.17500000
 H      38.14900000      43.65100000      33.58500000
 H      38.25600000      42.12300000      33.64200000
 O      33.40600000      43.15000000      25.97500000
 H      32.64700000      43.69600000      25.81000000
 H      33.10400000      42.25200000      25.76600000
 O      40.20000000      47.85200000      16.15200000
 H      40.26000000      48.74900000      16.61900000
 H      39.19000000      47.77200000      16.26700000
 O      37.07800000      43.26500000      12.30600000
 H      36.22700000      42.97500000      12.66400000
 H      36.94400000      44.25400000      12.27800000
 O      30.72700000      43.92300000      39.05900000
 H      30.36700000      44.78600000      39.13600000
 H      31.60600000      44.13000000      38.57900000
 O      36.55400000      48.51100000      20.48100000
 H      36.78800000      47.54600000      20.24800000
 H      35.78200000      48.62100000      19.89400000
 O      31.43400000      48.50000000      38.64000000
 H      31.27400000      48.49800000      37.70100000
 H      32.16700000      47.90600000      38.72400000
 O      38.30900000      44.99700000      32.54000000
 H      39.20600000      44.85500000      32.22000000
 H      38.03600000      45.78000000      32.01300000
 O      32.15600000      47.10100000      26.48200000
 H      32.78200000      46.34900000      26.68900000
 H      31.74100000      47.16100000      27.43300000
 O      31.31200000      43.88300000      30.89600000
 H      31.94600000      43.65200000      31.62800000
 H      31.57700000      43.27500000      30.22000000
 O      30.48500000      45.89000000      36.10600000
 H      31.00400000      45.31300000      36.73600000
 H      30.58600000      45.26100000      35.34100000
 O      32.48700000      48.19600000      33.12200000
 H      32.42600000      48.53000000      32.17900000
 H      32.26300000      47.24100000      32.93200000
 O      31.49900000      46.49400000      28.89000000
 H      31.05100000      45.85600000      29.49900000
 H      32.42900000      46.44700000      29.24700000
 O      40.67100000      43.51000000      37.40100000
 H      40.00700000      42.97500000      37.89700000
 H      40.66000000      43.05000000      36.52900000
 O      31.35700000      44.03100000       9.34800000
 H      32.29000000      44.06600000       9.23600000
 H      31.15800000      44.41400000      10.22000000
 O      34.71400000      42.36200000      10.33200000
 H      34.92300000      43.02600000       9.69600000
 H      35.37000000      41.70300000      10.16700000
 O      34.40500000      48.72800000      28.40800000
 H      34.40800000      47.91300000      28.91400000
 H      33.62000000      49.16400000      28.82900000
 O      35.01200000      43.97900000      30.47000000
 H      34.24300000      43.61400000      29.93400000
 H      35.60300000      43.22500000      30.39900000
 O      31.87700000      45.34500000      14.62300000
 H      32.64000000      44.99300000      15.22400000
 H      32.42300000      46.00700000      14.15900000
 O      32.77700000      47.75200000      13.48800000
 H      32.87700000      47.93600000      12.55300000
 H      32.21300000      48.51400000      13.73300000
 O      37.08100000      42.83700000      24.51700000
 H      37.01200000      41.87900000      24.75100000
 H      37.58700000      43.16100000      25.25600000
 O      37.51600000      47.86800000      16.65200000
 H      37.25300000      48.55700000      17.28700000
 H      36.62000000      47.78800000      16.18600000
 O      27.20400000      46.52700000      35.56600000
 H      28.02200000      46.88000000      35.20900000
 H      27.02700000      45.79100000      34.94300000
 O      28.26300000      48.26200000      11.36900000
 H      27.54400000      48.22900000      10.71400000
 H      29.07500000      48.47800000      10.79400000
 O      34.25700000      46.78300000      30.42100000
 H      34.55200000      45.83400000      30.54500000
 H      34.61900000      47.20200000      31.24500000
 O      35.40000000      45.39700000      33.94800000
 H      36.21500000      45.52200000      33.36500000
 H      35.84400000      45.03500000      34.70800000
 O      34.83100000      45.90800000      39.62900000
 H      35.37400000      45.71200000      40.40500000
 H      33.95800000      46.04100000      40.12100000
 O      29.43000000      46.35800000      18.91800000
 H      28.90700000      45.50600000      19.00200000
 H      29.77100000      46.15300000      17.96200000
 O      37.47300000      45.72200000      21.03500000
 H      36.61200000      45.34000000      21.34600000
 H      37.46600000      45.50900000      20.13200000
 O      38.34800000      42.57400000      27.33700000
 H      39.01000000      43.04300000      27.71600000
 H      38.79200000      42.12700000      26.59000000
 O      30.85500000      43.77100000      34.56000000
 H      30.16000000      43.27100000      34.92600000
 H      31.58100000      43.10900000      34.43000000
 O      26.92500000      43.61800000      26.11900000
 H      26.41100000      43.14000000      26.76500000
 H      27.72900000      43.75500000      26.61200000
 O      30.15800000      46.70900000      16.25000000
 H      29.71800000      47.22600000      15.52200000
 H      30.94300000      46.42400000      15.66700000
 O      28.47700000      45.77100000      29.30500000
 H      28.89200000      45.23700000      28.56000000
 H      28.46200000      45.13600000      29.98700000
 O      39.62000000      43.28200000       8.53000000
 H      40.16200000      43.32400000       7.71500000
 H      39.26600000      44.14000000       8.59000000
 O      34.18900000      45.36500000      27.17700000
 H      34.06400000      44.40600000      27.05100000
 H      35.12300000      45.37500000      27.43300000
 O      38.47300000      46.37800000      27.73200000
 H      39.11200000      45.67900000      27.62200000
 H      37.69000000      45.91400000      28.00500000
 O      30.60800000      47.85500000      21.12700000
 H      30.53100000      47.47300000      20.22300000
 H      31.54900000      48.14500000      21.17200000
 O      33.22900000      43.32100000      32.63600000
 H      33.85600000      42.53400000      32.90600000
 H      33.91900000      44.00800000      32.62800000
 O      34.79800000      47.35100000      35.86300000
 H      34.54600000      46.73500000      35.16300000
 H      33.94400000      47.86100000      35.97700000
 O      33.88200000      44.39000000      16.03300000
 H      33.93700000      44.44900000      17.03100000
 H      34.68700000      44.91800000      15.85200000
 O      36.86100000      48.17000000      11.33100000
 H      37.57900000      48.41900000      10.82500000
 H      36.27100000      48.90800000      11.23900000
 O      29.88900000      46.65600000      40.10400000
 H      29.01200000      46.76700000      39.60100000
 H      30.41700000      47.34800000      39.65600000
 O      36.61200000      46.03900000      12.83800000
 H      36.33500000      46.58400000      13.61700000
 H      36.63900000      46.81400000      12.15700000
 O      33.98300000      47.02300000      24.15300000
 H      33.95500000      47.92900000      23.71000000
 H      33.51600000      47.18100000      24.96200000
 O      38.74500000      48.08500000      25.70400000
 H      37.90700000      47.65300000      25.46200000
 H      38.98800000      47.45700000      26.43300000
 O      36.56000000      44.66000000      28.11300000
 H      37.01000000      43.84800000      27.78600000
 H      36.16500000      44.30200000      28.92500000
 O      39.36700000      44.12400000      13.09800000
 H      38.49700000      43.66200000      12.89700000
 H      40.00400000      43.41800000      12.83300000
 O      33.76600000      44.49500000       8.07100000
 H      33.46500000      45.11400000       7.40100000
 H      34.62400000      44.91300000       8.29500000
 O      30.19300000      43.26700000      13.92100000
 H      30.83700000      44.00200000      14.04600000
 H      30.72000000      42.53100000      14.28500000
 O      38.00200000      47.80700000      35.45700000
 H      37.24800000      47.22100000      35.47700000
 H      38.75300000      47.25100000      35.67500000
 O      29.00400000      46.38800000       7.73800000
 H      29.92100000      46.09100000       7.79500000
 H      28.51700000      45.92500000       8.42800000
 O      39.84100000      46.70300000      12.81500000
 H      40.21000000      45.79100000      12.68200000
 H      38.88700000      46.46700000      12.78900000
 O      28.51000000      44.45500000      11.68300000
 H      28.78200000      43.90500000      12.45100000
 H      29.43100000      44.77900000      11.43200000
