255
XYZ file of cluster: frame_11000_9f4b0.c4ff9.9c2e9 - created by MolEdiTo
 O      34.98300000      40.66800000      40.23200000
 H      35.75600000      40.56500000      40.88100000
 H      35.17100000      41.53300000      39.84400000
 O      29.46000000      36.69300000      36.21200000
 H      29.37800000      36.92400000      35.27600000
 H      28.71100000      36.10600000      36.41300000
 O      38.82400000      36.05500000      29.75800000
 H      39.60500000      35.57600000      29.36900000
 H      38.60700000      36.62600000      28.97400000
 O      40.31400000      38.62700000      38.09000000
 H      39.75800000      37.92500000      37.62600000
 H      39.65600000      39.38800000      38.05400000
 O      36.31200000      39.99800000      29.68100000
 H      36.01900000      39.58400000      28.87100000
 H      36.51200000      39.21900000      30.27400000
 O      38.20100000      34.81700000      33.45100000
 H      37.86900000      34.58300000      34.37600000
 H      37.94600000      35.72800000      33.39600000
 O      36.67100000      34.66300000      30.95800000
 H      37.38200000      35.20800000      30.53200000
 H      37.17600000      34.17400000      31.64200000
 O      38.12300000      37.64200000      27.72600000
 H      38.44800000      38.38500000      27.25500000
 H      37.19200000      37.50700000      27.43300000
 O      29.46700000      35.40400000      29.91400000
 H      29.89200000      34.48600000      29.82300000
 H      28.81700000      35.23100000      29.18100000
 O      28.04500000      37.66700000      30.43700000
 H      28.40500000      36.88000000      30.07400000
 H      27.31200000      37.28200000      30.94200000
 O      29.23400000      40.29600000      39.00100000
 H      28.58100000      40.57200000      39.70500000
 H      29.78200000      41.12900000      38.95800000
 O      31.68900000      39.34400000      34.16800000
 H      31.89700000      38.41100000      33.95100000
 H      31.18500000      39.22300000      35.02000000
 O      29.66300000      34.83500000      39.31400000
 H      29.24800000      35.69600000      39.54600000
 H      29.13300000      34.64000000      38.53500000
 O      28.30100000      38.94100000      34.87200000
 H      27.42500000      38.52000000      34.68400000
 H      28.54400000      39.35700000      34.04100000
 O      28.23500000      37.04300000      40.12600000
 H      28.47100000      37.53200000      40.96100000
 H      27.63800000      37.65400000      39.69600000
 O      36.29300000      37.53000000      31.05100000
 H      37.14700000      37.07000000      30.83900000
 H      35.72900000      37.09400000      30.41100000
 O      35.13300000      37.48000000      35.19600000
 H      34.49000000      36.93800000      34.76000000
 H      34.62000000      37.55900000      36.03700000
 O      39.27900000      39.29800000      29.98300000
 H      39.74000000      40.03300000      29.52600000
 H      38.47900000      39.30200000      29.39900000
 O      29.93400000      39.97000000      27.47500000
 H      29.09500000      39.45400000      27.55000000
 H      30.39500000      39.73900000      28.29100000
 O      37.27500000      34.82100000      36.18700000
 H      36.54900000      34.11200000      36.03100000
 H      37.72700000      34.41600000      36.94800000
 O      32.30900000      36.80300000      33.76600000
 H      31.90800000      36.15900000      33.10300000
 H      32.17400000      36.35300000      34.59600000
 O      30.46000000      39.32600000      36.82000000
 H      30.11600000      39.65500000      37.66300000
 H      29.89500000      38.54300000      36.65000000
 O      32.57600000      39.21400000      40.06300000
 H      32.94600000      38.42000000      40.57600000
 H      33.37100000      39.84400000      40.18900000
 O      35.44900000      36.64400000      28.43200000
 H      34.72600000      36.49400000      27.78800000
 H      35.96100000      35.79800000      28.26000000
 O      39.84200000      39.88000000      32.61000000
 H      40.01300000      38.93200000      32.80100000
 H      39.57000000      39.82800000      31.67400000
 O      38.10300000      36.92500000      37.52800000
 H      37.34000000      37.20900000      38.11700000
 H      37.70700000      36.20200000      36.99100000
 O      38.33400000      40.25700000      38.47800000
 H      37.87600000      39.92100000      39.26600000
 H      37.80500000      41.09400000      38.40600000
 O      27.14500000      39.32300000      37.36700000
 H      27.53200000      39.20500000      36.46200000
 H      27.95400000      39.33100000      37.89100000
 O      33.00600000      38.92200000      37.16300000
 H      32.05700000      38.91700000      37.00500000
 H      32.97800000      39.02800000      38.15500000
 O      28.16600000      34.28900000      27.74400000
 H      27.61400000      35.04200000      27.43000000
 H      27.79500000      33.53900000      27.20800000
 O      34.38300000      39.80500000      33.89800000
 H      34.93600000      39.10400000      34.22100000
 H      33.51500000      39.48800000      34.16500000
 O      35.71900000      37.71000000      38.70300000
 H      35.19400000      38.43300000      38.40200000
 H      35.10300000      36.98000000      38.67100000
 O      37.41000000      37.41900000      33.49600000
 H      36.64100000      37.48100000      34.09300000
 H      37.03300000      37.56900000      32.62100000
 O      30.97200000      38.46400000      30.05300000
 H      31.93600000      38.43100000      29.93800000
 H      30.72600000      37.54400000      30.15000000
 O      32.26200000      35.71300000      36.45500000
 H      31.30400000      35.89800000      36.63400000
 H      32.63000000      35.86500000      37.34000000
 O      33.84600000      34.47800000      30.04700000
 H      34.16000000      35.01500000      29.25300000
 H      34.70600000      34.45200000      30.48600000
 O      40.20100000      37.37800000      33.88800000
 H      40.38000000      36.95400000      34.75900000
 H      39.19500000      37.50600000      33.96600000
 O      34.12300000      35.15400000      39.17300000
 H      33.80400000      35.30000000      40.06100000
 H      34.71400000      34.36900000      39.30200000
 O      33.78400000      38.34600000      30.12100000
 H      34.37700000      38.41700000      30.85700000
 H      34.35200000      37.86200000      29.49900000
 O      28.89600000      36.20200000      33.25500000
 H      28.47900000      36.57500000      32.40400000
 H      29.02900000      35.27600000      33.02700000
 O      39.19800000      36.58700000      40.36800000
 H      39.58000000      37.34300000      40.88200000
 H      38.25800000      36.97800000      40.38900000
 O      40.69200000      40.26200000      35.23600000
 H      41.30200000      39.47000000      35.07600000
 H      40.01200000      40.08500000      34.54300000
 O      29.57300000      39.65200000      32.46400000
 H      30.47600000      39.52500000      32.98500000
 H      29.87500000      39.40800000      31.56900000
 O      31.54700000      35.20500000      31.74000000
 H      31.07900000      35.31600000      30.89900000
 H      32.41300000      34.82900000      31.47500000
 O      40.35000000      35.85200000      36.35600000
 H      39.48900000      36.14800000      36.74100000
 H      40.61100000      35.18400000      36.92100000
 O      31.43400000      48.50000000      38.64000000
 H      31.27400000      48.49800000      37.70100000
 H      32.16700000      47.90600000      38.72400000
 O      29.13700000      48.24700000      33.60400000
 H      29.38800000      47.30900000      33.30600000
 H      28.22000000      48.23000000      33.19300000
 O      38.30900000      44.99700000      32.54000000
 H      39.20600000      44.85500000      32.22000000
 H      38.03600000      45.78000000      32.01300000
 O      31.31200000      43.88300000      30.89600000
 H      31.94600000      43.65200000      31.62800000
 H      31.57700000      43.27500000      30.22000000
 O      38.78800000      47.13500000      38.59500000
 H      38.09900000      47.82400000      38.53800000
 H      39.11900000      47.43800000      39.49100000
 O      28.47700000      45.77100000      29.30500000
 H      28.89200000      45.23700000      28.56000000
 H      28.46200000      45.13600000      29.98700000
 O      30.48500000      45.89000000      36.10600000
 H      31.00400000      45.31300000      36.73600000
 H      30.58600000      45.26100000      35.34100000
 O      32.48700000      48.19600000      33.12200000
 H      32.42600000      48.53000000      32.17900000
 H      32.26300000      47.24100000      32.93200000
 O      31.85000000      48.11900000      35.62100000
 H      31.93400000      48.02500000      34.63300000
 H      31.12400000      47.48400000      35.76700000
 O      31.49900000      46.49400000      28.89000000
 H      31.05100000      45.85600000      29.49900000
 H      32.42900000      46.44700000      29.24700000
 O      40.67100000      43.51000000      37.40100000
 H      40.00700000      42.97500000      37.89700000
 H      40.66000000      43.05000000      36.52900000
 O      29.60800000      45.90500000      32.36100000
 H      30.12700000      45.37300000      31.74200000
 H      29.07100000      45.13300000      32.76900000
 O      38.47300000      46.37800000      27.73200000
 H      39.11200000      45.67900000      27.62200000
 H      37.69000000      45.91400000      28.00500000
 O      37.47500000      44.36900000      38.61700000
 H      37.82600000      45.23600000      38.62900000
 H      37.05300000      44.32100000      37.72400000
 O      33.22900000      43.32100000      32.63600000
 H      33.85600000      42.53400000      32.90600000
 H      33.91900000      44.00800000      32.62800000
 O      34.79800000      47.35100000      35.86300000
 H      34.54600000      46.73500000      35.16300000
 H      33.94400000      47.86100000      35.97700000
 O      34.40500000      48.72800000      28.40800000
 H      34.40800000      47.91300000      28.91400000
 H      33.62000000      49.16400000      28.82900000
 O      33.95300000      42.89200000      36.26600000
 H      34.10200000      42.63100000      35.32500000
 H      33.60700000      42.03500000      36.61500000
 O      30.85500000      43.77100000      34.56000000
 H      30.16000000      43.27100000      34.92600000
 H      31.58100000      43.10900000      34.43000000
 O      32.91500000      45.12900000      37.55100000
 H      33.11100000      44.32100000      37.03300000
 H      33.84200000      45.48600000      37.69200000
 O      35.01200000      43.97900000      30.47000000
 H      34.24300000      43.61400000      29.93400000
 H      35.60300000      43.22500000      30.39900000
 O      38.02700000      42.90200000      34.17500000
 H      38.14900000      43.65100000      33.58500000
 H      38.25600000      42.12300000      33.64200000
 O      28.91400000      47.90800000      30.77100000
 H      29.32500000      47.36500000      31.47500000
 H      28.95900000      47.19600000      30.06500000
 O      29.88900000      46.65600000      40.10400000
 H      29.01200000      46.76700000      39.60100000
 H      30.41700000      47.34800000      39.65600000
 O      29.30800000      44.05000000      27.58700000
 H      30.25100000      44.02500000      27.33800000
 H      29.20600000      43.11100000      27.83000000
 O      27.20400000      46.52700000      35.56600000
 H      28.02200000      46.88000000      35.20900000
 H      27.02700000      45.79100000      34.94300000
 O      27.68400000      46.78400000      38.43300000
 H      27.29500000      47.67600000      38.53400000
 H      27.55300000      46.50200000      37.52100000
 O      35.76200000      48.07300000      38.18900000
 H      35.32500000      47.92600000      37.32200000
 H      35.50500000      47.22800000      38.61800000
 O      38.57700000      47.13800000      30.30300000
 H      38.68000000      46.88600000      29.39100000
 H      37.71600000      47.59300000      30.35100000
 O      36.56000000      44.66000000      28.11300000
 H      37.01000000      43.84800000      27.78600000
 H      36.16500000      44.30200000      28.92500000
 O      34.25700000      46.78300000      30.42100000
 H      34.55200000      45.83400000      30.54500000
 H      34.61900000      47.20200000      31.24500000
 O      35.40000000      45.39700000      33.94800000
 H      36.21500000      45.52200000      33.36500000
 H      35.84400000      45.03500000      34.70800000
 O      34.83100000      45.90800000      39.62900000
 H      35.37400000      45.71200000      40.40500000
 H      33.95800000      46.04100000      40.12100000
 O      27.88100000      42.94600000      31.62000000
 H      27.47700000      42.42700000      30.84700000
 H      28.56100000      42.27800000      31.89600000
 O      30.72700000      43.92300000      39.05900000
 H      30.36700000      44.78600000      39.13600000
 H      31.60600000      44.13000000      38.57900000
 O      33.28600000      42.44500000      29.01900000
 H      33.53400000      41.61900000      29.53900000
 H      33.62500000      42.25800000      28.17200000
 O      40.49900000      46.27100000      36.54600000
 H      40.13000000      46.43400000      37.45100000
 H      40.57500000      45.31200000      36.58300000
 O      38.00200000      47.80700000      35.45700000
 H      37.24800000      47.22100000      35.47700000
 H      38.75300000      47.25100000      35.67500000
 O      38.34800000      42.57400000      27.33700000
 H      39.01000000      43.04300000      27.71600000
 H      38.79200000      42.12700000      26.59000000
 O      36.60500000      44.06700000      36.09600000
 H      37.04400000      43.59500000      35.35400000
 H      35.71800000      43.64100000      36.08700000
