70
XYZ file of cluster: frame_7500_5fd0d.6655f.478a1 - created by MolEdiTo
 O      15.97700000      10.06900000      12.30000000
 H      15.68800000      11.05300000      12.17900000
 H      16.77500000      10.04200000      11.71000000
 O      15.84100000      14.04100000      14.05500000
 H      15.12100000      14.74400000      14.02600000
 H      15.74000000      13.55900000      13.21300000
 O      16.17300000      15.99600000       7.76600000
 H      15.55700000      16.05200000       6.97300000
 H      16.68800000      15.11100000       7.61100000
 O      10.19300000      17.52200000       8.41900000
 H      10.89100000      18.19400000       8.27000000
 H      10.16000000      17.00300000       7.60500000
 O      13.21000000      16.69500000      14.48600000
 H      13.75200000      17.27300000      13.89400000
 H      12.34000000      16.45600000      14.03000000
 O      12.86300000      14.55600000       8.59900000
 H      12.40500000      14.19700000       7.83000000
 H      12.35000000      14.21500000       9.44500000
 O      18.30100000       9.84400000       6.62900000
 H      17.49900000       9.90100000       7.22900000
 H      18.37500000      10.71800000       6.32700000
 O      10.70500000      13.40200000       7.05100000
 H      10.83600000      12.43000000       7.28900000
 H      11.04800000      13.34000000       6.15500000
 O      13.15700000      14.59300000      11.56600000
 H      13.06100000      14.15200000      12.46500000
 H      12.27800000      14.99600000      11.46700000
 O      17.31800000      15.40300000      11.55300000
 H      16.97200000      14.53700000      11.25800000
 H      17.75400000      15.20500000      12.37600000
 O      15.43500000      12.79500000      11.36900000
 H      15.41300000      12.57400000      10.40900000
 H      14.56000000      13.24500000      11.44600000
 O      16.19700000       9.86300000       8.24000000
 H      15.95600000      10.85400000       8.17500000
 H      15.48900000       9.37400000       7.67900000
 O      17.04600000      18.01200000      10.21800000
 H      16.99300000      17.15400000      10.69000000
 H      17.26700000      18.65400000      10.92500000
 O      14.03400000      17.07600000       9.50200000
 H      13.52800000      16.26100000       9.72300000
 H      14.89700000      16.62900000       9.24100000
 O      18.06300000      10.53800000      10.43200000
 H      18.70300000       9.79000000      10.59200000
 H      17.64200000      10.17700000       9.64200000
 O      16.43700000      12.56700000       8.39000000
 H      16.94200000      13.00500000       9.12200000
 H      16.70500000      13.02200000       7.56900000
 O      15.50000000      17.81200000      13.38900000
 H      16.32500000      18.22400000      13.63200000
 H      15.76600000      16.88900000      13.13200000
 O      12.88000000      13.33500000      13.83200000
 H      12.65400000      12.47200000      13.36000000
 H      13.20100000      12.85300000      14.60000000
 C       9.49600000      10.32900000      10.73600000
 C      10.46100000      10.98900000       9.69400000
 C      12.40300000      10.04100000      11.15000000
 H      12.01300000       9.43700000       9.20200000
 H       8.75100000       8.64700000      11.28900000
 O      12.84000000      11.37200000       9.29200000
 O       8.45400000      11.26300000      11.05400000
 O       9.00600000       9.05300000      10.40400000
 C      11.91100000      10.37600000       9.74600000
 O       9.88000000      10.92800000       8.38600000
 H      10.49000000      12.02400000      10.03900000
 O      11.78900000      10.96400000      12.11700000
 O      11.91600000       8.81100000      11.55500000
 H      11.75100000       8.95800000      12.45400000
 H       8.92200000      11.22500000       8.45300000
 H      12.75500000      11.41700000       8.28100000
