55
XYZ file of cluster: frame_7500_252cc.4c1f2.478a1 - created by MolEdiTo
 O       4.96600000      12.35100000      12.75600000
 H       5.08200000      12.84800000      13.63000000
 H       5.34800000      12.85200000      11.91900000
 O       7.56200000      14.08600000       9.75000000
 H       6.96700000      13.37600000       9.32700000
 H       7.30900000      13.84500000      10.65200000
 O       3.42000000       9.22500000      12.46200000
 H       3.28000000       9.73700000      11.65900000
 H       4.37200000       9.25400000      12.41300000
 O       4.73100000       6.43200000      13.55600000
 H       4.33400000       6.58600000      12.61800000
 H       4.25900000       7.06100000      14.02600000
 O       5.47100000       9.26300000       9.28700000
 H       4.66900000       9.75400000       9.12600000
 H       5.78100000       9.70400000      10.16900000
 O      10.70500000      13.40200000       7.05100000
 H      10.83600000      12.43000000       7.28900000
 H      11.04800000      13.34000000       6.15500000
 O       8.70600000      13.26500000      13.22300000
 H       8.72500000      13.50500000      12.29800000
 H       9.21800000      12.47800000      13.39500000
 O      10.67900000       8.19700000       7.30900000
 H      10.20200000       8.57300000       8.05100000
 H      10.47100000       8.95300000       6.70700000
 O       9.32300000       8.02800000      12.96300000
 H       9.04300000       8.04300000      13.92200000
 H       9.17500000       7.11500000      12.68400000
 O       6.34200000       9.94900000      12.00200000
 H       5.97000000      10.65100000      12.59200000
 H       7.28400000      10.23300000      11.77900000
 C       9.49600000      10.32900000      10.73600000
 C      10.46100000      10.98900000       9.69400000
 C      12.40300000      10.04100000      11.15000000
 H      12.01300000       9.43700000       9.20200000
 H       8.75100000       8.64700000      11.28900000
 O      12.84000000      11.37200000       9.29200000
 O       8.45400000      11.26300000      11.05400000
 O       9.00600000       9.05300000      10.40400000
 C      11.91100000      10.37600000       9.74600000
 O       9.88000000      10.92800000       8.38600000
 H      10.49000000      12.02400000      10.03900000
 O      11.78900000      10.96400000      12.11700000
 O      11.91600000       8.81100000      11.55500000
 H      11.75100000       8.95800000      12.45400000
 H       8.92200000      11.22500000       8.45300000
 H      12.75500000      11.41700000       8.28100000
 O       7.26300000      11.48000000       8.08200000
 H       6.75400000      12.23400000       7.68200000
 H       6.59900000      10.87500000       8.59200000
 O       6.26200000       7.32100000       7.64200000
 H       5.39600000       7.01100000       7.26000000
 H       5.92200000       8.04100000       8.23600000
 O       4.25700000       6.77000000      10.90900000
 H       4.77800000       7.59800000      10.62200000
 H       3.31100000       6.82300000      10.56300000
