48
XYZ file of cluster: frame_7500_718ab.793.22ea6 - created by MolEdiTo
 O      16.65500000       0.69800000       4.64000000
 H      15.97200000       0.59400000       5.37200000
 H      16.49000000       0.04000000       3.96800000
 O      12.64500000       4.25600000       7.96900000
 H      13.51100000       3.87400000       8.37700000
 H      12.64300000       4.03700000       6.99900000
 O      10.77200000       5.67800000       9.54200000
 H      10.01800000       5.77000000       8.90000000
 H      11.40100000       4.99100000       9.05900000
 O      13.17600000       7.15700000       8.17800000
 H      13.18700000       6.37000000       8.71600000
 H      12.25500000       7.46800000       8.17600000
 O      13.76300000       0.74000000       9.89700000
 H      13.59200000       1.57200000      10.42100000
 H      14.28900000       0.27600000      10.54100000
 O      15.14200000       4.71100000       5.28400000
 H      15.05500000       4.77500000       6.21300000
 H      15.93600000       4.19900000       5.16600000
 O      14.44700000       1.76900000       7.10700000
 H      14.07700000       1.48900000       7.96800000
 H      13.70100000       1.98700000       6.53700000
 O      12.80800000       2.97900000       5.12400000
 H      12.51600000       2.87000000       4.24300000
 H      13.49400000       3.57200000       4.86600000
 O      18.41600000       5.58400000      10.29200000
 H      17.76100000       5.83000000      11.02100000
 H      17.77700000       5.61100000       9.55800000
 O      17.02600000       1.44300000       7.34400000
 H      16.11700000       1.84200000       7.13400000
 H      16.95900000       0.44200000       7.07700000
 O      15.29200000       7.35700000       3.95400000
 H      15.55900000       6.41200000       4.17600000
 H      15.37300000       7.46700000       3.02300000
 O      14.93000000       3.67700000       9.35400000
 H      14.53500000       3.31200000      10.18100000
 H      15.87000000       3.75600000       9.58600000
 O      16.47200000       6.82300000       8.80800000
 H      16.35100000       7.02800000       7.86900000
 H      16.01800000       7.49800000       9.27300000
 O      18.20700000       5.85200000       6.08400000
 H      17.63000000       6.53700000       6.51700000
 H      18.69400000       6.47100000       5.48600000
 O      17.20500000       3.22000000       3.87700000
 H      17.66400000       3.24700000       3.00400000
 H      17.42000000       2.25600000       4.12700000
 O      10.75700000       2.15600000       7.64200000
 H      11.04900000       2.80600000       8.32900000
 H      10.78200000       2.68500000       6.82600000
