48
XYZ file of cluster: frame_7500_4a2df.6e40d.9b487 - created by MolEdiTo
 O       7.09900000      14.81900000      18.92700000
 H       7.51400000      14.60400000      19.77300000
 H       7.64600000      15.37700000      18.40300000
 O       9.67200000      14.94800000      16.66900000
 H      10.51800000      14.45400000      16.51900000
 H       9.93500000      15.91700000      16.73200000
 O      10.23000000      10.63400000      15.26300000
 H      10.74500000       9.81100000      15.11500000
 H       9.36000000      10.23200000      15.38000000
 O      13.94500000      10.98800000      15.82800000
 H      13.70000000      11.61300000      16.56100000
 H      14.59400000      10.35600000      16.28500000
 O      13.21000000      16.69500000      14.48600000
 H      13.75200000      17.27300000      13.89400000
 H      12.34000000      16.45600000      14.03000000
 O       7.22800000      11.77100000      16.02300000
 H       6.54500000      12.07900000      16.56700000
 H       7.66900000      12.59600000      15.64500000
 O      13.96800000      17.07400000      18.82000000
 H      13.57300000      17.45500000      17.94600000
 H      14.61600000      16.29700000      18.56200000
 O      12.88000000      13.33500000      13.83200000
 H      12.65400000      12.47200000      13.36000000
 H      13.20100000      12.85300000      14.60000000
 O       8.07300000       9.92100000      18.25300000
 H       8.50100000       9.31600000      17.65300000
 H       7.84700000      10.74600000      17.72700000
 O       7.33500000      14.65400000      15.13100000
 H       8.15800000      15.02000000      15.51000000
 H       7.62000000      14.06800000      14.44100000
 O       9.26200000      17.11600000      18.89700000
 H       9.54200000      17.61600000      18.10400000
 H      10.05300000      16.63500000      19.26900000
 O      11.46000000      17.53000000      16.75400000
 H      11.98900000      17.00600000      16.11000000
 H      10.71500000      17.99800000      16.23400000
 O      13.15700000      14.38800000      16.47800000
 H      13.03500000      14.39200000      15.53500000
 H      13.95100000      15.00900000      16.49000000
 O      11.60900000      12.97100000      18.37300000
 H      12.08900000      13.79300000      18.17800000
 H      10.73900000      13.09700000      17.89700000
 O      11.53900000      15.96200000      19.87800000
 H      11.46900000      15.09100000      20.25600000
 H      12.42800000      15.97500000      19.53600000
 O      12.32300000      10.32900000      18.28600000
 H      13.00000000      10.64100000      18.90700000
 H      11.93900000      11.21200000      18.02100000
