33
XYZ file of cluster: frame_7500_c7d07.374b.6e18 - created by MolEdiTo
 O      18.94900000       3.20700000       1.68000000
 H      18.39800000       3.76800000       1.12200000
 H      18.84900000       2.33100000       1.18400000
 O      19.70500000       6.31500000       1.50200000
 H      20.55900000       6.65100000       1.85100000
 H      20.06900000       6.33400000       0.59200000
 O      19.40100000       2.75900000       6.02500000
 H      18.74200000       2.04200000       6.02500000
 H      18.86500000       3.47500000       6.41300000
 O      20.03800000       4.41800000       3.71700000
 H      19.57600000       3.76700000       4.25800000
 H      19.64700000       4.21100000       2.83200000
 O      18.20700000       5.85200000       6.08400000
 H      17.63000000       6.53700000       6.51700000
 H      18.69400000       6.47100000       5.48600000
 O      23.19200000       4.62000000       6.20600000
 H      22.43900000       4.82100000       5.57100000
 H      23.48700000       3.72600000       5.89700000
 O      24.58000000       7.41500000       6.84400000
 H      24.37700000       7.50900000       7.78300000
 H      24.18000000       6.56300000       6.73200000
 O      24.25900000       4.12600000       2.70400000
 H      23.51000000       4.64400000       2.71900000
 H      24.02200000       3.51200000       3.40700000
 O      23.25700000       1.22400000       4.58800000
 H      24.07200000       0.98900000       5.11500000
 H      22.77900000       1.85600000       5.09800000
 O      25.56300000       1.09100000       2.67700000
 H      26.47400000       0.93800000       2.36900000
 H      24.98600000       0.29200000       2.61200000
 O      23.33500000       2.45500000       0.63400000
 H      22.45200000       2.74700000       0.92500000
 H      23.88100000       2.97400000       1.32400000
