%chk=cluster_555.chk
%mem=6GB
%nproc=4
#b3lyp/6-31G** scrf=(cpcm,Solvent=Water) nosymm force
iop(2/11=1) 
 Geom=(NoDistance,NoAngle)

cluster_555

0 1
 O      18.43500000      18.07000000      19.56800000
 H      18.15000000      18.72500000      18.88300000
 H      19.36500000      18.44600000      19.76600000
 O      18.49400000      20.63100000      18.90200000
 H      18.16600000      20.87900000      18.03400000
 H      18.04200000      21.24500000      19.54700000
 O      17.01600000      18.82300000      23.23800000
 H      17.86200000      18.58600000      22.72500000
 H      17.11700000      18.13100000      23.91500000
 O      20.41000000      23.83200000      20.16100000
 H      20.41000000      23.00100000      19.66900000
 H      20.16700000      23.52400000      21.07100000
 O      19.10900000      22.96100000      25.05800000
 H      18.82000000      22.12400000      25.51200000
 H      19.75400000      22.58800000      24.49300000
 O      23.60600000      20.61800000      18.88000000
 H      23.93600000      20.28600000      19.83800000
 H      24.31000000      21.19500000      18.60500000
 O      22.47900000      17.45600000      19.77500000
 H      23.26500000      17.97500000      20.05900000
 H      22.45500000      16.78800000      20.45200000
 O      21.61600000      19.29700000      17.34300000
 H      21.70700000      18.37900000      17.62900000
 H      22.10000000      19.90400000      17.93900000
 O      21.80500000      20.56500000      23.27200000
 H      22.14600000      19.66900000      23.03300000
 H      22.38900000      20.99300000      23.92800000
 O      21.93300000      17.79300000      23.93300000
 H      21.89300000      16.78700000      23.96900000
 H      21.61700000      18.25700000      24.69500000
 O      24.87000000      19.65300000      22.66600000
 H      25.54100000      20.36000000      22.57100000
 H      24.44300000      19.81200000      23.49700000
 O      23.17500000      24.39300000      17.33000000
 H      22.52800000      24.99900000      16.99200000
 H      22.75300000      23.67700000      17.84100000
 O      24.07000000      23.69800000      23.05700000
 H      24.89400000      24.21800000      22.86800000
 H      23.75400000      23.53300000      22.10500000

