%chk=cluster_345.chk
%mem=6GB
%nproc=4
#b3lyp/6-311++G** scrf=(cpcm,Solvent=Water) nosymm freq
iop(2/11=1) 
 Geom=(NoDistance,NoAngle)

cluster_345

0 1
 O      17.34800000      14.66500000      17.07000000
 H      17.50800000      14.54700000      18.05800000
 H      18.31600000      14.76800000      16.93200000
 O      11.40500000      18.50300000      18.74800000
 H      10.59400000      18.83500000      19.28500000
 H      12.07100000      19.26500000      18.92400000
 O      12.58000000      14.42700000      19.81100000
 H      13.24400000      13.83500000      19.29300000
 H      13.15300000      14.63400000      20.52800000
 O       9.86800000      16.08600000      19.82500000
 H      10.18500000      16.93300000      20.23200000
 H      10.70400000      15.55700000      19.60500000
 O      13.86500000      18.20300000      22.24700000
 H      14.19700000      17.65900000      22.98600000
 H      14.68000000      18.14200000      21.72800000
 O      16.98900000      16.62700000      24.91900000
 H      16.48900000      16.43400000      25.71700000
 H      17.23900000      15.76900000      24.61400000
 O      13.57500000      19.55900000      25.31900000
 H      13.09600000      19.84000000      24.53900000
 H      13.32000000      18.61200000      25.38900000
 O      10.76500000      17.59900000      23.47100000
 H      10.53900000      18.55800000      23.28500000
 H      11.22700000      17.83200000      24.25600000
 O      17.01600000      18.82300000      23.23800000
 H      17.86200000      18.58600000      22.72500000
 H      17.11700000      18.13100000      23.91500000
 O      15.69500000      15.56400000      22.22400000
 H      15.68600000      15.79600000      21.29600000
 H      16.66600000      15.72400000      22.48800000

