    0.042324763   -0.002767063    0.027936153
    0.013131519    0.012291559   -0.019963379
   -0.050559221   -0.010547519   -0.009125211
    0.002867614    0.045482447    0.005476944
    0.007205122   -0.053597528   -0.005029779
   -0.009441344    0.005155960    0.002427733
   -0.014145332   -0.000847663    0.001980379
    0.006289779   -0.001187621   -0.005045943
    0.009420896    0.004074658    0.003138516
   -0.047992322    0.009254780    0.025520803
    0.053258989   -0.011084895   -0.026041455
   -0.006851407    0.006377054   -0.000108046
    0.020736165    0.018461879    0.016909434
   -0.001582547   -0.012823154   -0.016554879
   -0.019627095   -0.006337315   -0.001092072
    0.015804086    0.010636716   -0.012453107
   -0.007703501   -0.008851695   -0.001611190
   -0.012815263   -0.003741839    0.010274214
   -0.015113916    0.035448438   -0.058557974
   -0.004032652    0.007879951    0.035139736
    0.015284085   -0.044412925    0.020856303
    0.026800667    0.001110659    0.025978364
    0.014907048    0.020484018    0.000060755
   -0.036894862   -0.021632480   -0.026891756
    0.084343726   -0.018162466    0.028673033
   -0.088809091    0.016941390   -0.022277624
    0.003179776    0.003996148   -0.008621769
   -0.050056489   -0.022004800   -0.009010824
    0.063846126    0.023187254   -0.005262375
   -0.016516489   -0.002247655    0.014423898
    0.017774946   -0.018007447    0.009529677
   -0.016417342    0.004165691    0.000319807
   -0.001830027    0.014301325   -0.009350664
    0.001256093    0.000078678    0.004443943
   -0.004896080   -0.004337244   -0.007123569
    0.006754467    0.003042474    0.011048060
    0.026086750    0.009874434   -0.001253629
   -0.011917912   -0.003050727   -0.006396141
   -0.014069722   -0.006603475    0.007633634
