%chk=cluster_150.chk
%mem=6GB
%nproc=4
#b3lyp/6-311++G** scrf=(cpcm,Solvent=Water) nosymm freq
iop(2/11=1) 
 Geom=(NoDistance,NoAngle)

cluster_150

0 1
 O       7.47700000      17.42200000       2.37700000
 H       7.72800000      16.49500000       2.48100000
 H       7.76600000      17.83500000       3.22100000
 O       3.87500000      19.65300000       1.37000000
 H       4.54600000      20.36000000       1.27500000
 H       3.44800000      19.81200000       2.20100000
 O       5.91800000      20.18300000       5.27300000
 H       5.86600000      20.47000000       4.31500000
 H       6.80500000      20.33700000       5.65200000
 O       4.10600000      19.53500000       7.15400000
 H       4.55100000      19.23400000       7.97500000
 H       4.77500000      19.48900000       6.47000000
 O      10.48700000      20.24100000       1.95000000
 H       9.91900000      20.86000000       2.58700000
 H       9.81900000      20.02000000       1.25200000
 O       8.45900000      19.49600000       6.41600000
 H       9.26300000      19.10100000       6.80100000
 H       7.95000000      18.63800000       6.26300000
 O      10.56900000      25.44600000       5.45500000
 H      10.45800000      24.60500000       5.02700000
 H      10.79900000      25.24500000       6.39000000
 O       4.12700000      24.61000000       5.20000000
 H       3.96300000      25.49300000       5.64500000
 H       3.20700000      24.24300000       5.15400000
 O       6.00600000      22.74300000       2.03700000
 H       6.27300000      23.26700000       2.87600000
 H       6.27600000      23.21000000       1.22300000
 O       8.91700000      22.81700000       4.31600000
 H       8.96000000      22.00800000       4.91600000
 H       8.35400000      23.50000000       4.74000000
 O       3.07500000      23.69800000       1.76100000
 H       3.89900000      24.21800000       1.57200000
 H       2.75900000      23.53300000       0.80900000

