39
XYZ file of cluster: frame_2000_2e35a.4e928.ad6a - created by MolEdiTo
 O       9.10400000       7.57000000       2.92200000
 H       9.97800000       7.11900000       2.95900000
 H       8.41300000       6.93000000       2.60100000
 O       9.99100000      14.60400000       2.74500000
 H      10.06900000      14.57300000       1.76100000
 H       9.95800000      13.67500000       2.97100000
 O       9.93400000      13.28400000       5.63300000
 H      10.82200000      13.61200000       5.29400000
 H      10.13800000      12.85800000       6.51900000
 O       4.71500000      10.48300000       4.50900000
 H       4.16900000      10.11600000       5.26300000
 H       5.42500000       9.87100000       4.41400000
 O       6.17900000       7.26900000       3.97100000
 H       6.91800000       7.07800000       3.35400000
 H       5.36900000       6.93600000       3.46900000
 O       9.40200000       9.38600000       0.99700000
 H       9.24100000       8.66400000       1.59900000
 H       8.58400000       9.84500000       1.20500000
 O       5.01300000      13.05400000       3.66500000
 H       5.80900000      13.24000000       4.16900000
 H       4.56300000      12.31800000       4.13000000
 O       4.60400000      10.94500000       1.26500000
 H       4.73700000      11.26600000       2.17200000
 H       5.53200000      11.02400000       0.93600000
 O       4.32700000      14.81500000       6.21700000
 H       5.15900000      14.90900000       6.66900000
 H       3.94200000      14.04400000       6.60400000
 O       6.75800000      13.94900000       1.62100000
 H       5.82300000      14.07200000       1.87500000
 H       7.12700000      13.31300000       2.33200000
 O       6.60900000      12.32700000       7.55600000
 H       6.74200000      12.76900000       8.36900000
 H       6.89300000      13.10600000       6.98500000
 O       8.27900000       9.60900000       4.43800000
 H       8.47600000       8.74400000       3.92700000
 H       7.96900000       9.21100000       5.34000000
 O       7.92300000      12.49500000       3.84400000
 H       8.35100000      13.12700000       4.36900000
 H       8.23400000      11.59800000       4.26000000
