36
XYZ file of cluster: frame_2000_55ecb.cafec.4d12a - created by MolEdiTo
 O      12.12000000      20.75600000      10.41800000
 H      12.55400000      20.42700000      11.27400000
 H      11.26100000      21.09700000      10.76600000
 O       9.55300000      19.65400000       9.28600000
 H       9.65400000      20.04600000      10.13900000
 H      10.39600000      19.95700000       8.86900000
 O      13.10400000      19.51100000      12.75900000
 H      12.71000000      18.64100000      12.75600000
 H      13.39300000      19.49100000      13.74600000
 O      13.59300000      18.20200000       7.05800000
 H      13.15100000      19.07300000       7.24200000
 H      14.46400000      18.45400000       6.74900000
 O       7.49100000      18.32000000       7.46000000
 H       8.39300000      18.30700000       6.99200000
 H       7.65500000      19.17300000       7.84700000
 O      10.07600000      19.49700000      14.18700000
 H       9.72700000      18.75800000      13.63700000
 H      10.69600000      19.16400000      14.78700000
 O      12.17100000      17.91600000       9.78800000
 H      12.26700000      18.85600000       9.98000000
 H      12.37100000      17.90400000       8.81700000
 O      10.28700000      23.22900000      12.31600000
 H      10.30200000      22.75600000      13.22100000
 H      11.07100000      23.80200000      12.38300000
 O      12.51500000      23.81700000      14.60100000
 H      12.62600000      22.87700000      14.94800000
 H      13.21600000      23.80700000      13.96200000
 O       7.45300000      22.78300000      12.35300000
 H       7.33000000      21.84200000      12.07000000
 H       8.44600000      22.79700000      12.34000000
 O       9.42000000      24.77700000       8.91000000
 H       9.52700000      24.76200000       7.96600000
 H       9.25800000      23.86300000       9.17000000
 O      13.09700000      22.50600000       7.39100000
 H      12.42300000      22.75500000       8.02100000
 H      13.23000000      23.19300000       6.65600000
