42
XYZ file of cluster: frame_2000_0.9ba00.208fb - created by MolEdiTo
 O       4.83900000      15.73900000       9.42600000
 H       5.31100000      16.28500000       8.74400000
 H       5.32400000      14.91000000       9.40900000
 O       5.59700000      20.22400000       6.24000000
 H       6.26500000      19.51800000       6.03300000
 H       4.93900000      19.73000000       6.77200000
 O       3.26700000      16.88900000       4.63800000
 H       3.93100000      16.38400000       5.16700000
 H       2.44700000      16.35100000       4.78500000
 O       2.44000000      14.41300000       2.81200000
 H       3.21300000      13.72600000       3.02800000
 H       2.10300000      14.55100000       3.75000000
 O       3.23600000      19.35000000       7.36900000
 H       2.62800000      18.69800000       6.97400000
 H       2.63700000      20.14100000       7.20600000
 O       0.98800000      15.37300000       5.34200000
 H       1.12400000      14.45200000       5.65500000
 H       0.00000000      15.27200000       5.17400000
 O       1.30500000      20.58200000       9.85400000
 H       0.95800000      21.53300000      10.04000000
 H       1.11200000      20.49800000       8.81700000
 O       6.84800000      15.65200000       7.24300000
 H       7.51600000      15.87300000       7.98200000
 H       6.81000000      16.42700000       6.74900000
 O       4.32700000      14.81500000       6.21700000
 H       5.15900000      14.90900000       6.66900000
 H       3.94200000      14.04400000       6.60400000
 O       5.33500000      19.58500000       9.49400000
 H       5.09600000      20.52900000       9.37600000
 H       4.92200000      19.16700000       8.70300000
 O       1.74100000      14.87700000       8.77000000
 H       2.43900000      14.75300000       8.06800000
 H       1.89700000      14.23300000       9.53600000
 O       0.56600000      17.25500000       7.75600000
 H       1.13200000      17.85800000       8.31600000
 H       1.14200000      16.40800000       7.64300000
 O       2.72100000      18.18000000      10.50900000
 H       2.16300000      18.97600000      10.55000000
 H       3.58200000      18.52000000      10.38000000
 O       3.87000000      19.35600000       3.69900000
 H       3.73300000      20.07100000       4.33700000
 H       3.74100000      18.52100000       4.12800000
