%chk=cluster_315.chk
%mem=6GB
%nproc=4
#b3lyp/6-311++G** scrf=(cpcm,Solvent=Water) nosymm freq
iop(2/11=1) 
 Geom=(NoDistance,NoAngle)

cluster_315

0 1
 O      11.39700000       7.02100000      18.73800000
 H      10.47600000       6.86900000      18.35200000
 H      11.30600000       6.79600000      19.72900000
 O      12.58300000       4.40700000      19.88600000
 H      12.63400000       5.29100000      19.41500000
 H      13.49100000       4.54200000      20.34100000
 O      15.18500000       8.82500000      18.33700000
 H      14.42900000       9.27400000      18.75000000
 H      15.71700000       9.62300000      18.11500000
 O      16.94700000       3.99400000      18.33000000
 H      16.91700000       3.40600000      19.12100000
 H      16.13000000       3.78600000      17.79400000
 O      17.59100000       7.65200000      17.90400000
 H      17.88400000       8.59600000      17.97800000
 H      16.71900000       7.53100000      18.37700000
 O      12.14700000       7.18100000      22.73200000
 H      12.09800000       6.80800000      23.69000000
 H      12.50500000       8.09300000      22.85800000
 O      10.90600000      10.09500000      23.87500000
 H      10.88100000      10.05800000      22.91600000
 H      11.90500000      10.13700000      23.94900000
 O      15.38800000       3.06600000      24.08700000
 H      15.04200000       3.98300000      23.94900000
 H      15.51100000       3.08600000      25.03200000
 O      13.76300000      10.12700000      23.13700000
 H      13.63600000       9.76100000      24.07100000
 H      14.70100000      10.25200000      23.03400000
 O      14.83400000       5.56900000      22.46300000
 H      14.41700000       6.08800000      23.22400000
 H      15.73400000       5.91600000      22.54200000
 O       9.64200000       4.59600000      23.48700000
 H       9.40800000       3.63700000      23.23000000
 H      10.57300000       4.43700000      23.65100000
 O      11.91900000       3.14500000      23.47800000
 H      11.86100000       2.22100000      23.06900000
 H      12.35300000       3.64300000      22.78500000

