48
XYZ file of cluster: frame_18500_75e32.78942.4d0f - created by MolEdiTo
 O      17.12300000      10.75600000       2.15300000
 H      17.74600000      11.06000000       1.51600000
 H      17.13000000      11.37400000       2.88700000
 O      11.58400000      17.47600000       5.76000000
 H      11.98100000      16.83700000       5.12900000
 H      12.26200000      18.09200000       5.79300000
 O      12.04600000      11.94300000       1.49300000
 H      12.04500000      11.94900000       2.50500000
 H      12.95000000      12.31800000       1.34400000
 O      14.43200000      14.61200000       2.14600000
 H      14.62700000      13.63600000       2.21200000
 H      15.07700000      14.96500000       2.82400000
 O      14.91300000      12.20400000       0.96300000
 H      15.76600000      11.79900000       1.28300000
 H      15.06100000      13.07100000       0.42700000
 O      11.39900000      11.02100000       4.29600000
 H      10.72900000      11.16600000       5.01500000
 H      11.08400000      11.61800000       3.60400000
 O      16.18900000      15.70200000       3.88600000
 H      16.58600000      15.42500000       4.73900000
 H      16.44100000      16.68300000       3.78200000
 O      10.75600000      14.64200000       5.22400000
 H      10.24400000      14.67900000       6.11500000
 H      11.73000000      14.76800000       5.47800000
 O      13.59900000      13.99200000       5.92500000
 H      14.29000000      14.65600000       6.16300000
 H      13.99900000      13.28500000       5.33800000
 O      17.16800000      11.32700000       6.57800000
 H      17.29000000      10.46800000       6.04400000
 H      17.03700000      11.99600000       5.84500000
 O      16.68200000      14.44300000       6.88600000
 H      17.07700000      15.19000000       7.17500000
 H      17.26900000      13.78800000       7.30600000
 O      12.56000000      16.24900000       3.18100000
 H      13.04200000      15.58800000       2.61600000
 H      13.25700000      16.82800000       3.25100000
 O      14.24500000      11.76900000       3.91900000
 H      14.48400000      11.09000000       3.23900000
 H      13.44800000      11.32100000       4.34900000
 O      17.60300000      13.75800000       1.28300000
 H      17.96300000      13.46200000       0.42400000
 H      17.15400000      14.61700000       1.14300000
 O      17.59000000      12.81800000       4.05800000
 H      17.51700000      13.44900000       3.27500000
 H      18.24200000      13.36300000       4.53800000
 O      14.52000000      17.24300000       1.14300000
 H      14.54700000      16.31000000       1.41500000
 H      15.17900000      17.20100000       0.42300000
