42
XYZ file of cluster: frame_18500_9c7f1.9906f.4d0f - created by MolEdiTo
 O      18.03800000      20.51200000       2.93100000
 H      17.85100000      19.70900000       3.44200000
 H      17.42200000      20.56900000       2.17800000
 O      15.03100000      20.02000000       1.81700000
 H      15.12300000      19.44900000       2.63200000
 H      14.34300000      19.63500000       1.29200000
 O      14.43200000      14.61200000       2.14600000
 H      14.62700000      13.63600000       2.21200000
 H      15.07700000      14.96500000       2.82400000
 O      19.50400000      14.99700000       4.69600000
 H      20.27900000      14.77900000       4.14800000
 H      19.82100000      15.05700000       5.60000000
 O      14.30200000      19.07200000       4.88100000
 H      15.23200000      18.94300000       5.13900000
 H      14.06700000      19.88900000       5.39200000
 O      16.18900000      15.70200000       3.88600000
 H      16.58600000      15.42500000       4.73900000
 H      16.44100000      16.68300000       3.78200000
 O      13.59900000      13.99200000       5.92500000
 H      14.29000000      14.65600000       6.16300000
 H      13.99900000      13.28500000       5.33800000
 O      16.68200000      14.44300000       6.88600000
 H      17.07700000      15.19000000       7.17500000
 H      17.26900000      13.78800000       7.30600000
 O      16.80800000      18.97600000       5.54600000
 H      16.90100000      19.70000000       6.30300000
 H      17.67500000      18.46100000       5.51700000
 O      18.65700000      17.72100000       2.53600000
 H      19.06000000      16.79500000       2.39100000
 H      19.17300000      18.28000000       1.85700000
 O      20.00300000      15.69000000       1.60800000
 H      19.32100000      15.07900000       1.48100000
 H      20.68500000      15.49300000       0.95000000
 O      14.52000000      17.24300000       1.14300000
 H      14.54700000      16.31000000       1.41500000
 H      15.17900000      17.20100000       0.42300000
 O      17.60300000      13.75800000       1.28300000
 H      17.96300000      13.46200000       0.42400000
 H      17.15400000      14.61700000       1.14300000
 O      19.44700000      18.15300000       5.09200000
 H      19.26300000      17.39300000       5.66800000
 H      19.14600000      17.90900000       4.21000000
