30
XYZ file of cluster: frame_18500_a98bd.578b.9b1df - created by MolEdiTo
 O      18.01700000       5.84600000      19.51900000
 H      17.25000000       5.74400000      20.09900000
 H      17.69800000       6.46900000      18.86400000
 O      18.39000000       3.03100000      18.96100000
 H      18.76100000       2.57300000      19.82100000
 H      18.62000000       4.00700000      19.17900000
 O      15.48500000       3.84600000      19.26800000
 H      16.44400000       3.51400000      19.32000000
 H      15.35900000       3.95100000      20.25900000
 O      19.17100000       3.82500000      14.08600000
 H      18.69900000       4.17300000      14.87200000
 H      20.07600000       3.97300000      14.29100000
 O      15.38300000       6.82300000      18.29500000
 H      15.11600000       7.33900000      17.49000000
 H      14.94100000       5.91500000      18.08400000
 O      15.26000000       2.40800000      13.87500000
 H      15.83000000       2.64400000      14.63300000
 H      14.73300000       3.29700000      13.62400000
 O      15.97900000       1.20800000      16.45600000
 H      16.34700000       1.13000000      17.39400000
 H      16.21900000       0.47500000      15.92700000
 O      18.59500000       5.94500000      16.25800000
 H      18.59500000       5.90600000      17.24700000
 H      18.34800000       6.84900000      15.97200000
 O      16.42500000       4.02000000      15.94900000
 H      16.14500000       3.51800000      16.73500000
 H      17.27500000       4.52300000      16.13400000
 O      19.45200000       2.45000000      16.62700000
 H      18.74200000       1.81400000      16.24500000
 H      18.97800000       2.61000000      17.49600000
