61
XYZ file of cluster: frame_18500_486b6.44602.617ea - created by MolEdiTo
 O      14.52600000       7.85900000      11.47600000
 H      15.08200000       7.15900000      11.06900000
 H      13.65100000       7.72000000      11.24000000
 O      14.13300000       8.36900000      15.50500000
 H      14.60100000       7.70500000      14.97300000
 H      14.38700000       9.29100000      15.21400000
 O      10.70900000       8.04900000      17.64000000
 H       9.87200000       8.54400000      17.67400000
 H      11.08200000       8.58500000      16.87300000
 O      14.28400000      11.16400000      17.10600000
 H      13.49800000      11.63900000      17.31200000
 H      14.82500000      11.10100000      17.89500000
 O       6.47300000      10.52100000      16.76800000
 H       6.43600000       9.65900000      17.33400000
 H       7.36100000      10.82200000      17.01900000
 O      11.45600000      10.14000000      15.75100000
 H      11.96700000      10.72700000      15.01200000
 H      12.05600000       9.32200000      15.90000000
 O       8.22700000       7.87000000      14.28900000
 H       7.26600000       7.63000000      14.36000000
 H       8.29400000       8.64100000      14.86000000
 O      10.81600000       6.89400000      14.86300000
 H      10.78800000       5.93600000      14.45900000
 H      10.15400000       7.54200000      14.37200000
 O      13.70300000      11.23900000      14.36200000
 H      13.85800000      12.02700000      14.98700000
 H      12.93900000      11.51100000      13.79900000
 O       7.80800000      13.33800000      14.55500000
 H       7.72200000      14.21200000      14.88500000
 H       6.87900000      13.13600000      14.26600000
 O       7.00800000       7.71900000      17.13300000
 H       7.76100000       7.12200000      17.23700000
 H       6.29300000       7.05300000      16.78300000
 C      11.16500000       9.74800000      12.18300000
 C      11.32000000      10.06100000      10.61300000
 C       9.04500000      11.11700000      10.38200000
 H      10.82200000      12.26500000      10.72700000
 H      12.88600000       9.13300000      12.72700000
 O      10.78900000      11.60200000       8.79300000
 O      11.40300000      10.93800000      12.90800000
 O      12.07800000       8.70700000      12.47800000
 C      10.55200000      11.37200000      10.20100000
 O      12.73700000      10.23400000      10.21000000
 H      10.90600000       9.26100000       9.93700000
 O       8.66800000      10.14700000       9.33200000
 O       8.33000000      12.32500000      10.27900000
 H       7.36600000      12.08800000      10.32400000
 H      12.95800000       9.73400000       9.43600000
 H      11.72700000      11.92700000       8.56300000
 O       8.73400000      11.41100000      17.94900000
 H       9.55900000      11.03200000      18.52000000
 H       9.05700000      11.52400000      16.96100000
 O       8.81400000      10.76500000      15.17200000
 H       8.64400000      11.67600000      14.76200000
 H       9.75000000      10.68300000      14.80800000
 O      12.53900000      13.46100000      17.81200000
 H      12.23400000      13.99300000      18.61400000
 H      11.65200000      13.42700000      17.34500000
 O      10.35600000      14.01200000      16.06300000
 H       9.47500000      13.73100000      15.71800000
 H      11.00000000      14.43800000      15.40300000
