36
XYZ file of cluster: frame_15000_2726.53525.ccf21 - created by MolEdiTo
 O       5.53000000      13.61700000      19.10400000
 H       5.88400000      13.02700000      19.82300000
 H       4.57000000      13.42200000      19.15800000
 O       6.65800000       9.66900000      20.56400000
 H       6.33200000       8.88500000      21.05200000
 H       6.02800000       9.81400000      19.88300000
 O       2.76800000      13.29100000      19.39800000
 H       2.19300000      12.77800000      18.77400000
 H       2.26100000      14.05400000      19.72300000
 O       3.86200000      10.11700000      20.03100000
 H       4.20700000      10.62600000      20.77500000
 H       3.52400000      10.72800000      19.41600000
 O       3.54800000       7.31100000      18.64900000
 H       2.56300000       7.30400000      18.56100000
 H       3.81900000       8.07000000      18.05000000
 O       1.30100000       8.66400000      20.70400000
 H       2.27300000       8.75400000      20.56900000
 H       0.93000000       9.53000000      20.27100000
 O       1.01200000      14.85300000      24.84500000
 H       0.21200000      15.39800000      25.00800000
 H       0.63100000      14.11000000      24.27400000
 O       6.49400000      11.62000000      24.63400000
 H       6.83800000      12.08300000      23.86500000
 H       5.49700000      11.32700000      24.38300000
 O       7.17200000       8.83300000      25.01500000
 H       6.93000000       9.67400000      24.50600000
 H       7.15000000       8.05100000      24.40300000
 O       2.40100000      10.49200000      24.61500000
 H       1.54300000      10.95100000      24.95800000
 H       2.13800000       9.73100000      24.09900000
 O       4.08900000      12.40900000      23.16800000
 H       3.89100000      12.92000000      24.00800000
 H       3.70700000      12.78700000      22.36700000
 O       3.99300000       7.92400000      24.01400000
 H       4.37600000       8.08800000      24.87000000
 H       4.53000000       7.29600000      23.57500000
