54
XYZ file of cluster: frame_15000_6c83c.82481.94a0d - created by MolEdiTo
 O      18.21500000      11.40800000      14.27200000
 H      18.42800000      12.30500000      14.58200000
 H      17.53100000      11.45200000      13.56500000
 O      15.57400000      15.65600000      18.35700000
 H      16.13500000      15.08900000      18.91100000
 H      14.89000000      15.82400000      19.02300000
 O      11.42400000      16.43200000      16.66100000
 H      11.90400000      17.28800000      16.59100000
 H      10.79300000      16.34200000      15.88700000
 O      14.24300000      11.67700000      14.71200000
 H      14.10800000      11.80600000      13.77900000
 H      13.38900000      12.03700000      14.99200000
 O      11.32500000      13.03800000      14.09300000
 H      11.77400000      13.84400000      14.04800000
 H      10.93000000      13.08200000      14.94900000
 O      15.95200000      17.86100000      15.93500000
 H      15.72400000      18.80400000      15.67600000
 H      15.90700000      17.78900000      16.93100000
 O      13.03700000      16.60100000      20.09200000
 H      12.34900000      16.26000000      19.46400000
 H      12.50700000      16.84700000      20.86400000
 O      10.87200000      12.55300000      20.55200000
 H      10.66000000      12.03300000      19.75700000
 H      11.64600000      12.04500000      20.86800000
 O      16.70000000      13.40400000      15.92800000
 H      17.12700000      14.23700000      15.58100000
 H      16.33200000      13.10900000      15.06000000
 O      17.49500000      16.69500000      20.76500000
 H      17.89200000      17.29500000      21.40100000
 H      16.79600000      17.28500000      20.39900000
 O      13.54600000      14.76300000      15.19200000
 H      12.99200000      15.49800000      15.62100000
 H      14.11200000      14.52300000      16.02800000
 O      17.73200000      14.05900000      20.26300000
 H      18.70600000      14.04000000      20.28800000
 H      17.46500000      15.08400000      20.26000000
 O      17.74300000      15.89800000      15.25900000
 H      17.00100000      16.54800000      15.67400000
 H      18.43800000      16.60400000      15.02600000
 O      10.66700000      15.12200000      19.00000000
 H      10.59900000      14.28100000      19.47000000
 H      11.09000000      15.04700000      18.06600000
 O      10.10000000      16.17500000      14.43100000
 H      10.91400000      16.51500000      14.02100000
 H       9.40200000      16.00000000      13.75200000
 O      14.38400000      13.09100000      17.60000000
 H      14.36900000      12.22300000      17.22100000
 H      15.20500000      13.54800000      17.21000000
 O      11.59300000      12.51200000      17.17800000
 H      12.46300000      12.91400000      17.49700000
 H      11.73500000      11.54500000      17.42100000
 O      15.36800000      16.92800000      13.45200000
 H      15.90400000      16.20100000      13.09000000
 H      15.62300000      17.08100000      14.37600000
