45
XYZ file of cluster: frame_15000_9b62a.44b4.5482a - created by MolEdiTo
 O      16.52100000       3.99500000       9.55000000
 H      16.45000000       3.24300000       8.92500000
 H      15.75000000       3.87100000      10.19800000
 O      14.38800000       2.88500000      10.84800000
 H      14.16900000       2.37600000      11.63400000
 H      13.54900000       3.16200000      10.39500000
 O      19.84700000       0.87400000      11.66400000
 H      20.49900000       0.79900000      12.38700000
 H      20.23500000       0.37600000      10.92500000
 O      18.09200000       4.91900000      11.84600000
 H      17.69500000       4.08700000      12.19100000
 H      17.89000000       4.97200000      10.86900000
 O      15.72200000       4.63200000      14.33100000
 H      15.69900000       3.69800000      14.67500000
 H      16.65300000       4.86600000      14.19800000
 O      19.89200000       4.88200000       8.34300000
 H      19.42100000       4.10000000       8.70100000
 H      20.20200000       4.58700000       7.44300000
 O      13.62900000       5.12000000      12.80900000
 H      13.88600000       4.46200000      12.14500000
 H      14.30500000       4.97300000      13.56100000
 O      13.58500000       6.08500000       8.81700000
 H      14.54400000       6.17500000       8.97100000
 H      13.46300000       6.92500000       8.29100000
 O      15.85000000       1.06000000       8.43000000
 H      14.99300000       1.48300000       8.09700000
 H      15.79200000       1.17400000       9.40800000
 O      17.43100000       2.06700000      12.20500000
 H      17.83300000       2.26800000      13.13000000
 H      18.27400000       1.60200000      11.79000000
 O      16.42500000       6.42900000       8.23000000
 H      17.20700000       6.85500000       7.86200000
 H      16.71200000       5.52000000       8.68600000
 O      18.38300000       3.41900000      14.24300000
 H      19.00100000       4.24100000      14.35700000
 H      17.92200000       3.48200000      15.13200000
 O      19.12700000       5.89700000      14.10300000
 H      19.51200000       6.76400000      14.36000000
 H      18.99300000       5.88900000      13.09600000
 O      18.91600000       2.44700000       9.22100000
 H      18.44900000       2.53200000      10.09800000
 H      18.81200000       1.61800000       8.79200000
 O      19.61800000       7.02900000      10.27900000
 H      19.21500000       7.74700000       9.76000000
 H      19.90300000       6.37800000       9.56400000
