42
XYZ file of cluster: frame_15000_900a.20a68.2121c - created by MolEdiTo
 O       7.46500000       4.63500000       4.07100000
 H       7.43000000       3.70400000       3.69800000
 H       7.03600000       5.21400000       3.43500000
 O       1.42300000       3.71600000       6.22500000
 H       1.05700000       2.85900000       6.15000000
 H       2.41700000       3.51000000       6.39400000
 O       1.76800000       9.64800000       7.75400000
 H       1.75500000      10.32100000       8.46900000
 H       1.71100000      10.28600000       6.94800000
 O       7.01500000       6.35300000      10.06900000
 H       6.71000000       6.37400000       9.13200000
 H       7.84700000       5.85100000      10.11600000
 O       6.30000000       9.07600000       8.36100000
 H       6.06500000       8.79700000       9.29400000
 H       5.60500000       8.54900000       7.86100000
 O       3.48300000       6.72900000       4.92800000
 H       3.59700000       5.87300000       4.41200000
 H       2.75300000       7.13200000       4.32700000
 O       4.14800000       4.40600000       3.75300000
 H       4.12900000       3.59500000       4.19200000
 H       4.54500000       4.15700000       2.91800000
 O       3.95400000      11.39900000       8.73900000
 H       3.43800000      10.60000000       8.96600000
 H       4.50400000      11.18800000       7.93400000
 O       4.99900000       9.62200000       5.45300000
 H       4.71200000       8.94500000       6.05200000
 H       5.89000000       9.36200000       5.12100000
 O       1.36600000       3.07500000      10.41900000
 H       0.80200000       3.74100000      10.84600000
 H       0.94600000       2.90000000       9.54200000
 O       1.74500000       8.31100000      11.21900000
 H       0.78000000       7.95900000      11.26400000
 H       1.95200000       8.09000000      10.25300000
 O       4.00100000       7.90200000       7.57400000
 H       3.86100000       7.07200000       7.07800000
 H       3.14500000       8.36200000       7.62700000
 O       7.19600000       5.06100000       7.19700000
 H       6.17900000       5.08700000       7.25000000
 H       7.33500000       5.19700000       6.22200000
 O       4.77900000       4.87200000       8.41800000
 H       3.95200000       4.63500000       8.85900000
 H       5.34400000       5.14400000       9.15800000
