61
XYZ file of cluster: frame_15000_1dfc3.5c34e.4ef25 - created by MolEdiTo
 O      10.20700000      14.66400000      11.04400000
 H       9.51100000      14.55400000      10.40700000
 H       9.89700000      14.16900000      11.80800000
 O       5.36300000      16.44500000      14.39500000
 H       5.34700000      15.88100000      15.26200000
 H       6.30700000      16.50900000      14.23200000
 O       7.94700000      14.02600000       9.43500000
 H       7.83900000      13.92400000       8.43500000
 H       7.55100000      13.19100000       9.76700000
 O       3.95400000      11.39900000       8.73900000
 H       3.43800000      10.60000000       8.96600000
 H       4.50400000      11.18800000       7.93400000
 O       8.69600000      16.42600000       7.73100000
 H       9.12900000      16.86100000       7.01500000
 H       9.38600000      15.96200000       8.29800000
 O       4.25700000      16.71200000      11.47300000
 H       4.97000000      16.49100000      10.78000000
 H       4.75100000      16.48300000      12.23800000
 C       9.62400000       9.27700000      11.17100000
 C      10.54500000      10.35600000      11.71000000
 C      11.32300000      11.00600000       9.37400000
 H      10.08200000      12.10500000      10.66900000
 H       8.00200000       9.56400000      11.97400000
 O      11.96100000      12.24400000      11.35600000
 O       9.67600000       8.07400000      11.87500000
 O       8.25800000       9.65600000      11.03600000
 C      10.91300000      11.48400000      10.78300000
 O       9.91200000      10.95500000      12.88600000
 H      11.49700000       9.85700000      11.84900000
 O      12.41400000      10.11100000       9.58500000
 O      11.81500000      12.14700000       8.52600000
 H      12.68500000      11.81700000       8.24500000
 H      10.59400000      11.10300000      13.59700000
 H      11.62600000      12.65700000      12.15900000
 O       6.64900000      11.80500000      10.29800000
 H       5.78600000      12.18600000      10.27200000
 H       6.66400000      10.88900000       9.92100000
 O       6.36600000      16.98100000       9.09600000
 H       6.72200000      17.23400000       8.26000000
 H       6.65200000      16.04600000       9.21000000
 O       8.39300000      13.52100000      12.82200000
 H       7.67400000      12.92100000      12.44400000
 H       8.54700000      13.14400000      13.74200000
 O       3.26500000      13.98800000       7.79000000
 H       2.89300000      13.61900000       6.95300000
 H       3.67700000      13.17900000       8.22200000
 O       9.13700000      17.54300000      10.28600000
 H       8.45700000      17.25500000       9.66700000
 H       9.54900000      18.36200000       9.93900000
 O       3.26800000      11.98400000      12.05400000
 H       2.59800000      11.44100000      12.51800000
 H       4.10500000      11.51800000      12.40200000
 O      10.10000000      16.17500000      14.43100000
 H      10.91400000      16.51500000      14.02100000
 H       9.40200000      16.00000000      13.75200000
 O       7.81200000      16.30700000      12.63500000
 H       8.27800000      16.62600000      11.90300000
 H       7.86500000      15.31300000      12.41600000
 O       3.20200000      14.79700000      13.37700000
 H       2.62700000      15.49800000      13.07600000
 H       3.59700000      14.44300000      12.53200000
