48
XYZ file of cluster: frame_15000_6c83c.9ec37.4fd22 - created by MolEdiTo
 O      15.85700000      20.19600000      14.62900000
 H      15.83900000      20.12500000      13.66200000
 H      15.27600000      20.95800000      14.78000000
 O      12.61800000      20.11100000      11.69000000
 H      11.85400000      20.08600000      11.10500000
 H      12.85200000      19.19900000      11.71000000
 O      12.89100000      16.76700000       7.63500000
 H      12.45600000      15.85100000       7.55500000
 H      12.63300000      17.16900000       8.49500000
 O      18.35700000      18.24600000      13.60700000
 H      17.43000000      18.43800000      13.47200000
 H      18.52500000      19.02300000      14.17100000
 O      15.91400000      19.81100000      11.58500000
 H      16.65600000      19.23500000      11.21400000
 H      16.28100000      20.68500000      11.86700000
 O      12.23400000      17.25600000      10.23100000
 H      11.62600000      16.49900000      10.29600000
 H      13.03000000      16.90200000      10.70700000
 O      17.34600000      19.16000000       7.03000000
 H      16.79900000      19.98400000       7.03500000
 H      16.78300000      18.58200000       7.62900000
 O      18.17100000      16.51200000       8.20700000
 H      17.80500000      17.13000000       8.81700000
 H      17.48800000      15.98300000       7.81600000
 O      11.23900000      14.72200000       8.43100000
 H      10.97900000      14.47300000       9.34700000
 H      11.59300000      13.90200000       7.95700000
 O      14.79800000      14.15100000      12.72600000
 H      14.29400000      14.47800000      11.99500000
 H      14.34700000      14.48400000      13.56400000
 O      15.83600000      17.79200000       8.91600000
 H      15.32900000      18.57400000       8.71800000
 H      15.42000000      17.43000000       9.68700000
 O      10.39400000      20.38300000       9.92600000
 H      10.73200000      20.26000000       9.04200000
 H       9.65000000      21.01100000       9.79100000
 O      10.10000000      16.17500000      14.43100000
 H      10.91400000      16.51500000      14.02100000
 H       9.40200000      16.00000000      13.75200000
 O      15.36800000      16.92800000      13.45200000
 H      15.90400000      16.20100000      13.09000000
 H      15.62300000      17.08100000      14.37600000
 O      12.49900000      17.63000000      13.52000000
 H      12.10300000      18.50000000      13.87900000
 H      13.42800000      17.74100000      13.28100000
 O      15.83500000      14.98100000       7.88100000
 H      16.13000000      14.24300000       8.50300000
 H      15.19200000      15.62100000       8.28100000
