%chk=cluster_503.chk
%mem=6GB
%nproc=4
#b3lyp/6-31G** scrf=(cpcm,Solvent=Water) nosymm force
iop(2/11=1) 
 Geom=(NoDistance,NoAngle)

cluster_503

0 1
 O      18.87900000       1.34500000      12.16300000
 H      19.05600000       1.85300000      11.44600000
 H      19.69600000       0.72800000      12.20500000
 O      18.52300000       6.94600000      13.79200000
 H      18.12400000       6.50300000      14.58800000
 H      19.52000000       7.11700000      14.02900000
 O      17.71700000       2.97100000      15.07000000
 H      17.92300000       2.05400000      15.18100000
 H      18.05900000       3.32500000      14.22900000
 O      18.36000000       2.89100000       9.98600000
 H      18.42600000       3.31200000      10.90600000
 H      17.37300000       2.89700000       9.93400000
 O      18.46300000       4.35800000      12.31300000
 H      18.41800000       5.37600000      12.51700000
 H      19.40300000       4.16500000      12.14700000
 O      19.52400000       4.27100000      17.27200000
 H      19.45600000       3.78100000      16.44700000
 H      18.59600000       4.23400000      17.56800000
 O      22.08900000       7.36500000      14.27400000
 H      22.78800000       6.70200000      14.40800000
 H      22.51900000       7.88800000      13.55700000
 O      22.09700000       3.03800000      10.87900000
 H      22.21000000       2.62100000       9.96500000
 H      21.69700000       3.94200000      10.57900000
 O      23.71000000       4.97300000      13.98300000
 H      23.31400000       4.10600000      14.24800000
 H      24.48300000       5.20900000      14.61200000
 O      22.98300000       2.24200000      13.69300000
 H      22.63800000       2.28500000      12.80300000
 H      22.76500000       1.32700000      13.98200000
 O      23.45400000       7.79200000      11.20700000
 H      22.59800000       7.93800000      11.00400000
 H      23.52300000       6.82900000      11.35100000
 O      22.04700000       6.83400000      17.49800000
 H      21.06800000       6.43700000      17.45100000
 H      22.40200000       6.91000000      16.58300000
 O      23.17500000       3.14800000      17.33000000
 H      22.52800000       3.75400000      16.99200000
 H      22.75300000       2.43200000      17.84100000
 O      24.23200000       5.09000000      10.79100000
 H      24.39800000       4.88200000      11.73000000
 H      23.65100000       4.38900000      10.44300000

