123
XYZ file of cluster: frame_8500_4773b.9ddbc.4b584 - created by MolEdiTo
 O      20.75100000      22.35800000      13.12700000
 H      21.13900000      23.27500000      13.08200000
 H      19.86000000      22.57400000      12.83600000
 O      19.03900000      22.01700000      15.44900000
 H      19.05000000      22.77000000      16.08000000
 H      19.82900000      22.10100000      14.86900000
 O      15.30100000      24.26100000      16.63600000
 H      14.60500000      24.03100000      17.28600000
 H      15.97000000      24.71400000      17.23100000
 O      11.95100000      23.05200000      15.80900000
 H      11.84500000      23.78200000      15.15700000
 H      11.21000000      22.40000000      15.47400000
 O      12.94700000      30.10800000      10.16900000
 H      13.03300000      31.07400000       9.80600000
 H      13.78900000      29.91200000      10.62700000
 O      17.39300000      25.76900000      19.26800000
 H      16.88800000      25.15900000      19.78300000
 H      17.97300000      26.06400000      19.94000000
 O      15.82600000      29.20800000      11.18300000
 H      15.57600000      28.87700000      12.04800000
 H      15.71600000      28.51900000      10.55000000
 O      19.81300000      26.91500000      14.13500000
 H      20.18600000      27.75200000      14.54400000
 H      19.03600000      26.78900000      14.78800000
 O      10.34600000      25.85900000      19.76200000
 H      11.03100000      26.04000000      19.05400000
 H      10.77300000      25.23800000      20.37500000
 O      19.14700000      27.46400000      20.75500000
 H      18.57700000      27.93400000      21.43400000
 H      19.56100000      26.70600000      21.25300000
 O      12.32100000      27.42200000      11.83500000
 H      12.50100000      26.46900000      11.76800000
 H      11.50100000      27.44500000      11.36300000
 O      17.50600000      22.32100000      18.00100000
 H      16.65400000      21.89500000      18.25000000
 H      17.90900000      21.73500000      17.31100000
 O      15.78900000      30.07100000      20.81300000
 H      15.52600000      29.13500000      20.93200000
 H      16.20500000      30.05000000      19.94700000
 O      18.90000000      24.63400000      16.74300000
 H      18.28400000      24.22200000      17.34700000
 H      18.45300000      25.47700000      16.57300000
 O      11.30300000      29.67800000      19.85300000
 H      11.83700000      30.04500000      20.54500000
 H      11.48000000      30.29900000      19.13400000
 O      13.73600000      23.30700000      10.96300000
 H      14.27700000      22.69700000      11.55300000
 H      12.87300000      22.90000000      10.91300000
 O      18.39500000      24.73100000      10.10700000
 H      18.28600000      24.84000000      11.08900000
 H      18.45900000      25.64700000       9.75400000
 O      15.97400000      23.67300000      14.04000000
 H      15.81300000      22.78300000      13.65500000
 H      15.88300000      23.41700000      14.90900000
 O      17.84300000      27.04100000      16.29200000
 H      17.37400000      26.87500000      15.45200000
 H      17.19700000      27.05600000      17.04100000
 O      14.20500000      28.72400000      13.30300000
 H      14.10400000      28.89400000      14.27500000
 H      13.44200000      28.11300000      12.93800000
 O      14.21200000      21.38800000      16.19500000
 H      14.20600000      21.22900000      15.24200000
 H      13.39600000      21.94100000      16.20700000
 O       9.85600000      27.63400000      17.36400000
 H       9.23100000      27.36600000      16.67900000
 H      10.76300000      27.80100000      16.96100000
 O      12.49100000      30.78300000      15.01000000
 H      13.12100000      30.58800000      15.77900000
 H      13.03500000      31.11600000      14.25000000
 O      14.08700000      29.51200000      17.18400000
 H      13.85600000      28.71000000      17.71100000
 H      15.08800000      29.60500000      17.17400000
 O      18.71800000      27.93300000      11.72800000
 H      19.24500000      27.87100000      12.51200000
 H      18.57600000      28.92900000      11.52500000
 O      18.28400000      24.46100000      12.75600000
 H      18.39500000      25.34700000      13.13700000
 H      17.51100000      24.25900000      13.33200000
 O      11.52000000      22.87300000      20.90800000
 H      12.14200000      22.69300000      21.67000000
 H      11.88400000      22.41600000      20.11500000
 O      20.35800000      28.50400000      15.08900000
 H      20.95000000      29.21000000      15.09400000
 H      19.78100000      28.77800000      15.84500000
 O      10.71600000      23.44700000      12.55700000
 H      10.15500000      24.18600000      12.20000000
 H      11.66900000      23.77700000      12.49300000
 O      12.74600000      27.32500000      16.82700000
 H      13.38700000      27.14200000      17.57300000
 H      12.62700000      28.26100000      16.59100000
 O      10.09500000      30.18700000      13.65400000
 H      10.51200000      30.22800000      12.80500000
 H      10.83600000      30.43900000      14.30800000
 O      13.72500000      25.17200000      19.15400000
 H      14.08000000      25.58800000      19.95900000
 H      13.52400000      24.23100000      19.30700000
 O      15.33900000      21.37100000      21.01600000
 H      15.24100000      20.91400000      20.15100000
 H      15.70200000      20.65500000      21.60200000
 O      13.18600000      25.35900000      14.39400000
 H      12.39100000      25.84000000      14.63600000
 H      13.61200000      25.23200000      15.24100000
 O      21.42000000      27.44500000      17.91000000
 H      20.64300000      26.95800000      18.30800000
 H      21.99000000      27.32300000      18.71800000
 O      16.05000000      21.41100000      11.47600000
 H      15.86600000      20.43800000      11.32600000
 H      16.74100000      21.57700000      10.78700000
 O      16.04100000      26.71000000      14.25300000
 H      15.76400000      27.27700000      13.51200000
 H      15.61900000      25.84300000      14.06200000
 O      18.67000000      29.18200000      20.10100000
 H      18.99800000      29.46800000      21.05900000
 H      18.84900000      28.23400000      20.21300000
 O      13.84900000      22.45400000      18.65200000
 H      14.19600000      21.92900000      17.89100000
 H      14.23300000      22.02500000      19.42900000
 O      20.31000000      22.35000000      20.65400000
 H      20.50300000      23.20400000      21.12700000
 H      20.32300000      22.60800000      19.68900000
 O      15.74600000      28.39800000      18.62400000
 H      15.22400000      27.99100000      19.36500000
 H      16.59900000      28.49800000      18.99400000
