126
XYZ file of cluster: frame_8500_72537.c4c94.c6009 - created by MolEdiTo
 O      24.41200000      28.75300000      29.01700000
 H      24.54500000      29.01500000      28.08200000
 H      24.06600000      29.52500000      29.50700000
 O      19.65500000      30.34200000      26.34100000
 H      19.00300000      30.16200000      25.63300000
 H      19.19100000      30.09100000      27.19600000
 O      21.88100000      29.18500000      29.65900000
 H      21.27000000      28.47000000      29.67600000
 H      22.36700000      29.04100000      28.84500000
 O      22.26900000      25.93900000      28.56400000
 H      22.34200000      26.94300000      28.35900000
 H      21.82400000      25.80600000      29.45000000
 O      19.83000000      28.25000000      29.50300000
 H      18.92500000      28.46900000      29.32800000
 H      19.55200000      27.67700000      30.26000000
 O      22.83600000      28.95300000      27.24000000
 H      23.79400000      29.04200000      27.02700000
 H      22.37000000      29.22800000      26.43600000
 O      17.70800000      27.14800000      27.65900000
 H      16.81300000      27.18700000      28.12400000
 H      18.13800000      26.31200000      27.96800000
 O      20.31300000      25.58500000      28.18700000
 H      20.12800000      26.56400000      28.36800000
 H      21.27900000      25.47800000      28.41800000
 O      16.54900000      28.88600000      29.49900000
 H      15.64000000      28.78900000      29.04300000
 H      16.19700000      28.96200000      30.44900000
 O      18.68400000      29.74500000      35.78900000
 H      19.21400000      30.39300000      35.21200000
 H      18.66200000      28.88800000      35.39200000
 O      17.84400000      29.41800000      34.25500000
 H      18.02500000      28.74800000      33.57600000
 H      17.20900000      28.94600000      34.76700000
 O      22.35100000      26.48300000      36.63900000
 H      22.67200000      27.26200000      36.05300000
 H      22.86900000      25.71500000      36.35200000
 O      19.73700000      27.98900000      35.23300000
 H      20.11500000      27.26000000      34.77600000
 H      20.16900000      28.73700000      34.69200000
 O      22.72700000      28.68000000      35.01900000
 H      22.64500000      28.80100000      34.07200000
 H      22.10700000      29.32800000      35.38200000
 O      22.96900000      30.78500000      35.36400000
 H      23.43000000      31.53800000      35.83600000
 H      22.90900000      31.16900000      34.47500000
 O      22.95200000      26.42500000      33.24100000
 H      23.19300000      26.04500000      34.14400000
 H      22.73000000      27.38600000      33.44500000
 O      17.59400000      27.02700000      32.51300000
 H      17.85100000      26.46600000      33.32300000
 H      16.66400000      26.76400000      32.49000000
 O      25.32100000      29.14400000      35.59100000
 H      24.64500000      28.63700000      35.01100000
 H      26.20500000      28.71100000      35.45000000
 O      22.86100000      29.16000000      33.12200000
 H      22.98000000      30.12500000      33.09600000
 H      21.97500000      29.03400000      32.68400000
 O      16.28500000      28.17800000      35.65000000
 H      15.96800000      27.71800000      36.48900000
 H      15.55200000      28.77400000      35.46800000
 O      24.93500000      28.21300000      33.59800000
 H      24.61300000      27.62500000      32.95300000
 H      24.18500000      28.85100000      33.69500000
 O      21.32800000      28.69800000      34.76700000
 H      21.79600000      29.26600000      35.40300000
 H      20.59400000      29.30500000      34.62100000
 O      23.83600000      33.91400000      28.23600000
 H      22.85600000      34.27100000      28.34800000
 H      24.28100000      34.68500000      27.87900000
 O      15.57900000      36.59600000      30.70400000
 H      14.77000000      36.50700000      31.35300000
 H      16.21200000      37.26700000      30.96100000
 O      17.21400000      35.23200000      28.15500000
 H      16.58900000      34.79800000      28.84600000
 H      16.65800000      35.99800000      28.05400000
 O      19.80700000      34.63900000      27.15300000
 H      18.93200000      34.92000000      27.51500000
 H      19.62200000      33.72800000      27.04300000
 O      22.48500000      34.96700000      28.13000000
 H      22.75900000      35.64100000      27.42500000
 H      21.60400000      34.65800000      27.81100000
 O      18.58900000      32.47900000      29.08200000
 H      18.12200000      31.60900000      29.35300000
 H      17.79100000      32.96100000      29.23400000
 O      21.17600000      33.33800000      30.45600000
 H      21.79500000      32.87400000      29.99100000
 H      20.38400000      32.88000000      30.00300000
 O      19.77400000      36.31000000      29.45400000
 H      19.98000000      35.78200000      28.69900000
 H      19.39600000      35.56100000      30.00500000
 O      16.62100000      33.52100000      26.18600000
 H      16.05500000      34.13700000      25.63900000
 H      16.93400000      34.18300000      26.91200000
 O      23.37700000      34.28400000      34.46200000
 H      24.00700000      33.66200000      34.04700000
 H      23.83100000      34.46700000      35.28700000
 O      18.44700000      34.77000000      33.04800000
 H      18.19000000      35.10600000      33.95100000
 H      17.63100000      34.77500000      32.52000000
 O      25.08900000      32.91300000      32.87200000
 H      24.58500000      33.11000000      32.06900000
 H      25.78000000      32.35500000      32.47200000
 O      26.89700000      34.87800000      34.36600000
 H      26.14400000      34.25400000      34.43200000
 H      27.18700000      34.82900000      33.43800000
 O      20.26800000      35.41800000      35.73700000
 H      19.99800000      36.22900000      36.20300000
 H      21.04100000      35.73100000      35.15900000
 O      24.77900000      33.22700000      36.62500000
 H      24.53900000      33.31200000      37.57900000
 H      24.97100000      32.34900000      36.30100000
 O      16.58500000      33.39000000      36.75400000
 H      16.31200000      33.16900000      37.67400000
 H      17.47100000      32.99100000      36.69900000
 O      22.11400000      35.46000000      33.77500000
 H      21.73400000      34.99000000      33.00900000
 H      22.95600000      35.09100000      33.88800000
 O      16.34800000      32.71600000      33.92900000
 H      17.31000000      32.32800000      33.93500000
 H      16.09400000      32.47700000      34.87600000
 O      22.28500000      35.35000000      35.90400000
 H      22.71100000      35.96600000      35.26200000
 H      22.73600000      35.59400000      36.71300000
 O      20.19800000      33.05900000      35.19500000
 H      19.99400000      33.34500000      34.25500000
 H      20.40100000      33.90600000      35.60600000
