108
XYZ file of cluster: frame_8500_1bfd.219f2.9c6dd - created by MolEdiTo
 O       4.04400000       5.82300000      30.29500000
 H       3.41900000       5.37400000      31.02300000
 H       4.89900000       5.92200000      30.83100000
 O       7.84900000      10.66400000      23.87800000
 H       7.18900000      11.01800000      24.53400000
 H       7.48100000      10.72000000      22.92800000
 O       3.99600000      11.57400000      23.33500000
 H       3.57000000      11.04100000      24.01000000
 H       3.46400000      11.31700000      22.54600000
 O       3.64900000       7.59200000      25.99200000
 H       4.30000000       8.16600000      26.48900000
 H       3.79100000       6.65100000      26.35500000
 O       8.20100000       7.07700000      22.01500000
 H       7.72500000       6.51200000      22.70000000
 H       8.08000000       7.94900000      22.35500000
 O      10.99700000       5.34100000      21.26400000
 H      10.36300000       5.74900000      20.59600000
 H      11.85100000       5.86600000      21.28900000
 O       2.39700000      10.15200000      21.19000000
 H       1.89800000      10.07600000      20.25100000
 H       1.92600000       9.54200000      21.76700000
 O       9.53300000      11.89700000      28.07700000
 H      10.27000000      12.57900000      28.17900000
 H       9.10000000      11.81800000      28.92600000
 O       7.35000000       6.38700000      27.45300000
 H       7.83600000       5.72000000      26.84800000
 H       7.82400000       6.34200000      28.30100000
 O       2.81300000       6.84600000      22.36700000
 H       2.00700000       6.27800000      22.40700000
 H       3.59400000       6.26000000      22.26400000
 O       6.35500000      15.42600000      27.46300000
 H       6.08600000      15.57400000      28.39200000
 H       7.29400000      15.56100000      27.30100000
 O      10.57100000      11.22700000      24.40200000
 H       9.60500000      11.06500000      24.20900000
 H      11.02200000      10.49300000      23.92700000
 O      11.36000000       9.53400000      29.92500000
 H      10.42200000       9.60300000      30.17700000
 H      11.38400000       9.29000000      29.00200000
 O      10.60600000       6.41400000      24.13800000
 H      10.02300000       6.44400000      23.34600000
 H      10.23100000       5.78100000      24.82600000
 O       2.44300000      13.96400000      22.10700000
 H       3.12600000      14.60400000      22.48600000
 H       2.86200000      13.06600000      22.31300000
 O       0.96800000       7.15700000      26.39600000
 H       1.86700000       7.45200000      25.95700000
 H       1.26800000       6.50000000      27.11900000
 O       4.99700000       8.36300000      28.38800000
 H       5.49200000       7.69800000      28.93000000
 H       5.57800000       9.15100000      28.44100000
 O       8.69800000      10.08600000      30.46800000
 H       8.38600000       9.20100000      30.61000000
 H       8.35700000      10.71700000      31.10700000
 O       2.63200000      14.10400000      26.80600000
 H       3.41500000      14.69400000      26.77400000
 H       2.02800000      14.44900000      26.17500000
 O       1.20100000      10.15900000      27.91700000
 H       0.22600000      10.11300000      27.70500000
 H       1.40300000       9.41300000      28.44400000
 O       7.14700000       5.85400000      24.52700000
 H       7.32200000       6.55600000      25.11900000
 H       6.17200000       5.63900000      24.49300000
 O       8.68600000      14.00200000      25.65200000
 H       8.88900000      13.07300000      25.26000000
 H       8.61200000      14.66900000      25.01100000
 O       7.82400000       9.79000000      27.20000000
 H       8.51100000      10.19200000      27.83600000
 H       7.39400000      10.59500000      26.76400000
 O       7.82200000       5.35300000      30.23800000
 H       8.67800000       5.52200000      29.84200000
 H       7.79200000       4.35300000      30.47500000
 O       6.42300000      10.25600000      21.67700000
 H       5.58700000      10.66100000      22.13300000
 H       6.32800000      10.32100000      20.67700000
 O       2.51100000       9.15500000      24.10200000
 H       3.17500000       8.74800000      24.75900000
 H       2.51800000       8.57300000      23.31200000
 O       7.01500000      14.49200000      21.95400000
 H       6.42300000      13.73100000      22.07400000
 H       7.80100000      13.98400000      21.64800000
 O      10.00600000       8.09600000      27.03400000
 H      10.26400000       8.57500000      26.25700000
 H       9.06500000       8.30500000      27.16700000
 O       6.19100000      11.60600000      26.02900000
 H       5.27800000      11.47200000      26.34900000
 H       6.07100000      12.35300000      25.39800000
 O      11.23100000      14.58500000      27.73100000
 H      11.08100000      14.37600000      26.75000000
 H      10.34200000      14.66300000      28.22900000
 O       3.26800000      11.38100000      26.65300000
 H       2.65100000      10.72600000      27.05000000
 H       2.80600000      12.23900000      26.78100000
 O       2.49100000       8.16100000      29.45700000
 H       3.34700000       8.23400000      28.97000000
 H       2.68400000       7.83500000      30.33900000
 O       5.03800000      12.30600000      28.86800000
 H       4.74400000      11.89000000      28.01200000
 H       5.69700000      12.92400000      28.51200000
 O       1.19000000       5.45800000      28.69000000
 H       2.12900000       5.74400000      28.68900000
 H       1.03500000       5.00000000      29.53400000
 O       8.87800000      12.54500000      21.17800000
 H       9.84800000      12.54500000      21.33600000
 H       8.69400000      11.60400000      21.19400000
 O       2.12500000      12.08400000      29.98200000
 H       3.11300000      11.84500000      30.07500000
 H       1.76500000      11.23200000      29.80100000
