159
XYZ file of cluster: frame_8500_7386a.45a53.5e2d - created by MolEdiTo
 O      24.05100000      18.95200000      10.20700000
 H      23.92400000      19.75800000       9.67200000
 H      24.45700000      19.31100000      11.01700000
 O      21.24500000      13.80100000       3.62100000
 H      21.13500000      14.25700000       2.70700000
 H      21.08100000      14.54100000       4.24200000
 O      26.66400000      13.30100000       8.34000000
 H      26.67100000      13.50400000       9.25100000
 H      26.13300000      12.52600000       8.30200000
 O      23.06100000      19.54700000       4.26600000
 H      23.82000000      20.01200000       3.76800000
 H      22.69700000      18.86000000       3.63600000
 O      24.91800000      15.87100000       3.49000000
 H      24.92300000      15.05900000       2.99400000
 H      25.32200000      15.57100000       4.32700000
 O      18.53200000      12.03300000       8.69500000
 H      18.24100000      11.04400000       8.73600000
 H      19.26500000      12.08200000       9.27400000
 O      19.09800000      10.20900000       5.79100000
 H      18.31600000      10.52100000       5.33400000
 H      19.72800000      10.95900000       5.71600000
 O      24.66200000      12.42500000       1.11300000
 H      24.47800000      13.30700000       0.76200000
 H      23.71900000      12.11300000       1.15900000
 O      22.79800000      11.45000000       7.94900000
 H      22.00900000      11.75900000       7.35100000
 H      23.40600000      12.17600000       7.78700000
 O      20.51100000      18.63100000       8.67700000
 H      21.06800000      18.95600000       7.89700000
 H      21.16000000      18.22300000       9.29200000
 O      15.83900000      15.60800000       6.08700000
 H      15.06200000      15.16200000       6.35800000
 H      15.63700000      16.49100000       6.21700000
 O      20.92900000      12.40600000      10.01400000
 H      21.13500000      13.33000000      10.16300000
 H      21.72500000      12.10600000       9.44900000
 O      17.35200000      18.00500000       2.37800000
 H      18.09000000      18.63700000       2.39100000
 H      16.79000000      18.30400000       3.14400000
 O      24.39200000      20.06100000       7.11600000
 H      25.12200000      20.37800000       7.66400000
 H      24.78200000      19.27600000       6.70400000
 O      19.69000000      11.72000000       1.98700000
 H      20.38900000      11.50400000       1.31900000
 H      20.18300000      12.48900000       2.41000000
 O      16.90700000      18.68400000       4.07100000
 H      17.40200000      18.28600000       4.85200000
 H      17.56700000      19.28100000       3.70700000
 O      18.59900000      20.39700000       2.86100000
 H      19.56200000      20.47900000       3.05600000
 H      18.41100000      20.76400000       1.94300000
 O      26.50900000      13.35100000       3.06700000
 H      25.87300000      12.94600000       2.41700000
 H      27.31000000      12.89200000       2.77700000
 O      18.46600000      17.95800000       6.42800000
 H      17.98700000      18.72400000       6.72900000
 H      19.22800000      18.09400000       6.96600000
 O      23.89700000      20.36600000       2.76400000
 H      24.15800000      21.05000000       2.14600000
 H      24.79300000      20.00400000       2.95800000
 O      17.01000000      11.11200000       1.07700000
 H      17.79300000      11.78200000       1.01400000
 H      16.83200000      11.03100000       1.97300000
 O      22.45300000      17.15400000      10.17700000
 H      23.31600000      17.52800000      10.25000000
 H      22.49800000      16.39500000      10.82200000
 O      20.24200000      15.30700000      10.16900000
 H      19.41000000      15.25800000       9.59500000
 H      20.84200000      15.98800000       9.72900000
 O      22.66500000      18.32400000       6.79300000
 H      23.61000000      18.23600000       7.13500000
 H      22.90800000      18.38800000       5.89800000
 O      18.89600000      19.56900000      10.61600000
 H      19.45900000      19.06700000       9.91100000
 H      18.54300000      20.38200000      10.25100000
 O      23.23500000      13.66100000       9.40700000
 H      23.88200000      13.04600000       9.02200000
 H      23.54600000      14.58700000       9.24100000
 O      17.91300000      12.98900000       4.63800000
 H      16.94700000      12.91400000       4.65300000
 H      17.96000000      13.88800000       4.23800000
 O      22.68800000      12.64400000       1.50800000
 H      22.98800000      13.47800000       1.03000000
 H      22.70400000      12.94000000       2.46100000
 O      23.17700000      20.93100000       8.92100000
 H      22.69700000      20.65600000       9.75200000
 H      23.21900000      20.11400000       8.45000000
 O      25.51800000      18.01500000       5.56200000
 H      25.46800000      18.65300000       4.78100000
 H      25.14600000      17.15600000       5.23900000
 O      16.17100000      19.48400000       7.10000000
 H      16.30300000      19.95700000       6.22500000
 H      15.20400000      19.30000000       7.05000000
 O      20.11600000       9.67800000      10.32400000
 H      20.70200000       9.01700000      10.77500000
 H      20.48900000      10.53700000      10.44100000
 O      15.77300000      18.75400000      10.31300000
 H      16.62600000      19.09000000       9.82300000
 H      15.91300000      17.74400000      10.43400000
 O      26.39100000      10.97900000      10.71200000
 H      25.46600000      10.73300000      10.40500000
 H      26.19200000      11.44600000      11.56800000
 O      26.03300000      16.53000000      10.41400000
 H      26.20100000      16.76400000      11.35700000
 H      25.43700000      17.31300000      10.27000000
 O      24.55900000      11.62200000       7.34000000
 H      24.92300000      12.04600000       6.55600000
 H      23.88000000      10.95100000       6.94600000
 O      25.47400000      12.78500000       4.60600000
 H      26.08300000      12.98400000       3.83500000
 H      24.59400000      12.88800000       4.19300000
 O      22.82500000      12.79000000       3.35200000
 H      22.28200000      13.39800000       3.94100000
 H      22.17000000      12.06400000       3.10600000
 O      24.28400000      16.06000000       8.18200000
 H      25.12200000      16.17700000       7.65200000
 H      24.67000000      16.25800000       9.11100000
 O      15.92800000      20.57400000       2.45300000
 H      14.92500000      20.38800000       2.59200000
 H      15.98600000      21.10700000       1.68800000
 O      23.43800000      10.37300000      10.29900000
 H      23.19700000      11.26200000       9.87100000
 H      22.61500000      10.15800000      10.88500000
 O      18.71600000      14.78900000       6.97200000
 H      18.50100000      15.02300000       6.03100000
 H      17.87700000      14.73500000       7.48300000
 O      15.98100000      16.10900000      11.25700000
 H      16.50300000      15.33900000      11.23900000
 H      15.37500000      16.02200000      10.44200000
 O      17.50400000      15.14400000       1.69000000
 H      17.48400000      16.08700000       1.93000000
 H      16.61700000      14.86300000       1.91800000
 O      21.35800000      15.91000000       5.50100000
 H      20.45500000      16.33600000       5.57800000
 H      21.76500000      16.53300000       6.08500000
 O      16.72000000      13.52700000       9.81000000
 H      17.35400000      12.89400000       9.32500000
 H      15.91600000      12.98000000       9.92300000
 O      21.42300000      20.47600000       3.17200000
 H      21.05100000      21.32600000       3.01200000
 H      21.27400000      19.89300000       2.41800000
 O      19.19800000      20.88300000       5.97500000
 H      19.64900000      21.47900000       6.67800000
 H      18.48100000      21.44200000       5.57900000
 O      20.38300000      14.45700000       1.85100000
 H      20.44700000      14.05200000       1.00700000
 H      19.42600000      14.57700000       1.96100000
 O      17.91100000      15.68700000       4.03400000
 H      17.31300000      15.73100000       4.85100000
 H      17.56700000      16.45700000       3.51100000
 O      20.56000000      12.61900000       6.45100000
 H      20.98500000      13.49500000       6.59700000
 H      19.65100000      12.74700000       6.75100000
 O      26.04800000      14.82800000       6.26900000
 H      26.20700000      14.02400000       5.71700000
 H      26.31400000      14.51500000       7.17000000
 O      21.54900000      11.19300000       4.03500000
 H      20.63000000      10.85500000       3.96000000
 H      21.45300000      12.18900000       3.87700000
