 Entering Gaussian System, Link 0=g16
 Input=G98.INP
 Output=G98.OUT
 Initial command:
 /usr/local/g16-A.03/sse4/g16/l1.exe "/scratch/zronyj/cluster_333_i/Gau-6711.inp" -scrdir="/scratch/zronyj/cluster_333_i/"
 Entering Link 1 = /usr/local/g16-A.03/sse4/g16/l1.exe PID=      6712.
  
 Copyright (c) 1988,1990,1992,1993,1995,1998,2003,2009,2016,
            Gaussian, Inc.  All Rights Reserved.
  
 This is part of the Gaussian(R) 16 program.  It is based on
 the Gaussian(R) 09 system (copyright 2009, Gaussian, Inc.),
 the Gaussian(R) 03 system (copyright 2003, Gaussian, Inc.),
 the Gaussian(R) 98 system (copyright 1998, Gaussian, Inc.),
 the Gaussian(R) 94 system (copyright 1995, Gaussian, Inc.),
 the Gaussian 92(TM) system (copyright 1992, Gaussian, Inc.),
 the Gaussian 90(TM) system (copyright 1990, Gaussian, Inc.),
 the Gaussian 88(TM) system (copyright 1988, Gaussian, Inc.),
 the Gaussian 86(TM) system (copyright 1986, Carnegie Mellon
 University), and the Gaussian 82(TM) system (copyright 1983,
 Carnegie Mellon University). Gaussian is a federally registered
 trademark of Gaussian, Inc.
  
 This software contains proprietary and confidential information,
 including trade secrets, belonging to Gaussian, Inc.
  
 This software is provided under written license and may be
 used, copied, transmitted, or stored only in accord with that
 written license.
  
 The following legend is applicable only to US Government
 contracts under FAR:
  
                    RESTRICTED RIGHTS LEGEND
  
 Use, reproduction and disclosure by the US Government is
 subject to restrictions as set forth in subparagraphs (a)
 and (c) of the Commercial Computer Software - Restricted
 Rights clause in FAR 52.227-19.
  
 Gaussian, Inc.
 340 Quinnipiac St., Bldg. 40, Wallingford CT 06492
  
  
 ---------------------------------------------------------------
 Warning -- This program may not be used in any manner that
 competes with the business of Gaussian, Inc. or will provide
 assistance to any competitor of Gaussian, Inc.  The licensee
 of this program is prohibited from giving any competitor of
 Gaussian, Inc. access to this program.  By using this program,
 the user acknowledges that Gaussian, Inc. is engaged in the
 business of creating and licensing software in the field of
 computational chemistry and represents and warrants to the
 licensee that it is not a competitor of Gaussian, Inc. and that
 it will not use this program in any manner prohibited above.
 ---------------------------------------------------------------
  

 Cite this work as:
 Gaussian 16, Revision A.03,
 M. J. Frisch, G. W. Trucks, H. B. Schlegel, G. E. Scuseria, 
 M. A. Robb, J. R. Cheeseman, G. Scalmani, V. Barone, 
 G. A. Petersson, H. Nakatsuji, X. Li, M. Caricato, A. V. Marenich, 
 J. Bloino, B. G. Janesko, R. Gomperts, B. Mennucci, H. P. Hratchian, 
 J. V. Ortiz, A. F. Izmaylov, J. L. Sonnenberg, D. Williams-Young, 
 F. Ding, F. Lipparini, F. Egidi, J. Goings, B. Peng, A. Petrone, 
 T. Henderson, D. Ranasinghe, V. G. Zakrzewski, J. Gao, N. Rega, 
 G. Zheng, W. Liang, M. Hada, M. Ehara, K. Toyota, R. Fukuda, 
 J. Hasegawa, M. Ishida, T. Nakajima, Y. Honda, O. Kitao, H. Nakai, 
 T. Vreven, K. Throssell, J. A. Montgomery, Jr., J. E. Peralta, 
 F. Ogliaro, M. J. Bearpark, J. J. Heyd, E. N. Brothers, K. N. Kudin, 
 V. N. Staroverov, T. A. Keith, R. Kobayashi, J. Normand, 
 K. Raghavachari, A. P. Rendell, J. C. Burant, S. S. Iyengar, 
 J. Tomasi, M. Cossi, J. M. Millam, M. Klene, C. Adamo, R. Cammi, 
 J. W. Ochterski, R. L. Martin, K. Morokuma, O. Farkas, 
 J. B. Foresman, and D. J. Fox, Gaussian, Inc., Wallingford CT, 2016.
 
 ******************************************
 Gaussian 16:  ES64L-G16RevA.03 25-Dec-2016
                24-Aug-2023 
 ******************************************
 %chk=cluster_333_i.chk
 %mem=6GB
 %nproc=8
 Will use up to    8 processors via shared memory.
 ----------------------------------------------------------------------
 #b3lyp/6-31G** scrf=(cpcm,Solvent=Water) nosymm force iop(2/11=1) Geom
 =(NoDistance,NoAngle) guess=checkpoint
 ----------------------------------------------------------------------
 1/10=7,30=1,38=1/1,3;
 2/9=11,11=1,12=2,15=1,17=6,18=5,40=1/2;
 3/5=1,6=6,7=101,11=2,25=1,30=1,70=2101,71=1,72=1,74=-5,116=-2/1,2,3;
 4/5=1/1;
 5/5=2,38=6,53=1/2;
 6/7=2,8=2,9=2,10=2,28=1/1;
 7/29=1,30=1/1,2,3,16;
 1/10=7,30=1/3;
 99//99;
 -------------
 cluster_333_i
 -------------
 Symbolic Z-matrix:
 Charge =  0 Multiplicity = 1
 O                     13.90731   15.23393   14.51827 
 H                     13.3925   15.7514   15.1641 
 H                     14.78788   15.64796   14.52459 
 O                     16.98919   13.85575   14.37176 
 H                     17.12467   14.80674   14.2516 
 H                     16.77402   13.74951   15.31407 
 O                     16.08223   17.06014   16.56956 
 H                     16.34194   17.24816   15.65738 
 H                     16.60481   16.2664   16.79711 
 O                     14.81738   11.151    11.19885 
 H                     15.3714   10.49203   10.75729 
 H                     15.34396   11.98099   11.18698 
 O                     13.69042   15.91625   11.72851 
 H                     13.52368   15.61049   12.64459 
 H                     13.0629   16.64188   11.60113 
 O                     10.79421   14.42289   14.66255 
 H                     10.15966   13.83433   14.22883 
 H                     11.65068   14.00787   14.48149 
 O                     13.35247   11.11464   13.69244 
 H                     13.84964   10.72939   12.95044 
 H                     12.77935   10.41669   14.03758 
 O                     17.37844   14.68949   17.07182 
 H                     17.11978   14.32029   17.9288 
 H                     18.34594   14.67306   17.07417 
 O                     11.81572   16.46154   16.77892 
 H                     11.39954   17.32506   16.91977 
 H                     11.17397   15.95397   16.25089 
 O                     12.84002   10.77899   17.57465 
 H                     12.17971   11.09768   16.94316 
 H                     12.31381   10.3055   18.23253 
 C                     10.3683   12.44015   10.75685 
 C                     11.30376   11.21879   10.79002 
 C                     9.62815   9.22568   11.19805 
 H                     10.10159   10.16085   9.29702 
 H                     10.2492   14.26401   11.21473 
 O                     11.70383   8.99622   9.96929 
 O                     9.31231   12.46919   10.15785 
 O                     10.87269   13.5341   11.3729 
 C                     10.63306   9.90341   10.22228 
 O                     12.38079   11.61776   9.96019 
 H                     11.63517   11.0452   11.81965 
 O                     9.43501   9.62159   12.32625 
 O                     9.00047   8.10989   10.73352 
 H                     8.44276   7.79535   11.46885 
 H                     13.23262   11.37248   10.38633 
 H                     11.33921   8.2394    9.48622 
 O                     16.40842   13.65438   11.23991 
 H                     17.31627   13.39432   11.02964 
 H                     16.42543   13.75757   12.2108 
 O                     16.24852   16.63271   13.11584 
 H                     15.48851   16.51276   12.51011 
 H                     16.55343   17.53724   12.96048 
 O                     14.88529   12.38126   15.75514 
 H                     14.47697   11.78684   15.09797 
 H                     14.62683   13.25215   15.41491 
 

 GradGradGradGradGradGradGradGradGradGradGradGradGradGradGradGradGradGrad
 Berny optimization.
 Initialization pass.
 Trust Radius=3.00D-01 FncErr=1.00D-07 GrdErr=1.00D-07 EigMax=2.50D+02 EigMin=1.00D-04
 Number of steps in this run=      2 maximum allowed number of steps=      2.
 GradGradGradGradGradGradGradGradGradGradGradGradGradGradGradGradGradGrad

                          Input orientation:                          
 ---------------------------------------------------------------------
 Center     Atomic      Atomic             Coordinates (Angstroms)
 Number     Number       Type             X           Y           Z
 ---------------------------------------------------------------------
      1          8           0       13.907312   15.233929   14.518268
      2          1           0       13.392498   15.751397   15.164096
      3          1           0       14.787882   15.647957   14.524591
      4          8           0       16.989193   13.855751   14.371756
      5          1           0       17.124672   14.806736   14.251596
      6          1           0       16.774022   13.749510   15.314074
      7          8           0       16.082228   17.060143   16.569559
      8          1           0       16.341945   17.248156   15.657377
      9          1           0       16.604813   16.266401   16.797113
     10          8           0       14.817379   11.150996   11.198851
     11          1           0       15.371402   10.492035   10.757295
     12          1           0       15.343965   11.980987   11.186980
     13          8           0       13.690425   15.916253   11.728514
     14          1           0       13.523680   15.610492   12.644587
     15          1           0       13.062903   16.641884   11.601134
     16          8           0       10.794208   14.422894   14.662555
     17          1           0       10.159656   13.834329   14.228829
     18          1           0       11.650682   14.007872   14.481490
     19          8           0       13.352475   11.114636   13.692444
     20          1           0       13.849643   10.729387   12.950441
     21          1           0       12.779346   10.416693   14.037585
     22          8           0       17.378435   14.689487   17.071825
     23          1           0       17.119778   14.320292   17.928803
     24          1           0       18.345939   14.673062   17.074172
     25          8           0       11.815715   16.461542   16.778920
     26          1           0       11.399536   17.325065   16.919774
     27          1           0       11.173969   15.953972   16.250888
     28          8           0       12.840019   10.778988   17.574648
     29          1           0       12.179711   11.097681   16.943158
     30          1           0       12.313805   10.305504   18.232530
     31          6           0       10.368298   12.440148   10.756851
     32          6           0       11.303763   11.218793   10.790019
     33          6           0        9.628145    9.225684   11.198052
     34          1           0       10.101595   10.160849    9.297016
     35          1           0       10.249199   14.264013   11.214730
     36          8           0       11.703829    8.996218    9.969285
     37          8           0        9.312310   12.469194   10.157850
     38          8           0       10.872688   13.534103   11.372903
     39          6           0       10.633063    9.903411   10.222280
     40          8           0       12.380789   11.617760    9.960193
     41          1           0       11.635175   11.045195   11.819653
     42          8           0        9.435015    9.621591   12.326253
     43          8           0        9.000473    8.109892   10.733517
     44          1           0        8.442756    7.795350   11.468851
     45          1           0       13.232615   11.372484   10.386325
     46          1           0       11.339212    8.239401    9.486215
     47          8           0       16.408418   13.654382   11.239912
     48          1           0       17.316265   13.394316   11.029645
     49          1           0       16.425426   13.757568   12.210804
     50          8           0       16.248521   16.632709   13.115837
     51          1           0       15.488513   16.512756   12.510110
     52          1           0       16.553428   17.537241   12.960483
     53          8           0       14.885291   12.381264   15.755142
     54          1           0       14.476968   11.786841   15.097969
     55          1           0       14.626829   13.252151   15.414912
 ---------------------------------------------------------------------
 Symmetry turned off by external request.
 Stoichiometry    C4H32O19
 Framework group  C1[X(C4H32O19)]
 Deg. of freedom   159
 Full point group                 C1      NOp   1
                          Input orientation:                          
 ---------------------------------------------------------------------
 Center     Atomic      Atomic             Coordinates (Angstroms)
 Number     Number       Type             X           Y           Z
 ---------------------------------------------------------------------
      1          8           0       13.907312   15.233929   14.518268
      2          1           0       13.392498   15.751397   15.164096
      3          1           0       14.787882   15.647957   14.524591
      4          8           0       16.989193   13.855751   14.371756
      5          1           0       17.124672   14.806736   14.251596
      6          1           0       16.774022   13.749510   15.314074
      7          8           0       16.082228   17.060143   16.569559
      8          1           0       16.341945   17.248156   15.657377
      9          1           0       16.604813   16.266401   16.797113
     10          8           0       14.817379   11.150996   11.198851
     11          1           0       15.371402   10.492035   10.757295
     12          1           0       15.343965   11.980987   11.186980
     13          8           0       13.690425   15.916253   11.728514
     14          1           0       13.523680   15.610492   12.644587
     15          1           0       13.062903   16.641884   11.601134
     16          8           0       10.794208   14.422894   14.662555
     17          1           0       10.159656   13.834329   14.228829
     18          1           0       11.650682   14.007872   14.481490
     19          8           0       13.352475   11.114636   13.692444
     20          1           0       13.849643   10.729387   12.950441
     21          1           0       12.779346   10.416693   14.037585
     22          8           0       17.378435   14.689487   17.071825
     23          1           0       17.119778   14.320292   17.928803
     24          1           0       18.345939   14.673062   17.074172
     25          8           0       11.815715   16.461542   16.778920
     26          1           0       11.399536   17.325065   16.919774
     27          1           0       11.173969   15.953972   16.250888
     28          8           0       12.840019   10.778988   17.574648
     29          1           0       12.179711   11.097681   16.943158
     30          1           0       12.313805   10.305504   18.232530
     31          6           0       10.368298   12.440148   10.756851
     32          6           0       11.303763   11.218793   10.790019
     33          6           0        9.628145    9.225684   11.198052
     34          1           0       10.101595   10.160849    9.297016
     35          1           0       10.249199   14.264013   11.214730
     36          8           0       11.703829    8.996218    9.969285
     37          8           0        9.312310   12.469194   10.157850
     38          8           0       10.872688   13.534103   11.372903
     39          6           0       10.633063    9.903411   10.222280
     40          8           0       12.380789   11.617760    9.960193
     41          1           0       11.635175   11.045195   11.819653
     42          8           0        9.435015    9.621591   12.326253
     43          8           0        9.000473    8.109892   10.733517
     44          1           0        8.442756    7.795350   11.468851
     45          1           0       13.232615   11.372484   10.386325
     46          1           0       11.339212    8.239401    9.486215
     47          8           0       16.408418   13.654382   11.239912
     48          1           0       17.316265   13.394316   11.029645
     49          1           0       16.425426   13.757568   12.210804
     50          8           0       16.248521   16.632709   13.115837
     51          1           0       15.488513   16.512756   12.510110
     52          1           0       16.553428   17.537241   12.960483
     53          8           0       14.885291   12.381264   15.755142
     54          1           0       14.476968   11.786841   15.097969
     55          1           0       14.626829   13.252151   15.414912
 ---------------------------------------------------------------------
 Rotational constants (GHZ):           0.2058509           0.0802589           0.0775041
 Standard basis: 6-31G(d,p) (6D, 7F)
   505 basis functions,   868 primitive gaussians,   505 cartesian basis functions
   104 alpha electrons      104 beta electrons
       nuclear repulsion energy      2378.0322749670 Hartrees.
 NAtoms=   55 NActive=   55 NUniq=   55 SFac= 1.00D+00 NAtFMM=   60 NAOKFM=F Big=F
 Integral buffers will be    131072 words long.
 Raffenetti 2 integral format.
 Two-electron integral symmetry is turned off.
 ------------------------------------------------------------------------------
 Polarizable Continuum Model (PCM)
 =================================
 Model                : C-PCM.
 Atomic radii         : UFF (Universal Force Field).
 Polarization charges : Total charges.
 Charge compensation  : None.
 Solution method      : On-the-fly selection.
 Cavity type          : Scaled VdW (van der Waals Surface) (Alpha=1.100).
 Cavity algorithm     : GePol (No added spheres)
                        Default sphere list used, NSphG=   55.
                        Lebedev-Laikov grids with approx.  5.0 points / Ang**2.
                        Smoothing algorithm: York/Karplus (Gamma=1.0000).
                        Polarization charges: spherical gaussians, with
                                              point-specific exponents (IZeta= 3).
                        Self-potential: point-specific (ISelfS= 7).
                        Self-field    : sphere-specific E.n sum rule (ISelfD= 2).
 1st derivatives      : Analytical E(r).r(x)/FMM algorithm (CHGder, D1EAlg=3).
                        Cavity 1st derivative terms included.
 Solvent              : Water, Eps=  78.355300 Eps(inf)=   1.777849
 ------------------------------------------------------------------------------
 One-electron integrals computed using PRISM.
 NBasis=   505 RedAO= T EigKep=  1.58D-03  NBF=   505
 NBsUse=   505 1.00D-06 EigRej= -1.00D+00 NBFU=   505
 Initial guess from the checkpoint file:  "cluster_333_i.chk"
 B after Tr=     0.000476    0.000390   -0.000854
         Rot=    1.000000   -0.000010    0.000006   -0.000003 Ang=  -0.00 deg.
 Requested convergence on RMS density matrix=1.00D-08 within 128 cycles.
 Requested convergence on MAX density matrix=1.00D-06.
 Requested convergence on             energy=1.00D-06.
 No special actions if energy rises.
 Inv3:  Mode=1 IEnd=    72324300.
 Iteration    1 A*A^-1 deviation from unit magnitude is 5.88D-15 for   4895.
 Iteration    1 A*A^-1 deviation from orthogonality  is 7.49D-15 for    652    207.
 Iteration    1 A^-1*A deviation from unit magnitude is 5.88D-15 for   4895.
 Iteration    1 A^-1*A deviation from orthogonality  is 4.71D-15 for    652    207.
 Error on total polarization charges =  0.00464
 SCF Done:  E(RB3LYP) =  -1601.07338444     A.U. after    9 cycles
            NFock=  9  Conv=0.41D-08     -V/T= 2.0087

 **********************************************************************

            Population analysis using the SCF density.

 **********************************************************************

 Alpha  occ. eigenvalues --  -19.20613 -19.20322 -19.17823 -19.16753 -19.16400
 Alpha  occ. eigenvalues --  -19.16380 -19.15732 -19.15401 -19.15401 -19.15231
 Alpha  occ. eigenvalues --  -19.15056 -19.14953 -19.14399 -19.14380 -19.14195
 Alpha  occ. eigenvalues --  -19.13588 -19.13070 -19.11791 -19.11102 -10.33377
 Alpha  occ. eigenvalues --  -10.33012 -10.26448 -10.25951  -1.11518  -1.11228
 Alpha  occ. eigenvalues --   -1.03920  -1.03391  -1.02498  -1.02334  -1.02202
 Alpha  occ. eigenvalues --   -1.01783  -1.01101  -1.00889  -1.00631  -1.00516
 Alpha  occ. eigenvalues --   -1.00397  -0.99656  -0.99563  -0.99326  -0.98609
 Alpha  occ. eigenvalues --   -0.97558  -0.96776  -0.76558  -0.69767  -0.63312
 Alpha  occ. eigenvalues --   -0.58016  -0.54820  -0.54490  -0.54174  -0.53821
 Alpha  occ. eigenvalues --   -0.53510  -0.53036  -0.52744  -0.52328  -0.51607
 Alpha  occ. eigenvalues --   -0.51472  -0.51250  -0.50991  -0.50836  -0.50115
 Alpha  occ. eigenvalues --   -0.49788  -0.49394  -0.48929  -0.48371  -0.47393
 Alpha  occ. eigenvalues --   -0.44625  -0.43867  -0.42917  -0.42314  -0.41370
 Alpha  occ. eigenvalues --   -0.40713  -0.40523  -0.40079  -0.39482  -0.39379
 Alpha  occ. eigenvalues --   -0.39239  -0.39055  -0.37817  -0.37302  -0.37248
 Alpha  occ. eigenvalues --   -0.37071  -0.36034  -0.35479  -0.35254  -0.34729
 Alpha  occ. eigenvalues --   -0.33156  -0.32674  -0.32643  -0.32370  -0.32161
 Alpha  occ. eigenvalues --   -0.31798  -0.31568  -0.30986  -0.30785  -0.30517
 Alpha  occ. eigenvalues --   -0.30205  -0.30064  -0.29361  -0.29264  -0.28863
 Alpha  occ. eigenvalues --   -0.28044  -0.27122  -0.26875  -0.26624
 Alpha virt. eigenvalues --   -0.01169  -0.00451   0.01716   0.04382   0.05114
 Alpha virt. eigenvalues --    0.05996   0.06956   0.07344   0.07873   0.09244
 Alpha virt. eigenvalues --    0.09883   0.10011   0.10639   0.11023   0.11706
 Alpha virt. eigenvalues --    0.14137   0.14400   0.14717   0.15076   0.15670
 Alpha virt. eigenvalues --    0.16604   0.17071   0.17679   0.18369   0.18923
 Alpha virt. eigenvalues --    0.19283   0.19650   0.20408   0.21157   0.21216
 Alpha virt. eigenvalues --    0.21588   0.22359   0.23258   0.23436   0.24398
 Alpha virt. eigenvalues --    0.24872   0.25778   0.26799   0.28933   0.31414
 Alpha virt. eigenvalues --    0.32143   0.35461   0.37891   0.50403   0.53342
 Alpha virt. eigenvalues --    0.54645   0.56204   0.59333   0.61331   0.62249
 Alpha virt. eigenvalues --    0.63399   0.65696   0.66560   0.68027   0.68420
 Alpha virt. eigenvalues --    0.69653   0.70158   0.70554   0.71238   0.72936
 Alpha virt. eigenvalues --    0.73935   0.74480   0.75005   0.75367   0.75783
 Alpha virt. eigenvalues --    0.76257   0.76427   0.76842   0.77090   0.77743
 Alpha virt. eigenvalues --    0.78127   0.78506   0.78766   0.79217   0.79859
 Alpha virt. eigenvalues --    0.80389   0.80631   0.81364   0.81702   0.82051
 Alpha virt. eigenvalues --    0.82682   0.83024   0.83357   0.83555   0.84114
 Alpha virt. eigenvalues --    0.85030   0.85338   0.85878   0.86353   0.86518
 Alpha virt. eigenvalues --    0.86878   0.87310   0.87996   0.88069   0.88581
 Alpha virt. eigenvalues --    0.89077   0.89330   0.90059   0.90571   0.91050
 Alpha virt. eigenvalues --    0.91478   0.91920   0.92138   0.92284   0.92892
 Alpha virt. eigenvalues --    0.94072   0.94140   0.95266   0.95711   0.96545
 Alpha virt. eigenvalues --    0.96899   0.97603   0.98251   0.98344   0.98605
 Alpha virt. eigenvalues --    0.99523   0.99690   1.00772   1.01005   1.01293
 Alpha virt. eigenvalues --    1.02441   1.02515   1.03083   1.03330   1.03799
 Alpha virt. eigenvalues --    1.04358   1.05059   1.05613   1.06189   1.06670
 Alpha virt. eigenvalues --    1.06974   1.07692   1.08489   1.09356   1.10002
 Alpha virt. eigenvalues --    1.10884   1.11627   1.13171   1.14287   1.15961
 Alpha virt. eigenvalues --    1.16415   1.17174   1.18472   1.18934   1.21071
 Alpha virt. eigenvalues --    1.22615   1.24139   1.25109   1.25957   1.26636
 Alpha virt. eigenvalues --    1.30079   1.31928   1.32713   1.33521   1.35571
 Alpha virt. eigenvalues --    1.36631   1.37152   1.38060   1.38544   1.39961
 Alpha virt. eigenvalues --    1.41069   1.41806   1.44264   1.46261   1.47680
 Alpha virt. eigenvalues --    1.48383   1.48678   1.49415   1.49871   1.50458
 Alpha virt. eigenvalues --    1.50485   1.51375   1.52233   1.52431   1.52681
 Alpha virt. eigenvalues --    1.53352   1.53406   1.53664   1.53830   1.54260
 Alpha virt. eigenvalues --    1.54599   1.54642   1.55005   1.55236   1.55764
 Alpha virt. eigenvalues --    1.56320   1.56482   1.56961   1.57058   1.57396
 Alpha virt. eigenvalues --    1.57830   1.58400   1.58950   1.59927   1.60838
 Alpha virt. eigenvalues --    1.61664   1.61994   1.62505   1.63670   1.64321
 Alpha virt. eigenvalues --    1.65162   1.65826   1.66465   1.67084   1.67968
 Alpha virt. eigenvalues --    1.68055   1.68369   1.68743   1.69841   1.69879
 Alpha virt. eigenvalues --    1.70568   1.71863   1.72943   1.73881   1.75740
 Alpha virt. eigenvalues --    1.75958   1.76783   1.77347   1.79115   1.80759
 Alpha virt. eigenvalues --    1.82891   1.84627   1.86432   1.88261   1.91642
 Alpha virt. eigenvalues --    1.93554   1.96367   1.98443   1.99946   2.04043
 Alpha virt. eigenvalues --    2.06017   2.11044   2.15148   2.18063   2.18629
 Alpha virt. eigenvalues --    2.18986   2.19943   2.20788   2.21519   2.21854
 Alpha virt. eigenvalues --    2.22289   2.23523   2.23905   2.24035   2.24110
 Alpha virt. eigenvalues --    2.24749   2.25309   2.25793   2.26109   2.26678
 Alpha virt. eigenvalues --    2.27032   2.27736   2.28015   2.29224   2.29664
 Alpha virt. eigenvalues --    2.29843   2.30608   2.31167   2.31272   2.31813
 Alpha virt. eigenvalues --    2.32943   2.34121   2.34811   2.35887   2.36936
 Alpha virt. eigenvalues --    2.37219   2.42077   2.42406   2.42561   2.42751
 Alpha virt. eigenvalues --    2.42929   2.43911   2.45039   2.45259   2.45880
 Alpha virt. eigenvalues --    2.46418   2.47038   2.48012   2.48295   2.48649
 Alpha virt. eigenvalues --    2.49223   2.51113   2.52386   2.53380   2.54111
 Alpha virt. eigenvalues --    2.57146   2.57481   2.58948   2.59999   2.60497
 Alpha virt. eigenvalues --    2.61015   2.61546   2.62440   2.62736   2.63238
 Alpha virt. eigenvalues --    2.63308   2.63499   2.63944   2.64044   2.64313
 Alpha virt. eigenvalues --    2.64418   2.64517   2.64631   2.65825   2.66139
 Alpha virt. eigenvalues --    2.66722   2.66858   2.67215   2.67293   2.67484
 Alpha virt. eigenvalues --    2.67605   2.67926   2.68143   2.69024   2.69400
 Alpha virt. eigenvalues --    2.70140   2.70774   2.72489   2.72655   2.73218
 Alpha virt. eigenvalues --    2.74594   2.77393   2.79622   2.85831   2.87175
 Alpha virt. eigenvalues --    2.90142   2.93170   2.94921   2.96757   3.00434
 Alpha virt. eigenvalues --    3.00597   3.01306   3.01729   3.02013   3.02339
 Alpha virt. eigenvalues --    3.02489   3.03190   3.03490   3.04198   3.04339
 Alpha virt. eigenvalues --    3.05070   3.05261   3.06505   3.07197   3.14077
 Alpha virt. eigenvalues --    3.19488   3.27235   3.30139   3.30867   3.32088
 Alpha virt. eigenvalues --    3.32850   3.33526   3.34210   3.34790   3.35634
 Alpha virt. eigenvalues --    3.36630   3.38196   3.39583   3.40615   3.42328
 Alpha virt. eigenvalues --    3.42758   3.42886   3.45289   3.47736   3.50805
 Alpha virt. eigenvalues --    3.51471   3.52113   3.52821   3.54179   3.55233
 Alpha virt. eigenvalues --    3.57446   3.57720   3.58786   3.59841   3.62237
 Alpha virt. eigenvalues --    3.63665   3.65023   3.66371   3.70281   3.73634
 Alpha virt. eigenvalues --    3.75596   3.78213   3.80908   3.84754   3.85039
 Alpha virt. eigenvalues --    3.86961   3.88893   3.92522   3.95517   3.98408
 Alpha virt. eigenvalues --    4.05425   4.11215   4.11648   4.13596   4.16585
 Alpha virt. eigenvalues --    4.21794   4.24900   4.34079   4.43534   4.61852
 Alpha virt. eigenvalues --    4.76644
          Condensed to atoms (all electrons):
 Mulliken charges:
               1
     1  O   -0.637718
     2  H    0.329608
     3  H    0.323954
     4  O   -0.678468
     5  H    0.321694
     6  H    0.332015
     7  O   -0.708427
     8  H    0.303540
     9  H    0.339545
    10  O   -0.639601
    11  H    0.346571
    12  H    0.338704
    13  O   -0.659468
    14  H    0.333614
    15  H    0.330475
    16  O   -0.648909
    17  H    0.333209
    18  H    0.331246
    19  O   -0.635760
    20  H    0.344057
    21  H    0.338588
    22  O   -0.608152
    23  H    0.353957
    24  H    0.352923
    25  O   -0.661069
    26  H    0.333034
    27  H    0.335084
    28  O   -0.650579
    29  H    0.324571
    30  H    0.323527
    31  C    0.601982
    32  C    0.108979
    33  C    0.586014
    34  H    0.130138
    35  H    0.346770
    36  O   -0.562726
    37  O   -0.498903
    38  O   -0.494233
    39  C    0.113971
    40  O   -0.600766
    41  H    0.120544
    42  O   -0.489718
    43  O   -0.500924
    44  H    0.350367
    45  H    0.347897
    46  H    0.340421
    47  O   -0.639692
    48  H    0.338400
    49  H    0.335365
    50  O   -0.658794
    51  H    0.325193
    52  H    0.337005
    53  O   -0.698417
    54  H    0.320838
    55  H    0.298526
 Sum of Mulliken charges =  -0.00000
 Mulliken charges with hydrogens summed into heavy atoms:
               1
     1  O    0.015844
     4  O   -0.024759
     7  O   -0.065343
    10  O    0.045674
    13  O    0.004621
    16  O    0.015547
    19  O    0.046885
    22  O    0.098728
    25  O    0.007049
    28  O   -0.002481
    31  C    0.601982
    32  C    0.229523
    33  C    0.586014
    36  O   -0.222305
    37  O   -0.498903
    38  O   -0.147463
    39  C    0.244108
    40  O   -0.252869
    42  O   -0.489718
    43  O   -0.150557
    47  O    0.034073
    50  O    0.003404
    53  O   -0.079053
 Electronic spatial extent (au):  <R**2>=         390426.0441
 Charge=             -0.0000 electrons
 Dipole moment (field-independent basis, Debye):
    X=              1.7800    Y=             -0.9099    Z=              0.1938  Tot=              2.0085
 Quadrupole moment (field-independent basis, Debye-Ang):
   XX=            -45.0077   YY=           -112.2343   ZZ=           -141.7563
   XY=             24.6113   XZ=             17.9429   YZ=             -8.1007
 Traceless Quadrupole moment (field-independent basis, Debye-Ang):
   XX=             54.6584   YY=            -12.5682   ZZ=            -42.0902
   XY=             24.6113   XZ=             17.9429   YZ=             -8.1007
 Octapole moment (field-independent basis, Debye-Ang**2):
  XXX=          -2398.4410  YYY=          -3852.4048  ZZZ=          -5536.9369  XYY=           -886.9687
  XXY=           -329.2168  XXZ=           -632.0786  XZZ=          -1662.7196  YZZ=          -2003.5503
  YYZ=          -1485.1500  XYZ=            289.3124
 Hexadecapole moment (field-independent basis, Debye-Ang**3):
 XXXX=         -67837.7125 YYYY=         -98845.2582 ZZZZ=        -147442.7920 XXXY=         -24972.8039
 XXXZ=         -30821.9786 YYYX=         -43501.7699 YYYZ=         -53953.5579 ZZZX=         -69995.6024
 ZZZY=         -76398.4514 XXYY=         -19082.6633 XXZZ=         -32742.5586 YYZZ=         -47238.3241
 XXYZ=          -4305.5308 YYXZ=         -13253.1312 ZZXY=         -21397.5900
 N-N= 2.378032274967D+03 E-N=-8.533599375531D+03  KE= 1.587206135381D+03
 D1PCM: C-PCM CHGder 1st derivatives, ID1Alg=3 FixD1E=F DoIter=F DoCFld=F I1PDM=0.
 Calling FoFJK, ICntrl=      2127 FMM=F ISym2X=0 I1Cent= 0 IOpClX= 0 NMat=1 NMatS=1 NMatT=0.
 -------------------------------------------------------------------
 Center     Atomic                   Forces (Hartrees/Bohr)
 Number     Number              X              Y              Z
 -------------------------------------------------------------------
      1        8          -0.001342616    0.001179098    0.002378952
      2        1          -0.000003443    0.000102145    0.000203333
      3        1          -0.000570577    0.000080071    0.000279658
      4        8           0.001126188    0.002684771   -0.006808214
      5        1          -0.000333790    0.000854869   -0.000070119
      6        1           0.000367907   -0.000060068   -0.002763987
      7        8          -0.002334487    0.001722943   -0.003336147
      8        1          -0.000123368    0.000069343   -0.000420322
      9        1          -0.000296574    0.000203043   -0.000141320
     10        8          -0.000143465    0.000351848    0.000869450
     11        1          -0.000720079    0.000538845    0.000493909
     12        1           0.000542116    0.001314550    0.000140723
     13        8           0.002134041    0.000315975    0.004325603
     14        1          -0.000079286    0.000640780   -0.000740260
     15        1           0.001611900   -0.000190965    0.000980679
     16        8           0.002549888   -0.000714783   -0.000268296
     17        1           0.000886080    0.001872828    0.001100523
     18        1          -0.000822360    0.001217856    0.000109335
     19        8          -0.002322555    0.001075063    0.002338816
     20        1           0.001735531    0.001840951   -0.001560660
     21        1           0.002341888   -0.001402366   -0.001594477
     22        8           0.000451952   -0.003581549    0.002043028
     23        1           0.000422582    0.000079684   -0.000664638
     24        1          -0.000417401    0.000076757    0.000040731
     25        8          -0.000213351   -0.003091844   -0.003319995
     26        1           0.000950492   -0.002819100   -0.002908772
     27        1           0.001356717    0.000881507    0.000545806
     28        8          -0.001561841   -0.000695582   -0.000305141
     29        1           0.001941426   -0.000028452    0.001387272
     30        1          -0.001023018   -0.000152363   -0.000499034
     31        6          -0.005556780   -0.003199144   -0.002192450
     32        6          -0.001209765   -0.002057400   -0.000515569
     33        6           0.002119365    0.003534902    0.001297318
     34        1          -0.000106600    0.000035784    0.000084632
     35        1          -0.000573623   -0.000537608    0.000107332
     36        8          -0.002787095   -0.000686157    0.001348982
     37        8          -0.003244596   -0.001210475    0.000267912
     38        8           0.002983997   -0.009902451    0.001355326
     39        6          -0.000802441    0.000917728    0.000054520
     40        8           0.000475146   -0.004206119    0.000261957
     41        1          -0.000225268   -0.000117502    0.000072401
     42        8          -0.000817187    0.005474599    0.006559029
     43        8           0.011374573    0.012485724   -0.006178177
     44        1           0.001131964   -0.000294576   -0.001225605
     45        1          -0.000937060   -0.000057804   -0.000377885
     46        1           0.000416886    0.001228625    0.000334779
     47        8          -0.002764108   -0.004930218    0.006410799
     48        1          -0.000256583   -0.000310650   -0.000436643
     49        1           0.000326654   -0.000261157   -0.000824948
     50        8          -0.002172044   -0.002305614    0.001686406
     51        1          -0.000171221   -0.000183295    0.000081423
     52        1          -0.000793551   -0.001100328    0.000370682
     53        8          -0.001707743    0.002261858   -0.000038540
     54        1          -0.000295565   -0.000254491   -0.000445708
     55        1          -0.000517852    0.001309915    0.000105592
 -------------------------------------------------------------------
 Cartesian Forces:  Max     0.012485724 RMS     0.002415999

 GradGradGradGradGradGradGradGradGradGradGradGradGradGradGradGradGradGrad
 Berny optimization.
 Search for a local minimum.
 Step number   1 out of a maximum of    2
 All quantities printed in internal units (Hartrees-Bohrs-Radians)
 Second derivative matrix not updated -- first step.
 ITU=  0
     Eigenvalues ---   -0.00000  -0.00000  -0.00000  -0.00000  -0.00000
     Eigenvalues ---   -0.00000  -0.00000  -0.00000  -0.00000  -0.00000
     Eigenvalues ---   -0.00000  -0.00000  -0.00000  -0.00000  -0.00000
     Eigenvalues ---   -0.00000  -0.00000  -0.00000  -0.00000  -0.00000
     Eigenvalues ---   -0.00000  -0.00000  -0.00000  -0.00000  -0.00000
     Eigenvalues ---   -0.00000  -0.00000  -0.00000  -0.00000  -0.00000
     Eigenvalues ---   -0.00000  -0.00000  -0.00000  -0.00000  -0.00000
     Eigenvalues ---   -0.00000  -0.00000  -0.00000  -0.00000  -0.00000
     Eigenvalues ---   -0.00000   0.00000   0.00000   0.00000   0.00000
     Eigenvalues ---    0.00000   0.00000   0.00000   0.00000   0.00000
     Eigenvalues ---    0.00000   0.00000   0.00000   0.00000   0.00000
     Eigenvalues ---    0.00000   0.00000   0.00000   0.00000   0.00000
     Eigenvalues ---    0.00000   0.00000   0.00000   0.00000   0.00000
     Eigenvalues ---    0.00000   0.00000   0.00000   0.00000   0.00000
     Eigenvalues ---    0.00000   0.00000   0.00000   0.00000   0.00000
     Eigenvalues ---    0.00000   0.00000   0.00000   0.00063   0.00119
     Eigenvalues ---    0.00131   0.00543   0.00994   0.01045   0.01172
     Eigenvalues ---    0.02095   0.02452   0.03283   0.03855   0.04435
     Eigenvalues ---    0.04968   0.05012   0.05340   0.06028   0.06208
     Eigenvalues ---    0.06476   0.07624   0.07895   0.09654   0.10895
     Eigenvalues ---    0.14749   0.14835   0.14896   0.15052   0.15112
     Eigenvalues ---    0.15130   0.15179   0.15219   0.15239   0.15313
     Eigenvalues ---    0.15350   0.15428   0.15617   0.16866   0.17422
     Eigenvalues ---    0.22534   0.24663   0.28222   0.35070   0.50454
     Eigenvalues ---    0.68803   0.75579   0.87168   0.90177   0.91126
     Eigenvalues ---    0.93762   0.95039   0.95601   0.97726   0.98107
     Eigenvalues ---    0.98357   0.98786   0.99092   0.99597   0.99611
     Eigenvalues ---    1.00155   1.00744   1.01205   1.02798   1.04410
     Eigenvalues ---    1.11259   1.14329   1.15902   1.16538   1.17834
     Eigenvalues ---    1.18296   1.18573   1.18807   1.19031   1.19235
     Eigenvalues ---    1.19828   1.19844   1.20099   1.20784   1.21762
     Eigenvalues ---    1.29428   1.32723   2.26955   2.27615
 Eigenvalue     1 is  -3.33D-15 should be greater than     0.000000 Eigenvector:
                          Y49       X26       Y25       Z54       X49
   1                    0.37234   0.28164  -0.25153   0.24542  -0.24069
                          X54       Z48       Z29       Y47       Y30
   1                   -0.23372   0.21476   0.17478   0.17074  -0.16438
 Eigenvalue     2 is  -2.66D-15 should be greater than     0.000000 Eigenvector:
                          X49       Y50       Y52       X51       X23
   1                    0.34253  -0.29158  -0.27449  -0.25224   0.24890
                          Z48       Y48       Y5        Y4        X54
   1                   -0.20612  -0.19345   0.18701   0.17318   0.16828
 Eigenvalue     3 is  -2.55D-15 should be greater than     0.000000 Eigenvector:
                          Z24       Z52       X12       Z11       X47
   1                    0.29746  -0.27065  -0.25689  -0.25009   0.17893
                          X48       Y10       X20       Z23       Z17
   1                    0.17886  -0.17315  -0.15361   0.15162  -0.14999
 Eigenvalue     4 is  -2.33D-15 should be greater than     0.000000 Eigenvector:
                          Z16       Y16       X54       X29       X28
   1                    0.39933  -0.29460   0.24954  -0.21162  -0.17321
                          Z14       Z27       Y15       Y28       Y13
   1                    0.17228  -0.16950  -0.16946   0.16702  -0.16164
 Eigenvalue     5 is  -2.33D-15 should be greater than     0.000000 Eigenvector:
                          Z29       Y30       X48       Z51       X50
   1                    0.32085  -0.28319   0.27671  -0.26188  -0.24653
                          X47       Y24       Y52       Y29       Z55
   1                    0.18664  -0.18529  -0.17882   0.16163  -0.15958
 Eigenvalue     6 is  -2.22D-15 should be greater than     0.000000 Eigenvector:
                          Z18       Y18       Z52       X54       Y16
   1                    0.47772   0.29953   0.18380   0.18361   0.18180
                          X16       Y13       X55       Y48       Y30
   1                   -0.16024   0.15861   0.14894   0.14854   0.14720
 Eigenvalue     7 is  -2.11D-15 should be greater than     0.000000 Eigenvector:
                          Y47       Z20       X20       Y48       X55
   1                    0.32062   0.28636   0.26733  -0.21656   0.21451
                          X47       Y49       X49       X27       Y54
   1                    0.21417  -0.20632   0.18169   0.15954  -0.15786
 Eigenvalue     8 is  -2.11D-15 should be greater than     0.000000 Eigenvector:
                          X23       Z24       Y49       Y52       X55
   1                    0.34677  -0.29009  -0.27290   0.24900   0.23664
                          Z48       Y25       Z55       Y50       X27
   1                    0.19544  -0.17907  -0.17414   0.16965  -0.16051
 Eigenvalue     9 is  -2.00D-15 should be greater than     0.000000 Eigenvector:
                          Y11       Z10       Z27       Y30       Y22
   1                    0.27277   0.25829   0.23490  -0.22772   0.19213
                          Y23       Z11       Y12       Z50       X54
   1                   -0.19043  -0.18520   0.18035  -0.17061  -0.17022
 Eigenvalue    10 is  -1.78D-15 should be greater than     0.000000 Eigenvector:
                          X14       Y15       Y22       Y24       Y13
   1                    0.33519  -0.23639   0.23365  -0.21002  -0.20086
                          Y52       Y50       Z13       Z48       X49
   1                    0.19707   0.17973  -0.17922  -0.17894   0.17009
 Eigenvalue    11 is  -1.67D-15 should be greater than     0.000000 Eigenvector:
                          Z52       Z16       Z53       Y18       Z48
   1                    0.30115   0.26914  -0.26496   0.25100   0.23892
                          X19       X53       Z21       Z18       Y49
   1                   -0.23305   0.21760   0.21477  -0.17881   0.17021
 Eigenvalue    12 is  -1.67D-15 should be greater than     0.000000 Eigenvector:
                          X15       Y51       Y48       X52       Y30
   1                    0.32109  -0.31273   0.27129  -0.26986   0.19965
                          Y25       Y13       X12       Y21       Z23
   1                   -0.18822  -0.17933  -0.16615   0.16473  -0.15795
 Eigenvalue    13 is  -1.33D-15 should be greater than     0.000000 Eigenvector:
                          Y14       Y15       X26       Y49       X55
   1                    0.23883   0.22547   0.20461   0.19930  -0.18253
                          Y23       X13       Z21       Z49       X30
   1                    0.18089  -0.17427   0.17379  -0.16800  -0.16106
 Eigenvalue    14 is  -1.22D-15 should be greater than     0.000000 Eigenvector:
                          Z24       Z10       Z11       Y47       Z48
   1                    0.28953   0.28333   0.23303  -0.19417  -0.19061
                          Y24       Y25       Y9        Z17       X7
   1                    0.18720  -0.18421   0.17578   0.16675  -0.16269
 Eigenvalue    15 is  -1.22D-15 should be greater than     0.000000 Eigenvector:
                          X9        Y9        X53       Z14       Y13
   1                    0.40947   0.23511  -0.22146   0.21026  -0.19035
                          Y30       Y10       Y15       Z48       Y49
   1                    0.18696   0.18170  -0.17761   0.16906   0.16767
 Eigenvalue    16 is  -1.22D-15 should be greater than     0.000000 Eigenvector:
                          X26       X21       Z23       Y30       Y29
   1                    0.27539   0.25814  -0.23083  -0.21413  -0.20446
                          Y23       Y27       Z51       X29       X13
   1                   -0.18412   0.18313   0.17896  -0.17789  -0.17550
 Eigenvalue    17 is  -1.22D-15 should be greater than     0.000000 Eigenvector:
                          X55       Y51       X54       X15       Z55
   1                    0.32857   0.32163   0.25027   0.24157  -0.20870
                          Z27       X23       Y22       X26       X52
   1                    0.19182  -0.19163   0.18089   0.17785   0.16778
 Eigenvalue    18 is  -1.11D-15 should be greater than     0.000000 Eigenvector:
                          Z18       Y18       Y17       Z16       X27
   1                    0.40112  -0.33560   0.19458   0.17110   0.17015
                          Z22       Z17       X7        Z30       Z29
   1                   -0.16926  -0.16696  -0.16442  -0.16279  -0.15287
 Eigenvalue    19 is  -9.99D-16 should be greater than     0.000000 Eigenvector:
                          Z10       Z17       Y15       X6        Z1
   1                    0.24780  -0.24292  -0.19084   0.18037  -0.17687
                          Y48       Y47       Z27       X20       Z55
   1                    0.16069   0.15996  -0.15952   0.14323   0.14099
 Eigenvalue    20 is  -9.99D-16 should be greater than     0.000000 Eigenvector:
                          Y30       Y29       X51       Y24       Y22
   1                    0.27902   0.22817  -0.21671  -0.21651  -0.20032
                          Y23       Y51       X29       X52       Z50
   1                   -0.18193   0.17515   0.16725  -0.15860  -0.15774
 Eigenvalue    21 is  -7.77D-16 should be greater than     0.000000 Eigenvector:
                          X55       Z54       Z55       X54       Y53
   1                    0.52375  -0.41477   0.41202  -0.37847  -0.36131
                          Y54       Z53       Y28       Z27       Z51
   1                    0.26096  -0.07848   0.06240  -0.03739   0.03673
 Eigenvalue    22 is  -7.77D-16 should be greater than     0.000000 Eigenvector:
                          Z21       X12       X13       X5        Z17
   1                    0.24796   0.22747   0.21601  -0.21197   0.20508
                          Z10       X20       X6        Y24       Z51
   1                   -0.19951  -0.18492   0.18050  -0.17803  -0.17417
 Eigenvalue    23 is  -7.77D-16 should be greater than     0.000000 Eigenvector:
                          Y18       Y47       Z18       Z11       Z28
   1                    0.27838  -0.27290  -0.26575  -0.22569  -0.19879
                          X19       Y11       Y28       X30       Y1
   1                    0.18143   0.17426  -0.17306  -0.17106   0.16920
 Eigenvalue    24 is  -7.77D-16 should be greater than     0.000000 Eigenvector:
                          X26       Y47       X14       Z2        Z12
   1                    0.24763   0.22819   0.22582  -0.21653  -0.21603
                          Y30       Z27       Z25       Y15       Z24
   1                    0.21064   0.19193   0.16808  -0.16310  -0.16035
 Eigenvalue    25 is  -6.66D-16 should be greater than     0.000000 Eigenvector:
                          X5        X6        Z25       X11       X23
   1                    0.40727   0.32696   0.25477  -0.22004   0.17717
                          Z24       Y2        Y3        Y28       X14
   1                   -0.16916  -0.16163  -0.14854   0.14523  -0.13867
 Eigenvalue    26 is  -6.66D-16 should be greater than     0.000000 Eigenvector:
                          Z21       Y23       Y7        X7        X19
   1                    0.21961  -0.20219   0.20151   0.18687  -0.18628
                          Z14       X12       Z15       Y3        X14
   1                   -0.18152  -0.17928  -0.17722  -0.17334  -0.16341
 Eigenvalue    27 is  -6.66D-16 should be greater than     0.000000 Eigenvector:
                          X27       Y24       Z21       Z3        Z25
   1                    0.35876   0.30485   0.23129  -0.23119   0.17781
                          Z52       Y22       X9        X25       X30
   1                   -0.15972   0.15529   0.15119   0.15107  -0.14910
 Eigenvalue    28 is  -5.55D-16 should be greater than     0.000000 Eigenvector:
                          X4        Z3        Y6        X19       Y3
   1                    0.55408   0.21366  -0.17468  -0.16728   0.15919
                          X6        X5        X15       X9        X7
   1                    0.15490  -0.15329  -0.15135   0.14712   0.14171
 Eigenvalue    29 is  -5.55D-16 should be greater than     0.000000 Eigenvector:
                          X9        Y3        X5        X6        Z3
   1                    0.38264  -0.26732   0.23559  -0.21671   0.18439
                          Z28       Y2        Y29       X30       Y7
   1                    0.17184   0.16528  -0.16501  -0.16153  -0.16123
 Eigenvalue    30 is  -5.55D-16 should be greater than     0.000000 Eigenvector:
                          X7        X8        X10       X12       X30
   1                    0.26958   0.26696   0.24695   0.24061   0.21624
                          Z20       Z10       X21       Z55       Y8
   1                    0.18820   0.18280  -0.17062  -0.17010  -0.16963
 Eigenvalue    31 is  -5.55D-16 should be greater than     0.000000 Eigenvector:
                          Z10       Z20       Y10       Y3        Y24
   1                    0.32405  -0.24743  -0.23358  -0.21410   0.18722
                          Y12       Z52       Z12       X26       X1
   1                   -0.18691  -0.17681   0.17368  -0.16716  -0.16584
 Eigenvalue    32 is  -5.55D-16 should be greater than     0.000000 Eigenvector:
                          Y48       X20       Y14       Z29       Y49
   1                    0.29292   0.22608  -0.22573  -0.21412   0.20208
                          Z5        Y29       X55       Z18       X2
   1                   -0.19304  -0.17284   0.16793  -0.16359  -0.16140
 Eigenvalue    33 is  -4.44D-16 should be greater than     0.000000 Eigenvector:
                          X4        Z2        Z9        X6        Z12
   1                    0.34223   0.32190  -0.27529   0.25213  -0.19416
                          Y29       X5        Y20       Z1        Z15
   1                   -0.16754  -0.16077   0.15263   0.14835  -0.14239
 Eigenvalue    34 is  -4.44D-16 should be greater than     0.000000 Eigenvector:
                          Z5        X6        Z11       Y6        Z52
   1                    0.35482  -0.31391   0.27232  -0.24052  -0.23128
                          X5        Y3        X4        Y51       Z6
   1                    0.20990   0.17681   0.15967   0.14306  -0.12985
 Eigenvalue    35 is  -4.44D-16 should be greater than     0.000000 Eigenvector:
                          Z1        X5        X13       X4        Z27
   1                    0.28624  -0.28556  -0.27282  -0.25990   0.21702
                          Z5        Y28       Y13       Y3        X20
   1                   -0.18934   0.17943  -0.17009   0.16706  -0.16372
 Eigenvalue    36 is  -4.44D-16 should be greater than     0.000000 Eigenvector:
                          Z18       X27       Y13       Z16       Y20
   1                    0.26760  -0.23193  -0.19837   0.18507   0.18437
                          Z2        Z17       X20       Z50       X55
   1                   -0.18312   0.17572   0.16956   0.16742  -0.16705
 Eigenvalue    37 is  -1.11D-16 should be greater than     0.000000 Eigenvector:
                          Y29       X14       Z17       Y2        Y18
   1                    0.25895   0.24605   0.23606   0.22713  -0.22212
                          Y24       X8        Y1        Z2        Y21
   1                   -0.20405   0.19943   0.17118   0.16963  -0.16708
 Eigenvalue    38 is  -1.11D-16 should be greater than     0.000000 Eigenvector:
                          Z11       Z12       Y2        Y14       X6
   1                    0.25107  -0.23309  -0.21986   0.21768   0.20382
                          X14       X9        Z27       Y17       X21
   1                    0.19787   0.18547   0.17511  -0.16870   0.16742
 Eigenvalue    39 is  -1.11D-16 should be greater than     0.000000 Eigenvector:
                          Y8        Z2        Y28       Z10       Y1
   1                    0.28908   0.24616  -0.20332  -0.19813   0.19645
                          Y9        Z20       X19       Y14       Y24
   1                    0.19398   0.18581  -0.17358   0.16816   0.16808
 Eigenvalue    40 is  -1.11D-16 should be greater than     0.000000 Eigenvector:
                          X6        Z15       X11       X5        X15
   1                    0.34476   0.29962   0.22236   0.19226  -0.18804
                          X48       Y14       Z17       Z13       Y16
   1                    0.17882  -0.16700   0.15891   0.15873   0.15836
 Eigenvalue    41 is  -1.11D-16 should be greater than     0.000000 Eigenvector:
                          X12       Y8        X10       X29       Y22
   1                    0.24286   0.21220   0.20319   0.19547  -0.17595
                          Y49       Z28       X49       Y13       X52
   1                    0.17567   0.16960   0.16528  -0.16151  -0.16098
 Eigenvalue    42 is   0.00D+00 Eigenvector:
                          X6        Y3        Z3        X9        X5
   1                    0.29862  -0.28247   0.26284  -0.20895   0.20725
                          X49       Z28       Z1        Y6        Z29
   1                   -0.18865  -0.17748   0.17542   0.16530  -0.15869
 Eigenvalue    43 is   0.00D+00 Eigenvector:
                          Z51       Z9        X12       Z15       X5
   1                    0.27322   0.26607  -0.22244  -0.21298  -0.21257
                          Z23       Y47       Z22       X4        Y21
   1                   -0.20615  -0.16455  -0.16071   0.15988   0.15623
 Eigenvalue    44 is   0.00D+00 Eigenvector:
                          X8        X11       Z50       Z9        Y2
   1                    0.29702  -0.28825  -0.24203   0.22255  -0.21138
                          Z2        Z11       Y6        Z15       Z14
   1                    0.19792   0.16772  -0.16760   0.16520   0.16439
 Eigenvalue    45 is   2.22D-16 Eigenvector:
                          X5        Y3        X4        Y14       Z15
   1                    0.41894   0.25602   0.22346   0.19622  -0.19189
                          Z12       X53       Z3        Y20       Y6
   1                    0.17749  -0.17416  -0.15892  -0.15609   0.15239
 Eigenvalue    46 is   2.22D-16 Eigenvector:
                          Y6        X8        Y3        Y2        Z5
   1                    0.31977   0.30839   0.26982  -0.25010  -0.22096
                          X13       Y20       Y14       Z2        Z7
   1                    0.19847  -0.19457  -0.16434   0.15948  -0.15029
 Eigenvalue    47 is   2.22D-16 Eigenvector:
                          Y6        Z27       Y13       Y23       Y14
   1                    0.23719   0.22253  -0.22252   0.21407  -0.20884
                          X21       X5        Y49       X6        Z1
   1                    0.19768   0.19216  -0.18903  -0.18039  -0.17997
 Eigenvalue    48 is   2.22D-16 Eigenvector:
                          X14       Z17       X20       X11       Y15
   1                    0.27577  -0.24964   0.22758  -0.21578   0.19737
                          Y2        Y21       Z13       Z16       Y16
   1                    0.18331   0.18319  -0.16745   0.15783  -0.15465
 Eigenvalue    49 is   2.22D-16 Eigenvector:
                          Z11       Y1        Y2        X26       X1
   1                    0.28774   0.26552   0.20926   0.20783  -0.19824
                          Z17       Y20       X30       Y5        Z2
   1                    0.19772   0.19568   0.19496  -0.18232   0.18149
 Eigenvalue    50 is   2.22D-16 Eigenvector:
                          Y48       X29       Y28       Z11       Y21
   1                    0.27507  -0.23735  -0.22450  -0.18666   0.17988
                          Y8        Y51       X17       X7        Z5
   1                   -0.17394   0.17213  -0.16466  -0.15873  -0.15798
 Eigenvalue    51 is   2.22D-16 Eigenvector:
                          Z27       Y7        X12       Z12       X9
   1                    0.23781  -0.22855   0.20813   0.18432   0.18054
                          Y29       X6        X16       Z51       Y23
   1                    0.17373   0.17245   0.17050   0.16943  -0.16886
 Eigenvalue    52 is   2.22D-16 Eigenvector:
                          X11       Z12       Z17       Y14       Z19
   1                    0.27523   0.24758   0.24753   0.21594  -0.20416
                          X20       X6        Y20       Y10       Y21
   1                    0.20235  -0.18502  -0.17802  -0.17124   0.16723
 Eigenvalue    53 is   2.22D-16 Eigenvector:
                          X53       Y22       Z52       Z26       Y10
   1                    0.27928  -0.20363  -0.19986   0.19717   0.17932
                          Z47       Y17       X48       X49       Z11
   1                    0.17901   0.16181  -0.16173   0.15750   0.15684
 Eigenvalue    54 is   4.44D-16 Eigenvector:
                          Y21       Y19       Y23       Z53       Z21
   1                    0.39856   0.26336  -0.22351   0.20288   0.17856
                          X48       Y24       Z5        Y3        Z1
   1                   -0.16360  -0.15690  -0.15398  -0.15182  -0.14953
 Eigenvalue    55 is   4.44D-16 Eigenvector:
                          X9        Z12       Z26       Z2        X26
   1                    0.29136   0.24996  -0.24077   0.20621   0.19747
                          Y5        Z27       X30       Y4        Z3
   1                    0.18756  -0.18458   0.17970   0.17375   0.16053
 Eigenvalue    56 is   4.44D-16 Eigenvector:
                          X2        X3        Z26       Y14       Y51
   1                    0.22438   0.22081  -0.21175   0.18547  -0.18298
                          Z17       Y18       Z50       X11       Y27
   1                    0.17391  -0.17254   0.17027  -0.15999  -0.15959
 Eigenvalue    57 is   4.44D-16 Eigenvector:
                          X15       Z16       Y23       X16       X12
   1                    0.27500  -0.22104  -0.21515  -0.21510  -0.19610
                          X18       Y24       Z52       Z5        Z11
   1                   -0.19548   0.18524   0.17633   0.17284   0.16932
 Eigenvalue    58 is   6.66D-16 Eigenvector:
                          Z52       Z12       Y30       X8        Z27
   1                    0.30392   0.20857   0.19699   0.18897   0.18768
                          Z53       Y7        Z16       Z25       X52
   1                    0.18035  -0.17502   0.17458  -0.16858  -0.15793
 Eigenvalue    59 is   6.66D-16 Eigenvector:
                          Y28       Z2        Y2        X11       Z10
   1                    0.36814   0.28164  -0.23057   0.20641  -0.18284
                          Y27       Y29       Y49       Z30       Y18
   1                   -0.17398   0.17323   0.16912  -0.15170   0.14163
 Eigenvalue    60 is   6.66D-16 Eigenvector:
                          Y8        Z9        Y2        Y23       Z13
   1                    0.35808  -0.26707   0.21611   0.20132   0.19927
                          X8        Z28       Z14       X14       Y9
   1                    0.17932  -0.17115   0.16573  -0.16026  -0.15059
 Eigenvalue    61 is   6.66D-16 Eigenvector:
                          X8        Z15       Z12       Y20       Y8
   1                    0.39299  -0.26066   0.21871   0.20813   0.20319
                          Z21       X14       Z13       Z6        X6
   1                   -0.19575  -0.19195  -0.16696   0.16439   0.16393
 Eigenvalue    62 is   1.11D-15 Eigenvector:
                          Z3        Y9        Y7        X4        Z9
   1                    0.36974  -0.28232  -0.26855  -0.24503  -0.18516
                          Z15       X2        Y6        Z19       Z5
   1                   -0.17557  -0.17273  -0.16950  -0.15751   0.15660
 Eigenvalue    63 is   1.11D-15 Eigenvector:
                          Y8        X21       Z3        Y49       X19
   1                    0.25790  -0.25582  -0.25508  -0.21182  -0.20353
                          X30       X51       Z14       Y1        X52
   1                    0.20261  -0.19912  -0.17772  -0.16420  -0.16300
 Eigenvalue    64 is   1.11D-15 Eigenvector:
                          Z26       Z47       Y29       Z49       Z50
   1                    0.31639  -0.23109   0.22183  -0.21089   0.20247
                          X47       X29       Y52       Y24       X48
   1                    0.19733   0.17617  -0.17533   0.17359   0.16679
 Eigenvalue    65 is   1.11D-15 Eigenvector:
                          X11       Z12       X8        Z30       Z8
   1                    0.25369  -0.24282   0.23461   0.22979   0.22925
                          Y15       X15       X14       Y29       Z9
   1                    0.22780   0.21224  -0.17706  -0.17562   0.16577
 Eigenvalue    66 is   1.11D-15 Eigenvector:
                          Y20       Y23       Y28       Z17       X12
   1                    0.26287  -0.25879   0.23909   0.19452  -0.18791
                          X16       X10       Y19       X11       X1
   1                    0.18678  -0.18576   0.18156  -0.16690   0.16251
 Eigenvalue    67 is   1.33D-15 Eigenvector:
                          Y17       Z18       X17       Y51       Z17
   1                    0.57761  -0.18563  -0.17467  -0.17209  -0.16821
                          X29       Y29       Z5        Y16       Y18
   1                    0.16404  -0.15986   0.15838   0.15796  -0.15351
 Eigenvalue    68 is   1.33D-15 Eigenvector:
                          Z12       X14       Z54       Y48       Z11
   1                    0.32841   0.28435  -0.24877  -0.24491   0.19818
                          Y20       Y2        Y24       Y8        X11
   1                    0.19670  -0.18522  -0.17640   0.16019   0.15562
 Eigenvalue    69 is   1.55D-15 Eigenvector:
                          X19       Z19       Z26       Y27       Y23
   1                    0.44083   0.22645  -0.20428  -0.18485  -0.18121
                          Z3        X21       Z54       X26       Z53
   1                   -0.16674   0.16643  -0.16317  -0.15438  -0.15260
 Eigenvalue    70 is   1.78D-15 Eigenvector:
                          Y22       Z26       Y23       Y21       Z27
   1                    0.30825   0.27355  -0.20389  -0.19496  -0.18962
                          Y20       Z52       Y55       Y54       Y53
   1                    0.17261  -0.16020  -0.15837  -0.15625  -0.15446
 Eigenvalue    71 is   1.78D-15 Eigenvector:
                          Z26       Y48       Z19       Y19       Z49
   1                    0.26307   0.22491   0.20545  -0.19194   0.18985
                          Z47       Y21       Z27       X20       Y17
   1                    0.18242  -0.18222  -0.17291  -0.15764   0.15202
 Eigenvalue    72 is   2.22D-15 Eigenvector:
                          Z51       X54       Z55       X52       Y47
   1                    0.32242  -0.31554  -0.27213   0.23624   0.21802
                          X50       Z25       X25       X16       Y48
   1                    0.20444  -0.19445   0.18438  -0.16731   0.16717
 Eigenvalue    73 is   2.22D-15 Eigenvector:
                          X53       X50       Z55       Z24       Y47
   1                    0.28556   0.27633   0.25707   0.20508   0.19221
                          Y52       X51       X16       X54       Y24
   1                    0.17775   0.17111  -0.15918   0.15811   0.14381
 Eigenvalue    74 is   2.66D-15 Eigenvector:
                          Z51       Y49       X27       Y51       Y21
   1                    0.28789   0.24651   0.21404  -0.21095  -0.20248
                          Z53       Z50       Y24       X54       Y54
   1                    0.19204   0.18354  -0.18035   0.18034   0.17992
 Eigenvalue    75 is   2.66D-15 Eigenvector:
                          Z26       X50       Z4        Z6        X52
   1                    0.25129  -0.23054  -0.21674  -0.20807  -0.20259
                          X25       X51       Z23       Z30       X30
   1                    0.18441  -0.18126   0.17801  -0.16956  -0.16215
 Eigenvalue    76 is   9.72D-09 Eigenvector:
                          X35       X38       Y45       X44       Y40
   1                    0.33318   0.26957  -0.26202  -0.22681  -0.20978
                          Y44       X43       Z35       X46       X37
   1                    0.20642  -0.19745  -0.19107  -0.18261   0.18113
 Eigenvalue    77 is   2.79D-07 Eigenvector:
                          Z35       Z38       Z44       Z46       Z37
   1                    0.40720   0.32062  -0.24818  -0.24759   0.23231
                          Z43       X35       Z31       Y41       X38
   1                   -0.22403   0.21970   0.21347  -0.21162   0.18143
 Eigenvalue    78 is   1.02D-06 Eigenvector:
                          Z45       Z40       Z44       X42       Z36
   1                    0.45368   0.31132  -0.29123  -0.28899   0.23129
                          X34       Z37       Z43       X41       Z41
   1                    0.21103  -0.20489  -0.20281  -0.19983   0.19596
 Quadratic step=1.463D+02 exceeds max=3.000D-01 adjusted using Lamda=-6.384D-02.
 Angle between NR and scaled steps=  39.83 degrees.
 Angle between quadratic step and forces=  35.94 degrees.
 Linear search not attempted -- first point.
 B after Tr=    -0.007124    0.001643    0.004955
         Rot=    1.000000    0.000080    0.000006    0.000129 Ang=   0.02 deg.
 Variable       Old X    -DE/DX   Delta X   Delta X   Delta X     New X
                                 (Linear)    (Quad)   (Total)
    X1       26.28101  -0.00134   0.00000  -0.01222  -0.01222  26.26879
    Y1       28.78795   0.00118   0.00000   0.00618   0.00542  28.79338
    Z1       27.43555   0.00238   0.00000   0.02099   0.02165  27.45720
    X2       25.30815  -0.00000   0.00000  -0.00719  -0.00695  25.30121
    Y2       29.76583   0.00010   0.00000   0.01355   0.01324  29.77906
    Z2       28.65599   0.00020   0.00000   0.01571   0.01620  28.67219
    X3       27.94505  -0.00057   0.00000  -0.01092  -0.01072  27.93433
    Y3       29.57035   0.00008   0.00000   0.00388   0.00269  29.57304
    Z3       27.44750   0.00028   0.00000   0.00636   0.00692  27.45442
    X4       32.10492   0.00113   0.00000   0.00852   0.00786  32.11278
    Y4       26.18357   0.00268   0.00000   0.03203   0.02971  26.21328
    Z4       27.15868  -0.00681   0.00000  -0.06901  -0.06787  27.09081
    X5       32.36094  -0.00033   0.00000   0.00040   0.00020  32.36114
    Y5       27.98068   0.00085   0.00000   0.03701   0.03459  28.01527
    Z5       26.93161  -0.00007   0.00000  -0.01554  -0.01468  26.91693
    X6       31.69831   0.00037   0.00000   0.01083   0.01008  31.70839
    Y6       25.98281  -0.00006   0.00000  -0.00797  -0.00990  25.97290
    Z6       28.93941  -0.00276   0.00000  -0.06985  -0.06868  28.87073
    X7       30.39101  -0.00233   0.00000  -0.02983  -0.02898  30.36202
    Y7       32.23900   0.00172   0.00000   0.00786   0.00666  32.24565
    Z7       31.31193  -0.00334   0.00000  -0.03311  -0.03296  31.27897
    X8       30.88180  -0.00012   0.00000   0.00125   0.00221  30.88401
    Y8       32.59429   0.00007   0.00000   0.00629   0.00468  32.59897
    Z8       29.58815  -0.00042   0.00000  -0.02249  -0.02239  29.56577
    X9       31.37855  -0.00030   0.00000  -0.01656  -0.01610  31.36245
    Y9       30.73904   0.00020   0.00000   0.02109   0.01970  30.75874
    Z9       31.74194  -0.00014   0.00000  -0.00633  -0.00593  31.73602
   X10       28.00079  -0.00014   0.00000   0.00228   0.00036  28.00115
   Y10       21.07233   0.00035   0.00000   0.01602   0.01381  21.08614
   Z10       21.16276   0.00087   0.00000   0.01151   0.01341  21.17618
   X11       29.04774  -0.00072   0.00000  -0.00863  -0.01086  29.03688
   Y11       19.82707   0.00054   0.00000   0.01067   0.00806  19.83513
   Z11       20.32834   0.00049   0.00000   0.00596   0.00808  20.33642
   X12       28.99589   0.00054   0.00000   0.00613   0.00461  29.00050
   Y12       22.64078   0.00131   0.00000   0.01461   0.01213  22.65292
   Z12       21.14033   0.00014   0.00000   0.00055   0.00222  21.14255
   X13       25.87115   0.00213   0.00000   0.03806   0.03846  25.90961
   Y13       30.07736   0.00032   0.00000   0.01692   0.01541  30.09277
   Z13       22.16368   0.00433   0.00000   0.03757   0.03801  22.20169
   X14       25.55605  -0.00008   0.00000  -0.00611  -0.00589  25.55016
   Y14       29.49955   0.00064   0.00000  -0.00071  -0.00185  29.49770
   Z14       23.89481  -0.00074   0.00000   0.01920   0.01973  23.91454
   X15       24.68531   0.00161   0.00000   0.02355   0.02430  24.70961
   Y15       31.44860  -0.00019   0.00000  -0.00023  -0.00147  31.44713
   Z15       21.92297   0.00098   0.00000   0.01355   0.01377  21.93674
   X16       20.39810   0.00255   0.00000   0.02096   0.02056  20.41866
   Y16       27.25532  -0.00071   0.00000   0.00950   0.01029  27.26561
   Z16       27.70821  -0.00027   0.00000   0.00683   0.00766  27.71588
   X17       19.19897   0.00089   0.00000   0.00915   0.00847  19.20744
   Y17       26.14309   0.00187   0.00000   0.02095   0.02193  26.16502
   Z17       26.88859   0.00110   0.00000   0.01136   0.01236  26.90095
   X18       22.01660  -0.00082   0.00000   0.01211   0.01151  22.02811
   Y18       26.47104   0.00122   0.00000   0.00467   0.00499  26.47603
   Z18       27.36605   0.00011   0.00000  -0.00541  -0.00443  27.36162
   X19       25.23252  -0.00232   0.00000  -0.00982  -0.01181  25.22071
   Y19       21.00362   0.00108   0.00000   0.00922   0.00847  21.01209
   Z19       25.87497   0.00234   0.00000   0.00291   0.00480  25.87977
   X20       26.17203   0.00174   0.00000   0.01562   0.01346  26.18549
   Y20       20.27560   0.00184   0.00000   0.04575   0.04453  20.32013
   Z20       24.47279  -0.00156   0.00000  -0.00371  -0.00170  24.47108
   X21       24.14946   0.00234   0.00000   0.02748   0.02513  24.17459
   Y21       19.68470  -0.00140   0.00000  -0.02901  -0.02938  19.65532
   Z21       26.52719  -0.00159   0.00000  -0.01731  -0.01522  26.51198
   X22       32.84048   0.00045   0.00000   0.00133   0.00100  32.84148
   Y22       27.75911  -0.00358   0.00000  -0.04016  -0.04185  27.71726
   Z22       32.26107   0.00204   0.00000   0.00082   0.00172  32.26280
   X23       32.35169   0.00042   0.00000   0.00613   0.00561  32.35730
   Y23       27.06143   0.00008   0.00000  -0.00824  -0.00955  27.05188
   Z23       33.88053  -0.00066   0.00000   0.01263   0.01364  33.89417
   X24       34.66880  -0.00042   0.00000   0.00112   0.00079  34.66959
   Y24       27.72807   0.00008   0.00000  -0.00000  -0.00216  27.72590
   Z24       32.26551   0.00004   0.00000   0.00551   0.00643  32.27194
   X25       22.32847  -0.00021   0.00000   0.01430   0.01484  22.34330
   Y25       31.10781  -0.00309   0.00000  -0.03115  -0.03022  31.07759
   Z25       31.70756  -0.00332   0.00000  -0.03528  -0.03503  31.67253
   X26       21.54200   0.00095   0.00000   0.01866   0.01962  21.56162
   Y26       32.73963  -0.00282   0.00000  -0.03033  -0.02916  32.71047
   Z26       31.97374  -0.00291   0.00000  -0.03737  -0.03739  31.93635
   X27       21.11574   0.00136   0.00000  -0.00164  -0.00134  21.11440
   Y27       30.14864   0.00088   0.00000  -0.01996  -0.01887  30.12976
   Z27       30.70973   0.00055   0.00000  -0.01641  -0.01603  30.69370
   X28       24.26412  -0.00156   0.00000  -0.00017  -0.00242  24.26170
   Y28       20.36934  -0.00070   0.00000  -0.01677  -0.01609  20.35324
   Z28       33.21127  -0.00031   0.00000   0.00363   0.00561  33.21688
   X29       23.01632   0.00194   0.00000   0.01499   0.01291  23.02923
   Y29       20.97158  -0.00003   0.00000   0.00734   0.00814  20.97972
   Z29       32.01793   0.00139   0.00000   0.00444   0.00631  32.02424
   X30       23.26972  -0.00102   0.00000  -0.01789  -0.02038  23.24934
   Y30       19.47458  -0.00015   0.00000  -0.00638  -0.00524  19.46934
   Z30       34.45449  -0.00050   0.00000  -0.00424  -0.00213  34.45236
   X31       19.59324  -0.00556   0.00000  -0.02710  -0.02840  19.56485
   Y31       23.50847  -0.00320   0.00000  -0.03576  -0.03593  23.47254
   Z31       20.32750  -0.00219   0.00000  -0.01173  -0.01030  20.31720
   X32       21.36102  -0.00121   0.00000  -0.00454  -0.00643  21.35459
   Y32       21.20045  -0.00206   0.00000  -0.01142  -0.01204  21.18840
   Z32       20.39018  -0.00052   0.00000  -0.00823  -0.00642  20.38376
   X33       18.19456   0.00212   0.00000   0.02532   0.02247  18.21703
   Y33       17.43402   0.00353   0.00000   0.06037   0.06069  17.49470
   Z33       21.16125   0.00130   0.00000   0.02520   0.02757  21.18882
   X34       19.08925  -0.00011   0.00000  -0.00030  -0.00267  19.08658
   Y34       19.20122   0.00004   0.00000   0.00489   0.00441  19.20563
   Z34       17.56881   0.00008   0.00000   0.00408   0.00618  17.57500
   X35       19.36818  -0.00057   0.00000   0.01463   0.01421  19.38239
   Y35       26.95508  -0.00054   0.00000  -0.04000  -0.03998  26.91510
   Z35       21.19277   0.00011   0.00000   0.01289   0.01377  21.20654
   X36       22.11703  -0.00279   0.00000  -0.00895  -0.01190  22.10513
   Y36       17.00039  -0.00069   0.00000   0.00037  -0.00069  16.99970
   Z36       18.83922   0.00135   0.00000   0.01635   0.01885  18.85807
   X37       17.59771  -0.00324   0.00000  -0.03441  -0.03567  17.56205
   Y37       23.56336  -0.00121   0.00000  -0.02680  -0.02662  23.53674
   Z37       19.19555   0.00027   0.00000   0.00001   0.00141  19.19696
   X38       20.54640   0.00298   0.00000  -0.00418  -0.00496  20.54145
   Y38       25.57575  -0.00990   0.00000  -0.06347  -0.06371  25.51204
   Z38       21.49167   0.00136   0.00000   0.00890   0.01002  21.50169
   X39       20.09358  -0.00080   0.00000   0.00381   0.00130  20.09488
   Y39       18.71473   0.00092   0.00000   0.01505   0.01458  18.72932
   Z39       19.31731   0.00005   0.00000   0.00507   0.00726  19.32457
   X40       23.39630   0.00048   0.00000  -0.00228  -0.00396  23.39234
   Y40       21.95438  -0.00421   0.00000  -0.02827  -0.02967  21.92472
   Z40       18.82204   0.00026   0.00000  -0.01084  -0.00912  18.81292
   X41       21.98729  -0.00023   0.00000  -0.00550  -0.00749  21.97980
   Y41       20.87239  -0.00012   0.00000  -0.00351  -0.00398  20.86841
   Z41       22.33591   0.00007   0.00000  -0.00543  -0.00356  22.33235
   X42       17.82959  -0.00082   0.00000   0.00911   0.00643  17.83602
   Y42       18.18217   0.00547   0.00000   0.05911   0.05987  18.24204
   Z42       23.29324   0.00656   0.00000   0.02821   0.03046  23.32370
   X43       17.00843   0.01137   0.00000   0.06476   0.06138  17.06981
   Y43       15.32547   0.01249   0.00000   0.07508   0.07555  15.40102
   Z43       20.28341  -0.00618   0.00000  -0.02654  -0.02385  20.25956
   X44       15.95450   0.00113   0.00000   0.04941   0.04584  16.00034
   Y44       14.73108  -0.00029   0.00000   0.02082   0.02178  14.75286
   Z44       21.67299  -0.00123   0.00000  -0.05330  -0.05052  21.62247
   X45       25.00602  -0.00094   0.00000  -0.00341  -0.00521  25.00081
   Y45       21.49088  -0.00006   0.00000  -0.00824  -0.00992  21.48096
   Z45       19.62731  -0.00038   0.00000  -0.00101   0.00080  19.62811
   X46       21.42800   0.00042   0.00000  -0.00435  -0.00766  21.42035
   Y46       15.57021   0.00123   0.00000   0.00873   0.00770  15.57791
   Z46       17.92635   0.00033   0.00000   0.00308   0.00579  17.93214
   X47       31.00742  -0.00276   0.00000  -0.03454  -0.03526  30.97216
   Y47       25.80304  -0.00493   0.00000  -0.08004  -0.08301  25.72004
   Z47       21.24036   0.00641   0.00000   0.04455   0.04576  21.28611
   X48       32.72300  -0.00026   0.00000  -0.01853  -0.01936  32.70364
   Y48       25.31159  -0.00031   0.00000   0.00222  -0.00125  25.31033
   Z48       20.84301  -0.00044   0.00000   0.00236   0.00365  20.84666
   X49       31.03956   0.00033   0.00000   0.01235   0.01168  31.05124
   Y49       25.99803  -0.00026   0.00000   0.00054  -0.00215  25.99589
   Z49       23.07507  -0.00082   0.00000   0.02978   0.03094  23.10601
   X50       30.70526  -0.00217   0.00000  -0.03048  -0.02977  30.67548
   Y50       31.43126  -0.00231   0.00000  -0.01633  -0.01865  31.41261
   Z50       24.78534   0.00169   0.00000   0.02262   0.02291  24.80825
   X51       29.26905  -0.00017   0.00000  -0.01065  -0.00998  29.25906
   Y51       31.20459  -0.00018   0.00000  -0.00908  -0.01122  31.19336
   Z51       23.64068   0.00008   0.00000  -0.00197  -0.00166  23.63902
   X52       31.28145  -0.00079   0.00000  -0.01064  -0.00949  31.27196
   Y52       33.14058  -0.00110   0.00000  -0.02390  -0.02642  33.11416
   Z52       24.49176   0.00037   0.00000   0.01173   0.01175  24.50352
   X53       28.12912  -0.00171   0.00000  -0.02115  -0.02257  28.10656
   Y53       23.39720   0.00226   0.00000   0.02234   0.02148  23.41867
   Z53       29.77290  -0.00004   0.00000   0.00057   0.00211  29.77501
   X54       27.35750  -0.00030   0.00000  -0.00138  -0.00308  27.35443
   Y54       22.27390  -0.00025   0.00000   0.01098   0.01011  22.28401
   Z54       28.53103  -0.00045   0.00000  -0.00372  -0.00201  28.52901
   X55       27.64070  -0.00052   0.00000  -0.01279  -0.01378  27.62692
   Y55       25.04294   0.00131   0.00000   0.02121   0.02037  25.06331
   Z55       29.12996   0.00011   0.00000  -0.00716  -0.00589  29.12408
         Item               Value     Threshold  Converged?
 Maximum Force            0.012486     0.000450     NO 
 RMS     Force            0.002416     0.000300     NO 
 Maximum Displacement     0.083006     0.001800     NO 
 RMS     Displacement     0.023309     0.001200     NO 
 Predicted change in Energy=-6.646070D-03
 GradGradGradGradGradGradGradGradGradGradGradGradGradGradGradGradGradGrad


 Test job not archived.
 1\1\GINC-LENKA14\Force\RB3LYP\6-31G(d,p)\C4H32O19\ZRONYJ\24-Aug-2023\0
 \\#b3lyp/6-31G** scrf=(cpcm,Solvent=Water) nosymm force iop(2/11=1) Ge
 om=(NoDistance,NoAngle) guess=checkpoint\\cluster_333_i\\0,1\O,13.9073
 1247,15.23392913,14.51826832\H,13.39249801,15.75139686,15.16409558\H,1
 4.78788182,15.64795698,14.52459136\O,16.98919272,13.8557506,14.3717555
 4\H,17.12467158,14.80673629,14.25159626\H,16.77402202,13.74950987,15.3
 1407398\O,16.08222821,17.06014306,16.5695591\H,16.34194456,17.24815576
 ,15.65737679\H,16.60481316,16.26640093,16.79711317\O,14.81737905,11.15
 099619,11.19885107\H,15.37140201,10.49203451,10.75729483\H,15.34396466
 ,11.98098652,11.18698036\O,13.69042471,15.91625292,11.7285139\H,13.523
 67994,15.61049175,12.64458733\H,13.06290335,16.64188372,11.60113425\O,
 10.79420754,14.42289444,14.66255497\H,10.1596561,13.83432935,14.228828
 91\H,11.65068227,14.00787196,14.48149049\O,13.35247465,11.11463553,13.
 69244357\H,13.8496425,10.72938723,12.95044096\H,12.77934575,10.4166933
 6,14.03758496\O,17.37843538,14.68948724,17.07182463\H,17.11977771,14.3
 202924,17.92880305\H,18.34593942,14.67306161,17.07417206\O,11.81571544
 ,16.46154178,16.7789198\H,11.39953587,17.32506453,16.91977396\H,11.173
 96853,15.95397203,16.25088799\O,12.84001947,10.77898791,17.574648\H,12
 .17971066,11.09768121,16.94315822\H,12.31380504,10.30550409,18.2325295
 \C,10.36829782,12.44014814,10.75685123\C,11.30376286,11.21879278,10.79
 001935\C,9.62814536,9.22568351,11.19805162\H,10.10159495,10.1608489,9.
 2970163\H,10.24919931,14.26401259,11.21473011\O,11.70382903,8.9962176,
 9.96928515\O,9.31230968,12.46919355,10.1578501\O,10.87268778,13.534103
 19,11.3729025\C,10.63306283,9.90341126,10.22228007\O,12.38078941,11.61
 776013,9.96019344\H,11.63517463,11.0451952,11.81965321\O,9.43501475,9.
 62159124,12.32625312\O,9.00047336,8.10989191,10.73351698\H,8.44275623,
 7.79534967,11.46885096\H,13.2326152,11.3724844,10.38632503\H,11.339211
 91,8.23940094,9.48621505\O,16.40841797,13.65438193,11.23991235\H,17.31
 626505,13.3943161,11.02964456\H,16.42542612,13.75756764,12.21080372\O,
 16.24852129,16.63270914,13.11583686\H,15.48851296,16.51275636,12.51011
 046\H,16.55342794,17.53724136,12.96048342\O,14.88529135,12.38126367,15
 .75514202\H,14.47696805,11.78684125,15.09796907\H,14.62682926,13.25215
 076,15.41491236\\Version=ES64L-G16RevA.03\HF=-1601.0733844\RMSD=4.144e
 -09\RMSF=2.416e-03\Dipole=0.7003029,-0.3580002,0.0762422\Quadrupole=40
 .6371791,-9.3441343,-31.2930448,18.2978996,13.3401008,-6.0227064\PG=C0
 1 [X(C4H32O19)]\\@


      HUMANKIND PERIODICALLY GOES THROUGH A SPEEDUP OF ITS AFFAIRS, 
      THEREBY EXPERIENCING THE RACE BETWEEN THE RENEWABLE VITALITY
      OF THE LIVING, AND THE BECKONING VITIATION OF DECADENCE.
      IN THIS PERIODIC RACE, ANY PAUSE BECOMES A LUXURY.
      ONLY THEN CAN ONE REFLECT THAT ALL IS PERMITTED;
      ALL IS POSSIBLE.

                              -- THE APOCRYPHA OF MUAD'DIB
                                 CHILDREN OF DUNE, BY FRANK HERBERT
 Job cpu time:       0 days  0 hours 28 minutes 28.6 seconds.
 Elapsed time:       0 days  0 hours  3 minutes 38.4 seconds.
 File lengths (MBytes):  RWF=    339 Int=      0 D2E=      0 Chk=     50 Scr=      1
 Normal termination of Gaussian 16 at Thu Aug 24 22:49:10 2023.
