123
XYZ file of cluster: frame_12500_44f58.6f095.ca405 - created by MolEdiTo
 O      14.97200000      23.07100000      28.24400000
 H      15.46800000      22.24400000      28.49200000
 H      15.00000000      23.72900000      28.99200000
 O      17.03900000      21.66900000      29.56100000
 H      18.01600000      21.52300000      29.79900000
 H      16.47300000      21.79400000      30.39300000
 O      14.68700000      16.80000000      27.40700000
 H      14.04500000      17.38600000      26.88400000
 H      15.34200000      16.77400000      26.67400000
 O      19.47900000      25.98200000      29.14300000
 H      18.58300000      25.75800000      29.48400000
 H      19.85600000      26.68900000      29.64400000
 O      19.66300000      20.94900000      29.74500000
 H      20.17500000      20.24100000      30.20400000
 H      20.39700000      21.60600000      29.48800000
 O      16.89300000      25.86600000      27.29300000
 H      16.20600000      25.33400000      26.85600000
 H      16.25300000      26.17700000      27.99500000
 O      10.78400000      22.66700000      27.10000000
 H      10.22000000      22.44100000      26.36200000
 H      11.31200000      21.85500000      27.34900000
 O      13.21500000      24.99000000      27.09500000
 H      12.41500000      24.37300000      26.92800000
 H      13.82600000      24.48800000      27.62900000
 O      20.73900000      23.33300000      27.80200000
 H      20.73200000      23.95500000      28.52400000
 H      20.04300000      23.77300000      27.23800000
 O      14.97000000      18.08800000      29.94000000
 H      14.33400000      18.81300000      29.86500000
 H      14.86000000      17.75900000      29.01900000
 O      16.79200000      14.84700000      28.82300000
 H      17.30600000      15.71800000      28.73300000
 H      15.87900000      15.15300000      28.75800000
 O      18.22000000      21.21900000      26.72600000
 H      18.76000000      21.51300000      27.50500000
 H      18.52200000      20.31200000      26.39700000
 O      11.15800000      18.90200000      27.16300000
 H      10.68800000      18.09400000      27.49000000
 H      10.47300000      19.53500000      26.95100000
 O      13.83100000      15.04800000      29.55900000
 H      13.63200000      15.71400000      28.95700000
 H      13.64400000      14.19400000      29.00000000
 O      18.24000000      18.20100000      29.61400000
 H      17.40100000      18.65100000      29.51900000
 H      17.98200000      17.73400000      30.41400000
 O      15.25200000      24.95100000      29.95200000
 H      16.19100000      25.05000000      30.20800000
 H      14.80200000      25.65600000      30.51200000
 O      11.51900000      26.27100000      29.85300000
 H      10.83700000      25.94400000      29.28500000
 H      11.77500000      27.07500000      29.34400000
 O      15.28800000      20.18600000      27.69400000
 H      16.12800000      20.37300000      28.19500000
 H      15.46800000      20.09100000      26.73800000
 O      11.49500000      23.37000000      30.34400000
 H      10.81800000      23.31400000      29.63600000
 H      11.39900000      24.31500000      30.56300000
 O      19.58000000      17.21200000      27.39900000
 H      19.31700000      17.70600000      28.19300000
 H      19.66300000      16.30200000      27.75700000
 O      12.73200000      20.92800000      28.13900000
 H      13.72700000      20.92300000      27.92600000
 H      12.45600000      19.93500000      28.06700000
 O      19.74400000      23.58100000      34.90000000
 H      20.62600000      23.40100000      34.55800000
 H      19.62600000      22.97400000      35.74600000
 O      13.70400000      19.23200000      34.61300000
 H      13.33600000      18.44200000      34.14100000
 H      13.09800000      19.80800000      34.12900000
 O      16.38800000      21.77700000      34.18000000
 H      15.48300000      21.55600000      33.85100000
 H      16.63800000      21.00400000      34.69900000
 O      16.75400000      19.89700000      37.00700000
 H      16.88100000      19.68500000      37.96100000
 H      16.68800000      19.06600000      36.62800000
 O      19.00100000      17.60100000      34.75200000
 H      18.10500000      17.38000000      34.65100000
 H      18.89600000      18.12200000      35.66100000
 O      13.13600000      16.79200000      33.75900000
 H      13.00900000      15.84400000      33.98000000
 H      13.51700000      16.82000000      32.88800000
 O      10.55300000      19.80100000      35.00900000
 H      10.34600000      19.00200000      35.63900000
 H      10.66500000      20.49700000      35.70600000
 O      21.13400000      18.90300000      32.98300000
 H      20.80800000      17.97800000      32.99900000
 H      20.73100000      19.19200000      33.87000000
 O       9.61200000      22.67500000      36.50900000
 H      10.44900000      22.26500000      36.81900000
 H       8.83100000      22.10200000      36.70700000
 O      17.43100000      24.33300000      33.56200000
 H      16.65200000      23.79400000      33.81600000
 H      18.21000000      23.96800000      34.08000000
 O      16.44400000      17.62400000      35.09700000
 H      16.14300000      16.78300000      35.60600000
 H      15.58500000      17.98600000      34.82100000
 O      13.72700000      21.58700000      32.86700000
 H      13.30600000      21.67700000      32.02100000
 H      13.51800000      22.37900000      33.36000000
 O      13.14600000      23.83300000      35.18500000
 H      12.34900000      23.46300000      35.62400000
 H      12.94700000      24.77900000      35.16600000
 O      17.74000000      16.21000000      37.52200000
 H      17.69400000      15.45300000      38.17400000
 H      18.38500000      15.81200000      36.93300000
 O      20.49700000      16.02200000      33.12600000
 H      19.99900000      15.21200000      32.84900000
 H      20.02700000      16.52600000      33.84500000
 O      17.55700000      26.68600000      34.79600000
 H      17.68200000      25.89800000      34.19300000
 H      17.58500000      27.54600000      34.30300000
 O      11.46500000      25.09300000      37.37900000
 H      11.27000000      24.55800000      38.18900000
 H      10.63600000      25.32200000      36.96300000
 O      15.07400000      15.29400000      36.08000000
 H      15.11200000      14.41000000      35.62100000
 H      14.27300000      15.72600000      35.75700000
 O      20.17600000      20.85700000      34.79900000
 H      19.26100000      20.55700000      35.02800000
 H      20.03000000      21.38800000      33.96800000
 O      14.02100000      19.41500000      37.31600000
 H      13.71800000      19.17600000      36.43000000
 H      14.72600000      20.11200000      37.14000000
