135
XYZ file of cluster: frame_12500_4f7a4.4a911.a06e4 - created by MolEdiTo
 O      15.67100000      20.27500000      24.42900000
 H      16.26600000      19.65300000      24.84500000
 H      15.37500000      19.71200000      23.66400000
 O      19.42000000      13.24200000      30.87700000
 H      20.13900000      12.67000000      31.25000000
 H      18.76800000      13.30500000      31.55200000
 O      21.50900000      12.88400000      26.54900000
 H      22.05100000      12.07800000      26.72700000
 H      20.83600000      12.51400000      25.89700000
 O      14.68700000      16.80000000      27.40700000
 H      14.04500000      17.38600000      26.88400000
 H      15.34200000      16.77400000      26.67400000
 O      19.37000000      11.69600000      22.51400000
 H      18.56600000      11.94000000      23.04600000
 H      19.83600000      12.59400000      22.51300000
 O      19.66300000      20.94900000      29.74500000
 H      20.17500000      20.24100000      30.20400000
 H      20.39700000      21.60600000      29.48800000
 O      15.29400000      12.59600000      26.13500000
 H      15.63000000      12.12300000      25.33200000
 H      16.03600000      13.09700000      26.53000000
 O      13.45000000      12.45400000      28.91600000
 H      13.84200000      11.55500000      29.10200000
 H      12.68700000      12.25800000      28.35200000
 O      13.42200000      14.04600000      21.84600000
 H      13.21900000      13.89200000      22.81700000
 H      12.52900000      14.06000000      21.43700000
 O      18.14000000      18.65500000      24.95300000
 H      18.47800000      17.91100000      25.48500000
 H      18.79400000      18.89500000      24.30300000
 O      11.01600000      13.89100000      30.08900000
 H      10.26300000      13.34200000      29.97000000
 H      11.78000000      13.35200000      29.84000000
 O      12.99400000      10.65500000      24.60200000
 H      13.73600000      11.17500000      24.16600000
 H      12.26600000      11.19100000      24.16900000
 O      16.14600000      16.26700000      25.22000000
 H      15.98800000      16.19700000      24.21200000
 H      17.05800000      15.88400000      25.40100000
 O      11.43100000      17.27000000      22.54500000
 H      11.26500000      16.38700000      22.17000000
 H      12.37700000      17.32400000      22.48800000
 O      17.50400000      12.10100000      29.05700000
 H      17.30900000      13.02200000      29.14400000
 H      18.52900000      11.95000000      29.07100000
 O      11.97900000      10.52400000      21.62700000
 H      12.58900000      10.84200000      20.91100000
 H      12.11900000       9.53200000      21.40300000
 O      18.57900000      15.38700000      25.27800000
 H      18.65000000      14.64300000      25.95900000
 H      19.41800000      15.76900000      25.06800000
 O      19.90600000      14.45500000      21.93300000
 H      20.55500000      14.81500000      22.56200000
 H      20.27700000      14.69800000      21.04700000
 O      17.64100000      19.63800000      21.81700000
 H      18.14400000      19.83000000      22.68800000
 H      17.50600000      20.41500000      21.23200000
 O      13.33900000      17.43900000      24.81300000
 H      12.36600000      17.69300000      24.50200000
 H      13.88300000      17.11800000      24.09700000
 O      11.48500000      13.75200000      27.17100000
 H      11.14900000      14.68400000      27.17300000
 H      11.93400000      13.68400000      26.31600000
 O      14.97000000      18.08800000      29.94000000
 H      14.33400000      18.81300000      29.86500000
 H      14.86000000      17.75900000      29.01900000
 O      16.79200000      14.84700000      28.82300000
 H      17.30600000      15.71800000      28.73300000
 H      15.87900000      15.15300000      28.75800000
 O      18.22000000      21.21900000      26.72600000
 H      18.76000000      21.51300000      27.50500000
 H      18.52200000      20.31200000      26.39700000
 O      13.33000000      14.30500000      24.76200000
 H      13.93500000      15.01200000      25.03000000
 H      13.76200000      13.47500000      25.11400000
 O      11.15800000      18.90200000      27.16300000
 H      10.68800000      18.09400000      27.49000000
 H      10.47300000      19.53500000      26.95100000
 O      13.83100000      15.04800000      29.55900000
 H      13.63200000      15.71400000      28.95700000
 H      13.64400000      14.19400000      29.00000000
 O      15.62300000      16.68500000      22.27500000
 H      15.47900000      15.89800000      21.72600000
 H      16.52400000      16.89600000      21.99000000
 O      13.88600000      18.57800000      21.93400000
 H      14.07200000      18.68000000      20.96300000
 H      14.57800000      17.97000000      22.14000000
 O      18.24000000      18.20100000      29.61400000
 H      17.40100000      18.65100000      29.51900000
 H      17.98200000      17.73400000      30.41400000
 O      15.28900000      10.04000000      28.01700000
 H      16.03000000       9.86700000      28.59400000
 H      15.26100000      11.01900000      28.03200000
 O      10.17800000      19.66600000      22.28100000
 H      10.85600000      18.90400000      22.51900000
 H      10.66700000      20.29200000      21.67100000
 O      20.27900000      17.05000000      23.67600000
 H      20.37400000      17.96800000      23.51300000
 H      20.81400000      16.84100000      24.44500000
 O      18.18400000      12.94800000      26.35900000
 H      18.86500000      12.20900000      26.38200000
 H      17.75400000      12.81100000      27.20200000
 O      15.28800000      20.18600000      27.69400000
 H      16.12800000      20.37300000      28.19500000
 H      15.46800000      20.09100000      26.73800000
 O      20.29500000      19.84300000      23.01000000
 H      20.21300000      20.49400000      22.24800000
 H      20.61400000      20.49200000      23.67600000
 O      19.58000000      17.21200000      27.39900000
 H      19.31700000      17.70600000      28.19300000
 H      19.66300000      16.30200000      27.75700000
 O      18.35900000      17.01900000      21.68200000
 H      17.96900000      17.95000000      21.61100000
 H      19.10100000      17.11000000      22.31000000
 O      15.24800000      11.74400000      23.14700000
 H      15.05200000      11.64200000      22.15400000
 H      15.89500000      12.47100000      23.22100000
 O      11.91500000      10.53700000      27.30700000
 H      11.72600000       9.78600000      26.79400000
 H      12.52800000      10.91800000      26.69700000
 O      19.96200000      10.45200000      25.74700000
 H      19.34300000       9.76400000      25.30100000
 H      20.29900000       9.95800000      26.55000000
 O      20.82900000      14.78800000      28.70300000
 H      20.09800000      14.37600000      29.16200000
 H      21.36100000      14.00400000      28.38600000
 O      12.73200000      20.92800000      28.13900000
 H      13.72700000      20.92300000      27.92600000
 H      12.45600000      19.93500000      28.06700000
 O      12.69000000      20.90900000      22.69500000
 H      12.92200000      20.02900000      22.50800000
 H      11.96900000      20.83200000      23.37000000
 O      17.46400000      13.88100000      23.38300000
 H      18.16000000      14.19900000      22.76500000
 H      17.62900000      14.49000000      24.14300000
