630
XYZ file of cluster: frame_9000_c362f.9b374.244d4 - created by MolEdiTo
 O      36.69400000      34.06300000      38.70800000
 H      36.40700000      34.91800000      38.34400000
 H      35.91800000      33.58700000      38.69600000
 O      38.74600000      37.07300000      37.24200000
 H      38.35500000      37.37700000      36.36300000
 H      37.85900000      36.88800000      37.72000000
 O      34.76500000      30.75800000      33.67800000
 H      34.23200000      30.08200000      34.21300000
 H      35.48900000      30.90600000      34.29100000
 O      35.01300000      28.99200000      20.58800000
 H      35.12500000      29.58300000      21.34000000
 H      34.31700000      29.42100000      20.14200000
 O      40.34300000      39.17100000       9.72300000
 H      39.43000000      39.63000000       9.80600000
 H      40.48000000      39.24000000       8.75800000
 O      36.10100000      36.69100000      38.21000000
 H      35.74000000      37.19200000      38.93100000
 H      35.39100000      36.63400000      37.55500000
 O      38.85000000      32.05600000      26.96700000
 H      39.06300000      32.18900000      26.04300000
 H      37.87700000      32.03100000      26.96500000
 O      38.87900000      27.45300000      26.77400000
 H      39.62400000      27.50500000      26.14200000
 H      38.75500000      28.38700000      26.98000000
 O      40.15400000      38.19500000      19.96800000
 H      39.79500000      39.11000000      19.86100000
 H      39.70300000      37.79100000      19.15400000
 O      39.19900000      34.04900000      28.84600000
 H      39.10600000      33.22600000      28.31900000
 H      40.10100000      33.92600000      29.24800000
 O      37.77400000      35.04500000      20.96600000
 H      37.33200000      35.79500000      20.65400000
 H      37.49900000      34.97500000      21.88900000
 O      38.33100000      34.22700000      13.42600000
 H      38.86000000      34.42500000      12.66100000
 H      37.56300000      34.83500000      13.26800000
 O      39.18700000      29.97800000      10.02700000
 H      39.30900000      29.22800000      10.62800000
 H      38.31600000      29.74700000       9.69400000
 O      39.54500000      30.60200000      17.12000000
 H      40.40100000      30.31700000      16.84500000
 H      39.54600000      31.58300000      16.89100000
 O      35.06600000      38.99300000      28.61900000
 H      34.53400000      39.78100000      28.38000000
 H      35.96300000      39.41200000      28.47600000
 O      39.19100000      31.80000000      32.89100000
 H      40.18000000      31.98100000      32.78100000
 H      39.02100000      32.41800000      33.65100000
 O      40.57500000      40.40500000      31.21100000
 H      40.58600000      41.41000000      31.19700000
 H      41.12600000      40.27500000      30.42700000
 O      34.43100000      34.04200000      12.74500000
 H      34.74800000      33.16900000      13.19000000
 H      33.70000000      34.23600000      13.38400000
 O      39.27100000      31.77300000       8.08600000
 H      38.82500000      32.48900000       8.49700000
 H      39.48600000      31.22700000       8.90000000
 O      34.88900000      30.24800000      23.00700000
 H      34.65400000      30.76700000      23.88600000
 H      35.73900000      29.79200000      23.37800000
 O      38.83900000      37.80600000      11.99000000
 H      39.28800000      37.74100000      11.09000000
 H      39.21000000      37.12600000      12.49000000
 O      39.12300000      38.89700000      39.35800000
 H      38.52600000      38.31200000      39.91900000
 H      39.17800000      38.44200000      38.53300000
 O      40.68100000      32.08800000      22.01800000
 H      40.90900000      33.05200000      22.01300000
 H      40.27200000      32.03000000      21.11000000
 O      36.66500000      31.18500000      40.50800000
 H      37.19700000      30.95600000      39.75800000
 H      35.77400000      30.97900000      40.21600000
 O      40.61500000      29.60400000      25.35800000
 H      41.11500000      29.51900000      24.51300000
 H      39.84100000      30.17900000      24.99200000
 O      39.24400000      30.06100000      29.02400000
 H      40.04000000      29.59500000      28.90400000
 H      39.30100000      30.81400000      28.43800000
 O      34.83400000      27.27500000      12.28600000
 H      35.52200000      27.88200000      12.62100000
 H      34.41700000      27.17400000      13.17300000
 O      40.60600000      27.96200000      13.57100000
 H      40.50800000      28.24200000      14.50100000
 H      41.45500000      27.48800000      13.61600000
 O      38.77500000      37.12900000      17.72700000
 H      37.78700000      37.15600000      17.55000000
 H      38.84500000      36.19200000      18.01200000
 O      37.40700000      39.29800000      25.67400000
 H      37.95400000      39.77200000      25.05700000
 H      37.69700000      39.61600000      26.50900000
 O      39.67900000      35.51400000      34.62700000
 H      38.99300000      36.21200000      34.75900000
 H      39.13900000      34.75700000      35.01300000
 O      36.30100000      30.25500000      16.37900000
 H      36.85200000      31.05500000      16.44900000
 H      36.42900000      29.84300000      17.20000000
 O      37.80000000      27.66700000       8.83900000
 H      38.31000000      27.57900000       9.64000000
 H      38.51600000      27.91100000       8.19300000
 O      36.01500000      28.83000000      37.40900000
 H      36.67900000      29.31400000      37.89500000
 H      35.80900000      28.11800000      38.05100000
 O      34.57100000      33.49200000      32.18600000
 H      34.93400000      32.67300000      32.59500000
 H      34.40800000      33.25200000      31.30700000
 O      38.16200000      28.37000000      16.04000000
 H      38.71900000      28.77200000      16.76700000
 H      37.57000000      29.13600000      15.87600000
 O      34.79600000      27.46100000      27.70900000
 H      35.44100000      28.16400000      27.40800000
 H      34.61600000      27.08100000      26.85200000
 O      40.89200000      34.44700000      39.16300000
 H      41.06300000      34.68200000      38.21500000
 H      41.38000000      33.58700000      39.22000000
 O      34.03200000      30.07100000      30.43500000
 H      34.96700000      30.00900000      30.24200000
 H      34.01800000      29.96300000      31.41000000
 O      36.41700000      35.78900000       9.15000000
 H      36.72500000      36.72400000       9.29600000
 H      35.91400000      35.95100000       8.32000000
 O      36.76600000      38.27900000      10.28800000
 H      37.48700000      38.01100000      11.01600000
 H      37.15700000      39.11500000       9.99400000
 O      39.87700000      35.32800000      10.73000000
 H      40.65900000      35.26700000      10.11600000
 H      40.27600000      35.78100000      11.47600000
 O      36.17700000      36.72400000      17.27400000
 H      36.15500000      36.61300000      16.30200000
 H      35.61400000      36.01200000      17.60800000
 O      36.27700000      31.99600000      26.51500000
 H      35.73400000      32.02100000      25.68600000
 H      35.74300000      32.49200000      27.15600000
 O      38.37600000      30.83200000      13.54800000
 H      38.65200000      31.40500000      12.76800000
 H      38.94100000      31.18300000      14.23600000
 O      38.52900000      36.38400000       7.11600000
 H      37.55100000      36.43100000       7.11000000
 H      38.67100000      35.45200000       6.91700000
 O      34.57300000      28.15700000      35.09200000
 H      35.11900000      28.21100000      35.89700000
 H      33.78700000      27.73800000      35.57100000
 O      38.78700000      29.31900000      22.03600000
 H      39.65400000      29.57700000      21.75300000
 H      38.29300000      29.21700000      21.22700000
 O      34.96700000      38.14700000      24.11500000
 H      35.67900000      38.35300000      24.73700000
 H      34.24800000      38.53000000      24.72500000
 O      40.79000000      37.23300000      15.67400000
 H      41.05900000      38.09100000      15.29800000
 H      40.06000000      37.48500000      16.32000000
 O      33.94100000      36.72800000      33.57500000
 H      34.93100000      36.68800000      33.68600000
 H      33.96100000      36.99100000      32.63900000
 O      39.48600000      31.09200000      36.75100000
 H      40.14100000      30.36800000      36.75500000
 H      39.72500000      31.57100000      37.60800000
 O      35.62000000      36.97400000      14.62100000
 H      36.01200000      36.80500000      13.71900000
 H      34.87400000      36.30500000      14.57900000
 O      40.32300000      40.44000000      25.86300000
 H      40.73900000      39.60900000      25.46400000
 H      40.00600000      40.82500000      25.01800000
 O      38.06000000      36.57400000      26.08300000
 H      37.78900000      37.50800000      25.87800000
 H      39.00400000      36.63200000      26.23900000
 O      36.09500000      31.51100000       9.79600000
 H      36.99800000      31.81600000       9.96700000
 H      35.56100000      32.22800000      10.08900000
 O      39.81700000      37.82300000      28.67000000
 H      40.33700000      38.67200000      28.55900000
 H      40.49900000      37.20200000      28.88600000
 O      38.17400000      29.62900000      38.72200000
 H      38.41300000      28.65800000      38.69800000
 H      38.75300000      30.06000000      38.09000000
 O      36.05500000      38.69600000      18.99800000
 H      36.02300000      38.06000000      18.22800000
 H      35.13600000      39.04500000      18.92100000
 O      34.64500000      34.13600000      17.92400000
 H      33.84600000      34.65300000      18.20300000
 H      34.32300000      33.23300000      18.10900000
 O      39.01600000      34.63300000      18.46300000
 H      39.86500000      34.11900000      18.65700000
 H      38.74400000      34.68700000      19.44000000
 O      35.06600000      39.32300000      15.48300000
 H      35.04900000      38.45800000      15.01000000
 H      34.25600000      39.16700000      16.00100000
 O      38.50300000      38.42500000      22.61700000
 H      38.97500000      38.20000000      21.79700000
 H      37.61700000      38.04200000      22.40100000
 O      34.05400000      38.54900000       9.51000000
 H      34.44500000      39.19500000       8.87200000
 H      34.79400000      38.49700000      10.15600000
 O      37.34200000      32.19900000      30.79000000
 H      37.95000000      32.00200000      31.52000000
 H      37.05100000      31.28000000      30.52100000
 O      38.91500000      31.27000000      19.79800000
 H      39.14000000      30.94900000      18.89500000
 H      37.97200000      31.41200000      19.74300000
 O      38.14700000      33.57100000       9.57900000
 H      37.71100000      34.43000000       9.29100000
 H      38.84300000      33.89700000      10.22200000
 O      36.35700000      32.08700000      19.71700000
 H      36.59300000      32.69100000      20.42700000
 H      35.75500000      32.51200000      19.16700000
 O      35.21000000      33.25100000      29.00500000
 H      35.92900000      32.82900000      29.51400000
 H      35.51700000      34.09900000      28.71000000
 O      37.87100000      37.84600000      30.68000000
 H      37.68800000      36.92500000      30.40400000
 H      38.75300000      37.98200000      30.28800000
 O      37.18800000      28.89200000      18.66300000
 H      36.49900000      28.70400000      19.33800000
 H      37.13200000      28.13700000      18.10000000
 O      36.78800000      28.43300000      13.61300000
 H      37.34400000      29.24900000      13.59700000
 H      37.28200000      27.92400000      14.28200000
 O      34.07400000      29.85000000      15.15700000
 H      34.13600000      28.85400000      15.09700000
 H      34.84700000      30.02300000      15.74900000
 O      37.59600000      34.66200000      23.57900000
 H      37.27200000      33.82300000      23.99300000
 H      37.55800000      35.28200000      24.26500000
 O      36.18600000      35.60200000      33.18500000
 H      35.56800000      34.91000000      32.96300000
 H      36.84200000      35.48800000      32.42800000
 O      37.64900000      37.16500000      34.81100000
 H      36.94900000      37.83800000      34.90600000
 H      37.15300000      36.48300000      34.28000000
 O      38.91900000      31.64500000      24.14600000
 H      38.53900000      31.08100000      23.43100000
 H      39.60900000      32.12100000      23.67400000
 O      38.33200000      40.29300000      18.75500000
 H      37.62300000      39.59100000      18.93100000
 H      37.96700000      40.96900000      19.36300000
 O      37.78600000      39.98300000      15.74500000
 H      37.80200000      40.44500000      16.57900000
 H      37.03400000      39.35800000      15.82300000
 O      39.23200000      32.86700000      15.35600000
 H      38.38300000      32.73800000      15.86500000
 H      38.84400000      33.31100000      14.56200000
 O      36.39800000      35.54000000      11.87700000
 H      36.07200000      35.53500000      10.96000000
 H      35.71900000      34.88100000      12.24900000
 O      38.29300000      39.71900000      32.31000000
 H      39.17400000      39.88400000      31.89600000
 H      37.98400000      38.96800000      31.75100000
 O      38.10600000      34.77900000      31.29600000
 H      37.57800000      33.98600000      31.01000000
 H      38.69500000      34.84900000      30.58000000
 O      40.28600000      39.56100000      34.18500000
 H      39.42700000      39.39500000      33.70900000
 H      40.09000000      40.39000000      34.66500000
 O      37.08900000      28.87500000      24.16900000
 H      37.23800000      27.88400000      24.15100000
 H      37.76500000      29.12900000      23.46200000
 O      36.76500000      29.80400000      29.80100000
 H      37.70900000      29.80600000      29.58200000
 H      36.48700000      28.96200000      29.45700000
 O      38.61000000      33.11900000      35.47400000
 H      37.70000000      32.73900000      35.55300000
 H      39.14400000      32.44100000      35.90800000
 O      35.74100000      39.08200000      35.13600000
 H      36.22600000      39.85500000      35.56300000
 H      35.37900000      39.53900000      34.35500000
 O      35.36300000      31.68600000      13.38700000
 H      36.05900000      31.15900000      12.97200000
 H      34.96000000      30.95800000      13.95300000
 O      34.98500000      40.70600000      38.13000000
 H      34.16500000      40.20000000      38.04900000
 H      34.91400000      41.26900000      37.31000000
 O      36.30300000      37.52600000      21.37400000
 H      35.34800000      37.21500000      21.48200000
 H      36.19600000      38.08300000      20.50100000
 O      36.88500000      37.95000000      40.75100000
 H      36.29800000      38.73200000      40.65500000
 H      36.72400000      37.71600000      41.67000000
 O      36.10700000      31.12200000      36.05000000
 H      35.31700000      31.52000000      36.47100000
 H      36.07800000      30.23700000      36.40800000
 O      38.66000000      33.72500000      40.30200000
 H      37.82500000      33.90600000      39.82900000
 H      39.30100000      34.09100000      39.68400000
 O      36.76200000      27.72800000      33.10100000
 H      36.05800000      27.56000000      33.77200000
 H      37.14500000      28.54000000      33.45900000
 O      38.26800000      29.52100000      34.44200000
 H      38.89100000      30.18200000      34.07200000
 H      37.84100000      30.13700000      35.06100000
 O      37.82300000      40.48100000      13.17800000
 H      37.54800000      40.25700000      14.12300000
 H      38.11200000      39.58900000      12.89900000
 O      37.36900000      39.85400000      28.55300000
 H      37.67900000      39.59000000      29.43400000
 H      37.74200000      40.74400000      28.40600000
 O      36.85500000      35.13000000      27.99000000
 H      37.70400000      34.66900000      28.29300000
 H      37.21900000      35.74200000      27.37200000
 O      39.47900000      26.97300000      34.86700000
 H      38.70100000      26.40200000      35.01700000
 H      39.02100000      27.79200000      34.66500000
 O      40.31400000      28.81400000      32.13500000
 H      40.77200000      29.37400000      32.78900000
 H      39.44100000      29.28800000      32.12000000
 O      34.30500000      36.30100000      28.16600000
 H      35.26000000      35.97500000      28.15100000
 H      34.53900000      37.21700000      28.32500000
 O      38.17500000      40.61900000       9.87400000
 H      38.66600000      41.36800000       9.48100000
 H      37.24200000      40.82400000       9.68700000
 O      36.46800000      29.25100000      26.91700000
 H      36.71900000      29.23600000      26.00400000
 H      36.27700000      30.22800000      27.06500000
 O      36.99000000      32.90300000      16.88400000
 H      36.08400000      33.27200000      17.06900000
 H      37.44900000      33.13100000      17.72700000
 O      34.10800000      38.90800000      31.10900000
 H      34.71100000      38.94700000      30.36800000
 H      33.24700000      38.96200000      30.64500000
 O      46.79700000      38.46700000       6.78500000
 H      46.57900000      37.75500000       6.19600000
 H      46.19800000      38.19100000       7.53900000
 O      44.18100000      37.91100000      39.69400000
 H      43.77200000      37.64600000      38.83100000
 H      43.41200000      37.66500000      40.28400000
 O      46.67000000      32.95200000      28.29800000
 H      46.60600000      33.74100000      27.72100000
 H      47.36800000      33.31400000      28.94100000
 O      45.83100000      27.97800000      16.90400000
 H      46.12500000      28.88900000      17.18800000
 H      46.45000000      27.88100000      16.10600000
 O      44.44200000      32.10700000      36.22400000
 H      43.99700000      33.02200000      36.33600000
 H      44.76400000      32.20400000      35.30900000
 O      43.34700000      34.43000000       9.18900000
 H      43.26700000      33.58600000       9.66900000
 H      44.29200000      34.62700000       9.46500000
 O      44.43800000      28.56800000      31.10800000
 H      45.00300000      29.41300000      30.90000000
 H      43.58300000      29.03100000      31.18200000
 O      45.57500000      40.46300000      30.49300000
 H      46.39200000      41.00700000      30.39500000
 H      45.31500000      40.72500000      31.38000000
 O      44.28600000      36.06700000      17.03500000
 H      43.43400000      36.50100000      16.71600000
 H      44.14300000      35.16000000      16.81300000
 O      49.36200000      40.34700000      20.28100000
 H      49.17500000      40.31400000      19.28600000
 H      48.39000000      40.51200000      20.56300000
 O      43.48300000      39.52300000      11.84100000
 H      44.38800000      39.61200000      11.50700000
 H      43.03300000      39.16300000      11.04300000
 O      45.65500000      27.42500000      33.26300000
 H      45.05400000      27.65400000      32.52600000
 H      45.88800000      28.32400000      33.60200000
 O      46.92700000      38.29300000      40.75200000
 H      47.20000000      37.98500000      39.87800000
 H      45.94000000      38.14500000      40.62900000
 O      44.47000000      38.10400000       8.37600000
 H      43.84900000      37.48100000       8.00100000
 H      44.05600000      38.92900000       8.10300000
 O      47.58600000      37.69400000      24.73600000
 H      47.42400000      36.79600000      24.38100000
 H      48.45700000      37.91900000      24.42600000
 O      44.21500000      34.75100000      33.48500000
 H      43.66200000      35.50300000      33.29800000
 H      43.58900000      33.99000000      33.38200000
 O      46.20300000      36.63800000      34.28600000
 H      45.49700000      35.99700000      33.98100000
 H      46.53900000      36.13300000      35.04000000
 O      46.75400000      34.07000000      39.96100000
 H      46.81000000      33.91900000      38.98000000
 H      46.00000000      33.46600000      40.12000000
 O      45.63700000      30.92200000      30.58300000
 H      46.02900000      31.71100000      31.02300000
 H      46.37800000      30.73600000      29.92200000
 O      43.10600000      37.24800000      33.43400000
 H      42.45500000      36.59600000      33.73900000
 H      42.61300000      38.06800000      33.71100000
 O      48.73700000      30.84400000      26.94900000
 H      48.58300000      31.10400000      27.90000000
 H      47.93900000      30.31400000      26.82200000
 O      44.97900000      27.05300000      27.27700000
 H      44.67400000      26.59600000      28.06700000
 H      44.43500000      27.91400000      27.44600000
 O      43.13900000      29.04700000      27.64200000
 H      42.46000000      29.05900000      26.91900000
 H      43.74600000      29.78800000      27.26400000
 O      44.76600000      30.83500000      19.26600000
 H      45.24800000      30.71700000      18.45200000
 H      45.42400000      31.34900000      19.78700000
 O      44.79200000      39.25700000      34.25100000
 H      45.50700000      38.59400000      34.20200000
 H      44.05400000      38.76100000      34.08200000
 O      47.15700000      27.36400000      25.63800000
 H      46.39900000      27.24500000      26.22100000
 H      46.85700000      28.00800000      25.06100000
 O      43.17000000      32.62800000       6.59800000
 H      42.60800000      32.05600000       7.11300000
 H      42.62600000      33.29900000       6.23400000
 O      47.83700000      39.89400000      18.08500000
 H      47.28800000      40.66200000      17.97200000
 H      48.22500000      39.73200000      17.20100000
 O      48.46400000      28.14700000      28.26800000
 H      48.05900000      27.48700000      28.89500000
 H      48.03200000      27.94500000      27.44000000
 O      43.17600000      34.79400000      36.58200000
 H      43.45000000      35.73900000      36.71900000
 H      42.45200000      34.97100000      35.97900000
 O      48.29700000      30.59300000      29.66000000
 H      48.39200000      29.65400000      29.26700000
 H      48.42600000      30.31500000      30.59800000
 O      47.80100000      28.32900000      36.65000000
 H      47.31300000      28.73400000      37.36100000
 H      47.43900000      27.41600000      36.65300000
 O      43.18000000      32.44500000      31.78200000
 H      43.24700000      32.90800000      30.89700000
 H      43.81600000      31.69100000      31.65800000
 O      44.56800000      34.53100000      13.63800000
 H      44.80500000      33.73000000      13.14700000
 H      45.44600000      34.97100000      13.69500000
 O      45.92600000      39.87000000      23.92600000
 H      46.43900000      40.03000000      23.13500000
 H      46.22300000      38.95900000      24.16600000
 O      47.30400000      35.33100000      36.51800000
 H      47.02100000      34.42600000      36.85800000
 H      48.19600000      35.07400000      36.13900000
 O      43.73000000      37.30600000      21.91300000
 H      43.08000000      37.79900000      21.30700000
 H      44.55600000      37.46400000      21.37100000
 O      46.01000000      32.63600000      34.01000000
 H      46.50500000      32.73600000      33.17900000
 H      45.43400000      33.42800000      33.97800000
 O      47.42700000      31.99500000      24.55600000
 H      48.14000000      32.64300000      24.37800000
 H      47.92300000      31.35400000      25.16400000
 O      49.04300000      36.44200000      34.10900000
 H      49.59200000      37.03700000      34.63500000
 H      48.16100000      36.86100000      34.13300000
 O      47.28700000      33.12200000      31.73300000
 H      47.44500000      34.09000000      31.56500000
 H      48.23800000      32.89700000      31.98200000
 O      47.31500000      37.60100000      38.04800000
 H      46.98400000      36.77700000      37.66700000
 H      48.26600000      37.34300000      38.03900000
 O      48.19900000      29.67200000      19.95600000
 H      48.65900000      30.09000000      19.19700000
 H      47.68700000      30.46300000      20.28700000
 O      46.14500000      34.74100000      10.01700000
 H      47.02100000      35.07200000       9.64400000
 H      46.32100000      34.74100000      10.98600000
 O      43.76300000      30.21100000      33.79700000
 H      43.47400000      30.03100000      34.71300000
 H      44.75300000      30.22200000      33.91800000
 O      46.83700000      29.65500000      34.35700000
 H      47.23000000      29.06800000      34.96200000
 H      47.21000000      30.51700000      34.66400000
 O      46.61800000      31.90000000      20.86000000
 H      47.53400000      31.87700000      21.22100000
 H      46.25600000      32.65700000      21.41100000
 O      44.01600000      29.95700000       8.04800000
 H      44.53600000      29.19400000       8.33000000
 H      43.10300000      29.61600000       8.23500000
 O      44.49100000      37.01000000      26.78300000
 H      43.85600000      37.41500000      26.22000000
 H      44.94600000      37.80900000      27.17100000
 O      42.68200000      40.34400000      28.60200000
 H      42.28400000      40.59200000      27.71000000
 H      43.57200000      40.08200000      28.32000000
 O      48.02000000      38.90700000      29.45800000
 H      48.04900000      38.28400000      28.71100000
 H      48.57100000      39.62400000      29.20000000
 O      46.72400000      35.31800000      20.54200000
 H      46.79200000      34.74000000      19.81100000
 H      47.58600000      35.76000000      20.55900000
 O      43.57100000      28.61900000      20.18500000
 H      43.69100000      29.44800000      19.67500000
 H      44.35100000      28.14700000      19.90600000
 O      43.97500000      29.74600000      11.55400000
 H      44.55700000      29.09400000      11.04600000
 H      43.30400000      29.17500000      11.93100000
 O      45.44300000      33.66800000      22.32100000
 H      44.51900000      33.85100000      22.17100000
 H      45.88400000      34.49100000      21.92700000
 O      46.24000000      38.70100000      14.70500000
 H      46.78100000      38.50200000      13.93400000
 H      46.41500000      37.81100000      15.13300000
 O      44.42500000      37.96100000      30.97200000
 H      44.67900000      38.92500000      31.06100000
 H      44.09100000      37.79100000      31.89100000
 O      45.76700000      33.78100000       7.25600000
 H      45.84200000      33.90700000       8.21400000
 H      44.83700000      33.57400000       7.20100000
 O      43.15000000      29.40400000      36.57200000
 H      43.64300000      30.28800000      36.68400000
 H      43.32100000      28.97900000      37.42200000
 O      47.72000000      32.28700000      10.05400000
 H      48.56700000      32.40800000       9.56700000
 H      47.30600000      31.57700000       9.56200000
 O      43.34200000      33.61800000      15.87200000
 H      42.34500000      33.48100000      15.59200000
 H      43.62700000      33.95100000      15.02400000
 O      47.82200000      35.12000000      18.08500000
 H      48.75300000      35.34900000      18.32200000
 H      47.92600000      34.67600000      17.23100000
 O      45.41900000      39.36100000      27.84800000
 H      45.84700000      40.13900000      27.42500000
 H      45.40600000      39.65400000      28.76700000
 O      48.52100000      28.90400000       9.61700000
 H      47.57300000      28.85300000       9.86600000
 H      48.47000000      29.21900000       8.71500000
 O      45.29000000      40.13200000      19.75000000
 H      46.05300000      40.16900000      19.11100000
 H      45.17200000      39.17000000      19.83000000
 O      47.10600000      27.54800000      14.63700000
 H      47.38600000      26.57000000      14.46500000
 H      47.84500000      27.93400000      14.09600000
 O      43.10800000      28.63900000      16.08000000
 H      42.87500000      28.03500000      16.74300000
 H      44.00700000      28.37200000      15.85200000
 O      48.41900000      29.31800000      31.94500000
 H      48.12200000      29.33000000      32.89200000
 H      49.17900000      28.69400000      31.99400000
 O      45.15200000      30.56800000      40.62300000
 H      44.89500000      30.25600000      41.50700000
 H      44.95700000      31.51800000      40.70500000
 O      47.33200000      35.12700000      13.04700000
 H      47.82500000      35.97300000      12.91100000
 H      47.20900000      35.12300000      14.00200000
 O      46.22600000      34.99300000      26.88500000
 H      46.59700000      35.00700000      25.98900000
 H      45.33300000      35.45300000      26.75200000
 O      47.27600000      34.82400000      24.31200000
 H      48.17600000      34.57700000      24.06900000
 H      46.77700000      33.95600000      24.03900000
 O      42.55700000      31.50600000      39.17400000
 H      42.17400000      31.71200000      40.08200000
 H      43.39100000      31.03900000      39.42200000
 O      46.75400000      36.40400000      16.03100000
 H      45.82200000      36.23700000      16.43300000
 H      47.15300000      36.52300000      16.87000000
 O      48.31900000      34.91600000      29.13200000
 H      48.85100000      35.13300000      29.95600000
 H      48.09200000      35.79900000      28.86600000
 O      46.37200000      29.42900000      23.74900000
 H      46.45500000      30.37800000      23.48300000
 H      45.46500000      29.26500000      23.61100000
 O      43.08500000      34.63000000      21.30600000
 H      42.88300000      34.46800000      20.34700000
 H      42.78200000      35.56300000      21.44100000
 O      42.77200000      31.86200000      10.46600000
 H      41.91000000      31.42200000      10.43800000
 H      43.33700000      31.12600000      10.85400000
 O      46.50200000      27.44300000      19.69200000
 H      47.22000000      28.11500000      20.00900000
 H      45.98000000      28.00100000      19.07100000
 O      48.92800000      27.62100000      39.90400000
 H      49.52300000      28.34000000      40.17800000
 H      48.17500000      28.10300000      39.57400000
 O      46.82200000      32.95500000      37.41600000
 H      45.96300000      32.56000000      37.18400000
 H      47.40900000      32.36100000      36.94000000
 O      49.36600000      28.55300000      22.43400000
 H      49.62900000      27.67700000      22.12500000
 H      48.44400000      28.56900000      22.07400000
 O      43.42100000      33.32500000      29.34800000
 H      44.30200000      32.88700000      29.25400000
 H      43.68900000      34.22000000      29.17300000
 O      45.52600000      27.98500000      10.45300000
 H      46.00700000      27.29600000      10.92400000
 H      45.55000000      27.58700000       9.54000000
 O      42.44600000      36.30100000      13.29900000
 H      42.20400000      36.48000000      14.24100000
 H      43.22400000      35.75900000      13.41800000
 O      46.64600000      30.61400000      17.42600000
 H      47.55000000      30.91900000      17.44000000
 H      46.36800000      30.88200000      16.51400000
 O      47.88600000      37.15000000      27.62000000
 H      47.99900000      37.34300000      26.65700000
 H      47.16300000      36.48600000      27.50100000
 O      43.69900000      39.40900000      14.93400000
 H      44.60000000      38.99600000      15.06400000
 H      43.63500000      39.29800000      13.95700000
 O      45.43400000      39.91300000      38.38000000
 H      45.01900000      39.31200000      39.01900000
 H      46.04200000      39.26200000      37.97900000
 O      42.79300000      38.09400000      24.53700000
 H      42.00400000      37.92100000      24.03600000
 H      43.38400000      38.29700000      23.79600000
 O      47.18500000      29.59400000      38.88300000
 H      46.36800000      29.82600000      39.33400000
 H      47.52800000      30.47600000      38.69000000
 O      43.37100000      29.73900000      22.73500000
 H      43.65400000      29.55500000      21.78300000
 H      43.12500000      30.69400000      22.60200000
 O      48.12100000      38.60400000      32.08700000
 H      48.12600000      38.66100000      31.09000000
 H      47.35100000      37.96500000      32.20700000
 O      45.51300000      32.45900000      11.72500000
 H      46.35200000      32.56200000      11.26300000
 H      44.98400000      31.91900000      11.10100000
 O      43.77400000      27.77600000      38.92700000
 H      44.17600000      27.63200000      39.82000000
 H      42.91900000      27.27300000      39.00100000
 O      43.03700000      37.77300000      37.20300000
 H      42.06300000      37.54800000      36.99800000
 H      43.00200000      38.72200000      37.00500000
 O      42.72000000      36.48600000       7.24300000
 H      42.84700000      35.73100000       7.90200000
 H      41.83400000      36.72600000       7.58400000
 O      45.20100000      37.34000000      19.39500000
 H      44.72600000      36.83900000      18.71900000
 H      45.79500000      36.61400000      19.78200000
 O      43.75700000      36.09400000      29.17700000
 H      44.14700000      36.82100000      29.81000000
 H      44.15300000      36.48100000      28.35600000
 O      43.14300000      33.59200000      18.67300000
 H      43.53100000      32.76000000      18.98900000
 H      43.16500000      33.42200000      17.72900000
 O      43.13200000      40.66600000       7.22100000
 H      43.49700000      40.66100000       6.30600000
 H      43.39200000      41.52800000       7.57100000
 O      46.19000000      38.16800000      10.44100000
 H      46.75400000      37.52100000      10.74800000
 H      45.49200000      37.85200000       9.95800000
 O      46.04500000      30.63700000      14.63100000
 H      46.19700000      29.74200000      14.33000000
 H      45.74000000      31.04500000      13.77700000
 O      45.60800000      31.03900000      26.84900000
 H      45.90400000      31.75100000      27.40000000
 H      45.77200000      31.48100000      25.97000000
