591
XYZ file of cluster: frame_9000_9cba9.73dcb.75562 - created by MolEdiTo
 O      31.30300000      33.96700000      23.50200000
 H      30.67000000      34.61200000      23.16300000
 H      32.03400000      34.54200000      23.82400000
 O      28.39800000      20.29600000      31.36900000
 H      29.33700000      20.47300000      31.51200000
 H      28.02000000      21.17100000      31.57400000
 O      39.46600000      20.75000000      22.43500000
 H      39.70200000      21.63600000      22.11000000
 H      38.75100000      20.99700000      23.07900000
 O      29.24000000      22.97800000      39.57200000
 H      28.83500000      23.87300000      39.64100000
 H      30.14000000      23.17500000      39.31500000
 O      27.81100000      33.30700000      33.89900000
 H      27.90100000      33.02400000      34.83700000
 H      27.06100000      33.90200000      33.90000000
 O      28.93600000      20.37400000      34.74000000
 H      28.56300000      20.80300000      33.99600000
 H      28.54300000      20.88800000      35.48500000
 O      36.69400000      34.06300000      38.70800000
 H      36.40700000      34.91800000      38.34400000
 H      35.91800000      33.58700000      38.69600000
 O      38.74600000      37.07300000      37.24200000
 H      38.35500000      37.37700000      36.36300000
 H      37.85900000      36.88800000      37.72000000
 O      29.58400000      29.30000000      28.87500000
 H      30.51700000      29.04100000      28.96900000
 H      29.38600000      28.97600000      28.00900000
 O      34.76500000      30.75800000      33.67800000
 H      34.23200000      30.08200000      34.21300000
 H      35.48900000      30.90600000      34.29100000
 O      35.01300000      28.99200000      20.58800000
 H      35.12500000      29.58300000      21.34000000
 H      34.31700000      29.42100000      20.14200000
 O      35.00800000      22.23700000      29.61400000
 H      35.92800000      22.49800000      29.47400000
 H      35.09800000      21.23700000      29.58300000
 O      36.10100000      36.69100000      38.21000000
 H      35.74000000      37.19200000      38.93100000
 H      35.39100000      36.63400000      37.55500000
 O      38.85000000      32.05600000      26.96700000
 H      39.06300000      32.18900000      26.04300000
 H      37.87700000      32.03100000      26.96500000
 O      34.08300000      31.05100000      39.97800000
 H      33.75200000      30.14800000      39.73800000
 H      33.36500000      31.50600000      40.33600000
 O      29.02700000      21.86600000      23.66300000
 H      28.73600000      22.70200000      23.18600000
 H      29.79800000      22.31200000      24.09500000
 O      28.69500000      39.99300000      23.15400000
 H      28.66500000      40.61400000      22.39800000
 H      27.81600000      39.53600000      23.07300000
 O      36.71200000      22.36600000      33.97500000
 H      36.35300000      22.94500000      33.25500000
 H      35.86000000      22.06900000      34.38400000
 O      38.87900000      27.45300000      26.77400000
 H      39.62400000      27.50500000      26.14200000
 H      38.75500000      28.38700000      26.98000000
 O      27.50100000      23.93600000      29.68900000
 H      27.15400000      23.69200000      30.55100000
 H      28.46300000      23.92400000      29.84800000
 O      39.19900000      34.04900000      28.84600000
 H      39.10600000      33.22600000      28.31900000
 H      40.10100000      33.92600000      29.24800000
 O      31.10200000      36.92600000      25.07100000
 H      31.96300000      36.55600000      24.79600000
 H      30.92500000      36.42500000      25.88300000
 O      34.36100000      20.98500000      34.29900000
 H      33.41000000      21.19400000      34.45300000
 H      34.31700000      20.96000000      33.31500000
 O      30.05400000      23.88500000      26.38700000
 H      30.42000000      24.24100000      27.21600000
 H      30.73700000      23.50100000      25.96200000
 O      37.77400000      35.04500000      20.96600000
 H      37.33200000      35.79500000      20.65400000
 H      37.49900000      34.97500000      21.88900000
 O      28.49700000      26.01800000      25.43400000
 H      28.84800000      26.59700000      26.13100000
 H      29.13600000      25.22500000      25.61100000
 O      27.05100000      27.95400000      36.97300000
 H      27.87400000      28.50100000      36.95700000
 H      26.66900000      28.38200000      36.13500000
 O      33.22700000      39.29800000      25.73700000
 H      33.59400000      39.81300000      26.51200000
 H      32.25000000      39.19500000      26.01800000
 O      30.57900000      28.55900000      23.05800000
 H      30.48100000      28.40100000      22.08000000
 H      30.23300000      29.46300000      23.14900000
 O      35.06600000      38.99300000      28.61900000
 H      34.53400000      39.78100000      28.38000000
 H      35.96300000      39.41200000      28.47600000
 O      39.19100000      31.80000000      32.89100000
 H      40.18000000      31.98100000      32.78100000
 H      39.02100000      32.41800000      33.65100000
 O      31.01900000      39.19800000      27.76800000
 H      31.19600000      39.62900000      28.60700000
 H      30.52200000      38.38300000      27.98300000
 O      40.57500000      40.40500000      31.21100000
 H      40.58600000      41.41000000      31.19700000
 H      41.12600000      40.27500000      30.42700000
 O      31.90900000      39.31700000      37.36700000
 H      31.56800000      39.76400000      38.13300000
 H      31.85400000      40.07000000      36.73300000
 O      27.32200000      37.06700000      26.39800000
 H      27.95000000      37.04500000      27.21500000
 H      27.45200000      36.19100000      26.09400000
 O      32.70400000      35.37200000      31.52000000
 H      32.01500000      34.95300000      32.06800000
 H      33.47400000      34.84400000      31.85100000
 O      32.86600000      31.80600000      28.69700000
 H      33.68300000      32.31600000      28.78900000
 H      32.88600000      31.25200000      29.45700000
 O      37.93600000      21.31500000      29.82500000
 H      38.29500000      20.53300000      29.33200000
 H      37.96500000      20.97800000      30.74400000
 O      34.88900000      30.24800000      23.00700000
 H      34.65400000      30.76700000      23.88600000
 H      35.73900000      29.79200000      23.37800000
 O      27.72100000      26.31100000      28.43100000
 H      26.72100000      26.28100000      28.16100000
 H      27.82600000      25.32100000      28.63500000
 O      32.21600000      21.53900000      36.45100000
 H      32.88600000      21.30400000      37.13100000
 H      31.65700000      20.79300000      36.45100000
 O      39.12300000      38.89700000      39.35800000
 H      38.52600000      38.31200000      39.91900000
 H      39.17800000      38.44200000      38.53300000
 O      31.34500000      37.76400000      33.68700000
 H      31.14700000      37.99600000      32.76900000
 H      32.11500000      37.17600000      33.56200000
 O      40.68100000      32.08800000      22.01800000
 H      40.90900000      33.05200000      22.01300000
 H      40.27200000      32.03000000      21.11000000
 O      27.46200000      20.34500000      25.22200000
 H      27.31400000      19.75900000      24.44400000
 H      28.10400000      20.99200000      24.76700000
 O      36.66500000      31.18500000      40.50800000
 H      37.19700000      30.95600000      39.75800000
 H      35.77400000      30.97900000      40.21600000
 O      40.61500000      29.60400000      25.35800000
 H      41.11500000      29.51900000      24.51300000
 H      39.84100000      30.17900000      24.99200000
 O      39.24400000      30.06100000      29.02400000
 H      40.04000000      29.59500000      28.90400000
 H      39.30100000      30.81400000      28.43800000
 O      32.57300000      24.30900000      22.36000000
 H      32.81700000      24.32300000      21.44800000
 H      32.53100000      25.24400000      22.60200000
 O      31.16800000      21.71000000      21.11700000
 H      31.33400000      21.84900000      22.06100000
 H      30.80100000      22.60400000      20.84400000
 O      30.13700000      34.11300000      32.73400000
 H      29.26200000      33.89100000      33.16700000
 H      30.69500000      33.49900000      33.16700000
 O      29.14200000      29.68300000      36.33400000
 H      29.60900000      30.00600000      37.12300000
 H      29.19300000      30.47800000      35.71700000
 O      28.23700000      25.53500000      36.08700000
 H      27.45900000      25.52700000      35.51100000
 H      28.02200000      26.35900000      36.57400000
 O      37.40700000      39.29800000      25.67400000
 H      37.95400000      39.77200000      25.05700000
 H      37.69700000      39.61600000      26.50900000
 O      39.67900000      35.51400000      34.62700000
 H      38.99300000      36.21200000      34.75900000
 H      39.13900000      34.75700000      35.01300000
 O      35.05200000      23.65000000      32.08800000
 H      35.09500000      24.30800000      31.40200000
 H      34.77400000      22.85500000      31.57000000
 O      40.10800000      21.98000000      36.29900000
 H      40.89800000      22.52500000      36.43200000
 H      40.27900000      21.58000000      35.42000000
 O      30.99700000      31.47200000      23.32100000
 H      30.47600000      31.51500000      24.16900000
 H      31.19200000      32.51400000      23.32400000
 O      36.01500000      28.83000000      37.40900000
 H      36.67900000      29.31400000      37.89500000
 H      35.80900000      28.11800000      38.05100000
 O      31.38200000      25.70200000      33.99900000
 H      31.59100000      25.66700000      33.04000000
 H      30.67100000      26.40100000      34.05300000
 O      33.19200000      26.93700000      37.24400000
 H      32.70500000      26.12200000      37.29000000
 H      33.74400000      26.85700000      38.06700000
 O      34.57100000      33.49200000      32.18600000
 H      34.93400000      32.67300000      32.59500000
 H      34.40800000      33.25200000      31.30700000
 O      31.99000000      33.48500000      39.50400000
 H      32.04100000      33.00700000      40.32500000
 H      31.60800000      34.33500000      39.81900000
 O      31.80800000      35.91900000      29.14000000
 H      32.78600000      35.84600000      28.85400000
 H      31.94800000      35.74000000      30.13900000
 O      40.43000000      21.62600000      33.04600000
 H      39.59000000      21.32000000      32.67300000
 H      40.19000000      22.59500000      33.15600000
 O      27.15400000      23.28300000      26.76600000
 H      27.88000000      22.92100000      27.17500000
 H      27.46600000      24.00900000      26.25900000
 O      27.93600000      32.52600000      36.48600000
 H      28.27200000      33.34400000      36.90200000
 H      27.36000000      32.14600000      37.13300000
 O      34.79600000      27.46100000      27.70900000
 H      35.44100000      28.16400000      27.40800000
 H      34.61600000      27.08100000      26.85200000
 O      37.68100000      22.98400000      40.59100000
 H      36.85400000      22.44900000      40.74600000
 H      37.55100000      23.23200000      39.66000000
 O      37.94400000      22.04200000      24.39400000
 H      38.77000000      22.21100000      24.91600000
 H      37.42400000      22.83000000      24.60100000
 O      40.89200000      34.44700000      39.16300000
 H      41.06300000      34.68200000      38.21500000
 H      41.38000000      33.58700000      39.22000000
 O      34.03200000      30.07100000      30.43500000
 H      34.96700000      30.00900000      30.24200000
 H      34.01800000      29.96300000      31.41000000
 O      33.45700000      37.26300000      39.49000000
 H      32.77400000      37.89200000      39.90300000
 H      33.34900000      37.51900000      38.54900000
 O      40.33700000      24.92100000      32.89400000
 H      40.10300000      25.49200000      33.63500000
 H      39.89900000      25.48400000      32.17200000
 O      37.16600000      24.94400000      35.05800000
 H      36.26700000      25.11800000      34.64300000
 H      37.20800000      23.98400000      34.95500000
 O      28.81200000      35.87900000      23.05800000
 H      29.25000000      36.74200000      23.38800000
 H      28.55700000      36.21800000      22.20700000
 O      27.47100000      38.65100000      30.96400000
 H      27.72900000      39.35200000      30.29400000
 H      28.18500000      38.84000000      31.63100000
 O      34.95900000      25.38600000      29.40500000
 H      34.98200000      26.24400000      28.86800000
 H      34.93300000      24.79400000      28.66800000
 O      31.67200000      40.13900000      30.17500000
 H      32.26700000      40.92600000      30.24900000
 H      31.18300000      40.17000000      30.99000000
 O      33.14500000      26.90400000      22.95000000
 H      32.33900000      27.39700000      23.08800000
 H      33.41600000      27.44500000      22.11000000
 O      34.10000000      34.32600000      25.89200000
 H      34.01100000      35.02700000      25.27400000
 H      34.23400000      34.78800000      26.74400000
 O      31.84500000      26.50200000      31.32300000
 H      32.59000000      26.54200000      30.64200000
 H      31.95800000      27.48100000      31.58300000
 O      30.11800000      40.45600000      25.27000000
 H      29.70300000      39.87900000      25.89000000
 H      29.38600000      40.45900000      24.56800000
 O      36.27700000      31.99600000      26.51500000
 H      35.73400000      32.02100000      25.68600000
 H      35.74300000      32.49200000      27.15600000
 O      37.87600000      24.87000000      37.90300000
 H      38.11000000      25.22600000      36.97100000
 H      37.58400000      23.99300000      37.58100000
 O      38.05500000      20.62600000      32.36700000
 H      37.44500000      19.85200000      32.33300000
 H      37.57400000      21.16100000      33.08600000
 O      34.57300000      28.15700000      35.09200000
 H      35.11900000      28.21100000      35.89700000
 H      33.78700000      27.73800000      35.57100000
 O      39.49500000      25.25800000      23.35600000
 H      40.44600000      25.05900000      23.20000000
 H      39.08600000      24.63100000      22.76500000
 O      33.80200000      21.03400000      31.79000000
 H      32.84400000      20.87300000      31.81300000
 H      34.01900000      20.76700000      30.84400000
 O      31.69200000      34.14400000      35.47700000
 H      31.76200000      35.10000000      35.28500000
 H      31.30200000      34.17900000      36.34500000
 O      28.23500000      26.26000000      20.82200000
 H      27.70100000      26.01400000      20.02700000
 H      27.72100000      26.98300000      21.18900000
 O      34.45400000      40.60900000      33.02200000
 H      33.67600000      40.55500000      33.52100000
 H      34.34400000      39.91800000      32.31800000
 O      37.08000000      26.54200000      30.57100000
 H      36.94200000      26.83200000      31.46600000
 H      36.31900000      25.96400000      30.41000000
 O      34.96700000      38.14700000      24.11500000
 H      35.67900000      38.35300000      24.73700000
 H      34.24800000      38.53000000      24.72500000
 O      38.78700000      29.31900000      22.03600000
 H      39.65400000      29.57700000      21.75300000
 H      38.29300000      29.21700000      21.22700000
 O      30.52700000      24.20900000      30.55500000
 H      31.18200000      23.77300000      29.98200000
 H      30.98000000      25.04300000      30.77800000
 O      31.18100000      20.53400000      28.47500000
 H      31.84600000      20.10700000      27.88500000
 H      31.62400000      21.42000000      28.60100000
 O      33.94100000      36.72800000      33.57500000
 H      34.93100000      36.68800000      33.68600000
 H      33.96100000      36.99100000      32.63900000
 O      33.69400000      36.38400000      21.10300000
 H      33.17000000      35.64000000      20.64800000
 H      33.20200000      37.15000000      20.80700000
 O      37.18700000      26.09100000      24.30800000
 H      36.68500000      25.54600000      23.67700000
 H      38.09200000      25.78900000      24.10100000
 O      39.48600000      31.09200000      36.75100000
 H      40.14100000      30.36800000      36.75500000
 H      39.72500000      31.57100000      37.60800000
 O      40.73300000      23.12600000      21.43100000
 H      41.35300000      23.56000000      22.09400000
 H      41.30500000      22.44200000      21.12800000
 O      33.43000000      35.93900000      23.71500000
 H      33.94700000      36.82100000      23.82200000
 H      33.54800000      35.88600000      22.71900000
 O      34.05000000      37.20400000      36.44600000
 H      33.45300000      36.58900000      36.00900000
 H      34.21700000      37.88700000      35.73600000
 O      34.33700000      40.47700000      21.51600000
 H      34.57400000      39.75500000      22.20500000
 H      33.66300000      40.93000000      21.98300000
 O      35.56100000      26.64500000      38.91100000
 H      35.72900000      26.53300000      39.89100000
 H      36.00300000      25.77800000      38.63100000
 O      28.07400000      35.38600000      30.59100000
 H      28.12500000      36.01200000      31.34200000
 H      28.65300000      34.66300000      30.94000000
 O      31.86200000      22.68800000      24.48400000
 H      32.20000000      22.96600000      23.61200000
 H      32.70400000      22.43000000      24.90100000
 O      40.32300000      40.44000000      25.86300000
 H      40.73900000      39.60900000      25.46400000
 H      40.00600000      40.82500000      25.01800000
 O      38.06000000      36.57400000      26.08300000
 H      37.78900000      37.50800000      25.87800000
 H      39.00400000      36.63200000      26.23900000
 O      29.11800000      31.64700000      30.25100000
 H      29.35900000      32.31300000      29.61100000
 H      29.17700000      30.81300000      29.69400000
 O      28.83700000      37.85200000      40.67000000
 H      28.45300000      38.22500000      41.53800000
 H      27.97000000      37.74900000      40.17200000
 O      33.17100000      20.34800000      26.49300000
 H      33.00600000      19.94200000      25.61800000
 H      33.83900000      21.04800000      26.24200000
 O      32.32700000      30.10200000      26.59200000
 H      32.71400000      30.60200000      27.36300000
 H      31.59700000      30.71400000      26.38000000
 O      39.81700000      37.82300000      28.67000000
 H      40.33700000      38.67200000      28.55900000
 H      40.49900000      37.20200000      28.88600000
 O      34.36200000      22.24000000      24.73100000
 H      35.25200000      22.48800000      25.00000000
 H      34.56500000      21.72500000      23.91300000
 O      31.94100000      23.56400000      38.68100000
 H      32.73900000      23.17100000      38.35400000
 H      31.65600000      24.12200000      37.93500000
 O      38.17400000      29.62900000      38.72200000
 H      38.41300000      28.65800000      38.69800000
 H      38.75300000      30.06000000      38.09000000
 O      31.34700000      24.93600000      36.58200000
 H      31.67800000      25.28500000      35.71400000
 H      30.36900000      24.99700000      36.47000000
 O      29.79800000      39.93100000      32.33600000
 H      30.33100000      40.25600000      33.09900000
 H      28.96200000      40.43200000      32.43900000
 O      32.48900000      28.41900000      29.09700000
 H      33.09100000      27.91600000      28.55300000
 H      33.12700000      29.13000000      29.43000000
 O      36.52000000      23.69300000      26.09400000
 H      36.94600000      23.83800000      27.01500000
 H      36.57800000      24.55700000      25.68900000
 O      30.55700000      26.01700000      28.16900000
 H      29.65100000      26.14700000      28.41900000
 H      31.02300000      26.80200000      28.21600000
 O      34.28400000      32.85100000      37.87200000
 H      33.61700000      33.39700000      38.34500000
 H      34.34200000      32.11300000      38.56000000
 O      28.46000000      24.35000000      22.80800000
 H      28.38000000      25.06400000      22.11400000
 H      28.63600000      24.92300000      23.56800000
 O      39.74500000      26.41600000      30.80100000
 H      39.94400000      27.27400000      31.25100000
 H      38.78000000      26.61000000      30.66900000
 O      38.50300000      38.42500000      22.61700000
 H      38.97500000      38.20000000      21.79700000
 H      37.61700000      38.04200000      22.40100000
 O      40.66300000      20.10800000      27.84100000
 H      40.34200000      20.92200000      27.46000000
 H      39.80600000      19.70800000      28.11000000
 O      37.34200000      32.19900000      30.79000000
 H      37.95000000      32.00200000      31.52000000
 H      37.05100000      31.28000000      30.52100000
 O      30.96500000      21.67800000      31.79100000
 H      31.21700000      21.88500000      32.73300000
 H      30.79100000      22.53000000      31.40200000
 O      31.01500000      35.68300000      40.64900000
 H      30.33200000      36.39900000      40.58200000
 H      31.54200000      35.96900000      41.40900000
 O      35.77200000      24.62600000      22.60600000
 H      34.82200000      24.87300000      22.86500000
 H      35.54600000      24.00400000      21.89800000
 O      40.32900000      22.69500000      27.26300000
 H      40.03100000      23.63800000      27.41900000
 H      40.84500000      22.87000000      26.47000000
 O      29.51000000      33.86100000      28.48200000
 H      30.30300000      34.40800000      28.27100000
 H      28.92900000      34.56200000      28.87000000
 O      30.82300000      30.94900000      38.52400000
 H      31.68500000      30.86000000      38.03200000
 H      30.89600000      31.86400000      38.91500000
 O      33.09400000      29.74800000      37.39400000
 H      32.77100000      28.82300000      37.39000000
 H      33.00100000      29.95400000      36.43000000
 O      35.21000000      33.25100000      29.00500000
 H      35.92900000      32.82900000      29.51400000
 H      35.51700000      34.09900000      28.71000000
 O      31.86300000      31.11000000      35.07500000
 H      32.03800000      32.03700000      35.30300000
 H      31.56300000      31.20500000      34.13300000
 O      37.87100000      37.84600000      30.68000000
 H      37.68800000      36.92500000      30.40400000
 H      38.75300000      37.98200000      30.28800000
 O      31.76900000      22.82600000      33.97700000
 H      31.92700000      22.72600000      34.95600000
 H      31.27800000      23.70900000      33.96500000
 O      38.87100000      27.31000000      39.07200000
 H      38.26600000      26.59600000      38.78400000
 H      39.47100000      26.77900000      39.67700000
 O      37.59600000      34.66200000      23.57900000
 H      37.27200000      33.82300000      23.99300000
 H      37.55800000      35.28200000      24.26500000
 O      29.17000000      29.76300000      40.51000000
 H      29.73900000      30.16400000      39.86300000
 H      28.83200000      28.96300000      40.09600000
 O      36.18600000      35.60200000      33.18500000
 H      35.56800000      34.91000000      32.96300000
 H      36.84200000      35.48800000      32.42800000
 O      29.22800000      31.35400000      20.94600000
 H      29.60700000      31.55500000      21.84900000
 H      30.00700000      30.81400000      20.60400000
 O      27.37000000      28.21600000      30.56900000
 H      27.60900000      27.68600000      29.75400000
 H      28.23300000      28.72800000      30.61700000
 O      34.21700000      24.21500000      26.99200000
 H      34.08800000      24.95500000      26.38100000
 H      35.04800000      23.81800000      26.64400000
 O      28.96400000      36.99200000      28.60500000
 H      29.83100000      36.53800000      28.78100000
 H      28.53300000      36.84100000      29.49300000
 O      39.82900000      25.15100000      28.30400000
 H      39.47200000      25.94100000      27.85300000
 H      40.23800000      25.55300000      29.05200000
 O      37.64900000      37.16500000      34.81100000
 H      36.94900000      37.83800000      34.90600000
 H      37.15300000      36.48300000      34.28000000
 O      38.91900000      31.64500000      24.14600000
 H      38.53900000      31.08100000      23.43100000
 H      39.60900000      32.12100000      23.67400000
 O      30.53900000      38.13800000      22.46900000
 H      30.67100000      38.03500000      23.45000000
 H      29.85300000      38.89000000      22.57100000
 O      30.07300000      28.03900000      34.02800000
 H      30.02300000      28.26500000      34.94900000
 H      29.12200000      28.25800000      33.78600000
 O      39.65400000      26.77800000      20.40000000
 H      39.51200000      26.35600000      21.25500000
 H      40.38700000      27.40000000      20.59400000
 O      39.91000000      20.91900000      38.94400000
 H      39.72200000      21.31700000      38.05000000
 H      39.01700000      20.68000000      39.14600000
 O      38.29300000      39.71900000      32.31000000
 H      39.17400000      39.88400000      31.89600000
 H      37.98400000      38.96800000      31.75100000
 O      38.10600000      34.77900000      31.29600000
 H      37.57800000      33.98600000      31.01000000
 H      38.69500000      34.84900000      30.58000000
 O      35.12300000      20.46400000      21.84500000
 H      34.20200000      20.21100000      21.61200000
 H      35.20500000      21.29900000      21.34600000
 O      32.88300000      28.57400000      32.66100000
 H      32.06000000      28.48900000      33.16300000
 H      33.55500000      28.47800000      33.41200000
 O      34.40200000      26.36900000      25.25400000
 H      33.81800000      26.50100000      24.48200000
 H      35.25200000      26.64500000      24.81500000
 O      40.28600000      39.56100000      34.18500000
 H      39.42700000      39.39500000      33.70900000
 H      40.09000000      40.39000000      34.66500000
 O      37.08900000      28.87500000      24.16900000
 H      37.23800000      27.88400000      24.15100000
 H      37.76500000      29.12900000      23.46200000
 O      36.76500000      29.80400000      29.80100000
 H      37.70900000      29.80600000      29.58200000
 H      36.48700000      28.96200000      29.45700000
 O      38.61000000      33.11900000      35.47400000
 H      37.70000000      32.73900000      35.55300000
 H      39.14400000      32.44100000      35.90800000
 O      35.74100000      39.08200000      35.13600000
 H      36.22600000      39.85500000      35.56300000
 H      35.37900000      39.53900000      34.35500000
 O      27.43800000      30.89900000      32.45400000
 H      27.53900000      31.68700000      33.04300000
 H      28.05400000      31.14800000      31.72900000
 O      37.36100000      23.87800000      28.57000000
 H      37.82300000      22.98500000      28.73200000
 H      37.89600000      24.44100000      29.19900000
 O      31.27200000      30.93500000      32.42200000
 H      30.62100000      31.14300000      31.72900000
 H      31.72600000      30.20100000      31.98000000
 O      34.35400000      25.16900000      34.39100000
 H      33.65200000      25.79800000      34.40300000
 H      34.18800000      24.54700000      33.63900000
 O      34.98500000      40.70600000      38.13000000
 H      34.16500000      40.20000000      38.04900000
 H      34.91400000      41.26900000      37.31000000
 O      36.30300000      37.52600000      21.37400000
 H      35.34800000      37.21500000      21.48200000
 H      36.19600000      38.08300000      20.50100000
 O      36.88500000      37.95000000      40.75100000
 H      36.29800000      38.73200000      40.65500000
 H      36.72400000      37.71600000      41.67000000
 O      36.10700000      31.12200000      36.05000000
 H      35.31700000      31.52000000      36.47100000
 H      36.07800000      30.23700000      36.40800000
 O      38.66000000      33.72500000      40.30200000
 H      37.82500000      33.90600000      39.82900000
 H      39.30100000      34.09100000      39.68400000
 O      36.76200000      27.72800000      33.10100000
 H      36.05800000      27.56000000      33.77200000
 H      37.14500000      28.54000000      33.45900000
 O      38.26800000      29.52100000      34.44200000
 H      38.89100000      30.18200000      34.07200000
 H      37.84100000      30.13700000      35.06100000
 O      28.61500000      22.37200000      36.41900000
 H      29.33000000      22.71400000      36.89800000
 H      28.27300000      23.11200000      35.88500000
 O      37.36900000      39.85400000      28.55300000
 H      37.67900000      39.59000000      29.43400000
 H      37.74200000      40.74400000      28.40600000
 O      27.82500000      25.18400000      40.15900000
 H      26.97200000      25.11000000      39.62400000
 H      28.00100000      26.14800000      40.02400000
 O      36.85500000      35.13000000      27.99000000
 H      37.70400000      34.66900000      28.29300000
 H      37.21900000      35.74200000      27.37200000
 O      30.37000000      36.95500000      36.15300000
 H      30.54100000      37.66200000      36.80700000
 H      30.36100000      37.54200000      35.37400000
 O      28.35100000      36.75400000      33.36100000
 H      29.31500000      36.93600000      33.32600000
 H      28.11000000      37.46000000      33.98000000
 O      37.20200000      22.29000000      36.91700000
 H      38.06700000      22.11300000      36.55200000
 H      36.68700000      21.44400000      36.88800000
 O      29.06000000      34.96600000      37.62400000
 H      29.27800000      35.62700000      36.92900000
 H      29.72100000      35.18900000      38.29800000
 O      35.17600000      23.83000000      37.82000000
 H      35.83100000      23.10600000      37.52500000
 H      35.02500000      24.31000000      37.01900000
 O      34.94200000      22.01700000      40.38000000
 H      34.17600000      21.94700000      40.92500000
 H      34.64700000      21.74500000      39.48700000
 O      39.47900000      26.97300000      34.86700000
 H      38.70100000      26.40200000      35.01700000
 H      39.02100000      27.79200000      34.66500000
 O      40.31400000      28.81400000      32.13500000
 H      40.77200000      29.37400000      32.78900000
 H      39.44100000      29.28800000      32.12000000
 O      34.30500000      36.30100000      28.16600000
 H      35.26000000      35.97500000      28.15100000
 H      34.53900000      37.21700000      28.32500000
 O      29.61600000      31.79700000      25.88100000
 H      29.60300000      32.66200000      26.42000000
 H      28.69500000      31.49700000      26.12500000
 O      32.53200000      22.85400000      28.91100000
 H      33.36500000      22.71400000      29.40600000
 H      32.92200000      23.39500000      28.17600000
 O      36.46800000      29.25100000      26.91700000
 H      36.71900000      29.23600000      26.00400000
 H      36.27700000      30.22800000      27.06500000
 O      30.62600000      28.12100000      26.37400000
 H      31.30800000      28.77200000      26.46500000
 H      30.55700000      27.94400000      25.44300000
 O      32.85900000      30.66900000      21.32900000
 H      32.27500000      31.10000000      21.95800000
 H      33.60500000      30.42500000      21.97800000
 O      27.85300000      34.47400000      25.72000000
 H      27.20400000      33.76200000      25.45500000
 H      28.31700000      34.51800000      24.87000000
 O      33.85500000      31.68000000      24.95300000
 H      33.43500000      32.50100000      25.28500000
 H      33.21400000      31.06600000      25.29700000
 O      34.10800000      38.90800000      31.10900000
 H      34.71100000      38.94700000      30.36800000
 H      33.24700000      38.96200000      30.64500000
