355
XYZ file of cluster: frame_9000_23d1b.4a4ad.702cb - created by MolEdiTo
 O      19.19300000      18.06200000      26.41600000
 H      19.07400000      18.29300000      27.39000000
 H      19.98600000      18.56200000      26.21500000
 O      18.96300000      14.90000000      29.89400000
 H      19.78500000      15.21800000      30.40900000
 H      19.16900000      15.36600000      29.07300000
 O      13.68500000      14.45700000      25.28900000
 H      13.04900000      13.72300000      25.12700000
 H      13.06900000      15.18300000      25.14200000
 O      14.46000000      21.11200000      21.25100000
 H      15.30500000      21.57900000      21.13000000
 H      13.80800000      21.67200000      20.77300000
 O      16.75300000      18.71200000      25.60400000
 H      17.55500000      18.23300000      25.97800000
 H      16.94700000      19.61000000      25.93500000
 O       9.38700000      27.63700000      29.52500000
 H       9.14700000      27.53100000      30.46200000
 H       8.49700000      27.97200000      29.17900000
 O      20.47700000      22.46800000      26.70400000
 H      20.22100000      23.37100000      26.41500000
 H      21.36500000      22.40600000      26.21400000
 O      19.38800000      20.98900000      30.52900000
 H      20.23400000      21.38800000      30.12000000
 H      18.76400000      21.68100000      30.14500000
 O      12.32800000      25.30700000      20.21400000
 H      11.71100000      26.04200000      20.08600000
 H      12.62300000      25.48200000      21.12400000
 O      15.97700000      23.99400000      34.11900000
 H      15.73500000      24.37900000      34.96000000
 H      16.39800000      24.69500000      33.60500000
 O       7.20300000      25.29400000      26.11300000
 H       6.50100000      25.98500000      25.96200000
 H       6.73500000      24.47500000      25.93500000
 O      15.81800000      25.39900000      29.17000000
 H      15.33400000      25.95600000      28.60900000
 H      15.41700000      25.56100000      30.02200000
 O      13.28100000      25.71800000      22.74100000
 H      13.64500000      26.27200000      23.48900000
 H      12.68300000      25.10700000      23.24000000
 O      16.37200000      14.05400000      26.53900000
 H      15.43000000      14.22300000      26.26500000
 H      16.26200000      13.20700000      27.00300000
 O      14.09100000      19.45700000      31.39400000
 H      14.46100000      20.35500000      31.40800000
 H      13.13000000      19.58900000      31.30300000
 O      10.09800000      18.45200000      21.16400000
 H      11.00200000      18.76700000      20.90500000
 H      10.37300000      17.54300000      21.40100000
 O      17.62300000      17.42500000      22.86900000
 H      16.92000000      17.65200000      22.12400000
 H      17.40500000      18.16800000      23.49800000
 O       7.78400000      19.44600000      21.56300000
 H       8.65500000      19.01300000      21.29100000
 H       7.63900000      18.85200000      22.38800000
 O      20.24600000      25.69200000      20.97300000
 H      20.73300000      26.46700000      20.71400000
 H      19.36700000      25.83300000      20.63500000
 O       9.42800000      14.35700000      31.84100000
 H       9.99300000      15.06200000      31.47800000
 H       9.63600000      13.61700000      31.21900000
 O      20.18000000      15.73200000      27.76600000
 H      21.02700000      15.57900000      27.19300000
 H      19.78100000      16.43500000      27.26700000
 O       9.74000000      24.41700000      26.14500000
 H       9.97300000      24.56600000      27.08200000
 H       8.80100000      24.81800000      26.15600000
 O      12.58900000      13.85900000      22.37400000
 H      12.35900000      13.33600000      23.21300000
 H      13.09000000      13.19300000      21.91700000
 O      13.07400000      27.12800000      28.55700000
 H      13.20500000      26.44600000      27.90600000
 H      13.82700000      27.72000000      28.39500000
 O      12.63600000      21.30300000      28.48000000
 H      13.25800000      22.08500000      28.55800000
 H      12.99100000      20.81000000      27.75500000
 O      15.73200000      18.81600000      35.44600000
 H      15.84500000      19.77900000      35.19700000
 H      15.96000000      18.44900000      34.56900000
 O      14.71000000      16.19500000      21.81900000
 H      13.85400000      15.64700000      21.86400000
 H      14.72100000      16.55000000      22.72500000
 O      14.72400000      18.13000000      23.93500000
 H      14.21300000      18.63200000      24.61600000
 H      15.61000000      18.16600000      24.38000000
 O      16.05700000      26.87100000      23.75000000
 H      17.06900000      26.71400000      23.82100000
 H      15.87900000      26.47500000      24.68700000
 O      19.39500000      13.08000000      27.87200000
 H      19.61100000      13.90700000      27.38300000
 H      19.28700000      13.38400000      28.73200000
 O      15.91500000      18.15600000      32.84800000
 H      16.51800000      17.79600000      32.12400000
 H      15.35800000      18.71900000      32.25600000
 O      11.36900000      19.81700000      31.38800000
 H      10.71600000      20.28900000      31.90200000
 H      10.91400000      19.95500000      30.49100000
 O      17.61600000      26.89100000      20.55200000
 H      16.98500000      27.65400000      20.88100000
 H      17.02800000      26.13200000      20.83500000
 O      13.84300000      19.37900000      26.67300000
 H      14.79900000      19.11000000      26.37700000
 H      13.69600000      18.66800000      27.31500000
 O      12.89800000      25.03400000      26.79900000
 H      12.39400000      24.76300000      25.99600000
 H      12.15300000      25.04600000      27.43400000
 O      16.73200000      14.46000000      23.13800000
 H      16.90600000      15.34000000      22.74600000
 H      17.32600000      14.54600000      23.90900000
 O      20.18800000      24.78500000      30.68300000
 H      21.03600000      24.41300000      30.93300000
 H      20.41300000      25.16400000      29.77200000
 O       9.16100000      27.07500000      32.08300000
 H       9.45200000      27.13900000      33.03500000
 H       8.57800000      26.33300000      32.10700000
 O       7.67800000      16.59100000      26.15800000
 H       8.41300000      15.95700000      26.30900000
 H       7.58700000      16.96000000      27.05600000
 O      17.28000000      27.83800000      30.97700000
 H      17.06900000      28.61300000      31.51600000
 H      16.39400000      27.40300000      30.99700000
 O      14.96500000      15.48000000      33.58000000
 H      15.22800000      16.45300000      33.34000000
 H      15.05500000      15.58200000      34.53700000
 O      20.74800000      14.33400000      24.80400000
 H      20.93100000      14.42900000      23.83700000
 H      19.90000000      14.83200000      24.92100000
 O       9.88800000      27.48700000      34.67500000
 H      10.52800000      26.92000000      35.09900000
 H       9.39200000      27.72200000      35.50700000
 C      20.74400000      22.14700000      21.28000000
 C      21.75100000      20.98600000      21.17200000
 C      19.60300000      19.73800000      20.35900000
 H      21.38800000      20.22000000      19.14600000
 H      20.61900000      23.94200000      21.73000000
 O      21.89100000      18.62200000      20.43300000
 O      20.72800000      22.75500000      20.00600000
 O      21.23700000      23.21400000      21.96900000
 C      21.21600000      19.88200000      20.20600000
 O      23.08700000      21.51300000      20.80600000
 H      21.88500000      20.45800000      22.11500000
 O      19.18500000      18.57900000      19.59600000
 O      19.28500000      19.62800000      21.75600000
 H      18.31900000      19.33200000      21.68600000
 H      23.10300000      22.33400000      20.19500000
 H      22.67600000      18.58300000      19.84400000
 O      21.10400000      27.58200000      26.27600000
 H      21.59300000      28.38100000      26.47400000
 H      20.22400000      27.81600000      26.56400000
 O      15.45000000      25.39300000      26.01300000
 H      15.70200000      24.49600000      25.65700000
 H      14.52900000      25.20300000      26.34600000
 O      19.86000000      18.60800000      29.12300000
 H      20.81300000      18.54100000      29.03700000
 H      19.73300000      19.50900000      29.39900000
 O      12.25000000      25.49400000      32.01400000
 H      11.34200000      25.30700000      31.68800000
 H      12.10800000      25.08000000      32.91600000
 O       9.95200000      14.68400000      34.31600000
 H       9.74900000      14.51300000      33.34500000
 H       9.95200000      15.61000000      34.32000000
 O      10.87600000      25.20600000      28.66300000
 H      10.82600000      26.17100000      28.83700000
 H      10.61400000      24.83000000      29.56500000
 O      11.77700000      24.41300000      34.49500000
 H      12.35100000      25.18700000      34.76600000
 H      11.02200000      24.50900000      35.03000000
 O       7.49200000      21.11900000      34.23500000
 H       7.41200000      22.06600000      34.44600000
 H       6.56400000      20.89700000      34.07800000
 O      14.66000000      21.44000000      24.05300000
 H      13.83900000      21.37300000      24.61000000
 H      14.30600000      21.18500000      23.22100000
 O      18.22000000      15.43300000      25.07300000
 H      17.43000000      15.29900000      25.65900000
 H      18.38400000      16.36500000      25.16400000
 O       6.51000000      15.12400000      32.75800000
 H       6.17600000      14.80000000      33.58500000
 H       7.46600000      14.86200000      32.81400000
 O      16.29400000      18.88700000      21.09200000
 H      16.37000000      18.93400000      20.14500000
 H      15.60400000      19.53600000      21.26500000
 O      14.93300000      22.86100000      28.29200000
 H      15.21600000      22.98900000      27.35400000
 H      14.95700000      23.80800000      28.59000000
 O      17.94900000      23.74700000      22.60500000
 H      17.31500000      23.35700000      21.97000000
 H      18.18000000      22.95000000      23.16500000
 O      16.14600000      22.69600000      25.86900000
 H      15.76800000      22.20500000      25.10900000
 H      17.09700000      22.46600000      25.77200000
 O      19.49200000      22.55500000      35.01900000
 H      19.38500000      21.60500000      34.65600000
 H      19.10000000      23.02100000      34.22600000
 O      11.72400000      13.28700000      29.95300000
 H      12.46700000      13.88800000      30.18500000
 H      11.91000000      12.63700000      30.63000000
 O       8.25200000      17.40800000      32.35500000
 H       7.69900000      18.18600000      32.08900000
 H       7.74800000      16.63400000      32.10900000
 O      18.07500000      20.74200000      27.51300000
 H      17.37800000      20.67000000      28.16100000
 H      18.57000000      21.51600000      27.68500000
 O      14.10000000      12.92600000      33.49900000
 H      14.01100000      12.77900000      34.43500000
 H      14.35700000      13.88900000      33.49100000
 O      14.64400000      21.98200000      31.98400000
 H      14.01100000      21.84900000      32.73100000
 H      14.36700000      22.84300000      31.62000000
 O       8.87500000      22.96500000      28.87100000
 H       9.02200000      23.58100000      29.61800000
 H       7.90800000      22.70900000      29.02000000
 O      15.74300000      24.97000000      20.77100000
 H      15.14500000      25.44700000      20.19200000
 H      15.22500000      24.98700000      21.58200000
 O      16.36900000      21.22000000      34.38800000
 H      16.12400000      22.15000000      34.18600000
 H      16.79600000      20.94000000      33.61000000
 O      10.00700000      19.24900000      25.18700000
 H       9.41200000      19.69500000      25.84400000
 H       9.26400000      18.81600000      24.68800000
 O      18.81300000      27.98000000      27.63500000
 H      18.35400000      27.36300000      28.21300000
 H      18.28500000      28.76400000      27.74100000
 O      16.55500000      16.16200000      28.61300000
 H      15.87100000      16.84300000      28.52500000
 H      16.17900000      15.37200000      28.24700000
 O      19.85900000      17.39600000      33.45100000
 H      19.05100000      16.83900000      33.30500000
 H      20.17800000      17.02900000      34.27900000
 O      15.03200000      26.46600000      31.68300000
 H      14.93400000      27.16500000      32.40100000
 H      14.10500000      26.05800000      31.84200000
 O      18.17800000      23.21700000      29.75900000
 H      17.30300000      23.62200000      29.58700000
 H      18.78900000      23.93900000      29.61700000
 O      11.30400000      16.67700000      24.77200000
 H      11.26000000      17.56200000      25.16700000
 H      10.90400000      16.15300000      25.46700000
 O      12.70100000      16.53800000      28.02900000
 H      13.47800000      16.90400000      28.54900000
 H      11.94500000      16.88800000      28.57200000
 O      19.03100000      26.53900000      32.44800000
 H      18.32400000      27.09300000      32.03700000
 H      19.37800000      26.12100000      31.63200000
 O      12.67900000      21.89500000      34.19300000
 H      12.20100000      22.71300000      34.45400000
 H      12.36700000      21.24200000      34.84000000
 O       9.86700000      21.92700000      33.18700000
 H      10.61800000      21.55600000      33.64600000
 H       9.10700000      21.41400000      33.53700000
 O       7.82300000      28.55300000      22.43400000
 H       8.08600000      27.67700000      22.12500000
 H       6.90100000      28.56900000      22.07400000
 O      14.83300000      18.20000000      29.04200000
 H      15.34300000      18.94000000      28.72600000
 H      14.43300000      18.47800000      29.85500000
 O      13.17100000      15.40600000      31.24600000
 H      12.40400000      16.06500000      31.39900000
 H      13.35200000      15.27700000      32.20800000
 O       8.22600000      22.95600000      23.40700000
 H       8.30500000      22.23100000      22.68400000
 H       8.81700000      23.60000000      22.94300000
 O      12.08100000      20.83000000      25.27700000
 H      12.62200000      20.20000000      25.75800000
 H      11.20600000      20.39200000      25.15500000
 O      18.59700000      26.11200000      23.78900000
 H      19.41000000      26.20400000      23.26500000
 H      18.18700000      25.33500000      23.36600000
 O      12.97600000      18.75400000      21.26400000
 H      13.45800000      19.62600000      21.06100000
 H      13.73400000      18.34300000      21.82900000
 O      10.11500000      20.50200000      28.82800000
 H      11.02500000      20.86000000      28.80300000
 H       9.58800000      21.35700000      28.77700000
 O      17.36000000      17.27200000      30.93900000
 H      18.26700000      17.59500000      30.64900000
 H      17.22300000      16.67800000      30.14400000
 O       9.87900000      24.08500000      31.24900000
 H      10.05000000      23.33900000      31.88300000
 H       9.08300000      24.47300000      31.59300000
 O      18.02100000      15.57300000      33.09900000
 H      17.61900000      14.67400000      33.00100000
 H      17.83700000      15.88100000      32.16800000
 O       7.45000000      19.65800000      30.95300000
 H       7.06900000      20.54900000      30.98100000
 H       7.88700000      19.61400000      30.09300000
 O      11.86600000      23.80000000      24.45500000
 H      11.01000000      23.94800000      24.83500000
 H      11.97600000      22.81500000      24.69700000
 O       7.83000000      17.83100000      23.67900000
 H       6.98800000      17.69900000      23.19400000
 H       7.64200000      17.36800000      24.51400000
 O      13.21600000      17.98100000      34.24800000
 H      12.23400000      17.85700000      34.13900000
 H      13.43900000      18.25700000      33.36200000
 O       9.44200000      27.08200000      24.95200000
 H       8.50000000      27.23800000      24.83200000
 H       9.48200000      26.12700000      25.16300000
 O      10.39600000      15.89800000      22.11800000
 H      11.26800000      15.44500000      22.02800000
 H      10.66800000      16.41000000      22.98000000
 O       7.48200000      24.95800000      32.44000000
 H       6.66200000      24.71500000      31.95800000
 H       7.32800000      24.58800000      33.33900000
 O      16.28400000      20.88200000      29.43700000
 H      16.38200000      21.17700000      30.33500000
 H      15.69100000      21.52200000      29.04600000
 O      18.57900000      21.86300000      24.54800000
 H      19.46500000      22.18700000      24.92600000
 H      18.60400000      20.98000000      24.94500000
 O       9.92300000      17.90600000      28.99700000
 H       8.96800000      17.96600000      29.07300000
 H      10.14700000      18.84200000      28.78600000
 O      16.72400000      13.63700000      30.56400000
 H      16.00700000      14.18100000      30.16700000
 H      17.53000000      14.05100000      30.23600000
 O      20.31600000      16.71900000      22.38900000
 H      20.40400000      17.58100000      21.94700000
 H      19.35200000      16.63800000      22.47800000
 O       6.74700000      20.33400000      26.96900000
 H       6.09500000      20.37000000      26.31300000
 H       7.46700000      20.88600000      26.58100000
 O      19.00000000      20.06100000      33.02500000
 H      19.19100000      19.08000000      32.96000000
 H      19.14200000      20.36900000      32.07200000
 O      10.17000000      17.81600000      34.17200000
 H       9.45600000      17.76300000      33.59300000
 H       9.71400000      18.09800000      35.05700000
 O      18.76900000      23.58700000      32.68300000
 H      17.92300000      23.63300000      32.28100000
 H      19.38800000      23.96200000      32.01200000
 O      12.26600000      27.97600000      31.18700000
 H      11.91000000      27.01300000      31.25900000
 H      12.46400000      27.92200000      30.20400000
 O      10.97400000      16.74800000      31.49900000
 H      10.93300000      17.18700000      32.36700000
 H      10.17500000      17.15300000      31.06800000
 O       8.42300000      21.92100000      25.90100000
 H       8.88700000      22.75700000      26.14400000
 H       8.13900000      22.19300000      24.96200000
 O      18.96800000      25.97100000      35.20600000
 H      19.78600000      25.68400000      35.66200000
 H      19.28600000      25.94600000      34.26700000
 O       8.65300000      21.90200000      21.16700000
 H       8.23700000      20.97600000      21.30700000
 H       9.32800000      21.56200000      20.44900000
 O      14.27900000      14.21800000      29.02400000
 H      13.61000000      14.51300000      28.36800000
 H      13.98500000      14.65300000      29.84200000
 O      20.38100000      24.70800000      25.08900000
 H      20.95100000      25.31600000      24.56100000
 H      19.52800000      25.18900000      24.95400000
 O      10.27400000      15.19800000      26.75900000
 H      10.34800000      14.24300000      26.78000000
 H      11.03700000      15.49800000      27.24500000
