334
XYZ file of cluster: frame_9000_6ba85.24ca6.4d807 - created by MolEdiTo
 O      20.64200000       6.50300000      18.87200000
 H      21.34600000       6.25800000      18.26500000
 H      20.63300000       7.46600000      18.81500000
 O      25.50100000      15.70100000      17.31300000
 H      25.96800000      14.92300000      17.55400000
 H      24.83500000      15.80300000      18.04700000
 O      23.52800000       7.29000000      19.56900000
 H      23.47700000       8.09200000      20.14200000
 H      24.46200000       7.32000000      19.38100000
 O      33.13000000      20.99500000      18.69700000
 H      32.83300000      20.15700000      18.27400000
 H      32.47100000      21.10400000      19.38400000
 O      28.50800000      20.89600000      19.26000000
 H      29.11800000      21.41500000      19.83500000
 H      29.18800000      20.26800000      18.90700000
 O      32.88500000      19.38800000      21.38600000
 H      31.93800000      19.26600000      21.19300000
 H      33.29600000      18.71100000      20.79600000
 O      29.82400000      19.11200000      22.26700000
 H      28.95900000      18.66900000      22.00200000
 H      29.51600000      20.02600000      22.30100000
 O      23.89600000       8.22100000      14.72300000
 H      23.40800000       7.90900000      13.92000000
 H      24.76000000       7.70200000      14.49900000
 O      25.26500000      15.32500000      20.04700000
 H      25.78100000      14.58600000      20.42600000
 H      24.39100000      14.86900000      19.90900000
 O      31.00200000      14.10900000      23.98100000
 H      31.37700000      13.74500000      24.79700000
 H      30.24000000      14.51900000      24.46700000
 O      24.67300000      13.56600000      24.94800000
 H      24.31300000      13.17500000      24.11700000
 H      24.64900000      12.81000000      25.51900000
 O      24.09600000      18.62200000      18.94100000
 H      24.89000000      19.10500000      19.20300000
 H      23.85300000      19.00800000      18.09400000
 O      31.46800000      16.56600000      27.38300000
 H      30.73400000      16.98800000      26.88100000
 H      32.05000000      16.39300000      26.69600000
 O      27.18500000       7.14500000      27.45500000
 H      27.21300000       6.53600000      26.65400000
 H      28.11000000       7.46700000      27.40500000
 O      24.53500000       7.20600000      24.57000000
 H      25.33800000       6.76800000      24.87900000
 H      24.36700000       6.63500000      23.78400000
 O      30.43700000      19.08100000      18.78400000
 H      29.84900000      18.58400000      19.32400000
 H      30.61300000      18.39800000      18.07000000
 O      26.80900000      13.44400000      18.22200000
 H      26.42300000      12.58200000      17.87100000
 H      26.47700000      13.46200000      19.14200000
 O      26.60800000       8.14000000      17.26000000
 H      26.65200000       8.71600000      18.05900000
 H      26.02600000       7.44700000      17.56700000
 O      25.38200000       9.89300000      24.00700000
 H      25.00600000      10.11200000      24.86300000
 H      25.15200000       8.97300000      24.05600000
 O      31.37700000       8.29600000      20.19100000
 H      31.63800000       8.57300000      21.07300000
 H      32.15100000       8.51200000      19.67300000
 O      20.18000000      15.73200000      27.76600000
 H      21.02700000      15.57900000      27.19300000
 H      19.78100000      16.43500000      27.26700000
 O      34.80900000      10.55600000      20.62200000
 H      35.26500000      10.00200000      19.98100000
 H      34.61200000      10.04800000      21.39500000
 O      24.60400000      17.48000000      27.47800000
 H      25.13400000      18.29700000      27.42300000
 H      25.22300000      16.84900000      27.11000000
 O      27.46200000      20.34500000      25.22200000
 H      27.31400000      19.75900000      24.44400000
 H      28.10400000      20.99200000      24.76700000
 O      21.66200000      11.74200000      24.84400000
 H      22.44200000      11.81200000      24.25600000
 H      21.33400000      12.64500000      24.83500000
 O      24.16600000      17.26000000      21.85900000
 H      23.65700000      17.76100000      21.24600000
 H      24.78900000      16.84700000      21.21000000
 O      22.28200000      13.12600000      27.63000000
 H      22.50000000      13.91700000      27.10800000
 H      21.79100000      12.55300000      27.03300000
 O      26.34000000      20.40100000      15.73000000
 H      25.46800000      20.70800000      16.09600000
 H      26.44700000      19.54500000      16.10700000
 O      24.11200000       9.96500000      21.40500000
 H      24.87800000      10.08300000      20.75000000
 H      24.49100000       9.98000000      22.20800000
 O      34.90600000      14.03600000      16.36700000
 H      34.36800000      14.17800000      17.23100000
 H      34.56800000      13.13600000      16.13300000
 O      21.38300000      14.28400000      22.06300000
 H      20.91700000      13.88600000      21.30800000
 H      20.96600000      15.20100000      22.00000000
 O      34.79700000      15.77800000      23.07100000
 H      33.83100000      15.85500000      22.98200000
 H      34.98300000      15.63600000      22.09200000
 O      20.74800000      14.33400000      24.80400000
 H      20.93100000      14.42900000      23.83700000
 H      19.90000000      14.83200000      24.92100000
 O      21.27600000       7.94200000      22.32900000
 H      22.14500000       8.34900000      22.51800000
 H      20.87800000       8.55200000      21.65100000
 C      20.74400000      22.14700000      21.28000000
 C      21.75100000      20.98600000      21.17200000
 C      19.60300000      19.73800000      20.35900000
 H      21.38800000      20.22000000      19.14600000
 H      20.61900000      23.94200000      21.73000000
 O      21.89100000      18.62200000      20.43300000
 O      20.72800000      22.75500000      20.00600000
 O      21.23700000      23.21400000      21.96900000
 C      21.21600000      19.88200000      20.20600000
 O      23.08700000      21.51300000      20.80600000
 H      21.88500000      20.45800000      22.11500000
 O      19.18500000      18.57900000      19.59600000
 O      19.28500000      19.62800000      21.75600000
 H      18.31900000      19.33200000      21.68600000
 H      23.10300000      22.33400000      20.19500000
 H      22.67600000      18.58300000      19.84400000
 O      20.98300000      12.24800000      16.55600000
 H      20.27400000      12.87900000      16.20900000
 H      20.97200000      11.60700000      15.81200000
 O      25.70700000      11.30100000      17.09900000
 H      24.80500000      11.13300000      17.27000000
 H      25.75600000      11.16900000      16.09100000
 O      30.48300000      19.63600000      14.13800000
 H      30.26600000      19.37200000      13.23500000
 H      30.33100000      18.75400000      14.61900000
 O      26.18000000      10.24000000      19.54200000
 H      27.20200000      10.11800000      19.67200000
 H      26.30600000      10.57700000      18.59400000
 O      27.36300000      11.42400000      23.15100000
 H      26.66800000      10.77500000      23.48200000
 H      27.63700000      11.78600000      24.04900000
 O      23.36200000      19.28200000      24.28400000
 H      23.02600000      19.40000000      25.19700000
 H      23.64500000      18.31800000      24.31700000
 O      33.17700000      14.43900000      25.82100000
 H      33.75200000      13.74100000      25.45700000
 H      33.60300000      15.24100000      25.55300000
 O      23.64300000      17.53700000      15.80700000
 H      23.51700000      17.25200000      14.84400000
 H      24.31300000      16.96000000      16.02900000
 O      23.07700000      11.48700000      17.83700000
 H      22.19800000      11.82900000      17.48300000
 H      23.01300000      10.54200000      17.57400000
 O      22.73200000      15.60900000      26.61000000
 H      23.11200000      15.67600000      25.70300000
 H      23.44800000      16.05800000      27.07600000
 O      21.10500000      17.81400000      15.51600000
 H      21.08500000      18.75500000      15.85000000
 H      21.99800000      17.53300000      15.78800000
 O      29.63000000      17.45500000      25.12400000
 H      29.16200000      18.06900000      24.45500000
 H      29.07600000      16.65200000      24.95200000
 O      22.17600000      10.12000000      27.17000000
 H      21.61600000      10.42000000      26.39900000
 H      21.47700000       9.90000000      27.81300000
 O      25.02500000      20.57800000      22.40500000
 H      24.17300000      20.82500000      21.88800000
 H      24.50600000      20.18400000      23.15600000
 O      34.33400000      16.92600000      16.81500000
 H      34.76800000      16.04400000      16.71000000
 H      34.00200000      17.16300000      15.95100000
 O      34.63800000      17.37900000      27.72500000
 H      35.57900000      17.55200000      27.48600000
 H      34.32100000      17.31400000      26.78200000
 O      28.16500000      15.12900000      24.90700000
 H      27.60300000      15.43300000      25.62100000
 H      27.76300000      14.26900000      24.67700000
 O      34.18300000      17.72600000      19.51100000
 H      34.26900000      16.79700000      19.78100000
 H      34.04300000      17.60300000      18.56100000
 O      33.17100000      20.34800000      26.49300000
 H      33.00600000      19.94200000      25.61800000
 H      33.83900000      21.04800000      26.24200000
 O      28.72800000      14.87300000      13.80300000
 H      28.61100000      14.36600000      14.57500000
 H      28.04000000      14.67900000      13.22800000
 O      34.18300000      11.56700000      16.11100000
 H      33.38700000      11.07000000      16.53900000
 H      34.88700000      10.90200000      16.37000000
 O      22.10300000      10.66900000      14.21400000
 H      21.96000000      11.36600000      13.60400000
 H      23.00400000      10.33800000      13.94900000
 O      23.20000000      19.95800000      14.13400000
 H      23.62100000      20.25300000      14.96000000
 H      23.22300000      18.96600000      14.22800000
 O      28.30200000      12.34900000      25.54800000
 H      27.69600000      12.10000000      26.19500000
 H      29.03300000      12.65300000      26.17000000
 O      26.12100000      19.56100000      27.56600000
 H      26.62500000      19.78300000      26.70500000
 H      26.90200000      19.35400000      28.14900000
 O      34.32100000       9.62600000      25.74600000
 H      34.53900000       9.32700000      24.82800000
 H      34.56200000      10.55900000      25.69200000
 O      33.56000000      17.56300000      14.46800000
 H      32.94600000      18.28500000      14.75100000
 H      34.28200000      18.12200000      14.01900000
 O      29.37600000      17.24400000      14.94000000
 H      28.58300000      17.24600000      15.55200000
 H      29.26600000      16.28100000      14.66900000
 O      32.05100000      10.81900000      17.38800000
 H      31.27200000      11.26700000      16.95700000
 H      32.05700000      11.28400000      18.22600000
 O      25.96100000      14.98900000      26.80600000
 H      25.32300000      14.65400000      26.12000000
 H      25.64600000      14.46500000      27.61000000
 O      32.83100000      11.99500000      23.13500000
 H      33.13700000      12.83800000      22.66700000
 H      33.49600000      11.88100000      23.80800000
 O      26.00000000      20.00800000      19.97900000
 H      26.69700000      20.72700000      19.87800000
 H      25.67300000      20.34600000      20.85300000
 O      31.91600000       9.21700000      22.90300000
 H      32.37500000       8.74600000      23.55900000
 H      32.11900000      10.17000000      23.18800000
 O      27.95300000      18.03300000      19.68100000
 H      27.64700000      17.45200000      20.38100000
 H      27.36400000      18.76600000      19.74400000
 O      27.39500000      17.59500000      17.03100000
 H      26.72600000      16.84900000      16.99400000
 H      27.45300000      17.69800000      18.03300000
 O      32.23600000      15.92700000      22.41600000
 H      31.70100000      15.24300000      22.91800000
 H      31.81000000      16.75200000      22.72500000
 O      30.99300000      13.40800000      27.12300000
 H      31.70900000      13.98700000      26.80500000
 H      30.94200000      13.76600000      28.07700000
 O      29.61900000       8.23600000      28.06000000
 H      30.29200000       8.94100000      27.88300000
 H      29.94800000       7.53500000      27.48500000
 O      26.36700000      10.75400000      14.16600000
 H      26.72900000       9.96300000      14.66300000
 H      27.19900000      11.26200000      14.08600000
 O      33.41100000       8.46400000      18.13100000
 H      32.84000000       9.19900000      17.78900000
 H      32.90700000       7.71100000      17.80300000
 O      32.70000000      12.03900000      19.88100000
 H      33.54100000      11.44100000      20.02000000
 H      32.26000000      11.83800000      20.75600000
 O      27.47200000      16.07700000      22.14700000
 H      27.96900000      15.61000000      21.44800000
 H      27.55400000      15.52400000      22.87800000
 O      23.66700000      20.68700000      16.80400000
 H      23.87800000      21.43600000      17.29600000
 H      22.74100000      20.68400000      16.67400000
 O      33.15100000      14.43900000      18.53500000
 H      32.77000000      13.66000000      18.91300000
 H      32.27200000      14.88700000      18.32900000
 O      33.04500000       9.05300000      27.80300000
 H      33.49000000       9.67500000      28.43000000
 H      33.58900000       9.14300000      26.99100000
 O      28.69900000      10.19000000      19.82300000
 H      29.43100000       9.57100000      19.82600000
 H      29.16400000      10.98400000      20.16900000
 O      28.26200000       9.14800000      15.33400000
 H      27.60300000       8.78100000      16.01700000
 H      28.73100000       8.34500000      15.18300000
 O      21.77700000      19.78800000      26.71500000
 H      22.54800000      20.03600000      27.27000000
 H      21.30000000      20.58800000      26.75800000
 O      34.71500000       8.64300000      23.25500000
 H      34.11200000       7.88900000      22.94900000
 H      35.55300000       8.19100000      22.98300000
 O      23.32500000       8.92500000      17.37300000
 H      23.62400000       8.78400000      16.40800000
 H      23.06300000       8.02600000      17.61500000
 O      34.92900000      15.25700000      20.35100000
 H      35.22300000      14.32600000      20.47700000
 H      34.21400000      15.04600000      19.68300000
 O      33.87000000      17.28000000      25.17500000
 H      34.02000000      16.98700000      24.26600000
 H      33.24100000      18.06900000      24.99500000
 O      34.88400000      15.10600000      13.61000000
 H      34.91000000      14.78300000      14.53000000
 H      34.42900000      15.94400000      13.79000000
 O      23.35600000      13.24300000      19.76100000
 H      23.21000000      12.50400000      19.07500000
 H      22.46500000      13.24800000      20.09600000
 O      29.56900000      12.24200000      21.65900000
 H      30.07600000      12.62200000      22.42200000
 H      28.77400000      11.89100000      22.14400000
 O      20.92500000       8.86800000      15.55100000
 H      21.48900000       9.51000000      15.01600000
 H      21.62000000       8.56100000      16.09600000
 O      26.36700000      12.86300000      20.82800000
 H      26.73400000      12.38900000      21.58600000
 H      25.65500000      12.25600000      20.57500000
 O      35.12300000      20.46400000      21.84500000
 H      34.20200000      20.21100000      21.61200000
 H      35.20500000      21.29900000      21.34600000
 O      29.18600000      21.39200000      15.56400000
 H      29.69900000      20.70300000      15.16300000
 H      28.58600000      20.88500000      16.06900000
 O      30.42800000      15.48900000      18.18100000
 H      29.92300000      15.51500000      19.05000000
 H      29.80500000      14.87100000      17.70800000
 O      28.73100000      13.84800000      16.43100000
 H      28.84500000      12.89400000      16.39400000
 H      27.86300000      13.89700000      16.93500000
 O      23.14900000       7.65500000      26.97500000
 H      23.80000000       7.69900000      26.26500000
 H      22.78500000       8.59800000      26.99200000
 O      28.77600000       8.39700000      22.73700000
 H      28.08100000       9.05900000      22.72100000
 H      29.59700000       8.92300000      22.90000000
 O      23.17600000      12.48500000      22.66700000
 H      23.43400000      12.19400000      21.77000000
 H      22.58100000      13.23400000      22.35100000
 O      22.81000000      13.99500000      14.78700000
 H      23.41700000      13.58600000      15.43900000
 H      22.00900000      14.13800000      15.33400000
 O      32.19000000      19.08100000      24.21800000
 H      31.23500000      18.91300000      24.13600000
 H      32.37300000      19.46500000      23.32800000
 O      26.97600000      18.96800000      23.04100000
 H      26.34300000      19.64900000      22.69100000
 H      26.48900000      18.11500000      22.81400000
 O      28.76900000      14.44200000      20.22200000
 H      28.01500000      13.95300000      19.83400000
 H      29.16100000      13.67700000      20.76500000
 O      23.95500000      16.37800000      24.31500000
 H      23.91100000      16.58700000      23.35300000
 H      24.37300000      15.51600000      24.25800000
 O      29.45600000      11.40200000      15.95200000
 H      29.82300000      11.62600000      15.08900000
 H      28.99600000      10.54400000      15.74600000
 O      33.55600000      21.10300000      14.54600000
 H      33.96000000      20.50200000      13.86000000
 H      32.64700000      20.81800000      14.55000000
 O      24.47700000      11.22000000      26.40500000
 H      23.58500000      10.92300000      26.85600000
 H      25.05700000      10.86100000      27.18800000
