352
XYZ file of cluster: frame_9000_4d29a.21871.702cb - created by MolEdiTo
 O      25.55700000       9.86600000      28.29700000
 H      24.77900000       9.90100000      28.87700000
 H      26.03500000       9.10600000      28.54300000
 O      19.19300000      18.06200000      26.41600000
 H      19.07400000      18.29300000      27.39000000
 H      19.98600000      18.56200000      26.21500000
 O      18.96300000      14.90000000      29.89400000
 H      19.78500000      15.21800000      30.40900000
 H      19.16900000      15.36600000      29.07300000
 O      16.75300000      18.71200000      25.60400000
 H      17.55500000      18.23300000      25.97800000
 H      16.94700000      19.61000000      25.93500000
 O      21.13800000      16.16800000      31.13700000
 H      20.81700000      16.87900000      31.80200000
 H      21.56100000      16.81000000      30.47900000
 O      24.67300000      13.56600000      24.94800000
 H      24.31300000      13.17500000      24.11700000
 H      24.64900000      12.81000000      25.51900000
 O      23.73300000      20.92300000      28.05200000
 H      24.11800000      21.72900000      28.43800000
 H      24.56700000      20.44400000      27.82000000
 O      27.18500000       7.14500000      27.45500000
 H      27.21300000       6.53600000      26.65400000
 H      28.11000000       7.46700000      27.40500000
 O      19.09100000      10.59100000      27.11000000
 H      19.57100000      10.19500000      27.85600000
 H      19.32100000      11.54200000      27.28400000
 O      26.66800000      16.79100000      31.37300000
 H      25.87600000      17.27200000      31.13300000
 H      26.98900000      17.24200000      32.15000000
 O      17.88800000       8.92300000      30.55300000
 H      17.44000000       8.63300000      29.81600000
 H      17.52700000       8.55700000      31.31600000
 O      24.53500000       7.20600000      24.57000000
 H      25.33800000       6.76800000      24.87900000
 H      24.36700000       6.63500000      23.78400000
 O      16.37200000      14.05400000      26.53900000
 H      15.43000000      14.22300000      26.26500000
 H      16.26200000      13.20700000      27.00300000
 O      14.09100000      19.45700000      31.39400000
 H      14.46100000      20.35500000      31.40800000
 H      13.13000000      19.58900000      31.30300000
 O      25.38200000       9.89300000      24.00700000
 H      25.00600000      10.11200000      24.86300000
 H      25.15200000       8.97300000      24.05600000
 O      17.62300000      17.42500000      22.86900000
 H      16.92000000      17.65200000      22.12400000
 H      17.40500000      18.16800000      23.49800000
 O      16.49500000       9.83700000      27.01400000
 H      17.38300000      10.22000000      26.69700000
 H      16.17500000      10.65300000      27.48700000
 O      24.91500000      18.66500000      30.77800000
 H      25.60600000      19.10200000      30.26400000
 H      24.75600000      19.33500000      31.47400000
 O      26.01600000       7.93000000      32.21800000
 H      26.72700000       8.37000000      31.76900000
 H      26.42500000       7.11900000      32.57400000
 O      20.18000000      15.73200000      27.76600000
 H      21.02700000      15.57900000      27.19300000
 H      19.78100000      16.43500000      27.26700000
 O      19.18700000       7.27000000      26.42400000
 H      19.59600000       6.88100000      25.66400000
 H      18.97600000       8.15700000      26.09600000
 O      20.32900000      11.17200000      31.97800000
 H      20.46000000      10.22800000      31.69100000
 H      20.98500000      11.59200000      31.42900000
 O      24.60400000      17.48000000      27.47800000
 H      25.13400000      18.29700000      27.42300000
 H      25.22300000      16.84900000      27.11000000
 O      15.73200000      18.81600000      35.44600000
 H      15.84500000      19.77900000      35.19700000
 H      15.96000000      18.44900000      34.56900000
 O      23.03600000       7.25500000      34.78500000
 H      22.43500000       6.94900000      34.04800000
 H      22.90700000       6.49100000      35.40000000
 O      14.71000000      16.19500000      21.81900000
 H      13.85400000      15.64700000      21.86400000
 H      14.72100000      16.55000000      22.72500000
 O      15.69700000      12.07200000      28.44700000
 H      16.16400000      11.99800000      29.27000000
 H      15.24600000      12.92700000      28.57400000
 O      27.46200000      20.34500000      25.22200000
 H      27.31400000      19.75900000      24.44400000
 H      28.10400000      20.99200000      24.76700000
 O      21.66200000      11.74200000      24.84400000
 H      22.44200000      11.81200000      24.25600000
 H      21.33400000      12.64500000      24.83500000
 O      14.72400000      18.13000000      23.93500000
 H      14.21300000      18.63200000      24.61600000
 H      15.61000000      18.16600000      24.38000000
 O      24.16600000      17.26000000      21.85900000
 H      23.65700000      17.76100000      21.24600000
 H      24.78900000      16.84700000      21.21000000
 O      19.39500000      13.08000000      27.87200000
 H      19.61100000      13.90700000      27.38300000
 H      19.28700000      13.38400000      28.73200000
 O      22.28200000      13.12600000      27.63000000
 H      22.50000000      13.91700000      27.10800000
 H      21.79100000      12.55300000      27.03300000
 O      15.91500000      18.15600000      32.84800000
 H      16.51800000      17.79600000      32.12400000
 H      15.35800000      18.71900000      32.25600000
 O      24.54400000      20.21400000      33.01300000
 H      24.74300000      19.72400000      33.81500000
 H      23.70300000      20.62300000      33.33200000
 O      18.90400000       9.21200000      20.96400000
 H      19.40400000       9.21800000      20.11500000
 H      18.82100000      10.22700000      21.07800000
 O      18.77200000      11.07700000      23.78900000
 H      18.85100000      11.51700000      22.93300000
 H      19.70200000      11.08500000      24.05800000
 O      13.84300000      19.37900000      26.67300000
 H      14.79900000      19.11000000      26.37700000
 H      13.69600000      18.66800000      27.31500000
 O      24.79200000      13.15100000      34.22400000
 H      25.32500000      13.84500000      33.79200000
 H      24.15600000      13.01500000      33.48100000
 O      24.11200000       9.96500000      21.40500000
 H      24.87800000      10.08300000      20.75000000
 H      24.49100000       9.98000000      22.20800000
 O      16.73200000      14.46000000      23.13800000
 H      16.90600000      15.34000000      22.74600000
 H      17.32600000      14.54600000      23.90900000
 O      21.38300000      14.28400000      22.06300000
 H      20.91700000      13.88600000      21.30800000
 H      20.96600000      15.20100000      22.00000000
 O      14.96500000      15.48000000      33.58000000
 H      15.22800000      16.45300000      33.34000000
 H      15.05500000      15.58200000      34.53700000
 O      20.74800000      14.33400000      24.80400000
 H      20.93100000      14.42900000      23.83700000
 H      19.90000000      14.83200000      24.92100000
 O      21.27600000       7.94200000      22.32900000
 H      22.14500000       8.34900000      22.51800000
 H      20.87800000       8.55200000      21.65100000
 O      27.21200000      11.33300000      33.14700000
 H      27.66900000      10.93400000      33.89500000
 H      27.90700000      11.94500000      32.84700000
 C      20.74400000      22.14700000      21.28000000
 C      21.75100000      20.98600000      21.17200000
 C      19.60300000      19.73800000      20.35900000
 H      21.38800000      20.22000000      19.14600000
 H      20.61900000      23.94200000      21.73000000
 O      21.89100000      18.62200000      20.43300000
 O      20.72800000      22.75500000      20.00600000
 O      21.23700000      23.21400000      21.96900000
 C      21.21600000      19.88200000      20.20600000
 O      23.08700000      21.51300000      20.80600000
 H      21.88500000      20.45800000      22.11500000
 O      19.18500000      18.57900000      19.59600000
 O      19.28500000      19.62800000      21.75600000
 H      18.31900000      19.33200000      21.68600000
 H      23.10300000      22.33400000      20.19500000
 H      22.67600000      18.58300000      19.84400000
 O      26.27500000       9.14500000      35.04400000
 H      25.40600000       9.45900000      35.35900000
 H      26.06100000       8.62300000      34.27400000
 O      27.59500000      17.90700000      33.93700000
 H      28.15400000      18.60400000      34.31200000
 H      26.82500000      17.85200000      34.51800000
 O      19.86000000      18.60800000      29.12300000
 H      20.81300000      18.54100000      29.03700000
 H      19.73300000      19.50900000      29.39900000
 O      27.36300000      11.42400000      23.15100000
 H      26.66800000      10.77500000      23.48200000
 H      27.63700000      11.78600000      24.04900000
 O      23.36200000      19.28200000      24.28400000
 H      23.02600000      19.40000000      25.19700000
 H      23.64500000      18.31800000      24.31700000
 O      16.45300000      12.95200000      21.04000000
 H      15.60000000      12.48800000      21.09500000
 H      16.38400000      13.59400000      21.82900000
 O      14.37800000       8.89000000      34.87800000
 H      15.11600000       9.16700000      34.27200000
 H      14.61700000       7.96600000      34.99700000
 O      23.57000000      10.19600000      30.01300000
 H      24.09200000      10.56000000      30.82300000
 H      23.34600000       9.31500000      30.37600000
 O      18.22000000      15.43300000      25.07300000
 H      17.43000000      15.29900000      25.65900000
 H      18.38400000      16.36500000      25.16400000
 O      16.29400000      18.88700000      21.09200000
 H      16.37000000      18.93400000      20.14500000
 H      15.60400000      19.53600000      21.26500000
 O      22.73200000      15.60900000      26.61000000
 H      23.11200000      15.67600000      25.70300000
 H      23.44800000      16.05800000      27.07600000
 O      22.17600000      10.12000000      27.17000000
 H      21.61600000      10.42000000      26.39900000
 H      21.47700000       9.90000000      27.81300000
 O      21.97200000      12.22100000      30.21100000
 H      21.72000000      12.38900000      29.30500000
 H      22.65800000      11.53600000      30.10900000
 O      24.63600000      13.68800000      28.93600000
 H      23.75500000      13.49100000      28.59800000
 H      24.47200000      13.63800000      29.86900000
 O      25.02500000      20.57800000      22.40500000
 H      24.17300000      20.82500000      21.88800000
 H      24.50600000      20.18400000      23.15600000
 O      16.85400000       9.10100000      22.67800000
 H      17.15300000       9.14700000      23.64400000
 H      17.70700000       8.93600000      22.26600000
 O      28.16500000      15.12900000      24.90700000
 H      27.60300000      15.43300000      25.62100000
 H      27.76300000      14.26900000      24.67700000
 O      26.12100000      19.56100000      27.56600000
 H      26.62500000      19.78300000      26.70500000
 H      26.90200000      19.35400000      28.14900000
 O      22.54400000      17.81200000      29.37400000
 H      22.86500000      17.75600000      28.42300000
 H      23.38100000      18.26000000      29.71900000
 O      15.34400000       7.73700000      25.82800000
 H      15.19700000       7.15000000      26.60200000
 H      15.80600000       8.47300000      26.27000000
 O      25.96100000      14.98900000      26.80600000
 H      25.32300000      14.65400000      26.12000000
 H      25.64600000      14.46500000      27.61000000
 O      28.29300000      13.95200000      31.22500000
 H      27.45200000      13.92900000      30.75800000
 H      28.11500000      14.65000000      31.93200000
 O      16.23400000      11.03800000      33.02000000
 H      16.90800000      11.59900000      32.65500000
 H      15.52600000      11.68500000      33.13800000
 O      26.00000000      20.00800000      19.97900000
 H      26.69700000      20.72700000      19.87800000
 H      25.67300000      20.34600000      20.85300000
 O      18.07500000      20.74200000      27.51300000
 H      17.37800000      20.67000000      28.16100000
 H      18.57000000      21.51600000      27.68500000
 O      14.10000000      12.92600000      33.49900000
 H      14.01100000      12.77900000      34.43500000
 H      14.35700000      13.88900000      33.49100000
 O      14.01200000      11.64400000      21.41500000
 H      13.21600000      11.22100000      21.03600000
 H      14.53200000      10.83100000      21.70400000
 O      21.09600000       7.99000000      31.97600000
 H      22.06400000       7.99400000      31.82400000
 H      20.84600000       7.26400000      31.27200000
 O      16.55500000      16.16200000      28.61300000
 H      15.87100000      16.84300000      28.52500000
 H      16.17900000      15.37200000      28.24700000
 O      19.85900000      17.39600000      33.45100000
 H      19.05100000      16.83900000      33.30500000
 H      20.17800000      17.02900000      34.27900000
 O      27.47200000      16.07700000      22.14700000
 H      27.96900000      15.61000000      21.44800000
 H      27.55400000      15.52400000      22.87800000
 O      20.34900000       9.32200000      29.13300000
 H      19.64500000       9.22000000      29.72300000
 H      20.58500000       8.35700000      28.99600000
 O      21.77700000      19.78800000      26.71500000
 H      22.54800000      20.03600000      27.27000000
 H      21.30000000      20.58800000      26.75800000
 O      13.91500000       8.57200000      22.36400000
 H      13.83200000       7.97800000      23.12100000
 H      14.95600000       8.51600000      22.26100000
 O      14.83300000      18.20000000      29.04200000
 H      15.34300000      18.94000000      28.72600000
 H      14.43300000      18.47800000      29.85500000
 O      24.54700000      17.93300000      34.52200000
 H      24.35100000      17.16200000      33.94700000
 H      24.25800000      17.63900000      35.41900000
 O      27.13100000      12.30600000      28.47600000
 H      26.42000000      11.56300000      28.40700000
 H      26.48700000      13.06200000      28.42500000
 O      16.43600000       6.68300000      32.37800000
 H      16.96200000       7.03300000      33.12800000
 H      16.47100000       5.70300000      32.54100000
 O      17.36000000      17.27200000      30.93900000
 H      18.26700000      17.59500000      30.64900000
 H      17.22300000      16.67800000      30.14400000
 O      26.36700000      12.86300000      20.82800000
 H      26.73400000      12.38900000      21.58600000
 H      25.65500000      12.25600000      20.57500000
 O      17.18200000       8.64500000      34.17700000
 H      17.13200000       9.13000000      35.04100000
 H      17.23500000       9.44500000      33.60700000
 O      24.68200000      15.65500000      32.93600000
 H      25.37300000      15.96200000      32.34500000
 H      24.06800000      15.18300000      32.31000000
 O      18.02100000      15.57300000      33.09900000
 H      17.61900000      14.67400000      33.00100000
 H      17.83700000      15.88100000      32.16800000
 O      23.60700000       7.79500000      31.24800000
 H      23.63300000       6.79600000      31.35300000
 H      24.41800000       8.05700000      31.66600000
 O      19.72200000       7.38700000      34.35200000
 H      20.28300000       7.64200000      33.54400000
 H      18.85400000       7.69600000      34.03900000
 O      27.64600000       8.79700000      30.29500000
 H      27.98000000       9.77900000      30.19500000
 H      28.16400000       8.46000000      29.53500000
 O      23.14900000       7.65500000      26.97500000
 H      23.80000000       7.69900000      26.26500000
 H      22.78500000       8.59800000      26.99200000
 O      23.09300000      14.27600000      31.21800000
 H      22.60800000      13.47300000      30.85400000
 H      22.34500000      14.87500000      31.37700000
 O      18.30800000      12.66100000      32.79400000
 H      19.12300000      12.13300000      32.47800000
 H      17.88800000      12.91000000      31.96700000
 O      16.34000000      11.91500000      24.40200000
 H      17.31500000      11.67300000      24.29300000
 H      16.43100000      12.88200000      24.36200000
 O      17.39800000       7.60800000      28.28000000
 H      18.20700000       7.33700000      27.78900000
 H      17.09600000       8.41600000      27.81100000
 O      18.74400000      11.93600000      21.20200000
 H      18.97900000      12.38500000      20.37300000
 H      17.84300000      12.37200000      21.31700000
 O      23.17600000      12.48500000      22.66700000
 H      23.43400000      12.19400000      21.77000000
 H      22.58100000      13.23400000      22.35100000
 O      13.13000000      10.23000000      28.59800000
 H      14.05400000       9.91100000      28.69300000
 H      13.23400000      10.90200000      27.89700000
 O      21.71300000       6.76900000      28.99900000
 H      21.87700000       7.07500000      28.11100000
 H      22.62100000       6.36200000      29.15200000
 O      21.87300000      20.92900000      33.51700000
 H      21.93800000      20.75400000      34.46200000
 H      21.03200000      20.42900000      33.36400000
 O      16.72400000      13.63700000      30.56400000
 H      16.00700000      14.18100000      30.16700000
 H      17.53000000      14.05100000      30.23600000
 O      20.31600000      16.71900000      22.38900000
 H      20.40400000      17.58100000      21.94700000
 H      19.35200000      16.63800000      22.47800000
 O      26.97600000      18.96800000      23.04100000
 H      26.34300000      19.64900000      22.69100000
 H      26.48900000      18.11500000      22.81400000
 O      19.00000000      20.06100000      33.02500000
 H      19.19100000      19.08000000      32.96000000
 H      19.14200000      20.36900000      32.07200000
 O      22.14200000      11.99500000      34.10400000
 H      22.54600000      11.19700000      34.58600000
 H      21.47400000      11.59600000      33.54600000
 O      24.88800000      11.01600000      31.95900000
 H      24.36700000      11.30500000      32.74500000
 H      25.78400000      11.14900000      32.41700000
 O      14.27900000      14.21800000      29.02400000
 H      13.61000000      14.51300000      28.36800000
 H      13.98500000      14.65300000      29.84200000
 O      23.95500000      16.37800000      24.31500000
 H      23.91100000      16.58700000      23.35300000
 H      24.37300000      15.51600000      24.25800000
 O      14.04000000      10.69900000      25.46800000
 H      14.89100000      11.09200000      25.10500000
 H      14.40600000       9.85000000      25.72400000
 O      24.47700000      11.22000000      26.40500000
 H      23.58500000      10.92300000      26.85600000
 H      25.05700000      10.86100000      27.18800000
