343
XYZ file of cluster: frame_9000_2082b.6d399.22d35 - created by MolEdiTo
 O      18.08600000      34.08100000      12.67000000
 H      18.59200000      34.93600000      12.54200000
 H      18.75100000      33.45300000      12.27200000
 O      14.14100000      29.32000000      18.74900000
 H      13.18900000      29.53200000      18.99200000
 H      14.56700000      29.96000000      19.39100000
 O      14.63800000      33.06400000      19.30400000
 H      15.26800000      32.45500000      19.70200000
 H      14.84600000      33.05300000      18.38400000
 O      14.46000000      21.11200000      21.25100000
 H      15.30500000      21.57900000      21.13000000
 H      13.80800000      21.67200000      20.77300000
 O       8.45100000      23.64500000      15.26600000
 H       8.45800000      23.00600000      16.03000000
 H       8.11600000      24.45400000      15.78700000
 O      12.75100000      22.58900000      19.93600000
 H      11.86800000      22.31400000      19.60600000
 H      12.58000000      23.53100000      20.08700000
 O      19.25700000      30.30600000      15.58300000
 H      19.60400000      30.09300000      16.48400000
 H      18.51300000      30.88900000      15.83300000
 O      10.19000000      21.18900000      18.91900000
 H       9.39800000      21.44300000      18.32400000
 H      10.37500000      20.28500000      18.63100000
 O       9.61500000      29.79000000      20.58700000
 H       9.87300000      30.12700000      21.49100000
 H       8.66300000      29.98000000      20.60600000
 O       7.72600000      25.18500000       9.43500000
 H       7.47200000      24.28700000       9.65700000
 H       7.76000000      25.15500000       8.45700000
 O      12.72500000      25.71100000      16.84700000
 H      11.85700000      25.87500000      17.23500000
 H      12.92000000      24.79200000      17.07900000
 O      16.89500000      32.15000000       8.77600000
 H      17.81200000      31.88100000       8.86500000
 H      16.87000000      33.09800000       9.00500000
 O      12.32800000      25.30700000      20.21400000
 H      11.71100000      26.04200000      20.08600000
 H      12.62300000      25.48200000      21.12400000
 O       8.65100000      22.39200000      11.37400000
 H       8.55200000      22.28400000      12.35400000
 H       7.76300000      22.23500000      11.02700000
 O      20.87100000      24.57700000       9.63600000
 H      21.43100000      23.96100000      10.16500000
 H      19.99600000      24.17600000       9.83900000
 O      19.08500000      27.66000000       6.98800000
 H      19.16400000      28.67200000       6.85300000
 H      19.70800000      27.63300000       7.75300000
 O      12.48800000      33.36100000       8.79100000
 H      12.10700000      33.72100000       7.93900000
 H      13.27100000      32.93300000       8.47900000
 O      20.58300000      25.83000000      16.25000000
 H      20.32100000      26.02700000      15.30500000
 H      19.72400000      25.94400000      16.66200000
 O       6.98100000      25.11000000      13.57900000
 H       7.72300000      25.69600000      13.49900000
 H       7.41800000      24.33200000      13.98000000
 O      20.24600000      25.69200000      20.97300000
 H      20.73300000      26.46700000      20.71400000
 H      19.36700000      25.83300000      20.63500000
 O      16.85600000      22.50000000      20.39900000
 H      17.47200000      22.46100000      19.55900000
 H      16.51100000      23.39300000      20.35700000
 O      18.13100000      20.93100000      13.79700000
 H      17.88100000      20.65600000      12.90800000
 H      18.62900000      21.77700000      13.59900000
 O       7.94000000      28.25800000      13.70500000
 H       8.16200000      29.10400000      13.21200000
 H       8.62900000      27.68400000      13.41400000
 O      17.95500000      29.01100000      13.58000000
 H      18.29000000      29.62300000      14.33300000
 H      18.44300000      29.43800000      12.85800000
 O       7.67900000      29.97600000       6.92100000
 H       8.50000000      30.36100000       7.30900000
 H       7.49400000      30.50300000       6.12400000
 O      15.10400000      28.49600000      13.18000000
 H      16.06000000      28.70100000      13.32400000
 H      14.87600000      28.43000000      14.17700000
 O      20.51400000      33.71600000      20.38800000
 H      20.70500000      34.48900000      19.79100000
 H      21.41200000      33.69700000      20.93600000
 O      17.61600000      26.89100000      20.55200000
 H      16.98500000      27.65400000      20.88100000
 H      17.02800000      26.13200000      20.83500000
 O      19.17300000      26.68000000      13.95400000
 H      18.70400000      25.84100000      13.78300000
 H      18.50500000      27.32700000      13.95700000
 O      10.56600000      21.24400000       9.84700000
 H       9.94200000      21.61400000      10.49700000
 H      10.80100000      22.02800000       9.35500000
 O      12.06900000      35.10400000      11.16400000
 H      11.27700000      34.56700000      11.44900000
 H      12.34100000      34.61200000      10.34900000
 O       9.80200000      24.49000000      18.14500000
 H       9.50500000      23.58400000      17.80700000
 H       9.18400000      25.05700000      17.67100000
 O      15.84400000      34.14500000      14.23700000
 H      15.11500000      34.33800000      13.55200000
 H      16.65100000      33.98400000      13.64700000
 O      17.11500000      24.74400000      14.37000000
 H      16.26600000      24.37300000      14.16100000
 H      16.98200000      25.01700000      15.32300000
 O      20.39700000      22.98700000      16.99800000
 H      20.69800000      23.91000000      16.66200000
 H      20.57100000      23.09200000      17.94200000
 O       9.45200000      27.37900000       9.68400000
 H       8.66200000      27.90600000       9.59500000
 H       9.08600000      26.49600000       9.84500000
 O      13.41800000      21.01000000      13.45600000
 H      12.90500000      20.64000000      12.66300000
 H      14.08300000      20.35700000      13.54600000
 O      14.55300000      27.19000000      15.61300000
 H      13.93800000      26.53200000      16.01400000
 H      15.32400000      27.09000000      16.14700000
 O       9.73600000      26.19200000      13.28500000
 H      10.09200000      25.53200000      12.67000000
 H      10.54000000      26.57800000      13.63600000
 O      11.89300000      30.58800000      19.18200000
 H      11.00600000      30.46200000      19.65100000
 H      11.58000000      30.96300000      18.30800000
 O       8.59900000      28.23700000      16.60800000
 H       8.56300000      28.11700000      15.65800000
 H       9.57100000      28.43200000      16.68100000
 C      20.74400000      22.14700000      21.28000000
 C      21.75100000      20.98600000      21.17200000
 C      19.60300000      19.73800000      20.35900000
 H      21.38800000      20.22000000      19.14600000
 H      20.61900000      23.94200000      21.73000000
 O      21.89100000      18.62200000      20.43300000
 O      20.72800000      22.75500000      20.00600000
 O      21.23700000      23.21400000      21.96900000
 C      21.21600000      19.88200000      20.20600000
 O      23.08700000      21.51300000      20.80600000
 H      21.88500000      20.45800000      22.11500000
 O      19.18500000      18.57900000      19.59600000
 O      19.28500000      19.62800000      21.75600000
 H      18.31900000      19.33200000      21.68600000
 H      23.10300000      22.33400000      20.19500000
 H      22.67600000      18.58300000      19.84400000
 O       6.65600000      29.67200000      19.95600000
 H       7.11600000      30.09000000      19.19700000
 H       6.14400000      30.46300000      20.28700000
 O      14.51100000      22.15200000       9.95400000
 H      13.85700000      22.54400000      10.50500000
 H      15.34900000      22.58700000      10.31400000
 O       7.65200000      25.74800000      16.95100000
 H       6.70100000      25.68300000      17.13600000
 H       7.81900000      26.67900000      17.14100000
 O      12.29300000      32.81300000      20.81800000
 H      12.08500000      31.86000000      20.83400000
 H      13.19000000      32.79800000      20.44100000
 O       6.59100000      23.37300000      20.30400000
 H       7.04900000      22.68800000      20.79300000
 H       6.19700000      22.84900000      19.55300000
 O      14.56900000      23.60200000      13.90700000
 H      13.73700000      23.84100000      14.42000000
 H      14.38100000      22.62100000      13.86100000
 O      20.66700000      30.77400000      13.39500000
 H      21.60200000      30.92200000      13.66500000
 H      20.31300000      30.48900000      14.27900000
 O      12.83900000      30.60000000      15.13200000
 H      13.79700000      30.38800000      15.20800000
 H      12.87100000      31.44700000      14.66200000
 O      18.03700000      32.38400000      16.83900000
 H      18.30200000      32.80200000      17.72200000
 H      17.11400000      32.39500000      16.87400000
 O      17.90100000      23.12700000       7.59300000
 H      17.96000000      23.78800000       6.89900000
 H      18.43200000      23.59600000       8.29800000
 O      16.19700000      24.94900000      10.91300000
 H      15.71800000      24.97400000      11.81100000
 H      15.90400000      25.86100000      10.56200000
 O      10.97900000      31.77600000      16.68500000
 H      11.56500000      31.23800000      16.12700000
 H      10.16300000      31.71400000      16.20500000
 O      15.70500000      30.00600000       9.61300000
 H      15.08000000      30.57600000      10.09100000
 H      16.43600000      30.65200000       9.51000000
 O      21.19000000      27.57700000      12.10200000
 H      21.74400000      26.76000000      12.25700000
 H      20.55500000      27.37500000      12.84600000
 O      11.72400000      28.37400000      10.99700000
 H      11.06400000      27.96500000      10.39900000
 H      11.60100000      27.85800000      11.79600000
 O       6.17700000      32.28700000      10.05400000
 H       7.02400000      32.40800000       9.56700000
 H       5.76300000      31.57700000       9.56200000
 O      16.65200000      34.57500000       9.93500000
 H      15.83700000      34.68400000      10.51500000
 H      17.28200000      34.35200000      10.67400000
 O      15.07500000      26.41700000       7.87900000
 H      14.47300000      27.15100000       7.57900000
 H      15.56900000      26.89400000       8.60100000
 O      16.09300000      31.11200000      20.76800000
 H      15.73200000      31.66700000      21.43300000
 H      16.01500000      30.20500000      21.14100000
 O       6.97800000      28.90400000       9.61700000
 H       6.03000000      28.85300000       9.86600000
 H       6.92700000      29.21900000       8.71500000
 O      15.32600000      27.52000000      10.26100000
 H      15.43800000      28.37200000       9.74000000
 H      15.02800000      27.89100000      11.11900000
 O      20.77400000      31.05800000      19.40500000
 H      20.77200000      30.81400000      20.40700000
 H      20.76800000      32.02100000      19.51200000
 O      14.03100000      31.40600000      11.46900000
 H      13.82300000      32.10100000      12.09500000
 H      14.21300000      30.67400000      12.10300000
 O      12.53800000      21.71400000      16.13500000
 H      11.64300000      21.38300000      15.82700000
 H      12.98000000      21.63900000      15.24500000
 O      10.64800000      24.27200000      11.28200000
 H       9.88300000      23.66800000      11.24800000
 H      10.89400000      24.25700000      10.33200000
 O      15.30300000      32.73600000      16.70200000
 H      15.62900000      32.97500000      15.77800000
 H      15.05800000      31.79600000      16.50600000
 O      20.66200000      20.37300000      16.46200000
 H      20.48500000      21.33800000      16.44000000
 H      19.90300000      20.01700000      16.93800000
 O      12.82100000      32.99700000      13.86400000
 H      11.93400000      33.25100000      13.52400000
 H      13.00100000      33.85600000      14.30300000
 O      10.03300000      33.82200000      13.06300000
 H       9.14900000      33.47300000      12.92200000
 H       9.92500000      34.34300000      13.84300000
 O      15.74300000      24.97000000      20.77100000
 H      15.14500000      25.44700000      20.19200000
 H      15.22500000      24.98700000      21.58200000
 O      14.56200000      26.68000000      19.24800000
 H      14.33900000      27.68400000      19.17300000
 H      13.63400000      26.35400000      19.29900000
 O       8.24000000      25.38900000      20.67300000
 H       8.93000000      24.94500000      20.17400000
 H       7.50400000      24.79700000      20.62100000
 O      13.26300000      28.31900000       6.97700000
 H      13.22700000      29.27600000       7.02600000
 H      13.00100000      28.18200000       6.04400000
 O      13.93200000      23.41500000      17.59100000
 H      13.49100000      22.76000000      16.98800000
 H      13.71700000      23.04600000      18.47100000
 O      19.32800000      29.08600000      18.02800000
 H      19.74800000      29.91900000      18.39000000
 H      19.52200000      28.43600000      18.70200000
 O      19.60800000      30.90500000       9.05000000
 H      20.56800000      30.85000000       8.80600000
 H      19.21100000      30.45100000       8.31400000
 O      18.50200000      25.95100000      18.00500000
 H      17.69200000      25.46900000      17.77500000
 H      18.25500000      26.29200000      18.92400000
 O      11.01300000      31.12800000      10.56100000
 H      11.82000000      31.62300000      10.41700000
 H      11.31100000      30.22700000      10.78000000
 O      11.15400000      28.65300000      16.27500000
 H      11.78800000      29.30500000      15.87000000
 H      11.50700000      27.86100000      15.84400000
 O       6.94300000      33.79500000      15.32500000
 H       7.75900000      34.37600000      15.27900000
 H       7.17400000      33.17100000      14.63300000
 O      15.10700000      31.82200000       6.53100000
 H      15.60400000      31.18900000       5.94400000
 H      15.54300000      31.73800000       7.38100000
 O      18.12700000      21.83400000      17.77100000
 H      18.90300000      22.37800000      17.44900000
 H      17.38800000      22.16700000      17.23100000
 O       6.18300000      21.52100000       6.75400000
 H       5.53200000      20.76800000       6.87800000
 H       6.96900000      21.07400000       7.03500000
 O      10.45800000      27.32200000      20.61000000
 H       9.64900000      26.89000000      20.48800000
 H      10.10000000      28.27100000      20.65500000
 O       8.75200000      30.18000000      11.80800000
 H       8.49700000      29.73500000      10.93700000
 H       9.56200000      30.69200000      11.55600000
 O      10.81400000      23.71700000       8.57300000
 H      10.08700000      23.85500000       7.93700000
 H      11.26900000      24.61300000       8.56800000
 O       8.67100000      31.20200000      15.23000000
 H       8.20500000      30.36400000      15.02300000
 H       8.36900000      31.81400000      14.54700000
 O      10.10600000      27.65600000       7.20500000
 H      10.04100000      27.79900000       8.15800000
 H       9.55500000      26.86400000       7.17700000
 O      16.35400000      20.83000000       7.54200000
 H      16.73400000      21.69900000       7.64600000
 H      16.24600000      20.74700000       6.55600000
 O      10.13500000      20.82800000      15.14100000
 H       9.93600000      19.93400000      14.93200000
 H       9.35300000      21.32600000      14.78600000
 O      17.97800000      33.28100000      19.51000000
 H      18.48600000      33.68000000      20.27000000
 H      17.68300000      32.48300000      19.90700000
 O      10.67500000      34.37300000      17.73900000
 H      10.73800000      33.37500000      17.59400000
 H      11.61700000      34.59200000      17.64200000
 O      12.17900000      27.00900000      14.11400000
 H      13.17500000      27.04600000      13.91500000
 H      12.19900000      26.20500000      14.56500000
 O      19.94400000      33.74700000      15.26000000
 H      19.21600000      33.86100000      14.60000000
 H      19.62500000      32.83200000      15.57900000
 O      19.98700000      32.44000000      11.30600000
 H      19.88900000      31.97200000      10.49100000
 H      20.35100000      31.63400000      11.84200000
 O       7.55700000      32.79700000      12.97400000
 H       7.15000000      33.48800000      12.37300000
 H       7.54100000      32.03700000      12.31700000
 O      17.22600000      28.17300000      16.51000000
 H      17.76700000      27.38900000      16.64000000
 H      17.84800000      28.80200000      16.98900000
 O      15.33300000      30.00000000      16.20100000
 H      16.03100000      29.34000000      16.19500000
 H      14.93500000      29.82700000      17.08300000
 O      16.28100000      24.57100000      17.20400000
 H      15.75200000      25.26300000      17.64900000
 H      15.62600000      23.84600000      17.07700000
 O      19.34300000      23.25100000      13.36400000
 H      19.35900000      23.52600000      12.39900000
 H      18.45700000      23.61300000      13.62700000
 O       7.92000000      21.84700000      17.29800000
 H       7.66400000      20.89900000      16.95000000
 H       7.12200000      22.02100000      17.81900000
 O      13.29600000      34.73900000      17.87900000
 H      13.90600000      34.06000000      17.50300000
 H      13.17200000      34.36600000      18.82400000
 O       8.08600000      30.64600000      17.95400000
 H       8.43900000      31.13600000      17.19300000
 H       8.21000000      29.72700000      17.61200000
 O       8.83700000      32.07900000       8.96000000
 H       9.69500000      31.99900000       9.39900000
 H       9.17100000      32.02000000       8.03800000
 O       8.65300000      21.90200000      21.16700000
 H       8.23700000      20.97600000      21.30700000
 H       9.32800000      21.56200000      20.44900000
 O      11.62100000      24.24000000      14.44700000
 H      11.29000000      24.45000000      13.53600000
 H      10.79900000      23.90300000      14.86600000
 O      12.41700000      25.83500000       7.96700000
 H      13.39800000      25.74800000       8.09100000
 H      12.42100000      26.80900000       7.78700000
 O      18.43900000      23.55600000      10.43900000
 H      17.73500000      24.21600000      10.32200000
 H      17.94200000      22.72200000      10.32700000
