42
XYZ file of cluster: frame_20000_0.c54cb.46c7d - created by MolEdiTo
 O       1.73100000      19.40000000       7.75400000
 H       2.11900000      18.83700000       7.00900000
 H       2.34400000      20.17100000       7.84900000
 O       7.24400000      19.26300000       7.93700000
 H       6.34700000      19.41000000       7.40600000
 H       6.96000000      18.65600000       8.70900000
 O       5.83600000      19.01300000      12.41100000
 H       6.34200000      18.87500000      13.29000000
 H       6.05800000      19.97600000      12.14300000
 O       3.66700000      18.24500000      10.96500000
 H       3.47800000      17.33700000      10.66900000
 H       4.62500000      18.32500000      11.14300000
 O       3.28000000      18.56000000      13.67100000
 H       2.53900000      17.92800000      13.86100000
 H       3.37900000      18.51000000      12.67600000
 O       0.83500000      23.47600000       6.97900000
 H       0.00000000      23.22600000       7.44400000
 H       0.85600000      22.85300000       6.26300000
 O       4.89800000      24.42100000       6.17000000
 H       4.60700000      24.57100000       7.10300000
 H       5.73300000      24.92600000       6.13900000
 O       4.88300000      24.57100000       9.56400000
 H       5.11000000      25.47600000       9.20300000
 H       3.95800000      24.66700000       9.99700000
 O       1.83100000      24.89200000       9.18900000
 H       1.50300000      24.77600000       8.32100000
 H       2.15000000      23.97800000       9.40200000
 O       5.59000000      24.94200000      12.63300000
 H       4.79200000      24.44000000      13.00400000
 H       5.33600000      25.06200000      11.69600000
 O       3.20700000      22.38900000      10.32200000
 H       4.06800000      22.82400000      10.24800000
 H       3.39400000      21.45300000      10.44200000
 O       1.07700000      22.78900000      13.27000000
 H       0.21000000      23.02900000      13.68600000
 H       1.10400000      21.80400000      13.40500000
 O       7.28200000      22.84800000      11.05200000
 H       6.69600000      23.55700000      10.85400000
 H       7.82900000      22.96100000      10.24100000
 O       3.71100000      23.38200000      13.74200000
 H       4.17800000      22.56600000      14.02600000
 H       2.73400000      23.19500000      13.51700000
