45
XYZ file of cluster: frame_20000_2b6a1.9c432.1862a - created by MolEdiTo
 O      10.27600000      19.38000000       5.29400000
 H      10.31200000      18.42200000       4.99800000
 H      10.97500000      19.68600000       4.66500000
 O       9.46500000      15.90900000       9.30200000
 H       9.23500000      15.38800000       8.52100000
 H       9.99200000      16.63300000       8.89000000
 O      10.83600000      16.36700000       4.42200000
 H      11.21700000      15.57900000       4.87600000
 H      10.22100000      16.06300000       3.66800000
 O       6.78800000      14.77000000       6.59900000
 H       6.55100000      14.29200000       5.80400000
 H       7.06300000      15.67600000       6.29600000
 O       6.65000000      16.82800000      10.59500000
 H       7.40900000      16.28900000      10.45500000
 H       6.85400000      17.47900000      11.35300000
 O       4.37600000      20.05300000       4.01500000
 H       5.18900000      20.25300000       3.50600000
 H       4.36300000      19.09100000       4.11800000
 O       5.88300000      16.94700000       4.03800000
 H       5.70500000      17.21100000       4.98100000
 H       6.72100000      16.43000000       4.06500000
 O       4.22300000      17.15600000       6.21400000
 H       4.27300000      17.41300000       7.16800000
 H       3.76900000      16.24400000       6.16600000
 O       4.70100000      20.38200000       6.96500000
 H       4.53700000      19.90900000       6.11300000
 H       4.82800000      21.30200000       6.60500000
 O       6.64800000      20.38800000       2.78100000
 H       7.39700000      20.55300000       2.11500000
 H       6.85200000      20.57400000       3.73600000
 O       9.47800000      18.77700000      10.38900000
 H       9.77700000      19.56800000      10.01800000
 H       9.23300000      19.13100000      11.22200000
 O       7.24400000      19.26300000       7.93700000
 H       6.34700000      19.41000000       7.40600000
 H       6.96000000      18.65600000       8.70900000
 O       7.55600000      20.56400000       5.48000000
 H       7.70800000      20.12900000       6.36500000
 H       8.52900000      20.67200000       5.17800000
 O       7.98900000      14.31900000       3.64600000
 H       7.15300000      13.78000000       3.63100000
 H       8.58500000      13.73100000       4.16100000
 O       8.35400000      17.19600000       6.05300000
 H       7.97200000      18.07100000       6.24200000
 H       8.93600000      16.92600000       6.73600000
