39
XYZ file of cluster: frame_20000_0.0.2166c - created by MolEdiTo
 O       0.83500000       2.02300000       6.97900000
 H       0.00000000       1.77300000       7.44400000
 H       0.85600000       1.40000000       6.26300000
 O       4.89800000       2.96800000       6.17000000
 H       4.60700000       3.11800000       7.10300000
 H       5.73300000       3.47300000       6.13900000
 O       4.88300000       3.11800000       9.56400000
 H       5.11000000       4.02300000       9.20300000
 H       3.95800000       3.21400000       9.99700000
 O       1.83100000       3.43900000       9.18900000
 H       1.50300000       3.32300000       8.32100000
 H       2.15000000       2.52500000       9.40200000
 O       7.27100000       6.64400000      10.31300000
 H       8.06900000       6.14200000      10.69400000
 H       6.87800000       7.30400000      11.02700000
 O       3.23000000       6.54400000       6.78900000
 H       2.79700000       5.81900000       6.31900000
 H       3.85000000       6.19200000       7.44500000
 O       1.60600000       4.80700000       4.79200000
 H       0.68000000       4.55100000       4.80600000
 H       2.04100000       4.03000000       4.35800000
 O       4.67400000       5.89800000       9.44100000
 H       4.04800000       6.47100000      10.04000000
 H       5.53200000       6.12200000       9.79900000
 O       3.20700000       0.93600000      10.32200000
 H       4.06800000       1.37100000      10.24800000
 H       3.39400000       0.00000000      10.44200000
 O       2.87300000       2.88700000       3.52200000
 H       3.60100000       2.87300000       2.89700000
 H       3.30900000       2.49900000       4.31600000
 O       4.66400000       5.83600000       3.32800000
 H       3.84700000       6.44800000       3.49800000
 H       4.31600000       4.99900000       3.69000000
 O       7.28200000       1.39500000      11.05200000
 H       6.69600000       2.10400000      10.85400000
 H       7.82900000       1.50800000      10.24100000
 O       6.67300000       4.68000000       7.76100000
 H       7.32600000       4.14200000       8.28800000
 H       6.90200000       5.56900000       8.04900000
