36
XYZ file of cluster: frame_20000_6aacf.c0969.74207 - created by MolEdiTo
 O      15.62500000      17.68600000      12.49800000
 H      15.53500000      18.63600000      12.36000000
 H      15.10400000      17.49200000      13.28200000
 O      10.62700000      17.74900000      13.60200000
 H      11.23400000      18.08500000      12.90700000
 H      10.88100000      18.24800000      14.40000000
 O      11.52900000      19.86000000      15.71900000
 H      11.50200000      20.68200000      15.29700000
 H      11.29800000      19.96700000      16.69500000
 O      14.54400000      19.72000000      17.40300000
 H      13.72100000      19.18500000      17.58100000
 H      14.25200000      20.67400000      17.47700000
 O      12.28100000      18.87200000      10.13400000
 H      12.45800000      18.06200000      10.81500000
 H      11.29200000      18.82500000      10.07200000
 O      13.60500000      17.70700000      14.51200000
 H      13.04300000      16.92300000      14.70800000
 H      13.03300000      18.38600000      14.97600000
 O      16.17900000      20.66500000      11.27600000
 H      16.41600000      20.93500000      10.30500000
 H      15.72000000      21.45300000      11.54200000
 O      14.19700000      24.32100000      16.92500000
 H      14.71500000      23.71900000      16.33000000
 H      14.25100000      25.23400000      16.60500000
 O      13.19000000      23.21000000      14.15600000
 H      12.76400000      23.96200000      14.64500000
 H      13.38900000      23.54200000      13.26500000
 O      13.17200000      24.41000000      11.68200000
 H      13.83900000      25.02900000      11.44300000
 H      12.76200000      24.10000000      10.86500000
 O      10.08500000      23.03500000      11.85700000
 H      10.79800000      22.99400000      12.53100000
 H       9.26100000      22.85000000      12.33600000
 O      15.98600000      22.61800000      15.32500000
 H      15.10000000      22.39200000      15.03600000
 H      16.38700000      21.67500000      15.52700000
