45
XYZ file of cluster: frame_20000_6aacf.9f24.481b4 - created by MolEdiTo
 O      14.03500000       6.87100000      11.25800000
 H      13.06700000       6.70900000      11.32100000
 H      14.32600000       5.95900000      11.01900000
 O      13.19000000       1.75700000      14.15600000
 H      12.76400000       2.50900000      14.64500000
 H      13.38900000       2.08900000      13.26500000
 O      11.85900000       4.19600000      14.86100000
 H      11.95400000       4.43200000      13.94100000
 H      10.88400000       4.31900000      15.09800000
 O      17.53000000       4.11000000      12.03100000
 H      18.07800000       4.14300000      11.19900000
 H      18.30600000       3.89200000      12.59800000
 O      13.17200000       2.95700000      11.68200000
 H      13.83900000       3.57600000      11.44300000
 H      12.76200000       2.64700000      10.86500000
 O      11.14900000       4.58500000       7.51900000
 H      11.99100000       5.11400000       7.61900000
 H      10.79000000       4.65400000       8.41900000
 O      15.44300000       5.16400000      13.61000000
 H      16.15700000       4.61300000      13.29400000
 H      15.46700000       5.83500000      12.93000000
 O      16.92900000       2.61800000       9.25600000
 H      17.74500000       3.12900000       9.17700000
 H      16.37500000       2.93200000       8.41300000
 O      15.38600000       4.72200000      10.53800000
 H      15.09200000       4.14200000       9.84100000
 H      16.17000000       4.21600000      10.82100000
 O      10.08500000       1.58200000      11.85700000
 H      10.79800000       1.54100000      12.53100000
 H       9.26100000       1.39700000      12.33600000
 O      14.44100000       3.67700000       8.01900000
 H      14.12600000       4.53700000       7.65700000
 H      13.74300000       2.96800000       8.24800000
 O      16.57100000       6.39800000       7.17500000
 H      16.91900000       6.88900000       8.00600000
 H      15.76500000       5.98900000       7.56100000
 O      11.35200000       6.52500000      11.23700000
 H      10.77800000       5.80100000      10.86800000
 H      10.82100000       7.38200000      11.25600000
 O      13.43400000       6.31900000       7.23900000
 H      13.45700000       7.29600000       7.49500000
 H      13.58800000       6.26400000       6.25400000
 O      11.78400000       1.84400000       9.18500000
 H      11.42700000       2.21900000       8.27300000
 H      11.84700000       0.87400000       9.19400000
