39
XYZ file of cluster: frame_20000_bc9ec.ca976.2166c - created by MolEdiTo
 O      20.06900000      20.27100000      10.73100000
 H      20.36900000      21.02100000      11.32100000
 H      20.73200000      20.14400000      10.07700000
 O      18.34400000      20.16100000       4.47500000
 H      19.05900000      20.83100000       4.29400000
 H      17.73400000      20.80200000       4.95200000
 O      19.75300000      18.08000000       8.83100000
 H      20.53500000      18.27600000       8.26200000
 H      19.67500000      19.01200000       9.30000000
 O      19.13100000      17.80200000       6.20900000
 H      19.17200000      18.56700000       5.57200000
 H      18.82500000      18.28800000       7.04300000
 O      17.70400000      20.62000000       7.45200000
 H      16.83200000      20.70600000       6.96900000
 H      17.36100000      20.64200000       8.34300000
 O      16.92900000      24.07100000       9.25600000
 H      17.74500000      24.58200000       9.17700000
 H      16.37500000      24.38500000       8.41300000
 O      19.88000000      23.62900000       3.71200000
 H      19.25700000      24.18800000       3.24200000
 H      20.66500000      23.85000000       3.18600000
 O      22.72400000      19.96400000       4.45000000
 H      22.59000000      20.80100000       3.97400000
 H      23.72200000      19.78400000       4.44600000
 O      22.92600000      19.40000000       7.75400000
 H      23.31400000      18.83700000       7.00900000
 H      23.53900000      20.17100000       7.84900000
 O      22.03000000      23.47600000       6.97900000
 H      21.19500000      23.22600000       7.44400000
 H      22.05100000      22.85300000       6.26300000
 O      24.06800000      24.34000000       3.52200000
 H      24.79600000      24.32600000       2.89700000
 H      24.50400000      23.95200000       4.31600000
 O      23.02600000      24.89200000       9.18900000
 H      22.69800000      24.77600000       8.32100000
 H      23.34500000      23.97800000       9.40200000
 O      24.40200000      22.38900000      10.32200000
 H      25.26300000      22.82400000      10.24800000
 H      24.58900000      21.45300000      10.44200000
