45
XYZ file of cluster: frame_20000_1cfb3.ca02d.c76dc - created by MolEdiTo
 O       7.30400000      17.75100000      18.04500000
 H       6.34900000      17.87300000      17.88000000
 H       7.76900000      18.18300000      17.29700000
 O       8.94100000      19.17000000      19.86800000
 H       8.42800000      18.67800000      19.21600000
 H       8.99500000      18.69100000      20.65800000
 O      11.24100000      20.04400000      18.36800000
 H      10.38100000      19.80100000      18.90100000
 H      11.94200000      19.45400000      18.84700000
 O       4.37600000      20.05300000      25.19000000
 H       5.18900000      20.25300000      24.68100000
 H       4.36300000      19.09100000      25.29300000
 O       3.09300000      18.50500000      22.48000000
 H       2.51600000      17.89000000      22.98400000
 H       3.89100000      17.97100000      22.43600000
 O       6.64800000      20.38800000      23.95600000
 H       7.39700000      20.55300000      23.29000000
 H       6.85200000      20.57400000      24.91100000
 O       8.58500000      17.96100000      23.51300000
 H       7.78300000      17.93900000      24.14200000
 H       9.11000000      18.80300000      23.75100000
 O       9.59300000      20.44100000      23.72800000
 H      10.31200000      20.77400000      23.11200000
 H       9.47300000      21.30300000      24.25800000
 O       3.52200000      22.53700000      19.86000000
 H       3.83700000      23.20500000      20.49400000
 H       3.06600000      21.87100000      20.50000000
 O       6.92100000      22.84300000      19.39300000
 H       7.57500000      22.27000000      18.93000000
 H       6.06800000      22.48900000      18.98100000
 O       4.90100000      24.52100000      18.46200000
 H       5.78000000      24.12400000      18.55100000
 H       4.38300000      24.14600000      19.20000000
 O       9.30200000      24.22200000      25.24000000
 H       8.43500000      24.40900000      25.63100000
 H       9.40500000      24.92000000      24.56800000
 O       2.87300000      24.34000000      24.69700000
 H       3.60100000      24.32600000      24.07200000
 H       3.30900000      23.95200000      25.49100000
 O       5.24000000      24.42100000      23.30500000
 H       5.62200000      23.55700000      23.44800000
 H       5.96200000      25.10500000      23.33700000
 O       7.68900000      25.69400000      22.80900000
 H       8.31900000      26.27900000      22.24800000
 H       7.64800000      24.83800000      22.35600000
