64
XYZ file of cluster: frame_20000_65959.61819.1fd56 - created by MolEdiTo
 O      16.35400000      13.67100000       2.81400000
 H      15.91400000      14.46400000       2.76100000
 H      16.11700000      13.43000000       3.73100000
 O      14.24900000      17.23300000       5.96700000
 H      14.76300000      17.68100000       6.74600000
 H      14.81700000      17.49800000       5.16800000
 O      16.33900000      12.44600000       5.43500000
 H      16.67400000      13.07700000       6.09200000
 H      17.18100000      12.24400000       4.98200000
 O      11.40300000      16.88900000       7.33800000
 H      11.95300000      16.92900000       8.10300000
 H      12.06900000      16.66000000       6.58700000
 O      10.83600000      16.36700000       4.42200000
 H      11.21700000      15.57900000       4.87600000
 H      10.22100000      16.06300000       3.66800000
 O      16.73700000      10.49600000      10.50100000
 H      17.50500000      10.46500000      11.14400000
 H      17.23600000      10.90300000       9.73600000
 O      16.36300000      13.96900000       8.02400000
 H      16.51300000      14.90200000       7.64100000
 H      15.41500000      13.83800000       7.84300000
 O      15.02300000      16.08600000       3.44100000
 H      15.60000000      16.87100000       3.71800000
 H      14.17600000      16.54300000       3.11100000
 O      11.80000000      12.14000000       6.51300000
 H      11.85200000      11.66900000       5.63300000
 H      12.33800000      12.96500000       6.34700000
 O      16.81400000      16.96500000       8.14200000
 H      16.08100000      17.65000000       8.31200000
 H      17.52700000      17.36500000       8.74500000
 O      15.13800000      15.53700000      10.47700000
 H      15.37600000      16.35100000      10.98500000
 H      15.75400000      15.55700000       9.75200000
 O      18.06900000      11.74400000       8.38600000
 H      17.61700000      12.60500000       8.25200000
 H      19.02700000      12.00800000       8.37400000
 C       9.92100000      11.73900000       9.34000000
 C      11.12200000      11.43400000      10.33400000
 C       9.38100000       9.75900000      11.55900000
 H      10.96900000       9.32300000      10.36100000
 H      10.74800000      12.52000000       7.79700000
 O      11.78800000       9.94500000      12.21700000
 O       9.36400000      10.61600000       8.60300000
 O      10.14100000      12.82100000       8.47800000
 C      10.82100000      10.08800000      11.09100000
 O      12.32200000      11.36400000       9.56000000
 H      11.10100000      12.27200000      11.03600000
 O       8.81900000      10.76200000      12.44500000
 O       9.41200000       8.56800000      12.35000000
 H       9.34100000       8.87100000      13.29700000
 H      12.49300000      12.32900000       9.28800000
 H      12.64900000       9.92000000      11.89600000
 O      12.94200000      14.17900000       9.23800000
 H      13.25100000      14.30900000       8.29600000
 H      13.77700000      14.23800000       9.66700000
 O      14.81300000      11.58800000       7.82000000
 H      14.24400000      11.21400000       8.60000000
 H      15.72300000      11.23200000       7.81800000
 O      13.81600000      14.28300000       6.24300000
 H      14.37800000      13.52600000       5.88900000
 H      14.27200000      15.08000000       5.84100000
 O      14.72500000      10.22900000       5.25800000
 H      15.02400000      11.09100000       5.19300000
 H      14.58200000      10.00000000       6.19700000
