42
XYZ file of cluster: frame_20000_40495.c0969.94d04 - created by MolEdiTo
 O       7.30400000      17.75100000      18.04500000
 H       6.34900000      17.87300000      17.88000000
 H       7.76900000      18.18300000      17.29700000
 O       8.96700000      19.48800000      16.43900000
 H       8.93500000      20.43200000      16.13900000
 H       9.93200000      19.35800000      16.29600000
 O      11.24100000      20.04400000      18.36800000
 H      10.38100000      19.80100000      18.90100000
 H      11.94200000      19.45400000      18.84700000
 O       8.94100000      19.17000000      19.86800000
 H       8.42800000      18.67800000      19.21600000
 H       8.99500000      18.69100000      20.65800000
 O      10.62700000      17.74900000      13.60200000
 H      11.23400000      18.08500000      12.90700000
 H      10.88100000      18.24800000      14.40000000
 O      11.52900000      19.86000000      15.71900000
 H      11.50200000      20.68200000      15.29700000
 H      11.29800000      19.96700000      16.69500000
 O       6.48300000      19.26200000      15.21000000
 H       5.58100000      19.55400000      15.72400000
 H       7.12300000      19.95800000      15.58000000
 O      13.60500000      17.70700000      14.51200000
 H      13.04300000      16.92300000      14.70800000
 H      13.03300000      18.38600000      14.97600000
 O      14.54400000      19.72000000      17.40300000
 H      13.72100000      19.18500000      17.58100000
 H      14.25200000      20.67400000      17.47700000
 O      12.59700000      18.22400000      19.94000000
 H      12.36800000      18.44300000      20.89000000
 H      12.65300000      17.23400000      19.93600000
 O      13.19000000      23.21000000      14.15600000
 H      12.76400000      23.96200000      14.64500000
 H      13.38900000      23.54200000      13.26500000
 O       9.73700000      23.43700000      15.66600000
 H      10.08600000      23.74800000      16.55100000
 H       8.90100000      23.91700000      15.44500000
 O       6.92100000      22.84300000      19.39300000
 H       7.57500000      22.27000000      18.93000000
 H       6.06800000      22.48900000      18.98100000
 O      13.93800000      23.61600000      19.58700000
 H      13.54500000      23.98000000      18.75100000
 H      14.81300000      24.05700000      19.49900000
