%chk=cluster_531.chk
%mem=6GB
%nproc=4
#b3lyp/6-311++G** scrf=(cpcm,Solvent=Water) nosymm freq
iop(2/11=1) 
 Geom=(NoDistance,NoAngle)

cluster_531

0 1
 O      17.55500000      10.90700000       4.22500000
 H      17.06400000      11.15700000       5.04600000
 H      17.67600000       9.94600000       4.31200000
 O      19.29500000      14.96600000       5.41700000
 H      18.47000000      14.86500000       4.92600000
 H      19.89600000      14.35600000       4.85500000
 O      17.99500000      17.92800000       7.30800000
 H      18.48200000      17.19100000       7.78000000
 H      17.14600000      17.49600000       7.21100000
 O      20.30400000      12.40200000       4.26400000
 H      20.99500000      12.40100000       4.97200000
 H      20.85900000      12.34200000       3.43900000
 O      17.17700000      11.72000000       8.77800000
 H      17.63200000      11.09000000       8.22000000
 H      17.89900000      12.18300000       9.26900000
 O      17.57800000      13.91600000       3.57900000
 H      16.80500000      13.32500000       3.73000000
 H      18.25000000      13.40200000       3.14000000
 O      18.67200000      10.35200000       6.53300000
 H      18.97300000       9.59000000       6.10600000
 H      19.22500000      11.05300000       6.11300000
 O      18.64000000      14.82500000       8.61900000
 H      19.16100000      14.10400000       8.24900000
 H      18.41100000      14.48900000       9.50900000
 O      23.50100000      13.72500000       5.91100000
 H      23.53500000      14.41800000       6.62700000
 H      24.47500000      13.51600000       5.89500000
 O      22.73500000      17.90500000       5.78900000
 H      22.39200000      17.21700000       6.37900000
 H      23.21400000      18.48900000       6.45700000
 O      24.21000000      11.59600000      10.58700000
 H      24.15400000      11.04700000      11.32500000
 H      24.64000000      11.06700000       9.91000000
 O      21.47700000      12.61700000       8.23400000
 H      21.29700000      11.74400000       8.59900000
 H      22.16500000      12.44400000       7.56600000
 O      22.95500000      15.77700000       8.20500000
 H      22.09800000      15.28900000       8.29000000
 H      22.86300000      16.65500000       8.57200000
 O      22.57900000      14.16400000      10.98900000
 H      23.05200000      13.44100000      10.58500000
 H      23.16700000      14.92300000      10.79700000

