123
XYZ file of cluster: frame_1000_3562.6cf3.a1666 - created by MolEdiTo
 O       8.53300000       9.47700000      26.91500000
 H       7.91900000       8.74500000      27.18800000
 H       8.41800000       9.54100000      25.99000000
 O      10.68700000       8.90900000      24.68000000
 H      10.64000000       9.63700000      25.32600000
 H       9.70200000       8.97500000      24.26700000
 O       7.95600000       3.22200000      22.21700000
 H       8.51800000       2.48600000      22.60800000
 H       6.95700000       2.99000000      22.36700000
 O       4.09500000       4.17600000      28.77300000
 H       4.44700000       5.03000000      28.47000000
 H       4.69500000       3.75900000      29.42600000
 O       1.29000000       3.32700000      30.81400000
 H       0.43100000       3.88400000      30.98700000
 H       1.66700000       3.88500000      30.04700000
 O       5.29400000       4.06100000      21.78100000
 H       5.99500000       4.23300000      21.14800000
 H       4.61600000       4.66400000      21.36200000
 O       4.64500000       9.00500000      30.59500000
 H       3.76000000       8.87300000      30.24100000
 H       4.79100000       9.94300000      30.80900000
 O       3.37300000       4.83000000      25.17000000
 H       4.33500000       5.03000000      25.23800000
 H       3.28400000       3.85000000      25.31400000
 O      10.67000000       8.90900000      29.96600000
 H      11.44100000       8.36700000      29.77300000
 H       9.98900000       8.80600000      29.21500000
 O       8.90100000       1.40500000      30.07100000
 H       9.06800000       2.31600000      30.44500000
 H       8.07800000       1.00900000      30.48700000
 O       5.36400000       7.48600000      23.39500000
 H       6.12200000       7.94600000      23.08700000
 H       5.73200000       6.69300000      23.82500000
 O       1.46000000       3.81100000      27.39300000
 H       2.21900000       4.08700000      27.97300000
 H       1.92100000       3.32600000      26.70300000
 O       3.73300000       2.01700000      25.75000000
 H       4.46100000       1.97600000      26.46400000
 H       3.28800000       1.17300000      26.02900000
 O       1.08600000       8.73300000      21.60300000
 H       1.45000000       8.12500000      20.91400000
 H       1.84700000       9.07100000      21.97700000
 O       3.15600000       9.32000000      23.52900000
 H       3.96800000       8.66400000      23.47000000
 H       2.91900000       9.17400000      24.46300000
 O       5.89300000       9.00400000      27.72900000
 H       5.80400000       9.78400000      27.14800000
 H       6.38400000       9.29700000      28.54700000
 O       8.76100000       5.91500000      21.69600000
 H       9.74700000       5.87000000      21.47300000
 H       8.50900000       4.91300000      21.72300000
 O       1.10600000       6.55000000      25.37300000
 H       1.91200000       6.40100000      24.84700000
 H       1.41300000       7.32500000      25.92500000
 O      10.81100000       5.05800000      29.57500000
 H      10.89000000       4.20500000      29.13200000
 H      10.40900000       5.54600000      28.78800000
 O       7.46300000      10.17000000      29.81300000
 H       8.27300000      10.36000000      29.38100000
 H       7.31100000      10.99900000      30.33700000
 O       6.50100000       1.00200000      23.88200000
 H       6.15300000       1.29500000      22.99000000
 H       5.62300000       0.88300000      24.36800000
 O       7.06200000       3.98700000      28.45800000
 H       6.86500000       3.85800000      29.46600000
 H       7.82100000       4.55900000      28.39300000
 O       1.56900000      10.95300000      21.09200000
 H       1.04500000      10.15700000      21.30300000
 H       0.94900000      11.63400000      20.94200000
 O       2.12800000      10.70100000      28.41900000
 H       1.70800000      11.20100000      27.64600000
 H       2.04600000       9.78600000      28.29600000
 O       2.21500000       5.12500000      22.50600000
 H       2.68000000       5.14000000      23.40000000
 H       2.46700000       4.17200000      22.27000000
 O       9.60500000       3.17500000      25.02700000
 H      10.54600000       3.10300000      25.11100000
 H       9.62400000       4.03400000      24.51000000
 O       4.17800000       1.48700000      30.13600000
 H       3.31700000       1.88100000      29.87300000
 H       4.61300000       1.47500000      29.25300000
 O       5.85000000       1.52100000      27.24800000
 H       6.24000000       2.46100000      27.28000000
 H       6.40700000       1.00100000      26.64100000
 O      10.17800000       6.13700000      24.59800000
 H       9.91500000       5.93100000      23.70100000
 H      10.52500000       7.03800000      24.58000000
 O       9.00300000       7.45100000      29.28400000
 H       9.38400000       7.00100000      28.51600000
 H       9.19100000       6.84000000      29.92700000
 O       6.37500000       7.95000000      30.48500000
 H       7.16700000       7.89100000      29.90400000
 H       5.91700000       8.75000000      30.14400000
 O       5.87900000       6.68400000      27.85700000
 H       5.86600000       7.44900000      28.45200000
 H       6.78400000       6.72500000      27.43500000
 O       7.71700000       9.47900000      24.36700000
 H       7.77500000       8.58300000      23.88900000
 H       6.89300000       9.93500000      24.04400000
 O       2.17600000       9.05400000      29.00500000
 H       2.50800000       8.13400000      29.26100000
 H       1.46300000       9.27100000      29.73500000
 O       7.92100000       8.57200000      22.59300000
 H       8.46400000       7.90700000      22.15100000
 H       7.25200000       8.73100000      21.90200000
 O      10.62500000      10.52600000      21.69100000
 H      10.93000000      11.41400000      21.84400000
 H       9.68300000      10.62300000      21.94000000
 O       2.59800000       2.54200000      21.33600000
 H       1.94400000       2.99300000      20.78400000
 H       2.79500000       1.74800000      20.75900000
 O       3.34700000       8.56800000      26.33300000
 H       4.11700000       7.99400000      26.55400000
 H       3.22000000       9.00600000      27.21200000
 O       4.82600000      10.65000000      21.60700000
 H       3.83100000      10.35200000      21.59200000
 H       5.10000000      10.32300000      20.76700000
 O       6.34400000       4.86600000      25.61400000
 H       6.87900000       4.15500000      25.29600000
 H       6.36900000       4.88900000      26.66300000
 O       9.42600000       5.23100000      27.16700000
 H       9.38000000       4.28900000      26.99400000
 H       9.43800000       5.64600000      26.23800000
