108
XYZ file of cluster: frame_1000_758a.6cf3.738d1 - created by MolEdiTo
 O       8.53300000       9.47700000      26.91500000
 H       7.91900000       8.74500000      27.18800000
 H       8.41800000       9.54100000      25.99000000
 O      10.68700000       8.90900000      24.68000000
 H      10.64000000       9.63700000      25.32600000
 H       9.70200000       8.97500000      24.26700000
 O       7.95600000       3.22200000      22.21700000
 H       8.51800000       2.48600000      22.60800000
 H       6.95700000       2.99000000      22.36700000
 O       1.15800000       6.43000000      19.93600000
 H       1.58200000       5.78000000      19.38200000
 H       1.42600000       6.13200000      20.90500000
 O       6.01600000       8.57300000      19.86600000
 H       5.99100000       7.62800000      19.77000000
 H       5.03500000       8.80500000      19.81400000
 O       5.29400000       4.06100000      21.78100000
 H       5.99500000       4.23300000      21.14800000
 H       4.61600000       4.66400000      21.36200000
 O       3.37300000       4.83000000      25.17000000
 H       4.33500000       5.03000000      25.23800000
 H       3.28400000       3.85000000      25.31400000
 O       5.36400000       7.48600000      23.39500000
 H       6.12200000       7.94600000      23.08700000
 H       5.73200000       6.69300000      23.82500000
 O       3.73300000       2.01700000      25.75000000
 H       4.46100000       1.97600000      26.46400000
 H       3.28800000       1.17300000      26.02900000
 O       7.65700000       9.69400000      19.75400000
 H       7.11700000       8.86100000      19.62400000
 H       6.98300000      10.27600000      20.18900000
 O       1.08600000       8.73300000      21.60300000
 H       1.45000000       8.12500000      20.91400000
 H       1.84700000       9.07100000      21.97700000
 O       3.15600000       9.32000000      23.52900000
 H       3.96800000       8.66400000      23.47000000
 H       2.91900000       9.17400000      24.46300000
 O       8.76100000       5.91500000      21.69600000
 H       9.74700000       5.87000000      21.47300000
 H       8.50900000       4.91300000      21.72300000
 O       1.10600000       6.55000000      25.37300000
 H       1.91200000       6.40100000      24.84700000
 H       1.41300000       7.32500000      25.92500000
 O       3.92200000       1.63600000      18.02500000
 H       3.80500000       2.45600000      17.37000000
 H       4.77600000       1.89700000      18.40300000
 O       6.54000000       2.95200000      16.18100000
 H       5.67800000       3.35800000      15.97800000
 H       6.42500000       2.47300000      17.06900000
 O       6.50100000       1.00200000      23.88200000
 H       6.15300000       1.29500000      22.99000000
 H       5.62300000       0.88300000      24.36800000
 O       5.78700000       7.85300000      16.25600000
 H       5.85300000       8.63000000      16.85700000
 H       6.74100000       7.86800000      15.83400000
 O       1.56900000      10.95300000      21.09200000
 H       1.04500000      10.15700000      21.30300000
 H       0.94900000      11.63400000      20.94200000
 O       5.64900000       5.91300000      18.69400000
 H       6.37900000       5.24100000      18.53900000
 H       5.59900000       6.32700000      17.75000000
 O       9.60500000       3.17500000      25.02700000
 H      10.54600000       3.10300000      25.11100000
 H       9.62400000       4.03400000      24.51000000
 O       2.21500000       5.12500000      22.50600000
 H       2.68000000       5.14000000      23.40000000
 H       2.46700000       4.17200000      22.27000000
 O       3.41200000       8.58200000      18.91300000
 H       3.82000000       9.41600000      18.53200000
 H       2.41100000       8.68600000      18.63000000
 O      10.17800000       6.13700000      24.59800000
 H       9.91500000       5.93100000      23.70100000
 H      10.52500000       7.03800000      24.58000000
 O       7.71700000       9.47900000      24.36700000
 H       7.77500000       8.58300000      23.88900000
 H       6.89300000       9.93500000      24.04400000
 O       9.94400000      10.47100000      18.19500000
 H      10.67100000      10.71700000      18.79100000
 H       9.28200000       9.99100000      18.75800000
 O       7.92100000       8.57200000      22.59300000
 H       8.46400000       7.90700000      22.15100000
 H       7.25200000       8.73100000      21.90200000
 O       1.94000000       4.04000000      17.50700000
 H       1.59100000       4.67200000      16.89100000
 H       1.23500000       3.79200000      18.14500000
 O      10.62500000      10.52600000      21.69100000
 H      10.93000000      11.41400000      21.84400000
 H       9.68300000      10.62300000      21.94000000
 O       2.59800000       2.54200000      21.33600000
 H       1.94400000       2.99300000      20.78400000
 H       2.79500000       1.74800000      20.75900000
 O       3.92300000       3.69200000      15.55500000
 H       3.31100000       3.84900000      16.29000000
 H       3.39900000       3.18100000      14.86200000
 O       8.24100000       4.82100000      18.69100000
 H       8.97700000       5.30700000      18.97200000
 H       8.10700000       5.05100000      17.78000000
 O       4.82600000      10.65000000      21.60700000
 H       3.83100000      10.35200000      21.59200000
 H       5.10000000      10.32300000      20.76700000
 O       6.34400000       4.86600000      25.61400000
 H       6.87900000       4.15500000      25.29600000
 H       6.36900000       4.88900000      26.66300000
 O       9.71700000       8.43500000      18.27300000
 H      10.63100000       8.75400000      18.31600000
 H       9.35400000       9.02200000      17.55500000
 O       6.34100000       2.38000000      19.33000000
 H       7.23400000       2.82000000      19.39100000
 H       6.49200000       1.58600000      19.89500000
