102
XYZ file of cluster: frame_1000_235e4.a1eb8.a04bb - created by MolEdiTo
 O      12.52200000      23.53400000      20.61700000
 H      12.58700000      24.50600000      20.61900000
 H      12.19800000      23.38200000      21.52900000
 O      13.00100000      22.10600000      29.27700000
 H      12.06300000      22.23300000      29.41200000
 H      13.50600000      22.82200000      29.68500000
 O      14.43700000      22.86000000      23.35700000
 H      14.62400000      22.41000000      22.52200000
 H      13.75100000      22.37100000      23.79100000
 O       8.06200000      23.73400000      22.92200000
 H       7.32500000      23.13000000      23.03300000
 H       7.74700000      24.19200000      22.10600000
 O      10.33400000      24.03500000      27.20200000
 H      10.03100000      23.27300000      26.69400000
 H       9.74200000      24.13000000      27.97200000
 O       5.37600000      25.90900000      21.78900000
 H       4.63200000      25.43300000      22.18600000
 H       5.01500000      26.26300000      20.94800000
 O      10.04400000      20.99700000      24.02200000
 H      10.28100000      21.67900000      24.70100000
 H       9.37600000      21.38900000      23.45100000
 O       9.21100000      26.75900000      30.85200000
 H       9.97800000      26.74400000      30.29300000
 H       8.82800000      25.91400000      30.61300000
 O       9.79500000      28.28700000      24.24000000
 H       9.60900000      27.33600000      24.47300000
 H       9.39800000      28.84900000      24.95700000
 O      12.74400000      21.83700000      25.14300000
 H      12.29100000      22.62400000      25.50600000
 H      12.49200000      21.06800000      25.70100000
 O      12.95600000      26.51400000      25.75100000
 H      12.33500000      27.13700000      25.26200000
 H      13.90100000      26.77100000      25.58100000
 O      13.06000000      29.14000000      28.50300000
 H      12.77200000      28.36500000      28.11500000
 H      13.74100000      28.96600000      29.21400000
 O      14.44400000      30.62100000      24.63700000
 H      14.14300000      29.85500000      25.15300000
 H      14.27700000      31.47000000      25.11100000
 O      16.25700000      27.14300000      28.79700000
 H      15.34400000      26.96200000      28.98000000
 H      16.50800000      27.54000000      29.70400000
 O       8.73600000      25.32800000      25.33300000
 H       8.20700000      24.81100000      24.66400000
 H       9.28000000      24.59800000      25.87400000
 O      12.74900000      25.38800000      27.94100000
 H      13.09000000      25.78500000      27.16700000
 H      11.93500000      24.91600000      27.66800000
 O      12.60100000      28.83000000      24.90500000
 H      12.35000000      29.06500000      25.83100000
 H      11.81200000      29.12200000      24.38100000
 O      13.73700000      21.15200000      26.65900000
 H      12.82800000      21.46700000      26.34500000
 H      13.50700000      21.03800000      27.59400000
 O       6.98800000      26.51800000      27.43300000
 H       7.80800000      26.97300000      27.51900000
 H       7.14100000      25.81900000      26.81200000
 O       9.77700000      30.09400000      22.25300000
 H       9.84100000      29.61400000      23.07000000
 H       9.32600000      29.47000000      21.66600000
 O       8.43600000      28.94200000      27.81900000
 H       8.50700000      29.42000000      26.93200000
 H       7.90000000      29.52900000      28.40800000
 O       8.86000000      30.37200000      25.58000000
 H       8.14800000      30.52100000      24.93400000
 H       9.56900000      31.03100000      25.30400000
 O       8.36200000      22.43800000      26.33900000
 H       7.56200000      22.74400000      25.85200000
 H       8.10800000      21.54000000      26.82900000
 O       8.52800000      23.86200000      29.54300000
 H       8.60700000      23.49200000      30.48700000
 H       7.77000000      23.46400000      29.06800000
 O      15.36400000      27.05000000      24.88100000
 H      15.58500000      27.03300000      23.92800000
 H      15.81900000      27.84200000      25.11100000
 O       5.28800000      23.03900000      22.54100000
 H       4.56900000      22.43600000      22.68400000
 H       5.53100000      23.00900000      21.63700000
 O      11.54800000      23.17200000      29.73700000
 H      11.98300000      24.05700000      29.70500000
 H      10.59100000      23.30700000      29.82000000
 O      14.13800000      30.28000000      21.60000000
 H      13.78400000      30.57300000      22.53200000
 H      13.36700000      29.94400000      21.10600000
 O      11.52100000      28.11700000      29.27900000
 H      10.75300000      28.24700000      28.64400000
 H      11.80400000      29.02500000      29.37500000
 O      12.21100000      26.98500000      21.41400000
 H      12.10000000      26.86100000      22.37000000
 H      11.67400000      27.73700000      21.14200000
 O      15.31800000      23.39900000      25.92400000
 H      15.38300000      23.34000000      24.92600000
 H      14.72100000      22.72300000      26.16400000
 O       4.89600000      25.78000000      28.81500000
 H       4.61600000      24.97100000      28.34000000
 H       5.72000000      26.07100000      28.33000000
 O       6.02900000      23.82500000      25.04800000
 H       5.56000000      24.68300000      25.13600000
 H       5.53300000      23.40600000      24.26100000
 O      13.43200000      26.46000000      29.98400000
 H      12.66400000      26.05300000      29.47000000
 H      13.79600000      25.63800000      30.36300000
