150
XYZ file of cluster: frame_1000_9e9.23c23.23683 - created by MolEdiTo
 O       0.86000000      10.05700000      11.50500000
 H       0.39600000      10.21200000      10.66000000
 H       0.08000000      10.23100000      12.05900000
 O       4.67100000       9.05700000       6.48100000
 H       4.79100000       9.64800000       7.23800000
 H       5.24000000       8.35900000       6.71800000
 O       9.18100000      15.01600000       9.10800000
 H       9.38800000      15.98200000       9.23200000
 H       8.78900000      15.08200000       8.25200000
 O       7.71700000      14.50400000       6.73200000
 H       8.03100000      14.89200000       5.85900000
 H       8.11300000      13.70200000       6.64500000
 O       2.30900000       8.73200000      14.84900000
 H       1.63800000       8.00100000      14.94600000
 H       1.75200000       9.30900000      15.35200000
 O       4.22700000      12.84000000      13.31100000
 H       4.53900000      13.33600000      12.53000000
 H       3.55900000      13.41100000      13.73800000
 O       3.08600000       6.17700000       6.85300000
 H       3.31800000       7.10500000       6.94100000
 H       3.92600000       5.73700000       6.78000000
 O       8.55400000      11.50300000      15.27600000
 H       8.32800000      11.07200000      14.43400000
 H       8.75000000      12.41300000      15.00700000
 O       6.76900000      12.72500000       9.82200000
 H       7.24800000      12.35300000      10.64600000
 H       6.93800000      13.68500000       9.83300000
 O       7.84100000       9.50200000      12.79300000
 H       7.39500000       8.79000000      12.22700000
 H       8.01600000      10.14800000      12.08100000
 O       1.53100000      13.84900000      15.66400000
 H       1.19900000      14.10500000      16.49100000
 H       2.55600000      13.82500000      15.76500000
 O       8.54800000       6.28800000      11.16500000
 H       9.39200000       6.05400000      11.68900000
 H       8.98800000       6.40600000      10.31000000
 O       6.73000000      14.74600000      11.95800000
 H       5.95300000      15.26900000      11.92500000
 H       7.45100000      15.36200000      12.26800000
 O       2.04500000      12.89800000      10.97500000
 H       2.51400000      13.03700000      10.14000000
 H       2.53300000      12.08400000      11.35600000
 O       9.78800000      13.88000000      14.10700000
 H       9.64400000      14.77700000      14.54600000
 H      10.71400000      13.68200000      14.33800000
 O       1.36800000       5.99400000      15.50500000
 H       0.40000000       5.91000000      15.30600000
 H       1.82700000       5.95700000      14.65300000
 O       1.83300000      15.01900000       8.81200000
 H       1.40300000      15.42100000       8.05800000
 H       1.37300000      14.21100000       8.96100000
 O       8.69400000      12.01000000      11.97700000
 H       8.90700000      12.83200000      12.44100000
 H       9.35300000      11.88300000      11.20300000
 O       3.74300000      12.30700000       8.89300000
 H       4.64700000      11.87200000       8.98600000
 H       3.14300000      11.56100000       8.89000000
 O       6.87900000      14.21800000      14.81300000
 H       7.68300000      14.45900000      15.37400000
 H       7.13700000      14.42400000      13.85300000
 O       8.05500000      11.82600000       5.74300000
 H       8.40000000      11.57300000       4.83400000
 H       8.20400000      12.80600000       5.72000000
 O       7.99400000       7.27200000       5.33000000
 H       8.69900000       6.63200000       5.02000000
 H       7.49100000       7.67300000       4.55400000
 O       1.33200000      15.65000000      11.68600000
 H       1.40200000      15.77100000      10.68900000
 H       2.19100000      15.07600000      11.87000000
 O       7.37600000      10.02300000       8.45700000
 H       6.92600000      10.68200000       8.92500000
 H       7.11600000       9.16200000       8.92600000
 O      10.16000000       6.11000000       8.72100000
 H       9.82700000       6.73500000       8.01300000
 H      10.81300000       6.68800000       9.19500000
 O       5.31800000      10.35100000      12.92800000
 H       6.21900000      10.13700000      13.17300000
 H       5.13500000      11.29500000      13.31900000
 O       4.91700000       6.61500000      10.80900000
 H       4.78300000       7.12100000      11.66100000
 H       4.11800000       6.05000000      10.76300000
 O      10.56300000       6.88500000      15.58700000
 H      10.63400000       6.93800000      14.63100000
 H      10.03200000       7.64200000      15.67400000
 O       6.25800000       5.16300000      14.40200000
 H       5.57400000       4.63700000      13.94600000
 H       5.78000000       5.83500000      15.00400000
 O       7.96900000       7.44300000      13.78700000
 H       7.42400000       6.62700000      13.72800000
 H       8.49600000       7.51200000      12.93500000
 O       5.74900000      11.51200000       6.62500000
 H       6.35500000      11.65600000       5.83600000
 H       6.27500000      11.15600000       7.33900000
 O       9.14200000       8.47300000      15.64100000
 H       9.05700000       9.42500000      15.57000000
 H       8.60300000       8.11500000      14.89500000
 O       8.34900000       9.37400000       7.15700000
 H       7.91000000      10.08800000       6.70300000
 H       8.19100000       9.58200000       8.05200000
 O       5.50400000      16.05100000       7.53500000
 H       6.20300000      15.34000000       7.60000000
 H       4.87100000      15.59100000       6.95100000
 O       8.92500000       7.63600000       6.92000000
 H       8.71000000       7.33700000       6.00800000
 H       8.51600000       8.50600000       6.98000000
 O       5.95500000       6.75500000       6.32300000
 H       6.30400000       6.20000000       5.52100000
 H       6.50500000       6.33400000       7.09100000
 O       6.75800000       5.64200000       8.81500000
 H       6.39500000       5.95500000       9.64900000
 H       7.74500000       5.64600000       9.03800000
 O      10.23200000       9.23100000       4.99200000
 H      10.63300000       9.48800000       5.84600000
 H       9.26900000       9.23100000       5.31600000
 O       0.99700000       6.39800000       6.22700000
 H       0.29000000       6.30700000       7.01200000
 H       1.83900000       6.43600000       6.83400000
 O       4.05600000      13.89500000       6.33700000
 H       3.17200000      13.63600000       6.73900000
 H       4.60100000      13.12700000       6.54000000
 O       3.33800000       9.74900000      10.11400000
 H       3.99600000       9.34000000      10.66900000
 H       2.45800000       9.45700000      10.53500000
 O       0.84700000       7.39000000      12.15400000
 H       0.15600000       7.92100000      12.43200000
 H       1.31600000       7.92800000      11.49000000
 O       4.16200000       8.41800000      12.81100000
 H       3.66300000       8.17800000      13.66000000
 H       4.28100000       9.33700000      13.01200000
 O       2.33000000       5.12200000      11.21300000
 H       1.90100000       5.99500000      11.49600000
 H       2.08800000       4.99600000      10.31600000
 O       5.18900000      15.07800000       4.96000000
 H       5.22800000      14.70600000       5.82200000
 H       5.77000000      14.47300000       4.56600000
 O       4.14700000      14.82200000      10.69200000
 H       4.44500000      13.99900000      10.35700000
 H       3.68500000      15.33000000       9.99500000
 O       2.99700000       8.32000000       7.75500000
 H       3.38600000       9.07200000       8.29300000
 H       2.02400000       8.40600000       7.96800000
 O      10.67300000       8.62400000      12.63400000
 H      10.41800000       9.35700000      12.10100000
 H      11.63000000       8.73200000      12.54400000
 O       6.15800000       8.92800000       9.73600000
 H       5.83700000       8.66300000       8.86900000
 H       5.89900000       8.09500000      10.31400000
 O       1.21800000       9.28100000       5.61400000
 H       2.12300000       9.67400000       5.95900000
 H       1.28500000       8.35000000       5.90500000
