735
XYZ file of cluster: frame_5000_4f092.72e50.9afcb - created by MolEdiTo
 O      38.06800000      25.12500000      32.28100000
 H      38.40200000      26.00200000      31.95100000
 H      37.75300000      25.47800000      33.15400000
 O      18.35600000      31.01400000      34.19900000
 H      17.58900000      30.40400000      34.36700000
 H      17.76800000      31.82900000      34.15400000
 O      23.59900000      27.84300000      34.30700000
 H      23.93800000      28.24800000      35.11400000
 H      22.65500000      27.82700000      34.51900000
 O      31.97300000      22.92500000      29.24500000
 H      31.31800000      22.57600000      28.63000000
 H      32.84100000      22.89100000      28.69300000
 O      32.95900000      25.38900000      40.51900000
 H      32.21400000      24.78400000      40.24700000
 H      32.43300000      26.07400000      40.91700000
 O      29.72100000      38.95700000      28.84700000
 H      30.25100000      38.43700000      28.17000000
 H      28.85100000      38.45900000      28.72600000
 O      15.80800000      27.46600000      37.84900000
 H      16.05000000      28.42300000      37.75500000
 H      16.12500000      27.16300000      36.95600000
 O      22.78400000      31.85600000      38.61500000
 H      22.84200000      32.10100000      37.70800000
 H      23.70400000      31.70900000      38.90500000
 O      28.45000000      35.32400000      29.48700000
 H      28.28200000      34.43900000      29.09000000
 H      28.32000000      35.14800000      30.42900000
 O      18.10800000      22.28900000      33.10700000
 H      18.08700000      22.82700000      33.95200000
 H      18.33800000      23.06000000      32.50500000
 O      24.92600000      31.28400000      32.66000000
 H      24.25400000      31.48400000      33.30200000
 H      24.51500000      31.68900000      31.84800000
 O      34.06900000      29.13500000      31.84300000
 H      33.55000000      29.23200000      31.07300000
 H      34.25700000      28.16300000      31.81900000
 O      23.17100000      25.65700000      29.29300000
 H      23.47200000      26.55700000      29.35800000
 H      22.62700000      25.59700000      30.12300000
 O      29.46500000      29.63100000      38.39400000
 H      29.65700000      28.69100000      38.36400000
 H      28.47200000      29.52200000      38.46700000
 O      25.81300000      28.14800000      29.59200000
 H      25.11300000      27.99000000      30.26500000
 H      26.57000000      27.82300000      30.10300000
 O      18.68500000      19.93100000      32.18100000
 H      18.83200000      19.61600000      33.10800000
 H      18.38800000      20.82900000      32.39900000
 O      21.73800000      33.82100000      29.66800000
 H      21.40700000      33.14000000      29.11300000
 H      20.94600000      34.45400000      29.55400000
 O      34.58600000      35.25400000      38.21800000
 H      35.57300000      35.10700000      38.13300000
 H      34.61700000      36.20000000      38.53900000
 O      26.28800000      34.43900000      35.37300000
 H      26.24900000      35.17500000      36.06000000
 H      26.84700000      33.78900000      35.80900000
 O      23.60900000      28.39200000      31.23600000
 H      23.73300000      28.42500000      32.24600000
 H      22.83500000      28.97700000      31.16800000
 O      38.52500000      33.15300000      32.03100000
 H      37.58400000      33.09400000      32.26900000
 H      38.39200000      33.36700000      31.09300000
 O      28.46200000      32.82900000      28.57000000
 H      29.39500000      32.73600000      28.86400000
 H      28.65700000      32.81400000      27.59900000
 O      39.14100000      29.81400000      29.68900000
 H      39.77600000      30.56000000      29.84200000
 H      38.56900000      29.99500000      30.44400000
 O      15.42700000      35.73600000      28.39000000
 H      16.14300000      36.21600000      27.88600000
 H      15.13100000      36.42000000      28.95800000
 O      16.52300000      36.24800000      33.72400000
 H      16.16500000      36.35600000      34.65400000
 H      16.39400000      37.13300000      33.40200000
 O      36.74500000      33.78900000      29.59300000
 H      36.01000000      33.41700000      30.12600000
 H      36.31100000      33.83400000      28.74900000
 O      30.19800000      27.01600000      38.34600000
 H      29.35600000      26.80200000      38.84700000
 H      29.96400000      26.49500000      37.59300000
 O      27.29300000      37.43400000      28.38900000
 H      27.88000000      36.58500000      28.34100000
 H      26.47200000      37.07200000      27.96300000
 O      16.55900000      26.37400000      40.56400000
 H      15.78700000      26.56200000      41.15300000
 H      16.08700000      26.62000000      39.70700000
 O      30.81700000      24.18800000      39.28000000
 H      29.84800000      24.03500000      39.12400000
 H      31.17000000      23.48000000      38.74000000
 O      15.00600000      37.90000000      30.43200000
 H      15.51400000      38.47100000      29.98200000
 H      15.24900000      37.96600000      31.36300000
 O      35.33500000      24.68500000      29.36400000
 H      36.21500000      24.53900000      29.63600000
 H      35.17500000      24.04200000      28.64400000
 O      21.98000000      37.83100000      35.87600000
 H      21.91300000      37.01700000      36.47200000
 H      21.89900000      37.39200000      34.97400000
 O      16.01200000      38.73000000      32.89400000
 H      15.36600000      39.35600000      32.46800000
 H      16.48400000      39.40800000      33.46200000
 O      32.81500000      34.47300000      28.57000000
 H      33.07300000      35.06200000      27.84000000
 H      33.19800000      34.97300000      29.32700000
 O      26.45600000      30.61500000      37.83900000
 H      26.57200000      31.30800000      37.16600000
 H      25.79400000      31.03700000      38.40400000
 O      21.73000000      24.39400000      36.63700000
 H      21.97100000      25.06100000      35.93000000
 H      22.39900000      23.76700000      36.53700000
 O      22.90800000      28.91300000      37.14400000
 H      23.40600000      28.60500000      37.90700000
 H      21.99000000      28.65800000      37.44900000
 O      35.13000000      40.37200000      34.86200000
 H      35.12400000      39.59800000      35.47800000
 H      36.12600000      40.45000000      34.80000000
 O      26.77100000      23.62900000      37.72000000
 H      27.49400000      23.14600000      38.11500000
 H      27.24300000      24.23900000      37.12800000
 O      15.97700000      24.04600000      27.19400000
 H      15.20500000      24.43000000      26.70000000
 H      15.77900000      24.34800000      28.05200000
 O      16.92900000      25.94400000      35.64500000
 H      17.19200000      25.00400000      35.66800000
 H      16.28700000      25.91700000      34.85300000
 O      15.63600000      28.05000000      33.21100000
 H      15.66700000      27.06500000      33.24200000
 H      16.08200000      28.30400000      32.41100000
 O      31.30400000      22.07100000      34.85200000
 H      31.18800000      21.28400000      34.30300000
 H      31.27100000      21.66900000      35.74300000
 O      37.31200000      30.16200000      35.12500000
 H      36.92000000      29.49900000      35.69600000
 H      36.80200000      30.97800000      35.41900000
 O      18.55200000      25.02300000      27.60500000
 H      17.69400000      24.58600000      27.49400000
 H      18.25000000      25.93500000      27.84000000
 O      31.27200000      32.39400000      28.53600000
 H      31.79300000      33.25500000      28.59600000
 H      31.42200000      32.16600000      27.60900000
 O      24.77000000      34.11900000      40.62100000
 H      25.00100000      34.50800000      41.47800000
 H      23.87400000      34.57300000      40.51100000
 O      16.49700000      33.01100000      34.20400000
 H      15.76100000      33.47800000      33.81200000
 H      16.19900000      32.94200000      35.11000000
 O      19.57400000      38.87200000      35.52700000
 H      19.00600000      39.14400000      36.23700000
 H      20.43600000      38.62800000      35.98900000
 O      18.56500000      30.48600000      28.21700000
 H      18.71700000      31.43300000      28.36300000
 H      17.63000000      30.47800000      27.96600000
 O      20.42300000      27.79700000      38.19900000
 H      20.00800000      27.47200000      37.40200000
 H      19.73900000      28.44000000      38.52300000
 O      31.58300000      21.26300000      39.70000000
 H      32.01600000      20.39100000      39.61000000
 H      31.97100000      21.58800000      40.55400000
 O      25.83300000      39.57200000      29.84100000
 H      26.04600000      38.61800000      29.84500000
 H      25.30400000      39.65700000      30.62200000
 O      36.74000000      33.19000000      36.61000000
 H      37.34400000      32.80400000      37.27800000
 H      36.97500000      34.11400000      36.69700000
 O      26.36700000      38.78400000      36.89200000
 H      26.39100000      39.57200000      37.49900000
 H      25.53000000      39.03100000      36.41500000
 O      17.46700000      27.42100000      28.35400000
 H      18.26900000      27.96100000      28.51600000
 H      17.25200000      27.81100000      27.46500000
 O      28.67700000      39.36700000      32.39900000
 H      28.91700000      39.23200000      33.35100000
 H      29.58300000      39.53500000      32.03100000
 O      20.84100000      31.41900000      33.47700000
 H      20.66200000      32.20500000      32.90200000
 H      19.91100000      31.30400000      33.80700000
 O      23.94200000      40.02200000      35.87200000
 H      23.28100000      39.37700000      35.67400000
 H      23.53900000      40.42100000      36.70200000
 O      20.84800000      22.77600000      33.35700000
 H      21.13500000      22.07200000      32.75900000
 H      20.29000000      22.27600000      33.93200000
 O      20.99600000      26.44300000      34.39400000
 H      20.41300000      27.02100000      34.93200000
 H      20.45400000      26.37700000      33.56800000
 O      37.45400000      39.17200000      32.97700000
 H      37.73100000      38.90500000      32.04100000
 H      36.54900000      39.39400000      32.74100000
 O      25.84500000      36.35900000      37.33100000
 H      26.08600000      37.29100000      37.14700000
 H      25.03600000      36.50200000      37.86200000
 O      18.14800000      20.81100000      27.35600000
 H      17.44900000      20.77200000      28.03000000
 H      18.21200000      19.88100000      27.08900000
 O      31.77900000      26.32500000      35.02400000
 H      31.86500000      26.38900000      34.03400000
 H      32.29000000      25.42600000      35.09500000
 O      38.18800000      21.58900000      30.27300000
 H      37.27900000      21.67700000      30.59100000
 H      38.67200000      21.72500000      31.11200000
 O      38.97700000      27.73800000      31.47500000
 H      38.93400000      28.49300000      32.13000000
 H      38.95600000      28.27600000      30.67000000
 O      16.47300000      34.27700000      30.60200000
 H      15.97700000      34.40000000      29.75300000
 H      15.72700000      34.19700000      31.23900000
 O      38.31200000      32.43400000      38.58400000
 H      39.27000000      32.24800000      38.51100000
 H      38.25600000      32.91200000      39.41300000
 O      22.88300000      38.02300000      30.33000000
 H      23.62600000      37.34000000      30.47800000
 H      23.18000000      38.72000000      31.02600000
 O      28.92900000      23.55100000      35.44500000
 H      29.11400000      24.52700000      35.43700000
 H      29.77100000      23.24400000      34.99200000
 O      40.24500000      24.23500000      27.86700000
 H      40.14700000      23.29200000      28.12500000
 H      39.32200000      24.37700000      27.46800000
 O      23.54500000      33.66400000      35.75300000
 H      23.43400000      32.76400000      35.34400000
 H      24.52900000      33.71500000      35.61100000
 O      14.85600000      39.16700000      37.53400000
 H      14.83800000      38.57400000      38.27600000
 H      14.96000000      38.53800000      36.79700000
 O      26.50700000      28.77100000      35.80100000
 H      26.43300000      29.45100000      36.44700000
 H      26.25300000      27.97800000      36.32900000
 O      22.18500000      34.94900000      40.40000000
 H      21.66400000      34.87600000      41.23400000
 H      21.68100000      34.27800000      39.86500000
 O      39.37500000      29.64900000      36.66400000
 H      38.79000000      30.00100000      35.91900000
 H      39.22900000      28.71500000      36.68200000
 O      20.34400000      38.05100000      29.34500000
 H      21.28300000      38.21000000      29.65200000
 H      20.06300000      37.46200000      30.12500000
 O      21.57200000      30.11600000      30.96800000
 H      21.22600000      30.47300000      31.81300000
 H      22.35600000      30.67600000      30.77100000
 O      40.72100000      36.55200000      32.06100000
 H      40.69200000      37.46600000      32.35900000
 H      41.50100000      36.56600000      31.45700000
 O      22.83300000      36.16400000      28.12600000
 H      22.33800000      35.66100000      28.76800000
 H      22.66100000      37.07100000      28.47300000
 O      24.17100000      40.21200000      31.88400000
 H      24.57400000      40.53400000      32.71400000
 H      23.54900000      40.93400000      31.66700000
 O      29.37600000      25.96400000      30.32200000
 H      29.14600000      26.29800000      29.44400000
 H      28.67100000      26.47900000      30.84400000
 O      15.02600000      25.48700000      33.87700000
 H      14.28600000      25.46200000      34.55900000
 H      14.83800000      24.64800000      33.47300000
 O      23.98700000      22.69800000      27.19700000
 H      23.36500000      22.47200000      27.88900000
 H      23.54800000      22.43600000      26.35800000
 O      29.10100000      26.29200000      35.73600000
 H      28.64200000      26.93800000      35.20200000
 H      30.01300000      26.36000000      35.40000000
 O      24.49000000      23.52400000      30.78500000
 H      24.07800000      24.23600000      30.25700000
 H      25.30800000      23.42600000      30.26900000
 O      39.01400000      36.55600000      38.98800000
 H      39.92700000      36.96800000      39.10100000
 H      38.57000000      37.01500000      39.71800000
 O      33.18300000      29.91600000      34.43200000
 H      33.53100000      29.66600000      33.51300000
 H      33.79100000      30.72700000      34.48700000
 O      15.10400000      22.23900000      36.11500000
 H      14.19000000      22.08300000      35.74100000
 H      14.87900000      22.74200000      36.86200000
 O      23.72700000      31.88200000      30.49000000
 H      23.51400000      32.74000000      30.03100000
 H      24.49600000      31.65600000      29.91800000
 O      25.06200000      31.56000000      39.83600000
 H      25.11800000      32.51300000      40.06900000
 H      25.78700000      31.27900000      40.43700000
 O      31.17100000      38.98400000      31.08800000
 H      31.35400000      38.01800000      31.17600000
 H      30.68200000      38.96500000      30.25400000
 O      20.05900000      40.06900000      33.16100000
 H      19.91200000      39.32300000      32.61200000
 H      19.89200000      39.69400000      34.09000000
 O      15.89700000      33.01500000      37.12100000
 H      16.11700000      33.95700000      37.39100000
 H      15.02800000      32.94900000      37.59300000
 O      38.16200000      37.71300000      35.04200000
 H      37.97200000      38.30500000      34.25400000
 H      39.02200000      38.07300000      35.34200000
 O      24.16000000      39.39600000      27.42200000
 H      24.31200000      39.49000000      28.41400000
 H      24.70600000      38.63700000      27.19500000
 O      18.29500000      29.12800000      39.51400000
 H      18.87000000      29.97600000      39.53200000
 H      17.67500000      29.35900000      38.85200000
 O      20.59500000      23.33600000      38.86000000
 H      20.27200000      24.08600000      39.33800000
 H      20.90400000      23.71500000      38.00300000
 O      17.87500000      23.24200000      35.92700000
 H      18.71100000      22.89900000      36.27800000
 H      17.20200000      22.65500000      36.36900000
 O      35.83800000      38.16300000      29.50300000
 H      36.73000000      37.90500000      29.55500000
 H      35.66900000      38.49000000      30.40100000
 O      34.46400000      26.46000000      31.88900000
 H      34.23900000      25.80200000      32.55300000
 H      34.37700000      25.87400000      31.07500000
 O      27.33200000      27.10000000      31.72800000
 H      26.86600000      27.73800000      32.25400000
 H      26.98200000      26.25300000      31.97600000
 O      34.49300000      26.00300000      38.13500000
 H      33.97300000      25.63700000      38.86500000
 H      33.87900000      26.52500000      37.62100000
 O      33.86200000      36.30700000      30.16000000
 H      33.91800000      36.45100000      31.13500000
 H      34.28600000      37.12000000      29.79700000
 O      26.59500000      34.34900000      38.66500000
 H      26.29800000      35.18100000      38.26400000
 H      25.91400000      34.21100000      39.29400000
 O      33.20400000      24.14100000      34.84100000
 H      32.50500000      23.52500000      34.50900000
 H      33.97500000      23.77500000      34.32600000
 O      17.72700000      24.74600000      30.93600000
 H      16.81800000      24.82300000      30.64500000
 H      18.24100000      24.46200000      30.14600000
 O      31.29200000      37.70700000      35.99700000
 H      31.31600000      36.96200000      35.35900000
 H      31.33400000      37.18400000      36.83800000
 O      28.90100000      21.86600000      39.21900000
 H      28.51200000      21.04300000      38.93800000
 H      29.86600000      21.54300000      39.26300000
 O      38.57900000      39.80200000      27.85200000
 H      39.12700000      39.84200000      27.00600000
 H      38.34400000      40.73200000      27.85400000
 O      28.27400000      35.62300000      33.88400000
 H      28.61300000      34.71700000      33.66900000
 H      27.63100000      35.35000000      34.60400000
 O      35.88400000      32.53600000      32.80600000
 H      35.21200000      32.82100000      32.13100000
 H      35.40600000      32.73900000      33.64600000
 O      28.69900000      20.55700000      27.00500000
 H      27.81300000      20.97400000      26.75000000
 H      28.57900000      20.50500000      27.95800000
 O      39.24200000      22.59800000      32.64000000
 H      38.66900000      23.30600000      32.42800000
 H      40.01000000      23.05900000      33.03900000
 O      33.66000000      35.50500000      35.55600000
 H      32.91600000      34.83300000      35.43000000
 H      34.17500000      35.03100000      36.26300000
 O      22.00800000      35.38400000      36.89500000
 H      21.28900000      34.76800000      37.13200000
 H      22.63500000      34.81800000      36.42800000
 O      38.16000000      28.49300000      26.98600000
 H      38.14400000      27.55200000      27.25500000
 H      38.44600000      28.90500000      27.85700000
 O      37.09300000      26.07500000      39.21900000
 H      36.21300000      25.77500000      38.89400000
 H      36.86400000      26.26900000      40.17000000
 O      29.52700000      29.72600000      32.04000000
 H      29.43900000      29.86800000      31.07800000
 H      28.66300000      29.47800000      32.33400000
 O      38.90000000      19.87200000      32.76100000
 H      39.61700000      19.49400000      32.23600000
 H      39.21600000      20.83300000      32.72900000
 O      21.40700000      31.99800000      27.78500000
 H      20.86000000      32.34400000      27.06300000
 H      22.03600000      31.41600000      27.30200000
 O      18.21600000      35.53300000      40.13100000
 H      18.79200000      36.32800000      40.39400000
 H      17.53200000      35.57900000      40.81800000
 O      28.44600000      38.91900000      40.16400000
 H      27.85300000      38.33800000      39.67500000
 H      29.20400000      38.29000000      40.18700000
 O      28.74300000      21.31000000      32.59300000
 H      28.97200000      22.11600000      32.11500000
 H      29.56900000      20.80800000      32.66400000
 O      37.55800000      23.13100000      28.12900000
 H      37.43800000      22.32600000      27.51500000
 H      37.94600000      22.67900000      28.94200000
 O      30.44100000      37.20500000      40.51900000
 H      31.01500000      36.93300000      39.78500000
 H      30.87000000      36.75200000      41.27400000
 O      29.63700000      23.26000000      30.75200000
 H      29.53400000      24.18700000      30.71200000
 H      30.55800000      23.08100000      30.39800000
 O      36.41600000      27.73400000      36.77400000
 H      36.63900000      27.07800000      37.45500000
 H      35.49200000      27.64000000      36.67900000
 O      13.73600000      33.58100000      27.31600000
 H      13.48400000      33.21500000      28.16500000
 H      14.30900000      34.33800000      27.59100000
 O      14.17300000      36.83900000      39.20300000
 H      14.61500000      36.85700000      40.11400000
 H      14.59600000      36.05200000      38.81900000
 O      17.33500000      28.37900000      30.91000000
 H      17.32800000      29.29700000      30.51800000
 H      17.23400000      27.88100000      30.04800000
 O      18.11800000      32.20400000      40.62000000
 H      18.45000000      32.92300000      40.12700000
 H      17.19400000      32.50600000      40.76100000
 O      32.34600000      28.14700000      38.98800000
 H      32.65700000      28.52600000      38.17700000
 H      31.62800000      27.50500000      38.62500000
 O      28.15200000      27.02600000      39.83600000
 H      27.22500000      26.90000000      39.77800000
 H      28.22000000      26.75900000      40.75800000
 O      32.73300000      20.81200000      30.84400000
 H      32.46500000      21.71300000      30.47700000
 H      32.64800000      20.22500000      30.05500000
 O      13.83600000      32.38100000      38.56900000
 H      14.33400000      32.59300000      39.36400000
 H      13.75900000      31.39700000      38.64200000
 O      30.13400000      30.09700000      29.51400000
 H      30.98300000      29.67200000      29.70100000
 H      30.49300000      30.83800000      28.94500000
 O      33.53200000      28.11700000      36.36400000
 H      32.73900000      27.56000000      36.09200000
 H      33.55700000      28.75800000      35.61900000
 O      35.62700000      33.36300000      40.61200000
 H      35.46400000      32.85300000      41.46100000
 H      36.64300000      33.52500000      40.77600000
 O      32.90100000      33.60400000      32.92700000
 H      32.51500000      34.39700000      33.25000000
 H      32.95500000      33.04900000      33.66100000
 O      36.91900000      21.60400000      35.52500000
 H      37.75400000      21.74400000      35.06000000
 H      36.82000000      20.63300000      35.24800000
 O      27.32900000      21.08300000      34.91700000
 H      27.80500000      21.11900000      34.06800000
 H      27.68700000      21.94600000      35.26100000
 O      31.51100000      34.01500000      35.75000000
 H      30.74600000      33.38200000      35.65500000
 H      31.89300000      33.63300000      36.58200000
 O      34.63200000      31.09400000      38.95900000
 H      33.85400000      31.49000000      38.53400000
 H      35.12100000      31.94400000      39.22100000
 O      28.56300000      32.86300000      33.68400000
 H      28.10100000      32.61900000      34.53700000
 H      29.37500000      32.31000000      33.84800000
 O      18.41400000      39.67600000      28.15900000
 H      19.15900000      39.16700000      28.43900000
 H      18.78800000      40.54700000      28.38300000
 O      18.56000000      34.89000000      32.88900000
 H      18.05700000      34.46100000      32.14800000
 H      17.77400000      35.40700000      33.26900000
 O      25.74600000      20.51500000      31.30800000
 H      24.87800000      20.85000000      31.01900000
 H      25.94200000      21.16600000      31.95500000
 O      28.71100000      27.84100000      28.33300000
 H      29.08200000      28.17500000      27.51100000
 H      28.96700000      28.51600000      28.95500000
 O      34.88300000      38.12600000      36.19000000
 H      34.22200000      37.46700000      36.05100000
 H      35.65200000      37.60200000      36.46800000
 O      36.55000000      30.41900000      30.95500000
 H      36.60300000      31.24200000      31.43800000
 H      35.70400000      29.98400000      31.16700000
 O      20.83000000      26.64800000      40.53800000
 H      20.97900000      27.47000000      41.09100000
 H      20.70500000      27.01800000      39.66600000
 O      24.98100000      34.42600000      32.30200000
 H      24.94000000      34.99500000      33.09100000
 H      25.94500000      34.25600000      32.26600000
 O      35.50200000      23.39200000      33.30400000
 H      35.39100000      22.77600000      32.58400000
 H      36.36200000      23.74400000      33.08000000
 O      20.06400000      28.49700000      29.06400000
 H      20.61000000      28.98400000      29.66700000
 H      19.45600000      29.19300000      28.73600000
 O      32.11500000      40.44700000      36.34900000
 H      32.13700000      40.60700000      35.40300000
 H      31.63800000      39.57900000      36.33800000
 O      40.42100000      21.20200000      27.63800000
 H      39.76000000      20.65300000      28.07500000
 H      41.22900000      21.00100000      28.15200000
 O      39.48300000      26.96400000      38.12900000
 H      40.13300000      27.40500000      38.71400000
 H      38.80000000      26.73700000      38.78900000
 O      37.26500000      35.78800000      36.98200000
 H      37.64600000      36.46800000      36.38400000
 H      37.66500000      36.07700000      37.85100000
 O      14.73000000      24.78400000      29.74600000
 H      13.76800000      25.07300000      29.86100000
 H      14.70000000      23.95100000      30.24800000
 O      34.09700000      39.44200000      38.75300000
 H      33.95600000      39.60200000      37.83900000
 H      33.51000000      40.19200000      39.13100000
 O      24.78600000      23.98100000      35.80100000
 H      24.55400000      23.03600000      35.46300000
 H      25.39100000      23.77100000      36.51400000
 O      18.10600000      39.72300000      37.80200000
 H      17.18300000      39.41200000      37.82300000
 H      18.00200000      40.71300000      37.92700000
 O      23.70400000      21.63100000      34.24500000
 H      24.48700000      22.02400000      33.73000000
 H      23.09000000      21.46500000      33.42500000
 O      19.24500000      27.00800000      32.42100000
 H      19.04200000      26.24800000      31.93400000
 H      18.65400000      27.68300000      32.08300000
 O      14.54000000      27.47100000      28.61200000
 H      14.69500000      26.55600000      28.97100000
 H      15.46200000      27.76900000      28.61100000
 O      23.04600000      31.02900000      35.31500000
 H      22.13400000      30.94000000      34.93200000
 H      23.00900000      30.31400000      36.02000000
 O      24.63900000      23.00900000      39.49300000
 H      25.53500000      23.21800000      39.15500000
 H      24.78300000      22.76300000      40.38000000
 O      25.60200000      26.73700000      37.17700000
 H      24.99200000      26.07700000      36.81000000
 H      25.43600000      26.67900000      38.13200000
 O      34.27000000      32.73900000      30.87800000
 H      33.64700000      33.15400000      31.53000000
 H      33.67500000      32.45700000      30.16800000
 O      34.09300000      22.60400000      37.04800000
 H      33.59200000      21.76000000      37.14500000
 H      33.54800000      23.01200000      36.33700000
 O      22.39700000      36.99000000      33.27100000
 H      23.41200000      37.04900000      33.22500000
 H      22.32100000      36.02600000      33.11300000
 O      31.21900000      33.79000000      39.53300000
 H      30.30900000      33.37400000      39.51600000
 H      31.20700000      33.94900000      40.52900000
 O      35.46000000      37.46700000      39.64900000
 H      34.95200000      38.27900000      39.43300000
 H      36.09900000      37.70300000      40.30600000
 O      28.00500000      32.70600000      36.67600000
 H      28.83800000      32.31300000      36.83300000
 H      27.84800000      33.16800000      37.52400000
 O      36.05600000      30.63000000      28.31200000
 H      36.30000000      30.74300000      29.29200000
 H      35.84800000      29.69500000      28.35800000
 O      19.87600000      32.70800000      36.44300000
 H      20.16100000      33.12700000      35.61500000
 H      19.21900000      32.06600000      36.13500000
 O      26.66000000      29.39300000      33.28300000
 H      26.11900000      30.12100000      33.03600000
 H      26.58500000      29.41600000      34.27200000
 O      15.99300000      31.05400000      27.95300000
 H      15.09000000      31.06200000      27.53200000
 H      16.24500000      31.95600000      27.80900000
 O      16.00300000      29.87600000      35.08800000
 H      15.37800000      30.54400000      34.81000000
 H      15.79000000      29.10300000      34.50200000
 O      30.33800000      31.69100000      36.90000000
 H      30.65600000      31.12500000      36.17600000
 H      30.21000000      30.97100000      37.57500000
 O      38.98800000      23.61400000      37.30500000
 H      38.10500000      23.94000000      37.04800000
 H      39.29100000      24.25200000      37.93200000
 O      18.22500000      20.15600000      40.53200000
 H      18.48400000      21.03300000      40.99100000
 H      18.15700000      19.61900000      41.31700000
 O      27.01200000      23.31700000      29.59400000
 H      27.88500000      23.13700000      29.93200000
 H      26.98800000      23.21000000      28.67800000
 O      34.98300000      28.15500000      28.58100000
 H      35.33500000      27.59500000      29.32800000
 H      35.09600000      27.57400000      27.80400000
 O      25.62200000      25.40100000      33.51000000
 H      25.32400000      25.07000000      34.43100000
 H      25.32800000      26.32800000      33.57000000
 O      36.36800000      24.34500000      36.07000000
 H      35.39400000      24.19800000      36.14800000
 H      36.63100000      23.43800000      35.82700000
 O      18.44400000      35.67600000      36.29600000
 H      18.60900000      36.42600000      35.70300000
 H      19.04700000      34.99600000      36.01500000
 O      22.22000000      21.05400000      31.83500000
 H      22.31500000      21.66700000      31.06500000
 H      22.00300000      20.21400000      31.35900000
 O      23.54800000      36.66100000      38.72100000
 H      22.95400000      36.43600000      37.95700000
 H      23.04500000      36.12500000      39.43700000
 O      35.25100000      21.69500000      31.36400000
 H      34.39400000      21.31000000      31.05900000
 H      35.62200000      20.93100000      31.84600000
 O      25.42200000      26.85400000      39.81600000
 H      25.25400000      27.53300000      40.45800000
 H      25.46500000      26.09600000      40.42200000
 O      19.33100000      21.37900000      37.16600000
 H      19.60000000      21.74900000      37.97100000
 H      19.98300000      20.70400000      36.91300000
 O      21.72200000      22.88700000      29.88300000
 H      21.60800000      23.61800000      30.49400000
 H      21.33600000      23.15600000      29.09100000
 O      24.09600000      20.92900000      37.93000000
 H      24.27900000      21.91200000      38.10800000
 H      24.44200000      20.59900000      38.80400000
 O      34.36400000      32.16500000      35.43600000
 H      33.90600000      32.12800000      36.27000000
 H      35.22100000      32.52400000      35.72200000
 O      28.70000000      39.03100000      35.07400000
 H      27.97700000      38.79600000      35.63200000
 H      29.46300000      38.72200000      35.56900000
 O      33.74600000      36.96700000      32.93400000
 H      32.78200000      36.81700000      33.16300000
 H      34.19600000      36.60800000      33.72700000
 O      36.37300000      21.42900000      38.31800000
 H      36.66500000      21.60700000      37.40600000
 H      35.72900000      22.13100000      38.45600000
 O      38.37200000      39.07400000      30.48000000
 H      39.00100000      39.80500000      30.64200000
 H      38.46900000      39.05600000      29.47900000
 O      30.54800000      27.00800000      32.59100000
 H      30.19700000      26.53700000      31.79400000
 H      30.30500000      27.94200000      32.39200000
 O      34.93700000      39.43500000      31.98700000
 H      34.74700000      39.94800000      32.79100000
 H      34.42800000      38.61300000      32.19400000
 O      37.47400000      26.27800000      34.67400000
 H      37.27700000      27.05400000      35.23300000
 H      36.96700000      25.59600000      35.19500000
 O      39.27400000      35.67200000      29.10400000
 H      38.42600000      35.17300000      29.20700000
 H      39.29100000      36.21800000      29.89200000
 O      32.56600000      28.59000000      29.83600000
 H      33.29500000      28.48500000      29.21200000
 H      32.27300000      27.62500000      29.81800000
 O      20.34900000      30.91100000      39.41200000
 H      21.23800000      31.20700000      38.98300000
 H      20.19100000      31.69900000      39.95600000
 O      36.88500000      40.01900000      38.62000000
 H      36.57800000      40.29100000      39.51100000
 H      36.10200000      39.54300000      38.28000000
 O      16.40700000      35.53500000      38.11900000
 H      16.79000000      35.65700000      37.24700000
 H      17.19600000      35.49800000      38.66900000
 O      20.43000000      34.48200000      34.55900000
 H      21.17300000      34.39600000      33.92000000
 H      19.65500000      34.53400000      33.92000000
 O      40.11000000      39.84200000      35.46500000
 H      40.62300000      39.83600000      36.18400000
 H      40.09100000      40.77200000      35.19400000
 O      28.56100000      32.87700000      39.62700000
 H      28.16300000      32.16200000      40.21600000
 H      27.76400000      33.30800000      39.36700000
 O      25.17900000      36.69800000      30.53500000
 H      25.12400000      35.76000000      30.76400000
 H      26.12600000      36.86600000      30.84900000
 O      25.85200000      22.75100000      32.96500000
 H      26.32100000      23.52100000      33.39800000
 H      25.26400000      23.29000000      32.34500000
 O      14.51700000      34.52500000      32.51800000
 H      13.76200000      34.50600000      33.15600000
 H      15.05000000      35.25900000      32.94900000
 O      19.08400000      34.43500000      29.63800000
 H      18.19700000      34.63900000      30.05400000
 H      18.76000000      33.90300000      28.87900000
 O      30.63500000      31.05900000      34.00500000
 H      31.46700000      30.51000000      33.95600000
 H      30.17800000      30.68000000      33.23400000
 O      14.90600000      36.99000000      35.88100000
 H      14.19800000      36.95200000      35.17000000
 H      14.55500000      36.29000000      36.43000000
 O      19.09400000      27.75100000      35.83200000
 H      18.63100000      28.62200000      35.84300000
 H      18.36200000      27.16500000      35.93200000
 O      25.95400000      31.61600000      29.25100000
 H      26.77400000      32.10600000      28.95900000
 H      26.26400000      30.68800000      29.19500000
 O      40.38800000      21.21300000      37.89700000
 H      41.05200000      21.63600000      37.32700000
 H      39.64900000      21.85400000      37.79500000
 O      21.31200000      24.25900000      27.49800000
 H      20.39600000      24.52500000      27.40400000
 H      21.65200000      24.86900000      28.11400000
 O      20.15600000      33.85500000      39.18800000
 H      19.55700000      34.65700000      39.34300000
 H      19.84000000      33.48300000      38.36400000
 O      33.13000000      33.02400000      37.89600000
 H      33.63200000      33.84100000      38.21000000
 H      32.36900000      33.16300000      38.61300000
 O      21.49700000      24.93800000      31.81700000
 H      21.30300000      24.37600000      32.61200000
 H      21.80800000      25.73100000      32.27600000
 O      14.62900000      22.95600000      32.88600000
 H      13.86200000      22.48900000      33.24800000
 H      15.35900000      22.28100000      33.05900000
 O      13.77700000      22.84600000      40.59700000
 H      13.59100000      21.90500000      40.64000000
 H      14.63200000      22.88000000      41.11100000
 O      37.63800000      29.97400000      40.15900000
 H      38.02700000      29.92400000      39.29300000
 H      36.71000000      30.01600000      39.98600000
 O      30.94300000      30.23900000      40.70300000
 H      31.81600000      29.89300000      40.52300000
 H      30.45800000      30.08300000      39.84400000
 O      24.65000000      40.33900000      40.05900000
 H      25.49800000      40.38300000      39.64300000
 H      24.18900000      41.00700000      39.45000000
 O      30.90200000      36.14400000      30.86600000
 H      31.75500000      35.96000000      30.42300000
 H      30.29000000      36.22500000      30.11900000
 O      25.14000000      37.07500000      33.74300000
 H      25.61200000      37.41500000      34.48900000
 H      25.78800000      37.06100000      33.03400000
 O      38.95600000      30.29200000      32.72900000
 H      38.60500000      30.17600000      33.63300000
 H      38.85400000      31.23800000      32.61900000
 O      27.29300000      33.48700000      31.48600000
 H      27.71400000      33.10300000      32.30600000
 H      26.71400000      32.75500000      31.19600000
 O      17.28000000      40.41600000      34.40400000
 H      18.23300000      40.32100000      34.39000000
 H      17.22900000      41.16600000      35.02900000
 O      22.08700000      34.20200000      32.44500000
 H      22.97600000      33.93300000      32.12800000
 H      21.63800000      34.32300000      31.58600000
 O      31.86400000      25.95300000      29.33900000
 H      31.97200000      25.01500000      28.97500000
 H      31.05200000      25.77200000      29.85800000
 O      27.27000000      37.22200000      32.00200000
 H      27.89600000      38.00900000      32.04700000
 H      27.76800000      36.63800000      32.63600000
 O      16.44900000      30.17300000      37.78000000
 H      16.36700000      31.15700000      37.90100000
 H      16.35400000      30.11800000      36.79700000
 O      31.05800000      36.16300000      33.61100000
 H      31.00600000      35.90000000      32.65700000
 H      30.12600000      36.00400000      33.84000000
 O      40.69100000      26.28700000      35.86900000
 H      40.25200000      26.46400000      36.71000000
 H      40.19500000      25.55300000      35.48200000
 O      40.37500000      35.53100000      34.98400000
 H      39.57900000      35.19400000      35.46300000
 H      39.99600000      35.90300000      34.18500000
 O      31.64400000      36.10500000      38.29900000
 H      31.24500000      35.25900000      38.66300000
 H      32.58700000      35.89900000      38.30600000
 O      19.84100000      37.24400000      32.11900000
 H      19.57700000      36.39700000      32.52600000
 H      20.67300000      37.39400000      32.56900000
