501
XYZ file of cluster: frame_5000_9b2a0.c6179.4a8c3 - created by MolEdiTo
 O      34.48900000      36.80400000      22.22200000
 H      33.71600000      36.27900000      21.78400000
 H      33.98200000      37.14000000      22.96800000
 O      30.72800000      40.06300000      22.56100000
 H      30.41700000      40.63400000      21.78000000
 H      30.96300000      39.26600000      22.01300000
 O      30.88300000      37.61700000      21.38000000
 H      31.41800000      36.80100000      21.29600000
 H      30.76600000      37.81600000      20.44300000
 O      29.72100000      38.95700000      28.84700000
 H      30.25100000      38.43700000      28.17000000
 H      28.85100000      38.45900000      28.72600000
 O      28.45000000      35.32400000      29.48700000
 H      28.28200000      34.43900000      29.09000000
 H      28.32000000      35.14800000      30.42900000
 O      40.05400000      34.69200000      17.43400000
 H      40.28900000      34.46100000      18.35900000
 H      39.30000000      35.27400000      17.58200000
 O      31.11700000      37.16200000      27.34900000
 H      31.73400000      37.75500000      26.96700000
 H      31.09700000      36.40600000      26.71500000
 O      35.95100000      34.34400000      17.32900000
 H      35.15200000      34.76800000      17.69800000
 H      36.27100000      33.89300000      18.19000000
 O      29.21900000      40.09700000      17.97800000
 H      29.75100000      39.44300000      18.36100000
 H      28.38700000      40.09400000      18.52800000
 O      34.58600000      35.25400000      38.21800000
 H      35.57300000      35.10700000      38.13300000
 H      34.61700000      36.20000000      38.53900000
 O      30.86100000      38.06000000      18.65800000
 H      31.64100000      38.48300000      18.27400000
 H      30.58600000      37.41200000      17.92800000
 O      30.91100000      35.93300000      17.02500000
 H      30.23700000      35.29600000      16.75700000
 H      31.33200000      36.08500000      16.15200000
 O      28.22600000      34.00700000      21.35500000
 H      27.58600000      34.55800000      20.83500000
 H      28.72900000      33.61000000      20.62300000
 O      27.29300000      37.43400000      28.38900000
 H      27.88000000      36.58500000      28.34100000
 H      26.47200000      37.07200000      27.96300000
 O      40.27300000      40.00400000      25.71500000
 H      39.84400000      40.52500000      24.94300000
 H      41.19000000      40.49800000      25.70200000
 O      38.71800000      36.02700000      23.02000000
 H      39.27500000      35.31700000      22.65800000
 H      39.12600000      36.18700000      23.90800000
 O      29.10100000      34.56100000      24.01600000
 H      28.75800000      33.84400000      23.43300000
 H      28.74400000      35.34400000      23.52900000
 O      32.81500000      34.47300000      28.57000000
 H      33.07300000      35.06200000      27.84000000
 H      33.19800000      34.97300000      29.32700000
 O      35.13000000      40.37200000      34.86200000
 H      35.12400000      39.59800000      35.47800000
 H      36.12600000      40.45000000      34.80000000
 O      37.38300000      33.79100000      25.65400000
 H      37.85800000      34.55800000      26.12000000
 H      36.81900000      34.33700000      25.02100000
 O      35.40100000      38.10300000      16.18100000
 H      35.69100000      38.21900000      17.11000000
 H      35.96400000      37.33800000      15.99200000
 O      29.30300000      38.96300000      15.41300000
 H      29.23800000      39.53500000      16.22700000
 H      30.27600000      38.86900000      15.35100000
 O      28.67700000      39.36700000      32.39900000
 H      28.91700000      39.23200000      33.35100000
 H      29.58300000      39.53500000      32.03100000
 O      36.39000000      38.63700000      18.88600000
 H      36.48000000      38.48800000      19.84300000
 H      37.23900000      39.09700000      18.70600000
 O      37.45400000      39.17200000      32.97700000
 H      37.73100000      38.90500000      32.04100000
 H      36.54900000      39.39400000      32.74100000
 O      40.72100000      36.55200000      32.06100000
 H      40.69200000      37.46600000      32.35900000
 H      41.50100000      36.56600000      31.45700000
 O      33.37600000      39.54200000      27.25400000
 H      34.09900000      40.06400000      27.67600000
 H      32.68200000      40.19800000      27.14100000
 O      37.91600000      35.78000000      19.25600000
 H      37.18800000      36.46600000      19.45100000
 H      37.50300000      34.95600000      19.47800000
 O      39.01400000      36.55600000      38.98800000
 H      39.92700000      36.96800000      39.10100000
 H      38.57000000      37.01500000      39.71800000
 O      31.17100000      38.98400000      31.08800000
 H      31.35400000      38.01800000      31.17600000
 H      30.68200000      38.96500000      30.25400000
 O      38.16200000      37.71300000      35.04200000
 H      37.97200000      38.30500000      34.25400000
 H      39.02200000      38.07300000      35.34200000
 O      28.61600000      36.93900000      22.91500000
 H      29.43400000      37.26100000      22.54500000
 H      27.93500000      37.44600000      22.41600000
 O      35.83800000      38.16300000      29.50300000
 H      36.73000000      37.90500000      29.55500000
 H      35.66900000      38.49000000      30.40100000
 O      33.86200000      36.30700000      30.16000000
 H      33.91800000      36.45100000      31.13500000
 H      34.28600000      37.12000000      29.79700000
 O      37.65100000      40.34300000      21.67100000
 H      37.40400000      39.40000000      21.83300000
 H      37.83900000      40.35500000      20.72400000
 O      31.29200000      37.70700000      35.99700000
 H      31.31600000      36.96200000      35.35900000
 H      31.33400000      37.18400000      36.83800000
 O      38.57900000      39.80200000      27.85200000
 H      39.12700000      39.84200000      27.00600000
 H      38.34400000      40.73200000      27.85400000
 O      28.27400000      35.62300000      33.88400000
 H      28.61300000      34.71700000      33.66900000
 H      27.63100000      35.35000000      34.60400000
 O      33.66000000      35.50500000      35.55600000
 H      32.91600000      34.83300000      35.43000000
 H      34.17500000      35.03100000      36.26300000
 O      28.44600000      38.91900000      40.16400000
 H      27.85300000      38.33800000      39.67500000
 H      29.20400000      38.29000000      40.18700000
 O      30.44100000      37.20500000      40.51900000
 H      31.01500000      36.93300000      39.78500000
 H      30.87000000      36.75200000      41.27400000
 O      37.30400000      36.25800000      15.97500000
 H      36.91800000      35.48900000      16.51600000
 H      37.52000000      35.78500000      15.18400000
 O      33.78400000      38.66600000      18.91700000
 H      33.63400000      39.61400000      19.15000000
 H      34.76100000      38.65500000      18.99600000
 O      38.17900000      36.57000000      26.62000000
 H      38.19100000      37.49400000      26.50500000
 H      38.80300000      36.35600000      27.27600000
 O      28.17300000      38.22400000      25.75200000
 H      28.07500000      37.46300000      25.22600000
 H      27.66600000      37.97500000      26.58700000
 O      39.88400000      37.90300000      19.66600000
 H      40.33300000      37.52700000      20.42400000
 H      39.45800000      37.10700000      19.23300000
 O      34.88300000      38.12600000      36.19000000
 H      34.22200000      37.46700000      36.05100000
 H      35.65200000      37.60200000      36.46800000
 O      32.11500000      40.44700000      36.34900000
 H      32.13700000      40.60700000      35.40300000
 H      31.63800000      39.57900000      36.33800000
 O      32.93800000      40.48600000      23.93700000
 H      32.16200000      40.46000000      23.42400000
 H      33.16600000      39.60000000      24.15200000
 O      37.26500000      35.78800000      36.98200000
 H      37.64600000      36.46800000      36.38400000
 H      37.66500000      36.07700000      37.85100000
 O      34.09700000      39.44200000      38.75300000
 H      33.95600000      39.60200000      37.83900000
 H      33.51000000      40.19200000      39.13100000
 O      36.23700000      35.06100000      23.58500000
 H      35.58000000      35.72100000      23.16900000
 H      37.05400000      35.50400000      23.28200000
 O      28.06800000      36.67200000      14.56600000
 H      27.96400000      36.57900000      13.62200000
 H      27.90100000      37.57000000      14.83800000
 O      32.19900000      35.20400000      21.64700000
 H      32.67600000      34.60300000      21.06900000
 H      32.04000000      34.60600000      22.37700000
 O      35.46000000      37.46700000      39.64900000
 H      34.95200000      38.27900000      39.43300000
 H      36.09900000      37.70300000      40.30600000
 O      35.72000000      40.69100000      15.49600000
 H      34.88100000      41.00300000      15.91100000
 H      35.62500000      39.74300000      15.61300000
 O      33.76800000      38.22800000      13.75300000
 H      34.35600000      37.85000000      14.46000000
 H      33.31100000      37.35200000      13.48100000
 O      36.92600000      37.66700000      21.36500000
 H      37.47500000      36.91000000      21.63600000
 H      36.07800000      37.34200000      21.83700000
 O      29.64900000      40.27300000      25.33000000
 H      29.18200000      39.42100000      25.46300000
 H      30.05800000      40.08100000      24.43400000
 O      28.70000000      39.03100000      35.07400000
 H      27.97700000      38.79600000      35.63200000
 H      29.46300000      38.72200000      35.56900000
 O      33.74600000      36.96700000      32.93400000
 H      32.78200000      36.81700000      33.16300000
 H      34.19600000      36.60800000      33.72700000
 O      38.37200000      39.07400000      30.48000000
 H      39.00100000      39.80500000      30.64200000
 H      38.46900000      39.05600000      29.47900000
 O      34.93700000      39.43500000      31.98700000
 H      34.74700000      39.94800000      32.79100000
 H      34.42800000      38.61300000      32.19400000
 O      39.27400000      35.67200000      29.10400000
 H      38.42600000      35.17300000      29.20700000
 H      39.29100000      36.21800000      29.89200000
 O      36.88500000      40.01900000      38.62000000
 H      36.57800000      40.29100000      39.51100000
 H      36.10200000      39.54300000      38.28000000
 O      31.35700000      35.65600000      25.24500000
 H      31.86600000      34.86200000      25.00400000
 H      30.48200000      35.44900000      24.84800000
 O      40.76400000      37.64100000      16.99300000
 H      41.34600000      36.96100000      17.23800000
 H      40.49400000      37.97900000      17.90900000
 O      40.11000000      39.84200000      35.46500000
 H      40.62300000      39.83600000      36.18400000
 H      40.09100000      40.77200000      35.19400000
 O      33.70800000      35.87800000      17.68700000
 H      33.59300000      36.73000000      18.10300000
 H      32.69700000      35.66600000      17.74600000
 O      38.69700000      40.18700000      18.93100000
 H      39.45600000      40.69000000      18.51200000
 H      39.24400000      39.40900000      19.21000000
 O      32.03100000      38.67800000      15.83200000
 H      32.57100000      39.12500000      16.46700000
 H      32.73700000      38.47500000      15.12400000
 O      38.70800000      38.62200000      15.46200000
 H      38.17200000      37.82800000      15.70300000
 H      39.47500000      38.40200000      16.08600000
 O      34.38500000      36.96300000      26.94700000
 H      35.34100000      37.09000000      27.19200000
 H      34.07400000      37.87000000      27.25700000
 O      30.90200000      36.14400000      30.86600000
 H      31.75500000      35.96000000      30.42300000
 H      30.29000000      36.22500000      30.11900000
 O      28.90700000      34.59800000      15.96100000
 H      28.54500000      35.35600000      15.44100000
 H      28.12900000      34.24200000      16.42500000
 O      33.36300000      37.62100000      24.51600000
 H      32.59500000      36.98600000      24.55300000
 H      33.81400000      37.37500000      25.36200000
 O      27.27000000      37.22200000      32.00200000
 H      27.89600000      38.00900000      32.04700000
 H      27.76800000      36.63800000      32.63600000
 O      31.05800000      36.16300000      33.61100000
 H      31.00600000      35.90000000      32.65700000
 H      30.12600000      36.00400000      33.84000000
 O      40.37500000      35.53100000      34.98400000
 H      39.57900000      35.19400000      35.46300000
 H      39.99600000      35.90300000      34.18500000
 O      31.64400000      36.10500000      38.29900000
 H      31.24500000      35.25900000      38.66300000
 H      32.58700000      35.89900000      38.30600000
 O      39.01100000      47.98700000      18.94000000
 H      39.41700000      47.11800000      18.77500000
 H      38.70600000      48.22800000      18.04600000
 O      31.51600000      47.69100000      15.97000000
 H      30.71500000      47.46000000      15.46400000
 H      32.13200000      47.06100000      15.44200000
 O      35.69500000      42.97800000      23.36600000
 H      36.46700000      42.48500000      23.02300000
 H      35.05200000      42.83500000      22.63300000
 O      36.81500000      43.84300000      27.47900000
 H      37.65700000      44.07500000      26.89600000
 H      36.17500000      43.96200000      26.70300000
 O      31.84900000      45.47300000      39.75600000
 H      32.01000000      46.43500000      39.78000000
 H      31.57600000      45.33700000      38.84200000
 O      29.66800000      42.47800000      39.20900000
 H      29.60900000      41.62400000      39.74000000
 H      30.50400000      42.84600000      39.56200000
 O      33.71700000      46.41200000      24.12200000
 H      34.05600000      45.53100000      24.38200000
 H      33.98900000      46.89100000      24.96600000
 O      33.76000000      43.77200000      34.20100000
 H      33.13200000      43.37100000      33.54500000
 H      34.21100000      42.91300000      34.45800000
 O      32.62900000      46.16600000      13.97500000
 H      32.26900000      45.42300000      13.42100000
 H      33.55700000      46.15700000      13.85000000
 O      29.47800000      46.61300000      34.11900000
 H      28.96500000      47.00600000      34.89300000
 H      30.35700000      46.67400000      34.51400000
 O      34.92200000      45.21000000      36.44200000
 H      34.80300000      44.56200000      35.67600000
 H      35.84000000      45.34000000      36.41800000
 O      39.72400000      48.86900000      31.69900000
 H      39.72500000      47.87500000      31.35800000
 H      40.39700000      49.16200000      31.01500000
 O      38.20200000      47.18600000      23.79900000
 H      38.69400000      47.05000000      22.89300000
 H      37.26300000      47.14200000      23.42700000
 O      33.78900000      44.05400000      30.72700000
 H      33.26000000      43.49400000      31.40400000
 H      34.11600000      43.31500000      30.17100000
 O      36.41600000      45.06900000      20.63500000
 H      36.86400000      45.39400000      19.80900000
 H      35.94300000      44.24600000      20.21600000
 O      40.13500000      47.86000000      14.36100000
 H      39.38100000      48.42100000      14.40000000
 H      39.75700000      47.02400000      14.69100000
 O      30.22500000      47.00900000      29.76600000
 H      30.62500000      46.86100000      28.91800000
 H      29.26300000      46.78200000      29.50000000
 O      27.46200000      42.93700000      28.87600000
 H      27.11200000      42.06200000      29.01900000
 H      28.23100000      42.88800000      29.53000000
 O      39.75600000      45.14600000      21.54200000
 H      40.67700000      45.15100000      21.76600000
 H      39.40700000      44.40900000      22.11100000
 O      34.95500000      46.57800000      29.47200000
 H      34.55600000      45.72300000      29.64100000
 H      35.55400000      46.41400000      28.74600000
 O      37.90600000      43.10200000      33.92800000
 H      37.93900000      42.22700000      33.56800000
 H      37.54600000      43.67600000      33.21600000
 O      32.33200000      46.21300000      31.65600000
 H      32.89900000      45.62300000      31.10100000
 H      31.67500000      46.48700000      30.93900000
 O      35.03700000      42.47100000      29.08800000
 H      35.71200000      42.91800000      28.61500000
 H      35.46100000      41.75500000      29.56600000
 O      39.58200000      42.75100000      23.50400000
 H      40.36800000      42.60300000      22.93600000
 H      38.90700000      42.25700000      22.97200000
 O      32.27500000      44.56000000      36.95800000
 H      33.22900000      44.75500000      36.86800000
 H      32.19900000      43.61500000      36.92400000
 O      33.45700000      49.09700000      29.23000000
 H      32.67600000      49.14100000      28.57600000
 H      33.75300000      48.18600000      29.04100000
 O      38.45600000      44.24800000      40.51500000
 H      37.58500000      44.71400000      40.50400000
 H      38.53900000      43.97600000      39.54300000
 O      36.58000000      46.94100000      33.81700000
 H      37.08900000      46.76600000      34.65300000
 H      36.52100000      47.87400000      33.83400000
 O      29.74800000      43.55800000      32.96500000
 H      29.67200000      44.49500000      33.27800000
 H      28.85200000      43.26300000      32.92000000
 O      32.50400000      42.76200000      40.20900000
 H      32.54300000      43.75000000      40.20800000
 H      32.64800000      42.60900000      41.12900000
 O      38.08000000      43.09900000      16.22700000
 H      37.26000000      42.91200000      15.62300000
 H      38.49900000      42.24700000      16.13700000
 O      31.84200000      43.13000000      25.98400000
 H      30.98400000      42.65200000      25.79700000
 H      32.40500000      42.65600000      25.26100000
 O      33.23300000      43.41500000      16.15800000
 H      32.31300000      43.13500000      16.21500000
 H      33.15300000      44.43700000      16.09900000
 O      39.88000000      45.48100000      18.89100000
 H      40.38900000      44.70000000      18.66000000
 H      39.79500000      45.39200000      19.87100000
 O      34.37600000      47.57600000      38.12200000
 H      34.38700000      46.79100000      37.46800000
 H      34.89200000      48.21600000      37.59800000
 O      37.10200000      47.07300000      39.63300000
 H      36.62900000      47.78500000      39.29000000
 H      37.93500000      47.47500000      40.05200000
 O      28.96300000      43.66900000      26.82500000
 H      29.14600000      42.95300000      26.25100000
 H      28.40500000      43.28900000      27.50800000
 O      31.53000000      48.59900000      27.13200000
 H      31.29700000      47.68100000      26.96700000
 H      30.91200000      48.99900000      26.41900000
 O      28.62700000      43.51200000      13.96700000
 H      28.65900000      42.60200000      13.52900000
 H      28.01600000      43.34900000      14.70800000
 O      29.60100000      48.34300000      38.43000000
 H      30.23100000      48.26700000      39.19000000
 H      29.67800000      47.36700000      38.10800000
 O      29.99600000      45.98500000      37.18800000
 H      29.34500000      45.23500000      37.05200000
 H      30.83000000      45.46000000      36.98300000
 O      30.74100000      48.44800000      24.35100000
 H      31.01200000      47.54000000      24.11800000
 H      31.33000000      48.97400000      23.80300000
 O      32.61200000      47.93400000      39.94700000
 H      33.14400000      47.84300000      40.77300000
 H      33.31600000      47.65200000      39.29300000
 O      32.39600000      45.91200000      19.97200000
 H      32.11000000      44.99900000      19.75800000
 H      33.11000000      46.05300000      19.26300000
 O      34.00100000      47.83200000      26.30200000
 H      34.29200000      48.75200000      25.98700000
 H      33.04400000      47.97000000      26.40400000
 O      38.71200000      47.64900000      35.87800000
 H      39.13500000      47.62500000      36.75900000
 H      39.49300000      48.15100000      35.42200000
 O      32.28300000      42.42300000      32.38600000
 H      31.87500000      41.63200000      31.91300000
 H      31.44400000      42.94300000      32.52500000
 O      34.33000000      45.91600000      18.18300000
 H      34.33600000      46.81100000      17.71600000
 H      35.24800000      45.68900000      17.86000000
 O      40.36300000      42.55900000      30.61400000
 H      39.51400000      43.07200000      30.42200000
 H      41.01100000      43.15300000      30.18500000
 O      27.50400000      47.05200000      21.74900000
 H      27.95800000      47.04900000      20.92500000
 H      27.32400000      46.11300000      21.89900000
 O      28.55300000      48.88700000      25.63800000
 H      29.29900000      48.44900000      25.13000000
 H      27.81000000      48.29800000      25.37900000
 O      38.34700000      43.88000000      29.74600000
 H      37.78100000      44.32700000      30.38900000
 H      37.67400000      43.80800000      28.97600000
 O      33.52000000      48.34500000      20.77000000
 H      33.18900000      47.41200000      20.75400000
 H      33.18800000      48.52600000      19.84500000
 O      29.86800000      48.60900000      32.19400000
 H      29.84300000      48.10400000      31.39300000
 H      29.71400000      47.89800000      32.86400000
 O      36.49000000      44.91300000      31.80800000
 H      35.50100000      44.79700000      31.84400000
 H      36.56900000      45.72400000      32.37700000
 O      36.04500000      46.77900000      22.52700000
 H      36.24200000      46.07100000      21.85900000
 H      35.11500000      46.61300000      22.72100000
 O      39.74300000      47.13500000      26.14300000
 H      39.28000000      47.27000000      25.30500000
 H      39.92200000      48.04300000      26.44400000
 O      40.13600000      47.27800000      38.10400000
 H      40.99100000      47.66700000      38.17600000
 H      39.70400000      47.47600000      38.92100000
 O      30.91900000      45.69800000      27.37000000
 H      31.51500000      45.10600000      26.91200000
 H      30.12100000      45.05800000      27.41200000
 O      27.96200000      45.87200000      28.93900000
 H      27.94000000      45.86500000      27.94100000
 H      27.56700000      45.02200000      29.10500000
 O      29.27000000      42.80500000      20.74200000
 H      28.50800000      42.41900000      20.25100000
 H      28.70600000      43.19400000      21.48300000
 O      28.62500000      46.48900000      17.44100000
 H      29.06000000      46.84600000      18.22000000
 H      29.29700000      46.63800000      16.76000000
 O      35.54100000      47.68400000      15.60100000
 H      35.43400000      46.84200000      15.00500000
 H      35.14200000      48.37400000      15.01700000
 O      31.51500000      43.25400000      19.34200000
 H      31.08800000      43.61500000      18.54600000
 H      30.64200000      43.15500000      19.86200000
 O      34.92400000      44.11700000      25.53000000
 H      34.20100000      43.57000000      25.81600000
 H      35.28400000      43.63700000      24.76600000
 O      38.91100000      43.12200000      37.90700000
 H      38.26400000      42.47100000      38.26300000
 H      38.35400000      43.63800000      37.30300000
 O      28.23100000      48.47000000      35.98600000
 H      28.85400000      48.37200000      36.71500000
 H      27.40700000      48.17100000      36.44200000
 O      38.85300000      44.12700000      25.85900000
 H      39.00500000      43.69300000      25.06900000
 H      39.34600000      44.95900000      25.86800000
 O      39.60400000      46.56300000      30.42600000
 H      39.65300000      45.59300000      30.14700000
 H      38.86000000      46.84200000      29.82600000
 O      37.80400000      45.12100000      36.06900000
 H      38.11500000      45.98700000      36.08200000
 H      38.10900000      44.70600000      35.25700000
 O      28.93000000      45.60800000      24.51500000
 H      29.80000000      45.86300000      24.12900000
 H      29.20800000      45.11300000      25.29000000
 O      29.02800000      43.27800000      36.61000000
 H      29.37000000      42.78500000      37.38600000
 H      28.74500000      42.62300000      36.00800000
 O      29.93800000      47.21500000      19.87300000
 H      30.87600000      46.98900000      19.70300000
 H      29.93900000      48.16900000      19.66800000
 O      39.25500000      45.42300000      14.84200000
 H      39.28000000      45.00600000      13.95300000
 H      38.69200000      44.78600000      15.31600000
 O      34.10300000      42.74100000      19.11200000
 H      34.05500000      43.41200000      18.41600000
 H      33.13200000      42.65500000      19.37200000
 O      31.30800000      46.03400000      22.97000000
 H      31.54900000      45.80300000      22.06200000
 H      32.19100000      46.05000000      23.34700000
 O      36.58100000      47.14100000      26.64900000
 H      35.67400000      47.36300000      26.33800000
 H      37.04900000      47.16500000      25.78700000
 O      33.52400000      48.76900000      13.92800000
 H      33.43400000      49.21400000      14.78100000
 H      32.89300000      48.00400000      14.10700000
 O      37.04100000      45.42900000      17.92700000
 H      37.20200000      44.64500000      17.29300000
 H      37.97700000      45.76700000      17.97500000
 O      35.76700000      42.82800000      12.90400000
 H      36.67200000      42.50200000      12.67800000
 H      35.75100000      42.48900000      13.85800000
 O      38.08800000      47.95700000      28.57500000
 H      38.72800000      48.40200000      28.00000000
 H      37.51200000      47.55100000      27.94300000
 O      27.77200000      44.08200000      22.48600000
 H      27.53900000      43.30500000      23.07800000
 H      28.31400000      44.59800000      23.08000000
 O      29.47200000      47.01200000      14.56300000
 H      29.32800000      47.98700000      14.77400000
 H      29.16700000      47.02300000      13.63100000
 O      39.85600000      48.58300000      21.38500000
 H      40.70900000      48.12200000      21.27700000
 H      39.47000000      48.41100000      20.48300000
 O      39.16400000      48.48200000      40.66700000
 H      39.95700000      48.18300000      41.23800000
 H      39.41300000      49.39800000      40.51000000
 O      32.61300000      47.34400000      34.18300000
 H      32.29600000      47.10900000      33.24300000
 H      33.17800000      46.54600000      34.26100000
 O      30.24500000      43.86500000      16.64300000
 H      29.97900000      42.96000000      17.08300000
 H      29.34300000      44.14100000      16.39000000
