340
XYZ file of cluster: frame_5000_22bf2.702d7.2562b - created by MolEdiTo
 O      19.27800000      31.45700000      18.59400000
 H      18.95300000      30.59600000      18.86100000
 H      19.22200000      31.82100000      19.54200000
 O      21.24700000      28.27700000      14.65500000
 H      21.84300000      27.48700000      14.38700000
 H      20.77600000      27.83600000      15.40200000
 O      17.96700000      22.07100000      12.37200000
 H      18.53300000      22.47900000      13.07800000
 H      17.63300000      22.96300000      12.00300000
 O      16.56800000      34.49300000      20.42700000
 H      15.74900000      34.95800000      20.19800000
 H      16.44400000      34.27800000      21.31900000
 O      11.22200000      28.41100000      15.81800000
 H      11.60300000      27.65800000      16.29700000
 H      11.90200000      29.12600000      16.08500000
 O       8.50200000      30.45500000       8.40200000
 H       8.54000000      30.06000000       9.33500000
 H       9.53100000      30.54300000       8.33100000
 O      19.43000000      22.95900000      14.60500000
 H      19.86100000      22.62400000      15.40900000
 H      19.97800000      23.73100000      14.38700000
 O      20.23500000      27.78000000      19.91100000
 H      19.46800000      28.34200000      19.80300000
 H      20.82100000      28.27300000      20.55900000
 O      14.96900000      21.94500000      20.95300000
 H      15.48000000      22.22300000      20.18400000
 H      15.79500000      21.69700000      21.52700000
 O      16.68100000      22.72500000      19.12800000
 H      16.40300000      23.15000000      18.29100000
 H      17.60800000      22.49700000      18.95300000
 O      10.66200000      33.90900000       7.50900000
 H      10.84800000      34.77700000       7.87500000
 H      11.41600000      33.38300000       7.87100000
 O      17.88200000      29.11600000      19.37600000
 H      17.23000000      29.91700000      19.38700000
 H      17.18400000      28.41900000      19.27900000
 O      15.34100000      28.81600000      10.54100000
 H      15.36100000      29.67800000      11.02800000
 H      16.26800000      28.67600000      10.63400000
 O      19.27100000      23.71800000      19.20600000
 H      19.48400000      24.31000000      19.93500000
 H      19.96300000      23.98800000      18.58400000
 O      17.96600000      30.78000000       9.54700000
 H      18.41900000      31.17400000       8.82500000
 H      17.52900000      31.52100000       9.94900000
 O      17.93700000      21.63600000       9.39000000
 H      17.44200000      22.33400000       9.81900000
 H      18.69600000      22.16400000       8.98000000
 O      15.68200000      29.72400000      17.30000000
 H      16.27600000      29.17700000      16.74500000
 H      16.12500000      30.64000000      17.22100000
 O      13.39700000      26.22200000       7.84100000
 H      12.42300000      26.18500000       7.80900000
 H      13.60100000      25.31900000       7.57800000
 O      16.37200000      26.95800000      19.79000000
 H      16.89700000      26.55400000      20.51800000
 H      15.45000000      26.81800000      20.03900000
 O      13.35600000      30.03900000      15.83200000
 H      13.28400000      31.00200000      16.00100000
 H      14.11600000      29.80200000      16.32000000
 O       8.44800000      22.68400000      18.37600000
 H       9.26700000      22.15200000      18.62100000
 H       8.44200000      22.48300000      17.46900000
 O       6.51600000      31.29500000      19.96100000
 H       6.45400000      30.98000000      20.80800000
 H       7.15400000      32.03200000      20.05800000
 O       8.61500000      32.98600000      17.16000000
 H       8.68400000      32.78400000      18.08600000
 H       7.82400000      32.59900000      16.85400000
 O      16.80900000      23.92300000      10.74500000
 H      16.35300000      24.61600000      10.21900000
 H      16.73700000      24.28900000      11.63200000
 O      12.38100000      24.72600000      18.24900000
 H      12.79200000      24.46500000      19.13400000
 H      12.03400000      25.56600000      18.52200000
 O      16.26200000      24.47300000      21.35600000
 H      16.18200000      23.76500000      22.03000000
 H      16.58400000      23.97200000      20.59300000
 O       8.39700000      29.35400000      10.91000000
 H       8.79700000      29.77700000      11.72100000
 H       7.60600000      28.99500000      11.28400000
 O      16.87600000      23.61000000      16.40700000
 H      17.70900000      23.84600000      16.03200000
 H      16.53000000      24.55100000      16.64000000
 C      22.21300000      21.56800000      20.38500000
 C      21.60600000      20.76600000      21.65300000
 C      19.33500000      19.92100000      20.62900000
 H      19.75200000      20.15200000      22.64300000
 H      24.08000000      21.18600000      19.96900000
 O      19.57400000      22.07800000      21.86500000
 O      22.12300000      20.67100000      19.25700000
 O      23.57100000      21.77200000      20.59500000
 C      20.07100000      20.71900000      21.75000000
 O      22.00400000      19.38700000      21.68100000
 H      21.99300000      21.23900000      22.57200000
 O      18.01900000      19.47400000      21.00500000
 O      19.16900000      20.72000000      19.40500000
 H      19.33000000      20.07600000      18.70100000
 H      21.90400000      19.03300000      22.58800000
 H      19.72600000      22.57300000      20.99700000
 O      17.50200000      27.80100000      16.10300000
 H      17.94100000      28.39700000      15.47000000
 H      18.32400000      27.56700000      16.63600000
 O       9.63500000      30.73700000      12.75200000
 H       9.50700000      31.28600000      13.55200000
 H      10.31800000      30.06600000      13.00400000
 O      11.84900000      34.02400000      19.57000000
 H      11.70900000      33.09100000      19.56200000
 H      11.81500000      34.24700000      18.60400000
 O      10.53400000      26.47300000       7.46500000
 H       9.66700000      26.24600000       7.00600000
 H      10.23700000      27.09400000       8.15800000
 O       8.33100000      27.21400000      13.47000000
 H       8.05000000      27.61700000      14.34700000
 H       8.69100000      26.38000000      13.81400000
 O      10.28500000      21.35200000       9.22600000
 H      11.16800000      21.71200000       9.41300000
 H       9.98900000      21.99500000       8.60100000
 O      11.21200000      26.78500000      19.78900000
 H      11.17700000      26.47800000      20.69600000
 H      10.38200000      27.24000000      19.69000000
 O       8.42500000      33.22900000      20.08400000
 H       8.37400000      33.85200000      20.83400000
 H       9.44200000      33.13000000      20.05800000
 O      20.07500000      23.23400000       8.36300000
 H      20.70300000      23.49500000       9.06500000
 H      20.52000000      22.53600000       7.89400000
 O      14.67300000      21.59100000       8.10500000
 H      14.14100000      21.99300000       8.76900000
 H      15.57200000      21.87300000       8.32300000
 O      15.74100000      32.51700000       7.24700000
 H      16.50000000      32.10000000       6.79700000
 H      15.24500000      31.71500000       7.38800000
 O      12.12500000      20.47900000      14.46100000
 H      12.41000000      19.69400000      15.01300000
 H      12.06000000      21.16900000      15.12100000
 O      12.87700000      33.25100000      13.17800000
 H      12.17500000      32.91600000      12.56200000
 H      12.54400000      33.03200000      14.04200000
 O      10.45300000      21.12000000      19.06700000
 H      10.93000000      21.07200000      19.94900000
 H      10.15200000      20.16300000      19.06600000
 O      15.49300000      34.09000000      13.39800000
 H      14.62100000      33.76200000      13.15100000
 H      16.08200000      33.33700000      13.40400000
 O       9.94100000      24.51800000      12.34500000
 H      10.12200000      24.61200000      13.35100000
 H      10.87000000      24.71800000      11.97600000
 O      13.99100000      21.77200000      12.45100000
 H      14.43800000      22.17500000      13.23800000
 H      13.17400000      21.43900000      12.90200000
 O      21.35100000      32.01400000      16.91900000
 H      21.00100000      32.77400000      16.29400000
 H      20.55900000      31.79500000      17.35600000
 O      15.05500000      22.39000000      14.80900000
 H      15.69500000      22.93900000      15.31500000
 H      15.01000000      21.63600000      15.46700000
 O      17.42700000      25.43700000      13.13100000
 H      17.90300000      25.25200000      13.95900000
 H      16.58600000      25.78400000      13.43100000
 O      13.05200000      26.22200000      16.27000000
 H      12.75300000      25.51400000      16.92400000
 H      13.96000000      26.44300000      16.65200000
 O      17.02500000      31.81800000      13.92600000
 H      17.09900000      31.82700000      14.92100000
 H      17.48900000      30.98300000      13.72200000
 O      12.82900000      22.56700000       9.93400000
 H      12.91800000      23.47700000      10.30300000
 H      12.99900000      22.03500000      10.81900000
 O      13.32500000      23.56900000       6.56000000
 H      14.02000000      22.92800000       6.93100000
 H      12.63000000      22.91200000       6.35800000
 O      17.13700000      31.87300000      16.69500000
 H      17.04600000      32.84000000      16.42700000
 H      17.54900000      32.04100000      17.60700000
 O      14.89900000      26.49900000      13.92800000
 H      14.63700000      27.42600000      13.68100000
 H      14.66000000      26.48200000      14.88500000
 O      12.77400000      24.99200000      11.18800000
 H      13.42000000      25.16700000      11.93300000
 H      12.85100000      25.85600000      10.75800000
 O      16.47100000      24.20800000       7.38500000
 H      16.62600000      23.67100000       6.56600000
 H      16.09700000      25.02100000       6.94400000
 O       6.77600000      31.32700000      15.59100000
 H       7.33800000      30.55600000      15.74500000
 H       5.93200000      30.88300000      15.82500000
 O      12.04000000      22.06900000      16.97300000
 H      12.08400000      22.97600000      17.29200000
 H      11.45200000      21.69100000      17.64300000
 O      20.81800000      27.61600000       9.25900000
 H      20.05900000      27.02300000       9.49400000
 H      20.72400000      27.38800000       8.25100000
 O      10.11100000      27.47100000       9.83900000
 H      10.95900000      27.53900000      10.30900000
 H       9.68400000      28.30900000      10.20500000
 O      17.15900000      28.36000000       7.58100000
 H      17.14300000      29.21800000       7.99000000
 H      18.06600000      28.07000000       7.62700000
 O       7.94200000      32.82100000       6.77200000
 H       7.94000000      31.98600000       7.33700000
 H       8.87400000      33.11000000       7.14000000
 O       6.60100000      24.37400000      19.23000000
 H       7.36700000      23.67100000      19.10000000
 H       5.92800000      23.81700000      18.76700000
 O      18.34000000      25.59000000       8.69500000
 H      17.38900000      25.47500000       8.43200000
 H      18.73600000      24.70500000       8.45700000
 O      21.47600000      33.17600000      10.15900000
 H      21.84700000      33.67000000       9.41600000
 H      20.65400000      33.75500000      10.32200000
 O      11.19500000      31.43100000      20.11800000
 H      10.86900000      31.00300000      20.90600000
 H      12.09900000      31.08900000      20.04600000
 O      15.57900000      26.06500000       9.66700000
 H      14.76600000      26.02100000       9.09900000
 H      15.50600000      26.98900000       9.93700000
 O       8.45700000      28.08300000      19.82800000
 H       7.86600000      28.51000000      19.20800000
 H       7.78800000      27.68500000      20.41000000
 O      16.64600000      31.54100000      20.01300000
 H      16.46100000      32.48900000      19.79600000
 H      17.51400000      31.64200000      20.52800000
 O       7.15200000      23.48700000      12.59200000
 H       7.84800000      24.01800000      12.08400000
 H       7.45000000      22.58600000      12.27500000
 O       8.77800000      34.35600000      11.80800000
 H       9.40000000      33.61600000      11.51600000
 H       8.07400000      34.19100000      11.11100000
 O      20.52400000      20.11100000      14.24900000
 H      20.41600000      21.07400000      14.33100000
 H      19.60600000      19.82000000      14.09300000
 O      11.21100000      31.10700000       9.13700000
 H      11.40400000      30.32000000       8.58700000
 H      11.96600000      31.67000000       8.98900000
 O      14.61500000      29.88200000       7.96000000
 H      14.23400000      29.10300000       7.51000000
 H      14.79800000      29.47100000       8.83900000
 O      19.89600000      27.07300000      17.17700000
 H      20.20500000      27.06000000      18.11900000
 H      20.17900000      26.17500000      16.90600000
 O      20.29800000      25.25600000      21.03300000
 H      19.96700000      25.55800000      21.83800000
 H      20.78300000      26.06300000      20.67800000
 O      19.76100000      20.33900000      11.16100000
 H      19.02000000      20.96900000      11.39800000
 H      19.18000000      19.62600000      10.69000000
 O       8.26200000      25.44900000      10.32100000
 H       8.91200000      25.96200000       9.84900000
 H       8.82500000      25.24900000      11.11800000
 O      14.46300000      21.14300000      17.37700000
 H      14.21200000      21.27000000      18.32400000
 H      13.54100000      21.52300000      17.10300000
 O      18.68800000      29.74700000      14.07000000
 H      18.52900000      29.44400000      13.07000000
 H      19.61400000      30.06900000      13.87500000
 O       7.08700000      33.59300000      13.94300000
 H       7.81300000      33.60100000      13.27300000
 H       7.18200000      32.71200000      14.34200000
 O      16.22800000      32.82100000       9.98100000
 H      15.93200000      32.83800000       9.02500000
 H      16.62500000      33.69000000      10.12800000
 O      13.29200000      32.64900000      16.16100000
 H      14.24100000      32.72800000      15.88700000
 H      13.12300000      33.58700000      16.42600000
 O      15.48000000      31.09200000      11.97600000
 H      15.68600000      31.83700000      11.38200000
 H      16.21200000      31.21500000      12.63500000
 O      20.56700000      33.81500000      15.02900000
 H      21.00600000      33.37900000      14.26500000
 H      20.05900000      34.50800000      14.54500000
 O      13.95600000      29.01200000      13.40800000
 H      13.59800000      29.54400000      14.15000000
 H      14.35300000      29.70400000      12.89800000
 O      20.62300000      25.18400000      13.51700000
 H      21.29400000      25.77800000      13.12100000
 H      19.91300000      25.28600000      12.91900000
 O       7.44100000      33.70600000       9.50200000
 H       6.96400000      32.92900000       9.23400000
 H       7.35600000      34.28600000       8.78500000
 O      18.34400000      29.04500000      11.66300000
 H      18.42400000      29.47600000      10.79900000
 H      18.72000000      28.17400000      11.53600000
 O      12.86400000      27.78500000      11.03800000
 H      13.75800000      28.14400000      11.29500000
 H      12.32500000      28.00700000      11.81600000
 O      19.70800000      34.16800000       7.78900000
 H      20.66200000      34.32700000       7.89100000
 H      19.49400000      34.46200000       8.74800000
 O       9.85400000      32.46800000      14.87100000
 H      10.65600000      32.93600000      15.20800000
 H       9.34600000      32.58000000      15.73400000
 O       8.22200000      25.27100000      16.42600000
 H       8.02000000      25.13300000      17.35200000
 H       8.04300000      24.36900000      16.06800000
 O      10.43400000      25.47400000      14.83100000
 H      11.09400000      26.00800000      15.28800000
 H       9.68600000      25.44300000      15.43100000
 O       8.50000000      23.12200000       8.43400000
 H       8.26500000      23.72200000       9.20700000
 H       8.47000000      23.76000000       7.71200000
 O      13.89100000      26.55400000      20.46800000
 H      13.81700000      25.57500000      20.66700000
 H      12.95700000      26.68900000      20.07100000
 O      15.89000000      26.11300000      17.19700000
 H      16.55700000      26.82600000      16.79400000
 H      16.10700000      26.38700000      18.13400000
 O       7.97300000      28.72400000      15.75800000
 H       7.55100000      28.73400000      16.64300000
 H       8.92000000      28.54400000      16.04200000
 O      11.33900000      29.20800000       7.29800000
 H      10.49600000      28.95900000       6.77900000
 H      11.98900000      29.11400000       6.59200000
 O      19.15200000      26.22000000      11.32900000
 H      18.63100000      25.96800000      10.53100000
 H      18.45800000      26.01400000      12.04200000
 O       6.56300000      28.74900000       7.42000000
 H       7.19200000      29.34000000       7.87600000
 H       6.44500000      28.06700000       8.12400000
 O      13.10700000      33.24300000       8.44500000
 H      13.41200000      33.97800000       9.02900000
 H      13.94800000      32.90400000       8.14600000
 O      10.76800000      28.15700000      12.93300000
 H       9.76900000      27.96200000      13.02100000
 H      11.00800000      27.92100000      13.83700000
 O       7.74700000      22.76000000      15.45800000
 H       7.59100000      22.66300000      14.48200000
 H       7.22700000      22.03700000      15.78800000
 O       7.92600000      21.29900000      10.66800000
 H       8.89500000      21.15900000      10.58400000
 H       7.71800000      21.57700000       9.77000000
 O      18.54300000      31.88800000       6.92300000
 H      18.87000000      32.69400000       7.33000000
 H      19.35500000      31.51600000       6.53000000
 O      14.00500000      31.05700000      20.98100000
 H      14.01400000      30.17700000      21.37400000
 H      14.81400000      31.01600000      20.44600000
 O      11.02400000      32.63200000      11.38300000
 H      10.52100000      31.93300000      11.90200000
 H      11.23700000      32.06300000      10.64800000
