306
XYZ file of cluster: frame_5000_25085.96e.4da88 - created by MolEdiTo
 O      10.59100000       9.08700000      15.45800000
 H      10.13500000       8.21000000      15.44200000
 H       9.95900000       9.56900000      14.86000000
 O      17.58600000       8.01300000      16.23400000
 H      17.52500000       8.99500000      16.31300000
 H      17.04600000       7.94500000      15.44700000
 O       9.93900000      11.35900000      25.68300000
 H       9.56800000      11.62100000      26.55300000
 H       9.65600000      10.43100000      25.65200000
 O      12.20200000      10.44800000      21.21800000
 H      11.92700000      11.12100000      21.85300000
 H      13.17600000      10.33700000      21.47200000
 O      18.28100000       1.76300000      19.44500000
 H      17.88300000       1.81700000      20.30600000
 H      17.64200000       1.13800000      19.04400000
 O      16.06300000       8.50800000      13.84600000
 H      16.20800000       9.38000000      14.22400000
 H      15.07500000       8.47000000      13.94400000
 O       8.19500000      13.65600000      20.73600000
 H       9.18400000      13.49800000      20.66000000
 H       7.86900000      12.77000000      20.48700000
 O      13.23100000       2.48000000      14.16900000
 H      12.78400000       3.37400000      14.15600000
 H      12.41400000       1.96200000      13.91200000
 O       8.53500000      12.89500000      16.28600000
 H       8.43700000      11.89200000      16.30500000
 H       7.61500000      13.13500000      16.45600000
 O      17.10300000       1.19100000      16.21900000
 H      17.12200000       2.11600000      15.80300000
 H      16.96200000       0.65900000      15.40600000
 O      14.98700000       6.00700000      14.94800000
 H      14.77500000       6.93600000      15.03900000
 H      14.50700000       5.62900000      15.75000000
 O       9.53000000       5.01300000      17.16400000
 H      10.34500000       5.52800000      17.37900000
 H       9.29000000       4.66800000      18.02200000
 O       9.70700000       9.71600000      19.75700000
 H       9.15400000      10.02900000      20.48400000
 H      10.57800000       9.91300000      20.05900000
 O      17.20400000      12.92000000      17.92400000
 H      17.78000000      13.27600000      17.16600000
 H      17.23600000      13.75600000      18.47600000
 O      12.08700000       5.18000000      14.27600000
 H      12.29900000       5.74600000      13.46900000
 H      11.29400000       5.70400000      14.60000000
 O      17.66800000      13.60800000      21.46400000
 H      17.60300000      14.06100000      20.56200000
 H      17.93300000      12.74500000      21.26700000
 O       8.36500000       1.73000000      17.41600000
 H       8.98300000       2.09100000      16.73800000
 H       8.92900000       1.25300000      18.00300000
 O       9.67500000       2.95500000      15.16500000
 H       9.10600000       3.19100000      14.37000000
 H       9.66100000       3.85500000      15.61000000
 O      20.09200000       7.30000000      16.31200000
 H      19.21200000       7.65600000      16.43900000
 H      19.86400000       6.55800000      15.67700000
 O      13.63700000       8.49700000      15.12300000
 H      12.73100000       8.69600000      14.85500000
 H      13.65500000       9.11100000      15.94800000
 O       7.73200000      13.80700000      13.92900000
 H       8.31100000      13.20600000      13.36300000
 H       8.12100000      13.46100000      14.80800000
 O       8.93100000       0.89400000      26.74100000
 H       9.67900000       0.23300000      26.79100000
 H       8.13300000       0.33800000      26.81400000
 O      12.21900000       7.98200000      26.96800000
 H      12.90200000       7.37500000      27.33500000
 H      12.72900000       8.33500000      26.21600000
 O      14.63600000      10.87800000      22.68900000
 H      15.22800000      11.68600000      22.84900000
 H      15.23000000      10.39900000      22.07100000
 O      14.58900000       5.96900000      27.38900000
 H      14.73600000       6.88800000      27.59400000
 H      15.09800000       5.55600000      28.14000000
 O      11.72300000       8.02100000      22.14900000
 H      11.85200000       8.92300000      21.84500000
 H      12.54400000       7.53400000      21.82500000
 O      13.03300000       1.33800000      17.98600000
 H      12.90800000       1.67200000      17.08900000
 H      12.46000000       1.99900000      18.47400000
 O      20.86700000      11.56300000      24.09100000
 H      20.53800000      10.86400000      23.44100000
 H      21.58400000      11.94600000      23.50800000
 O      11.89700000      14.16700000      14.62000000
 H      12.22800000      13.33400000      14.96100000
 H      12.04700000      13.96500000      13.66900000
 O      13.47700000      14.02000000      24.65200000
 H      13.90500000      14.93300000      24.58900000
 H      14.22100000      13.53100000      24.23000000
 O      15.75600000       0.73600000      18.63500000
 H      16.13800000       0.77400000      17.75300000
 H      14.93600000       1.20100000      18.55400000
 O      20.61300000       7.51200000      18.78900000
 H      20.66300000       6.57900000      19.06900000
 H      20.48700000       7.33500000      17.79500000
 O      18.54900000       1.11600000      24.65300000
 H      18.88000000       0.18500000      24.41900000
 H      19.37300000       1.41800000      25.09800000
 O       8.48800000       9.11500000      25.97000000
 H       8.74700000       8.55100000      25.22500000
 H       8.90500000       8.63100000      26.71200000
 O      19.09800000      11.29800000      26.13900000
 H      19.83600000      11.34500000      26.82400000
 H      19.67700000      11.36200000      25.33300000
 O      20.64700000       5.13800000      19.62300000
 H      20.88000000       4.19200000      19.82700000
 H      19.77500000       5.00000000      19.24600000
 O      12.95900000       3.32200000      23.95200000
 H      13.55300000       3.36100000      24.78300000
 H      13.68200000       2.93500000      23.38000000
 O      10.86400000       0.87100000      22.95100000
 H      11.74000000       0.39900000      23.11900000
 H      11.10600000       1.78400000      22.93700000
 O      14.28200000       1.48900000      21.61000000
 H      14.74900000       0.83100000      20.97400000
 H      13.89000000       0.79100000      22.17300000
 O      15.09500000       8.66400000      19.94900000
 H      14.67400000       8.05600000      20.58700000
 H      15.45600000       8.08800000      19.31000000
 O      21.00500000       6.62200000      21.99400000
 H      21.30900000       6.35000000      21.06800000
 H      20.03700000       6.66500000      21.79600000
 O      15.18400000      12.04700000      14.76500000
 H      15.02300000      13.00000000      15.05100000
 H      14.28900000      11.65500000      15.02000000
 O      17.00100000       4.58800000      22.04000000
 H      17.30000000       3.67500000      21.93400000
 H      17.56600000       4.92400000      22.80100000
 O      19.61500000      13.30300000      15.70900000
 H      18.97300000      14.02700000      15.32000000
 H      20.22300000      13.86900000      16.21300000
 O      13.82500000       9.68900000      24.92700000
 H      13.97700000      10.04600000      24.05900000
 H      14.20100000       8.78700000      24.83500000
 O      11.01300000       4.52800000      25.62300000
 H      11.56400000       4.08900000      24.93300000
 H      11.56000000       4.35200000      26.39300000
 O       6.61500000       4.57500000      27.77300000
 H       7.12400000       5.06200000      28.47300000
 H       6.31800000       5.27800000      27.19000000
 O      12.04200000       6.37000000      17.73100000
 H      12.53700000       7.26600000      17.67000000
 H      12.78000000       5.84100000      17.98800000
 O      12.32200000      12.34500000      18.29700000
 H      11.94500000      12.35600000      19.21100000
 H      13.13400000      12.86700000      18.47000000
 O      15.70600000      13.27800000      23.37500000
 H      16.17200000      13.51100000      22.54500000
 H      16.54700000      13.34300000      23.92600000
 O      17.34700000       1.58300000      22.26400000
 H      16.97700000       0.67600000      22.14300000
 H      17.82900000       1.41600000      23.12100000
 O      16.88400000      10.55100000      20.69400000
 H      16.49500000       9.72600000      20.44700000
 H      17.80500000      10.47500000      20.39800000
 O      19.69100000      13.74000000      19.36700000
 H      19.95800000      13.84300000      20.33700000
 H      20.06000000      14.65100000      19.10900000
 O      14.45800000       4.98800000      18.49400000
 H      15.39300000       5.22900000      18.56400000
 H      14.24700000       4.66300000      19.34700000
 O      14.86900000       6.93500000      24.68600000
 H      15.83600000       7.17000000      24.75800000
 H      14.88600000       6.12100000      25.29700000
 O      20.15600000      10.91900000      16.68000000
 H      19.82900000      11.71400000      16.25600000
 H      21.10000000      10.99600000      16.77300000
 O       7.80200000       3.77600000      21.52100000
 H       8.48400000       4.42800000      21.85600000
 H       7.42200000       4.29900000      20.77600000
 O       7.25400000       8.87400000      18.52300000
 H       7.74000000       8.06300000      18.38100000
 H       8.00300000       9.45500000      18.88300000
 O       7.99700000      10.77300000      21.44800000
 H       7.12100000      10.34300000      21.33800000
 H       7.93200000      11.10200000      22.40900000
 O      17.38600000       4.35800000      15.51200000
 H      16.64300000       5.06000000      15.39700000
 H      17.61600000       4.24100000      14.57800000
 O      16.85800000       5.91000000      18.30500000
 H      17.73400000       5.60600000      18.01800000
 H      16.59300000       6.49600000      17.55900000
 O      20.25300000      10.23300000      21.83600000
 H      19.76300000       9.99900000      20.97300000
 H      21.09200000      10.53300000      21.38200000
 O       8.24000000       3.88900000      25.16600000
 H       8.14400000       3.42900000      26.01900000
 H       9.10200000       4.30100000      25.37600000
 O      16.59700000      10.43200000      16.42400000
 H      16.83700000      11.18000000      17.04500000
 H      16.17400000      10.97900000      15.70500000
 O      18.92000000       4.11800000      17.76300000
 H      18.25700000       4.08600000      17.02800000
 H      18.67700000       3.35700000      18.26200000
 O       9.31800000       5.97200000      21.89400000
 H       9.36600000       6.33200000      20.93600000
 H       9.78400000       6.76400000      22.31800000
 O       9.32200000       6.64200000      15.01300000
 H       9.23400000       6.01300000      15.79800000
 H       8.69600000       6.29200000      14.45600000
 O       6.92000000       6.84200000      22.61300000
 H       7.78800000       6.38600000      22.38500000
 H       6.90800000       6.77100000      23.56500000
 O      16.80700000       3.38400000      28.19200000
 H      17.75700000       3.18300000      28.23900000
 H      16.63100000       3.32200000      27.26700000
 O      11.89400000      12.36900000      23.23300000
 H      11.39000000      12.13300000      24.03000000
 H      12.72100000      12.69400000      23.62200000
 O      15.43200000       3.89100000      13.27900000
 H      15.27000000       4.60400000      13.94500000
 H      14.50800000       3.43300000      13.37800000
 O      18.51900000       5.39100000      24.27200000
 H      19.48200000       5.44300000      24.28100000
 H      18.34100000       6.28200000      24.78700000
 O       7.82500000      12.02300000      24.03600000
 H       8.67000000      12.14400000      24.50800000
 H       7.29300000      12.71600000      24.54800000
 O      14.95800000      12.58200000      20.01900000
 H      15.57100000      12.98400000      19.34500000
 H      15.42000000      11.81200000      20.27800000
 O      13.16100000       9.46400000      17.90600000
 H      13.86700000       9.43600000      18.57100000
 H      12.50900000      10.12600000      18.24600000
 O      21.09200000       3.25300000      22.81900000
 H      20.75200000       2.65500000      22.13700000
 H      21.85900000       3.66900000      22.35900000
 O       9.74000000       7.38600000      24.26200000
 H      10.34100000       6.75700000      24.71500000
 H      10.28000000       7.75900000      23.55000000
 O      18.40200000       6.89200000      21.23300000
 H      17.72400000       6.21600000      21.40400000
 H      18.46100000       6.93100000      20.30600000
 O       7.00900000      10.55800000      16.26500000
 H       6.48300000      10.24500000      15.48100000
 H       7.01000000       9.72300000      16.81100000
 O      13.68200000      10.68700000      27.35500000
 H      13.55300000      10.42100000      26.42900000
 H      14.33100000      11.42400000      27.29200000
 O      14.15300000       6.96600000      21.89500000
 H      14.64300000       6.92800000      22.72400000
 H      14.17400000       6.01100000      21.64200000
 O      19.32000000       2.38100000      27.99200000
 H      19.82800000       2.70900000      27.24200000
 H      19.99900000       2.40700000      28.74600000
 O      17.11200000       3.58600000      25.49300000
 H      17.64700000       4.36700000      25.11200000
 H      17.71900000       2.85000000      25.22300000
 O      17.52800000       9.45900000      27.87500000
 H      17.80500000      10.23500000      27.32300000
 H      18.18400000       9.59300000      28.65000000
 O      11.39500000      13.18100000      20.65800000
 H      12.10700000      13.87200000      20.53800000
 H      11.52600000      13.02700000      21.59300000
 O      12.52900000      11.33100000      15.64300000
 H      12.44800000      11.78300000      16.51600000
 H      11.89000000      10.64700000      15.67700000
 O      19.42000000       9.91900000      19.23900000
 H      19.78600000       9.00800000      19.18600000
 H      19.56900000      10.17300000      18.30700000
 O      11.39300000       2.52900000      19.57400000
 H      10.81200000       1.84500000      19.75400000
 H      11.45700000       3.01000000      20.44800000
 O       9.69200000       7.05000000      19.28000000
 H      10.38200000       6.71200000      18.73900000
 H       9.89300000       8.03600000      19.21100000
 O      17.34900000      13.40900000      25.79600000
 H      16.73100000      12.95200000      26.45600000
 H      18.06300000      12.73500000      25.84900000
 O       8.67600000       1.22200000      20.70400000
 H       8.22700000       2.10100000      20.85500000
 H       9.17900000       1.11100000      21.56500000
 O      11.46500000       4.07400000      21.93000000
 H      10.86300000       4.77800000      22.24200000
 H      12.08400000       3.98200000      22.73100000
 O      17.83600000      10.83200000      13.84000000
 H      17.76000000      11.26300000      14.70900000
 H      18.65600000      11.23500000      13.50000000
 O      14.48400000       3.36400000      26.01800000
 H      14.32200000       4.10000000      26.64600000
 H      15.39700000       3.53800000      25.72600000
 O      20.58300000      12.21800000      13.20700000
 H      20.45900000      12.56200000      14.13300000
 H      21.30500000      11.57400000      13.40600000
 O      18.06800000       8.91000000      22.85800000
 H      18.14500000       8.15400000      22.23100000
 H      18.98300000       9.24500000      22.83700000
 O       7.28200000       4.97300000      19.11400000
 H       6.99800000       5.86000000      19.07800000
 H       6.76900000       4.55900000      18.38100000
 O      20.87900000       1.06900000      20.23400000
 H      20.88800000       0.10000000      20.13400000
 H      19.99900000       1.31200000      19.97800000
 O       6.65100000      10.68300000      26.82600000
 H       7.38600000      11.17900000      27.30000000
 H       7.23600000      10.00100000      26.42500000
 O      17.76000000       7.58500000      25.40600000
 H      17.82800000       8.34100000      24.82100000
 H      17.62500000       8.00400000      26.29700000
 O      14.25100000       4.40300000      21.25200000
 H      14.10400000       3.49200000      21.47500000
 H      15.21000000       4.41600000      21.65500000
 O       6.98400000      13.87100000      25.71300000
 H       7.73700000      13.86700000      26.31100000
 H       6.32000000      13.47300000      26.30700000
