1512
XYZ file of cluster: frame_5000_c46f3.1ff05.21286 - created by MolEdiTo
 O      38.53500000      12.19300000       9.86500000
 H      38.19100000      11.85500000       9.03200000
 H      38.87800000      13.10300000       9.59500000
 O      38.92800000       8.80100000      23.41400000
 H      39.19500000       8.51800000      22.49800000
 H      38.80800000       7.97000000      23.79400000
 O      38.06800000      25.12500000      32.28100000
 H      38.40200000      26.00200000      31.95100000
 H      37.75300000      25.47800000      33.15400000
 O      38.48800000      12.74400000      29.32700000
 H      38.17100000      12.83700000      30.23300000
 H      37.65100000      12.50600000      28.86600000
 O      39.32700000      15.82200000      15.75600000
 H      39.60000000      16.16400000      16.62700000
 H      39.36700000      16.64000000      15.27600000
 O      39.92300000      13.52800000      22.25300000
 H      40.69000000      13.06400000      21.88700000
 H      39.79200000      13.11400000      23.11100000
 O      37.39800000      15.49300000      18.73200000
 H      38.28400000      15.80500000      18.90900000
 H      36.86600000      15.99600000      19.38800000
 O      36.76900000      32.64500000      14.46500000
 H      35.93100000      33.09500000      14.48200000
 H      37.34600000      33.39900000      14.18000000
 O      37.24000000       7.99600000      12.91800000
 H      37.74500000       8.56500000      13.54400000
 H      36.69900000       8.65000000      12.56400000
 O      39.86500000      19.07900000      11.48800000
 H      39.16800000      18.84900000      10.83000000
 H      40.06500000      20.00300000      11.14800000
 O      35.68600000      16.71100000       7.77400000
 H      34.78100000      17.09600000       7.59200000
 H      36.12600000      16.88300000       6.93800000
 O      40.05400000      34.69200000      17.43400000
 H      40.28900000      34.46100000      18.35900000
 H      39.30000000      35.27400000      17.58200000
 O      38.62900000      10.11200000      32.04700000
 H      37.70000000      10.14500000      31.79400000
 H      38.74000000       9.14400000      32.07800000
 O      35.95100000      34.34400000      17.32900000
 H      35.15200000      34.76800000      17.69800000
 H      36.27100000      33.89300000      18.19000000
 O      36.77500000      15.67000000      40.36000000
 H      37.42800000      15.67100000      41.12000000
 H      37.33700000      15.36200000      39.67200000
 O      35.59700000      12.81100000      40.51900000
 H      34.77600000      12.59500000      40.03200000
 H      36.16100000      13.14200000      39.80000000
 O      39.94400000      20.43200000      25.02800000
 H      40.04700000      20.77300000      25.91500000
 H      39.47200000      19.59400000      25.16800000
 O      34.58600000      35.25400000      38.21800000
 H      35.57300000      35.10700000      38.13300000
 H      34.61700000      36.20000000      38.53900000
 O      35.22800000      13.97000000      17.80100000
 H      35.29700000      13.15200000      18.37600000
 H      35.99000000      14.47500000      18.17300000
 O      34.67900000       9.02200000      25.97100000
 H      35.43500000       9.33900000      25.55800000
 H      33.91800000       9.38900000      25.45100000
 O      38.24200000      10.74500000      34.81000000
 H      37.36300000      10.35100000      34.94900000
 H      38.37200000      10.60400000      33.83300000
 O      35.06900000      35.04500000      11.87200000
 H      35.72100000      35.54800000      11.29100000
 H      35.63700000      34.75100000      12.59300000
 O      38.52500000      33.15300000      32.03100000
 H      37.58400000      33.09400000      32.26900000
 H      38.39200000      33.36700000      31.09300000
 O      39.14100000      29.81400000      29.68900000
 H      39.77600000      30.56000000      29.84200000
 H      38.56900000      29.99500000      30.44400000
 O      37.68500000      35.61300000      13.30600000
 H      38.64500000      35.65300000      13.32800000
 H      37.47600000      35.90100000      12.41800000
 O      39.07400000      38.17100000       9.39100000
 H      39.95000000      37.69200000       9.21200000
 H      38.68200000      38.15500000       8.48900000
 O      39.26300000      17.37900000      13.57100000
 H      38.92300000      16.64500000      12.99000000
 H      39.49300000      17.99400000      12.82500000
 O      38.79200000      30.68600000      21.79000000
 H      38.45500000      29.80500000      22.08700000
 H      38.67800000      31.24000000      22.55000000
 O      36.74500000      33.78900000      29.59300000
 H      36.01000000      33.41700000      30.12600000
 H      36.31100000      33.83400000      28.74900000
 O      34.22900000      23.14400000      27.36200000
 H      34.72400000      22.32600000      27.12400000
 H      34.31100000      23.60700000      26.49300000
 O      40.27300000      40.00400000      25.71500000
 H      39.84400000      40.52500000      24.94300000
 H      41.19000000      40.49800000      25.70200000
 O      38.71800000      36.02700000      23.02000000
 H      39.27500000      35.31700000      22.65800000
 H      39.12600000      36.18700000      23.90800000
 O      39.72400000       7.44600000      31.69900000
 H      39.72500000       6.45200000      31.35800000
 H      40.39700000       7.73900000      31.01500000
 O      35.33500000      24.68500000      29.36400000
 H      36.21500000      24.53900000      29.63600000
 H      35.17500000      24.04200000      28.64400000
 O      36.20700000      12.44200000      23.10800000
 H      35.68000000      12.92700000      23.80000000
 H      36.19300000      11.52800000      23.48600000
 O      37.90600000      18.69300000       9.63200000
 H      37.20700000      18.06700000       9.91000000
 H      37.33100000      19.42600000       9.37700000
 O      36.83300000      11.94300000      11.83300000
 H      37.42800000      12.08300000      11.07300000
 H      37.49000000      12.09700000      12.55600000
 O      38.44100000      14.93900000      38.15200000
 H      39.34100000      14.84000000      37.71000000
 H      37.90000000      14.44800000      37.52200000
 O      34.36000000      33.73300000      15.06900000
 H      33.51300000      34.18200000      15.25100000
 H      34.83400000      33.97400000      15.87900000
 O      34.70200000      16.21500000      27.21800000
 H      35.31300000      16.76900000      26.72400000
 H      34.47800000      16.82700000      27.97900000
 O      40.56300000      13.27900000      19.17700000
 H      40.02800000      12.44600000      19.17600000
 H      41.16100000      13.11100000      19.88200000
 O      35.13000000      40.37200000      34.86200000
 H      35.12400000      39.59800000      35.47800000
 H      36.12600000      40.45000000      34.80000000
 O      40.13500000       6.43700000      14.36100000
 H      39.38100000       6.99800000      14.40000000
 H      39.75700000       5.60100000      14.69100000
 O      37.97700000      25.61600000      12.44400000
 H      37.60500000      26.46100000      12.77600000
 H      37.17000000      25.19500000      12.12600000
 O      36.04700000      17.37000000      20.58000000
 H      35.25100000      17.04700000      20.24200000
 H      35.91900000      18.32700000      20.65600000
 O      38.38200000      15.80900000      11.69900000
 H      37.62200000      16.04000000      11.17400000
 H      39.06700000      15.58000000      11.06500000
 O      39.43200000      10.78300000      19.25500000
 H      38.74100000      10.09700000      19.20200000
 H      40.16000000      10.19500000      19.63300000
 O      34.87100000      24.73000000      24.77100000
 H      33.86900000      24.71800000      24.78600000
 H      35.03700000      24.01300000      24.12400000
 O      35.11400000      38.25800000      10.01200000
 H      34.74400000      38.79400000      10.72800000
 H      35.29600000      38.99000000       9.34700000
 O      37.31200000      30.16200000      35.12500000
 H      36.92000000      29.49900000      35.69600000
 H      36.80200000      30.97800000      35.41900000
 O      37.38300000      33.79100000      25.65400000
 H      37.85800000      34.55800000      26.12000000
 H      36.81900000      34.33700000      25.02100000
 O      34.83700000      33.10100000      21.93600000
 H      35.06000000      33.67100000      22.66000000
 H      34.44700000      32.36400000      22.51200000
 O      38.33200000      30.85200000       7.04400000
 H      38.97100000      31.53200000       6.81600000
 H      38.86400000      30.02800000       6.87100000
 O      35.43400000      26.12800000      20.35300000
 H      36.17100000      25.53000000      20.63100000
 H      35.34900000      26.69400000      21.16600000
 O      35.40100000      38.10300000      16.18100000
 H      35.69100000      38.21900000      17.11000000
 H      35.96400000      37.33800000      15.99200000
 O      37.91600000      31.94800000      11.06600000
 H      38.42300000      32.73000000      10.66000000
 H      38.62400000      31.47200000      11.48600000
 O      36.74000000      33.19000000      36.61000000
 H      37.34400000      32.80400000      37.27800000
 H      36.97500000      34.11400000      36.69700000
 O      37.18400000      19.60800000      39.85800000
 H      37.06000000      18.87100000      39.25400000
 H      36.94400000      20.37500000      39.28400000
 O      36.09300000      16.53600000      10.42100000
 H      35.55500000      16.59500000       9.60500000
 H      35.65900000      15.73900000      10.82900000
 O      36.02000000      10.77000000      31.58900000
 H      36.03000000      10.92200000      30.60900000
 H      35.40600000      11.49400000      31.86200000
 O      40.18000000      28.79300000       7.03800000
 H      40.01300000      28.83900000       6.03100000
 H      40.98400000      28.25800000       7.03100000
 O      36.39000000      38.63700000      18.88600000
 H      36.48000000      38.48800000      19.84300000
 H      37.23900000      39.09700000      18.70600000
 O      37.45400000      39.17200000      32.97700000
 H      37.73100000      38.90500000      32.04100000
 H      36.54900000      39.39400000      32.74100000
 O      39.24800000      27.35700000      19.74000000
 H      38.45800000      27.94600000      19.76400000
 H      39.98000000      27.93200000      19.76700000
 O      37.60700000      25.77600000      27.19800000
 H      37.81800000      25.43100000      26.25700000
 H      37.28700000      24.90700000      27.54100000
 O      35.35200000       6.38200000       7.59100000
 H      35.06600000       7.26300000       7.81300000
 H      34.53600000       5.89000000       7.67000000
 O      38.18800000      21.58900000      30.27300000
 H      37.27900000      21.67700000      30.59100000
 H      38.67200000      21.72500000      31.11200000
 O      36.48900000      13.81400000      34.54700000
 H      35.83800000      13.40400000      33.97200000
 H      36.20100000      13.47100000      35.43300000
 O      38.97700000      27.73800000      31.47500000
 H      38.93400000      28.49300000      32.13000000
 H      38.95600000      28.27600000      30.67000000
 O      38.31200000      32.43400000      38.58400000
 H      39.27000000      32.24800000      38.51100000
 H      38.25600000      32.91200000      39.41300000
 O      35.51400000      29.88500000      25.35400000
 H      35.52100000      29.98000000      26.31600000
 H      35.70900000      28.88300000      25.28100000
 O      40.24500000      24.23500000      27.86700000
 H      40.14700000      23.29200000      28.12500000
 H      39.32200000      24.37700000      27.46800000
 O      39.60400000      15.19100000      26.46200000
 H      39.69900000      15.60000000      25.57000000
 H      39.93100000      15.87700000      27.02800000
 O      35.98300000      18.72000000      12.09900000
 H      36.26300000      17.85100000      11.74900000
 H      35.26700000      18.54100000      12.74600000
 O      39.37500000      29.64900000      36.66400000
 H      38.79000000      30.00100000      35.91900000
 H      39.22900000      28.71500000      36.68200000
 O      34.78700000      10.04000000      11.86700000
 H      34.46100000      10.39200000      12.77700000
 H      35.44500000      10.73500000      11.73000000
 O      38.05400000      13.50500000      16.63500000
 H      38.42400000      14.37600000      16.28900000
 H      37.98300000      13.72900000      17.55200000
 O      39.92100000      16.14400000      18.98000000
 H      40.28200000      15.21500000      19.04000000
 H      40.08400000      16.32700000      19.95400000
 O      40.19900000      14.50100000       9.76700000
 H      39.94300000      14.66100000       8.81000000
 H      40.92600000      15.14900000       9.78200000
 O      38.11000000      10.63900000      26.63700000
 H      37.45100000      11.23000000      26.26400000
 H      37.72100000      10.29100000      27.47200000
 O      36.09900000      15.73800000      30.98700000
 H      35.67000000      16.57300000      31.15700000
 H      36.94100000      15.85800000      31.47000000
 O      38.88800000       9.32100000      37.26200000
 H      39.85400000       9.02300000      37.41500000
 H      39.02600000       9.82500000      36.48200000
 O      35.46900000      14.41100000      11.71900000
 H      35.71900000      13.43100000      11.78600000
 H      35.17500000      14.58600000      12.67200000
 O      40.72100000      36.55200000      32.06100000
 H      40.69200000      37.46600000      32.35900000
 H      41.50100000      36.56600000      31.45700000
 O      37.42600000      23.28400000       7.34100000
 H      37.73800000      24.26100000       7.45100000
 H      36.47300000      23.48500000       7.31600000
 O      38.57500000      17.84500000      25.31700000
 H      37.91900000      18.02600000      26.04000000
 H      37.94800000      17.68800000      24.60300000
 O      35.29900000      19.92300000      19.99200000
 H      35.88100000      20.66500000      19.78800000
 H      34.50400000      20.40700000      20.32200000
 O      39.06800000      18.84400000      36.87600000
 H      39.62800000      18.15400000      37.27000000
 H      39.54000000      19.65600000      37.21400000
 O      35.80100000      39.93600000       7.89500000
 H      36.04400000      39.28300000       7.19300000
 H      36.64300000      40.34500000       8.11000000
 O      36.09300000      19.75900000      32.96500000
 H      36.12400000      19.39800000      33.85600000
 H      37.04200000      19.66100000      32.74300000
 O      38.23400000      13.32700000      32.09300000
 H      38.70600000      14.15900000      31.96100000
 H      37.81900000      13.48500000      32.99300000
 O      37.91600000      35.78000000      19.25600000
 H      37.18800000      36.46600000      19.45100000
 H      37.50300000      34.95600000      19.47800000
 O      35.32000000      33.05400000      27.41200000
 H      35.85700000      32.21000000      27.51700000
 H      35.60100000      33.28900000      26.48200000
 O      38.76900000      21.92000000      16.68900000
 H      38.45700000      22.53400000      15.94800000
 H      39.56500000      21.54400000      16.30600000
 O      39.01400000      36.55600000      38.98800000
 H      39.92700000      36.96800000      39.10100000
 H      38.57000000      37.01500000      39.71800000
 O      38.50400000      19.56800000      14.74700000
 H      38.79400000      18.76000000      14.23100000
 H      39.21300000      19.56600000      15.43000000
 O      36.91400000       9.80700000      29.04800000
 H      36.71100000       9.01600000      29.57400000
 H      36.01300000      10.09300000      28.74700000
 O      38.77600000      13.53200000      13.42200000
 H      38.89100000      13.95200000      14.29100000
 H      38.54200000      14.30000000      12.88100000
 O      35.50800000      12.50500000      36.85200000
 H      35.42300000      11.55600000      37.09900000
 H      34.79300000      12.57500000      36.11700000
 O      38.09200000      28.00300000      15.28600000
 H      38.12300000      28.75300000      15.92700000
 H      38.86800000      27.51200000      15.53300000
 O      38.14200000       8.55700000       7.77100000
 H      37.80900000       9.46900000       7.82100000
 H      37.99900000       8.41200000       6.79100000
 O      39.83400000      11.28300000      12.09400000
 H      39.39700000      11.65100000      11.25800000
 H      39.47900000      11.97900000      12.68800000
 O      38.16200000      37.71300000      35.04200000
 H      37.97200000      38.30500000      34.25400000
 H      39.02200000      38.07300000      35.34200000
 O      39.88200000      33.72500000      22.62800000
 H      40.46200000      32.96600000      22.47700000
 H      39.33300000      33.39400000      23.34300000
 O      35.83800000      38.16300000      29.50300000
 H      36.73000000      37.90500000      29.55500000
 H      35.66900000      38.49000000      30.40100000
 O      37.65100000      40.34300000      21.67100000
 H      37.40400000      39.40000000      21.83300000
 H      37.83900000      40.35500000      20.72400000
 O      38.57900000      39.80200000      27.85200000
 H      39.12700000      39.84200000      27.00600000
 H      38.34400000      40.73200000      27.85400000
 O      37.38000000       6.65700000       9.25500000
 H      37.63100000       7.46700000       8.75500000
 H      36.53900000       6.41700000       8.75800000
 O      35.62300000      20.79400000      26.43200000
 H      35.90700000      19.85800000      26.52300000
 H      35.11800000      20.75200000      25.63600000
 O      35.88400000      32.53600000      32.80600000
 H      35.21200000      32.82100000      32.13100000
 H      35.40600000      32.73900000      33.64600000
 O      39.24200000      22.59800000      32.64000000
 H      38.66900000      23.30600000      32.42800000
 H      40.01000000      23.05900000      33.03900000
 O      39.65100000      11.55300000      24.29800000
 H      39.44300000      10.65800000      23.88900000
 H      39.23900000      11.42500000      25.16600000
 O      39.57700000      15.70900000      31.89700000
 H      39.72100000      16.45200000      32.57000000
 H      40.51400000      15.45600000      31.77800000
 O      38.16000000      28.49300000      26.98600000
 H      38.14400000      27.55200000      27.25500000
 H      38.44600000      28.90500000      27.85700000
 O      37.09300000      26.07500000      39.21900000
 H      36.21300000      25.77500000      38.89400000
 H      36.86400000      26.26900000      40.17000000
 O      37.95500000      28.26700000      22.49600000
 H      37.02500000      28.11100000      22.41300000
 H      38.23800000      27.36100000      22.73100000
 O      40.66400000      12.20000000      31.70400000
 H      39.79900000      11.78400000      31.88800000
 H      40.50900000      12.75400000      30.92400000
 O      34.61900000      26.75200000       9.13100000
 H      35.28200000      27.52400000       9.23000000
 H      33.80900000      27.26500000       8.93100000
 O      38.90000000      19.87200000      32.76100000
 H      39.61700000      19.49400000      32.23600000
 H      39.21600000      20.83300000      32.72900000
 O      39.91800000       8.34500000      26.95300000
 H      39.51600000       9.11100000      26.46900000
 H      40.04500000       8.77700000      27.83300000
 O      35.57100000      30.66400000      13.08700000
 H      36.14700000      31.14500000      13.75300000
 H      35.88200000      31.17600000      12.31100000
 O      36.15700000      27.60000000      18.10200000
 H      35.79500000      26.94100000      18.74000000
 H      36.76300000      27.07800000      17.55900000
 O      37.89600000      25.89700000       7.33400000
 H      38.29900000      26.41400000       8.12400000
 H      38.66200000      25.94700000       6.74700000
 O      39.78500000      25.62700000      21.78500000
 H      39.78500000      26.22300000      21.04900000
 H      40.18600000      24.79300000      21.41200000
 O      37.55800000      23.13100000      28.12900000
 H      37.43800000      22.32600000      27.51500000
 H      37.94600000      22.67900000      28.94200000
 O      38.15100000      38.05200000       6.94400000
 H      38.81500000      38.36600000       6.29500000
 H      38.31800000      37.08100000       6.90000000
 O      36.41600000      27.73400000      36.77400000
 H      36.63900000      27.07800000      37.45500000
 H      35.49200000      27.64000000      36.67900000
 O      37.53700000      21.62600000      19.20600000
 H      36.91000000      22.34800000      19.06300000
 H      37.93800000      21.52600000      18.32500000
 O      39.08000000      18.73700000      22.06000000
 H      38.16900000      18.56700000      22.35100000
 H      39.43700000      17.82800000      21.98400000
 O      37.30400000      36.25800000      15.97500000
 H      36.91800000      35.48900000      16.51600000
 H      37.52000000      35.78500000      15.18400000
 O      38.90400000      27.97200000       9.21700000
 H      39.20400000      28.47200000       8.43100000
 H      39.68800000      28.10100000       9.81700000
 O      40.32700000      11.82000000      38.35800000
 H      39.88900000      12.04500000      37.46100000
 H      41.01700000      11.29200000      38.03100000
 O      40.42200000      25.92000000      13.19100000
 H      39.59100000      26.08700000      12.69300000
 H      40.24700000      26.26400000      14.03300000
 O      34.51300000      21.87800000      17.29900000
 H      34.55700000      22.85600000      17.31000000
 H      35.15000000      21.68400000      16.56900000
 O      33.78400000      38.66600000      18.91700000
 H      33.63400000      39.61400000      19.15000000
 H      34.76100000      38.65500000      18.99600000
 O      38.16000000      40.13400000      11.36200000
 H      38.45600000      39.61600000      10.54800000
 H      38.79600000      39.75000000      11.99400000
 O      39.94100000      24.42000000      10.19600000
 H      39.57300000      25.05500000      10.79800000
 H      39.63700000      23.55900000      10.55700000
 O      36.70700000      10.77400000       8.19400000
 H      36.25700000      11.58800000       7.92800000
 H      36.07200000      10.44200000       8.88200000
 O      38.17900000      36.57000000      26.62000000
 H      38.19100000      37.49400000      26.50500000
 H      38.80300000      36.35600000      27.27600000
 O      40.07000000      30.33300000      12.16500000
 H      40.43700000      29.62100000      11.61400000
 H      39.65700000      29.84700000      12.89500000
 O      35.64800000      12.50600000      15.63100000
 H      36.65200000      12.61700000      15.78400000
 H      35.35500000      12.83800000      16.49200000
 O      35.62700000      33.36300000      40.61200000
 H      35.46400000      32.85300000      41.46100000
 H      36.64300000      33.52500000      40.77600000
 O      40.29000000      26.27500000      16.04400000
 H      40.58800000      27.03700000      16.59900000
 H      40.90600000      25.53200000      16.40400000
 O      36.91900000      21.60400000      35.52500000
 H      37.75400000      21.74400000      35.06000000
 H      36.82000000      20.63300000      35.24800000
 O      39.88400000      37.90300000      19.66600000
 H      40.33300000      37.52700000      20.42400000
 H      39.45800000      37.10700000      19.23300000
 O      34.63200000      31.09400000      38.95900000
 H      33.85400000      31.49000000      38.53400000
 H      35.12100000      31.94400000      39.22100000
 O      40.55500000      30.96200000      16.91500000
 H      41.00800000      30.04800000      16.83900000
 H      40.71000000      31.06200000      17.88000000
 O      37.24000000      12.92100000      20.73000000
 H      38.20300000      13.05700000      20.87300000
 H      36.98300000      12.85600000      21.70800000
 O      34.88300000      38.12600000      36.19000000
 H      34.22200000      37.46700000      36.05100000
 H      35.65200000      37.60200000      36.46800000
 O      36.55000000      30.41900000      30.95500000
 H      36.60300000      31.24200000      31.43800000
 H      35.70400000      29.98400000      31.16700000
 O      36.36000000       9.67200000      23.73600000
 H      35.93400000       8.97900000      23.22800000
 H      37.32600000       9.51400000      23.49200000
 O      35.50200000      23.39200000      33.30400000
 H      35.39100000      22.77600000      32.58400000
 H      36.36200000      23.74400000      33.08000000
 O      37.72700000       9.38500000      39.85000000
 H      37.90400000      10.34900000      39.70600000
 H      38.12900000       9.02100000      39.06700000
 O      36.61100000      20.81600000       8.40900000
 H      36.59100000      20.42400000       7.54900000
 H      37.11600000      21.56900000       8.19500000
 O      40.42100000      21.20200000      27.63800000
 H      39.76000000      20.65300000      28.07500000
 H      41.22900000      21.00100000      28.15200000
 O      39.48300000      26.96400000      38.12900000
 H      40.13300000      27.40500000      38.71400000
 H      38.80000000      26.73700000      38.78900000
 O      37.15000000      20.94700000      13.10500000
 H      36.82000000      20.23100000      12.53600000
 H      37.67000000      20.44000000      13.73300000
 O      37.26500000      35.78800000      36.98200000
 H      37.64600000      36.46800000      36.38400000
 H      37.66500000      36.07700000      37.85100000
 O      37.23800000      36.76400000      10.69100000
 H      38.05300000      37.14100000      10.28300000
 H      36.64400000      37.52300000      10.40500000
 O      38.77600000      19.47600000      28.91700000
 H      39.56200000      19.26400000      29.46200000
 H      38.58500000      20.33400000      29.35300000
 O      35.80800000       7.85300000      21.74000000
 H      36.06900000       7.01200000      22.09700000
 H      34.92400000       7.63600000      21.37000000
 O      36.23700000      35.06100000      23.58500000
 H      35.58000000      35.72100000      23.16900000
 H      37.05400000      35.50400000      23.28200000
 O      36.01700000       8.44400000      32.86600000
 H      35.75000000       9.36700000      32.59900000
 H      35.92800000       8.02000000      31.96900000
 O      36.86800000      18.34500000      27.43300000
 H      36.30700000      18.01300000      28.16800000
 H      37.56100000      18.86200000      27.91800000
 O      37.63500000      30.37900000      19.46500000
 H      38.13200000      30.65600000      20.27700000
 H      36.71200000      30.36000000      19.89600000
 O      39.34500000      29.05600000      24.72100000
 H      38.67200000      28.98700000      24.06500000
 H      38.79900000      28.98300000      25.55800000
 O      37.03900000      28.26100000      12.87300000
 H      36.24000000      28.74200000      13.03900000
 H      37.34500000      28.15300000      13.79300000
 O      36.16200000      23.76300000      18.71000000
 H      36.89200000      24.38200000      18.36400000
 H      35.39700000      24.03500000      18.20100000
 O      36.68800000      19.00600000      35.50700000
 H      36.54800000      18.02200000      35.42000000
 H      37.48400000      19.05000000      36.01200000
 O      40.51100000       9.56900000      40.37500000
 H      40.52200000      10.29200000      39.72200000
 H      41.45100000       9.35900000      40.49300000
 O      34.82000000      22.57400000      10.57000000
 H      35.28500000      21.75100000      10.30100000
 H      34.10800000      22.55500000       9.95600000
 O      34.55600000      13.36300000      31.63300000
 H      33.58000000      13.64900000      31.61600000
 H      34.96900000      14.27800000      31.49600000
 O      38.47800000      12.07700000      40.12200000
 H      39.34200000      12.22200000      39.61500000
 H      38.61800000      12.78800000      40.75300000
 O      39.83600000      18.34900000       7.37500000
 H      39.40000000      18.28500000       8.26500000
 H      40.60800000      18.91300000       7.65100000
 O      40.36700000      35.47400000      13.21500000
 H      41.07700000      36.19900000      13.42500000
 H      40.77100000      34.73900000      13.75900000
 O      35.46000000      37.46700000      39.64900000
 H      34.95200000      38.27900000      39.43300000
 H      36.09900000      37.70300000      40.30600000
 O      35.51500000      30.88300000       9.86400000
 H      36.24300000      31.45000000      10.24400000
 H      35.88800000      30.00600000      10.00000000
 O      39.04000000      15.27000000       7.16100000
 H      39.51400000      15.59300000       6.32900000
 H      38.21100000      15.78000000       7.03700000
 O      36.05600000      30.63000000      28.31200000
 H      36.30000000      30.74300000      29.29200000
 H      35.84800000      29.69500000      28.35800000
 O      35.54100000       6.26100000      15.60100000
 H      35.43400000       5.41900000      15.00500000
 H      35.14200000       6.95100000      15.01700000
 O      37.40000000      24.61800000      21.91400000
 H      37.77200000      23.68800000      22.07000000
 H      38.32800000      25.04900000      22.05100000
 O      35.72000000      40.69100000      15.49600000
 H      34.88100000      41.00300000      15.91100000
 H      35.62500000      39.74300000      15.61300000
 O      34.90200000      23.18900000      22.38800000
 H      35.80400000      23.52900000      22.13100000
 H      34.34700000      23.56300000      21.65900000
 O      37.50400000       7.47500000      16.77800000
 H      36.73700000       6.91000000      16.49000000
 H      37.44400000       8.27100000      16.27100000
 O      36.53000000      33.43200000      19.89500000
 H      37.18000000      32.72300000      20.08200000
 H      35.97900000      33.43400000      20.71700000
 O      34.90400000      14.81000000      14.18100000
 H      34.60300000      15.56000000      14.70700000
 H      35.10100000      14.16500000      14.89000000
 O      39.61300000      11.43900000      16.26400000
 H      39.65600000      11.25700000      17.24300000
 H      39.01200000      12.16100000      16.29000000
 O      38.98800000      23.61400000      37.30500000
 H      38.10500000      23.94000000      37.04800000
 H      39.29100000      24.25200000      37.93200000
 O      35.65300000      12.22600000      26.43600000
 H      35.81100000      12.92200000      27.10300000
 H      34.81500000      12.45800000      26.02300000
 O      34.98300000      28.15500000      28.58100000
 H      35.33500000      27.59500000      29.32800000
 H      35.09600000      27.57400000      27.80400000
 O      40.32400000      39.53400000      13.33800000
 H      39.53400000      39.22400000      13.80100000
 H      40.90800000      38.75300000      13.56000000
 O      36.36800000      24.34500000      36.07000000
 H      35.39400000      24.19800000      36.14800000
 H      36.63100000      23.43800000      35.82700000
 O      36.63900000      16.38900000      34.45700000
 H      36.73800000      15.39800000      34.60600000
 H      35.73600000      16.37900000      34.11100000
 O      38.71800000      32.02300000      24.33500000
 H      38.67700000      31.35100000      25.03100000
 H      38.14900000      32.70300000      24.72200000
 O      36.92600000      37.66700000      21.36500000
 H      37.47500000      36.91000000      21.63600000
 H      36.07800000      37.34200000      21.83700000
 O      34.69300000      18.65900000      17.49300000
 H      35.16600000      19.29900000      16.96300000
 H      34.75100000      19.07500000      18.37300000
 O      39.65100000      34.09000000      10.54300000
 H      39.80400000      34.41800000       9.58400000
 H      39.75800000      34.96900000      11.00600000
 O      35.25100000      21.69500000      31.36400000
 H      34.39400000      21.31000000      31.05900000
 H      35.62200000      20.93100000      31.84600000
 O      35.32000000      30.11500000      17.52900000
 H      36.22400000      30.32500000      17.25100000
 H      35.46700000      29.13100000      17.69400000
 O      34.36400000      32.16500000      35.43600000
 H      33.90600000      32.12800000      36.27000000
 H      35.22100000      32.52400000      35.72200000
 O      39.59800000      21.31400000      21.10500000
 H      39.56300000      20.31400000      21.16400000
 H      38.76300000      21.44800000      20.60500000
 O      39.03300000      22.28100000      23.43200000
 H      39.29100000      21.53100000      24.02000000
 H      39.31500000      21.84500000      22.55800000
 O      36.37300000      21.42900000      38.31800000
 H      36.66500000      21.60700000      37.40600000
 H      35.72900000      22.13100000      38.45600000
 O      38.37200000      39.07400000      30.48000000
 H      39.00100000      39.80500000      30.64200000
 H      38.46900000      39.05600000      29.47900000
 O      34.93700000      39.43500000      31.98700000
 H      34.74700000      39.94800000      32.79100000
 H      34.42800000      38.61300000      32.19400000
 O      37.47400000      26.27800000      34.67400000
 H      37.27700000      27.05400000      35.23300000
 H      36.96700000      25.59600000      35.19500000
 O      40.33500000      34.43300000       7.84800000
 H      41.02300000      33.97200000       7.29300000
 H      40.91800000      35.19800000       8.13500000
 O      39.27400000      35.67200000      29.10400000
 H      38.42600000      35.17300000      29.20700000
 H      39.29100000      36.21800000      29.89200000
 O      36.79100000      17.93900000      23.37000000
 H      35.91200000      17.81500000      23.84500000
 H      36.47000000      17.50900000      22.51300000
 O      36.88500000      40.01900000      38.62000000
 H      36.57800000      40.29100000      39.51100000
 H      36.10200000      39.54300000      38.28000000
 O      40.76400000      37.64100000      16.99300000
 H      41.34600000      36.96100000      17.23800000
 H      40.49400000      37.97900000      17.90900000
 O      38.43000000      23.33700000      14.38600000
 H      38.35600000      24.16600000      13.85300000
 H      37.60400000      22.92300000      13.99900000
 O      34.80100000       9.82000000      37.01400000
 H      34.49400000       9.16400000      36.34300000
 H      35.46400000       9.16500000      37.46800000
 O      35.72500000      27.27800000      26.05900000
 H      35.33300000      26.52300000      25.57200000
 H      36.54100000      26.87800000      26.37000000
 O      34.35800000      31.44600000       7.51800000
 H      33.84700000      32.18800000       7.89200000
 H      34.86700000      31.20000000       8.32200000
 O      38.08900000      25.52300000      18.18000000
 H      38.82600000      25.50600000      17.54900000
 H      38.49300000      26.06800000      18.88000000
 O      40.11000000      39.84200000      35.46500000
 H      40.62300000      39.83600000      36.18400000
 H      40.09100000      40.77200000      35.19400000
 O      36.30700000      21.35200000      15.58300000
 H      37.25300000      21.25700000      15.89400000
 H      36.49400000      21.33800000      14.57800000
 O      35.64900000      14.13200000      28.50200000
 H      35.89000000      14.77400000      29.23700000
 H      35.23700000      14.80500000      27.87800000
 O      34.92100000      30.60800000      20.06200000
 H      34.21200000      29.91300000      20.14300000
 H      35.03100000      30.51100000      19.09600000
 O      40.14000000       9.89200000      29.08200000
 H      40.06500000      10.80100000      28.70200000
 H      39.68500000       9.96500000      29.92000000
 O      35.81400000      25.30400000      10.87800000
 H      35.53400000      25.85500000      10.09000000
 H      35.71800000      24.40500000      10.61800000
 O      38.69700000      40.18700000      18.93100000
 H      39.45600000      40.69000000      18.51200000
 H      39.24400000      39.40900000      19.21000000
 O      40.38800000      21.21300000      37.89700000
 H      41.05200000      21.63600000      37.32700000
 H      39.64900000      21.85400000      37.79500000
 O      35.22500000      11.93500000      19.57900000
 H      36.03900000      12.29900000      20.04600000
 H      34.58900000      12.17000000      20.33200000
 O      38.86200000      24.38500000      25.24200000
 H      38.86000000      23.57300000      24.67200000
 H      39.57200000      24.89500000      24.87200000
 O      38.70800000      38.62200000      15.46200000
 H      38.17200000      37.82800000      15.70300000
 H      39.47500000      38.40200000      16.08600000
 O      36.67600000       7.65500000      37.20400000
 H      37.17200000       7.13600000      36.54000000
 H      37.45200000       8.21800000      37.44300000
 O      37.63800000      29.97400000      40.15900000
 H      38.02700000      29.92400000      39.29300000
 H      36.71000000      30.01600000      39.98600000
 O      37.88000000      30.13500000      16.94700000
 H      37.76300000      30.29800000      17.89500000
 H      38.77900000      30.50100000      16.79600000
 O      39.64200000      12.78400000      35.91100000
 H      39.08100000      12.05900000      35.55400000
 H      40.25700000      12.96100000      35.17500000
 O      34.38500000      36.96300000      26.94700000
 H      35.34100000      37.09000000      27.19200000
 H      34.07400000      37.87000000      27.25700000
 O      39.94500000      22.32100000       6.94900000
 H      39.01000000      22.53500000       7.23900000
 H      40.25900000      23.22200000       6.75000000
 O      38.95600000      30.29200000      32.72900000
 H      38.60500000      30.17600000      33.63300000
 H      38.85400000      31.23800000      32.61900000
 O      38.50700000      22.38400000      10.83700000
 H      37.67700000      22.44500000      10.34200000
 H      38.23100000      21.80500000      11.59300000
 O      40.07000000      16.00100000      21.62100000
 H      41.00300000      15.85700000      21.52300000
 H      39.85500000      15.23300000      22.14700000
 O      35.41300000      10.10400000      17.69500000
 H      36.25400000       9.85400000      18.06200000
 H      35.19600000      10.86600000      18.27200000
 O      36.56900000      28.49800000      10.12800000
 H      36.85900000      28.33200000      11.03500000
 H      37.43500000      28.35900000       9.63600000
 O      38.08800000       6.53400000      28.57500000
 H      38.72800000       6.97900000      28.00000000
 H      37.51200000       6.12800000      27.94300000
 O      36.16500000       7.62000000      30.25900000
 H      35.45000000       7.14500000      29.82500000
 H      36.95200000       7.02900000      30.20900000
 O      39.28500000      17.34900000      33.98000000
 H      38.96800000      18.24200000      33.79200000
 H      38.43500000      16.89200000      34.21900000
 O      38.57900000       9.72000000      14.52100000
 H      39.05100000       9.99600000      15.29800000
 H      38.83400000      10.33300000      13.82700000
 O      39.85600000       7.16000000      21.38500000
 H      40.70900000       6.69900000      21.27700000
 H      39.47000000       6.98800000      20.48300000
 O      39.16400000       7.05900000      40.66700000
 H      39.95700000       6.76000000      41.23800000
 H      39.41300000       7.97500000      40.51000000
 O      40.69100000      26.28700000      35.86900000
 H      40.25200000      26.46400000      36.71000000
 H      40.19500000      25.55300000      35.48200000
 O      40.37500000      35.53100000      34.98400000
 H      39.57900000      35.19400000      35.46300000
 H      39.99600000      35.90300000      34.18500000
 O      37.33200000       8.86900000      19.23300000
 H      37.41800000       8.00300000      18.74900000
 H      36.75500000       8.62300000      20.01100000
 O      44.62200000      11.99900000      36.32100000
 H      44.27500000      11.21300000      35.78200000
 H      45.32200000      11.61900000      36.89700000
 O      47.01800000      32.98800000      34.63600000
 H      47.45200000      32.09800000      34.67900000
 H      46.10300000      32.69500000      34.44800000
 O      43.83500000      12.60800000      21.53400000
 H      44.57000000      12.77900000      20.87900000
 H      44.28500000      13.05500000      22.34100000
 O      47.86700000      34.81200000      30.75900000
 H      47.41300000      35.61900000      31.07800000
 H      48.81600000      35.02900000      31.11100000
 O      44.94000000      15.35100000       7.85700000
 H      45.00500000      15.68400000       6.90200000
 H      45.70800000      14.76700000       7.87600000
 O      42.62200000      23.72000000      20.55600000
 H      42.28700000      22.82500000      20.48600000
 H      43.40900000      23.60700000      21.19500000
 O      46.13600000      24.35100000      12.61300000
 H      45.68900000      23.52800000      12.68400000
 H      47.08900000      24.07300000      12.58300000
 O      47.60500000      18.60300000      17.51600000
 H      48.02200000      17.75600000      17.75100000
 H      47.15000000      18.80500000      18.37900000
 O      44.60100000      35.75700000      35.36400000
 H      43.62900000      35.80100000      35.20800000
 H      44.80900000      36.72900000      35.31700000
 O      43.11500000       7.63900000      17.83400000
 H      43.36400000       8.39200000      18.36700000
 H      42.27800000       7.34000000      18.22200000
 O      43.07100000      34.12700000      19.58100000
 H      44.00900000      33.79800000      19.73100000
 H      43.15800000      34.92500000      20.20800000
 O      45.52400000      11.09900000      29.48800000
 H      45.42900000      10.16200000      29.19400000
 H      45.72900000      11.53100000      28.66400000
 O      43.13500000      29.01100000      38.45700000
 H      43.98700000      29.40200000      38.15100000
 H      42.54900000      29.48100000      37.79000000
 O      43.64300000      30.21400000      32.79300000
 H      42.69500000      30.18500000      32.44900000
 H      44.11200000      30.10000000      31.94500000
 O      44.62200000      21.10700000      28.32800000
 H      44.57700000      21.00000000      29.30700000
 H      45.35500000      21.68800000      28.20600000
 O      43.01800000      15.91600000      34.76800000
 H      42.83800000      15.20700000      34.13500000
 H      42.20400000      16.47500000      34.65200000
 O      45.48300000      16.81500000      35.80600000
 H      45.96600000      16.03000000      36.15600000
 H      44.70500000      16.34400000      35.40400000
 O      47.20800000      13.74100000       8.35700000
 H      47.30300000      14.42900000       9.03100000
 H      46.95600000      12.98400000       8.96300000
 O      47.30700000      35.97400000      15.60400000
 H      46.62300000      35.27900000      15.43000000
 H      48.04300000      35.58000000      15.07400000
 O      44.51000000       7.46100000      25.33600000
 H      44.84400000       7.91400000      24.59200000
 H      44.11700000       8.14200000      25.84900000
 O      43.60100000      34.65000000      28.60200000
 H      44.02400000      35.36000000      29.19400000
 H      42.69200000      35.02800000      28.74300000
 O      42.51000000      32.16600000      30.20000000
 H      42.80800000      32.65500000      30.99000000
 H      42.76700000      32.77500000      29.51400000
 O      44.75800000      36.80600000      30.41700000
 H      45.64900000      37.08300000      30.70800000
 H      44.80700000      37.08000000      29.50800000
 O      44.86100000      40.41500000      27.96900000
 H      44.45100000      41.02200000      28.61400000
 H      45.30100000      41.04500000      27.38500000
 O      46.19900000      12.46900000      26.76700000
 H      45.28900000      12.16200000      26.41000000
 H      46.73000000      11.68200000      26.67100000
 O      45.02800000      20.55200000      34.38200000
 H      44.49500000      19.84200000      33.99300000
 H      45.78800000      20.60800000      33.68100000
 O      44.76100000      31.91700000      34.32300000
 H      44.36300000      31.23900000      33.71100000
 H      44.15200000      32.69700000      34.13200000
 O      47.64600000      27.74500000      11.68700000
 H      48.28900000      27.16300000      12.17700000
 H      47.50400000      27.14100000      10.91100000
 O      45.00900000      13.25100000      17.16700000
 H      44.19200000      12.76900000      17.28400000
 H      45.00600000      13.90100000      17.84200000
 O      42.48600000      24.51800000      18.05700000
 H      41.81900000      23.87900000      17.76100000
 H      42.71400000      24.18900000      18.95300000
 O      44.19100000      27.41300000      34.16200000
 H      43.92700000      28.29000000      33.89800000
 H      43.47900000      27.08700000      34.74300000
 O      43.54400000       9.50200000      19.97300000
 H      43.36400000       9.41500000      21.01300000
 H      44.40300000       9.01900000      19.99700000
 O      42.63600000       7.54200000      33.98900000
 H      42.15400000       7.77800000      33.18900000
 H      43.13200000       8.34000000      34.14500000
 O      49.34800000      28.16300000      40.70300000
 H      48.50000000      27.75100000      40.44500000
 H      49.16200000      29.10400000      40.60100000
 O      46.04200000      23.76500000      36.89900000
 H      45.67400000      24.63100000      37.19300000
 H      46.63100000      23.55300000      37.70900000
 O      44.40100000      21.37500000      31.22200000
 H      45.12100000      21.08900000      31.79700000
 H      44.37900000      22.34800000      31.37700000
 O      46.94200000      20.57600000      10.95900000
 H      46.62400000      20.60700000      11.91000000
 H      47.90700000      20.68800000      11.17100000
 O      44.79700000      39.29300000      18.31300000
 H      45.06400000      40.21700000      18.53800000
 H      45.54500000      39.11400000      17.63600000
 O      48.27100000      29.09600000      18.12500000
 H      48.17100000      29.84800000      18.72500000
 H      47.41400000      28.64400000      18.24600000
 O      43.49900000      28.56100000      24.36500000
 H      43.80000000      29.27000000      23.76200000
 H      42.51800000      28.86100000      24.40600000
 O      47.41800000      26.50300000      15.80800000
 H      47.93000000      25.84000000      15.34500000
 H      48.12100000      27.09300000      16.17200000
 O      44.75000000      29.26100000      26.71700000
 H      44.51500000      28.59100000      27.39700000
 H      44.36000000      28.83000000      25.91400000
 O      47.39300000      10.32000000      31.39300000
 H      46.75900000      10.69900000      30.72900000
 H      46.91200000       9.49200000      31.60200000
 O      45.12700000      26.16000000      20.41800000
 H      44.66200000      26.80100000      20.98900000
 H      44.79300000      25.36600000      20.85400000
 O      46.41400000      21.30000000      13.48100000
 H      46.78100000      21.43600000      14.36800000
 H      45.55200000      20.89500000      13.67000000
 O      44.31500000      30.56100000       6.83200000
 H      44.36200000      31.10600000       7.66600000
 H      43.96600000      29.71900000       7.20200000
 O      48.59000000      35.90600000      18.21600000
 H      49.10400000      35.09300000      18.21800000
 H      48.20800000      35.99600000      17.33400000
 O      46.20900000      22.33500000       8.91600000
 H      45.38200000      22.51300000       9.35900000
 H      46.64500000      21.74200000       9.60500000
 O      48.63700000      16.10700000      12.68400000
 H      47.78500000      16.39000000      13.06500000
 H      48.87700000      15.27700000      13.15200000
 O      47.33800000      39.41000000      21.74000000
 H      48.29300000      39.25800000      21.80100000
 H      47.32400000      40.41100000      21.75900000
 O      44.99200000      21.33800000      40.05200000
 H      44.67900000      20.97400000      40.91200000
 H      44.35500000      20.92200000      39.46100000
 O      47.85700000      11.88800000      34.77000000
 H      47.34000000      11.22600000      35.27000000
 H      48.76400000      11.69500000      35.14200000
 O      48.72900000      25.70200000      38.13900000
 H      48.84500000      26.24000000      37.37200000
 H      47.96000000      26.06500000      38.56300000
 O      44.83900000       7.87600000      39.13700000
 H      45.52800000       8.51900000      39.45700000
 H      45.23200000       7.03400000      39.38300000
 O      43.38200000       9.13100000      36.93900000
 H      43.93300000       8.77900000      37.64000000
 H      43.76900000       8.77700000      36.12600000
 O      43.48100000      28.81000000      20.09300000
 H      43.69600000      28.72400000      21.02700000
 H      43.46000000      29.74900000      19.93000000
 O      45.30100000      34.22100000      15.30900000
 H      45.41500000      33.41900000      15.86800000
 H      44.34500000      34.16000000      15.16200000
 O      42.66200000      23.57600000      34.29300000
 H      43.67700000      23.79700000      34.24800000
 H      42.76400000      23.07100000      35.18800000
 O      45.33100000       7.83200000       9.09400000
 H      44.47100000       8.01600000       8.65700000
 H      45.30100000       6.85200000       9.13800000
 O      46.41200000      11.78600000       9.88900000
 H      47.10700000      11.40100000      10.48400000
 H      45.61700000      11.76100000      10.49500000
 O      42.50600000      10.10400000       6.94900000
 H      42.63000000       9.49300000       7.71700000
 H      43.35100000      10.56300000       7.01100000
 O      42.65600000       7.91900000       8.39000000
 H      42.46000000       7.18600000       9.02000000
 H      41.71100000       8.11100000       8.15400000
 O      43.13000000      30.76900000      40.80600000
 H      42.80000000      31.16500000      40.00600000
 H      42.85600000      31.40200000      41.50000000
 O      43.14800000      19.92500000      22.74700000
 H      42.87500000      20.45200000      23.54600000
 H      42.31800000      19.43200000      22.58600000
 O      47.98100000      30.09900000      34.10000000
 H      47.56600000      29.99700000      33.23700000
 H      47.67600000      29.24800000      34.53100000
 O      46.90800000      16.67700000      33.28100000
 H      46.63000000      16.57300000      34.20300000
 H      47.79400000      16.31400000      33.34100000
 O      47.25800000       9.16000000      34.41800000
 H      47.18800000       8.24400000      34.12300000
 H      47.98800000       9.50400000      33.85700000
 O      42.44900000      40.64600000       6.16900000
 H      41.74200000      40.23700000       5.63900000
 H      42.08800000      40.73300000       7.02300000
 O      48.75200000      28.55700000      25.45900000
 H      48.48400000      27.82100000      24.83600000
 H      48.90600000      29.29300000      24.82700000
 O      43.82000000      15.22800000      13.72000000
 H      43.39700000      15.39000000      12.79200000
 H      43.05200000      15.27400000      14.28800000
 O      42.82500000      38.27500000      39.39500000
 H      42.25200000      39.01700000      39.55800000
 H      43.40600000      38.66800000      38.75100000
 O      48.16800000      31.29500000      19.96100000
 H      48.10600000      30.98000000      20.80800000
 H      48.80600000      32.03200000      20.05800000
 O      47.06200000      32.20100000      31.92000000
 H      47.24900000      32.54200000      32.77000000
 H      47.03400000      32.99400000      31.36600000
 O      49.03600000      25.28800000      32.19200000
 H      48.37700000      25.91400000      31.72100000
 H      48.59200000      25.07100000      33.01400000
 O      43.55200000      11.41700000      14.37100000
 H      44.03900000      10.54200000      14.59400000
 H      42.80700000      11.36900000      15.02700000
 O      44.99200000      24.67700000      33.87500000
 H      44.77100000      25.55100000      34.19300000
 H      45.84700000      24.50400000      34.30400000
 O      44.02000000      26.08800000       9.52100000
 H      43.43800000      25.32300000       9.71400000
 H      44.79500000      25.88800000      10.07800000
 O      43.97800000      33.01900000      26.42300000
 H      43.50400000      32.22300000      26.69600000
 H      43.61500000      33.71300000      27.13500000
 O      46.27900000      15.80000000      14.49500000
 H      46.14000000      16.59900000      15.01000000
 H      45.34600000      15.43500000      14.40600000
 O      42.64000000      25.84100000      40.67900000
 H      43.35900000      25.11600000      40.86700000
 H      41.88100000      25.29500000      40.97600000
 O      46.81700000      25.61400000      26.92600000
 H      46.54500000      25.68800000      27.86500000
 H      45.95100000      25.24400000      26.57700000
 O      43.61800000       9.81200000      22.63100000
 H      43.38900000      10.76200000      22.62700000
 H      44.21000000       9.76500000      23.36200000
 O      43.85000000      22.37100000      10.21700000
 H      43.72500000      22.16000000      11.21300000
 H      43.21300000      23.11400000      10.20500000
 O      42.56500000      19.57000000      30.72200000
 H      43.19600000      20.36900000      30.84000000
 H      43.21500000      18.87600000      31.00100000
 O      44.03100000      16.22500000      10.33400000
 H      44.20800000      16.13600000       9.41300000
 H      44.68600000      15.64700000      10.78800000
 O      42.52000000      37.30200000      25.37900000
 H      42.26900000      38.27600000      25.37700000
 H      42.32900000      37.08600000      26.29000000
 O      44.31700000      24.88800000      26.29500000
 H      43.57800000      24.87200000      26.93400000
 H      43.79900000      25.03300000      25.44400000
 O      42.51700000      31.51900000      19.62300000
 H      41.85000000      31.15400000      20.34800000
 H      42.42700000      32.47400000      19.82200000
 O      46.00100000      28.38100000      22.21700000
 H      46.39900000      29.24900000      22.39300000
 H      46.58100000      27.83300000      22.79500000
 O      46.91600000      10.02500000      39.25000000
 H      47.73900000      10.02200000      39.71600000
 H      47.19900000      10.16700000      38.33400000
 O      46.99800000       6.55500000      17.77400000
 H      46.82400000       5.73000000      17.25600000
 H      47.04200000       7.21700000      17.03700000
 O      44.10000000      14.54400000      36.86000000
 H      43.62000000      14.85700000      36.04800000
 H      44.05600000      13.56200000      36.62100000
 O      47.31900000      35.22300000      12.42700000
 H      47.71900000      34.58700000      13.08300000
 H      46.34000000      34.95200000      12.44600000
 O      45.97100000       9.37800000      24.12400000
 H      46.47800000       9.98100000      24.67800000
 H      46.41300000       9.49400000      23.23400000
 O      43.97700000       8.49300000      14.47900000
 H      43.16900000       7.84200000      14.49100000
 H      44.03700000       8.67100000      13.54300000
 O      49.34100000      24.72400000      27.10700000
 H      48.35700000      24.99500000      27.10000000
 H      49.57800000      25.00200000      26.16900000
 O      46.54500000      38.15800000      10.66400000
 H      47.37100000      37.75500000      10.92200000
 H      45.97400000      37.36000000      10.53400000
 O      42.47700000      20.28900000      16.23400000
 H      42.83300000      19.87500000      17.03000000
 H      43.05400000      19.99800000      15.54500000
 O      43.22400000      21.76200000      12.56500000
 H      43.58200000      21.04400000      13.13500000
 H      42.73300000      22.33800000      13.17200000
 O      42.98700000      17.04200000      24.73000000
 H      43.40700000      17.01000000      25.68200000
 H      42.26600000      17.68100000      24.84200000
 O      46.81500000      32.16200000      10.39000000
 H      47.15300000      31.44100000      10.96200000
 H      46.84300000      32.86700000      11.06100000
 O      44.39300000      16.23700000      21.54800000
 H      44.72300000      15.54200000      22.13600000
 H      44.71500000      17.01700000      21.98100000
 O      48.11400000      16.03800000      27.44900000
 H      48.26400000      16.22300000      28.41800000
 H      48.83700000      15.43300000      27.31900000
 O      47.77200000      12.08600000      19.08700000
 H      47.03900000      12.45000000      18.67200000
 H      48.26300000      11.62100000      18.35000000
 O      45.37200000      35.83300000      10.26900000
 H      44.86100000      35.43500000      10.96600000
 H      46.11300000      35.18600000      10.20300000
 O      46.19000000      38.41600000      35.36700000
 H      46.88600000      39.04500000      35.67300000
 H      46.34800000      38.48500000      34.43800000
 O      44.78100000      33.52500000      37.38700000
 H      44.65300000      34.12900000      36.62000000
 H      45.42300000      34.03800000      37.88500000
 O      45.67700000      14.98000000      26.53900000
 H      46.44900000      15.48300000      26.93900000
 H      46.11600000      14.09500000      26.47900000
 O      43.59400000      31.55200000      24.07200000
 H      42.92700000      31.03500000      24.60500000
 H      43.72200000      32.30300000      24.72400000
 O      47.16300000      20.92600000      24.81500000
 H      47.86000000      20.33900000      25.00200000
 H      46.38300000      20.47900000      25.28500000
 O      48.23200000       9.13800000      37.09200000
 H      48.16500000       8.15400000      37.26400000
 H      47.70100000       9.07500000      36.25900000
 O      48.84100000      39.74800000      15.85800000
 H      49.06400000      40.26100000      16.66900000
 H      47.94700000      39.40400000      16.14500000
 O      47.49800000      26.19400000       9.58600000
 H      48.43900000      25.88200000       9.77300000
 H      47.33100000      25.57400000       8.76000000
 O      47.29500000      30.45900000      26.72900000
 H      47.80400000      29.76700000      26.19600000
 H      46.45700000      30.01600000      26.84300000
 O      42.71500000      28.30800000      10.64700000
 H      43.21200000      27.50600000      11.01000000
 H      43.45200000      28.70600000      10.20000000
 O      43.38400000      18.67600000      38.33000000
 H      44.06000000      18.97800000      37.72600000
 H      42.94800000      19.58200000      38.49900000
 O      45.15600000      18.58900000       7.95100000
 H      44.40200000      19.09100000       8.34600000
 H      44.62800000      17.96100000       7.45900000
 O      48.37400000      17.01400000      30.15000000
 H      48.24900000      16.45000000      30.93300000
 H      49.09100000      17.65800000      30.45100000
 O      44.81500000      32.07500000       8.79000000
 H      44.31900000      32.50000000       9.53000000
 H      45.71300000      31.98000000       9.25100000
 O      47.74200000      16.91400000      39.36300000
 H      47.98900000      17.65400000      38.76300000
 H      47.72500000      16.14600000      38.85100000
 O      47.50200000       9.10600000      21.53000000
 H      47.12700000       8.81800000      20.66400000
 H      47.80400000       8.30700000      21.92200000
 O      44.80900000      18.15100000      31.67200000
 H      45.69600000      17.80600000      32.03300000
 H      44.27300000      17.33300000      31.98700000
 O      48.44400000      37.36100000      24.36400000
 H      47.52200000      37.65700000      24.60000000
 H      48.45700000      36.50400000      24.89100000
 O      48.73800000      34.85500000      28.11400000
 H      48.45200000      34.50800000      28.99800000
 H      48.25500000      34.28400000      27.54300000
 O      47.42500000      18.40900000       9.30800000
 H      46.54400000      18.39600000       8.75100000
 H      47.13200000      19.17600000       9.91400000
 O      42.60600000      30.82800000      27.12500000
 H      43.40100000      30.29500000      26.97000000
 H      42.00700000      30.26700000      27.62300000
 O      45.21500000      30.46200000      36.99900000
 H      45.12500000      31.46400000      36.97900000
 H      45.18400000      30.26300000      36.06000000
 O      44.41300000      14.70300000      23.91100000
 H      44.88000000      14.82300000      24.71700000
 H      43.71500000      15.38300000      23.97500000
 O      46.09500000      38.52300000      13.72700000
 H      46.14000000      39.23700000      13.14100000
 H      46.87900000      37.98100000      13.46700000
 O      44.48700000      39.28300000      37.39200000
 H      45.08300000      38.66300000      36.90000000
 H      45.00000000      40.11500000      37.23900000
 O      44.79300000      38.74200000      20.94800000
 H      44.78100000      38.65600000      19.98300000
 H      45.72400000      38.83800000      21.07500000
 O      42.90400000      40.29000000       9.55500000
 H      42.16200000      40.77500000       9.23400000
 H      42.63900000      39.94900000      10.40600000
 O      46.00100000      21.89500000      18.26700000
 H      45.77900000      22.82800000      17.98200000
 H      45.51100000      21.83200000      19.08800000
 O      47.64100000      32.88100000      40.06000000
 H      47.49400000      32.17900000      39.43500000
 H      47.27600000      33.65500000      39.56200000
 O      47.78500000      14.16400000      16.39500000
 H      47.57800000      14.79300000      15.60300000
 H      46.83500000      14.10500000      16.75400000
 O      42.90900000      13.27700000      33.92500000
 H      43.87600000      13.39600000      33.80100000
 H      42.68500000      12.70900000      33.14800000
 O      48.85700000      23.93700000      23.83600000
 H      48.14100000      23.58800000      24.47500000
 H      48.92500000      23.23600000      23.22100000
 O      43.17100000      32.49400000      11.32700000
 H      42.39900000      33.09600000      11.17100000
 H      42.65600000      31.67400000      11.61000000
 O      45.46500000      13.98600000      33.65100000
 H      45.98100000      14.40700000      32.92400000
 H      46.06200000      14.03600000      34.41600000
 O      43.78200000      15.34300000      31.94200000
 H      44.31900000      14.95400000      32.62300000
 H      43.93000000      14.76500000      31.18900000
 O      44.58900000       9.63000000      34.39500000
 H      45.58300000       9.54500000      34.27900000
 H      44.37200000       9.97800000      33.47100000
 O      46.87700000      27.23800000      39.93800000
 H      46.57600000      26.70300000      40.72300000
 H      46.41300000      28.07900000      40.14500000
 O      47.63100000      30.45800000      12.38000000
 H      47.98900000      30.57700000      13.29300000
 H      47.65300000      29.46800000      12.33300000
 O      43.13300000      20.45500000       8.03400000
 H      43.16700000      21.03600000       8.82200000
 H      42.48200000      21.02900000       7.42400000
 O      44.14500000      27.45000000       7.19600000
 H      45.08900000      27.32800000       6.96500000
 H      44.06800000      27.05900000       8.08400000
 O      47.24000000      24.41600000       7.74500000
 H      46.64200000      24.58800000       7.07700000
 H      47.02600000      23.56300000       8.14800000
 O      44.38900000      21.27300000      20.68400000
 H      43.75800000      20.81200000      21.26000000
 H      45.14300000      21.33400000      21.32900000
 O      42.47800000      13.35200000      28.00800000
 H      42.10900000      13.83400000      27.18500000
 H      41.65200000      13.41800000      28.55000000
 O      45.78100000      32.71600000      22.98700000
 H      44.91500000      32.51200000      23.36900000
 H      45.88600000      33.67100000      23.27700000
 O      47.48600000      18.79000000      21.68800000
 H      46.87200000      18.50300000      22.38200000
 H      48.19300000      18.09000000      21.73000000
 O      48.98500000      37.27000000      36.07100000
 H      48.39300000      36.46400000      36.25200000
 H      49.09800000      37.62200000      37.01400000
 O      48.49500000       6.80500000       6.18700000
 H      48.45400000       7.39000000       6.98400000
 H      47.59600000       7.00400000       5.81200000
 O      48.42800000      31.32700000      15.59100000
 H      48.99000000      30.55600000      15.74500000
 H      47.58400000      30.88300000      15.82500000
 O      46.00200000      17.96600000      29.22200000
 H      46.86300000      17.76300000      29.63100000
 H      45.43400000      18.06600000      30.01200000
 O      47.16400000      34.68200000      24.76900000
 H      47.07100000      34.25600000      25.69300000
 H      47.97000000      34.20800000      24.50800000
 O      44.40500000      33.98000000       6.95700000
 H      44.93500000      34.03400000       6.11400000
 H      44.65600000      33.22500000       7.40200000
 O      44.06400000      11.98300000      24.71400000
 H      44.00800000      12.98100000      24.64400000
 H      43.10200000      11.76000000      24.69300000
 O      45.74500000      33.10400000      19.99800000
 H      45.99400000      32.95700000      20.96200000
 H      46.34500000      32.43200000      19.63100000
 O      47.37300000      21.00900000      16.10500000
 H      47.59100000      20.04500000      16.23000000
 H      47.00400000      21.17800000      16.99300000
 O      44.02300000      22.03200000      36.26000000
 H      44.84000000      22.49000000      36.60000000
 H      44.40500000      21.43800000      35.62500000
 O      47.85900000      15.77400000       9.85400000
 H      47.74700000      15.96200000      10.78100000
 H      47.68200000      16.66800000       9.46800000
 O      48.03300000       8.35000000       8.13800000
 H      48.35100000       9.26900000       8.21000000
 H      47.23500000       8.41000000       8.61900000
 O      48.62600000      26.68800000      23.33900000
 H      48.94000000      25.82100000      23.67800000
 H      48.57200000      26.54900000      22.35300000
 O      45.88700000      19.38000000      36.71100000
 H      45.79200000      18.41200000      36.57300000
 H      45.55800000      19.72200000      35.84600000
 O      47.24300000      14.56700000      35.92000000
 H      48.06800000      14.85900000      36.34700000
 H      47.41000000      13.58700000      35.90800000
 O      46.38100000       8.43200000      19.31800000
 H      47.10600000       8.99300000      18.97700000
 H      46.60100000       7.59900000      18.79700000
 O      44.11800000      24.14400000      31.40600000
 H      44.57600000      24.39500000      32.18000000
 H      43.46400000      24.86300000      31.27700000
 O      48.94700000      38.06900000      38.76200000
 H      49.18600000      37.92700000      39.70800000
 H      48.09900000      38.50100000      38.97300000
 O      45.52100000      29.10500000      10.33300000
 H      46.08500000      28.60000000      10.92100000
 H      45.79300000      29.99400000      10.47300000
 O      47.36300000      26.95000000      30.88400000
 H      47.17600000      27.80600000      31.19700000
 H      47.84100000      27.10200000      30.05100000
 O      48.25300000      24.37400000      19.23000000
 H      49.01900000      23.67100000      19.10000000
 H      47.58000000      23.81700000      18.76700000
 O      45.61500000      28.50600000      18.65400000
 H      45.70500000      27.46700000      18.74800000
 H      44.97600000      28.68400000      19.37300000
 O      47.31300000      30.60600000      38.50800000
 H      46.42900000      30.48200000      38.04100000
 H      46.95900000      30.18300000      39.40500000
 O      49.00300000      37.38900000      20.40300000
 H      48.76700000      36.72800000      19.67400000
 H      48.11800000      37.48600000      20.85200000
 O      47.44400000      40.41200000      38.96400000
 H      47.96700000      41.17100000      38.99200000
 H      46.54400000      40.77300000      39.29800000
 O      43.81600000      35.97300000      40.41400000
 H      44.74500000      36.08500000      40.16500000
 H      43.36200000      36.76100000      40.13200000
 O      49.24900000      27.14100000      35.84800000
 H      48.35400000      27.21900000      35.36300000
 H      49.84000000      27.20400000      35.02600000
 O      44.69200000      32.67300000      17.39500000
 H      44.88800000      32.78000000      18.36100000
 H      44.05500000      31.98900000      17.48500000
 O      45.66400000      18.91600000      19.66000000
 H      46.20500000      19.07900000      20.48500000
 H      45.22300000      19.77400000      19.60500000
 O      45.69600000      17.98700000      15.92200000
 H      46.51000000      18.15600000      16.40400000
 H      45.04400000      18.13500000      16.68900000
 O      45.42400000       8.52700000      29.28900000
 H      44.55800000       8.14700000      29.33000000
 H      45.71700000       8.33600000      30.22700000
 O      47.22000000      37.46300000      30.95500000
 H      47.72900000      38.18700000      30.50100000
 H      47.75600000      37.45500000      31.80000000
 O      45.10500000      37.67400000      27.83100000
 H      44.91100000      37.46800000      26.86500000
 H      44.98400000      38.68300000      27.82700000
 O      46.07100000      39.36200000      24.76100000
 H      46.14000000      39.34000000      23.85600000
 H      45.32800000      40.00700000      24.89100000
 O      46.09300000      21.94300000      22.55200000
 H      46.37800000      21.51900000      23.42600000
 H      46.97300000      21.99100000      22.16300000
 O      42.81400000      33.76900000      32.24500000
 H      41.97300000      33.39500000      32.54400000
 H      42.63100000      34.74900000      32.38700000
 O      46.88500000      35.03100000      38.53900000
 H      46.92600000      35.26400000      37.58600000
 H      46.66600000      35.91800000      38.91000000
 O      46.30600000       7.53200000      15.19700000
 H      45.51600000       8.06200000      14.83800000
 H      45.82100000       6.65400000      15.23300000
 O      48.07900000      26.58800000      20.82100000
 H      47.16100000      26.87300000      20.96800000
 H      47.89300000      25.79200000      20.25200000
 O      43.54700000      36.33300000      21.24100000
 H      44.09500000      37.16800000      21.20200000
 H      43.66800000      36.01900000      22.13400000
 O      44.00200000      18.37200000      12.08600000
 H      43.16000000      18.82000000      11.88500000
 H      44.16700000      17.82600000      11.35000000
 O      44.63300000      35.51200000      23.78900000
 H      43.99900000      35.75500000      24.48000000
 H      45.46100000      35.53300000      24.30300000
 O      43.84200000      18.40800000      17.74200000
 H      44.53000000      18.28900000      18.39500000
 H      43.14100000      17.86100000      18.12800000
 O      46.83000000      21.20200000      32.66000000
 H      47.63100000      20.76000000      32.39200000
 H      47.12900000      22.11100000      32.96600000
 O      47.38700000      40.46700000      10.01100000
 H      48.19800000      40.41300000       9.52200000
 H      47.04800000      39.57600000      10.04700000
 O      46.36800000       7.76800000      31.79500000
 H      46.09600000       7.32900000      32.63200000
 H      47.05000000       7.06800000      31.54000000
 O      46.80700000      29.54600000      31.45700000
 H      46.86600000      30.47800000      31.73400000
 H      46.01500000      29.55100000      30.85400000
 O      45.31000000      27.65900000      14.93900000
 H      45.02800000      27.16500000      14.09300000
 H      46.17300000      27.11500000      15.05100000
 O      43.53700000      37.53800000      14.13100000
 H      43.47500000      37.70000000      15.09900000
 H      44.47800000      37.72800000      14.03100000
 O      47.95100000      10.63800000      11.74300000
 H      47.58700000       9.71300000      11.76300000
 H      47.37000000      11.06000000      12.40100000
 O      45.82600000       6.53300000      27.59700000
 H      45.44100000       7.02400000      26.88700000
 H      46.19200000       7.18600000      28.18100000
 O      47.18700000      36.83700000       7.73000000
 H      46.79200000      36.82200000       6.82700000
 H      46.41000000      37.03600000       8.26300000
 O      44.82200000      11.73300000      12.01700000
 H      44.47800000      10.82000000      11.89000000
 H      44.43000000      11.99200000      12.88900000
 O      48.66100000      10.55800000      16.26500000
 H      48.13500000      10.24500000      15.48100000
 H      48.66200000       9.72300000      16.81100000
 O      43.26600000       9.31200000      11.94400000
 H      42.58200000       9.98600000      12.11000000
 H      43.08300000       8.89600000      11.11600000
 O      45.48800000      15.13200000      18.95600000
 H      46.32200000      15.29400000      19.51300000
 H      44.87400000      15.68200000      19.47000000
 O      47.19700000      22.99600000      39.20400000
 H      46.52900000      22.47500000      39.72600000
 H      47.31400000      23.66300000      39.88800000
 O      47.15100000      35.40600000      35.97700000
 H      46.23900000      35.45300000      35.58200000
 H      47.43000000      34.54000000      35.69400000
 O      43.32200000      36.89100000       8.90100000
 H      43.75200000      37.48300000       8.26400000
 H      44.09800000      36.62000000       9.46300000
 O      42.74000000      25.65700000      24.13200000
 H      42.74800000      26.59700000      24.18900000
 H      42.38500000      25.50500000      23.24100000
 O      42.51200000      39.13500000      32.47700000
 H      42.09000000      39.49300000      33.24100000
 H      42.31700000      39.80200000      31.77200000
 O      47.34400000      40.57400000      36.27200000
 H      47.43000000      40.52500000      37.22300000
 H      48.24200000      40.83300000      35.99500000
 O      48.22300000      13.00200000      38.30000000
 H      47.34900000      13.03800000      38.69400000
 H      48.74300000      13.49200000      38.94100000
 O      43.93400000      16.91000000      27.12400000
 H      44.51500000      16.11800000      26.95300000
 H      44.41700000      17.29300000      27.90700000
 O      44.65300000      29.84100000      29.97100000
 H      44.41400000      28.94300000      29.57600000
 H      44.30500000      30.45600000      29.35100000
 O      46.45600000      12.87300000      21.55000000
 H      46.82100000      13.68000000      21.87600000
 H      46.99100000      12.61300000      20.80300000
 O      44.39200000      10.59300000      31.89700000
 H      43.60100000      11.20800000      31.89000000
 H      44.54800000      10.64700000      30.91400000
 O      47.08300000       7.98000000      11.00600000
 H      46.85600000       7.14900000      11.47000000
 H      46.42300000       8.05700000      10.35000000
 O      44.74400000      26.48500000      12.56600000
 H      45.32000000      25.72900000      12.71200000
 H      43.86000000      26.13900000      12.60700000
 O      46.79400000      33.12600000      27.00500000
 H      45.81800000      33.23100000      27.20800000
 H      46.82400000      32.15200000      27.11200000
 O      47.65000000      15.51600000      20.59500000
 H      48.29800000      16.18300000      21.00900000
 H      48.25100000      14.82000000      20.38400000
 O      42.49500000      25.90600000      30.09800000
 H      41.70800000      26.35900000      30.43600000
 H      42.15100000      25.28500000      29.47900000
 O      48.52700000      12.79300000      32.36700000
 H      47.94300000      12.06300000      31.96000000
 H      48.31500000      12.59300000      33.32700000
 O      42.74600000      16.93800000      40.26000000
 H      43.45200000      16.30700000      40.01800000
 H      42.88200000      17.59500000      39.52100000
 O      45.11200000      33.85000000      12.49300000
 H      44.42000000      33.23000000      12.12300000
 H      44.81400000      33.84200000      13.43400000
 O      46.51600000      38.49500000      16.20700000
 H      46.20500000      38.68700000      15.29200000
 H      46.76900000      37.54700000      16.11400000
 O      46.08700000      19.27200000      26.83900000
 H      46.31400000      18.78800000      27.68000000
 H      45.37800000      19.86900000      27.17500000
 O      47.88700000      39.92500000      27.17000000
 H      47.75100000      39.54500000      28.10600000
 H      47.09900000      39.44100000      26.77900000
 O      47.61100000      23.60900000      34.44900000
 H      46.99200000      23.54600000      35.27000000
 H      48.44200000      23.18600000      34.95400000
 O      42.63300000      32.12100000      38.13400000
 H      43.39000000      32.71000000      37.91500000
 H      42.71500000      31.45800000      37.43500000
 O      45.25400000      11.16800000       7.48200000
 H      45.54800000      11.27800000       8.40400000
 H      45.75400000      11.85200000       7.01200000
 O      42.89300000      33.45100000      15.21300000
 H      42.48500000      33.82500000      15.99700000
 H      42.75700000      32.53100000      15.38100000
 O      44.40400000      13.51100000      29.99100000
 H      44.94600000      12.65700000      29.97400000
 H      43.90500000      13.42400000      29.15300000
 O      46.67500000      27.61800000      35.08600000
 H      45.83300000      27.66100000      34.52400000
 H      46.25300000      27.34600000      35.94700000
 O      45.69000000      14.53100000      11.73600000
 H      45.28800000      13.69400000      11.93100000
 H      46.04600000      14.80900000      12.58900000
 O      48.21500000      28.74900000       7.42000000
 H      48.84400000      29.34000000       7.87600000
 H      48.09700000      28.06700000       8.12400000
 O      44.25700000      19.70600000      14.34000000
 H      44.25200000      19.13800000      13.47700000
 H      44.85600000      19.08700000      14.85500000
 O      44.63300000      26.46100000      37.20300000
 H      44.33600000      26.92100000      37.99200000
 H      43.85200000      26.04400000      36.82500000
 O      44.68900000      15.13300000      39.35300000
 H      44.62300000      14.88100000      38.39700000
 H      44.66300000      14.23500000      39.76900000
 O      48.29200000      18.18200000      25.73900000
 H      48.05600000      17.21500000      25.91600000
 H      47.44400000      18.53300000      26.12900000
 O      48.22000000      19.61300000      38.21500000
 H      48.03500000      20.30200000      38.85400000
 H      47.36700000      19.66900000      37.73000000
 O      46.41000000      37.01200000      40.27700000
 H      46.84300000      36.50800000      41.06800000
 H      45.98700000      37.75600000      40.74900000
 O      46.70300000      11.39800000      14.45300000
 H      47.23200000      11.97300000      14.98400000
 H      45.83500000      11.56400000      14.81200000
 O      48.57800000      37.38800000      12.92100000
 H      49.41100000      37.18700000      12.50700000
 H      48.05700000      36.56700000      12.81800000
 O      48.56300000      27.83300000      28.45100000
 H      48.12300000      27.65500000      27.61300000
 H      49.42000000      28.23100000      28.24500000
 O      48.30300000      10.68300000      26.82600000
 H      49.03800000      11.17900000      27.30000000
 H      48.88800000      10.00100000      26.42500000
 O      45.90500000      29.79700000      40.48500000
 H      46.11800000      29.58600000      41.41400000
 H      44.98400000      30.21100000      40.58400000
 O      45.46700000      24.58500000      18.20100000
 H      45.51200000      25.11500000      18.97500000
 H      44.58400000      24.68400000      17.88700000
 O      44.33100000      24.03100000      22.46500000
 H      44.22200000      24.24800000      23.39200000
 H      44.95700000      23.27300000      22.51400000
 O      47.42800000      30.55100000      22.83800000
 H      48.16300000      30.61000000      23.47900000
 H      46.89900000      31.38300000      23.04500000
 O      47.19600000      40.04900000      32.69800000
 H      47.91500000      39.46300000      33.14800000
 H      47.44100000      39.85700000      31.76500000
 O      43.59600000      28.67500000      16.88200000
 H      44.17800000      28.51300000      17.64700000
 H      44.07500000      28.13700000      16.18700000
 O      48.63600000      13.87100000      25.71300000
 H      49.38900000      13.86700000      26.31100000
 H      47.97200000      13.47300000      26.30700000
 O      45.77700000      25.26400000      29.49900000
 H      46.12100000      25.86600000      30.17100000
 H      45.04300000      24.83700000      29.97700000
 O      44.25700000      27.51700000      28.66800000
 H      43.55700000      27.06100000      29.17500000
 H      44.85400000      26.71300000      28.54700000
 O      45.18700000      18.24900000      23.05100000
 H      44.92900000      18.11400000      23.98100000
 H      44.53600000      18.92500000      22.77700000
 O      45.88600000      30.19600000      15.43800000
 H      45.07900000      30.65600000      15.18500000
 H      45.59800000      29.26300000      15.33500000
