120
XYZ file of cluster: frame_10500_7a2bb.46603.9d8f4 - created by MolEdiTo
 O      24.53700000      16.05600000      21.66900000
 H      24.10200000      15.27600000      22.03600000
 H      24.44800000      15.87000000      20.69100000
 O      16.59900000      19.05800000      30.03800000
 H      17.31900000      19.68100000      29.99300000
 H      16.99000000      18.13900000      30.07300000
 O      16.65500000      18.15800000      21.12000000
 H      17.32400000      18.85700000      21.24100000
 H      17.01600000      17.43200000      21.69600000
 O      24.66800000      13.26800000      23.48500000
 H      24.26800000      12.82700000      22.67300000
 H      24.17900000      12.87700000      24.30000000
 O      24.03800000      16.28000000      25.15500000
 H      23.39200000      15.60400000      25.09900000
 H      24.70200000      16.07500000      25.88600000
 O      22.68500000      13.70300000      27.62600000
 H      21.94200000      13.28900000      28.08000000
 H      22.89100000      14.58600000      28.09500000
 O      17.23400000      17.61000000      24.68700000
 H      16.31900000      18.00000000      24.84100000
 H      16.98500000      16.73000000      24.27500000
 O      21.22100000      15.52400000      21.44900000
 H      20.27800000      15.27800000      21.58600000
 H      21.09900000      16.31600000      20.93600000
 O      21.08600000      11.27300000      29.10600000
 H      20.81000000      10.72700000      29.92600000
 H      21.26100000      10.55300000      28.47300000
 O      16.50100000      14.78600000      23.83300000
 H      16.35000000      13.82400000      24.12200000
 H      15.82500000      15.01400000      23.17100000
 O      19.26900000      19.93700000      21.59900000
 H      19.24700000      20.58600000      20.90400000
 H      19.46600000      20.45800000      22.41700000
 O      17.26900000      11.44300000      22.48000000
 H      16.93900000      10.54300000      22.59200000
 H      18.08100000      11.35200000      21.94700000
 O      21.58000000      20.19800000      28.54200000
 H      21.89500000      21.01600000      28.13100000
 H      20.62500000      20.32300000      28.37300000
 O      24.04000000      10.78400000      21.72800000
 H      23.90700000      10.16800000      20.99000000
 H      23.18000000      11.27800000      21.65800000
 O      24.70700000      20.15900000      29.66800000
 H      24.01600000      19.64000000      29.24800000
 H      25.39400000      19.49400000      30.00400000
 O      20.65800000       9.90400000      21.87700000
 H      20.55400000       9.16000000      21.18700000
 H      20.55500000      10.81400000      21.49500000
 O      20.20800000      14.32000000      29.87500000
 H      19.99100000      13.46900000      29.46200000
 H      20.46000000      14.92200000      29.14200000
 O      20.22000000      18.21400000      26.21500000
 H      21.21700000      18.51600000      26.31600000
 H      20.14800000      18.09000000      25.27500000
 O      16.50400000      13.73400000      20.50000000
 H      15.86900000      14.42400000      20.81000000
 H      16.36200000      13.08500000      21.23400000
 O      24.01900000      16.34900000      28.21800000
 H      24.28200000      17.29300000      28.29200000
 H      24.55300000      16.09400000      27.45800000
 O      21.15600000      18.11800000      30.72900000
 H      22.03600000      18.13800000      31.17200000
 H      21.31600000      18.19500000      29.77300000
 O      19.11500000      14.10800000      22.51200000
 H      18.88100000      13.22800000      22.22000000
 H      18.33300000      14.29000000      23.07600000
 O      24.28900000      18.47900000      23.65800000
 H      23.92600000      17.87000000      22.90100000
 H      24.47000000      17.76800000      24.34700000
 O      17.53600000      17.39500000      26.99700000
 H      16.87300000      17.58100000      26.22800000
 H      18.06200000      18.18400000      26.98400000
 O      26.58000000      13.21700000      25.72000000
 H      26.38800000      12.87500000      24.79800000
 H      25.83900000      12.81000000      26.24400000
 O      17.21400000      13.19000000      27.13500000
 H      17.77400000      12.98500000      26.35500000
 H      16.62700000      13.95500000      26.86600000
 O      21.58500000      14.75400000      24.55500000
 H      21.36000000      15.15500000      23.68500000
 H      20.65300000      14.63500000      25.04900000
 O      26.58500000      12.10000000      28.55500000
 H      26.08300000      12.65600000      27.92400000
 H      27.18800000      11.48900000      28.05100000
 O      18.84500000      15.41600000      25.67400000
 H      17.86600000      15.20600000      25.81400000
 H      18.96500000      16.37800000      26.02600000
 O      27.09600000      15.16600000      22.92400000
 H      26.76400000      15.90400000      23.55800000
 H      26.34700000      15.06100000      22.26800000
 O      21.86000000      12.58800000      21.68000000
 H      21.42100000      12.95100000      22.42700000
 H      21.77000000      13.27400000      21.03800000
 O      24.94900000      21.06600000      21.84600000
 H      24.16400000      20.93100000      21.23800000
 H      25.04300000      20.12900000      22.23700000
 O      22.63800000      20.55500000      24.86900000
 H      23.08200000      21.33900000      24.55600000
 H      23.25300000      19.78500000      24.66500000
 O      17.24100000      20.42900000      25.64900000
 H      16.21900000      20.57500000      25.65500000
 H      17.32400000      19.97600000      24.73700000
 O      26.81500000      11.18400000      22.45800000
 H      26.23400000      11.90400000      22.80500000
 H      26.24100000      10.42900000      22.26100000
 O      16.06800000      11.56700000      29.11700000
 H      16.15600000      10.80400000      28.44600000
 H      16.18500000      12.37200000      28.54600000
 O      20.42100000      16.12700000      27.74400000
 H      21.04500000      15.84300000      27.02700000
 H      19.93700000      16.85500000      27.29300000
 O      18.81900000      11.19000000      25.59600000
 H      19.78100000      11.09800000      25.71700000
 H      18.43600000      11.03100000      26.47700000
 O      23.17400000      12.63600000      25.95700000
 H      22.96900000      12.63700000      26.87600000
 H      22.52700000      13.22500000      25.51100000
 O      16.44100000      15.16600000      29.02500000
 H      16.96200000      15.70600000      29.66400000
 H      17.11500000      14.58100000      28.60100000
