138
XYZ file of cluster: frame_10500_38b2.1ebb.9e854 - created by MolEdiTo
 O       8.46500000       2.63000000      21.39200000
 H       8.77500000       2.07200000      20.62500000
 H       7.94100000       3.43800000      21.09900000
 O       1.75800000       1.23800000      21.26800000
 H       2.59600000       0.72100000      21.35800000
 H       1.29400000       0.56800000      21.78300000
 O       3.44300000      11.46700000      26.57900000
 H       3.82000000      10.59000000      26.18200000
 H       4.28500000      11.94800000      26.60300000
 O      10.59900000       6.84700000      25.63900000
 H      10.96500000       7.06300000      26.52100000
 H      10.02600000       6.13300000      25.83300000
 O       1.21400000       8.96100000      26.11900000
 H       1.82400000       9.29600000      25.38900000
 H       1.01600000       9.72300000      26.75400000
 O       7.77600000       7.58900000      29.54800000
 H       8.44800000       7.70900000      28.87200000
 H       7.10500000       7.15100000      28.94500000
 O       1.20300000       6.56800000      21.90700000
 H       0.94600000       5.87100000      21.28800000
 H       2.11300000       6.72000000      21.69300000
 O       1.30800000       9.23300000      29.73600000
 H       2.21000000       9.58900000      29.58000000
 H       1.11000000       8.81100000      28.90400000
 O       9.20400000       1.92600000      25.92000000
 H       9.58800000       1.92900000      24.98100000
 H       9.67600000       1.15300000      26.28300000
 O       2.64800000       1.18700000      29.28700000
 H       2.43000000       0.25000000      29.06600000
 H       2.44400000       1.26600000      30.21600000
 O       7.94400000      10.82400000      24.07200000
 H       8.12000000      11.07700000      23.12600000
 H       7.85500000       9.82500000      24.11400000
 O       3.80800000       8.12900000      21.51100000
 H       3.47100000       8.90100000      21.08200000
 H       3.41200000       8.12700000      22.43300000
 O       7.52000000       3.58500000      29.05600000
 H       7.48700000       3.39200000      30.06900000
 H       6.92800000       2.88700000      28.69900000
 O       6.24200000       9.80100000      21.24200000
 H       6.23500000       9.16500000      21.95900000
 H       5.30800000       9.70100000      20.98300000
 O       6.96700000       1.62800000      25.20300000
 H       7.71000000       1.97700000      25.79700000
 H       7.13700000       0.64500000      25.06700000
 O       8.76900000       6.47700000      27.43900000
 H       9.54200000       6.95800000      27.84800000
 H       9.16400000       5.61000000      27.20800000
 O       8.65800000      10.45500000      28.79600000
 H       9.00600000      11.33400000      28.64800000
 H       8.68900000      10.25400000      29.79200000
 O       6.10600000       4.48600000      26.26400000
 H       6.52700000       5.11000000      26.90500000
 H       6.64700000       3.71400000      26.23900000
 O       8.96500000       7.36800000      23.48000000
 H       9.37400000       8.09300000      22.92600000
 H       9.48200000       7.16400000      24.27800000
 O       9.99300000       3.75900000      28.95200000
 H       9.28500000       3.21400000      29.41700000
 H       9.91100000       4.70600000      29.14900000
 O       5.59600000       9.58100000      25.63900000
 H       5.12900000       8.85600000      25.07300000
 H       6.59000000       9.27200000      25.66300000
 O       2.98700000       3.25800000      24.98700000
 H       2.22300000       3.20700000      25.54000000
 H       3.59600000       2.59700000      25.32900000
 O       3.84600000       4.93400000      28.58600000
 H       2.95900000       4.87700000      28.04500000
 H       4.35100000       4.36000000      28.15200000
 O       6.80700000       7.30800000      22.84500000
 H       6.48300000       6.53900000      22.29000000
 H       7.78600000       7.22400000      22.76000000
 O       4.39800000       6.09400000      25.94800000
 H       3.53400000       5.69900000      25.95500000
 H       5.06000000       5.40500000      26.15400000
 O       6.22000000       3.56200000      24.09200000
 H       6.62700000       3.02700000      24.80400000
 H       5.30200000       3.23700000      24.05900000
 O       0.83700000       6.93100000      25.28700000
 H       0.95500000       7.84300000      25.66100000
 H       0.45900000       7.03000000      24.36500000
 O       2.13300000       3.86300000      20.70000000
 H       2.26700000       4.12300000      21.68800000
 H       1.96400000       2.84900000      20.73200000
 O       1.71400000       3.31300000      27.58400000
 H       2.21200000       2.72900000      28.21000000
 H       1.22700000       2.80500000      26.94200000
 O       8.88000000       4.66100000      26.00100000
 H       9.19400000       3.77700000      26.13900000
 H       8.48300000       4.60500000      25.06800000
 O       0.88400000       8.46300000      22.36600000
 H       0.52200000       9.00800000      21.60900000
 H       0.55900000       7.56900000      22.12100000
 O       8.85300000       4.25500000      23.57400000
 H       7.88600000       4.23000000      23.70800000
 H       8.83100000       3.54400000      22.87700000
 O      10.17100000       2.31800000      22.95300000
 H      10.11200000       1.45500000      22.43600000
 H      10.02100000       2.96100000      22.15300000
 O       4.90400000       1.89000000      22.11200000
 H       5.20600000       1.05200000      21.62200000
 H       5.21200000       2.67200000      21.58000000
 O       9.19400000       5.32900000      20.97000000
 H       9.17900000       5.27000000      21.93000000
 H       8.67600000       6.15900000      20.76600000
 O       4.56800000       7.55900000      24.27800000
 H       4.49100000       6.65400000      24.64600000
 H       5.39000000       7.35100000      23.72800000
 O       6.05000000       1.42500000      28.50300000
 H       6.77900000       0.85700000      28.11700000
 H       5.26600000       0.81800000      28.44100000
 O       8.48200000       9.08100000      26.44300000
 H       9.38900000       9.23700000      26.81100000
 H       8.47700000       8.17000000      26.08100000
 O       4.13200000       7.88800000      29.69200000
 H       3.82800000       7.30900000      28.89900000
 H       4.99200000       8.15100000      29.43000000
 O      10.74100000       8.88300000      25.44200000
 H      10.39900000       9.14800000      24.55200000
 H      10.54400000       7.88100000      25.39900000
 O       5.66100000       6.88300000      27.86300000
 H       5.13000000       7.04300000      27.04500000
 H       5.13700000       6.23200000      28.35900000
 O       8.45700000       7.17600000      25.92600000
 H       9.10000000       6.47200000      25.92200000
 H       7.78400000       6.91800000      25.29400000
 O      10.18400000       9.29300000      22.34400000
 H       9.44800000       9.47100000      21.80900000
 H      10.89600000       8.88400000      21.70600000
 O       6.30200000       5.04200000      21.46500000
 H       5.83000000       4.60100000      22.22200000
 H       5.68100000       4.89700000      20.70900000
 O       6.52700000      10.22300000      28.43400000
 H       7.49500000      10.39300000      28.62700000
 H       6.41900000      10.57900000      27.57900000
 O       3.64100000       4.76500000      23.54700000
 H       3.83900000       5.60800000      23.99300000
 H       3.26700000       4.11500000      24.19900000
