126
XYZ file of cluster: frame_10500_48663.4ebe1.42a7 - created by MolEdiTo
 O      14.01700000      17.12200000       5.42900000
 H      13.56400000      16.68100000       4.68300000
 H      14.68300000      16.50700000       5.68000000
 O      20.47000000      17.15700000       3.84000000
 H      21.31500000      16.58000000       3.88100000
 H      20.29900000      17.21700000       2.85600000
 O      20.96000000      15.49900000       9.38900000
 H      21.23900000      15.39600000       8.49000000
 H      20.18100000      14.91900000       9.41200000
 O      13.33700000      19.33400000       2.95700000
 H      12.35700000      19.40700000       2.89800000
 H      13.78600000      20.10800000       3.41400000
 O      12.59300000      21.12400000       9.01500000
 H      13.41900000      21.41400000       8.64400000
 H      12.87200000      21.08900000       9.95000000
 O      18.99800000      12.77500000       6.45800000
 H      19.82600000      12.87600000       7.04700000
 H      19.16500000      13.49600000       5.81700000
 O      13.65200000      14.14400000       7.80600000
 H      13.07300000      13.78300000       7.14400000
 H      13.84900000      13.37000000       8.38800000
 O      18.45400000      16.33300000       5.70800000
 H      17.80200000      15.83300000       5.22000000
 H      19.01500000      16.60400000       5.02400000
 O      18.37500000      16.91600000       1.05700000
 H      19.13300000      17.33700000       0.54200000
 H      18.79100000      16.05100000       1.25800000
 O      15.65200000      14.98200000       6.15400000
 H      15.08900000      14.67500000       5.43100000
 H      15.41100000      14.51200000       6.93200000
 O      11.32800000      18.01400000       7.28600000
 H      11.32900000      18.86800000       7.81000000
 H      12.17200000      18.07200000       6.70500000
 O      17.22000000      19.73600000       9.01100000
 H      16.59800000      20.37700000       8.73400000
 H      18.04900000      19.69900000       8.44200000
 O      11.49200000      21.11000000       6.23400000
 H      11.63800000      21.09000000       7.18300000
 H      12.15800000      21.80400000       5.86600000
 O      14.33200000      17.29000000       1.15200000
 H      13.70800000      18.02000000       1.38900000
 H      13.85800000      16.73900000       0.58200000
 O      16.69300000      15.99700000       3.09500000
 H      16.59300000      15.23600000       2.46300000
 H      16.42700000      16.74600000       2.51100000
 O      14.98100000      12.82100000       4.16000000
 H      14.27200000      12.42100000       3.61400000
 H      15.66900000      12.98600000       3.51700000
 O      18.37600000      21.54800000       4.84700000
 H      19.18500000      21.67700000       5.25800000
 H      18.29500000      20.56400000       4.93500000
 O      13.91400000      16.02100000       9.76700000
 H      14.12400000      15.86500000       8.79700000
 H      13.83200000      15.14900000      10.23400000
 O      10.86200000      12.95700000       9.04500000
 H      10.80500000      12.18800000       8.36000000
 H      10.02000000      13.49100000       8.80600000
 O      13.44800000      11.02300000       9.08100000
 H      13.82300000      10.24900000       9.56100000
 H      12.79700000      10.66000000       8.47200000
 O      13.00000000      15.19400000       3.62800000
 H      12.56600000      14.49200000       3.12400000
 H      13.96700000      15.17800000       3.40700000
 O      15.63900000      21.50600000       3.05100000
 H      16.12900000      20.64900000       3.33200000
 H      15.32800000      21.78000000       3.88900000
 O      18.81600000      20.13300000       1.44800000
 H      18.16400000      19.62900000       1.96900000
 H      19.52400000      19.47700000       1.18100000
 O      20.77400000      19.67200000       4.87500000
 H      20.57800000      18.77700000       4.33900000
 H      21.54500000      19.97800000       4.33900000
 O      16.42200000      19.11200000       4.10800000
 H      16.12500000      18.83700000       4.97100000
 H      15.88500000      18.63100000       3.42700000
 O       9.86300000      19.74900000      10.09100000
 H       9.37800000      19.27000000      10.79600000
 H      10.78100000      19.59100000      10.43500000
 O      15.23700000      10.97500000       6.48100000
 H      15.16500000      11.79500000       5.87600000
 H      15.85500000      11.26200000       7.23800000
 O      16.66800000      13.04700000       1.40300000
 H      15.86100000      13.56000000       0.98300000
 H      16.58200000      12.26400000       0.85200000
 O      19.21200000      13.02400000       3.52500000
 H      19.89500000      12.79500000       2.82800000
 H      18.30300000      13.07500000       3.03200000
 O      13.09600000      10.82200000       3.23100000
 H      12.65700000      11.46700000       2.63200000
 H      12.64400000      10.90100000       4.08100000
 O      11.09400000      12.62000000       2.18900000
 H      11.08900000      12.52200000       3.12000000
 H      10.12700000      12.46000000       2.06900000
 O      18.49800000      14.47300000       8.70300000
 H      18.35800000      13.73500000       8.04100000
 H      18.22700000      15.29900000       8.18800000
 O      20.63400000      19.50400000      10.42700000
 H      21.57600000      19.22600000      10.64300000
 H      20.41900000      18.83100000       9.78400000
 O      13.27300000      13.22500000      10.50600000
 H      13.25800000      12.30500000       9.97200000
 H      12.46300000      13.57600000      10.13000000
 O      19.79500000      10.94600000      10.13400000
 H      18.77300000      11.01500000       9.97600000
 H      20.13800000      11.87700000      10.14300000
 O      11.14100000      15.11700000       6.10400000
 H      10.72500000      15.90900000       5.79200000
 H      11.75400000      15.44100000       6.79000000
 O      19.62900000      18.34900000       7.31100000
 H      19.91300000      18.72900000       6.39400000
 H      18.89400000      17.75300000       7.05700000
 O      20.69500000      10.97700000       4.83100000
 H      21.53700000      11.41500000       5.17500000
 H      20.03300000      11.71400000       4.80300000
 O      18.35100000      17.27700000      11.38600000
 H      17.63100000      17.86800000      11.42600000
 H      18.44700000      17.00500000      10.48000000
 O      17.11900000      11.73800000       8.92100000
 H      17.21000000      12.15400000       9.77400000
 H      17.09800000      10.78500000       9.13700000
 O      11.58000000      11.93400000       5.41200000
 H      11.50700000      11.29300000       6.20500000
 H      12.08600000      12.70200000       5.76000000
 O      10.36800000      16.82200000       3.14100000
 H      10.15400000      16.14000000       2.48800000
 H      11.12900000      16.60000000       3.67500000
