117
XYZ file of cluster: frame_19500_0.4b4c0.47ff - created by MolEdiTo
 O      10.04400000      21.53100000       9.06400000
 H      10.75400000      20.96700000       8.64900000
 H       9.29700000      21.48200000       8.41000000
 O       1.40100000      16.37400000       4.87900000
 H       1.39100000      17.13900000       5.49300000
 H       1.89500000      15.77000000       5.43500000
 O       1.91700000      20.62800000       4.45600000
 H       1.35500000      21.44300000       4.17200000
 H       1.18100000      19.98700000       4.25900000
 O       8.64100000      17.47000000       1.96700000
 H       8.39900000      18.34800000       1.66600000
 H       9.02400000      17.02300000       1.25600000
 O       5.52300000      10.63400000       9.99300000
 H       5.99800000       9.77000000       9.88300000
 H       5.34400000      10.83400000      10.97200000
 O       4.64000000      14.28400000       9.30700000
 H       3.88600000      14.79200000       9.55600000
 H       5.11500000      13.92300000      10.11500000
 O       5.53400000      11.87200000       5.01900000
 H       6.01000000      11.02600000       4.88700000
 H       5.96600000      12.28200000       5.78400000
 O       4.27400000      13.95200000       3.46700000
 H       4.79800000      14.76600000       3.30200000
 H       4.94600000      13.32300000       3.79100000
 O       3.52200000      18.56800000       5.36300000
 H       3.15800000      18.27400000       6.24100000
 H       3.01600000      19.42500000       5.09400000
 O       3.43700000      10.95400000       2.39000000
 H       4.26400000      11.29500000       2.71200000
 H       3.41400000      11.13900000       1.44400000
 O       6.11600000      13.74500000       6.97300000
 H       5.69500000      14.59000000       6.63200000
 H       5.68200000      13.71500000       7.87600000
 O       8.03200000      21.57000000       7.12700000
 H       7.60100000      20.77100000       7.26700000
 H       7.75100000      21.74800000       6.15200000
 O       2.23800000      17.10700000       7.53400000
 H       2.02800000      17.32900000       8.46900000
 H       2.69500000      16.25400000       7.67200000
 O       2.30400000      11.03800000       5.09900000
 H       2.93800000      10.62900000       4.48200000
 H       2.54100000      11.95900000       5.08700000
 O       1.78600000      13.80000000      10.45100000
 H       1.28200000      13.36000000       9.71700000
 H       1.87900000      13.02500000      11.12100000
 O       4.32700000      17.74800000      10.36400000
 H       3.33500000      17.65200000      10.51400000
 H       4.69100000      17.92700000      11.24800000
 O      10.35000000      16.33800000       8.89000000
 H       9.55700000      16.54400000       8.31800000
 H      10.76200000      15.61800000       8.35600000
 O       8.07700000      10.61300000       7.77500000
 H       7.29800000      10.20400000       7.31500000
 H       7.63500000      10.90400000       8.58300000
 O       5.09000000      16.33900000       5.67800000
 H       4.44800000      17.08200000       5.72100000
 H       5.48400000      16.41100000       4.76300000
 O       8.47600000      20.33000000       1.65300000
 H       8.11200000      21.18700000       1.70400000
 H       9.27500000      20.42400000       2.19500000
 O       9.29100000      18.60100000       4.65900000
 H       8.98200000      19.38400000       4.26300000
 H       9.16500000      17.96500000       3.95200000
 O       1.58900000      14.32000000       2.72000000
 H       1.42100000      15.15800000       3.13700000
 H       2.52400000      14.18600000       2.93700000
 O       9.20600000      13.44900000       8.38900000
 H       8.53200000      12.85700000       8.65300000
 H       9.85100000      12.82700000       8.10400000
 O       9.26800000      14.28600000       4.09600000
 H       9.41200000      13.31800000       3.98900000
 H      10.03900000      14.63600000       3.63800000
 O       6.85100000      15.53500000       3.60000000
 H       7.53400000      14.94200000       3.67000000
 H       7.32400000      16.22200000       3.14400000
 O       2.88800000      11.30200000       8.23200000
 H       2.53000000      10.78000000       8.98000000
 H       3.21400000      12.16300000       8.57500000
 O       0.84600000      16.41100000      10.47800000
 H       0.00000000      15.97700000      10.27600000
 H       1.32000000      15.56300000      10.21900000
 O       4.66500000      20.24900000       8.52800000
 H       4.76400000      19.66000000       9.24900000
 H       5.37400000      19.95800000       8.00300000
 O       6.66100000      21.36600000       4.66100000
 H       5.97000000      22.00100000       4.37900000
 H       6.24300000      20.45900000       4.30600000
 O       2.68700000      13.97600000       6.11900000
 H       3.60800000      13.80900000       5.96100000
 H       2.40800000      13.36900000       6.82400000
 O       8.28000000      15.58600000      10.82200000
 H       7.62500000      15.13800000      10.17400000
 H       9.04800000      15.85700000      10.32300000
 O       6.07300000      18.62600000       4.06200000
 H       6.52800000      17.82200000       4.34800000
 H       5.27000000      18.65100000       4.58300000
 O       7.88700000      16.02200000       7.43700000
 H       8.10500000      15.06600000       7.50000000
 H       6.98300000      16.00400000       7.05800000
 O       7.24500000      18.88200000       7.15100000
 H       7.09500000      18.03500000       7.66900000
 H       7.89500000      18.70300000       6.46800000
 O       5.45800000      20.97100000       1.42300000
 H       6.08300000      20.25800000       1.41000000
 H       4.98800000      20.87300000       0.57800000
 O       1.99900000      21.07500000       7.44800000
 H       3.01100000      21.00400000       7.65900000
 H       1.99800000      20.86300000       6.52400000
 O      10.19800000      18.80300000       7.13600000
 H       9.98500000      18.96100000       6.11900000
 H      10.87800000      18.10600000       7.29700000
 O       3.55000000      16.62400000       1.83000000
 H       3.60200000      17.24200000       1.05700000
 H       2.65900000      16.76400000       2.17200000
 O       9.42100000      18.57500000      10.70400000
 H       9.86800000      17.66100000      10.59300000
 H       8.75700000      18.71700000       9.95700000
