114
XYZ file of cluster: frame_19500_55ca9.4334.9ed19 - created by MolEdiTo
 O      19.85800000       4.41600000      28.63900000
 H      19.93800000       5.38700000      28.43100000
 H      20.64800000       4.09500000      28.15900000
 O      14.96800000       6.44700000      26.32200000
 H      14.07800000       6.81200000      26.14600000
 H      15.02500000       6.30000000      27.31100000
 O      14.86700000       4.51800000      23.09900000
 H      14.65100000       3.77700000      23.66000000
 H      15.53100000       4.03800000      22.53400000
 O      20.61300000       1.30200000      27.67600000
 H      20.04500000       0.54500000      27.94700000
 H      20.15500000       1.98600000      27.13900000
 O      17.99900000       9.75700000      28.28100000
 H      17.55500000      10.10700000      27.49600000
 H      18.72200000      10.41900000      28.42600000
 O      13.39000000       6.76800000      22.85100000
 H      13.04400000       6.58900000      23.76200000
 H      14.03200000       6.00100000      22.85000000
 O      13.15000000       4.15100000      26.23500000
 H      12.13500000       4.26200000      26.22400000
 H      13.53000000       5.01000000      26.03300000
 O      18.96500000       1.25000000      21.13000000
 H      19.61900000       1.04600000      20.40100000
 H      18.27600000       0.57100000      20.97800000
 O      16.40500000       5.84800000      20.91400000
 H      15.50800000       5.89700000      21.26100000
 H      16.42000000       4.99000000      20.54200000
 O      12.05200000       3.73300000      21.67500000
 H      12.80900000       4.09800000      21.13800000
 H      12.19100000       3.97500000      22.62800000
 O      20.51100000       4.10100000      22.17400000
 H      21.05400000       3.50000000      22.82500000
 H      20.32500000       4.94500000      22.60300000
 O      19.83400000       6.42600000      23.78000000
 H      19.57700000       7.22500000      23.26800000
 H      19.31100000       6.64000000      24.54300000
 O      17.94000000       2.53600000      28.57500000
 H      17.56500000       2.33700000      27.69600000
 H      18.73300000       3.17100000      28.45700000
 O      12.21300000       5.43100000      30.07800000
 H      11.67400000       4.60500000      29.76400000
 H      12.28500000       5.27200000      31.05100000
 O      11.71200000      11.43200000      22.12800000
 H      11.79200000      11.77200000      21.17400000
 H      11.39100000      10.45600000      22.06300000
 O      12.33000000       7.21700000      25.31400000
 H      11.49400000       7.46500000      24.98000000
 H      12.17900000       7.30100000      26.33300000
 O      18.96500000       1.17900000      24.95600000
 H      18.90100000       2.20000000      24.96800000
 H      18.34600000       0.88500000      24.22200000
 O      18.27400000      10.43200000      25.42300000
 H      18.21300000      10.85100000      24.50400000
 H      18.35500000       9.45300000      25.30200000
 O      13.49100000       9.79500000      26.15800000
 H      13.53900000       8.86600000      25.83700000
 H      12.68000000      10.25200000      25.68300000
 O      16.54600000       2.99900000      20.88800000
 H      17.11900000       2.37800000      21.42600000
 H      15.79300000       2.37500000      20.69800000
 O      11.91700000       7.19800000      27.82300000
 H      11.76800000       6.35800000      28.36000000
 H      11.15100000       7.76100000      28.19200000
 O      21.82600000       2.43400000      20.50700000
 H      21.02800000       3.00800000      20.73600000
 H      22.33000000       2.34900000      21.42100000
 O      12.99600000       2.02800000      24.45600000
 H      13.02400000       2.76400000      25.09700000
 H      12.10800000       1.63400000      24.62900000
 O      11.63300000       1.20000000      29.76600000
 H      12.52400000       1.70400000      29.67100000
 H      11.43000000       1.15400000      30.71300000
 O      16.05200000       3.99900000      30.50400000
 H      16.79700000       3.38000000      30.21200000
 H      15.21400000       3.46300000      30.67100000
 O      17.18300000       7.09000000      24.94200000
 H      16.67700000       7.63200000      24.23700000
 H      16.50400000       6.77700000      25.53400000
 O      13.91300000       2.68700000      28.50900000
 H      14.61900000       3.37400000      28.43900000
 H      13.32400000       2.92100000      27.74900000
 O      17.31100000       8.59400000      20.52600000
 H      16.96100000       8.99100000      21.31800000
 H      17.15400000       7.64200000      20.42800000
 O      14.53000000      10.50000000      21.60600000
 H      13.63600000      10.21100000      21.58200000
 H      14.50200000      11.45900000      21.38600000
 O      20.60000000       8.53200000      25.66700000
 H      20.28500000       9.05000000      26.40800000
 H      21.15700000       9.20400000      25.23400000
 O      19.84600000       9.07900000      22.23900000
 H      18.86200000       9.36400000      21.94900000
 H      20.29600000       9.78500000      21.60000000
 O      19.59000000       7.29000000      28.23100000
 H      20.46400000       7.77400000      28.34500000
 H      18.97200000       7.97500000      28.28100000
 O      14.97900000       6.10300000      29.00300000
 H      14.12200000       5.74800000      29.31800000
 H      15.53600000       5.48700000      29.49800000
 O      16.08000000       9.39300000      23.60800000
 H      15.63800000       9.64700000      22.77900000
 H      15.41500000       9.45900000      24.35100000
 O      19.45700000       4.04400000      25.54200000
 H      19.64600000       4.75900000      26.28800000
 H      18.70000000       4.38300000      25.12500000
 O      14.20800000       1.60900000      21.30200000
 H      13.54200000       2.28700000      21.60300000
 H      13.90800000       0.76900000      21.59100000
 O      11.87300000       8.78800000      21.52200000
 H      12.25600000       7.95800000      21.94900000
 H      12.08400000       8.64500000      20.60700000
 O      16.38900000       8.33000000      29.79800000
 H      16.18000000       7.62000000      29.16200000
 H      17.05500000       8.82200000      29.28300000
