126
XYZ file of cluster: frame_19500_1f541.3b8f.20ec1 - created by MolEdiTo
 O       9.48800000       3.58800000      11.33100000
 H       8.79000000       2.82300000      11.16000000
 H       9.39100000       4.12600000      10.51100000
 O      13.05100000       9.35900000       6.39000000
 H      12.70200000       9.81200000       5.53100000
 H      14.00100000       9.23200000       6.28700000
 O       5.52300000      10.63400000       9.99300000
 H       5.99800000       9.77000000       9.88300000
 H       5.34400000      10.83400000      10.97200000
 O      15.81400000       6.94600000      13.97300000
 H      16.74000000       7.28700000      14.02000000
 H      15.34100000       6.83600000      14.90400000
 O      15.46700000       7.37200000       7.22500000
 H      15.60300000       7.25000000       6.26300000
 H      16.39700000       7.57400000       7.58900000
 O      10.09700000       9.07000000       6.20200000
 H      11.04000000       8.96100000       6.51000000
 H       9.75900000       9.97300000       6.39700000
 O      16.06300000       9.52000000       9.91600000
 H      15.43200000       9.79000000      10.58000000
 H      15.62800000       9.63400000       9.05400000
 O       9.41400000       3.71200000      14.08700000
 H      10.30300000       3.26000000      14.01100000
 H       9.07300000       3.73600000      13.11900000
 O      13.93200000       4.06200000      12.64100000
 H      14.57300000       3.53700000      12.16000000
 H      13.48000000       4.69400000      11.97600000
 O      10.50600000       4.17200000       5.17800000
 H       9.55900000       4.49000000       5.37000000
 H      10.43900000       3.83100000       4.32100000
 O      15.07900000       4.64700000       8.28000000
 H      14.60800000       4.41700000       9.05400000
 H      15.13700000       5.63100000       8.25000000
 O       8.75400000       4.84900000       8.91700000
 H       8.57300000       4.61700000       7.95300000
 H       8.83400000       5.87300000       8.91500000
 O      14.55500000       0.96700000      11.46400000
 H      15.43600000       1.45100000      11.54400000
 H      14.25400000       1.09800000      12.35800000
 O      13.75600000       2.04700000       5.89800000
 H      13.40500000       1.10600000       5.79300000
 H      14.58000000       2.07600000       5.40800000
 O       5.36400000       5.46300000       7.73300000
 H       5.53800000       6.43400000       7.93000000
 H       5.66100000       4.98200000       8.58800000
 O      12.26800000       6.68300000       7.85500000
 H      12.95400000       7.09600000       7.27300000
 H      12.70100000       5.81300000       8.06800000
 O       8.07700000      10.61300000       7.77500000
 H       7.29800000      10.20400000       7.31500000
 H       7.63500000      10.90400000       8.58300000
 O       6.96600000       7.61500000       5.83100000
 H       7.33900000       7.12700000       5.07000000
 H       7.07000000       8.57200000       5.51400000
 O       7.60300000      10.26100000      12.08200000
 H       7.57800000       9.82200000      13.00200000
 H       7.96500000      11.21200000      12.16000000
 O      16.48500000       2.24300000       7.03500000
 H      16.99800000       2.92500000       7.47300000
 H      15.60500000       2.26900000       7.32500000
 O      14.24900000       9.32300000      13.11900000
 H      14.39200000       8.44900000      13.55400000
 H      13.85800000       8.88600000      12.41900000
 O      13.33800000       7.40200000      10.81300000
 H      13.35300000       7.61700000       9.84800000
 H      12.46900000       7.60000000      11.04600000
 O      11.74600000       2.04700000      14.44700000
 H      12.58200000       1.72900000      13.94400000
 H      12.14400000       2.42800000      15.29900000
 O      11.15200000       9.19400000      11.52600000
 H      10.22700000       9.43400000      11.32600000
 H      11.71500000       9.96500000      11.35500000
 O       9.33700000       7.85900000       8.67900000
 H      10.12900000       7.59600000       8.11500000
 H       8.69000000       8.30200000       8.04500000
 O       5.99000000       3.94200000       9.95600000
 H       6.61900000       3.46300000      10.53500000
 H       5.31900000       3.31200000       9.64600000
 O       7.50700000       2.79900000      15.79500000
 H       7.35300000       3.54400000      16.44000000
 H       8.47500000       3.15000000      15.52100000
 O       9.48700000       8.80800000      13.87700000
 H      10.25400000       9.20800000      13.37400000
 H       9.36700000       7.96500000      13.48500000
 O       7.57200000       4.33700000       6.50300000
 H       7.55200000       4.77300000       5.61500000
 H       6.66200000       4.54400000       6.85000000
 O       6.04300000       9.35400000      14.50900000
 H       5.47200000       9.59900000      15.27800000
 H       5.52000000       9.87700000      13.93800000
 O      14.46100000       5.05700000      15.32900000
 H      14.21100000       4.76800000      14.43000000
 H      15.40900000       5.22900000      15.24800000
 O       7.98300000       7.43100000      11.54700000
 H       7.77700000       8.39000000      11.34500000
 H       8.75500000       7.23400000      10.95400000
 O      10.41700000       5.87300000      15.41500000
 H       9.91300000       5.23300000      14.97600000
 H      11.36200000       5.57900000      15.36300000
 O       8.54600000       8.34500000      16.33500000
 H       8.94200000       8.34000000      15.41600000
 H       7.79800000       7.81700000      16.14600000
 O       5.62300000       3.77600000      13.63900000
 H       6.13300000       3.55700000      14.46700000
 H       6.09900000       4.65800000      13.46200000
 O       6.39700000       8.24000000       8.50200000
 H       5.72500000       8.75900000       7.92200000
 H       6.68800000       7.52800000       7.85100000
 O       7.36900000       6.05000000      14.18000000
 H       8.24800000       5.61800000      14.05500000
 H       7.39100000       6.78400000      13.48900000
 O      10.17200000       1.15800000       8.72000000
 H      10.56700000       0.48300000       9.34300000
 H      10.83500000       1.84100000       8.94500000
 O      14.18300000       4.65800000       4.86900000
 H      14.01300000       4.02500000       5.53800000
 H      13.41300000       4.71100000       4.22900000
 O      11.93800000       3.39900000       8.08100000
 H      11.45200000       4.18000000       7.97300000
 H      12.09000000       3.11000000       7.13400000
 O       4.73300000       6.70500000      11.74000000
 H       5.41800000       6.58500000      11.00700000
 H       4.07200000       6.05800000      11.60200000
 O       7.42700000       1.68800000      11.15700000
 H       7.48700000       0.89400000      10.66600000
 H       6.53500000       1.59100000      11.58300000
