138
XYZ file of cluster: frame_19500_703fe.48da9.9cf94 - created by MolEdiTo
 O      22.93300000      12.99600000      22.52300000
 H      22.11900000      13.52000000      22.52900000
 H      23.53200000      13.53600000      23.14400000
 O      16.28300000      21.06000000      24.23100000
 H      15.36000000      20.98700000      24.58900000
 H      16.69300000      20.17700000      24.14600000
 O      17.09900000      19.08300000      26.12200000
 H      17.90000000      19.29600000      25.57300000
 H      16.96200000      19.62400000      26.85100000
 O      26.19100000      17.86000000      21.61400000
 H      26.07300000      18.56600000      22.31500000
 H      26.39900000      18.37000000      20.79900000
 O      26.25700000      11.11900000      23.86400000
 H      26.36600000      10.73100000      22.96500000
 H      25.58600000      10.54900000      24.39200000
 O      15.86700000      15.83800000      26.58900000
 H      15.59900000      15.09700000      27.08700000
 H      15.75900000      15.60300000      25.61600000
 O      15.51100000      15.97200000      21.78700000
 H      14.59000000      16.22700000      21.73100000
 H      15.90000000      16.82100000      21.89400000
 O      21.69800000      19.96400000      30.45600000
 H      20.79900000      19.72100000      30.06200000
 H      22.27700000      19.25000000      30.11600000
 O      24.09900000      16.23700000      22.33900000
 H      24.26400000      16.42100000      23.30200000
 H      24.89300000      16.66700000      21.85000000
 O      20.82800000      17.90700000      22.08700000
 H      20.86500000      17.13400000      22.72900000
 H      21.70600000      18.32100000      22.21200000
 O      18.34300000      14.40000000      21.39200000
 H      18.77300000      14.22000000      20.54900000
 H      17.64600000      15.06900000      21.24300000
 O      18.49900000      17.23900000      27.90400000
 H      17.85900000      16.70900000      28.42900000
 H      17.98400000      17.81200000      27.22000000
 O      23.38600000      16.71900000      27.85600000
 H      22.54400000      17.18800000      27.55700000
 H      23.25400000      15.88800000      27.33500000
 O      20.29200000      21.70200000      23.03500000
 H      21.20400000      22.12400000      23.10400000
 H      20.36300000      21.03300000      22.26200000
 O      22.57700000      14.38100000      26.52500000
 H      21.87300000      13.81200000      26.16000000
 H      23.29800000      13.72500000      26.73600000
 O      25.31000000      18.21600000      26.78600000
 H      25.97700000      18.90600000      27.16900000
 H      24.66600000      17.98200000      27.54100000
 O      18.27400000      10.43200000      25.42300000
 H      18.21300000      10.85100000      24.50400000
 H      18.35500000       9.45300000      25.30200000
 O      21.51200000      15.28000000      23.64800000
 H      21.99000000      15.32700000      24.47800000
 H      20.64100000      15.64700000      23.93400000
 O      23.92100000      14.06300000      20.16400000
 H      23.59100000      13.64200000      21.02600000
 H      24.74300000      14.54800000      20.44200000
 O      16.45100000      20.60600000      28.26400000
 H      16.01500000      20.09200000      28.98800000
 H      15.83200000      21.33400000      28.00200000
 O      19.43400000      20.25700000      28.38100000
 H      19.49000000      21.03800000      27.76500000
 H      18.51700000      20.26400000      28.62100000
 O      23.29600000      17.78400000      24.67900000
 H      22.72200000      17.48700000      25.44600000
 H      23.97300000      18.34200000      25.11800000
 O      19.57900000      16.74900000      25.03900000
 H      20.28200000      17.30300000      25.32400000
 H      18.72200000      17.22400000      25.27900000
 O      26.84500000      10.74200000      27.40700000
 H      26.01100000      10.73900000      26.99700000
 H      27.39000000      10.02300000      26.98500000
 O      16.32700000      14.44700000      24.03000000
 H      16.17800000      15.13200000      23.27600000
 H      17.30100000      14.03400000      23.94000000
 O      23.43200000      19.76100000      22.50000000
 H      23.88200000      20.45200000      22.97100000
 H      23.50600000      19.00400000      23.13400000
 O      22.11900000      10.68300000      23.83700000
 H      22.41200000      11.22100000      23.08300000
 H      21.95900000       9.81800000      23.37400000
 O      24.80900000      20.13700000      30.63200000
 H      25.34500000      19.37300000      30.37300000
 H      25.24600000      20.93300000      30.37800000
 O      24.77800000      12.86500000      25.77400000
 H      25.55600000      12.51400000      25.22300000
 H      24.75700000      13.84400000      25.63200000
 O      26.33200000      19.17300000      24.15500000
 H      26.36000000      18.69200000      24.99300000
 H      25.89900000      20.07300000      24.51500000
 O      17.14800000      14.60000000      29.51500000
 H      16.20100000      14.51800000      29.24700000
 H      17.67400000      14.17600000      28.80000000
 O      25.45300000      15.47900000      25.47500000
 H      25.56900000      16.43900000      25.84100000
 H      26.25200000      15.06000000      25.90100000
 O      23.42000000      10.84900000      27.56500000
 H      22.94100000      11.10300000      26.77100000
 H      23.88600000      11.70000000      27.75900000
 O      15.78500000      12.13500000      30.62800000
 H      16.48400000      12.79800000      30.34400000
 H      15.55500000      11.77400000      29.71800000
 O      19.25100000      19.94200000      25.09100000
 H      19.76900000      20.13000000      24.28600000
 H      19.50900000      20.62400000      25.73500000
 O      21.27000000      18.28400000      27.09600000
 H      21.65500000      19.22300000      27.04600000
 H      20.38500000      18.37200000      27.51900000
 O      21.66700000      15.31300000      30.33900000
 H      22.38100000      15.75500000      29.80200000
 H      21.97400000      14.36200000      30.47200000
 O      20.64200000      12.22100000      25.67600000
 H      19.86100000      11.76000000      25.88000000
 H      20.91500000      11.80300000      24.74700000
 O      19.81400000      17.34700000      30.38200000
 H      20.19300000      16.46000000      30.33300000
 H      19.26900000      17.41100000      29.49300000
 O      24.63500000      13.49300000      28.43500000
 H      25.08400000      13.62900000      27.65700000
 H      25.17900000      14.09900000      29.07700000
 O      19.95400000      14.45400000      28.38000000
 H      19.76200000      15.19000000      27.86900000
 H      20.59800000      14.84200000      29.06000000
 O      17.53500000      18.20800000      22.81000000
 H      18.48700000      18.27600000      22.87900000
 H      17.48600000      18.66900000      21.92600000
 O      26.11200000      17.90000000      29.76500000
 H      26.68000000      17.59300000      30.53700000
 H      26.14400000      17.11200000      29.13600000
 O      18.05600000      11.95700000      23.01100000
 H      18.46100000      12.69800000      22.49100000
 H      17.10200000      11.76700000      22.75700000
 O      22.79800000      21.03800000      27.57900000
 H      23.06600000      21.40000000      28.47700000
 H      22.45700000      21.83000000      27.09200000
 O      20.41200000      11.33600000      28.71600000
 H      20.04100000      12.13300000      28.35500000
 H      21.11500000      11.68800000      29.26400000
