108
XYZ file of cluster: frame_19500_9c108.20235.c4716 - created by MolEdiTo
 O      28.82800000       8.91300000      26.11500000
 H      29.56000000       8.31900000      26.17800000
 H      29.09700000       9.40600000      25.30000000
 O      23.19200000       6.92900000      26.60900000
 H      22.66900000       6.13100000      26.64300000
 H      22.61700000       7.58500000      27.19400000
 O      25.37200000       9.90700000      30.00400000
 H      25.06300000      10.13500000      29.05800000
 H      25.54100000       8.93100000      30.03800000
 O      27.16500000      15.04000000      29.21100000
 H      27.45200000      14.29600000      28.60100000
 H      27.85800000      15.06900000      29.92700000
 O      22.57700000      14.38100000      26.52500000
 H      21.87300000      13.81200000      26.16000000
 H      23.29800000      13.72500000      26.73600000
 O      27.60300000       7.29800000      30.13800000
 H      28.17900000       8.08300000      30.00800000
 H      27.99200000       6.83800000      30.93300000
 O      30.33200000       6.63300000      30.49900000
 H      30.23800000       6.00500000      29.69500000
 H      29.83500000       7.41700000      30.18900000
 O      26.84500000      10.74200000      27.40700000
 H      26.01100000      10.73900000      26.99700000
 H      27.39000000      10.02300000      26.98500000
 O      29.03100000       9.34000000      29.27600000
 H      28.43500000      10.10500000      29.28700000
 H      29.63900000       9.59900000      28.46100000
 O      27.88100000      12.06300000      29.50700000
 H      27.43300000      11.61500000      30.29900000
 H      27.38000000      11.83600000      28.73500000
 O      29.87900000      14.04100000      28.65400000
 H      30.47900000      13.83400000      29.35200000
 H      29.28700000      13.25500000      28.54900000
 O      23.42000000      10.84900000      27.56500000
 H      22.94100000      11.10300000      26.77100000
 H      23.88600000      11.70000000      27.75900000
 O      21.88600000       8.51000000      28.79900000
 H      22.33300000       9.27300000      28.31800000
 H      21.68700000       9.12300000      29.51900000
 O      27.45400000       6.49600000      26.96400000
 H      27.78900000       7.11700000      27.59400000
 H      27.37300000       7.24100000      26.36200000
 O      20.60000000       8.53200000      25.66700000
 H      20.28500000       9.05000000      26.40800000
 H      21.15700000       9.20400000      25.23400000
 O      25.05100000       6.08500000      28.31500000
 H      24.33100000       6.56800000      27.78100000
 H      25.89500000       6.23100000      27.81100000
 O      21.66700000      15.31300000      30.33900000
 H      22.38100000      15.75500000      29.80200000
 H      21.97400000      14.36200000      30.47200000
 O      24.63500000      13.49300000      28.43500000
 H      25.08400000      13.62900000      27.65700000
 H      25.17900000      14.09900000      29.07700000
 O      30.41100000       5.17300000      28.23600000
 H      30.42400000       4.17000000      27.93400000
 H      30.22200000       5.68200000      27.44400000
 O      27.66300000      13.68100000      26.76300000
 H      27.63300000      12.79100000      26.27400000
 H      28.40900000      14.11000000      26.43100000
 O      27.09000000       6.18100000      36.42900000
 H      27.73200000       6.79500000      35.96900000
 H      26.24200000       6.65400000      36.27900000
 O      21.47900000       9.97500000      32.50000000
 H      20.77500000       9.22700000      32.63800000
 H      20.78700000      10.68200000      32.81000000
 O      29.34900000      12.35100000      33.94300000
 H      29.82600000      11.53500000      33.85200000
 H      30.01100000      13.16200000      33.90300000
 O      27.82800000      11.47000000      36.04400000
 H      28.34400000      11.71900000      35.23800000
 H      26.89600000      11.84400000      35.95000000
 O      24.43100000      12.62900000      36.15100000
 H      24.41400000      11.95300000      35.43000000
 H      23.88900000      13.33100000      35.76200000
 O      26.43800000      12.98900000      33.85100000
 H      25.89300000      13.75800000      33.59800000
 H      25.74600000      12.30000000      33.76800000
 O      22.28500000      12.66000000      32.18900000
 H      23.06200000      12.06300000      32.33700000
 H      21.63200000      12.46300000      32.89600000
 O      27.78200000       8.99200000      34.54800000
 H      27.47600000       9.77600000      35.06200000
 H      28.73500000       9.28000000      34.37800000
 O      28.59000000       4.97100000      33.65300000
 H      29.50400000       5.34100000      33.49500000
 H      28.60100000       4.65000000      34.54600000
 O      24.18600000      11.12100000      33.59800000
 H      24.71200000      10.56800000      33.04100000
 H      23.52100000      10.44400000      33.91200000
 O      24.07300000       7.15100000      36.63000000
 H      23.87900000       7.53000000      35.74700000
 H      23.49000000       7.63700000      37.30200000
 O      22.35100000       4.55300000      32.47500000
 H      22.69500000       4.28400000      33.33200000
 H      22.16100000       5.46000000      32.58100000
 O      28.28000000      14.99200000      36.03100000
 H      28.10400000      14.35700000      36.80000000
 H      28.32300000      14.30800000      35.27800000
 O      23.02900000       8.12600000      33.74100000
 H      23.79100000       7.83200000      33.20100000
 H      22.26700000       8.16000000      33.09300000
 O      30.75600000      10.01000000      34.25900000
 H      31.38600000      10.76000000      34.49500000
 H      31.28800000       9.24400000      34.33100000
 O      25.74000000       7.38100000      33.82300000
 H      25.87000000       6.38700000      33.90300000
 H      26.57400000       7.89600000      34.06700000
