111
XYZ file of cluster: frame_4500_c737c.4fe98.ceb0 - created by MolEdiTo
 O      29.32500000      17.21500000       8.32600000
 H      29.01700000      16.36700000       8.85700000
 H      29.99500000      17.02600000       7.67300000
 O      26.95500000      12.18200000       8.34400000
 H      27.80800000      11.70200000       8.35900000
 H      26.47800000      12.00900000       9.16100000
 O      26.55600000      12.80900000       2.38400000
 H      25.83500000      13.39200000       2.03900000
 H      26.13600000      12.38400000       3.16600000
 O      26.63500000      14.15000000       4.12300000
 H      26.94100000      14.86000000       4.75800000
 H      26.43400000      14.66400000       3.31200000
 O      27.08100000      16.42000000       6.17000000
 H      27.77900000      16.78700000       6.79700000
 H      26.82400000      17.10000000       5.48500000
 O      28.93200000      14.12500000       2.14100000
 H      28.01000000      13.79400000       2.15000000
 H      29.54000000      13.47600000       2.63600000
 O      28.77500000      17.17600000       2.08200000
 H      28.70400000      17.19800000       3.04100000
 H      29.16600000      16.26800000       1.97800000
 O      29.23200000      11.19600000       9.29900000
 H      29.93700000      11.69500000       9.71700000
 H      28.87800000      10.62800000       9.99500000
 O      30.17500000      20.35400000       2.88300000
 H      29.83400000      21.25300000       2.63500000
 H      30.78000000      20.13000000       2.10600000
 O      26.61700000      16.41900000      11.08400000
 H      26.09900000      15.55300000      11.31600000
 H      27.27100000      16.05900000      10.50300000
 O      28.83800000      11.94800000       4.07400000
 H      27.97000000      12.20500000       3.69800000
 H      29.01300000      12.39200000       4.92700000
 O      25.69200000      19.92200000       4.57600000
 H      26.48500000      20.43500000       4.53700000
 H      25.61900000      19.60900000       3.63400000
 O      28.56600000      14.72700000       9.53500000
 H      27.95000000      13.98200000       9.37600000
 H      29.25200000      14.36600000      10.17400000
 O      30.00100000      19.42800000      10.18100000
 H      29.22500000      19.76100000      10.71000000
 H      29.76100000      18.68200000       9.50400000
 O      26.48900000      19.10300000       2.30400000
 H      27.24900000      19.76900000       2.37500000
 H      26.79100000      18.23500000       2.15600000
 O      26.87100000      20.52600000       9.73700000
 H      27.14000000      21.35800000      10.15700000
 H      26.14900000      20.86000000       9.10900000
 O      28.99200000      13.14100000       5.52400000
 H      29.10500000      13.65400000       6.30900000
 H      28.05900000      13.26100000       5.29900000
 O      29.49500000      18.47000000       4.10700000
 H      30.09700000      18.40500000       3.32000000
 H      29.29800000      19.41700000       4.20200000
 O      30.34900000      21.51900000       7.03000000
 H      30.96700000      20.83200000       7.46200000
 H      29.46100000      21.18200000       7.26100000
 O      34.87800000      14.27400000      10.80200000
 H      35.57100000      14.19600000      10.09200000
 H      35.42900000      14.37400000      11.66100000
 O      33.72100000      13.88900000       2.49200000
 H      32.90700000      13.95200000       2.01400000
 H      34.35600000      14.27400000       1.82000000
 O      36.68300000      14.26900000       8.74500000
 H      37.48700000      13.89500000       8.32400000
 H      36.58300000      15.13600000       8.25600000
 O      34.19400000      13.01400000       5.35900000
 H      33.73300000      12.73000000       6.22400000
 H      34.63900000      12.16400000       5.18500000
 O      35.19500000      14.96800000       3.84100000
 H      34.43800000      15.06700000       3.16400000
 H      34.91200000      14.07100000       4.17100000
 O      35.73500000      17.75100000       2.63800000
 H      35.59900000      17.69000000       1.67800000
 H      36.71900000      17.54700000       2.76800000
 O      34.66400000      17.47300000       8.86900000
 H      34.74900000      17.18900000       9.84500000
 H      35.02400000      16.72700000       8.30200000
 O      35.53200000      15.77300000       6.61400000
 H      35.79100000      15.88700000       5.67600000
 H      34.59500000      15.40300000       6.52700000
 O      35.72100000      10.62100000       4.46200000
 H      36.62800000      10.34300000       4.38800000
 H      35.57300000      10.66400000       3.51900000
 O      32.40100000      10.66200000       5.57800000
 H      32.72600000      11.04300000       4.73800000
 H      31.57800000      11.11700000       5.77400000
 O      34.48800000      11.05000000       2.70300000
 H      34.21300000      11.98200000       2.71000000
 H      33.66700000      10.57000000       2.89000000
 O      32.99300000      12.22300000       7.89000000
 H      33.32900000      12.29000000       8.86800000
 H      32.08700000      11.76900000       7.87100000
 O      32.78500000      17.43600000       3.33300000
 H      32.32500000      17.43000000       2.47000000
 H      33.77500000      17.22200000       3.28600000
 O      33.69200000      21.14300000       4.11400000
 H      33.73300000      20.38700000       4.71500000
 H      33.23400000      20.76900000       3.35900000
 O      32.44400000      16.62700000       5.67200000
 H      31.72500000      17.04100000       5.21300000
 H      32.96400000      16.20500000       4.96600000
 O      34.05300000      19.08700000       5.98900000
 H      33.82000000      18.15800000       5.73900000
 H      34.14300000      19.12900000       6.96900000
 O      37.01500000      20.98700000       5.50300000
 H      37.22300000      20.42900000       6.28300000
 H      36.11100000      20.74100000       5.18000000
 O      34.11100000      20.00500000       9.60800000
 H      34.50100000      19.27700000       9.17100000
 H      33.21300000      19.67300000       9.70700000
