126
XYZ file of cluster: frame_4500_20516.239a3.99175 - created by MolEdiTo
 O      11.91500000       6.72100000      27.49500000
 H      11.36200000       7.45000000      27.39000000
 H      11.25300000       6.02600000      27.22900000
 O      15.82400000       7.72900000      29.42300000
 H      15.80200000       7.19900000      28.63400000
 H      15.44000000       7.08200000      30.05500000
 O       9.60600000      11.65700000      25.76700000
 H       8.77700000      11.11900000      25.67200000
 H       9.50700000      12.40100000      25.10500000
 O       8.41200000       8.61100000      24.20300000
 H       7.54500000       8.19900000      24.46300000
 H       8.71300000       7.76700000      23.73000000
 O       9.34500000       9.90400000      20.94300000
 H       9.37600000       9.12500000      21.53700000
 H       8.56200000       9.68400000      20.40400000
 O       9.93500000      16.12600000      29.86600000
 H      10.35200000      15.20700000      29.77400000
 H       9.51300000      16.22400000      28.97600000
 O      11.87800000      10.39500000      22.35200000
 H      11.29100000       9.62000000      22.43500000
 H      11.56500000      11.05600000      21.69100000
 O      13.69000000      16.06800000      27.23700000
 H      14.42800000      16.53700000      26.83800000
 H      13.22000000      15.62200000      26.48100000
 O       5.02300000      11.34400000      25.02900000
 H       4.15600000      11.02300000      25.21200000
 H       5.42400000      11.52100000      25.90100000
 O       8.69600000       5.66000000      28.98900000
 H       7.98900000       5.13500000      28.52700000
 H       8.51200000       5.30500000      29.96300000
 O      12.09100000       9.42600000      26.03500000
 H      11.15000000       9.77800000      26.08800000
 H      12.54900000       9.93200000      26.70600000
 O      15.44900000      15.06700000      26.12800000
 H      16.17400000      14.37800000      26.15300000
 H      15.27900000      15.26000000      27.13800000
 O      14.40400000      12.43400000      27.38000000
 H      14.22800000      12.15600000      26.43200000
 H      14.13600000      13.42500000      27.37500000
 O       6.88400000      10.93700000      23.04100000
 H       6.22700000      11.35400000      23.62400000
 H       6.99300000      10.02900000      23.39200000
 O      14.10700000       5.62400000      28.87000000
 H      14.46000000       6.48200000      29.28000000
 H      13.36300000       6.12200000      28.27300000
 O      11.03900000      13.10400000      23.47300000
 H      11.58800000      13.37700000      22.76000000
 H      11.17900000      12.14100000      23.60200000
 O       4.99700000       9.32000000      21.62100000
 H       4.47700000      10.16100000      21.43100000
 H       5.76500000       9.65100000      21.99100000
 O      15.04100000       7.13700000      21.26100000
 H      15.17300000       7.10100000      22.21800000
 H      15.85000000       7.53400000      20.76500000
 O      11.93900000       6.92500000      24.27300000
 H      12.62400000       7.46500000      24.68900000
 H      11.16600000       6.76800000      24.85100000
 O      15.98200000       9.54500000      27.29400000
 H      15.33600000      10.24100000      27.08900000
 H      16.71500000       9.81400000      26.75600000
 O      13.68500000      11.37900000      24.72000000
 H      14.06400000      11.15100000      23.84500000
 H      13.05200000      10.67500000      24.98800000
 O       8.89800000      12.83700000      28.55700000
 H       8.83600000      11.85200000      28.64300000
 H       9.25200000      13.01500000      27.64500000
 O      12.02800000       5.74100000      21.64600000
 H      11.54100000       6.31200000      22.31800000
 H      12.72100000       6.29900000      21.22000000
 O       9.43000000      10.89000000      30.39000000
 H       9.83500000       9.94900000      30.34200000
 H       8.40300000      10.83500000      30.30300000
 O      10.97900000      15.48300000      25.98700000
 H      11.15100000      14.71000000      25.37200000
 H      11.31200000      16.28200000      25.50900000
 O      15.47000000      14.50500000      20.53600000
 H      16.10500000      14.93000000      19.88600000
 H      15.97300000      14.45300000      21.32500000
 O       8.22900000      13.78100000      24.17000000
 H       8.09900000      13.80300000      23.20800000
 H       8.69200000      14.63100000      24.16000000
 O       9.31200000       6.75700000      22.11900000
 H       8.46500000       6.25400000      22.27700000
 H       9.62000000       6.58800000      21.21700000
 O      13.22900000      15.96200000      24.37800000
 H      13.72400000      15.22900000      24.01800000
 H      13.79100000      16.77000000      24.46400000
 O       6.38100000      14.78400000      27.94300000
 H       6.94800000      15.47800000      27.97200000
 H       5.52200000      15.27000000      27.71700000
 O       6.23700000      10.57600000      30.39000000
 H       6.19300000       9.71800000      29.84000000
 H       6.51600000      10.25600000      31.24600000
 O      14.52000000       9.43800000      30.38200000
 H      15.13700000       9.36900000      29.62900000
 H      15.05400000       9.10000000      31.14000000
 O      10.15100000       8.20800000      30.43100000
 H      10.59200000       7.66500000      29.75700000
 H       9.33600000       7.64900000      30.58400000
 O       6.23400000      11.79800000      27.72500000
 H       6.28600000      11.39000000      28.61000000
 H       6.38600000      12.80600000      27.81400000
 O      11.08400000      13.56800000      30.25800000
 H      10.53600000      13.09400000      29.58700000
 H      10.97700000      13.10900000      31.02000000
 O       5.66700000      14.27100000      23.16900000
 H       6.34200000      13.79300000      23.69300000
 H       4.79300000      13.82000000      23.33400000
 O       6.97600000      13.50600000      30.41600000
 H       7.53200000      14.27100000      30.76900000
 H       7.10900000      13.54700000      29.44300000
 O       5.56300000       8.31100000      24.34100000
 H       4.96600000       7.63300000      24.72200000
 H       4.98200000       9.12200000      24.32300000
 O      11.21100000      16.57300000      22.08500000
 H      11.01000000      15.73900000      21.60600000
 H      11.65600000      16.32200000      22.91200000
 O      14.40600000      11.11700000      21.99600000
 H      14.60600000      11.30000000      21.08100000
 H      13.42800000      11.00700000      22.11700000
 O      14.96000000      13.87700000      24.11100000
 H      15.85200000      13.94200000      24.48200000
 H      14.63600000      12.95000000      24.20500000
 O       6.83800000       5.34500000      23.41100000
 H       5.86000000       5.20800000      23.29600000
 H       7.15500000       4.60800000      23.97800000
