157
XYZ file of cluster: frame_4500_65c45.22c4a.24877 - created by MolEdiTo
 O      17.78100000      13.95400000       8.93200000
 H      18.13800000      14.17400000       9.84300000
 H      18.03600000      12.98500000       8.98700000
 O      22.85000000      11.77200000      11.53900000
 H      22.91600000      12.58100000      10.98900000
 H      21.98600000      11.47100000      11.37100000
 O      16.17200000       8.59200000       5.25100000
 H      15.95400000       8.53700000       6.20400000
 H      15.68600000       7.90900000       4.74500000
 O      16.12400000      15.10200000      12.19700000
 H      15.69300000      15.12200000      13.07600000
 H      15.38800000      14.88900000      11.52100000
 O      18.85300000      13.97500000       5.69300000
 H      17.94400000      13.67200000       5.45600000
 H      18.73500000      14.48100000       6.51400000
 O      17.07300000      13.36400000      11.82100000
 H      16.33100000      12.79900000      11.69700000
 H      16.61800000      14.05900000      12.37200000
 O      15.75200000       8.16100000      13.07200000
 H      15.38000000       7.79100000      13.92800000
 H      16.40100000       8.78700000      13.36700000
 O      18.04500000       6.39500000      14.09800000
 H      18.76400000       7.03500000      14.16400000
 H      17.27200000       6.72400000      14.53500000
 O      21.24300000       5.13900000      14.96000000
 H      21.33200000       4.56900000      14.13400000
 H      21.83700000       5.86300000      14.72000000
 O      24.48300000      14.86900000      11.96000000
 H      24.14900000      15.78800000      12.22700000
 H      24.40700000      14.36700000      12.82500000
 O      18.38800000      15.07500000      15.92900000
 H      18.94100000      15.91900000      16.08900000
 H      18.22000000      15.26200000      14.96300000
 O      16.40400000      14.81000000       9.28600000
 H      16.15200000      14.69400000       8.34900000
 H      17.13100000      14.23200000       9.59000000
 O      22.68200000       6.64300000      11.45600000
 H      21.77700000       7.01900000      11.42400000
 H      23.24100000       7.43400000      11.27000000
 O      26.03800000       6.01700000       7.07100000
 H      25.55400000       6.68600000       6.59600000
 H      26.92100000       6.45600000       7.39700000
 O      17.32200000      10.96700000       7.13400000
 H      17.88800000      11.42200000       7.85900000
 H      18.07100000      10.86800000       6.49600000
 O      23.39400000       8.84000000       8.23600000
 H      23.48600000       9.82500000       8.00200000
 H      24.40200000       8.61000000       8.36600000
 O      20.43700000      16.08700000       8.90900000
 H      19.59400000      16.53700000       8.76700000
 H      20.22600000      15.43700000       9.61600000
 O      22.57800000      10.87500000       4.98700000
 H      22.04600000      10.50600000       5.70400000
 H      22.41700000      11.81000000       5.00500000
 O      16.00500000      12.22100000      10.36000000
 H      15.61100000      11.36000000      10.33100000
 H      15.24800000      12.74200000      10.09400000
 O      16.20500000       7.45000000      15.58700000
 H      15.84100000       6.59300000      15.46300000
 H      15.61900000       7.91900000      16.23100000
 O      22.83300000      14.01200000       9.37900000
 H      23.51100000      14.51500000       9.86000000
 H      22.38300000      14.62000000       8.75600000
 O      18.84200000      12.21300000      15.43300000
 H      19.75100000      12.12600000      14.88600000
 H      18.82300000      13.14500000      15.83500000
 O      25.52600000       7.79400000       9.19700000
 H      26.39900000       7.50100000       9.47800000
 H      24.94900000       7.16700000       9.64000000
 O      22.43900000      13.97900000       5.86700000
 H      21.55800000      14.08800000       6.22700000
 H      22.34400000      14.16400000       4.94500000
 O      21.03700000       9.13700000       6.61300000
 H      21.44100000       8.48600000       5.92600000
 H      21.55800000       8.97300000       7.44200000
 O      15.95700000       4.50300000       5.72400000
 H      15.78300000       5.32800000       6.22100000
 H      16.11800000       4.79700000       4.80800000
 O      19.27700000      14.99600000      11.26700000
 H      19.89400000      15.34300000      11.88400000
 H      18.36600000      15.31800000      11.44700000
 O      15.62800000       8.67600000       8.12200000
 H      14.89900000       9.19100000       8.47100000
 H      16.39000000       9.23700000       8.33100000
 O      19.30600000       4.93300000      11.55200000
 H      19.08000000       5.78300000      12.02000000
 H      20.04600000       4.50000000      11.98400000
 O      20.25500000       8.31600000      13.30400000
 H      19.79900000       8.71000000      12.54700000
 H      20.60800000       9.14500000      13.66300000
 O      18.66500000       6.58700000       5.57900000
 H      18.21400000       6.77600000       6.42900000
 H      19.61000000       6.83000000       5.73700000
 O      26.61700000      16.41900000      11.08400000
 H      26.09900000      15.55300000      11.31600000
 H      27.27100000      16.05900000      10.50300000
 O      24.92000000      14.66200000       7.25800000
 H      25.77400000      15.06500000       6.88000000
 H      24.44600000      14.24800000       6.50700000
 C      16.01200000      14.31300000      16.65400000
 C      14.85600000      15.12600000      15.97800000
 C      16.36000000      17.21400000      15.54800000
 H      15.24500000      16.75900000      17.21100000
 H      16.02200000      13.63900000      14.92500000
 O      13.86900000      17.38100000      15.86500000
 O      16.28400000      14.23100000      17.82600000
 O      16.56500000      13.44200000      15.74800000
 C      15.10500000      16.66000000      16.13900000
 O      14.73500000      14.68900000      14.58900000
 H      13.92800000      14.86000000      16.54700000
 O      17.13300000      16.57400000      14.85300000
 O      16.49500000      18.47900000      15.88800000
 H      15.67900000      18.59800000      16.32700000
 H      13.89500000      14.27700000      14.37600000
 H      13.08700000      16.75700000      15.83600000
 O      18.09900000      10.04200000      11.50900000
 H      17.21800000       9.80500000      11.15400000
 H      17.97200000       9.94400000      12.52800000
 O      19.13200000      11.59700000       9.24200000
 H      19.06100000      11.24200000      10.18600000
 H      19.88200000      11.09400000       8.82800000
 O      17.56700000       9.51500000      14.86400000
 H      18.04400000      10.43100000      14.89200000
 H      16.76400000       9.46200000      15.39800000
 O      20.90400000       9.60300000      10.33600000
 H      20.35400000       8.83700000      10.27800000
 H      21.51800000       9.77400000       9.58300000
 O      22.57000000       5.88200000       7.47400000
 H      22.53300000       6.49000000       8.18100000
 H      22.99000000       6.37600000       6.73300000
 O      25.48300000      10.84800000      11.85700000
 H      24.51900000      11.04800000      11.72800000
 H      25.47600000      10.30600000      12.71600000
 O      26.66400000      14.16200000      14.92900000
 H      27.37700000      13.66100000      15.33800000
 H      25.88400000      13.61400000      14.78300000
 O      23.76600000       6.65500000      14.91700000
 H      24.29000000       5.97000000      15.47000000
 H      23.30600000       7.22600000      15.62800000
 O      24.30700000      12.96500000      14.03000000
 H      24.04900000      12.23100000      13.40300000
 H      23.65700000      12.69500000      14.78300000
 O      17.75600000       6.66800000       8.56200000
 H      16.92800000       7.17500000       8.37800000
 H      17.41000000       5.78200000       8.85100000
 O      15.46200000      12.21700000       6.74500000
 H      16.17200000      11.68500000       7.23500000
 H      15.83000000      12.24700000       5.89800000
 O      20.24100000       6.96000000       9.70100000
 H      19.32300000       7.01000000       9.28200000
 H      20.08200000       6.04800000      10.21500000
 O      25.00000000       9.12500000      13.85200000
 H      25.87500000       9.07700000      14.37000000
 H      24.50900000       8.48000000      14.34200000
 O      23.50000000      11.77700000       8.04800000
 H      23.02300000      12.37600000       8.61600000
 H      24.30800000      12.30600000       8.09600000
