96
XYZ file of cluster: frame_7500_c9700.76070.c742e - created by MolEdiTo
 O      26.71300000      24.73500000      30.71700000
 H      26.06800000      24.13100000      30.25600000
 H      26.47500000      24.58600000      31.69300000
 O      25.96800000      22.71100000      27.48700000
 H      26.97000000      22.83100000      27.47700000
 H      26.02100000      21.98100000      26.83200000
 O      28.88700000      23.95600000      28.67600000
 H      29.07100000      24.33100000      29.50400000
 H      28.77200000      24.74400000      28.12000000
 O      26.70400000      17.27000000      29.01800000
 H      27.52800000      17.58600000      28.52600000
 H      26.89000000      16.42800000      29.43600000
 O      28.45800000      19.12600000      27.49700000
 H      27.65400000      19.70300000      27.71300000
 H      28.88100000      19.64900000      26.83800000
 O      28.54800000      21.28200000      29.71600000
 H      28.38000000      22.08300000      29.22800000
 H      27.81200000      20.69400000      29.58400000
 O      30.13600000      24.89300000      36.01400000
 H      30.78900000      25.27000000      35.39100000
 H      30.62400000      24.68300000      36.85300000
 O      30.72400000      21.67300000      36.29000000
 H      30.01400000      22.01400000      36.92400000
 H      30.33800000      21.75100000      35.37800000
 O      26.86400000      22.27700000      36.91700000
 H      27.17300000      22.49500000      37.77900000
 H      27.66300000      21.89100000      36.49500000
 O      29.56800000      24.95700000      33.21600000
 H      29.57400000      24.12000000      32.83000000
 H      29.67500000      24.90000000      34.17500000
 O      29.14300000      22.20000000      33.84300000
 H      29.00300000      21.76000000      32.92500000
 H      28.26800000      22.56600000      33.85300000
 O      28.14000000      19.40600000      34.61300000
 H      27.42400000      19.72600000      33.98600000
 H      28.68900000      20.17800000      34.66400000
 O      29.19200000      16.96100000      33.09200000
 H      29.54700000      17.78000000      32.70900000
 H      28.74600000      17.22800000      33.95500000
 O      28.22800000      19.33700000      37.28000000
 H      28.10200000      18.91200000      36.36400000
 H      29.12700000      19.10300000      37.48600000
 O      35.19500000      24.84100000      26.66500000
 H      35.27700000      24.96900000      27.63500000
 H      34.18700000      24.54200000      26.57500000
 O      35.25500000      16.92100000      30.35700000
 H      35.70600000      17.74500000      30.70900000
 H      34.60600000      16.48600000      31.05700000
 O      35.53900000      19.12300000      27.90800000
 H      35.98900000      18.58400000      28.57000000
 H      36.15700000      19.91800000      27.66700000
 O      33.33900000      21.77300000      28.93500000
 H      33.09300000      21.91400000      27.91900000
 H      32.42300000      21.60200000      29.26600000
 O      32.66800000      23.87500000      26.63300000
 H      31.72400000      24.05200000      26.97100000
 H      32.56200000      23.30600000      25.86700000
 O      34.54800000      15.36500000      27.93900000
 H      33.59000000      15.63300000      27.79400000
 H      35.07600000      16.17500000      28.16400000
 O      36.86800000      25.34000000      30.78200000
 H      36.02200000      24.91900000      30.38000000
 H      37.49100000      25.29000000      30.06800000
 O      34.53600000      24.40400000      29.85100000
 H      34.05300000      23.50000000      29.74900000
 H      33.75600000      24.94700000      29.64800000
 O      32.33600000      18.37500000      29.29800000
 H      33.13200000      18.90100000      28.94700000
 H      31.79900000      18.10600000      28.44600000
 O      35.65100000      21.82000000      26.75400000
 H      34.78000000      21.90900000      27.19600000
 H      35.85400000      22.70800000      26.64400000
 O      34.82000000      19.00700000      36.39800000
 H      35.06700000      19.94700000      36.32900000
 H      34.30800000      18.77400000      35.59100000
 O      36.32200000      26.39400000      37.26500000
 H      36.25600000      25.78100000      36.43400000
 H      35.70500000      26.00500000      37.94500000
 O      35.21700000      21.79900000      32.94700000
 H      34.76900000      21.31900000      32.22600000
 H      35.97700000      22.12700000      32.34600000
 O      32.56200000      19.11800000      33.62200000
 H      32.02700000      19.86900000      33.39100000
 H      32.80500000      18.83700000      32.72100000
 O      35.53300000      21.69700000      36.25100000
 H      36.24200000      22.15100000      36.77400000
 H      35.06600000      22.44800000      35.93400000
 O      33.23900000      15.96100000      33.44300000
 H      32.61400000      16.58900000      33.12300000
 H      32.66900000      15.19500000      33.47100000
 O      36.99600000      17.37100000      37.11900000
 H      36.39500000      18.14500000      37.12600000
 H      36.64200000      16.77100000      36.48400000
 O      34.97500000      24.19100000      34.87700000
 H      34.70300000      23.42700000      34.36700000
 H      34.59800000      24.93800000      34.28000000
