120
XYZ file of cluster: frame_7500_74e47.9bc11.c0464 - created by MolEdiTo
 O      24.40500000      26.89700000      30.46200000
 H      23.78300000      26.18100000      30.44400000
 H      24.54400000      27.10300000      31.42600000
 O      18.75300000      23.87800000      29.65100000
 H      19.42800000      24.65400000      29.37300000
 H      18.08300000      23.92300000      28.98900000
 O      20.42000000      22.03200000      27.20000000
 H      20.73100000      22.70500000      26.45300000
 H      19.93100000      22.76600000      27.66700000
 O      27.04800000      28.13800000      28.92300000
 H      26.89700000      27.36600000      29.58400000
 H      26.13400000      28.52900000      29.00800000
 O      24.73900000      23.08200000      29.80800000
 H      25.35500000      22.79700000      29.13600000
 H      23.99600000      22.48400000      29.59400000
 O      15.76700000      23.74400000      28.13700000
 H      15.06900000      23.18400000      27.70800000
 H      15.50000000      24.64400000      27.82400000
 O      24.79800000      30.06600000      29.20000000
 H      23.76900000      29.96700000      29.41100000
 H      25.05500000      30.39500000      30.07100000
 O      17.97400000      24.74800000      26.63500000
 H      17.40900000      25.50700000      26.49800000
 H      17.38400000      24.27500000      27.25800000
 O      16.21100000      21.01700000      29.14900000
 H      16.19400000      21.96900000      28.80300000
 H      15.98000000      20.67700000      28.30600000
 O      19.63800000      30.02900000      29.05800000
 H      20.61400000      30.22000000      29.02400000
 H      19.24500000      30.86000000      29.25800000
 O      19.84600000      27.31000000      30.56600000
 H      19.60200000      27.93200000      29.86600000
 H      18.94900000      26.83600000      30.73100000
 O      17.03200000      28.36500000      28.66500000
 H      16.90600000      29.32700000      28.92900000
 H      17.42900000      28.04300000      29.50500000
 O      25.41100000      30.30900000      26.31600000
 H      24.63800000      30.80700000      26.18700000
 H      25.61300000      30.50800000      27.23200000
 O      23.23200000      24.11800000      27.05300000
 H      24.07400000      23.67100000      27.24800000
 H      22.99400000      23.77100000      26.14000000
 O      19.20200000      27.38600000      27.28600000
 H      18.86500000      27.37000000      26.34800000
 H      18.44300000      27.90300000      27.78400000
 O      22.49200000      29.34600000      30.41000000
 H      21.61200000      29.06800000      30.71700000
 H      23.04200000      28.51800000      30.04200000
 O      21.17300000      24.84100000      28.46800000
 H      21.96200000      24.53300000      27.93600000
 H      20.72900000      25.41400000      27.82400000
 O      26.71300000      24.73500000      30.71700000
 H      26.06800000      24.13100000      30.25600000
 H      26.47500000      24.58600000      31.69300000
 O      25.96800000      22.71100000      27.48700000
 H      26.97000000      22.83100000      27.47700000
 H      26.02100000      21.98100000      26.83200000
 O      22.75700000      20.92100000      28.71900000
 H      22.05400000      21.50300000      28.33800000
 H      22.51700000      20.05200000      28.39700000
 O      25.17600000      26.06800000      27.25100000
 H      24.23700000      25.83400000      27.44200000
 H      25.61800000      25.90500000      28.10500000
 O      20.12300000      29.76400000      25.73800000
 H      19.96900000      29.09900000      26.49500000
 H      20.44700000      29.27600000      24.96000000
 O      20.81800000      27.05300000      36.71300000
 H      20.79200000      26.01200000      36.72700000
 H      19.85900000      27.30200000      36.83600000
 O      18.02800000      21.28500000      34.21300000
 H      18.12700000      22.16200000      33.80400000
 H      17.25500000      21.32000000      34.82300000
 O      22.52200000      30.09300000      35.08000000
 H      23.00700000      29.77400000      35.83400000
 H      22.86100000      29.72700000      34.27300000
 O      16.01700000      29.60100000      32.63600000
 H      15.18700000      29.94100000      32.99800000
 H      16.80300000      30.00200000      33.18100000
 O      19.52900000      28.79800000      34.67100000
 H      20.22200000      28.56200000      35.37400000
 H      19.55800000      28.06700000      33.99900000
 O      17.02800000      26.10800000      32.67500000
 H      17.41200000      25.66600000      33.47000000
 H      16.57500000      25.37200000      32.25800000
 O      23.44600000      21.72400000      34.46400000
 H      23.05100000      21.07800000      33.83400000
 H      22.64500000      22.25000000      34.73000000
 O      26.33800000      29.32800000      35.98500000
 H      25.75000000      29.25300000      35.23900000
 H      26.73700000      30.23700000      35.80300000
 O      19.08500000      24.89400000      34.47400000
 H      19.71900000      24.12800000      34.21000000
 H      18.45900000      24.36700000      35.01400000
 O      20.55600000      22.79000000      33.40700000
 H      21.27500000      23.42600000      33.05300000
 H      20.29400000      22.12200000      32.70500000
 O      26.13300000      21.81800000      33.78100000
 H      25.70200000      22.15800000      32.95000000
 H      25.30200000      21.67100000      34.25800000
 O      24.73800000      24.16900000      36.13500000
 H      23.85000000      23.81300000      36.18200000
 H      25.39000000      23.45100000      35.91800000
 O      25.21200000      26.71100000      35.16500000
 H      24.80100000      26.09700000      35.70800000
 H      25.41500000      27.39900000      35.83200000
 O      22.20000000      25.23700000      32.64000000
 H      21.52700000      25.79600000      33.13300000
 H      21.91800000      25.34000000      31.69300000
 O      20.69000000      21.60500000      36.31900000
 H      21.38100000      20.94800000      36.75100000
 H      20.21400000      21.08000000      35.61800000
 O      17.24700000      30.44100000      35.48300000
 H      17.97400000      29.77200000      35.40100000
 H      17.45500000      30.98100000      36.30300000
 O      17.54200000      23.98700000      36.58100000
 H      16.94200000      24.55100000      36.17500000
 H      17.00100000      23.28500000      36.97900000
 O      18.03300000      27.21200000      37.28300000
 H      17.24300000      26.79100000      36.89100000
 H      18.33700000      26.49900000      37.90300000
