%chk=cluster_120.chk
%mem=8GB
%nproc=8
#b3lyp/6-31G** scrf=(cpcm,Solvent=Water) nosymm force
iop(2/11=1)
 Geom=(NoDistance,NoAngle)
guess=checkpoint

cluster_120

0 1
 O       6.53252391    13.53435173     6.51238699
 H       6.04721838    13.43626981     5.66693831
 H       6.67070351    12.62932366     6.82447782
 O       6.61261887     8.01264689     5.52580802
 H       6.08125043     7.59362512     4.83514102
 H       7.37240769     8.41033180     5.05410350
 O       8.77771792     9.58136947     4.40972859
 H       9.17917765     9.01708582     3.72305566
 H       9.04767099    10.50487183     4.26766811
 O       5.69472179    10.71979630     5.70017754
 H       5.70529454    11.29183481     4.91965172
 H       5.90399751     9.81006817     5.39684543
 O       7.82442688    10.59110084     7.39945168
 H       8.49721862    10.35702251     6.74055642
 H       7.00435733    10.57518626     6.87055512
 O       3.97846114     9.73503966     7.69834009
 H       4.40988302    10.19969648     6.95790241
 H       3.47286790     9.04097550     7.26552017
 O       6.02327872     9.68048200     2.32086968
 H       5.17546989     9.26312052     2.04315774
 H       6.71208649     9.01135992     2.20183547
 O       6.99288067    12.14999376     2.42746132
 H       6.64053978    11.22525755     2.33630698
 H       7.89429792    12.08595544     2.78491195
 O       5.37984298    13.26587441     4.05807286
 H       6.06361956    12.96986492     3.38318771
 H       5.07126985    14.14070838     3.78960720
 O       9.20743652    12.74710283     4.68628854
 H       9.99926483    12.84650719     5.23296096
 H       8.47452958    13.03092963     5.26295802
 O       3.06895409    11.87480714     2.52471621
 H       3.44692752    11.94701219     1.64195996
 H       3.77981461    12.22131825     3.09788523
 O       3.69431607     8.42908347     1.70004999
 H       3.42481927     8.60173260     0.78887910
 H       3.85368996     7.47604134     1.72151089
 O       9.25146883     7.22923342     2.84294616
 H       8.65157077     6.58588691     3.24129827
 H       9.04905396     7.18187752     1.89845436

