33
XYZ file of cluster: frame_3500_9820f.c9b30.c515a - created by MolEdiTo
 O      20.51400000      18.49300000      17.94400000
 H      19.89200000      18.51800000      17.23900000
 H      21.25700000      17.93800000      17.60600000
 O      18.49000000      19.43600000      20.24300000
 H      19.30200000      19.00100000      19.99800000
 H      17.78000000      19.03200000      19.72700000
 O      15.40400000      17.77400000      22.35600000
 H      15.40900000      18.21600000      21.51500000
 H      14.61000000      18.17400000      22.68500000
 O      17.94100000      18.01000000      24.36000000
 H      18.83200000      18.53100000      24.34100000
 H      17.41200000      18.52900000      23.81200000
 O      14.72200000      25.31400000      19.01700000
 H      14.95400000      24.34300000      19.14500000
 H      14.57700000      25.78800000      19.89200000
 O      16.32200000      22.78100000      19.05300000
 H      17.27000000      22.81500000      19.33200000
 H      16.30600000      22.22100000      18.23500000
 O      13.67300000      22.60100000      19.83100000
 H      14.65700000      22.64700000      19.81500000
 H      13.37400000      22.73300000      18.94500000
 O      18.77100000      23.77500000      20.44500000
 H      19.76100000      23.79000000      20.61500000
 H      18.74700000      22.85700000      20.10300000
 O      20.88600000      22.67100000      25.14100000
 H      20.99600000      21.75800000      24.75100000
 H      20.30000000      23.09400000      24.47100000
 O      17.61900000      22.58600000      24.91500000
 H      17.28200000      22.70800000      25.84200000
 H      17.58900000      23.53300000      24.63300000
 O      15.11800000      23.99400000      23.25000000
 H      16.04200000      24.10700000      22.93600000
 H      15.20200000      23.90200000      24.27200000
