36
XYZ file of cluster: frame_3500_c58f7.1d3e6.3f1b - created by MolEdiTo
 O      19.37900000       7.52800000       6.52300000
 H      19.04000000       8.10100000       5.81000000
 H      18.55600000       7.27300000       7.02200000
 O      20.69100000       5.30500000       1.01000000
 H      20.00800000       5.03400000       0.34500000
 H      21.07200000       6.10500000       0.71200000
 O      18.04700000       3.81200000       3.39800000
 H      18.49300000       4.58200000       2.94600000
 H      18.32100000       3.92900000       4.36500000
 O      18.59600000       6.58900000       2.85700000
 H      19.31800000       7.05800000       2.36000000
 H      18.29100000       7.23700000       3.50100000
 O      19.21100000       4.64100000       6.28500000
 H      20.06500000       4.42100000       5.84100000
 H      19.56900000       4.97100000       7.16800000
 O      18.13300000       8.93300000       4.62900000
 H      18.80100000       9.60600000       4.90600000
 H      17.36800000       9.03100000       5.30300000
 O      23.04600000       8.98900000       2.93200000
 H      22.66000000       9.71900000       2.32700000
 H      22.99400000       9.44700000       3.82500000
 O      24.21400000       9.15200000       5.89500000
 H      24.19600000      10.06700000       6.22300000
 H      23.60900000       8.53300000       6.44600000
 O      22.92200000       6.00300000       4.13000000
 H      22.62400000       5.64600000       3.33700000
 H      22.44800000       6.88900000       4.20200000
 O      23.72700000       6.92200000       7.72600000
 H      23.15200000       6.25200000       8.21400000
 H      24.20200000       6.44000000       7.03900000
 O      24.74400000       7.01200000       1.91700000
 H      24.39600000       7.93100000       2.06100000
 H      24.26700000       6.48900000       2.56100000
 O      22.82600000       2.67500000       1.10300000
 H      22.63600000       3.60900000       1.23000000
 H      23.73500000       2.57700000       1.10400000
