27
XYZ file of cluster: frame_3500_97ca.9dab4.3135 - created by MolEdiTo
 O       5.95400000      19.20800000       2.45000000
 H       5.81200000      19.13900000       3.43400000
 H       6.89900000      18.97400000       2.31000000
 O       1.17700000      18.52000000       2.51200000
 H       0.83400000      17.62900000       2.78500000
 H       2.09300000      18.38300000       2.12500000
 O       4.23000000      16.32200000       3.36600000
 H       4.53300000      15.56600000       2.69300000
 H       3.65800000      16.82500000       2.76800000
 O       7.40700000      16.76700000       4.48200000
 H       7.48300000      17.20700000       3.64800000
 H       6.45800000      16.95900000       4.77200000
 O       4.12800000      15.53600000       6.07900000
 H       4.25700000      15.64800000       5.14800000
 H       3.69800000      16.38800000       6.27500000
 O       2.17100000      18.30500000       6.60500000
 H       1.51100000      17.74600000       6.14500000
 H       1.74000000      19.19300000       6.54400000
 O       5.20900000      19.12700000       5.12000000
 H       4.87100000      20.06000000       5.00300000
 H       4.53100000      18.50800000       5.40500000
 O       3.66000000      18.31300000       1.24200000
 H       4.46900000      18.85400000       1.44800000
 H       3.78000000      18.21000000       0.26900000
 O       2.43600000      13.89400000       3.87600000
 H       2.34100000      14.84500000       3.56700000
 H       2.80300000      13.90900000       4.76000000
