61
XYZ file of cluster: frame_3500_4975a.5bd3f.295ce - created by MolEdiTo
 O      10.66700000      17.75500000       9.02200000
 H      10.48200000      16.93100000       9.53600000
 H      11.10000000      17.36100000       8.20800000
 O       7.40700000      16.76700000       4.48200000
 H       7.48300000      17.20700000       3.64800000
 H       6.45800000      16.95900000       4.77200000
 O      14.11500000      11.92900000       5.72400000
 H      13.48800000      12.54000000       5.23100000
 H      15.00400000      11.95600000       5.30300000
 O       7.37400000      18.51600000       7.08800000
 H       7.68100000      17.92500000       6.37500000
 H       7.39200000      19.41800000       6.65500000
 O      10.80100000      15.07200000      10.45800000
 H      10.21000000      14.55100000      11.07500000
 H      11.70400000      14.86200000      10.70000000
 O       6.86500000      12.11100000       9.99500000
 H       6.50600000      11.19700000      10.24700000
 H       7.62700000      12.26800000      10.62200000
 O      12.31000000      15.06800000       4.56700000
 H      12.18000000      15.78700000       3.88200000
 H      11.89400000      14.24800000       4.24600000
 O       8.07800000      10.20700000       8.23000000
 H       7.41000000      10.78400000       8.67500000
 H       8.41800000       9.67200000       9.03500000
 C      11.28500000       9.13300000      11.66200000
 C      10.28900000      10.32500000      11.35000000
 C      12.25400000      11.71800000      10.36200000
 H      10.95200000      10.36500000       9.41300000
 H      10.43900000       8.09200000      10.15600000
 O       9.77800000      12.13400000       9.67900000
 O      10.83900000       8.43400000      12.87300000
 O      11.34100000       8.17900000      10.54500000
 C      10.83400000      11.14600000      10.19800000
 O       8.99500000       9.75900000      11.00000000
 H      10.23100000      10.90100000      12.32200000
 O      12.22200000      12.67200000      11.41500000
 O      12.47100000      12.44200000       9.18400000
 H      11.66500000      12.99800000       9.11600000
 H       8.35600000      10.01300000      11.70200000
 H       9.36700000      11.58400000       9.01600000
 O       8.76700000      13.48400000       7.14200000
 H       8.25300000      13.58700000       7.95200000
 H       9.48600000      14.16300000       7.24700000
 O      14.19000000      17.64000000       4.68200000
 H      13.49100000      17.94900000       3.97400000
 H      13.98700000      16.69000000       4.82200000
 O       8.29000000      11.64300000       4.91700000
 H       8.36100000      11.64400000       5.93900000
 H       8.27700000      10.70600000       4.69700000
 O       8.02400000      14.21000000       3.61800000
 H       7.95300000      14.88600000       4.33600000
 H       7.92300000      13.35400000       4.12400000
 O      14.45700000      14.38300000       7.51200000
 H      14.17600000      13.49900000       7.19600000
 H      15.33900000      14.52700000       7.02200000
 O      11.32100000      12.42200000       4.58400000
 H      11.20400000      11.85200000       3.82800000
 H      10.82400000      12.12100000       5.39700000
 O      11.91400000      15.77000000       7.22200000
 H      11.89800000      15.49700000       6.25700000
 H      12.86600000      15.71500000       7.46200000
