39
XYZ file of cluster: frame_3500_74d50.21d6f.0 - created by MolEdiTo
 O      11.01500000       7.53200000       4.03900000
 H      11.49000000       6.73900000       3.69200000
 H      11.30400000       8.27400000       3.51200000
 O      16.86700000       9.19400000       7.01500000
 H      16.16700000       8.85200000       7.61100000
 H      17.43400000       9.76300000       7.54000000
 O      14.90700000       9.17200000       3.21300000
 H      15.26900000       8.26100000       3.26900000
 H      14.28100000       9.14100000       3.95500000
 O      15.56300000       5.66000000       0.92800000
 H      15.40300000       5.95800000       0.00000000
 H      16.51800000       5.83200000       0.87200000
 O      13.63100000       3.82800000       5.25900000
 H      13.02800000       4.57700000       5.18100000
 H      14.53800000       4.18900000       5.06800000
 O      15.35000000       6.33100000       3.64100000
 H      16.20900000       5.90800000       3.94200000
 H      15.54300000       6.30900000       2.62400000
 O      16.45000000       3.96100000       6.22900000
 H      16.59000000       2.98200000       6.39900000
 H      17.39500000       4.32300000       6.21600000
 O      13.12500000       9.55700000       5.41300000
 H      13.44300000      10.50500000       5.41400000
 H      12.21700000       9.77900000       5.38300000
 O      11.16200000       8.75100000       7.73800000
 H      10.68500000       7.92400000       7.82900000
 H      10.97000000       9.14800000       6.89200000
 O      11.90500000       5.69400000       2.46900000
 H      12.29300000       6.40400000       1.81400000
 H      12.31900000       4.81700000       2.17700000
 O      14.34500000       6.48500000       6.29800000
 H      14.96100000       5.82200000       6.71100000
 H      14.59400000       6.26300000       5.38900000
 O      11.08400000      10.16700000       2.85200000
 H      11.68700000      10.36000000       2.13600000
 H      10.27100000      10.05400000       2.36300000
 O      18.13300000       8.93300000       4.62900000
 H      18.80100000       9.60600000       4.90600000
 H      17.36800000       9.03100000       5.30300000
