33
XYZ file of cluster: frame_3500_9b9c.0.a1ee0 - created by MolEdiTo
 O       5.31200000       7.13000000      14.40800000
 H       5.57500000       6.29300000      14.76300000
 H       6.25600000       7.43200000      14.16400000
 O       5.84400000       6.67400000      19.49800000
 H       5.76700000       6.29400000      20.38000000
 H       6.11900000       5.87200000      19.00900000
 O       7.14300000       0.83600000      20.48200000
 H       6.64100000       0.00000000      20.60400000
 H       7.70000000       0.84700000      21.29700000
 O       3.69000000       4.52000000      20.58000000
 H       3.13800000       4.36100000      19.81200000
 H       3.73100000       5.46900000      20.66700000
 O       3.28300000       1.97400000      15.68400000
 H       2.76000000       2.41400000      15.02800000
 H       2.62800000       1.80200000      16.36200000
 O       2.71100000       5.36900000      15.55500000
 H       1.77000000       5.47800000      15.26800000
 H       3.27300000       6.10300000      15.23900000
 O       4.33000000       0.65100000      18.93600000
 H       4.85700000       1.12800000      19.69500000
 H       4.86700000       0.69700000      18.15400000
 O       1.48000000       1.30600000      17.95100000
 H       0.85500000       0.57000000      18.04100000
 H       2.20500000       1.25100000      18.57900000
 O       6.61200000       4.03400000      20.41200000
 H       5.67400000       3.87900000      20.30700000
 H       6.68600000       4.37300000      21.35500000
 O       6.22400000       4.56700000      15.43900000
 H       7.15800000       4.47800000      15.74900000
 H       5.73900000       4.17300000      16.21300000
 O       4.82400000       4.69900000      17.82300000
 H       4.56400000       5.68700000      17.97300000
 H       4.03400000       4.30100000      17.31600000
