  1  2  3  4  5  6  7  8  9 10 11 12 13 14 15 16 17 18 19 20
 21 22 23 24 25 26 27 28 29 30 31 32 33 34 35 36 37 38 39 40
 41 42 43 44 45 46 47 48 49 50 51 52 53 54 55 56 57 58 59 60
 61 62 63 64 65 66 67 68 69 70 71 72 73 74 75 76 77 78 79 80
 81 82 83 84 85 86 87 88 89 90 91 92 93 94 95 96 97 98 99100
101102103104105106107108109110111112113114115116117118119120
121122123124125126127128129130131132133134135136137138139140
141142143144145146147148149150151152153154155156157158159160
161162163164165166167168169170171172173174175176177178179180
181182183184185186187188189190191192193194195196197198199200
201202203204205206207208209210211212213214215216217218219220
221222223224225226227228229230231232233234235236237238239240
241242243244245246247248249250251252253254255256257258259260
261262263264265
  0  0  0  0  0  0  0  0  0  0  0  0  0  0  0  0  0  0  0  0
  0  0  1  0  0  0  0  0  0  0  0  0  0  0  0  0  0  2  0  0
  0  0  3  0  0  0  0  0  0  0  0  0  0  0  0  0  0  0  0  0
  0  0  0  0  0  0  0  0  0  0  0  0  0  0  0  4  0  0  0  0
  5  0  0  0  0  0  0  0  0  0  0  6  0  0  0  0  0  0  0  0
  0  0  7  0  0  0  0  0  0  0  0  0  0  0  0  0  0  0  8  0
  0  9  0  0  0  0  0  0  0  0  0  0  0  0  0  0  0  0  0  0
  0  0  0  0  0  0  0  0  0  0  0  0  0  0  0  0  0  0  0  0
  0  0  0 10 11  0  0  0  0  0  0  0  0  0  0  0  0  0  0  0
  0  0  0  0  0  0  0  0  0  0  0  0  0  0  0  0  0  0  0  0
  0  0  0  0  0  0  0  0  0  0  0  0  0  0  0  0  0  0  0  0
  0  0  0  0  0  0  0  0  0  0  0  0  0  0  0  0  0  0  0  0
  0  0  0  0  0  0  0  0  0  0  0  0  0  0  0  0  0  0  0  0
  0  0 12  0  0