%chk=cluster_242.chk
%mem=6GB
%nproc=4
#b3lyp/6-311++G** scrf=(cpcm,Solvent=Water) nosymm freq
iop(2/11=1) 
 Geom=(NoDistance,NoAngle)

cluster_242

0 1
 O       8.09800000      14.58100000       8.60000000
 H       8.35200000      13.64100000       8.58300000
 H       7.37900000      14.55800000       7.92700000
 O       7.85600000      14.32700000      11.52100000
 H       8.55900000      15.08800000      11.64500000
 H       7.75600000      14.16600000      10.57700000
 O       8.18500000      17.39900000      11.74700000
 H       7.29600000      17.10400000      11.75800000
 H       8.46500000      17.33900000      12.69200000
 O      13.72000000      15.95500000      11.74600000
 H      13.71700000      15.71300000      12.74300000
 H      12.74400000      16.01800000      11.54900000
 O      12.77900000      19.42200000      12.01300000
 H      12.36300000      18.71900000      11.50000000
 H      12.93100000      20.10200000      11.32600000
 O       7.17500000      19.71200000      14.54800000
 H       7.17400000      20.70900000      14.65000000
 H       7.49400000      19.46800000      13.64000000
 O      10.58900000      20.45100000       9.45400000
 H      10.29900000      19.69800000       9.92800000
 H      11.19200000      20.18100000       8.74600000
 O       9.17500000      17.85200000       9.12300000
 H       8.89700000      17.57300000      10.01000000
 H       8.39900000      17.45200000       8.62400000
 O      14.08100000      20.34200000       9.57700000
 H      13.87900000      19.94800000       8.71600000
 H      15.02100000      20.04000000       9.76600000
 O      14.06700000      16.58500000       8.46600000
 H      13.95200000      15.63400000       8.50800000
 H      15.07000000      16.82100000       8.46600000
 O      10.80500000      20.16100000      14.26700000
 H      11.21800000      21.06200000      13.93800000
 H      11.52200000      19.59500000      13.86100000
 O      11.14100000      15.13400000       9.24200000
 H      11.95000000      15.06900000       8.67800000
 H      10.41200000      15.42500000       8.66800000
 O      11.50600000      18.82300000       7.22200000
 H      11.65200000      18.38000000       8.12400000
 H      11.45000000      18.00300000       6.72500000
 O      12.11200000      17.99600000       9.77100000
 H      11.29300000      17.44200000       9.88800000
 H      12.87400000      17.37800000       9.55900000
 O      13.04100000      14.23900000       6.74400000
 H      13.83800000      13.84800000       7.21800000
 H      12.87300000      13.54300000       5.99000000
 O       7.00300000      20.57900000       8.49500000
 H       7.61900000      20.48100000       7.69100000
 H       7.61600000      20.84100000       9.19000000

