135
XYZ file of cluster: frame_2500_4a61d.1f84d.7c5 - created by MolEdiTo
 O      18.95000000      11.95400000       5.91400000
 H      18.04400000      12.01400000       6.21000000
 H      19.32200000      11.30900000       6.63000000
 O      12.62000000      11.22500000      10.19500000
 H      13.52100000      11.21600000      10.42000000
 H      12.27500000      10.36900000      10.48200000
 O      14.59200000       5.61300000      10.24700000
 H      14.17000000       6.30100000       9.67300000
 H      15.57800000       5.79800000      10.25000000
 O      17.14800000       8.52500000       7.54200000
 H      16.91800000       8.80400000       6.63800000
 H      18.12300000       8.56500000       7.58500000
 O      15.98900000      15.15600000       2.59400000
 H      15.20300000      15.59100000       2.80400000
 H      15.63000000      14.40900000       2.19400000
 O      14.08800000       8.32500000       2.50100000
 H      13.29100000       8.70500000       2.95800000
 H      14.62200000       9.14900000       2.14100000
 O      14.74000000      14.55200000       5.77200000
 H      15.13200000      15.01700000       5.06500000
 H      15.12500000      14.93500000       6.64300000
 O      20.85100000       6.03900000      10.69800000
 H      21.44800000       5.53900000      10.13900000
 H      21.42000000       6.05600000      11.51000000
 O      11.70400000      15.17300000       4.57300000
 H      11.69500000      14.20400000       4.82400000
 H      12.61000000      15.26200000       4.96900000
 O      14.04200000       5.84500000       1.98600000
 H      13.65400000       5.93600000       1.09900000
 H      14.14100000       6.75500000       2.31000000
 O      12.56300000      14.27000000       1.81900000
 H      12.48800000      14.74900000       2.66200000
 H      11.96700000      13.48000000       1.97600000
 O      11.45100000       6.85900000       3.07200000
 H      11.46700000       7.73700000       3.47000000
 H      11.98800000       6.31400000       3.64400000
 O      15.93200000      12.17000000       6.90400000
 H      15.40500000      12.98800000       6.71400000
 H      16.12100000      12.29600000       7.76000000
 O      17.65600000      12.33400000       1.95700000
 H      18.24900000      11.60800000       2.35200000
 H      16.72900000      12.18200000       2.11600000
 O      20.93500000       5.78000000       0.85000000
 H      20.40100000       4.92300000       0.73700000
 H      21.79900000       5.64800000       0.43400000
 O       9.98700000      12.68900000       9.92100000
 H      10.07500000      11.97200000      10.54100000
 H      10.82200000      13.10100000      10.18600000
 O      14.64900000      13.07100000       0.76300000
 H      14.79000000      13.66800000       0.06300000
 H      13.93300000      13.37800000       1.33900000
 O      11.27800000      10.00100000       3.72600000
 H      11.50300000      10.76900000       3.16100000
 H      10.25700000       9.99800000       3.80100000
 O      21.53200000      10.99200000       1.86300000
 H      21.62200000      11.30000000       2.79100000
 H      20.80100000      10.34500000       1.90400000
 O      20.25500000       8.08000000       7.87100000
 H      20.90400000       7.41500000       8.19400000
 H      20.77000000       8.56200000       7.16700000
 O       9.87800000      15.51100000       7.62900000
 H      10.70200000      15.77900000       7.11800000
 H      10.09200000      15.41200000       8.61100000
 O      19.97700000      14.34800000       1.76600000
 H      19.86300000      15.29700000       2.09500000
 H      19.17500000      14.24800000       1.36800000
 O      10.68500000       6.49300000      10.44900000
 H      11.25600000       5.72700000      10.76400000
 H       9.81400000       6.23000000      10.76500000
 O      17.10300000       7.98500000       4.91800000
 H      17.39200000       7.20400000       5.43700000
 H      17.41100000       7.73700000       4.02700000
 O      20.98000000      13.10000000       4.05400000
 H      20.14500000      12.76500000       4.54100000
 H      20.73100000      13.60200000       3.19100000
 O      19.87700000      10.77800000       8.80400000
 H      18.98700000      10.46300000       8.72800000
 H      20.46000000      10.02700000       8.55000000
 O      14.89800000       6.53900000       5.22400000
 H      15.18800000       6.53300000       4.25900000
 H      15.47700000       7.32200000       5.54800000
 O      17.84300000       5.88200000       6.90900000
 H      18.15600000       5.07400000       7.26600000
 H      17.62400000       6.45600000       7.66800000
 O      17.15200000       8.68600000       1.83500000
 H      16.89800000       8.63200000       0.88900000
 H      16.93300000       7.82200000       2.23100000
 O      12.49000000       8.45600000      10.40300000
 H      12.72400000       8.26200000       9.46400000
 H      11.68100000       7.87100000      10.47500000
 O      12.49500000       5.26800000       5.29800000
 H      13.11500000       6.03100000       5.54300000
 H      11.76900000       5.47600000       5.93400000
 O      11.83000000       8.11900000       5.72200000
 H      11.63000000       8.85000000       5.08600000
 H      10.95500000       7.77800000       6.01100000
 O      15.74400000      14.92600000      11.01500000
 H      15.32100000      15.64100000      10.47400000
 H      16.64300000      14.82400000      10.56900000
 O      11.62800000      12.77500000       5.54800000
 H      12.32600000      12.28600000       5.06800000
 H      11.79300000      12.40400000       6.46200000
 O      20.74200000       8.29300000       1.66500000
 H      19.86600000       8.62100000       1.49900000
 H      20.81500000       7.37500000       1.31600000
 O      17.39200000       6.10600000       3.21600000
 H      18.14300000       5.98300000       2.55500000
 H      16.85600000       5.27900000       3.22500000
 O      11.19300000      11.98900000       1.79200000
 H      10.70400000      11.48100000       1.12400000
 H      10.44200000      12.32100000       2.36100000
 O      13.92500000      10.82600000       4.98000000
 H      14.56900000      10.74800000       5.71400000
 H      13.48100000      10.00000000       5.07100000
 O      17.60100000       6.34600000      10.05600000
 H      17.99300000       5.80700000      10.74300000
 H      17.84500000       7.25600000      10.26900000
 O      10.49200000       5.72900000       7.10700000
 H       9.63700000       5.90000000       7.58600000
 H      11.13600000       5.26700000       7.72000000
 O      13.71100000       7.40000000       8.15800000
 H      14.43100000       7.83400000       7.75200000
 H      13.02100000       7.50500000       7.51300000
 O      19.10800000      10.26600000       3.08100000
 H      19.73800000       9.91900000       3.76800000
 H      18.55200000       9.54200000       2.88400000
 O      11.42100000      10.84900000       7.63100000
 H      10.64300000      10.54300000       8.10400000
 H      12.00000000      10.97000000       8.40500000
 O      14.94500000       4.73800000       6.87600000
 H      15.44200000       4.05700000       6.38000000
 H      15.63800000       5.39300000       7.26200000
 O      18.26400000      14.02900000      10.11700000
 H      18.87800000      14.41500000       9.45400000
 H      18.56000000      13.10500000      10.33900000
