129
XYZ file of cluster: frame_2500_754de.5a7e.c1614 - created by MolEdiTo
 O      19.73500000       4.19500000      29.57400000
 H      19.30100000       4.87300000      28.93900000
 H      19.41500000       3.35500000      29.14500000
 O      24.79200000       2.89700000      30.70500000
 H      24.70700000       1.93000000      30.98500000
 H      24.94400000       3.21000000      31.68100000
 O      23.71400000       5.10200000      25.55000000
 H      23.25800000       5.96400000      25.41400000
 H      23.89100000       5.22200000      26.52600000
 O      18.39800000       8.41600000      26.01100000
 H      18.67300000       7.92400000      25.17300000
 H      18.79700000       7.92000000      26.76000000
 O      27.05400000       5.00300000      30.41000000
 H      26.20000000       5.27300000      30.85500000
 H      27.75500000       5.43700000      30.97600000
 O      26.12600000       1.06400000      26.22300000
 H      26.84400000       1.14000000      26.87500000
 H      25.53500000       1.82100000      26.46500000
 O      24.45200000       3.02100000      27.70100000
 H      24.91400000       3.02500000      28.61300000
 H      24.64500000       3.84100000      27.25500000
 O      24.23400000       7.76100000      30.24800000
 H      24.75100000       7.13800000      29.69300000
 H      23.53600000       8.16300000      29.65600000
 O      24.63600000       8.28600000      25.89400000
 H      24.60900000       8.87000000      25.09400000
 H      24.50100000       8.92700000      26.62700000
 O      20.44400000       5.32900000      26.63300000
 H      20.11800000       6.23700000      26.93700000
 H      19.62700000       4.99200000      26.23500000
 O      25.37300000       9.47400000      29.06100000
 H      24.97000000       8.83200000      29.69600000
 H      24.68100000      10.24600000      28.92800000
 O      22.22000000       2.32800000      28.28300000
 H      23.13200000       2.13700000      28.02000000
 H      22.30600000       3.01700000      29.06700000
 O      16.77300000       8.01400000      28.96700000
 H      17.68200000       8.11200000      28.79200000
 H      16.44800000       7.32500000      28.36100000
 O      27.19300000       7.37000000      28.57100000
 H      26.27900000       7.68000000      28.54900000
 H      27.10600000       6.48100000      28.98900000
 O      24.55600000       6.27700000      28.20600000
 H      25.22600000       5.58300000      27.86600000
 H      23.69100000       5.77500000      28.08900000
 O      15.63500000       7.71400000      26.23800000
 H      15.19800000       8.47100000      26.55900000
 H      16.46900000       8.20000000      25.93500000
 O      17.91400000       3.86300000      26.85000000
 H      17.68700000       4.24200000      27.71400000
 H      18.42800000       3.06900000      27.02000000
 O      17.02900000       5.14800000      29.39600000
 H      16.12500000       5.17800000      29.08300000
 H      17.09700000       4.32600000      29.91000000
 O      23.00700000       4.12500000      30.54800000
 H      23.90200000       3.78300000      30.30500000
 H      22.89800000       3.99900000      31.50000000
 O      19.90100000       7.12200000      28.17200000
 H      20.16700000       7.13500000      29.08400000
 H      20.81700000       7.39000000      27.77700000
 O      23.16200000       5.44200000      27.72700000
 H      23.10500000       4.47600000      27.75800000
 H      22.39500000       5.78700000      27.23000000
 O      19.34100000       1.77200000      28.40000000
 H      20.32500000       1.56200000      28.27500000
 H      19.08000000       0.90400000      28.69100000
 O      22.42100000       8.81600000      28.20000000
 H      23.14100000       9.43100000      27.97600000
 H      21.72100000       9.42500000      28.19200000
 O      23.04100000       7.95000000      34.81200000
 H      22.34900000       8.01300000      34.14600000
 H      23.84800000       8.28900000      34.38200000
 O      23.85300000      10.91300000      36.27800000
 H      24.66300000      11.02600000      36.80300000
 H      23.96400000      10.15500000      35.65400000
 O      24.64900000       9.32400000      35.04900000
 H      25.08600000       9.77400000      34.23900000
 H      25.28000000       9.44900000      35.71700000
 O      17.29600000       3.26300000      33.55900000
 H      18.28200000       3.19600000      33.58000000
 H      17.00300000       2.76500000      34.32900000
 O      24.10800000       4.40100000      34.86900000
 H      24.92000000       4.69500000      35.42900000
 H      24.06500000       5.15900000      34.24300000
 O      25.01900000       2.13100000      37.52300000
 H      24.23300000       2.56900000      37.97000000
 H      25.26900000       2.80400000      36.85100000
 O      20.93500000       5.78000000      32.53100000
 H      20.40100000       4.92300000      32.41800000
 H      21.79900000       5.64800000      32.11500000
 O      22.84100000       6.10200000      36.87000000
 H      21.89700000       6.26600000      36.98500000
 H      23.22800000       6.84900000      36.31700000
 O      21.53200000      10.99200000      33.54400000
 H      21.62200000      11.30000000      34.47200000
 H      20.80100000      10.34500000      33.58500000
 O      17.10300000       7.98500000      36.59900000
 H      17.39200000       7.20400000      37.11800000
 H      17.41100000       7.73700000      35.70800000
 O      17.15200000       8.68600000      33.51600000
 H      16.89800000       8.63200000      32.57000000
 H      16.93300000       7.82200000      33.91200000
 O      19.44000000       1.49900000      36.70800000
 H      18.88000000       0.72800000      36.33100000
 H      19.48400000       1.24500000      37.68400000
 O      19.86900000       2.76700000      34.07400000
 H      19.90100000       2.16100000      34.89700000
 H      20.77900000       2.66000000      33.87800000
 O      20.74200000       8.29300000      33.34600000
 H      19.86600000       8.62100000      33.18000000
 H      20.81500000       7.37500000      32.99700000
 O      17.39200000       6.10600000      34.89700000
 H      18.14300000       5.98300000      34.23600000
 H      16.85600000       5.27900000      34.90600000
 O      22.47800000       2.31300000      34.69100000
 H      23.21900000       1.81500000      35.02000000
 H      22.25500000       2.86100000      35.51900000
 O      21.38300000       8.87900000      36.89800000
 H      21.93300000       9.73200000      36.97000000
 H      21.88700000       8.26400000      36.31400000
 O      19.10800000      10.26600000      34.76200000
 H      19.73800000       9.91900000      35.44900000
 H      18.55200000       9.54200000      34.56500000
 O      26.06100000       4.99500000      36.78400000
 H      25.97000000       5.90200000      37.11900000
 H      27.02500000       4.82900000      36.78300000
 O      24.97200000       5.89000000      33.41900000
 H      24.22400000       6.40900000      33.08000000
 H      25.62100000       6.59400000      33.71600000
