166
XYZ file of cluster: frame_2500_48bb0.1e5e7.1f087 - created by MolEdiTo
 O      17.81600000       9.25200000      11.26600000
 H      17.90300000       8.73800000      12.10800000
 H      18.81800000       9.40700000      11.13900000
 O      18.95000000      11.95400000       5.91400000
 H      18.04400000      12.01400000       6.21000000
 H      19.32200000      11.30900000       6.63000000
 O      17.22100000       5.41800000      15.23400000
 H      16.88600000       5.41000000      14.24700000
 H      16.85900000       6.24200000      15.63500000
 O      12.62000000      11.22500000      10.19500000
 H      13.52100000      11.21600000      10.42000000
 H      12.27500000      10.36900000      10.48200000
 O      14.59200000       5.61300000      10.24700000
 H      14.17000000       6.30100000       9.67300000
 H      15.57800000       5.79800000      10.25000000
 O      17.14800000       8.52500000       7.54200000
 H      16.91800000       8.80400000       6.63800000
 H      18.12300000       8.56500000       7.58500000
 O      20.13500000       4.67800000      15.27400000
 H      19.85300000       3.90900000      14.74000000
 H      20.11800000       5.56200000      14.76800000
 O      19.55900000      15.04700000      12.72000000
 H      19.04700000      14.84100000      11.93800000
 H      18.97300000      15.69500000      13.20800000
 O      14.74000000      14.55200000       5.77200000
 H      15.13200000      15.01700000       5.06500000
 H      15.12500000      14.93500000       6.64300000
 O      20.85100000       6.03900000      10.69800000
 H      21.44800000       5.53900000      10.13900000
 H      21.42000000       6.05600000      11.51000000
 O      15.20900000       7.31700000      13.06200000
 H      15.04700000       7.10400000      12.10200000
 H      14.35800000       7.78300000      13.20000000
 O      12.78000000      16.52500000      12.48200000
 H      12.41100000      17.18200000      11.84500000
 H      13.11800000      15.67600000      12.02000000
 O      15.93200000      12.17000000       6.90400000
 H      15.40500000      12.98800000       6.71400000
 H      16.12100000      12.29600000       7.76000000
 O      11.25200000      15.05900000      14.14600000
 H      11.79300000      15.76800000      13.79200000
 H      11.80300000      14.30300000      14.18500000
 O      21.90400000      14.49800000      14.34700000
 H      21.03700000      14.91200000      14.35300000
 H      22.28200000      15.04900000      13.62600000
 O      12.11500000      14.01500000      11.20200000
 H      11.78300000      13.55100000      11.94900000
 H      12.94700000      13.49000000      10.91400000
 O       9.98700000      12.68900000       9.92100000
 H      10.07500000      11.97200000      10.54100000
 H      10.82200000      13.10100000      10.18600000
 O      14.04600000       4.85900000      15.45700000
 H      14.79100000       5.35800000      14.96300000
 H      13.75100000       4.19600000      14.79000000
 O      12.56600000       5.11200000      11.62900000
 H      12.47700000       4.13700000      11.32400000
 H      13.29700000       5.51500000      11.01700000
 O       9.96800000      15.72700000      10.65100000
 H       9.42300000      14.97400000      10.97900000
 H      10.90100000      15.36700000      10.94600000
 O      20.25500000       8.08000000       7.87100000
 H      20.90400000       7.41500000       8.19400000
 H      20.77000000       8.56200000       7.16700000
 O       9.87800000      15.51100000       7.62900000
 H      10.70200000      15.77900000       7.11800000
 H      10.09200000      15.41200000       8.61100000
 O      10.68500000       6.49300000      10.44900000
 H      11.25600000       5.72700000      10.76400000
 H       9.81400000       6.23000000      10.76500000
 O      17.10300000       7.98500000       4.91800000
 H      17.39200000       7.20400000       5.43700000
 H      17.41100000       7.73700000       4.02700000
 O      16.12900000       5.08800000      12.64600000
 H      15.36000000       5.50800000      12.28100000
 H      16.67500000       4.80400000      11.83100000
 O      19.87700000      10.77800000       8.80400000
 H      18.98700000      10.46300000       8.72800000
 H      20.46000000      10.02700000       8.55000000
 O      14.89800000       6.53900000       5.22400000
 H      15.18800000       6.53300000       4.25900000
 H      15.47700000       7.32200000       5.54800000
 O      17.84300000       5.88200000       6.90900000
 H      18.15600000       5.07400000       7.26600000
 H      17.62400000       6.45600000       7.66800000
 O      13.53900000      11.07900000      14.64300000
 H      13.35200000      10.13900000      14.31500000
 H      14.55000000      11.11300000      14.89800000
 O      12.49000000       8.45600000      10.40300000
 H      12.72400000       8.26200000       9.46400000
 H      11.68100000       7.87100000      10.47500000
 O      12.49500000       5.26800000       5.29800000
 H      13.11500000       6.03100000       5.54300000
 H      11.76900000       5.47600000       5.93400000
 O      11.83000000       8.11900000       5.72200000
 H      11.63000000       8.85000000       5.08600000
 H      10.95500000       7.77800000       6.01100000
 O      15.74400000      14.92600000      11.01500000
 H      15.32100000      15.64100000      10.47400000
 H      16.64300000      14.82400000      10.56900000
 O      11.14800000      11.86000000      12.96500000
 H      11.84800000      11.70500000      13.61400000
 H      10.26300000      11.51800000      13.28200000
 O      11.62800000      12.77500000       5.54800000
 H      12.32600000      12.28600000       5.06800000
 H      11.79300000      12.40400000       6.46200000
 O      19.29600000      11.49300000      11.55700000
 H      18.44600000      11.06600000      11.76100000
 H      19.50000000      11.07900000      10.66300000
 O      20.39400000       8.54100000      11.15400000
 H      20.53200000       7.54600000      11.12300000
 H      21.19000000       8.86900000      11.65500000
 O      13.16400000       8.34600000      14.16200000
 H      12.93500000       8.30700000      15.11900000
 H      12.48100000       7.79300000      13.73800000
 C      15.40000000      14.48900000      14.88100000
 C      16.10100000      15.87800000      14.56400000
 C      15.87300000      16.61200000      17.05000000
 H      14.43100000      16.88200000      15.36500000
 H      17.08400000      14.06700000      15.50000000
 O      15.99600000      18.18900000      15.09300000
 O      14.20400000      14.32800000      14.93800000
 O      16.21800000      13.60000000      15.52000000
 C      15.52500000      16.91200000      15.50200000
 O      17.51600000      15.77700000      14.56100000
 H      15.80200000      16.28800000      13.54600000
 O      16.92800000      16.14400000      17.41500000
 O      14.78000000      16.64900000      17.87100000
 H      14.08600000      17.05300000      17.34200000
 H      17.92500000      16.66300000      14.88600000
 H      15.63300000      18.99400000      15.53600000
 O      15.29000000      12.17600000      11.11300000
 H      15.99600000      11.58700000      11.39800000
 H      15.31700000      13.01500000      11.68400000
 O      13.92500000      10.82600000       4.98000000
 H      14.56900000      10.74800000       5.71400000
 H      13.48100000      10.00000000       5.07100000
 O      10.74600000       5.70200000      13.84800000
 H       9.94400000       5.12600000      13.75700000
 H      11.59500000       5.21800000      13.47000000
 O      19.32600000      11.42900000      14.81500000
 H      19.46900000      10.42300000      14.84400000
 H      19.72000000      11.53500000      13.92100000
 O      17.60100000       6.34600000      10.05600000
 H      17.99300000       5.80700000      10.74300000
 H      17.84500000       7.25600000      10.26900000
 O      10.49200000       5.72900000       7.10700000
 H       9.63700000       5.90000000       7.58600000
 H      11.13600000       5.26700000       7.72000000
 O      13.71100000       7.40000000       8.15800000
 H      14.43100000       7.83400000       7.75200000
 H      13.02100000       7.50500000       7.51300000
 O      18.83200000       8.75100000      14.70000000
 H      18.23300000       8.10500000      15.04100000
 H      19.69100000       8.75000000      15.16000000
 O      11.42100000      10.84900000       7.63100000
 H      10.64300000      10.54300000       8.10400000
 H      12.00000000      10.97000000       8.40500000
 O      16.39900000      10.91100000      14.15700000
 H      16.28100000      10.05800000      13.71600000
 H      17.33700000      10.82200000      14.40800000
 O      14.94500000       4.73800000       6.87600000
 H      15.44200000       4.05700000       6.38000000
 H      15.63800000       5.39300000       7.26200000
 O      18.26400000      14.02900000      10.11700000
 H      18.87800000      14.41500000       9.45400000
 H      18.56000000      13.10500000      10.33900000
