108
XYZ file of cluster: frame_4000_22268.c1f42.c02f - created by MolEdiTo
 O      12.24000000      26.07400000      10.35100000
 H      12.71400000      25.72800000      11.17900000
 H      11.37500000      26.23500000      10.74600000
 O       6.12000000      25.60900000       7.96500000
 H       5.63300000      26.37400000       7.57400000
 H       5.45300000      24.95000000       8.32100000
 O      15.47200000      28.38700000       2.14900000
 H      15.82300000      28.63500000       3.06200000
 H      16.15100000      27.82600000       1.73700000
 O       9.17700000      30.29600000       4.99900000
 H       8.46800000      30.93400000       5.01100000
 H       8.91500000      29.48900000       5.46500000
 O       5.84200000      30.02700000       9.37300000
 H       6.07700000      30.42600000       8.47700000
 H       5.15200000      30.74300000       9.55100000
 O      11.30600000      30.31300000       9.68300000
 H      11.38100000      31.03100000       9.01000000
 H      11.90100000      29.67600000       9.32000000
 O       6.99500000      28.37100000       3.59200000
 H       7.58000000      27.65500000       3.21000000
 H       7.33000000      29.23100000       3.27600000
 O       6.16700000      29.93400000       6.31900000
 H       6.63000000      29.36800000       5.61000000
 H       5.44300000      30.42800000       5.82000000
 O       9.53700000      27.52900000       2.33500000
 H       9.46700000      26.60200000       1.94200000
 H       9.94800000      27.28500000       3.17100000
 O      10.72500000      26.99000000       4.95300000
 H      10.81200000      27.89400000       5.35800000
 H      11.65500000      26.65700000       5.13100000
 O      12.02300000      30.22400000       4.90200000
 H      11.68400000      29.88200000       4.01400000
 H      11.29700000      30.93100000       5.04400000
 O      13.17500000      30.49400000       1.63200000
 H      13.29400000      29.52700000       1.88800000
 H      14.06700000      30.91400000       1.58200000
 O      15.04700000      26.37700000       6.48800000
 H      14.51800000      27.11200000       6.11100000
 H      14.74800000      25.54800000       6.10100000
 O      14.16500000      28.21400000       4.64500000
 H      14.22300000      28.20700000       3.65700000
 H      13.65900000      29.01800000       4.92000000
 O       8.39200000      29.32300000      10.10900000
 H       9.04100000      30.12100000      10.02800000
 H       7.50300000      29.64900000       9.87400000
 O      14.98200000      29.27000000      10.57100000
 H      15.11400000      29.22000000       9.60500000
 H      15.86600000      28.83700000      10.86200000
 O       6.15700000      27.00500000      10.60500000
 H       6.41600000      26.42100000       9.87600000
 H       6.41500000      27.92200000      10.45700000
 O       9.68900000      28.41600000       7.21400000
 H       9.70900000      27.53800000       6.82900000
 H       9.85600000      28.31000000       8.10800000
 O      12.88500000      28.96400000       7.69200000
 H      12.51700000      28.04100000       7.68000000
 H      12.45700000      29.28600000       6.83700000
 O      15.78800000      28.76200000       8.08600000
 H      14.91400000      28.89300000       7.77500000
 H      16.00900000      27.86800000       7.81400000
 O      11.41800000      34.90700000       8.77100000
 H      10.96900000      34.27800000       8.17300000
 H      11.22500000      34.63300000       9.66000000
 O      14.19600000      34.94300000      10.77800000
 H      14.13000000      34.45900000       9.93400000
 H      13.74300000      35.83200000      10.59500000
 O      10.66100000      34.68600000       5.16400000
 H      10.90600000      34.71900000       4.17900000
 H       9.76000000      35.03900000       5.11900000
 O      15.94800000      36.21300000       5.77100000
 H      15.48200000      36.65200000       5.03000000
 H      15.33400000      35.41000000       5.86300000
 O       7.51000000      32.56400000       1.94900000
 H       8.35500000      32.66900000       2.34600000
 H       7.41200000      33.49600000       1.74300000
 O      13.33500000      37.18200000       9.21700000
 H      12.67900000      37.81200000       9.70500000
 H      12.68900000      36.52600000       8.83200000
 O      15.82000000      32.65500000       2.01800000
 H      16.80500000      32.64100000       2.33900000
 H      15.40700000      32.96000000       2.84100000
 O      13.88300000      33.30000000       8.07600000
 H      13.65100000      32.48100000       7.65700000
 H      13.32100000      33.98500000       7.54400000
 O      13.10700000      35.12600000       6.14800000
 H      12.21000000      34.68700000       5.90300000
 H      12.90100000      35.93200000       6.61600000
 O      10.91700000      33.18600000       2.40700000
 H      10.78200000      33.91900000       1.75100000
 H      11.69500000      32.66700000       2.10200000
 O       7.71900000      35.78500000       2.12000000
 H       7.64600000      36.52800000       1.55300000
 H       7.84300000      36.20100000       3.00300000
 O      14.59000000      33.36100000       4.59600000
 H      14.16600000      33.87600000       5.23800000
 H      15.48100000      33.12200000       5.00800000
 O      14.13700000      35.60200000       2.50500000
 H      14.09300000      34.97000000       3.27200000
 H      13.58200000      35.17600000       1.74900000
 O       5.16100000      33.32300000       3.11500000
 H       5.92400000      32.74900000       2.93400000
 H       4.39600000      32.68700000       3.35400000
 O       7.61800000      34.19700000       4.80500000
 H       7.65000000      35.19300000       4.70800000
 H       6.64200000      34.11700000       5.01000000
 O       9.18400000      33.00500000       7.97400000
 H       8.43300000      33.61100000       7.85900000
 H       9.02300000      32.09600000       7.55800000
