160
XYZ file of cluster: frame_4000_6ca28.24678.4c28e - created by MolEdiTo
 O      24.86600000       5.42400000      11.39700000
 H      25.73100000       5.13400000      11.69700000
 H      25.02900000       6.33400000      11.24900000
 O      17.50600000      13.61500000      18.70900000
 H      17.66100000      12.97700000      19.39000000
 H      17.63900000      13.12300000      17.86500000
 O      20.27900000      14.25600000      16.07700000
 H      19.93800000      13.54200000      16.59000000
 H      20.06800000      13.81800000      15.19700000
 O      18.87800000       9.84800000      13.81200000
 H      18.11400000      10.39200000      13.58000000
 H      19.04300000       9.62100000      12.85900000
 O      26.35100000       6.16200000      14.12600000
 H      25.67900000       6.79500000      14.29800000
 H      27.12800000       6.70500000      14.39900000
 O      25.63900000      11.60600000      11.94800000
 H      24.99900000      11.35600000      11.22700000
 H      25.96900000      12.45000000      11.54900000
 O      18.17100000      11.07100000      20.48400000
 H      17.95200000      10.33300000      19.84600000
 H      19.10800000      10.91800000      20.72200000
 O      22.01600000      15.17900000      11.11900000
 H      21.46600000      15.65900000      11.75600000
 H      22.52600000      14.56900000      11.74400000
 O      21.54100000      11.43400000      12.25300000
 H      21.22900000      10.53000000      12.01700000
 H      22.21100000      11.49100000      11.54700000
 O      24.63200000      14.36900000      10.56500000
 H      23.71500000      14.20200000      10.30600000
 H      24.93100000      14.95500000       9.84700000
 O      25.69000000      11.07100000      19.72300000
 H      25.30900000      11.76800000      20.17700000
 H      25.14300000      10.25500000      19.84200000
 O      24.21400000       5.61000000      20.79700000
 H      24.43900000       5.58900000      21.78200000
 H      24.13900000       4.68300000      20.42500000
 O      20.46700000       8.31600000      11.71200000
 H      20.83000000       7.48500000      12.15900000
 H      19.79000000       8.00700000      11.02300000
 C      14.84300000      15.64600000      17.18000000
 C      15.28900000      15.01900000      15.88200000
 C      16.43200000      17.00200000      14.92200000
 H      17.39900000      15.54300000      16.12800000
 H      16.09900000      14.62200000      18.24900000
 O      17.11200000      14.64800000      14.22900000
 O      13.98400000      16.51100000      17.19500000
 O      15.28600000      15.19200000      18.39400000
 C      16.62300000      15.51200000      15.31000000
 O      15.29900000      13.54100000      16.05000000
 H      14.43600000      15.12000000      15.14100000
 O      16.59700000      17.98800000      15.56100000
 O      16.05200000      17.12300000      13.57000000
 H      15.72900000      16.21100000      13.43400000
 H      14.36300000      13.33100000      16.21800000
 H      17.23500000      13.73800000      14.59400000
 O      23.77000000      14.37800000      18.33200000
 H      23.35400000      14.68800000      17.50100000
 H      24.35000000      15.16900000      18.55400000
 O      26.52000000       9.12200000      17.62300000
 H      25.63100000       9.57500000      17.78800000
 H      26.42000000       8.23600000      18.17600000
 O      22.53500000      12.86200000      16.25200000
 H      22.34900000      11.95800000      15.84000000
 H      21.63800000      13.28200000      16.42600000
 O      24.29900000      10.38000000      14.56000000
 H      24.92000000      10.89400000      13.99400000
 H      24.38700000      10.85100000      15.36100000
 O      21.16100000      16.35600000      18.26600000
 H      21.73400000      16.39800000      17.48400000
 H      21.00300000      15.40100000      18.28100000
 O      17.26400000       9.38100000      17.51100000
 H      17.33100000       8.90800000      16.64300000
 H      17.27000000       8.64300000      18.20000000
 O      20.17300000       5.80300000      16.79100000
 H      20.59700000       6.73800000      16.53800000
 H      20.93100000       5.14800000      16.82600000
 O      21.85600000       7.89300000      15.90700000
 H      21.77000000       8.83400000      15.73100000
 H      22.79800000       7.84800000      16.05000000
 O      19.13500000      16.07100000      11.45300000
 H      18.97900000      16.29000000      12.42000000
 H      18.51300000      15.34200000      11.32900000
 O      23.20500000      13.85300000      13.06300000
 H      24.14600000      14.14200000      13.18600000
 H      22.96600000      13.25100000      13.78600000
 O      26.50100000      14.37000000      17.44000000
 H      26.52700000      14.05400000      16.52000000
 H      25.60600000      14.12800000      17.64900000
 O      21.84700000       7.22200000      21.79400000
 H      21.42200000       7.45600000      20.87000000
 H      22.37100000       6.43600000      21.58000000
 O      20.66900000      13.37900000      19.10800000
 H      20.91300000      12.62300000      18.50700000
 H      20.54800000      12.94000000      19.99000000
 O      21.22300000       5.71000000      13.77800000
 H      22.07400000       5.25700000      14.14100000
 H      21.07100000       6.32800000      14.46500000
 O      23.30500000       9.71500000      19.54900000
 H      22.52700000      10.12400000      19.05500000
 H      22.86100000       9.63300000      20.41500000
 O      25.85000000      13.81600000      14.09200000
 H      26.14800000      13.23200000      14.78400000
 H      26.36400000      13.42400000      13.39700000
 O      17.78000000      13.61000000      11.21600000
 H      16.84300000      13.82000000      11.03500000
 H      17.79900000      12.66100000      10.94600000
 O      19.71600000      13.53700000      13.47500000
 H      18.94100000      13.50700000      12.84500000
 H      20.42200000      12.87700000      13.13300000
 O      17.65700000       6.54900000      16.40000000
 H      18.46000000       6.01300000      16.45800000
 H      17.63000000       6.69800000      15.43300000
 O      19.65800000       7.60100000      20.09600000
 H      18.70200000       7.55100000      20.40000000
 H      19.60700000       7.11500000      19.25100000
 O      23.05100000      14.98100000      21.09900000
 H      22.43100000      14.31200000      21.36700000
 H      23.26600000      14.78500000      20.12400000
 O      18.16900000      11.73500000      16.57400000
 H      17.72600000      11.62700000      15.62900000
 H      17.89200000      10.91100000      17.05700000
 O      24.58700000      11.48700000      17.15900000
 H      23.83900000      12.13900000      17.10300000
 H      24.75800000      11.56300000      18.09200000
 O      19.27100000      16.65700000      14.21500000
 H      19.37600000      15.66400000      14.32700000
 H      20.15100000      16.87400000      14.72600000
 O      22.15800000       6.21600000      19.06300000
 H      22.45000000       6.80100000      18.31100000
 H      22.90400000       6.06700000      19.63100000
 O      21.10000000      10.53400000      15.32000000
 H      21.52200000      10.76100000      14.45700000
 H      20.13400000      10.24300000      14.99300000
 O      16.27100000      10.81600000      13.17700000
 H      15.42500000      11.08800000      13.49600000
 H      16.11800000      10.02300000      12.58200000
 O      24.26100000       7.26400000      17.20000000
 H      24.34000000       6.35100000      17.62700000
 H      25.09300000       7.37000000      16.64200000
 O      20.67700000      10.02800000      18.43900000
 H      20.27900000      10.19800000      17.60800000
 H      20.56600000       9.09400000      18.58300000
 O      26.39200000       6.81700000      19.35800000
 H      25.90200000       6.02700000      19.30500000
 H      26.14500000       7.33500000      20.19400000
 O      24.74300000       8.37100000      12.09400000
 H      25.61200000       8.44500000      11.60800000
 H      24.67200000       9.16800000      12.70300000
 O      17.53000000       6.79600000      13.64400000
 H      17.42300000       5.93600000      13.16500000
 H      17.49200000       7.58600000      13.09600000
 O      18.83600000      16.03800000      20.46600000
 H      18.61900000      15.55600000      19.57600000
 H      19.57700000      16.62800000      20.30100000
 O      16.84300000       7.28500000      20.03300000
 H      16.45300000       6.50800000      19.70100000
 H      16.50000000       7.34200000      20.97800000
 O      23.38500000      16.21200000      15.88800000
 H      23.03100000      15.53400000      15.28500000
 H      23.47700000      17.11600000      15.34100000
