151
XYZ file of cluster: frame_4000_22ed6.67a19.4fcb7 - created by MolEdiTo
 O      11.60100000      22.62700000      18.05700000
 H      10.92800000      22.10600000      18.48800000
 H      11.58200000      23.40000000      18.67200000
 O       7.50200000      17.39200000      19.81100000
 H       6.57900000      17.02700000      19.46700000
 H       7.19900000      18.00200000      20.51700000
 O      12.24000000      26.07400000      10.35100000
 H      12.71400000      25.72800000      11.17900000
 H      11.37500000      26.23500000      10.74600000
 O       9.99700000      21.15800000      13.49700000
 H       9.29300000      20.68800000      12.89700000
 H       9.54900000      21.91300000      13.89400000
 O       8.21500000      25.35400000      18.63300000
 H       7.32000000      24.86800000      18.53300000
 H       8.47300000      25.34700000      17.66700000
 O       5.63900000      17.80400000      15.93900000
 H       6.65800000      17.82500000      15.85600000
 H       5.13400000      17.96500000      15.10200000
 O       4.85600000      18.60900000      13.57700000
 H       4.56800000      19.51400000      13.40900000
 H       5.39600000      18.35400000      12.85100000
 O      11.47000000      17.10800000      10.53300000
 H      10.81400000      17.80600000      10.31700000
 H      12.05300000      17.52800000      11.19800000
 O      14.96100000      22.41000000      13.12200000
 H      14.87800000      21.84800000      13.94100000
 H      15.42500000      21.77400000      12.51500000
 O       6.22700000      23.44800000      18.03500000
 H       5.93600000      22.62100000      18.53900000
 H       5.34400000      23.85100000      17.81900000
 O      13.28600000      19.04700000      20.51000000
 H      14.20800000      19.09900000      20.21100000
 H      12.88100000      19.49300000      19.74400000
 O       9.43300000      16.26600000      14.51700000
 H       8.95000000      16.30800000      13.62500000
 H       8.87500000      15.76200000      15.10600000
 O      14.20800000      24.56200000      17.73200000
 H      14.28400000      23.62300000      17.55500000
 H      13.63900000      24.87600000      16.87100000
 O      10.01500000      18.74100000      19.39900000
 H       9.51500000      19.55700000      19.05700000
 H       9.30900000      18.17000000      19.85600000
 C      14.84300000      15.64600000      17.18000000
 C      15.28900000      15.01900000      15.88200000
 C      16.43200000      17.00200000      14.92200000
 H      17.39900000      15.54300000      16.12800000
 H      16.09900000      14.62200000      18.24900000
 O      17.11200000      14.64800000      14.22900000
 O      13.98400000      16.51100000      17.19500000
 O      15.28600000      15.19200000      18.39400000
 C      16.62300000      15.51200000      15.31000000
 O      15.29900000      13.54100000      16.05000000
 H      14.43600000      15.12000000      15.14100000
 O      16.59700000      17.98800000      15.56100000
 O      16.05200000      17.12300000      13.57000000
 H      15.72900000      16.21100000      13.43400000
 H      14.36300000      13.33100000      16.21800000
 H      17.23500000      13.73800000      14.59400000
 O      10.92700000      24.70300000      19.73400000
 H      11.33200000      25.05700000      20.59100000
 H      10.10700000      24.42300000      20.16800000
 O       5.95100000      26.04400000      20.96000000
 H       6.28200000      26.29500000      20.06600000
 H       6.01900000      26.91000000      21.48400000
 O      12.23200000      23.24400000      11.78600000
 H      12.88000000      23.37400000      12.52800000
 H      11.41300000      22.90400000      12.26000000
 O       7.26900000      24.46400000      11.61400000
 H       7.84300000      24.16700000      12.41400000
 H       6.33900000      24.39700000      11.94400000
 O       7.56700000      20.64500000      11.86900000
 H       7.13300000      21.09100000      11.10200000
 H       7.27100000      21.13500000      12.67200000
 O       8.29700000      16.62800000      11.68900000
 H       8.84500000      15.80900000      11.36000000
 H       7.43900000      16.68100000      11.31600000
 O       8.94000000      21.46100000      19.00900000
 H       8.84600000      22.34700000      19.29400000
 H       8.40100000      21.46800000      18.18800000
 O       9.11600000      26.63500000      11.84800000
 H       8.53600000      25.83300000      11.69200000
 H       9.02100000      27.15900000      11.05900000
 O       7.11900000      21.95200000      14.19400000
 H       7.62600000      22.16500000      15.05700000
 H       6.16400000      21.94200000      14.49900000
 O      12.98800000      19.51500000      17.82600000
 H      13.15800000      18.75400000      17.28100000
 H      12.09900000      19.62100000      17.51400000
 O      12.00000000      17.27100000      13.48900000
 H      11.08900000      17.21700000      13.80800000
 H      12.07100000      18.29900000      13.34000000
 O       8.10800000      18.90500000      14.78400000
 H       8.31900000      18.30600000      14.01600000
 H       7.47800000      19.59400000      14.39900000
 O      14.43800000      24.86800000      14.78600000
 H      13.61600000      25.39500000      14.61000000
 H      14.30900000      24.21100000      14.13000000
 O      14.62100000      21.14900000      15.95100000
 H      15.45400000      20.99700000      16.46100000
 H      13.92900000      20.85300000      16.53300000
 O       5.33100000      20.98900000      19.32300000
 H       4.75600000      21.06300000      20.01900000
 H       5.09000000      20.11500000      18.92500000
 O      12.31000000      20.00900000      11.21700000
 H      12.45200000      20.83800000      11.57900000
 H      12.76300000      19.51100000      11.97300000
 O       8.83900000      26.06500000      15.71900000
 H       8.09200000      26.27500000      15.11200000
 H       9.04500000      27.01000000      15.99200000
 O       8.66500000      22.90000000      16.20400000
 H       8.39100000      23.82000000      16.06600000
 H       9.64300000      22.81500000      16.53200000
 O      14.19200000      25.98900000      20.27100000
 H      14.21400000      25.24700000      19.57400000
 H      14.03300000      26.89700000      19.89300000
 O      11.51200000      25.77900000      15.19900000
 H      10.69100000      26.26300000      15.47700000
 H      12.12700000      26.33500000      15.71800000
 O      12.53000000      20.05100000      13.96000000
 H      12.98800000      20.65200000      14.56300000
 H      11.61600000      20.37000000      14.11800000
 O      10.50900000      18.65800000      16.09900000
 H      10.28200000      18.05000000      16.83800000
 H       9.56900000      18.83900000      15.83000000
 O       5.06300000      15.04000000      14.78200000
 H       5.58000000      14.56200000      15.43100000
 H       4.49600000      15.78400000      15.29400000
 O      11.81800000      23.02300000      15.45000000
 H      11.77700000      22.74800000      16.35600000
 H      11.54100000      23.93300000      15.47100000
 O      12.13500000      16.28300000      19.95400000
 H      13.09500000      16.34300000      19.99100000
 H      11.96500000      17.22700000      19.87400000
 O       9.20900000      24.25800000      13.58100000
 H       9.21700000      25.22100000      13.56200000
 H       9.76200000      24.13200000      14.37500000
 O       7.93700000      19.67300000      21.50900000
 H       8.01800000      20.11300000      20.68500000
 H       7.09200000      20.04800000      21.86300000
 O       5.86900000      18.05400000      11.07700000
 H       4.99100000      18.11500000      10.65700000
 H       5.98200000      19.02700000      11.28800000
 O      16.10700000      24.11100000      11.34100000
 H      15.41200000      24.77700000      11.57400000
 H      15.95400000      23.35300000      11.97200000
 O      15.78000000      18.66200000      19.60900000
 H      16.75900000      18.70200000      19.42400000
 H      15.42900000      18.05600000      18.98300000
 O       6.14500000      26.29300000      14.30300000
 H       5.77000000      26.40200000      15.22600000
 H       5.65700000      25.58600000      13.79600000
