99
XYZ file of cluster: frame_4000_c30d3.9b617.c2ae1 - created by MolEdiTo
 O      30.44900000      25.46500000      25.90300000
 H      30.26400000      25.90600000      26.79400000
 H      31.35100000      25.84500000      25.67400000
 O      26.33600000      29.66300000      27.66300000
 H      26.71900000      28.72500000      27.81000000
 H      26.33100000      30.12400000      28.54400000
 O      27.97600000      27.57800000      25.48900000
 H      27.90200000      27.49700000      26.51500000
 H      28.35200000      26.76900000      25.17100000
 O      29.41700000      23.32800000      28.97300000
 H      30.09100000      23.95400000      29.26500000
 H      29.10000000      23.78900000      28.12600000
 O      28.56500000      29.29500000      30.28800000
 H      27.91500000      28.58300000      30.24700000
 H      29.32500000      28.95100000      30.85800000
 O      28.96100000      22.33300000      26.22600000
 H      28.81200000      21.67800000      26.97500000
 H      28.10100000      22.15400000      25.72900000
 O      27.13300000      27.14900000      28.33800000
 H      27.48400000      26.53800000      28.94900000
 H      26.25400000      26.66900000      28.33200000
 O      27.98500000      21.94000000      30.65700000
 H      28.51200000      22.42100000      29.92700000
 H      27.07300000      22.36200000      30.61600000
 O      26.11500000      21.39400000      27.17700000
 H      25.10800000      21.57100000      26.99200000
 H      26.28400000      21.33100000      26.19100000
 O      26.30000000      29.79100000      35.65100000
 H      26.22700000      30.38800000      34.90400000
 H      25.36500000      29.42000000      35.75400000
 O      26.61000000      26.64600000      33.20700000
 H      27.44100000      26.73600000      33.70800000
 H      26.08000000      27.48400000      33.19700000
 O      28.31200000      28.27400000      34.86300000
 H      27.58000000      28.78200000      35.31100000
 H      29.09300000      28.41900000      35.46100000
 O      25.90300000      21.76400000      34.73800000
 H      25.83100000      22.70400000      34.78800000
 H      26.78500000      21.50700000      34.45100000
 O      29.02600000      21.05300000      34.73600000
 H      29.80800000      21.66100000      34.88100000
 H      28.71300000      21.28400000      33.82500000
 O      25.58200000      24.59000000      34.63800000
 H      25.94000000      24.81000000      35.58500000
 H      26.22700000      25.10300000      34.08500000
 O      30.16000000      29.39900000      36.80500000
 H      30.26600000      29.84600000      37.69300000
 H      30.95300000      28.78600000      36.85200000
 O      33.29500000      28.73400000      26.68000000
 H      33.69600000      28.66700000      25.73100000
 H      33.99600000      28.35000000      27.32000000
 O      36.24400000      22.77700000      25.65900000
 H      35.44700000      22.14600000      25.63200000
 H      36.69000000      22.41400000      26.43800000
 O      33.21200000      22.57100000      27.28600000
 H      32.52000000      23.03700000      26.93000000
 H      32.79400000      21.88700000      27.88600000
 O      33.61000000      24.33900000      30.20200000
 H      33.40000000      23.61400000      30.86000000
 H      34.57400000      24.51700000      30.19500000
 O      36.17900000      29.64000000      27.98300000
 H      36.10800000      29.68900000      27.03400000
 H      36.15900000      28.66100000      28.12400000
 O      32.49700000      26.32900000      28.76900000
 H      32.21100000      27.06500000      29.37000000
 H      32.85400000      25.57300000      29.26200000
 O      35.09400000      26.74200000      27.66700000
 H      34.33500000      26.18900000      27.70400000
 H      35.73100000      26.13400000      27.95600000
 O      35.92400000      22.21200000      28.60000000
 H      36.01300000      23.21200000      28.67300000
 H      34.98400000      22.04900000      28.50800000
 O      33.74700000      20.62100000      33.35000000
 H      33.04800000      19.98800000      33.57600000
 H      33.61600000      21.29500000      34.00700000
 O      34.76000000      29.74400000      33.78100000
 H      34.39800000      30.41600000      33.26400000
 H      35.56900000      29.38600000      33.27000000
 O      35.02600000      28.11200000      36.27300000
 H      35.91100000      27.74800000      35.99900000
 H      34.84600000      28.75500000      35.52200000
 O      32.85800000      26.02000000      34.70200000
 H      33.56700000      25.87700000      34.00200000
 H      33.02500000      25.23500000      35.24000000
 O      35.22700000      26.60200000      33.14700000
 H      35.74100000      27.16100000      33.78300000
 H      35.75500000      26.87100000      32.33300000
 O      36.01300000      23.42000000      32.95600000
 H      36.28700000      22.76400000      33.61000000
 H      36.35500000      23.07100000      32.14800000
 O      34.76600000      24.21200000      35.84100000
 H      35.25800000      24.99500000      35.41000000
 H      35.31500000      23.46700000      35.57700000
 O      32.32500000      27.99900000      32.61400000
 H      31.99800000      27.40900000      33.37000000
 H      32.93000000      28.37600000      33.17900000
 O      32.32500000      23.05600000      35.35700000
 H      31.45100000      23.42800000      35.55700000
 H      32.98900000      23.45200000      36.00700000
