126
XYZ file of cluster: frame_18000_c62f0.6fb26.74f46 - created by MolEdiTo
 O      29.49500000      15.91800000      21.03700000
 H      28.45600000      15.83400000      20.91800000
 H      29.62200000      16.76300000      20.55400000
 O      27.00500000      18.05200000      18.72800000
 H      26.05400000      17.85400000      18.78100000
 H      27.07000000      18.95800000      19.18900000
 O      29.71200000      15.56900000      25.61700000
 H      30.06400000      15.68300000      26.56500000
 H      29.00000000      16.23500000      25.57000000
 O      30.19600000      22.89000000      18.00800000
 H      29.58900000      22.93900000      18.84100000
 H      29.83300000      22.12200000      17.50600000
 O      26.32800000      23.64400000      17.61600000
 H      26.94100000      24.00900000      18.32300000
 H      26.88500000      23.03600000      17.08200000
 O      29.03000000      19.25200000      26.43200000
 H      28.09500000      19.12000000      26.51100000
 H      29.10000000      19.15600000      25.45200000
 O      29.78600000      19.67700000      19.64600000
 H      30.01000000      20.28500000      20.45200000
 H      28.84100000      19.67000000      19.56600000
 O      29.58600000      17.20200000      18.29200000
 H      28.63600000      17.36500000      18.49300000
 H      29.96900000      18.08700000      18.49200000
 O      26.38600000      21.37100000      22.23200000
 H      26.57000000      22.33000000      22.11900000
 H      26.17600000      21.19400000      23.18900000
 O      30.08900000      21.36800000      21.73300000
 H      29.78300000      20.62500000      22.27200000
 H      29.50700000      22.10200000      22.01000000
 O      28.54700000      23.69000000      24.94500000
 H      28.64000000      23.94300000      25.83600000
 H      29.47600000      23.45900000      24.69800000
 O      27.92200000      24.37200000      19.68000000
 H      27.73200000      24.35600000      20.66400000
 H      28.53700000      25.17700000      19.52100000
 O      27.06400000      15.29300000      19.86600000
 H      26.71400000      14.40700000      19.71800000
 H      26.53800000      15.90100000      19.34100000
 O      28.19000000      19.39700000      23.48300000
 H      27.76600000      18.50800000      23.07800000
 H      27.49000000      20.05900000      23.21900000
 O      28.47300000      25.32200000      15.82100000
 H      27.96600000      25.24100000      16.68800000
 H      28.06300000      24.86700000      15.03200000
 O      29.89400000      26.50200000      19.04400000
 H      30.76600000      26.16100000      19.20700000
 H      30.00600000      26.98800000      18.23400000
 O      26.42700000      17.85900000      25.74600000
 H      25.63700000      17.91200000      25.10600000
 H      26.04400000      17.37100000      26.48800000
 O      26.88500000      20.77900000      19.57900000
 H      27.22100000      21.35700000      20.29500000
 H      26.16600000      21.31900000      19.22200000
 O      29.70800000      20.92700000      16.15300000
 H      29.80500000      20.64000000      15.24400000
 H      28.78500000      21.26600000      16.00500000
 O      27.86500000      16.38100000      15.87700000
 H      28.07600000      15.46800000      16.12400000
 H      28.50600000      16.93700000      16.34900000
 O      26.41000000      17.78100000      22.08500000
 H      25.71500000      17.49100000      22.74000000
 H      26.36300000      17.20500000      21.27600000
 O      27.18600000      24.09500000      22.51600000
 H      27.75500000      24.08600000      23.32600000
 H      26.43200000      24.62000000      22.71800000
 O      34.80000000      15.56400000      17.63200000
 H      34.50500000      16.41400000      17.29500000
 H      33.95900000      15.21000000      17.99000000
 O      36.05400000      23.80700000      23.45800000
 H      36.19200000      24.34200000      22.69300000
 H      35.37800000      23.18600000      23.27500000
 O      34.15500000      26.62100000      22.01400000
 H      34.19200000      27.55200000      21.57200000
 H      34.06900000      25.93200000      21.29800000
 O      32.76400000      25.40800000      16.45300000
 H      32.02900000      25.81900000      15.99900000
 H      32.34000000      24.73700000      17.02200000
 O      35.78800000      20.99600000      19.57800000
 H      36.67100000      20.74900000      19.36200000
 H      35.32600000      21.38900000      18.77500000
 O      32.88400000      23.88700000      24.72700000
 H      32.96700000      24.88000000      24.76300000
 H      33.77400000      23.67900000      24.98400000
 O      32.90100000      16.41900000      23.02800000
 H      32.31100000      15.96900000      22.35100000
 H      32.25100000      16.75200000      23.71900000
 O      35.06600000      19.45300000      25.09100000
 H      34.38700000      19.70700000      25.74400000
 H      35.17400000      20.21000000      24.49800000
 O      36.03200000      18.41100000      22.20900000
 H      35.65500000      18.43100000      21.30600000
 H      35.24100000      18.33300000      22.82000000
 O      36.11900000      22.87000000      15.71500000
 H      37.10600000      23.09900000      15.61200000
 H      35.75600000      23.80400000      15.82900000
 O      32.84600000      18.36500000      16.31600000
 H      32.35000000      17.94200000      17.03700000
 H      32.59100000      19.34600000      16.36800000
 O      35.78900000      25.60900000      15.74400000
 H      36.66200000      26.10600000      15.48000000
 H      35.71100000      25.46400000      16.74900000
 O      34.08600000      18.69500000      19.94400000
 H      34.77700000      19.46500000      19.95500000
 H      33.14900000      19.06600000      19.91400000
 O      34.30100000      15.81600000      20.64800000
 H      34.90200000      16.51200000      20.37400000
 H      33.90600000      16.25100000      21.47200000
 O      34.31600000      21.51200000      17.30400000
 H      33.53900000      22.04000000      17.51500000
 H      34.99200000      22.09700000      16.84100000
 O      37.37200000      17.32400000      19.01800000
 H      37.16000000      16.41300000      19.29500000
 H      36.50800000      17.75000000      18.82100000
 O      36.21000000      24.44600000      18.38500000
 H      36.96800000      23.85400000      18.28800000
 H      36.74400000      25.21200000      18.77500000
 O      37.54400000      18.91800000      26.39500000
 H      38.31800000      18.78400000      25.85500000
 H      36.82000000      19.20800000      25.76400000
 O      34.82600000      21.33200000      22.57700000
 H      35.51400000      20.98700000      21.96100000
 H      33.98300000      21.35200000      22.00800000
 O      34.05000000      24.66500000      19.90000000
 H      33.77700000      23.66400000      19.89900000
 H      34.65900000      24.70800000      19.11100000
