129
XYZ file of cluster: frame_18000_9d73c.e44.1dd28 - created by MolEdiTo
 O      22.06400000       4.71300000       9.56800000
 H      21.97900000       5.39200000      10.31200000
 H      21.82400000       3.86800000       9.94600000
 O      21.21500000       2.30800000       6.50600000
 H      21.34500000       1.54400000       7.09300000
 H      20.36800000       2.79300000       6.89600000
 O      26.30200000       6.08500000       7.97300000
 H      26.28800000       5.15100000       8.32700000
 H      25.65600000       6.55900000       8.53500000
 O      22.17000000       2.00500000      15.20800000
 H      22.23300000       2.86600000      14.77100000
 H      22.94500000       1.53200000      14.80900000
 O      21.28800000       6.27700000      11.70400000
 H      20.76700000       6.12900000      12.50400000
 H      21.32300000       7.21300000      11.73900000
 O      22.01500000       9.38000000      11.35400000
 H      21.53600000      10.15800000      11.79600000
 H      22.22000000       9.83200000      10.46900000
 O      26.33000000       8.21600000      11.17100000
 H      26.81700000       8.07700000      10.29000000
 H      25.55800000       7.63000000      11.07000000
 O      21.02900000       6.61900000      14.77600000
 H      21.25300000       5.99500000      15.53300000
 H      21.76200000       7.29000000      14.96400000
 O      27.77400000       1.17300000      15.64900000
 H      26.88600000       1.49800000      15.41400000
 H      28.19900000       0.89000000      14.82400000
 O      25.06200000       6.51500000      13.52100000
 H      24.54100000       6.26800000      14.33700000
 H      25.01600000       7.53300000      13.43600000
 O      25.00000000       3.46500000       8.50400000
 H      24.61900000       3.30400000       7.60300000
 H      24.18500000       3.43800000       9.05600000
 O      30.60700000      11.06900000       5.84400000
 H      31.15200000      10.47000000       5.25700000
 H      30.32400000      11.74400000       5.14000000
 O      29.19700000       9.13200000      14.75600000
 H      29.49700000       9.65400000      13.93300000
 H      28.62900000       9.84300000      15.11000000
 O      24.13800000       6.79200000      10.32700000
 H      23.25700000       6.62500000       9.87600000
 H      23.79600000       7.23800000      11.18500000
 O      25.39400000       9.29800000      13.74700000
 H      25.63500000       9.08600000      12.81100000
 H      26.00100000      10.02900000      13.98200000
 O      30.63200000       1.19300000      11.22100000
 H      30.76500000       1.99400000      11.81300000
 H      29.99200000       0.60900000      11.72800000
 O      26.47800000       0.95900000       8.15100000
 H      26.03300000       1.57800000       8.77700000
 H      27.31200000       0.66000000       8.43000000
 O      22.85800000       8.73300000      14.39700000
 H      23.76500000       9.08100000      14.33100000
 H      22.31400000       8.95500000      13.63900000
 O      30.60200000       9.93100000      12.48800000
 H      30.32700000      10.85700000      12.39100000
 H      31.49500000       9.81500000      12.85400000
 O      22.97100000       6.88700000       6.62100000
 H      22.69200000       7.60900000       6.08200000
 H      23.75100000       6.63300000       6.13700000
 O      23.40900000       0.96600000       9.79000000
 H      22.80200000       0.77900000       9.06000000
 H      22.87900000       1.11900000      10.59900000
 O      21.08900000       2.42700000      11.19700000
 H      20.76200000       1.44800000      11.25000000
 H      20.80200000       2.81700000      12.09300000
 O      27.66400000       9.66600000       4.49900000
 H      28.27000000       9.40700000       3.83300000
 H      28.12500000      10.02900000       5.29400000
 O      21.35400000       4.07900000      13.50700000
 H      21.35200000       5.06400000      13.70600000
 H      22.21800000       3.94800000      12.99700000
 O      29.55900000       9.12400000       7.37800000
 H      29.88300000       9.82700000       6.70600000
 H      30.35600000       8.88400000       7.88000000
 O      28.95800000       3.14300000      13.61900000
 H      28.74300000       3.74500000      14.34300000
 H      29.55000000       3.68400000      13.03100000
 O      28.76800000       4.72400000      10.39200000
 H      28.85700000       5.69200000      10.66800000
 H      27.81300000       4.46500000      10.60500000
 O      24.08300000       3.19000000      13.21200000
 H      24.57200000       3.20900000      14.01800000
 H      24.84600000       3.33000000      12.56800000
 O      26.45500000      10.93200000       6.65000000
 H      26.06500000      11.54500000       7.30300000
 H      26.43700000      10.11200000       7.20600000
 O      27.39300000       8.95100000       8.82200000
 H      28.27500000       8.97000000       8.28000000
 H      27.69200000       9.63900000       9.44400000
 O      23.81000000       3.23100000       6.06200000
 H      22.86200000       2.90700000       6.04700000
 H      23.69300000       4.01200000       5.41200000
 O      29.46100000       4.08400000       6.53500000
 H      29.12500000       5.01700000       6.29400000
 H      28.69900000       3.65000000       6.99800000
 O      27.59800000       1.06200000       5.57400000
 H      27.24100000       1.17600000       6.52500000
 H      27.72900000       0.11500000       5.40000000
 O      29.37100000       2.05400000       8.72900000
 H      29.65300000       1.56000000       9.60900000
 H      28.95000000       2.84700000       9.05000000
 O      28.26900000       6.11400000      14.28100000
 H      28.37900000       7.04200000      13.87700000
 H      27.46300000       6.12800000      14.86800000
 O      28.60200000       6.57800000       6.43100000
 H      27.87100000       6.66500000       7.11200000
 H      29.07400000       7.44300000       6.63100000
 O      23.85100000       9.47500000       8.80700000
 H      24.17700000       8.56600000       8.83000000
 H      23.37800000       9.59500000       7.97800000
 O      20.64100000       5.23400000       7.25600000
 H      21.26500000       5.88200000       6.78800000
 H      21.12400000       4.91900000       8.05100000
 O      22.26900000      11.25900000      15.30800000
 H      21.74900000      11.45300000      14.44000000
 H      22.71900000      10.37200000      15.33500000
 O      25.94300000       4.80700000      11.44500000
 H      25.32800000       5.33200000      10.86600000
 H      25.88100000       5.39300000      12.24100000
 O      26.71500000       2.01100000      11.10700000
 H      27.55900000       2.26300000      11.61900000
 H      26.33900000       2.87600000      11.03300000
 O      29.84900000       7.80000000      10.88400000
 H      30.10900000       8.49900000      11.51000000
 H      30.70200000       7.55000000      10.44400000
 O      26.50900000       5.74800000       4.65800000
 H      27.13400000       6.12500000       5.27900000
 H      26.73800000       4.81500000       4.74800000
