102
XYZ file of cluster: frame_18000_c3293.72573.9e848 - created by MolEdiTo
 O      28.62300000      19.93600000      29.93900000
 H      28.65700000      20.07700000      28.94500000
 H      29.54700000      19.78600000      30.15800000
 O      29.49500000      15.91800000      21.03700000
 H      28.45600000      15.83400000      20.91800000
 H      29.62200000      16.76300000      20.55400000
 O      26.42700000      17.85900000      25.74600000
 H      25.63700000      17.91200000      25.10600000
 H      26.04400000      17.37100000      26.48800000
 O      29.03000000      19.25200000      26.43200000
 H      28.09500000      19.12000000      26.51100000
 H      29.10000000      19.15600000      25.45200000
 O      29.71200000      15.56900000      25.61700000
 H      30.06400000      15.68300000      26.56500000
 H      29.00000000      16.23500000      25.57000000
 O      28.38000000      17.04500000      28.85400000
 H      28.33600000      17.99400000      28.54100000
 H      28.48600000      16.98800000      29.79100000
 O      26.45900000      19.70100000      28.11000000
 H      25.54700000      19.99000000      27.86500000
 H      26.51900000      19.52700000      29.10900000
 O      26.38600000      21.37100000      22.23200000
 H      26.57000000      22.33000000      22.11900000
 H      26.17600000      21.19400000      23.18900000
 O      26.19700000      26.03500000      29.18700000
 H      26.52800000      25.26700000      28.67000000
 H      25.24600000      26.23200000      28.95000000
 O      30.08900000      21.36800000      21.73300000
 H      29.78300000      20.62500000      22.27200000
 H      29.50700000      22.10200000      22.01000000
 O      25.86600000      15.95300000      28.25000000
 H      25.90600000      15.16500000      27.66600000
 H      26.96500000      16.22800000      28.23100000
 O      28.54700000      23.69000000      24.94500000
 H      28.64000000      23.94300000      25.83600000
 H      29.47600000      23.45900000      24.69800000
 O      27.27700000      22.18300000      29.91000000
 H      27.91500000      22.58000000      29.23600000
 H      27.62200000      21.26200000      30.10100000
 O      29.23900000      22.69300000      27.97400000
 H      29.91700000      22.05000000      27.66000000
 H      29.72200000      23.56200000      27.81700000
 O      28.19000000      19.39700000      23.48300000
 H      27.76600000      18.50800000      23.07800000
 H      27.49000000      20.05900000      23.21900000
 O      26.41000000      17.78100000      22.08500000
 H      25.71500000      17.49100000      22.74000000
 H      26.36300000      17.20500000      21.27600000
 O      27.18600000      24.09500000      22.51600000
 H      27.75500000      24.08600000      23.32600000
 H      26.43200000      24.62000000      22.71800000
 O      36.13100000      15.29400000      29.19400000
 H      36.42300000      14.74800000      28.47700000
 H      36.91500000      15.83400000      29.38800000
 O      34.31600000      23.07200000      28.82900000
 H      34.37800000      24.00500000      28.93000000
 H      34.37700000      22.97500000      27.86800000
 O      32.68300000      20.85800000      27.28300000
 H      32.12600000      20.21700000      26.80900000
 H      32.83000000      20.66300000      28.27800000
 O      34.15500000      26.62100000      22.01400000
 H      34.19200000      27.55200000      21.57200000
 H      34.06900000      25.93200000      21.29800000
 O      37.54400000      18.91800000      26.39500000
 H      38.31800000      18.78400000      25.85500000
 H      36.82000000      19.20800000      25.76400000
 O      32.82500000      25.61300000      28.20500000
 H      33.42800000      26.37900000      28.17700000
 H      32.11600000      25.79700000      28.87100000
 O      34.30100000      15.81600000      20.64800000
 H      34.90200000      16.51200000      20.37400000
 H      33.90600000      16.25100000      21.47200000
 O      32.88400000      23.88700000      24.72700000
 H      32.96700000      24.88000000      24.76300000
 H      33.77400000      23.67900000      24.98400000
 O      32.90100000      16.41900000      23.02800000
 H      32.31100000      15.96900000      22.35100000
 H      32.25100000      16.75200000      23.71900000
 O      35.06600000      19.45300000      25.09100000
 H      34.38700000      19.70700000      25.74400000
 H      35.17400000      20.21000000      24.49800000
 O      36.03200000      18.41100000      22.20900000
 H      35.65500000      18.43100000      21.30600000
 H      35.24100000      18.33300000      22.82000000
 O      36.05400000      23.80700000      23.45800000
 H      36.19200000      24.34200000      22.69300000
 H      35.37800000      23.18600000      23.27500000
 O      36.07700000      20.83800000      29.56100000
 H      36.00700000      21.13700000      28.62600000
 H      36.13800000      21.70000000      30.01900000
 O      34.44400000      18.26600000      28.76600000
 H      35.37900000      18.50800000      28.80700000
 H      33.98500000      18.85000000      29.38300000
 O      34.82600000      21.33200000      22.57700000
 H      35.51400000      20.98700000      21.96100000
 H      33.98300000      21.35200000      22.00800000
 O      33.45300000      16.00000000      27.33100000
 H      33.66900000      16.89800000      27.63700000
 H      33.76800000      15.42300000      28.08200000
 O      33.23100000      20.84400000      30.00000000
 H      33.70100000      21.59900000      29.59200000
 H      34.00500000      20.55900000      30.58400000
