120
XYZ file of cluster: frame_18000_c48b7.75633.13ab - created by MolEdiTo
 O      30.41100000      23.59500000       1.12500000
 H      29.58100000      23.93900000       1.39000000
 H      30.31700000      23.48400000       0.15800000
 O      29.11200000      24.80100000       4.09300000
 H      29.19700000      25.69500000       3.90800000
 H      28.24100000      24.51000000       4.01200000
 O      27.52100000      23.53500000       6.30100000
 H      27.33900000      23.40500000       5.35500000
 H      27.69400000      24.52000000       6.31200000
 O      30.72800000      24.45300000       6.29200000
 H      30.45500000      25.40700000       6.41400000
 H      30.44200000      24.32600000       5.40300000
 O      26.43700000      26.76800000       9.01200000
 H      26.73600000      26.02500000       9.62500000
 H      25.49300000      26.55600000       8.86900000
 O      26.87600000      22.85500000       3.67400000
 H      27.62300000      22.18400000       3.44400000
 H      26.65400000      23.34500000       2.81900000
 O      27.26400000      18.37200000       4.90800000
 H      26.45300000      17.97400000       4.60100000
 H      27.59300000      18.77400000       4.10200000
 O      28.51300000      18.62500000      10.17400000
 H      29.46700000      18.32200000      10.23800000
 H      28.11000000      17.89100000       9.58900000
 O      29.56700000      18.90800000       6.79700000
 H      29.37000000      18.26000000       6.14000000
 H      29.13200000      18.69200000       7.64100000
 O      27.22800000      24.51700000       1.28500000
 H      27.16000000      23.68500000       0.71300000
 H      26.81200000      25.15400000       0.75000000
 O      28.82100000      26.94300000       2.24100000
 H      28.59000000      26.17500000       1.65200000
 H      28.62200000      27.75100000       1.72700000
 O      25.84200000      22.27500000       8.55100000
 H      26.55100000      22.60600000       7.86000000
 H      26.22600000      21.37900000       8.74400000
 O      27.11200000      24.70600000      10.60400000
 H      28.03300000      24.79200000      10.79800000
 H      26.92100000      23.74200000      10.45500000
 O      27.61300000      16.43700000       8.56800000
 H      27.72600000      16.06600000       7.68600000
 H      26.62300000      16.49100000       8.54800000
 O      27.82800000      21.58900000      10.85200000
 H      28.08600000      21.80600000       9.90100000
 H      28.22100000      20.70600000      10.90300000
 O      30.30300000      21.67200000       5.37200000
 H      29.86300000      20.86500000       5.72100000
 H      29.91100000      22.38600000       5.86100000
 O      26.06700000      18.73300000       0.85800000
 H      27.02000000      18.60700000       1.06100000
 H      25.61600000      18.41300000       1.63100000
 O      26.12300000      19.49500000       7.25200000
 H      25.42500000      18.92500000       6.89300000
 H      26.92300000      19.24800000       6.72900000
 O      30.54800000      26.57200000       9.72700000
 H      30.36500000      26.02700000      10.48900000
 H      31.53700000      26.81300000       9.79200000
 O      28.62600000      20.57500000       3.20600000
 H      28.98800000      19.82400000       2.67300000
 H      29.29300000      20.90600000       3.77600000
 O      28.61300000      17.66000000       1.82000000
 H      29.49200000      17.45500000       2.23000000
 H      28.23400000      16.79300000       2.13500000
 O      28.70000000      21.70500000       8.31900000
 H      28.47500000      22.51100000       7.78000000
 H      29.65500000      21.97600000       8.61800000
 O      35.02100000      22.93600000       6.22700000
 H      34.13600000      23.12500000       6.69300000
 H      35.31200000      23.81000000       5.89400000
 O      32.37000000      15.75500000       6.66900000
 H      32.24400000      16.57800000       7.18100000
 H      32.72300000      15.14100000       7.41900000
 O      33.73700000      22.08100000       3.16100000
 H      33.18400000      22.27500000       3.97700000
 H      33.30600000      22.63800000       2.49700000
 O      35.67600000      22.24000000       9.63400000
 H      35.32700000      22.57200000      10.53100000
 H      35.76300000      21.23000000       9.75200000
 O      36.13000000      20.37300000       7.12500000
 H      35.78200000      21.24200000       6.93800000
 H      36.49300000      20.49500000       8.01400000
 O      35.56700000      16.34200000       8.90200000
 H      35.71300000      16.49600000       7.91900000
 H      36.38300000      16.13700000       9.31300000
 O      35.84400000      22.99200000       1.74200000
 H      35.65000000      23.95700000       1.54100000
 H      35.05200000      22.72700000       2.25200000
 O      36.04600000      19.34400000       9.98700000
 H      36.71900000      18.91400000      10.46200000
 H      35.37700000      18.66200000       9.72500000
 O      37.24100000      20.09900000       4.39500000
 H      36.57000000      19.85300000       3.79200000
 H      36.91200000      20.22200000       5.32100000
 O      32.68200000      17.54700000       9.83200000
 H      33.38200000      17.31500000      10.53000000
 H      33.17500000      17.64000000       8.99700000
 O      32.79100000      23.01800000      10.13300000
 H      33.47300000      23.09300000       9.47200000
 H      33.32400000      22.67500000      10.85000000
 O      33.84700000      18.79000000       6.71200000
 H      33.09300000      19.47400000       6.71600000
 H      34.67000000      19.33800000       6.69100000
 O      35.76000000      18.23600000       1.72000000
 H      35.35600000      17.60800000       1.07000000
 H      35.05100000      18.54200000       2.23900000
 O      32.75400000      17.10400000       2.74700000
 H      33.18600000      16.72300000       3.52300000
 H      32.75000000      16.33200000       2.14200000
 O      34.31400000      19.44400000       3.84500000
 H      34.13100000      20.36500000       3.61700000
 H      34.01900000      19.44400000       4.73700000
 O      37.43800000      24.38200000       8.61800000
 H      36.78000000      25.03600000       8.44900000
 H      36.78700000      23.61500000       8.82200000
 O      35.73500000      25.47100000       0.80500000
 H      35.14200000      26.20100000       0.94000000
 H      36.44300000      26.01200000       0.44200000
 O      34.56500000      25.67100000       8.29700000
 H      35.00100000      26.46600000       7.80200000
 H      33.61500000      25.56400000       8.03300000
