120
XYZ file of cluster: frame_18000_1151.c6325.22c74 - created by MolEdiTo
 O       6.50800000      27.32500000      15.16700000
 H       5.72200000      27.84700000      15.01000000
 H       7.03500000      27.55100000      14.36500000
 O       6.28300000      26.58000000      12.46900000
 H       6.73800000      26.27500000      11.68200000
 H       6.51500000      25.94500000      13.20900000
 O      11.28000000      30.07700000      15.36700000
 H      10.43400000      30.47800000      15.57600000
 H      11.07700000      29.85200000      14.39200000
 O       3.73700000      26.36700000      11.30200000
 H       4.57700000      26.69400000      11.78000000
 H       4.02000000      26.45600000      10.45900000
 O       1.26400000      27.24700000       5.93100000
 H       2.15800000      27.58700000       6.03400000
 H       0.71100000      28.07700000       6.09900000
 O       2.22700000      29.21900000      10.18000000
 H       2.08400000      29.06000000      11.14300000
 H       1.51100000      29.89300000       9.94600000
 O       9.06200000      29.36200000      12.75200000
 H       9.55200000      29.70700000      11.98500000
 H       9.16100000      28.39500000      12.59900000
 O       2.21600000      28.16400000      12.79700000
 H       3.00400000      28.60900000      13.09800000
 H       2.62200000      27.33000000      12.53400000
 O       2.98300000      25.67100000       8.29700000
 H       3.41900000      26.46600000       7.80200000
 H       2.03300000      25.56400000       8.03300000
 O       7.73700000      29.12900000       5.10700000
 H       8.20700000      28.47300000       5.60900000
 H       7.20100000      28.59100000       4.49000000
 O       9.63900000      26.82900000      11.75900000
 H       8.84800000      26.48900000      11.20500000
 H       9.93800000      25.95100000      12.18200000
 O       4.23400000      28.84800000      14.75100000
 H       4.60800000      29.76100000      15.00200000
 H       3.60600000      28.67000000      15.56300000
 O       8.22000000      30.08000000      15.27300000
 H       8.29700000      29.78400000      14.34800000
 H       8.33200000      31.05400000      15.31200000
 O       3.72400000      28.75400000       7.27900000
 H       4.05600000      29.21800000       6.44200000
 H       3.42900000      29.60700000       7.65200000
 O       1.51000000      30.21100000      16.10400000
 H       0.59600000      30.41300000      16.01900000
 H       1.84000000      30.52300000      15.22200000
 O       5.94600000      27.06200000       7.57200000
 H       5.85900000      26.47200000       6.70700000
 H       5.03200000      27.51700000       7.65400000
 O      11.22000000      28.89100000      10.68000000
 H      12.01500000      28.52600000      11.14300000
 H      10.45000000      28.35200000      10.93100000
 O       9.36000000      27.88700000       7.30000000
 H      10.32000000      27.59000000       7.56500000
 H       8.82100000      27.10500000       7.48500000
 O       7.31500000      29.64800000      10.32000000
 H       7.97800000      29.98800000       9.66600000
 H       7.06600000      28.83000000       9.88200000
 O       8.12600000      30.34600000       7.54700000
 H       7.78900000      30.33500000       6.56100000
 H       8.66400000      29.49000000       7.54200000
 O       4.15600000      32.47700000      12.05100000
 H       4.47900000      32.05500000      11.25800000
 H       4.95300000      32.65900000      12.54800000
 O       1.07300000      36.65800000       8.91900000
 H       0.14000000      36.70500000       9.29200000
 H       0.78100000      36.36900000       8.07800000
 O       2.49700000      32.83900000       8.20100000
 H       1.95700000      33.70000000       8.31600000
 H       2.83000000      32.49000000       9.06700000
 O       7.53500000      34.29300000       8.56700000
 H       6.58700000      34.57700000       8.39400000
 H       7.56500000      33.43600000       8.13300000
 O       3.64200000      37.38400000      10.63200000
 H       4.01300000      36.61000000      11.22500000
 H       4.22000000      37.28100000       9.79500000
 O      10.65000000      35.74500000       5.32100000
 H      10.33800000      35.35500000       4.47000000
 H      11.44200000      35.15000000       5.40400000
 O       2.63200000      33.51500000       4.72900000
 H       3.47300000      33.06800000       5.04400000
 H       2.53400000      34.08200000       5.51300000
 O       1.60600000      35.25100000      12.06500000
 H       2.12300000      35.76500000      11.42500000
 H       2.06000000      35.44900000      12.93900000
 O       2.58300000      35.92300000       6.29300000
 H       1.89800000      36.65800000       6.15400000
 H       2.87200000      36.03100000       7.19500000
 O      10.43200000      34.29200000       7.83800000
 H       9.62300000      34.18200000       8.36400000
 H      10.14600000      33.77500000       7.06400000
 O       9.16900000      36.59300000       9.46000000
 H       9.46400000      36.76900000      10.36700000
 H       8.62200000      35.71000000       9.45300000
 O       5.29800000      32.67300000       5.49900000
 H       6.19600000      33.12200000       5.41300000
 H       5.32200000      31.94200000       4.90100000
 O       7.12100000      33.02700000      12.64200000
 H       7.92000000      33.16600000      13.09600000
 H       7.43500000      32.19100000      12.11700000
 O       5.22300000      36.74800000       5.39900000
 H       4.32900000      36.54500000       5.03700000
 H       5.11900000      37.71200000       5.66000000
 O       5.85000000      35.50100000      11.94100000
 H       6.01200000      35.12600000      11.05000000
 H       6.23400000      34.83400000      12.51200000
 O       2.11200000      33.01100000      13.86200000
 H       1.92500000      33.96200000      13.95600000
 H       2.50500000      32.73200000      13.01900000
 O       7.38900000      34.82100000       5.53200000
 H       6.78400000      35.61500000       5.31400000
 H       7.91700000      35.37700000       6.17300000
 O       9.42100000      34.04200000      14.49000000
 H      10.24300000      34.59400000      14.24900000
 H       8.81100000      34.64200000      14.95200000
 O       3.60900000      36.04600000      14.14500000
 H       3.69400000      36.93200000      14.61600000
 H       4.45800000      36.00500000      13.65300000
 O       4.81900000      34.77500000       7.73500000
 H       4.25900000      34.02400000       7.56100000
 H       5.13100000      35.17600000       6.89800000
