105
XYZ file of cluster: frame_18000_c5120.c6325.bbd9 - created by MolEdiTo
 O      28.34200000      29.81700000       1.64000000
 H      27.41800000      29.63000000       2.01500000
 H      28.66500000      30.66800000       2.00200000
 O      30.04100000      29.46100000       6.72100000
 H      30.70000000      30.13800000       6.53100000
 H      29.53600000      29.92700000       7.46100000
 O      30.54800000      26.57200000       9.72700000
 H      30.36500000      26.02700000      10.48900000
 H      31.53700000      26.81300000       9.79200000
 O      26.43700000      26.76800000       9.01200000
 H      26.73600000      26.02500000       9.62500000
 H      25.49300000      26.55600000       8.86900000
 O      28.52400000      26.65700000       7.11000000
 H      27.73600000      26.64400000       7.71900000
 H      29.21400000      27.03200000       7.63400000
 O      28.82100000      26.94300000       2.24100000
 H      28.59000000      26.17500000       1.65200000
 H      28.62200000      27.75100000       1.72700000
 O      27.28000000      28.43800000       5.12600000
 H      26.56700000      28.17900000       4.55800000
 H      27.64200000      27.59600000       5.47100000
 O      28.57300000      29.08000000       9.62500000
 H      29.28600000      28.36500000       9.56800000
 H      27.68600000      28.66900000       9.64400000
 O      29.46100000      35.57400000       6.53500000
 H      29.12500000      36.50700000       6.29400000
 H      28.69900000      35.14000000       6.99800000
 O      27.59800000      32.55200000       5.57400000
 H      27.24100000      32.66600000       6.52500000
 H      27.72900000      31.60500000       5.40000000
 O      29.37100000      33.54400000       8.72900000
 H      29.65300000      33.05000000       9.60900000
 H      28.95000000      34.33700000       9.05000000
 O      26.50900000      37.23800000       4.65800000
 H      27.13400000      37.61500000       5.27900000
 H      26.73800000      36.30500000       4.74800000
 O      26.41900000      34.34600000       4.20000000
 H      25.64000000      34.46600000       4.74300000
 H      26.91900000      33.58000000       4.58800000
 O      28.76800000      36.21400000      10.39200000
 H      28.85700000      37.18200000      10.66800000
 H      27.81300000      35.95500000      10.60500000
 O      27.97100000      35.34900000       2.32900000
 H      27.42500000      35.20800000       1.50900000
 H      27.53000000      34.94700000       3.07900000
 O      26.47800000      32.44900000       8.15100000
 H      26.03300000      33.06800000       8.77700000
 H      27.31200000      32.15000000       8.43000000
 O      30.01300000      32.91500000       3.53600000
 H      30.93400000      33.06400000       3.95200000
 H      29.40900000      33.37300000       4.06700000
 O      32.60700000      28.69800000       3.23400000
 H      31.72300000      28.27300000       3.42700000
 H      32.30800000      29.61400000       3.02200000
 O      37.52800000      27.06200000       7.57200000
 H      37.44100000      26.47200000       6.70700000
 H      36.61400000      27.51700000       7.65400000
 O      35.56400000      28.86900000       4.48100000
 H      34.70900000      29.21400000       4.23000000
 H      35.56500000      28.02700000       3.98100000
 O      35.31900000      26.36700000      11.30200000
 H      36.15900000      26.69400000      11.78000000
 H      35.60200000      26.45600000      10.45900000
 O      32.84600000      27.24700000       5.93100000
 H      33.74000000      27.58700000       6.03400000
 H      32.29300000      28.07700000       6.09900000
 O      33.80900000      29.21900000      10.18000000
 H      33.66600000      29.06000000      11.14300000
 H      33.09300000      29.89300000       9.94600000
 O      35.30600000      28.75400000       7.27900000
 H      35.63800000      29.21800000       6.44200000
 H      35.01100000      29.60700000       7.65200000
 O      34.56500000      25.67100000       8.29700000
 H      35.00100000      26.46600000       7.80200000
 H      33.61500000      25.56400000       8.03300000
 O      34.80400000      36.24200000       2.81600000
 H      35.17800000      35.43800000       3.22400000
 H      33.92900000      35.75500000       2.82900000
 O      32.65500000      36.65800000       8.91900000
 H      31.72200000      36.70500000       9.29200000
 H      32.36300000      36.36900000       8.07800000
 O      34.07900000      32.83900000       8.20100000
 H      33.53900000      33.70000000       8.31600000
 H      34.41200000      32.49000000       9.06700000
 O      35.22400000      37.38400000      10.63200000
 H      35.59500000      36.61000000      11.22500000
 H      35.80200000      37.28100000       9.79500000
 O      36.80500000      36.74800000       5.39900000
 H      35.91100000      36.54500000       5.03700000
 H      36.70100000      37.71200000       5.66000000
 O      32.33700000      34.99700000       1.56000000
 H      31.88100000      35.76200000       1.95500000
 H      31.85600000      34.16200000       1.74200000
 O      36.40100000      34.77500000       7.73500000
 H      35.84100000      34.02400000       7.56100000
 H      36.71300000      35.17600000       6.89800000
 O      35.70000000      32.47100000       1.81700000
 H      35.41000000      32.82200000       2.67400000
 H      36.63400000      32.60500000       1.81100000
 O      34.16500000      35.92300000       6.29300000
 H      33.48000000      36.65800000       6.15400000
 H      34.45400000      36.03100000       7.19500000
 O      34.21400000      33.51500000       4.72900000
 H      35.05500000      33.06800000       5.04400000
 H      34.11600000      34.08200000       5.51300000
