99
XYZ file of cluster: frame_18000_c3391.0.70e0b - created by MolEdiTo
 O      27.70000000      10.56400000      22.23400000
 H      27.31100000       9.93900000      22.87600000
 H      27.17700000      10.29200000      21.42800000
 O      30.39200000       8.33600000      24.90200000
 H      31.17800000       8.03000000      24.39900000
 H      30.24700000       9.19500000      24.56200000
 O      26.39200000       7.29700000      20.70100000
 H      26.19400000       6.53300000      20.05000000
 H      27.18300000       7.03000000      21.10600000
 O      30.13800000       6.65000000      20.70500000
 H      29.78700000       6.79700000      21.61500000
 H      31.07100000       6.50600000      20.96800000
 O      29.81500000       0.85900000      23.67400000
 H      30.16000000       0.19300000      22.97400000
 H      30.58300000       1.01400000      24.24200000
 O      27.23200000       3.05800000      21.21600000
 H      27.61200000       2.42800000      20.51700000
 H      27.75000000       2.82000000      22.04000000
 O      28.74200000       8.46200000      26.89400000
 H      28.26400000       9.30900000      26.70800000
 H      29.25700000       8.22100000      26.08700000
 O      29.99400000       4.61300000      18.66200000
 H      29.97400000       5.52900000      19.12800000
 H      30.74800000       4.62600000      18.06800000
 O      29.10400000       6.40400000      23.40800000
 H      29.55100000       5.75200000      23.86200000
 H      29.15100000       7.15100000      24.03800000
 O      28.17700000      10.71300000      17.79800000
 H      27.47500000      10.12300000      17.83600000
 H      28.89700000      10.18800000      18.29600000
 O      29.45300000       8.87100000      19.20800000
 H      29.45000000       8.34700000      18.37600000
 H      29.66500000       8.18200000      19.91700000
 O      27.72400000       3.62900000      17.74800000
 H      28.48500000       4.02000000      18.26900000
 H      27.90600000       2.73000000      17.64200000
 O      27.95000000       0.78200000      19.38500000
 H      27.78800000       0.32000000      20.17000000
 H      28.05100000       0.00000000      18.71900000
 O      29.63300000       7.22800000      16.98800000
 H      29.39300000       7.38600000      16.11100000
 H      29.66700000       6.23500000      16.98200000
 O      26.13500000       5.64100000      18.58100000
 H      25.25400000       5.26300000      18.80600000
 H      26.60200000       4.81400000      18.22200000
 O      28.33700000       2.45400000      25.44800000
 H      28.78500000       1.81900000      24.84500000
 H      27.62600000       2.90900000      24.92700000
 O      34.81100000       2.60200000      21.71900000
 H      34.27700000       2.53500000      20.90000000
 H      35.38500000       3.44700000      21.84300000
 O      33.45100000       5.31600000      16.89000000
 H      33.31500000       5.16500000      15.90600000
 H      33.62100000       6.26000000      16.95100000
 O      32.51300000       4.29700000      24.24500000
 H      32.98200000       4.77200000      23.51600000
 H      33.18500000       3.63900000      24.54000000
 O      33.88700000       1.88200000      25.64200000
 H      34.73700000       2.17800000      25.32800000
 H      34.17800000       1.41500000      26.45700000
 O      32.75600000       2.21100000      19.93000000
 H      32.29100000       2.88600000      19.43200000
 H      32.53200000       1.39900000      19.42500000
 O      34.15100000       6.19500000      23.08400000
 H      34.94200000       5.77700000      23.47500000
 H      34.46500000       6.66800000      22.27700000
 O      35.74200000       3.58100000      16.57600000
 H      35.44800000       3.42100000      15.73200000
 H      35.00400000       4.08900000      16.99600000
 O      34.06800000       8.01400000      17.91600000
 H      33.12200000       7.87300000      17.97900000
 H      34.15400000       8.95600000      17.99400000
 O      34.17500000       7.74300000      26.59000000
 H      33.86000000       7.25000000      27.36700000
 H      33.37400000       7.78500000      26.08500000
 O      34.07400000      10.17800000      15.08500000
 H      34.24200000      10.92000000      14.50800000
 H      33.85100000      10.73800000      15.89200000
 O      36.62800000       9.64300000      19.46700000
 H      36.07600000      10.31400000      19.06900000
 H      35.93000000       9.23400000      19.96400000
 O      35.81900000       4.38900000      19.49100000
 H      34.95500000       4.72400000      19.55900000
 H      36.40100000       5.01900000      19.02500000
 O      35.20900000      10.02000000      24.58900000
 H      35.40800000       9.54900000      25.41400000
 H      35.98100000      10.39700000      24.25000000
 O      34.68800000      10.64800000      21.85700000
 H      34.94300000      10.17400000      22.69300000
 H      34.05300000      11.34900000      22.15100000
 O      34.70900000       7.40200000      20.41300000
 H      35.67000000       7.31700000      20.76900000
 H      34.73200000       7.64000000      19.44500000
 O      36.80600000       1.12300000      16.15500000
 H      37.71700000       1.50500000      16.09500000
 H      36.37300000       1.97000000      16.41700000
 O      36.87100000       8.98500000      16.67900000
 H      37.24100000       9.03100000      17.53400000
 H      36.64300000       9.90700000      16.58800000
