114
XYZ file of cluster: frame_18000_49b8.9df37.22ef1 - created by MolEdiTo
 O       6.50800000      27.32500000      15.16700000
 H       5.72200000      27.84700000      15.01000000
 H       7.03500000      27.55100000      14.36500000
 O       4.09400000      22.24000000       9.63400000
 H       3.74500000      22.57200000      10.53100000
 H       4.18100000      21.23000000       9.75200000
 O       6.28300000      26.58000000      12.46900000
 H       6.73800000      26.27500000      11.68200000
 H       6.51500000      25.94500000      13.20900000
 O       2.12200000      20.99700000      12.10600000
 H       1.20800000      20.89400000      11.88000000
 H       2.38100000      20.41100000      12.92900000
 O      11.28000000      30.07700000      15.36700000
 H      10.43400000      30.47800000      15.57600000
 H      11.07700000      29.85200000      14.39200000
 O       7.27500000      21.80200000       7.70100000
 H       6.76900000      22.38600000       8.28200000
 H       7.86800000      22.35800000       7.12000000
 O       3.73700000      26.36700000      11.30200000
 H       4.57700000      26.69400000      11.78000000
 H       4.02000000      26.45600000      10.45900000
 O       1.26400000      27.24700000       5.93100000
 H       2.15800000      27.58700000       6.03400000
 H       0.71100000      28.07700000       6.09900000
 O       1.20900000      23.01800000      10.13300000
 H       1.89100000      23.09300000       9.47200000
 H       1.74200000      22.67500000      10.85000000
 O       2.22700000      29.21900000      10.18000000
 H       2.08400000      29.06000000      11.14300000
 H       1.51100000      29.89300000       9.94600000
 O       9.06200000      29.36200000      12.75200000
 H       9.55200000      29.70700000      11.98500000
 H       9.16100000      28.39500000      12.59900000
 O       2.21600000      28.16400000      12.79700000
 H       3.00400000      28.60900000      13.09800000
 H       2.62200000      27.33000000      12.53400000
 O       2.98300000      25.67100000       8.29700000
 H       3.41900000      26.46600000       7.80200000
 H       2.03300000      25.56400000       8.03300000
 O       1.75100000      24.31400000      13.82000000
 H       2.28400000      25.10100000      13.92900000
 H       1.32600000      24.23100000      14.74500000
 O       7.73700000      29.12900000       5.10700000
 H       8.20700000      28.47300000       5.60900000
 H       7.20100000      28.59100000       4.49000000
 O       9.63900000      26.82900000      11.75900000
 H       8.84800000      26.48900000      11.20500000
 H       9.93800000      25.95100000      12.18200000
 O       4.23400000      28.84800000      14.75100000
 H       4.60800000      29.76100000      15.00200000
 H       3.60600000      28.67000000      15.56300000
 O       8.22000000      30.08000000      15.27300000
 H       8.29700000      29.78400000      14.34800000
 H       8.33200000      31.05400000      15.31200000
 O       4.53700000      22.87000000      15.71500000
 H       5.52400000      23.09900000      15.61200000
 H       4.17400000      23.80400000      15.82900000
 O       3.72400000      28.75400000       7.27900000
 H       4.05600000      29.21800000       6.44200000
 H       3.42900000      29.60700000       7.65200000
 O       9.82300000      24.94200000       8.17000000
 H       9.25600000      24.56200000       8.88600000
 H      10.13000000      24.17100000       7.56800000
 O       7.88500000      25.37700000      10.30100000
 H       7.26200000      25.39800000       9.54900000
 H       7.40700000      24.77600000      10.97100000
 O       3.43900000      22.93600000       6.22700000
 H       2.55400000      23.12500000       6.69300000
 H       3.73000000      23.81000000       5.89400000
 O       5.94600000      27.06200000       7.57200000
 H       5.85900000      26.47200000       6.70700000
 H       5.03200000      27.51700000       7.65400000
 O       9.97100000      21.74000000      10.47000000
 H       9.98000000      21.15700000       9.68900000
 H       9.93900000      21.12000000      11.19400000
 O       1.51000000      30.21100000      16.10400000
 H       0.59600000      30.41300000      16.01900000
 H       1.84000000      30.52300000      15.22200000
 O      11.22000000      28.89100000      10.68000000
 H      12.01500000      28.52600000      11.14300000
 H      10.45000000      28.35200000      10.93100000
 O       4.20700000      25.60900000      15.74400000
 H       5.08000000      26.10600000      15.48000000
 H       4.12900000      25.46400000      16.74900000
 O       4.54800000      20.37300000       7.12500000
 H       4.20000000      21.24200000       6.93800000
 H       4.91100000      20.49500000       8.01400000
 O       9.36000000      27.88700000       7.30000000
 H      10.32000000      27.59000000       7.56500000
 H       8.82100000      27.10500000       7.48500000
 O       8.57500000      23.49000000       5.64000000
 H       9.08500000      24.20600000       5.16500000
 H       7.85200000      23.29700000       5.00000000
 O       7.31500000      29.64800000      10.32000000
 H       7.97800000      29.98800000       9.66600000
 H       7.06600000      28.83000000       9.88200000
 O       7.45900000      23.34300000      15.28400000
 H       8.04000000      24.05300000      15.53500000
 H       8.09400000      22.62800000      15.03900000
 O       6.40200000      23.60400000      11.74400000
 H       6.59800000      22.79500000      12.19400000
 H       5.41200000      23.60200000      11.93600000
 O       5.85600000      24.38200000       8.61800000
 H       5.19800000      25.03600000       8.44900000
 H       5.20500000      23.61500000       8.82200000
 O      10.12600000      25.07400000      13.91500000
 H      10.59400000      24.30400000      14.20000000
 H      10.15300000      25.58200000      14.67000000
 O       8.12600000      30.34600000       7.54700000
 H       7.78900000      30.33500000       6.56100000
 H       8.66400000      29.49000000       7.54200000
 O       3.69200000      23.58700000      12.04500000
 H       3.46900000      24.45600000      11.56700000
 H       2.97900000      23.65900000      12.81100000
