114
XYZ file of cluster: frame_18000_c2de0.229df.20bd - created by MolEdiTo
 O      30.61800000      11.30200000       1.43600000
 H      31.58200000      11.42400000       1.26400000
 H      30.60600000      10.90300000       2.30400000
 O      27.51100000      11.96000000       2.08100000
 H      27.47800000      11.78400000       3.00900000
 H      26.57400000      12.22300000       1.93500000
 O      27.61000000      15.18400000       2.69000000
 H      28.06300000      14.53600000       2.11400000
 H      26.66300000      15.05700000       2.66200000
 O      26.33000000       8.21600000      11.17100000
 H      26.81700000       8.07700000      10.29000000
 H      25.55800000       7.63000000      11.07000000
 O      30.60700000      11.06900000       5.84400000
 H      31.15200000      10.47000000       5.25700000
 H      30.32400000      11.74400000       5.14000000
 O      29.59800000      12.96200000       3.59500000
 H      29.24100000      13.85700000       3.60400000
 H      29.92500000      12.82800000       2.65800000
 O      25.59000000      13.65700000       7.47000000
 H      25.20800000      14.53400000       7.76800000
 H      26.50600000      13.68100000       7.74400000
 O      29.69800000      14.34600000       0.83300000
 H      29.75000000      13.50800000       0.36200000
 H      30.51300000      14.83900000       0.65200000
 O      27.66400000       9.66600000       4.49900000
 H      28.27000000       9.40700000       3.83300000
 H      28.12500000      10.02900000       5.29400000
 O      29.55900000       9.12400000       7.37800000
 H      29.88300000       9.82700000       6.70600000
 H      30.35600000       8.88400000       7.88000000
 O      28.79100000      14.98400000      11.00100000
 H      27.78700000      14.62800000      10.86200000
 H      28.88500000      15.63200000      10.29500000
 O      28.76800000       4.72400000      10.39200000
 H      28.85700000       5.69200000      10.66800000
 H      27.81300000       4.46500000      10.60500000
 O      30.69800000      11.69600000       9.29500000
 H      30.43200000      12.65700000       9.45500000
 H      30.12500000      11.28100000       9.99900000
 O      26.45500000      10.93200000       6.65000000
 H      26.06500000      11.54500000       7.30300000
 H      26.43700000      10.11200000       7.20600000
 O      27.39300000       8.95100000       8.82200000
 H      28.27500000       8.97000000       8.28000000
 H      27.69200000       9.63900000       9.44400000
 O      28.48600000      13.64900000       7.12000000
 H      28.26100000      13.00700000       6.41800000
 H      29.03600000      13.14800000       7.72100000
 O      28.60200000       6.57800000       6.43100000
 H      27.87100000       6.66500000       7.11200000
 H      29.07400000       7.44300000       6.63100000
 O      29.84900000       7.80000000      10.88400000
 H      30.10900000       8.49900000      11.51000000
 H      30.70200000       7.55000000      10.44400000
 O      26.50900000       5.74800000       4.65800000
 H      27.13400000       6.12500000       5.27900000
 H      26.73800000       4.81500000       4.74800000
 O      29.61800000       8.90300000       2.51500000
 H      29.84600000       7.97800000       2.28900000
 H      29.56800000       9.39000000       1.70300000
 O      32.37000000      15.75500000       6.66900000
 H      32.24400000      16.57800000       7.18100000
 H      32.72300000      15.14100000       7.41900000
 O      33.13600000       6.76700000       5.41300000
 H      32.16800000       6.91300000       5.19100000
 H      33.66900000       7.50000000       5.06300000
 O      36.75100000       8.61900000       3.76100000
 H      36.64800000       9.31900000       4.48100000
 H      36.43400000       9.08900000       2.92600000
 O      35.22400000       5.89400000      10.63200000
 H      35.59500000       5.12000000      11.22500000
 H      35.80200000       5.79100000       9.79500000
 O      36.93900000      13.50800000       7.51900000
 H      37.44800000      13.59800000       6.72900000
 H      36.30200000      12.82800000       7.47700000
 O      36.78200000      13.05700000      10.86300000
 H      36.35600000      12.97100000      10.00000000
 H      37.53700000      12.37900000      10.79300000
 O      33.53900000       9.65900000       4.10700000
 H      34.31600000      10.28400000       4.11600000
 H      33.74100000       9.10700000       3.24800000
 O      36.80500000       5.25800000       5.39900000
 H      35.91100000       5.05500000       5.03700000
 H      36.70100000       6.22200000       5.66000000
 O      34.17700000      14.38400000       1.16000000
 H      34.60500000      14.60900000       0.26300000
 H      34.39800000      13.48100000       1.41200000
 O      35.74100000      12.13300000       3.85900000
 H      35.26200000      12.94600000       4.29400000
 H      36.53200000      12.50500000       3.38600000
 O      36.65100000      10.02900000       1.26700000
 H      37.28900000       9.50200000       0.77400000
 H      35.82400000       9.53800000       0.99900000
 O      34.34800000       7.54600000       2.47000000
 H      34.10100000       6.61400000       2.55800000
 H      35.31000000       7.34300000       2.56800000
 O      34.71700000      11.71100000       7.59300000
 H      34.06700000      12.23700000       7.12600000
 H      34.22500000      11.24600000       8.31200000
 O      35.09500000       9.74300000      10.54500000
 H      34.79000000       9.20600000      11.28500000
 H      34.36300000       9.60400000       9.85900000
 O      36.20000000      10.29700000       5.74900000
 H      36.15100000      11.02800000       5.09400000
 H      35.82800000      10.67500000       6.52300000
 O      33.85600000       8.38000000       8.19100000
 H      34.71100000       8.11600000       7.93400000
 H      33.49200000       7.61600000       8.67800000
 O      33.54400000      13.93300000       5.05100000
 H      33.04300000      13.21800000       5.19900000
 H      33.29500000      14.68100000       5.59300000
 O      33.19000000      14.61000000       9.27800000
 H      32.56100000      15.22700000       9.68400000
 H      34.05500000      15.00300000       9.10900000
