%chk=cluster_123_i.chk
%mem=1GB
%nproc=4
#b3lyp/6-311++G** scrf=(cpcm,Solvent=Water) nosymm force
iop(2/11=1) 
 Geom=(NoDistance,NoAngle)

cluster_123_i

0 1
 O       4.87900000       9.41100000      11.00700000
 H       5.37200000       8.94000000      11.78500000
 H       3.95600000       9.54200000      11.16500000
 O      10.10800000      10.54900000      15.35900000
 H      10.95600000      10.00700000      15.22500000
 H      10.43400000      11.35900000      14.92600000
 O       4.32200000      13.07700000      13.36000000
 H       5.27600000      12.62400000      13.40000000
 H       4.25100000      13.09300000      12.37400000
 O      10.18500000       7.98100000      13.58900000
 H      10.81100000       8.07000000      14.42900000
 H      10.56900000       8.58400000      12.93200000
 O       5.25500000       6.64800000      16.14300000
 H       5.12300000       7.45000000      15.55400000
 H       5.64300000       7.06000000      16.92400000
 O       8.05900000      14.23200000      14.23500000
 H       8.66500000      13.57400000      13.79100000
 H       8.03500000      13.98800000      15.18300000
 O       9.61100000      13.02900000      17.68600000
 H       8.96500000      12.36000000      17.34300000
 H      10.44800000      13.10500000      17.18100000
 O       8.18000000       6.39900000      16.47800000
 H       7.37000000       5.93200000      16.87100000
 H       7.99700000       7.36100000      16.63800000
 C      11.34000000      10.01400000       9.54500000
 C      11.34800000      10.75000000      10.98100000
 C       8.97500000      11.70800000      10.54700000
 H       9.46800000      10.04600000      11.73200000
 H      11.34900000       8.21100000       8.92400000
 O      10.11600000      11.73500000      12.77500000
 O      12.67200000       9.90300000       9.14100000
 O      10.83400000       8.71200000       9.63300000
 C       9.97800000      11.01600000      11.53500000
 O      12.11600000       9.91700000      11.89700000
 H      11.86900000      11.66200000      10.70600000
 O       9.55200000      12.98800000      10.37800000
 O       7.74400000      12.02200000      11.22900000
 H       7.56100000      12.95900000      11.03600000
 H      12.51100000       9.16400000      11.35200000
 H      10.56600000      12.57300000      12.54200000
 O       5.11100000       8.78300000      14.59100000
 H       5.98800000       9.23700000      14.33900000
 H       4.77100000       8.31300000      13.83200000
 O       8.28700000       9.03900000      17.08200000
 H       8.37000000       9.41700000      17.98200000
 H       8.91100000       9.65600000      16.54200000
 O       4.81200000      10.01600000      17.12000000
 H       3.87600000       9.79600000      17.24500000
 H       5.05300000       9.41200000      16.32400000
 O       6.59400000      12.45600000      16.80100000
 H       5.81900000      13.03900000      16.73400000
 H       6.13700000      11.55000000      16.83100000
 O       7.44900000      10.44000000      14.31800000
 H       8.27500000       9.95200000      14.30400000
 H       7.67300000      11.28600000      14.71400000
 O       7.51200000       6.95000000      13.72800000
 H       8.37300000       7.47100000      13.61900000
 H       7.58900000       6.43400000      14.56500000
 O       4.58700000      14.23100000      17.70400000
 H       3.75900000      14.02800000      18.22600000
 H       5.11000000      14.72300000      18.38000000

