%chk=cluster_345.chk
%mem=1GB
%nproc=4
#b3lyp/6-311++G** scrf=(cpcm,Solvent=Water) nosymm freq
iop(2/11=1) 
 Geom=(NoDistance,NoAngle)

cluster_345

0 1
 O      11.23300000      20.28700000      19.69900000
 H      12.13300000      19.96400000      19.61400000
 H      11.12600000      21.04800000      19.11100000
 O      13.29300000      18.39900000      18.56800000
 H      13.23200000      17.48300000      18.94700000
 H      14.04900000      18.88900000      19.01900000
 O      16.02700000      20.13600000      18.66800000
 H      16.88000000      20.02100000      18.17400000
 H      16.22900000      20.79300000      19.36000000
 O      14.97100000      15.76300000      19.39400000
 H      14.26800000      15.56700000      20.08200000
 H      15.21300000      16.61500000      19.73200000
 O      10.14900000      15.14900000      20.50500000
 H       9.36600000      14.74400000      20.03900000
 H      10.92200000      14.57600000      20.17500000
 O      12.62900000      16.39700000      20.76200000
 H      12.49800000      15.93500000      21.56900000
 H      11.74200000      16.45700000      20.42600000
 O      14.34700000      13.91600000      23.45500000
 H      14.85300000      13.03200000      23.65000000
 H      14.56100000      14.60100000      24.10500000
 O      17.11600000      15.06800000      24.06700000
 H      17.88800000      15.60100000      24.33900000
 H      16.91600000      14.69600000      24.94300000
 O      12.12000000      18.32000000      24.32400000
 H      11.44400000      19.05900000      24.31300000
 H      11.53000000      17.58300000      24.54300000
 O      13.91100000      19.64900000      22.72100000
 H      13.34600000      19.05500000      23.35900000
 H      14.17500000      20.37500000      23.26600000
 O      16.15900000      17.98600000      22.76800000
 H      15.57500000      18.76500000      22.54000000
 H      15.48000000      17.32600000      23.10000000

