%chk=cluster_252.chk
%mem=6GB
%nproc=4
#b3lyp/6-311++G** scrf=(cpcm,Solvent=Water) nosymm freq
iop(2/11=1) 
 Geom=(NoDistance,NoAngle)

cluster_252

0 1
 O      12.77900000      19.42200000      12.01300000
 H      12.36300000      18.71900000      11.50000000
 H      12.93100000      20.10200000      11.32600000
 O       7.17500000      19.71200000      14.54800000
 H       7.17400000      20.70900000      14.65000000
 H       7.49400000      19.46800000      13.64000000
 O      10.58900000      20.45100000       9.45400000
 H      10.29900000      19.69800000       9.92800000
 H      11.19200000      20.18100000       8.74600000
 O       9.17500000      17.85200000       9.12300000
 H       8.89700000      17.57300000      10.01000000
 H       8.39900000      17.45200000       8.62400000
 O      14.08100000      20.34200000       9.57700000
 H      13.87900000      19.94800000       8.71600000
 H      15.02100000      20.04000000       9.76600000
 O      10.80500000      20.16100000      14.26700000
 H      11.21800000      21.06200000      13.93800000
 H      11.52200000      19.59500000      13.86100000
 O      11.50600000      18.82300000       7.22200000
 H      11.65200000      18.38000000       8.12400000
 H      11.45000000      18.00300000       6.72500000
 O      12.11200000      17.99600000       9.77100000
 H      11.29300000      17.44200000       9.88800000
 H      12.87400000      17.37800000       9.55900000
 O       7.00300000      20.57900000       8.49500000
 H       7.61900000      20.48100000       7.69100000
 H       7.61600000      20.84100000       9.19000000
 O       8.23600000      22.02900000      11.67400000
 H       8.81200000      22.81900000      11.83700000
 H       8.78900000      21.24500000      11.95600000
 O      10.48200000      23.68300000      11.50800000
 H      10.61200000      23.17700000      10.71500000
 H      11.37700000      23.95900000      11.71200000
 O      10.22800000      25.09500000       8.52300000
 H      10.21800000      24.84100000       9.49000000
 H      11.12200000      24.71200000       8.28900000
 O      12.68000000      23.73200000      13.75700000
 H      13.26400000      23.39500000      14.43500000
 H      13.13100000      23.48500000      12.87200000
 O       7.70800000      24.26800000       7.27400000
 H       7.22600000      25.11400000       7.23000000
 H       8.53400000      24.49900000       7.72500000
 O      13.26900000      23.86500000      10.81200000
 H      13.60700000      22.98500000      10.63300000
 H      14.12100000      24.35000000      10.91100000
 O      12.48100000      23.98400000       7.48800000
 H      13.06100000      23.46800000       8.11100000
 H      12.32900000      23.30700000       6.76100000

