%chk=cluster_305.chk
%mem=8GB
%nproc=8
#b3lyp/6-31G** scrf=(cpcm,Solvent=Water) nosymm force
iop(2/11=1)
 Geom=(NoDistance,NoAngle)
guess=checkpoint

cluster_305

0 1
 O      14.46251453     1.87342022    18.20694097
 H      14.98880805     1.10794404    17.93415085
 H      13.70267273     1.86862537    17.60567256
 O      13.24849204     1.13157525    20.75901153
 H      13.39748540     0.17619827    20.72124625
 H      13.61251421     1.45396292    19.91400003
 O      11.39524701     7.00231662    18.74050598
 H      10.56239999     6.68090493    18.36691440
 H      11.15716281     7.25783910    19.64465070
 O      17.12343338     2.42265324    20.61917428
 H      17.09936791     2.95703525    21.42858941
 H      16.24204585     2.02108392    20.59497734
 O      16.93649793     4.00145845    18.31214290
 H      17.11359757     3.52224997    19.14471183
 H      16.11820077     3.57750438    18.01476883
 O      10.06398323     2.56754903    19.84785236
 H      10.69066090     3.30499576    19.94163390
 H      10.66191844     1.80947380    19.91868602
 O      12.61611082     4.39990942    19.87386224
 H      12.30848926     5.23306752    19.47174563
 H      13.31369732     4.67365204    20.48917126
 O      12.17429289     7.18963285    22.73574777
 H      11.67862723     6.76567624    23.45014891
 H      12.33963788     8.08566504    23.05184406
 O      15.35760231     3.06051585    24.10504621
 H      15.16930352     3.97359827    23.82384729
 H      15.91992064     3.15176365    24.88350590
 O      14.86040189     5.55809310    22.48440910
 H      14.14203575     6.19580351    22.65369253
 H      15.68111088     6.02072608    22.70488168
 O       9.62248717     4.62100889    23.52368313
 H       8.97188586     4.11327294    23.01385944
 H      10.43447733     4.07925413    23.46091107
 O      11.97152442     3.10982044    23.47108864
 H      11.82513069     2.30095366    22.95512103
 H      12.57493055     3.61142249    22.90758801

