123
XYZ file of cluster: frame_5500_4e196.704da.9b2f6 - created by MolEdiTo
 O      18.18300000      25.70100000      25.25300000
 H      18.47500000      26.73100000      25.09900000
 H      17.89000000      25.57500000      26.18300000
 O      14.93900000      16.65800000      22.25600000
 H      15.24900000      15.76200000      21.89400000
 H      15.08700000      17.15800000      21.44900000
 O      18.30800000      23.61800000      21.29700000
 H      17.57400000      23.83800000      21.96300000
 H      18.08600000      24.33900000      20.57700000
 O      21.27500000      23.73100000      22.29200000
 H      20.33700000      23.37100000      22.14400000
 H      21.60600000      24.20000000      21.47600000
 O      20.95600000      15.45600000      22.57200000
 H      21.37000000      15.29500000      23.40500000
 H      20.06500000      15.77400000      22.86100000
 O      15.08500000      17.42600000      28.31100000
 H      15.00900000      16.57200000      27.90100000
 H      16.10100000      17.44300000      28.65000000
 O      18.52500000      20.92100000      29.89100000
 H      18.62200000      21.80500000      29.39800000
 H      19.42900000      20.59300000      29.99300000
 O      15.31100000      20.20000000      29.16300000
 H      15.10400000      21.06700000      28.66300000
 H      15.64800000      19.49000000      28.55900000
 O      19.97200000      15.76600000      28.67300000
 H      20.73800000      15.14700000      28.36100000
 H      19.32800000      15.46700000      28.00900000
 O      10.48700000      20.54300000      29.58200000
 H      11.14600000      19.79800000      29.63600000
 H      10.63400000      21.09500000      30.34800000
 O      18.77000000      22.96600000      25.07800000
 H      19.69600000      23.38400000      25.06500000
 H      18.15500000      23.68200000      24.79700000
 O      14.79600000      25.24400000      24.94800000
 H      14.40800000      25.91700000      24.40200000
 H      15.64800000      25.62300000      25.20300000
 O      17.88600000      21.17700000      23.11800000
 H      17.35700000      20.58200000      23.63500000
 H      18.25500000      21.72200000      23.81500000
 O      18.23800000      16.23700000      20.99900000
 H      18.24000000      15.26300000      20.76000000
 H      19.17600000      16.47400000      21.23200000
 O      10.82000000      23.85900000      29.78800000
 H      10.85500000      24.70900000      30.29500000
 H      10.34500000      23.16500000      30.34600000
 O      20.99300000      16.60600000      25.76200000
 H      21.18200000      17.55800000      25.53600000
 H      20.01800000      16.39100000      25.85600000
 O      10.27300000      14.97700000      23.07800000
 H      10.87500000      15.78900000      23.05700000
 H      10.77700000      14.43600000      22.33500000
 O      17.58400000      18.13900000      29.27900000
 H      17.91700000      17.67400000      30.09200000
 H      17.69400000      19.08500000      29.65700000
 O      11.99600000      23.69900000      27.18900000
 H      11.56200000      24.06500000      27.94700000
 H      11.85700000      22.72200000      27.17300000
 O      18.69500000      24.09900000      28.78300000
 H      18.12700000      24.73200000      28.28200000
 H      19.60700000      24.51200000      28.78100000
 O      18.67900000      18.10000000      26.29600000
 H      18.63700000      19.02600000      26.63500000
 H      18.67200000      17.48200000      27.04700000
 O      10.96600000      24.56500000      24.50400000
 H      11.44900000      23.98400000      25.10200000
 H      10.63000000      25.13100000      25.20600000
 O      20.27900000      19.35700000      28.16100000
 H      19.80200000      18.57300000      28.60500000
 H      19.62000000      20.01700000      27.97200000
 O      11.32500000      17.85800000      22.27400000
 H      11.58300000      18.65300000      21.78200000
 H      12.07900000      17.90400000      22.97000000
 O      18.73100000      16.46900000      24.05600000
 H      18.20000000      16.80000000      23.33600000
 H      18.38600000      17.06000000      24.78500000
 O      13.08300000      16.43400000      24.46400000
 H      13.54200000      15.77700000      24.94800000
 H      13.71600000      16.54900000      23.72700000
 O      13.29700000      24.15300000      22.37800000
 H      13.56500000      24.58700000      21.56700000
 H      12.84000000      24.86400000      22.85400000
 O      11.11400000      20.62100000      20.51800000
 H      10.16300000      20.29400000      20.51400000
 H      11.28400000      20.96000000      21.44000000
 O      15.80500000      19.17400000      23.55000000
 H      15.44700000      18.34200000      23.89400000
 H      16.08200000      18.79200000      22.59800000
 O      15.13800000      22.69000000      27.84700000
 H      14.28100000      23.09300000      27.54900000
 H      15.73400000      23.40100000      27.97400000
 O      12.68500000      18.94800000      28.66700000
 H      13.20000000      18.38800000      28.01400000
 H      13.44900000      19.53100000      28.93800000
 O      14.42200000      22.36900000      24.89800000
 H      15.39700000      22.26400000      25.04300000
 H      14.40900000      23.38200000      24.79500000
 O      20.79700000      25.72700000      28.08200000
 H      21.67500000      25.53000000      28.43200000
 H      20.81900000      26.56500000      27.60100000
 O      11.62900000      20.76300000      26.21100000
 H      11.51200000      19.78200000      26.37100000
 H      12.55300000      20.80100000      25.84600000
 O      16.20700000      24.15000000      22.81600000
 H      15.27200000      24.50200000      23.04100000
 H      15.96600000      23.22900000      22.47100000
 O      11.75500000      20.59400000      23.18600000
 H      12.62400000      20.81400000      23.41800000
 H      11.22600000      20.75200000      24.01000000
 O      15.33000000      21.81500000      20.94900000
 H      16.06000000      21.22300000      21.26600000
 H      15.62700000      22.03600000      20.06900000
 O      17.78700000      20.85700000      27.09200000
 H      17.81700000      21.59100000      26.45500000
 H      17.02300000      21.10000000      27.64500000
 O      21.64400000      22.67500000      28.56100000
 H      20.88400000      22.71500000      27.94800000
 H      21.90700000      21.75800000      28.64900000
 O      11.42600000      16.13000000      29.39700000
 H      11.26800000      16.75100000      30.10300000
 H      11.95100000      16.65300000      28.74300000
 O      11.05200000      17.66500000      26.33600000
 H      10.11600000      17.46000000      26.16300000
 H      11.46800000      17.36700000      25.54300000
