132
XYZ file of cluster: frame_5500_4b227.c3197.21225 - created by MolEdiTo
 O      13.63200000      30.45300000      11.29700000
 H      13.51500000      29.73000000      11.96800000
 H      13.98100000      31.25200000      11.80400000
 O      21.47500000      28.75300000      12.08800000
 H      21.00300000      29.60300000      12.38700000
 H      21.70500000      28.87900000      11.10000000
 O      12.32100000      28.71500000       6.41700000
 H      12.23600000      29.47100000       7.04000000
 H      11.97200000      28.02900000       7.07400000
 O      17.78300000      28.09500000       7.30500000
 H      17.95300000      27.32000000       6.75500000
 H      18.05800000      27.77500000       8.18400000
 O      19.35200000      25.65400000       9.88000000
 H      18.67600000      25.07900000      10.31500000
 H      18.98300000      26.54200000      10.07700000
 O      16.28700000      29.57900000      10.50900000
 H      16.65800000      30.52400000      10.45300000
 H      15.30200000      29.61800000      10.91800000
 O      17.60200000      27.78700000      13.47300000
 H      17.44700000      27.43900000      14.34600000
 H      18.58900000      27.87400000      13.39900000
 O      12.80000000      30.27400000       8.80300000
 H      13.50900000      31.03700000       8.73300000
 H      12.81800000      30.16900000       9.76400000
 O      15.49600000      29.53000000       6.52100000
 H      14.49900000      29.31900000       6.53800000
 H      16.02000000      28.85300000       7.11800000
 O      11.10200000      27.16700000       8.33800000
 H      11.33200000      27.22200000       9.32700000
 H      10.19400000      27.47300000       8.42400000
 O      14.27000000      27.29000000      12.20600000
 H      14.70000000      26.88400000      11.44900000
 H      14.57100000      26.62300000      12.92000000
 O      20.15100000      27.72300000      15.37900000
 H      21.06600000      27.68300000      15.07200000
 H      20.04600000      26.88700000      15.92000000
 O      14.71800000      28.18300000       8.84200000
 H      15.41400000      28.58900000       9.31300000
 H      13.84700000      28.69700000       9.02800000
 O      21.61500000      28.01600000       6.35600000
 H      20.78400000      27.60400000       6.61800000
 H      21.44400000      28.44300000       5.52800000
 O       9.95700000      30.02100000      10.94900000
 H      10.04800000      30.59000000      10.16500000
 H      10.68400000      29.39200000      11.12000000
 O      14.75200000      26.88900000       5.85200000
 H      14.62100000      27.87100000       5.76600000
 H      13.97600000      26.50300000       6.33500000
 O      10.82400000      28.18200000      13.55600000
 H      10.22600000      27.92700000      14.28400000
 H      11.77500000      27.85800000      13.85500000
 O      11.95700000      27.64600000      10.79500000
 H      12.82000000      27.43300000      11.20600000
 H      11.22200000      27.22600000      11.25200000
 O      15.78400000      30.06500000      13.55000000
 H      16.46800000      29.49500000      13.93800000
 H      15.80700000      29.77000000      12.63300000
 O      13.11300000      30.03800000      14.68400000
 H      14.01300000      30.21900000      14.34100000
 H      12.52200000      30.70900000      14.28000000
 O      18.71600000      28.27900000      10.52900000
 H      17.69700000      28.09500000      10.66100000
 H      18.72700000      29.28400000      10.77100000
 O      16.27800000      26.10500000      10.18500000
 H      15.91100000      26.57400000       9.42400000
 H      15.93000000      25.14600000       9.95300000
 O      11.50500000      32.92100000      12.82900000
 H      10.58300000      32.65200000      12.69200000
 H      11.51500000      33.56900000      13.59800000
 O      10.37900000      32.54100000       7.41100000
 H      10.77800000      33.38000000       7.06100000
 H      11.05900000      32.20500000       7.88600000
 O      18.06000000      32.84800000      16.26800000
 H      17.44500000      33.03900000      15.53300000
 H      18.46200000      33.71500000      16.42400000
 O      18.32000000      32.42400000       5.95800000
 H      17.90200000      31.89000000       6.73500000
 H      17.63700000      32.97200000       5.59700000
 O      16.81700000      34.56100000      13.96000000
 H      16.90200000      35.41600000      13.45500000
 H      15.94800000      34.59800000      14.38700000
 O      18.52700000      32.75300000      10.60300000
 H      18.63600000      33.62600000      11.10600000
 H      18.57000000      33.15100000       9.69000000
 O      20.91900000      32.24200000       6.85500000
 H      20.40500000      33.06900000       6.93300000
 H      20.32100000      31.73300000       6.28700000
 O      12.25500000      34.42900000       6.41400000
 H      11.69000000      34.23900000       5.58900000
 H      13.09600000      33.97200000       6.24600000
 O      10.57600000      35.51600000      14.16900000
 H      10.95700000      36.25100000      14.71400000
 H       9.73200000      35.86500000      13.73700000
 O      13.09900000      36.81800000       5.05100000
 H      12.95000000      36.12000000       5.69600000
 H      12.49800000      36.65700000       4.28500000
 O      18.92600000      34.27600000       8.08700000
 H      18.73000000      35.11700000       8.60400000
 H      18.54800000      34.42300000       7.12700000
 O      15.82700000      33.78700000      11.34800000
 H      16.18000000      34.68100000      11.37200000
 H      16.11400000      33.41400000      12.23700000
 O      21.03200000      33.13800000      12.35700000
 H      21.67300000      33.79900000      12.12600000
 H      20.27200000      33.25500000      11.82100000
 O      17.31800000      35.88800000       6.13900000
 H      17.14000000      36.83700000       6.37600000
 H      17.67700000      35.95000000       5.18200000
 O      19.52100000      35.42300000      15.13000000
 H      20.13400000      36.02500000      14.68200000
 H      18.82000000      35.27300000      14.45400000
 O      11.03300000      36.94300000      10.00700000
 H      10.75500000      36.14800000       9.62100000
 H      11.52100000      36.69000000      10.81900000
 O      14.37100000      34.39200000       9.07500000
 H      14.55600000      35.33500000       8.98800000
 H      14.79600000      34.20700000       9.98000000
 O      14.55400000      32.94300000       5.14600000
 H      14.93400000      32.42100000       5.86300000
 H      15.36000000      33.38600000       4.72900000
 O      12.60600000      35.81800000      11.86200000
 H      13.36600000      35.58700000      12.44400000
 H      11.85200000      35.45400000      12.36600000
 O      14.07600000      34.11700000      15.09100000
 H      14.06000000      34.99800000      15.55500000
 H      13.77500000      33.51500000      15.79900000
 O      19.04000000      35.36800000      11.89300000
 H      19.88800000      35.65100000      11.46100000
 H      18.48600000      36.17700000      11.90300000
 O      11.66500000      34.25500000       9.86500000
 H      12.52000000      34.56200000       9.53200000
 H      11.84800000      33.95100000      10.81900000
