111
XYZ file of cluster: frame_5500_1de6a.3c3e.c499d - created by MolEdiTo
 O       5.50500000       3.12800000      26.81000000
 H       6.23700000       3.67100000      26.39100000
 H       5.16900000       3.74300000      27.52700000
 O      15.54600000       7.36800000      27.74900000
 H      15.20400000       8.23900000      28.12500000
 H      14.78200000       7.02000000      27.16900000
 O      14.76100000       1.30500000      26.85800000
 H      13.85500000       1.62200000      26.84700000
 H      15.09200000       1.92300000      26.18900000
 O       8.09800000      10.09200000      25.84200000
 H       8.44300000       9.41900000      26.42000000
 H       8.33700000      10.82200000      26.44900000
 O       9.64300000       7.91800000      27.78500000
 H      10.29100000       8.45500000      28.30600000
 H       9.41900000       7.16500000      28.37300000
 O      11.52800000       3.30200000      29.80700000
 H      12.33400000       3.89700000      29.79700000
 H      11.59100000       2.79800000      30.62200000
 O      13.51800000       8.75700000      30.70800000
 H      12.83300000       9.30400000      30.24700000
 H      13.99200000       9.51100000      31.11800000
 O      12.19100000       2.53600000      27.18000000
 H      11.83900000       2.11900000      28.03800000
 H      11.68400000       3.40200000      26.90800000
 O       5.52200000       8.15600000      27.36900000
 H       5.50700000       7.53700000      26.62900000
 H       4.70300000       8.77300000      27.27800000
 O      13.09100000       5.84100000      29.33400000
 H      13.38600000       5.75300000      30.25600000
 H      12.93200000       6.83400000      29.37100000
 O       5.79500000       5.23200000      28.63300000
 H       6.26900000       6.11600000      28.80400000
 H       5.05300000       5.48300000      28.06400000
 O       7.21100000       8.44700000      30.24500000
 H       7.22600000       9.38900000      30.55700000
 H       6.71800000       8.44100000      29.42400000
 O      11.42300000      10.20900000      29.28300000
 H      11.83100000      10.92200000      28.67700000
 H      10.50800000      10.63000000      29.41500000
 O      14.45800000       9.36200000      25.79600000
 H      13.55000000       9.19500000      25.42500000
 H      14.25100000       9.83100000      26.59600000
 O       8.66100000       2.03000000      26.96100000
 H       8.85400000       2.75900000      27.58400000
 H       8.32300000       1.27900000      27.50400000
 O       4.45000000       0.98700000      29.52200000
 H       5.32700000       0.54400000      29.74300000
 H       3.87300000       0.48400000      30.11800000
 O       9.88800000       4.68700000      27.72400000
 H       9.06300000       4.98700000      28.13900000
 H      10.32400000       4.21300000      28.52200000
 O      15.76300000       4.38500000      28.57200000
 H      15.74800000       5.31900000      28.38300000
 H      14.83400000       4.16600000      28.75000000
 O      14.16500000       1.92300000      29.96900000
 H      14.03300000       1.27200000      29.24000000
 H      15.13300000       1.99800000      30.09500000
 O      13.09900000       5.43500000      36.62400000
 H      12.95000000       4.73700000      37.26900000
 H      12.49800000       5.27400000      35.85800000
 O       5.86300000       3.59700000      33.14500000
 H       5.95200000       4.59900000      33.27600000
 H       6.06900000       3.63300000      32.21400000
 O      15.23700000      10.26900000      34.88000000
 H      15.33200000      10.73300000      35.69600000
 H      14.45900000      10.84000000      34.67600000
 O       5.91300000       1.73800000      36.58300000
 H       6.43700000       2.24400000      36.00500000
 H       5.48000000       2.42000000      37.10200000
 O      14.55400000       1.56000000      36.71900000
 H      14.93400000       1.03800000      37.43600000
 H      15.36000000       2.00300000      36.30200000
 O      15.73700000       3.83200000      35.34900000
 H      15.11900000       4.59000000      35.28900000
 H      16.58200000       4.27700000      35.65500000
 O      12.02900000       7.72600000      34.60600000
 H      12.79800000       7.68500000      34.00800000
 H      11.69700000       8.65500000      34.54100000
 O      14.55600000       7.99800000      36.54800000
 H      14.42300000       8.36400000      35.68300000
 H      13.86100000       7.28700000      36.42800000
 O       9.37600000       5.79800000      32.60700000
 H       9.05900000       6.67200000      32.56000000
 H       9.94600000       5.83300000      33.36900000
 O       9.35000000       7.23800000      35.04600000
 H       8.99700000       7.82400000      35.70400000
 H      10.31200000       7.33100000      35.07700000
 O      11.31900000       9.93000000      36.97600000
 H      11.34200000      10.38300000      36.16100000
 H      12.24100000      10.13800000      37.38800000
 O       6.05700000       6.19700000      36.70700000
 H       6.85500000       5.76100000      37.11200000
 H       5.49100000       5.46300000      36.39300000
 O      13.03100000       2.65300000      34.11400000
 H      13.53700000       2.45500000      33.30800000
 H      13.63900000       3.03200000      34.77500000
 O       5.90100000       6.45900000      33.59600000
 H       6.22800000       7.30300000      33.14000000
 H       6.37600000       6.41400000      34.41700000
 O      10.69200000       2.75700000      35.52800000
 H       9.79100000       2.70200000      35.14700000
 H      11.27300000       2.91000000      34.82300000
 O      11.26000000      10.45100000      34.31800000
 H      11.36400000      10.86000000      33.42300000
 H      10.45900000      10.83000000      34.62000000
 O      15.03000000       5.99900000      33.06100000
 H      15.65200000       5.30500000      33.15000000
 H      15.75100000       6.71900000      32.93500000
 O       7.93300000       2.92500000      34.97700000
 H       7.45700000       3.13000000      34.13200000
 H       7.89100000       3.73800000      35.47500000
