117
XYZ file of cluster: frame_5500_727c3.99b29.9b2f6 - created by MolEdiTo
 O      18.18300000      25.70100000      25.25300000
 H      18.47500000      26.73100000      25.09900000
 H      17.89000000      25.57500000      26.18300000
 O      18.30800000      23.61800000      21.29700000
 H      17.57400000      23.83800000      21.96300000
 H      18.08600000      24.33900000      20.57700000
 O      21.27500000      23.73100000      22.29200000
 H      20.33700000      23.37100000      22.14400000
 H      21.60600000      24.20000000      21.47600000
 O      21.92300000      20.33700000      30.31000000
 H      21.37200000      19.75700000      30.90100000
 H      22.20700000      21.15900000      30.83900000
 O      18.84700000      30.40900000      28.47100000
 H      18.80500000      31.35400000      28.79200000
 H      18.85900000      30.01200000      29.42700000
 O      18.52500000      20.92100000      29.89100000
 H      18.62200000      21.80500000      29.39800000
 H      19.42900000      20.59300000      29.99300000
 O      16.96700000      26.30000000      27.80300000
 H      16.24900000      26.81000000      27.28500000
 H      17.65600000      26.91800000      28.06400000
 O      18.77000000      22.96600000      25.07800000
 H      19.69600000      23.38400000      25.06500000
 H      18.15500000      23.68200000      24.79700000
 O      17.89500000      30.39200000      21.90000000
 H      18.24300000      29.55400000      21.42300000
 H      17.21600000      30.21600000      22.66600000
 O      24.28800000      23.31200000      23.62200000
 H      24.33800000      24.29500000      23.74700000
 H      25.14100000      22.88500000      23.92000000
 O      17.88600000      21.17700000      23.11800000
 H      17.35700000      20.58200000      23.63500000
 H      18.25500000      21.72200000      23.81500000
 O      26.08800000      25.50600000      24.97200000
 H      26.63500000      24.76300000      24.74000000
 H      25.74600000      25.27200000      25.88400000
 O      24.47800000      23.71100000      20.54500000
 H      24.35200000      23.17800000      21.35900000
 H      25.41800000      23.94300000      20.72900000
 O      26.80800000      30.75400000      29.58600000
 H      25.95900000      30.24400000      29.56800000
 H      26.90100000      30.76000000      28.61000000
 O      18.69500000      24.09900000      28.78300000
 H      18.12700000      24.73200000      28.28200000
 H      19.60700000      24.51200000      28.78100000
 O      25.03400000      26.86800000      28.51800000
 H      24.29300000      26.76300000      27.84400000
 H      24.67400000      26.44400000      29.27000000
 O      19.86300000      27.99000000      23.95000000
 H      20.33500000      27.07600000      23.89900000
 H      19.80700000      28.34400000      23.08500000
 O      23.31700000      26.43900000      26.35000000
 H      24.00700000      26.44400000      25.60400000
 H      22.76400000      27.04700000      25.97800000
 O      22.14900000      21.26400000      24.20800000
 H      21.41200000      21.72100000      24.73800000
 H      22.84200000      21.94700000      24.04600000
 O      25.22900000      20.20900000      22.70100000
 H      24.80000000      21.11900000      22.63500000
 H      25.15900000      20.00900000      23.66400000
 O      15.64800000      28.84500000      26.52300000
 H      16.52500000      28.85200000      26.98400000
 H      15.12400000      29.68200000      26.74100000
 O      24.33500000      29.56300000      29.12100000
 H      24.77900000      28.65000000      29.03900000
 H      23.46900000      29.37900000      28.81100000
 O      25.53200000      28.24900000      24.40900000
 H      25.42000000      27.30000000      24.62300000
 H      26.30600000      28.39700000      23.85000000
 O      25.04500000      21.86300000      26.49700000
 H      25.62100000      21.64400000      27.26800000
 H      24.48300000      21.04000000      26.29000000
 O      17.32100000      26.96700000      22.51800000
 H      16.93500000      26.22800000      22.98500000
 H      18.12900000      26.54900000      22.15900000
 O      21.71800000      23.99800000      25.60700000
 H      21.24700000      24.25700000      26.42000000
 H      22.04300000      24.85800000      25.18200000
 O      15.93400000      30.05000000      30.10300000
 H      15.19300000      29.60700000      30.58500000
 H      16.70900000      29.47300000      30.37900000
 O      26.07300000      28.27800000      20.54700000
 H      25.73000000      29.02600000      21.14200000
 H      25.27400000      27.81200000      20.14900000
 O      20.79700000      25.72700000      28.08200000
 H      21.67500000      25.53000000      28.43200000
 H      20.81900000      26.56500000      27.60100000
 O      23.65300000      24.47500000      29.78600000
 H      24.37000000      23.91500000      29.49100000
 H      22.90200000      23.93500000      29.50200000
 O      24.61300000      30.70100000      25.92500000
 H      25.53900000      30.88200000      25.69500000
 H      24.62000000      29.73000000      25.86900000
 O      15.27500000      26.20400000      20.55700000
 H      14.82900000      27.01900000      20.71400000
 H      16.04700000      26.21900000      21.17200000
 O      16.20700000      24.15000000      22.81600000
 H      15.27200000      24.50200000      23.04100000
 H      15.96600000      23.22900000      22.47100000
 O      22.15400000      29.42800000      26.94700000
 H      21.32400000      29.90500000      26.92500000
 H      22.67900000      30.03600000      26.39000000
 O      15.33000000      21.81500000      20.94900000
 H      16.06000000      21.22300000      21.26600000
 H      15.62700000      22.03600000      20.06900000
 O      17.78700000      20.85700000      27.09200000
 H      17.81700000      21.59100000      26.45500000
 H      17.02300000      21.10000000      27.64500000
 O      21.64400000      22.67500000      28.56100000
 H      20.88400000      22.71500000      27.94800000
 H      21.90700000      21.75800000      28.64900000
 O      22.57800000      26.07800000      23.48800000
 H      22.12500000      25.23500000      23.11500000
 H      23.20700000      26.37100000      22.82900000
 O      18.97400000      28.31700000      26.63800000
 H      19.47700000      28.59500000      25.79600000
 H      18.78700000      29.21700000      27.06300000
