129
XYZ file of cluster: frame_5500_c33b7.c2e3b.23626 - created by MolEdiTo
 O      29.34800000      26.71600000       5.65300000
 H      28.50000000      26.33300000       6.05600000
 H      30.10900000      26.58600000       6.28500000
 O      29.74000000      27.43000000      13.64000000
 H      30.36500000      27.38200000      12.85100000
 H      29.92800000      28.39800000      14.10100000
 O      30.54600000      29.79000000       4.94400000
 H      30.18600000      28.96000000       5.36300000
 H      29.89600000      30.54500000       5.20000000
 O      26.05600000      28.59100000       9.56100000
 H      26.95100000      28.10900000       9.33500000
 H      26.10700000      29.30300000       8.90700000
 O      27.26000000      25.72200000       6.99000000
 H      27.19400000      25.05200000       6.34500000
 H      26.46100000      26.25200000       6.85700000
 O      26.62000000      29.55500000       5.71300000
 H      26.99600000      30.39500000       6.00000000
 H      27.10400000      28.75100000       5.98900000
 O      28.09600000      27.56900000      16.25500000
 H      28.18800000      27.77200000      15.26100000
 H      27.84200000      28.45400000      16.49600000
 O      26.60600000      29.43100000      14.75100000
 H      25.93100000      29.80900000      15.34000000
 H      26.00700000      29.20000000      14.01400000
 O      30.07700000      29.69000000      15.27500000
 H      29.63300000      30.51600000      15.42700000
 H      30.99100000      29.95800000      15.08600000
 O      25.39800000      26.87900000      15.06200000
 H      26.35700000      26.83400000      15.22600000
 H      25.28800000      26.26800000      14.25000000
 O      28.60400000      27.88500000       8.95900000
 H      28.74300000      27.26400000       9.66600000
 H      29.39300000      27.75200000       8.30700000
 O      29.81500000      36.66800000      10.86800000
 H      29.94400000      35.72600000      10.86300000
 H      29.45900000      36.93200000       9.99800000
 O      27.61300000      33.12600000      13.94100000
 H      27.33200000      32.18800000      14.02300000
 H      26.98200000      33.44900000      14.62000000
 O      29.40400000      33.81300000       8.68800000
 H      29.99100000      34.58700000       8.66800000
 H      30.03000000      33.04900000       8.84800000
 O      29.52600000      35.52900000      16.53300000
 H      29.14000000      35.25100000      15.71600000
 H      29.99400000      36.31300000      16.27400000
 O      28.29500000      37.03500000       8.56500000
 H      28.87200000      36.48400000       7.96700000
 H      27.80300000      36.36400000       9.08900000
 O      29.11000000      36.11400000       5.88300000
 H      29.22000000      35.73600000       4.97400000
 H      30.01100000      35.96800000       6.30600000
 O      26.57900000      36.47300000      15.41700000
 H      26.91900000      37.29400000      15.81800000
 H      27.04400000      36.51000000      14.56800000
 O      27.87300000      33.33200000       5.35200000
 H      28.11000000      34.09600000       5.88300000
 H      27.34200000      33.76500000       4.57600000
 O      27.89200000      36.10600000      13.07900000
 H      27.78700000      35.13000000      13.15200000
 H      28.14700000      36.33100000      12.13600000
 O      30.11500000      32.75700000      12.23300000
 H      29.53600000      32.13600000      12.73000000
 H      29.90800000      33.64500000      12.69500000
 O      26.34800000      32.77300000       7.95400000
 H      26.60000000      33.68300000       7.58800000
 H      25.53900000      32.48600000       7.47800000
 O      27.20200000      34.34400000      10.34500000
 H      28.15300000      34.01000000       9.95900000
 H      26.60400000      33.96600000       9.71500000
 O      35.97000000      29.27000000      11.95100000
 H      35.31200000      29.15700000      12.62500000
 H      36.37200000      30.12600000      12.25500000
 O      33.94400000      27.06800000      16.02500000
 H      34.70800000      27.51600000      15.54900000
 H      33.61900000      27.77200000      16.62300000
 O      34.92400000      27.70000000       5.69700000
 H      34.96500000      28.04200000       4.80800000
 H      35.78900000      27.31800000       5.82700000
 O      34.66300000      29.76100000      15.24200000
 H      34.67200000      30.74100000      15.30200000
 H      35.53300000      29.39400000      14.98500000
 O      32.91400000      30.54400000       9.61300000
 H      32.83800000      30.88200000      10.53300000
 H      32.09200000      29.96000000       9.54000000
 O      35.72600000      28.13400000       9.36700000
 H      36.62700000      27.79300000       9.15400000
 H      35.74200000      28.07200000      10.33700000
 O      32.82600000      27.93600000       7.85200000
 H      33.31500000      27.25900000       8.39000000
 H      33.55100000      28.35000000       7.20400000
 O      36.00200000      29.69200000       7.19800000
 H      35.96600000      29.04100000       7.93600000
 H      35.89500000      29.15300000       6.33900000
 O      32.83400000      27.68400000      11.00100000
 H      33.40600000      27.96900000      10.26600000
 H      33.09700000      26.79500000      11.18100000
 O      33.63200000      34.47700000      10.14800000
 H      33.60800000      33.63800000       9.76300000
 H      34.57400000      34.81000000      10.03700000
 O      34.07200000      33.15100000       5.69500000
 H      34.08500000      32.14800000       5.65500000
 H      33.53800000      33.36000000       4.90100000
 O      37.13300000      36.48000000      11.76000000
 H      36.20300000      36.51700000      12.19500000
 H      37.01400000      37.26600000      11.19700000
 O      33.92000000      34.02100000      15.14300000
 H      33.95200000      34.35800000      14.21800000
 H      33.69300000      34.87800000      15.63100000
 O      34.66200000      37.11600000      10.43700000
 H      35.20200000      37.42100000       9.65000000
 H      33.99800000      36.53600000      10.02100000
 O      35.67900000      33.71900000       8.01800000
 H      35.53500000      32.79800000       8.14200000
 H      35.40800000      33.78300000       7.05200000
 O      36.94100000      33.05100000      12.92900000
 H      36.65800000      33.22300000      13.87100000
 H      36.66900000      33.91500000      12.54000000
 O      36.08300000      36.62700000       7.43700000
 H      36.12300000      35.68100000       7.56500000
 H      36.69900000      36.71600000       6.66700000
 O      36.72400000      33.63600000      15.46600000
 H      36.85400000      33.15800000      16.29600000
 H      35.78900000      34.06000000      15.62000000
 O      33.78600000      35.47900000      12.76600000
 H      33.41500000      34.95900000      12.04500000
 H      33.56700000      36.38900000      12.42900000
 O      32.86300000      36.12300000       7.54100000
 H      33.52900000      35.37800000       7.48300000
 H      33.24700000      36.87200000       7.98200000
