%chk=cluster_443.chk
%mem=6GB
%nproc=4
#b3lyp/6-311++G** scrf=(cpcm,Solvent=Water) nosymm freq
iop(2/11=1) 
 Geom=(NoDistance,NoAngle)

cluster_443

0 1
 O      19.95000000      15.19700000      17.74400000
 H      20.52000000      15.92100000      18.07500000
 H      20.13100000      14.57300000      18.45500000
 O      16.98400000      13.84600000      14.37900000
 H      17.36500000      14.66200000      14.00300000
 H      16.88500000      14.06600000      15.33300000
 O      19.48400000      15.10600000      14.30100000
 H      20.29600000      14.72200000      14.77000000
 H      19.44800000      14.70800000      13.35800000
 O      13.86700000      15.29500000      14.49600000
 H      13.57500000      15.39400000      15.41500000
 H      14.84200000      15.17900000      14.50300000
 O      16.08500000      17.05900000      16.57600000
 H      16.35700000      17.19800000      15.63200000
 H      16.47800000      16.18500000      16.78100000
 O      20.04500000      20.51900000      14.94600000
 H      19.96600000      19.53200000      14.80000000
 H      20.00200000      20.37500000      15.89300000
 O      17.34800000      14.66500000      17.07000000
 H      17.50800000      14.54700000      18.05800000
 H      18.31600000      14.76800000      16.93200000
 O      17.25600000      20.44300000      16.14600000
 H      16.78400000      20.87200000      15.43000000
 H      17.28000000      19.49600000      15.88800000
 O      18.55000000      17.51900000      15.01100000
 H      19.01500000      17.66600000      15.84500000
 H      18.71200000      16.58700000      14.83400000
 O      16.23400000      16.61800000      13.12400000
 H      15.32100000      16.54500000      12.55700000
 H      16.55200000      17.53500000      12.88300000
 O      13.96300000      19.22200000      16.80200000
 H      14.50700000      18.40300000      16.59400000
 H      13.19900000      18.82200000      17.28100000
 O      19.18800000      18.25200000      12.43100000
 H      19.13700000      17.90400000      13.35000000
 H      18.34900000      18.75000000      12.31300000
 O      16.45600000      19.42000000      13.07200000
 H      16.74400000      20.27000000      12.62000000
 H      15.53000000      19.52200000      13.33700000

