288
XYZ file of cluster: frame_12000_7489b.22af3.3089 - created by MolEdiTo
 O      27.76600000      18.26300000      14.00300000
 H      27.81800000      18.62400000      14.88700000
 H      28.69900000      18.05400000      13.81400000
 O      21.79300000      15.14200000       9.27800000
 H      21.56700000      16.07900000       9.38700000
 H      22.75500000      15.18900000       9.33200000
 O      25.48700000      13.55500000      11.50600000
 H      25.24900000      13.17100000      10.63900000
 H      24.62800000      13.72200000      11.87000000
 O      23.09600000      18.87800000       6.11400000
 H      23.67100000      18.14100000       5.72000000
 H      22.22400000      18.52600000       5.73100000
 O      32.30700000      11.66200000       9.71400000
 H      31.36600000      11.42200000       9.46700000
 H      32.80300000      11.01000000       9.19700000
 O      32.40000000      14.16400000      10.37300000
 H      31.63800000      13.98900000      10.89600000
 H      32.64700000      13.19300000      10.14600000
 O      26.68500000       8.24000000      10.52600000
 H      26.79300000       8.04900000       9.58400000
 H      25.79900000       8.65700000      10.56100000
 O      31.15900000      15.63500000       4.07000000
 H      31.93300000      15.79900000       3.55700000
 H      30.55900000      16.38200000       3.78600000
 O      34.10300000      17.28100000      12.45500000
 H      34.23000000      16.41500000      12.87000000
 H      33.99700000      16.99900000      11.48300000
 O      21.45200000      17.69600000       9.60700000
 H      21.48100000      18.59600000       9.15600000
 H      21.66600000      18.08000000      10.49300000
 O      23.21800000      11.77100000      10.10200000
 H      22.61500000      12.46300000      10.22900000
 H      22.70200000      11.03200000      10.48900000
 O      22.29500000       9.52600000       1.12500000
 H      21.70600000       8.80500000       0.73900000
 H      21.86800000      10.21300000       0.51700000
 O      24.72100000      11.46100000       1.28600000
 H      24.40900000      10.58700000       1.53700000
 H      25.69600000      11.19800000       1.16100000
 O      21.20500000      15.78400000      12.93200000
 H      20.96000000      16.46500000      13.56700000
 H      20.53500000      15.92300000      12.24200000
 O      25.43200000      20.06400000      13.36700000
 H      25.38500000      19.33300000      13.99600000
 H      24.53400000      20.47000000      13.46600000
 O      33.96500000       9.68600000       3.98000000
 H      34.49600000       8.88100000       3.72500000
 H      33.30700000       9.30600000       4.54400000
 O      30.84100000       9.65800000       2.21900000
 H      31.66200000       9.82700000       1.74700000
 H      30.19000000       9.53400000       1.55500000
 O      33.95600000       9.48600000      14.50000000
 H      33.79800000       8.49100000      14.49400000
 H      33.70900000       9.67300000      13.58800000
 O      32.03500000       8.04800000       9.75000000
 H      32.79500000       8.63700000       9.47900000
 H      31.98400000       8.21200000      10.69100000
 O      24.81700000       8.15600000       5.73800000
 H      24.28800000       8.80500000       6.25200000
 H      24.10100000       7.68300000       5.25300000
 O      28.10800000      13.88100000       5.47900000
 H      28.47200000      12.95900000       5.53500000
 H      28.67700000      14.34200000       6.12400000
 O      26.63500000      16.10800000       2.59500000
 H      26.97400000      15.19500000       2.72100000
 H      27.37500000      16.60400000       2.65400000
 O      33.98000000      10.03400000       8.36400000
 H      34.74000000       9.51300000       8.71800000
 H      34.27700000      10.35800000       7.53100000
 O      34.89300000      19.50300000       3.08100000
 H      34.01300000      20.00700000       3.02300000
 H      34.85100000      19.19900000       4.01700000
 O      25.62500000      19.82600000       6.93500000
 H      25.96400000      18.90600000       7.10000000
 H      24.65800000      19.57900000       6.83000000
 O      32.54400000      20.56300000       2.69700000
 H      31.93200000      20.12000000       2.06800000
 H      32.34200000      21.52100000       2.56500000
 O      26.39300000       7.65700000       7.98800000
 H      25.79500000       8.08500000       7.31400000
 H      26.25600000       6.73800000       7.77500000
 O      23.47300000      16.81400000      11.40800000
 H      23.04500000      16.10500000      11.91200000
 H      24.32600000      16.84900000      11.83700000
 O      29.89600000      10.85100000       8.98500000
 H      29.50100000      10.34800000       8.21900000
 H      29.52400000      10.27600000       9.67900000
 O      32.68300000      19.58800000      10.36900000
 H      32.74500000      18.60800000      10.46400000
 H      31.74300000      19.76300000      10.64800000
 O      25.56300000      14.59200000       6.04700000
 H      26.46100000      14.28400000       5.78700000
 H      25.08600000      14.09200000       5.34500000
 O      28.49300000       8.67800000       6.49900000
 H      27.79400000       8.51100000       7.16700000
 H      29.19900000       8.02500000       6.76600000
 O      25.87600000      11.58400000       9.60500000
 H      26.39700000      11.07800000      10.22000000
 H      24.94600000      11.26400000       9.84400000
 O      25.55600000      17.40500000       5.45200000
 H      26.09700000      17.35800000       4.67200000
 H      25.69300000      16.50800000       5.83600000
 O      20.76600000      13.02300000      10.52800000
 H      21.07500000      13.74300000       9.94800000
 H      20.50500000      12.35000000       9.79900000
 O      31.94700000      21.28100000       6.09400000
 H      32.18800000      20.99700000       5.19200000
 H      32.58500000      20.74500000       6.59700000
 O      24.43600000       8.98400000      12.60200000
 H      24.30400000       8.65800000      11.69300000
 H      24.01000000       8.17400000      13.10800000
 O      29.55600000       6.24500000      11.31200000
 H      29.79800000       7.19800000      11.44500000
 H      30.45200000       5.93000000      10.99500000
 O      28.99900000      15.06600000       7.57600000
 H      29.26400000      14.25500000       8.10800000
 H      29.64000000      15.68400000       7.88500000
 O      26.94800000       7.88300000       3.64000000
 H      27.62500000       8.17100000       4.30200000
 H      26.13400000       7.99900000       4.20700000
 O      26.78800000      10.10300000      13.18700000
 H      25.86600000       9.88500000      12.99800000
 H      26.81200000      11.07100000      13.19500000
 O      20.98300000       9.39000000       3.65300000
 H      21.40000000       9.56900000       2.85400000
 H      20.11300000       8.98400000       3.34200000
 O      25.48200000       8.62900000       1.46100000
 H      24.59100000       8.28700000       1.54200000
 H      25.98800000       8.19400000       2.18200000
 O      33.31000000      16.62300000       9.95400000
 H      32.99000000      15.68400000      10.20000000
 H      33.33200000      16.50500000       8.95400000
 O      20.92400000      17.37700000       5.48500000
 H      21.45000000      16.68400000       6.01200000
 H      20.02700000      17.01800000       5.69600000
 O      31.90100000       6.35700000       2.47100000
 H      31.59100000       7.23000000       2.72900000
 H      32.44600000       6.16000000       3.28400000
 O      25.74900000      20.29600000       3.80900000
 H      24.84800000      20.10900000       3.47900000
 H      25.57800000      20.17600000       4.74200000
 O      29.08600000      17.56800000       3.96000000
 H      28.63800000      18.15000000       3.29500000
 H      28.59800000      17.90300000       4.76500000
 O      33.78100000      15.70300000       2.62300000
 H      34.18900000      15.38700000       1.72900000
 H      34.56100000      15.76200000       3.18400000
 O      31.58000000       8.39100000      12.41700000
 H      31.92200000       9.30100000      12.47100000
 H      30.69300000       8.51500000      12.76800000
 O      25.54900000      11.34600000       6.86200000
 H      25.86800000      11.20500000       7.80700000
 H      26.33100000      11.24800000       6.41900000
 O      27.48500000      19.06400000       2.44100000
 H      26.90700000      19.46200000       3.10500000
 H      27.01200000      19.19700000       1.59600000
 O      30.81100000      17.15900000       7.17900000
 H      30.67400000      16.58500000       6.34600000
 H      31.80000000      17.17800000       7.15400000
 O      27.64100000      20.97000000      12.41200000
 H      26.80200000      20.60800000      12.69900000
 H      27.44500000      21.73800000      11.85500000
 O      24.21200000      13.41800000       3.50900000
 H      23.49800000      12.81300000       3.91500000
 H      24.48000000      12.87500000       2.74300000
 O      30.58900000       7.37500000       7.23400000
 H      31.00700000       7.50500000       8.12300000
 H      31.37400000       7.31400000       6.69900000
 O      28.38000000      18.43100000       7.00900000
 H      29.30400000      18.15800000       7.12000000
 H      28.01200000      18.14300000       7.82100000
 O      27.55900000      11.07900000       1.35900000
 H      27.63600000      10.11300000       1.58600000
 H      28.39100000      11.16200000       0.76800000
 O      29.53000000      16.02200000      11.81700000
 H      28.70500000      15.76300000      11.38100000
 H      30.11400000      16.01100000      11.02300000
 O      28.89100000       9.51300000      11.01700000
 H      28.66100000       9.74700000      11.92800000
 H      28.26300000       8.71900000      10.91600000
 O      28.76300000      11.20900000       5.41600000
 H      29.68400000      11.24300000       5.01700000
 H      28.73000000      10.24700000       5.76200000
 O      33.41200000      12.02700000       2.77500000
 H      34.14100000      12.62800000       2.76800000
 H      33.68600000      11.23900000       3.24600000
 O      23.45100000       9.61900000       7.27900000
 H      22.48000000       9.66400000       7.13800000
 H      23.74900000      10.52900000       7.19600000
 O      20.37100000      17.67000000      14.43000000
 H      20.28500000      18.10700000      15.25600000
 H      20.85700000      18.33600000      13.86000000
 O      21.88100000      19.81400000      11.24500000
 H      22.64900000      20.20200000      10.82100000
 H      22.21900000      19.74600000      12.17200000
 O      33.13400000       6.96100000       6.25100000
 H      33.11000000       6.11400000       5.78600000
 H      33.78900000       6.83600000       6.95200000
 O      24.77500000      14.95700000       8.65700000
 H      25.06000000      15.15000000       7.67900000
 H      24.79500000      13.99900000       8.62600000
 O      34.55100000      13.45200000       8.20800000
 H      33.98700000      13.45200000       8.97000000
 H      34.46800000      12.59400000       7.78500000
 O      21.45600000       9.39700000      10.83400000
 H      20.91900000       9.34600000      11.63000000
 H      20.78400000       9.68000000      10.23500000
 O      23.06200000      13.88000000      12.62100000
 H      23.32700000      13.88400000      13.56100000
 H      22.27000000      14.41800000      12.61300000
 O      20.62300000      14.91000000       6.73000000
 H      21.33000000      14.80900000       7.41600000
 H      19.83200000      14.66500000       7.22100000
 O      23.88100000      15.95200000       2.74300000
 H      23.90300000      14.99700000       3.01500000
 H      24.83400000      16.14300000       2.53000000
 O      29.54300000      21.10800000       2.28600000
 H      29.48500000      21.77500000       1.59100000
 H      28.78400000      20.57600000       2.08400000
 O      23.93200000       8.80100000      10.08400000
 H      22.99300000       8.79900000      10.45700000
 H      23.73800000       8.88300000       9.10900000
 O      30.35900000      14.05200000      13.53300000
 H      30.23600000      14.81700000      12.88000000
 H      29.44300000      13.70000000      13.42800000
 O      29.81800000      14.02900000       1.66700000
 H      30.25900000      13.75100000       2.46400000
 H      28.87900000      13.69600000       1.84000000
 O      22.35200000      11.54200000       4.14700000
 H      22.01300000      10.65400000       3.85200000
 H      21.48900000      11.99100000       4.42900000
 O      29.70800000      13.21400000      10.74900000
 H      29.54900000      12.33300000      10.29600000
 H      28.82500000      13.60700000      10.52700000
 O      27.41200000      12.77400000      13.46300000
 H      26.85400000      13.22500000      12.76900000
 H      27.24200000      13.41400000      14.19900000
 O      30.54300000      17.45300000      14.00400000
 H      30.30000000      17.07400000      13.16600000
 H      31.33400000      17.96000000      13.80200000
 O      27.35200000      17.71300000       9.83200000
 H      26.45000000      17.99000000       9.44800000
 H      26.94700000      17.49100000      10.71600000
 O      23.80900000      11.33000000      13.77300000
 H      23.45600000      11.41900000      12.90700000
 H      23.89700000      10.38700000      13.96100000
 O      27.32200000      13.57000000       2.48200000
 H      27.14500000      12.66100000       2.17400000
 H      27.51600000      13.43800000       3.43000000
 O      26.16700000      17.12500000      12.12000000
 H      26.32300000      16.24900000      12.58100000
 H      26.57500000      17.75400000      12.69200000
 O      27.57800000      14.89800000      10.20300000
 H      26.67100000      14.57100000      10.49900000
 H      27.25900000      15.73600000       9.75300000
 O      29.08600000       8.71200000      13.67000000
 H      28.82400000       7.78200000      13.59100000
 H      28.20700000       9.19300000      13.58500000
 O      23.23700000      20.67400000       2.93000000
 H      22.89500000      20.90500000       1.99700000
 H      22.49800000      20.14100000       3.27000000
 O      21.62300000      17.71200000       2.64600000
 H      21.37900000      17.63500000       3.58400000
 H      22.40700000      17.11100000       2.66200000
 O      31.25700000      12.77000000       4.90100000
 H      32.11200000      12.77100000       4.38500000
 H      31.25800000      13.64900000       5.31400000
 O      34.24500000      20.02000000       7.28800000
 H      33.64600000      20.24900000       8.02100000
 H      34.82700000      19.36300000       7.71900000
 O      34.20800000      21.73000000      10.58500000
 H      33.36200000      22.18600000      10.21900000
 H      33.86700000      20.81200000      10.48100000
 O      24.63500000      18.11700000       8.79800000
 H      23.79100000      18.55500000       8.82700000
 H      24.35600000      17.31800000       9.30900000
 O      29.51700000      19.66500000      10.58300000
 H      28.71500000      19.13000000      10.34500000
 H      29.19900000      20.15600000      11.37900000
 O      33.90600000      16.39600000       7.16200000
 H      34.32200000      15.58300000       7.22900000
 H      34.56400000      16.96300000       6.72300000
 O      21.45300000      19.71900000       7.89500000
 H      21.94200000      19.34300000       7.10600000
 H      22.00000000      20.52000000       8.06000000
 O      32.55700000      10.91900000      12.27700000
 H      32.05500000      11.22100000      11.43400000
 H      33.44400000      10.99100000      11.95300000
