1548
XYZ file of cluster: frame_12000_21dd6.c40ff.21f34 - created by MolEdiTo
 O      18.55500000      40.28900000      27.28300000
 H      18.38500000      40.71400000      28.12300000
 H      18.46700000      41.06800000      26.66400000
 O      20.38700000      35.60000000      35.27000000
 H      20.14300000      36.52500000      34.91400000
 H      19.63900000      35.06600000      34.86600000
 O      15.01300000      40.82400000      20.96700000
 H      14.88000000      40.02400000      20.41400000
 H      14.73000000      40.51100000      21.80900000
 O      29.32500000      39.57300000      19.65700000
 H      28.67500000      39.24300000      20.31700000
 H      28.93000000      39.19400000      18.80400000
 O      12.52000000      36.00100000      36.81600000
 H      13.23800000      35.44000000      36.59600000
 H      11.76400000      35.62100000      36.37500000
 O      22.28800000      38.58300000      18.85200000
 H      23.15500000      38.13400000      18.84500000
 H      21.80100000      37.96600000      19.37700000
 O      33.99100000      35.57800000      29.81000000
 H      33.60200000      36.39100000      29.49100000
 H      33.44200000      34.92900000      29.32900000
 O      33.58800000      39.74100000      19.59700000
 H      34.14900000      39.74100000      20.34600000
 H      32.75800000      39.30000000      20.03200000
 O      24.76200000      35.10900000      20.90800000
 H      24.63600000      35.37500000      20.02300000
 H      24.68800000      35.93600000      21.37700000
 O      25.95600000      40.32700000      26.40300000
 H      25.86500000      41.21200000      25.96800000
 H      26.62400000      40.54800000      27.06000000
 O      33.77600000      35.07100000      12.07900000
 H      33.66400000      35.74900000      11.39100000
 H      34.45400000      34.50500000      11.64000000
 O      39.35700000      37.12800000       7.39000000
 H      39.64800000      36.34500000       7.90900000
 H      40.16800000      37.70500000       7.51200000
 O      24.21200000      34.48400000      24.54200000
 H      24.79500000      34.55200000      25.33200000
 H      24.00000000      35.44000000      24.41000000
 O      23.06600000      35.59200000      30.79600000
 H      22.21700000      35.72300000      30.23700000
 H      22.70500000      34.88200000      31.37000000
 O      37.44400000      39.83100000      17.68600000
 H      37.93700000      40.15600000      16.88800000
 H      38.20000000      39.97500000      18.35800000
 O      30.26800000      35.08600000      39.42800000
 H      29.63900000      34.30100000      39.59000000
 H      29.56000000      35.80000000      39.62500000
 O      37.55700000      40.40800000      25.60600000
 H      38.03300000      39.92600000      24.89900000
 H      38.21000000      41.08100000      25.87000000
 O      29.12200000      38.47900000      10.61500000
 H      29.65700000      39.25000000      10.36200000
 H      28.73600000      38.71300000      11.45700000
 O      33.81700000      38.10500000      17.29100000
 H      34.08800000      37.89700000      18.24000000
 H      33.34500000      38.93500000      17.43800000
 O      20.96900000      34.51800000       8.78900000
 H      21.25800000      35.42500000       8.50700000
 H      21.27400000      34.53700000       9.72700000
 O      13.00800000      36.73500000      20.57600000
 H      12.09000000      36.92200000      20.82300000
 H      13.04500000      37.31700000      19.76800000
 O      22.95100000      34.56100000      35.36600000
 H      22.18600000      35.18800000      35.17500000
 H      23.68300000      35.19100000      35.30100000
 O      14.14800000      34.67500000      11.28600000
 H      13.27100000      34.94000000      11.68600000
 H      14.65500000      35.57200000      11.54900000
 O       8.17100000      37.71100000      33.88200000
 H       7.78500000      36.81000000      33.71000000
 H       7.47800000      38.24200000      33.45800000
 O      34.39300000      35.45000000      19.42300000
 H      35.35700000      35.56700000      19.20800000
 H      34.24800000      34.56800000      18.93500000
 O      11.61700000      40.76900000      22.80000000
 H      12.17400000      40.21600000      22.18000000
 H      10.83900000      40.20200000      22.87000000
 O      31.20900000      36.60100000      26.78800000
 H      32.03000000      37.13800000      26.54000000
 H      30.58800000      37.32800000      26.82600000
 O      25.44100000      37.48800000      31.38700000
 H      24.49100000      37.28900000      31.25700000
 H      25.68100000      36.69900000      31.91100000
 O      20.88300000      39.37700000      26.00700000
 H      21.52100000      39.89300000      26.52500000
 H      20.04300000      39.79800000      26.32300000
 O      31.44900000      39.74800000      16.90200000
 H      31.27900000      40.48500000      17.47000000
 H      30.98600000      40.11500000      16.09900000
 O       9.72100000      40.43600000      16.96200000
 H       9.20200000      41.12800000      17.35100000
 H       9.72200000      40.55600000      16.00700000
 O      20.51900000      34.60800000      25.81500000
 H      21.26500000      35.15200000      26.11900000
 H      20.95300000      33.78400000      25.54800000
 O      29.84500000      35.07800000      29.51000000
 H      28.85800000      34.97200000      29.38800000
 H      29.98000000      36.01500000      29.43800000
 O      27.73100000      38.86200000      13.34100000
 H      26.87700000      39.24500000      13.11100000
 H      27.48100000      38.05200000      13.74800000
 O      15.08700000      34.58800000      19.04200000
 H      14.81400000      35.18100000      19.68200000
 H      14.87700000      33.68000000      19.45600000
 O      29.77100000      38.83700000      30.34600000
 H      28.82300000      38.93300000      30.48400000
 H      29.91600000      39.76400000      29.94900000
 O      11.00600000      39.14400000      28.33300000
 H      10.09400000      39.36500000      28.19700000
 H      11.41100000      39.49900000      27.54800000
 O      22.51400000      36.95100000      26.23900000
 H      23.26000000      37.49200000      25.96400000
 H      21.79200000      37.64500000      26.14200000
 O       6.89500000      40.04900000      17.86000000
 H       7.33000000      40.03300000      17.00200000
 H       6.06500000      40.49100000      17.65700000
 O      31.41000000      33.97400000      34.32400000
 H      31.22400000      34.94300000      34.22700000
 H      30.96400000      33.81900000      35.17800000
 O      38.61200000      38.51000000      13.42500000
 H      38.23000000      38.35900000      12.54200000
 H      38.09100000      37.99000000      14.02800000
 O      17.60200000      39.09000000      39.70500000
 H      18.19000000      38.75200000      40.41500000
 H      17.60000000      40.04300000      39.92300000
 O      39.29200000      40.21200000      19.63100000
 H      39.77300000      39.71900000      20.34500000
 H      40.13400000      40.55200000      19.20000000
 O      16.75600000      34.97500000      36.45600000
 H      17.05600000      35.87400000      36.70700000
 H      17.08900000      34.40300000      37.19600000
 O      15.29800000      37.49100000      11.97500000
 H      15.79600000      38.23400000      11.55500000
 H      15.10300000      37.90300000      12.85500000
 O      19.31800000      34.83400000      16.84700000
 H      19.07700000      34.59200000      15.95000000
 H      19.13400000      35.82200000      16.83600000
 O      13.55600000      37.97400000      34.40500000
 H      12.84700000      37.78100000      35.05200000
 H      13.23800000      37.57100000      33.60600000
 O      25.93100000      34.18300000      17.57200000
 H      26.22200000      33.62300000      18.31500000
 H      26.66800000      34.79100000      17.41300000
 O      29.80500000      40.46900000      14.89700000
 H      29.22500000      39.98900000      14.31400000
 H      29.79500000      41.33800000      14.47200000
 O      32.79900000      38.70500000      37.55100000
 H      32.97300000      37.80900000      37.18300000
 H      32.64700000      39.17500000      36.69200000
 O      28.14800000      37.70800000      28.15900000
 H      27.84400000      38.34900000      28.81600000
 H      29.01700000      38.08000000      27.97100000
 O      25.20200000      34.30600000       7.98100000
 H      25.44100000      35.26000000       7.94700000
 H      25.94400000      33.96300000       8.58900000
 O      28.44700000      37.59900000       8.23500000
 H      28.64300000      37.80200000       9.15100000
 H      27.55600000      37.16800000       8.24900000
 O      37.17100000      35.97200000      14.77500000
 H      37.67800000      36.03900000      15.55800000
 H      36.93600000      35.03200000      14.67500000
 O      17.19100000      37.06800000       7.13300000
 H      17.14900000      37.75500000       6.48400000
 H      16.40700000      36.50300000       6.90900000
 O      24.73600000      36.14900000      11.46100000
 H      24.97900000      35.29900000      11.89600000
 H      23.79500000      36.01700000      11.32100000
 O      29.35300000      35.22000000      32.20600000
 H      29.60300000      35.32900000      31.25200000
 H      30.05800000      34.60600000      32.56700000
 O      32.60800000      39.51600000      13.51300000
 H      32.88900000      40.38900000      13.55100000
 H      33.31100000      38.91900000      13.83900000
 O      16.96600000      39.72600000      13.01200000
 H      17.59500000      40.45800000      13.25400000
 H      17.66800000      39.05000000      12.74300000
 O      26.36400000      36.48400000      26.53000000
 H      27.04700000      36.97000000      27.01800000
 H      25.64500000      36.58900000      27.20900000
 O      11.10900000      36.04700000       8.18700000
 H      11.37700000      36.77300000       7.55500000
 H      11.68700000      35.34500000       7.91100000
 O       9.87700000      34.53500000      36.16500000
 H       8.89700000      34.87100000      36.12400000
 H      10.12300000      34.83600000      35.28100000
 O      33.59200000      35.39100000      36.91000000
 H      34.10600000      34.79400000      36.32500000
 H      32.73100000      34.90400000      36.89900000
 O      20.43600000      36.27100000      30.04400000
 H      19.90900000      36.46400000      29.27100000
 H      20.00300000      35.45600000      30.34000000
 O      18.21200000      38.70300000      30.96400000
 H      18.96300000      39.27000000      31.09400000
 H      18.25200000      38.44800000      30.01500000
 O      25.15500000      39.07400000      12.68600000
 H      24.74900000      38.27800000      12.27800000
 H      24.71800000      39.04100000      13.59300000
 O       9.23800000      39.85900000      31.59000000
 H       9.29500000      40.45300000      32.40100000
 H       8.34400000      39.59300000      31.65000000
 O      34.31000000      37.81100000      32.71500000
 H      33.45400000      38.21400000      32.32900000
 H      34.52700000      37.12800000      32.12900000
 O      17.73400000      38.24800000      36.94300000
 H      17.47400000      38.59600000      37.77500000
 H      18.60000000      38.60600000      36.85200000
 O      27.50300000      38.79200000      21.62700000
 H      28.05400000      38.04200000      21.81000000
 H      26.61100000      38.48400000      21.77700000
 O      17.12800000      37.96200000      19.73000000
 H      17.21000000      37.22600000      20.37400000
 H      16.22500000      38.11200000      19.57000000
 O      33.03200000      37.69600000       9.83700000
 H      33.47600000      37.28700000       9.09600000
 H      32.23300000      37.18500000       9.98700000
 O      33.02600000      34.44700000      39.65100000
 H      33.20600000      34.99900000      38.88700000
 H      32.05500000      34.65700000      39.76400000
 O      38.04600000      34.54400000      21.44800000
 H      37.99900000      34.18000000      22.33300000
 H      37.35200000      35.24500000      21.55000000
 O      38.37200000      34.48000000      34.36400000
 H      39.05100000      35.16400000      34.48500000
 H      38.37600000      34.29700000      33.41800000
 O      10.91300000      38.64400000      20.19700000
 H      11.22500000      38.96900000      19.33500000
 H       9.98900000      39.04100000      20.25800000
 O      40.62100000      39.28000000      36.00000000
 H      40.72000000      39.49400000      36.98800000
 H      39.88300000      39.93000000      35.78600000
 O      16.25900000      38.92100000      23.43200000
 H      15.84400000      38.15000000      23.79200000
 H      15.46800000      39.39900000      23.03600000
 O      25.22500000      39.40600000      38.65500000
 H      25.02000000      40.26900000      39.11100000
 H      24.43800000      39.35400000      38.04500000
 O      37.98600000      38.37600000      38.77400000
 H      37.28100000      37.76500000      38.51300000
 H      37.56500000      39.20900000      38.71500000
 O      40.55700000      35.91200000      21.04200000
 H      41.08600000      35.24700000      21.50400000
 H      39.66000000      35.53600000      21.29700000
 O       6.28400000      38.81800000      27.70800000
 H       6.41200000      37.87400000      27.79800000
 H       7.12500000      39.10000000      27.36200000
 O      13.88300000      36.56500000      31.32900000
 H      13.01300000      36.93100000      31.34500000
 H      14.46500000      37.34800000      31.34500000
 O      34.98700000      40.51200000      24.63700000
 H      34.92800000      41.42300000      24.78100000
 H      35.89300000      40.29800000      25.07900000
 O      20.96900000      33.93500000      18.68700000
 H      21.10300000      34.85700000      18.90200000
 H      20.37200000      33.97600000      17.91400000
 O      35.18100000      39.76600000      21.77300000
 H      35.15600000      39.90800000      22.74200000
 H      35.76200000      40.52500000      21.51200000
 O      18.63100000      35.08600000      31.86000000
 H      18.49300000      34.80600000      32.85400000
 H      17.98500000      35.83900000      31.81300000
 O      20.70800000      38.46400000       7.89600000
 H      20.34600000      38.26000000       8.80900000
 H      20.48700000      39.40900000       7.83800000
 O      40.63500000      39.19600000      22.10100000
 H      39.99100000      38.75600000      22.72600000
 H      41.09700000      38.34200000      21.83300000
 O      30.08400000      35.41500000      20.19700000
 H      30.91300000      35.88300000      20.49900000
 H      30.42200000      34.64000000      19.72900000
 O      18.65200000      39.41400000      21.89100000
 H      18.18400000      39.24300000      21.06600000
 H      17.99400000      39.03100000      22.53700000
 O       9.25600000      37.57000000      17.68600000
 H       9.73000000      38.32200000      17.33100000
 H       8.61600000      37.99100000      18.33100000
 O       7.65000000      35.73400000      36.27600000
 H       7.17700000      36.00000000      35.46100000
 H       7.95800000      36.60300000      36.60200000
 O      14.31900000      34.80200000      22.82700000
 H      13.93800000      35.18100000      21.94700000
 H      13.58300000      34.16600000      22.97800000
 O      40.03700000      35.43000000      13.04200000
 H      39.78700000      36.36300000      13.17000000
 H      40.85400000      35.51300000      12.53700000
 O      11.18800000      37.31300000      31.77700000
 H      10.78800000      36.66400000      32.40500000
 H      10.47600000      38.02200000      31.79200000
 O      40.57000000      37.80400000      18.69200000
 H      40.65000000      37.34000000      19.57200000
 H      41.51800000      38.06100000      18.57200000
 O      24.50000000      38.26700000      15.22300000
 H      24.75700000      38.89200000      16.00500000
 H      23.62600000      38.02900000      15.51600000
 O      31.15000000      34.73400000      24.09100000
 H      30.75600000      34.84400000      24.98500000
 H      30.36200000      35.00800000      23.54900000
 O      39.69400000      35.60100000      24.42500000
 H      39.36300000      34.63700000      24.36100000
 H      40.59800000      35.53500000      24.17900000
 O      28.94300000      39.79500000      34.10900000
 H      28.86300000      40.25900000      34.94600000
 H      29.78800000      40.27100000      33.81200000
 O      39.61700000      40.43200000      29.65300000
 H      40.30500000      39.82000000      29.25100000
 H      39.43500000      39.83800000      30.44000000
 O      32.53900000      36.90000000      20.98200000
 H      33.00400000      36.82200000      21.84900000
 H      33.30600000      36.65000000      20.38600000
 O       6.96300000      35.48200000      22.68800000
 H       7.87100000      35.52600000      22.32700000
 H       6.52400000      35.00100000      21.93900000
 O      27.27300000      39.98200000      29.76200000
 H      27.29700000      40.30800000      30.69900000
 H      26.34500000      40.07700000      29.50200000
 O       6.47700000      39.92800000      37.12700000
 H       7.17600000      39.28600000      37.01800000
 H       5.76300000      39.37500000      37.52300000
 O      26.96400000      36.89900000      15.28900000
 H      27.33200000      37.53600000      15.97200000
 H      26.02300000      37.18700000      15.31500000
 O      11.18500000      35.19300000      12.41500000
 H      11.30900000      36.06300000      11.89900000
 H      10.82300000      34.64100000      11.67600000
 O       9.36900000      35.94300000      24.82800000
 H       9.72200000      35.09900000      24.50200000
 H       8.46800000      35.72200000      25.04700000
 O      38.45100000      38.49700000      23.42300000
 H      38.31200000      37.65400000      23.81400000
 H      37.71900000      38.48700000      22.75100000
 O      15.80300000      39.51800000      34.45700000
 H      16.25300000      39.01400000      35.20900000
 H      14.94900000      38.99400000      34.44800000
 O      33.27100000      36.65800000      23.40400000
 H      32.45300000      36.14100000      23.56600000
 H      33.23500000      37.27600000      24.16200000
 O      13.28700000      35.42200000      14.19300000
 H      12.89100000      35.62100000      15.09400000
 H      12.49300000      35.43000000      13.62300000
 O      25.87500000      37.22700000       9.02300000
 H      25.18000000      37.86200000       8.72200000
 H      25.70700000      37.22300000       9.99700000
 O      20.07400000      36.78600000      19.65600000
 H      19.67400000      36.33700000      20.44200000
 H      19.29600000      37.21000000      19.29500000
 O       8.75200000      39.67500000      26.52200000
 H       9.62800000      39.92200000      26.16800000
 H       8.18000000      40.22500000      25.97200000
 O      22.47300000      34.32000000      28.15400000
 H      21.61500000      34.18100000      27.85700000
 H      22.84300000      35.08800000      27.64800000
 O      22.12000000      37.51800000      11.54600000
 H      21.94900000      38.48200000      11.59500000
 H      21.69800000      37.23100000      12.39200000
 O      25.44500000      35.78400000      34.81100000
 H      24.86100000      36.00500000      34.06300000
 H      26.32200000      36.14400000      34.43500000
 O      30.48200000      38.17700000       6.75500000
 H      30.44500000      37.48800000       5.99300000
 H      29.78500000      37.84700000       7.33900000
 O      13.03900000      38.08800000      38.80100000
 H      13.03500000      37.43300000      38.08800000
 H      12.67100000      38.85500000      38.35800000
 O      30.36500000      34.72000000      15.56900000
 H      30.30200000      35.37000000      16.28400000
 H      31.08600000      35.12400000      15.01000000
 O      35.27900000      40.38600000      32.52800000
 H      35.65400000      40.50000000      33.40600000
 H      35.01400000      39.43400000      32.60400000
 O      22.71000000      40.61900000      30.59200000
 H      22.12800000      41.15200000      30.04900000
 H      23.48800000      40.50500000      30.04900000
 O      21.26100000      38.60500000      31.71000000
 H      20.97500000      37.97500000      31.01100000
 H      21.67900000      39.33600000      31.22800000
 O       9.85400000      35.40000000      14.90500000
 H      10.19800000      35.65500000      14.02400000
 H       9.75200000      34.41400000      14.77900000
 O      20.48000000      40.09900000      11.87300000
 H      20.11400000      40.53700000      12.64900000
 H      19.94300000      39.24400000      12.01800000
 O      18.54600000      37.12900000       9.59600000
 H      18.42900000      36.19700000       9.87000000
 H      18.16000000      37.10300000       8.69600000
 O      18.78800000      37.78400000      12.14200000
 H      18.55600000      36.95400000      12.64300000
 H      18.53200000      37.56300000      11.20900000
 O      20.03000000      38.52300000      34.27300000
 H      19.84600000      39.47800000      34.11900000
 H      20.39400000      38.24900000      33.40900000
 O      38.84600000      36.14100000      16.99700000
 H      39.55900000      35.63300000      16.53400000
 H      39.38900000      36.62100000      17.63300000
 O      22.62600000      37.58500000      34.19000000
 H      22.52600000      37.69000000      33.24200000
 H      21.74800000      38.03700000      34.45400000
 O      13.89000000      37.89500000      18.25300000
 H      13.45500000      38.76300000      18.00900000
 H      13.28400000      37.32800000      17.65900000
 O      30.07400000      39.03400000      26.79800000
 H      30.92100000      39.45000000      26.63100000
 H      29.51700000      39.61700000      26.22900000
 O      40.81400000      40.25100000      16.97200000
 H      40.31200000      39.71600000      16.36000000
 H      41.39600000      39.60800000      17.41500000
 O      33.06000000      34.96900000       7.95400000
 H      32.55800000      34.41600000       8.55400000
 H      33.91700000      34.44200000       7.84900000
 O      36.14600000      34.86100000      24.06400000
 H      36.08700000      35.50100000      24.75400000
 H      35.58900000      35.19400000      23.32900000
 O      15.61400000      38.75900000      31.73800000
 H      16.60200000      38.55000000      31.58800000
 H      15.76700000      39.18100000      32.61600000
 O      24.37000000      36.09800000      40.62500000
 H      25.02400000      35.43500000      40.43200000
 H      24.61500000      36.80200000      39.99500000
 O      37.22900000      38.87300000       9.99500000
 H      36.75200000      38.81600000      10.87800000
 H      36.89600000      38.09400000       9.58200000
 O      36.50100000      36.22800000      26.84500000
 H      37.42800000      36.43100000      27.06100000
 H      36.36100000      35.47800000      27.44400000
 O      19.26700000      37.03300000      23.70900000
 H      20.02700000      37.48300000      23.32700000
 H      19.63100000      36.24100000      24.12300000
 O      21.63700000      36.15600000      37.50200000
 H      21.16100000      35.88500000      36.61400000
 H      21.26800000      35.37000000      38.00000000
 O      15.86200000      34.41700000      28.66100000
 H      15.57400000      35.22100000      28.28000000
 H      15.10800000      34.22900000      29.29500000
 O      12.68500000      39.94900000       9.89500000
 H      13.51700000      39.95700000      10.47500000
 H      13.11300000      40.17500000       9.05900000
 O      11.30300000      36.44500000      29.26800000
 H      11.39400000      36.69900000      30.20300000
 H      10.77500000      37.22200000      28.90300000
 O      40.49600000      34.69800000       9.18600000
 H      41.36500000      35.16600000       9.20300000
 H      40.73300000      33.84700000       9.61300000
 O      12.12100000      36.81000000      16.61000000
 H      11.54300000      36.19600000      17.13500000
 H      11.42400000      37.17000000      15.99800000
 O      11.91000000      37.19800000      23.83200000
 H      10.98500000      36.94900000      23.56900000
 H      11.73400000      37.45900000      24.70300000
 O      24.74800000      37.36200000      18.81300000
 H      24.84500000      36.87100000      17.99500000
 H      25.41400000      38.02900000      18.84900000
 O      28.39200000      35.85100000      18.12100000
 H      28.97500000      36.44300000      17.66400000
 H      28.96800000      35.52800000      18.87000000
 O      37.34500000      37.26600000      32.61300000
 H      37.26100000      37.37900000      33.57000000
 H      36.59900000      36.65300000      32.42400000
 O      10.18000000      38.44900000      35.53700000
 H       9.44100000      38.18200000      34.87200000
 H       9.64600000      38.34400000      36.36100000
 O      18.60400000      37.80100000      28.36400000
 H      18.31200000      37.10500000      27.68100000
 H      18.51700000      38.62900000      27.86000000
 O      23.07200000      35.82100000       6.35500000
 H      23.59800000      35.15600000       6.81500000
 H      23.18300000      36.59100000       6.98000000
 O      15.83900000      34.96100000      16.06300000
 H      15.65500000      35.90100000      15.94900000
 H      15.43900000      34.76900000      16.91100000
 O      32.51100000      35.70700000      14.35500000
 H      32.79700000      35.39900000      13.43400000
 H      33.31000000      36.13500000      14.65100000
 O       7.32500000      35.26900000      17.75900000
 H       8.01500000      35.90200000      17.47800000
 H       7.77100000      34.45400000      17.72600000
 O      35.56300000      34.87300000      31.66600000
 H      35.08300000      35.00600000      30.84000000
 H      34.84300000      34.44700000      32.19100000
 O      39.38400000      38.80500000      32.08900000
 H      39.09900000      39.61600000      32.45600000
 H      38.57100000      38.24600000      32.06100000
 O      36.38700000      37.30700000      21.41600000
 H      36.56900000      37.31600000      20.47300000
 H      35.85800000      38.13600000      21.52600000
 O      25.08700000      37.94500000      22.44900000
 H      24.82000000      38.11000000      23.42000000
 H      24.62700000      38.75900000      22.08500000
 O      27.97500000      37.10800000      34.03500000
 H      28.73500000      36.71100000      33.50500000
 H      28.31500000      37.96500000      34.30200000
 O       8.24100000      38.94000000       9.07400000
 H       8.76400000      39.43400000       9.74000000
 H       8.53900000      39.40000000       8.24600000
 O      24.82800000      36.90200000      28.58500000
 H      24.59800000      37.76500000      29.07700000
 H      24.14500000      36.34800000      28.96300000
 O      10.09400000      34.93100000      33.42400000
 H       9.52100000      34.57500000      32.70800000
 H      10.86100000      34.27400000      33.39800000
 O      28.36000000      34.81100000      13.64600000
 H      27.84600000      35.32000000      14.30700000
 H      29.14400000      34.63300000      14.15600000
 O      13.68700000      38.78900000      22.41300000
 H      13.20000000      38.35200000      23.13900000
 H      13.90600000      38.09800000      21.80300000
 O      31.53100000      39.39700000      21.24600000
 H      30.70800000      39.42200000      20.72500000
 H      31.69900000      38.41100000      21.30100000
 O      40.34600000      37.09200000      34.57200000
 H      40.46300000      37.93800000      35.05100000
 H      40.12300000      37.45400000      33.66300000
 O      23.41200000      38.25900000       8.17000000
 H      23.48300000      38.92800000       7.50200000
 H      22.98300000      38.79300000       8.88900000
 O      34.17300000      38.43100000      39.91600000
 H      34.07100000      38.67800000      38.98800000
 H      33.26600000      38.43700000      40.23500000
 O      34.13400000      40.53100000      10.36800000
 H      34.15200000      39.56100000      10.31500000
 H      34.91600000      40.74300000       9.78400000
 O      14.51200000      39.33000000      29.33600000
 H      15.05300000      39.24800000      30.17700000
 H      13.97800000      40.07900000      29.67600000
 O      35.47600000      38.46500000      12.26000000
 H      34.77100000      37.94000000      11.85400000
 H      35.25400000      38.53400000      13.15900000
 O      18.18400000      35.60100000      21.40800000
 H      18.64400000      35.97800000      22.19400000
 H      17.90700000      34.72100000      21.75100000
 O      36.17900000      40.38900000      28.21900000
 H      36.83000000      40.06400000      28.86400000
 H      36.53000000      40.22600000      27.36900000
 O       8.08200000      38.70300000      19.90300000
 H       7.44600000      38.77800000      20.69000000
 H       7.86600000      39.54100000      19.40100000
 O      20.63600000      38.78600000      38.76000000
 H      20.81600000      37.99900000      38.09500000
 H      20.93900000      38.33600000      39.57700000
 O       8.58300000      38.25500000      37.74700000
 H       8.33600000      37.93900000      38.63900000
 H       9.05800000      39.04900000      38.03800000
 O      15.95200000      38.16300000      16.31400000
 H      15.91400000      39.14500000      16.29700000
 H      15.51000000      38.06300000      17.20900000
 O      12.34200000      39.58100000      14.77600000
 H      12.91500000      39.22700000      15.51200000
 H      12.91800000      40.26800000      14.44500000
 O       8.86000000      40.00100000      22.43800000
 H       8.82800000      40.74400000      21.82300000
 H       7.93700000      39.82400000      22.51900000
 O      32.46600000      38.38000000      29.30900000
 H      32.56600000      38.92700000      28.48500000
 H      31.61100000      38.69800000      29.60600000
 O      31.44900000      38.52500000      32.79700000
 H      31.28800000      39.41600000      33.18500000
 H      30.88700000      38.52100000      32.00300000
 O      20.83400000      36.79800000      14.03500000
 H      21.34400000      36.82700000      14.93700000
 H      20.06200000      37.26500000      14.33600000
 O      35.53800000      38.19300000      35.30200000
 H      35.01800000      38.10600000      34.42700000
 H      35.67900000      39.17900000      35.30100000
 O      38.95800000      40.05200000       8.66100000
 H      39.62500000      39.39200000       8.45700000
 H      38.37100000      39.57800000       9.30000000
 O      20.94900000      40.44600000      16.17500000
 H      20.29200000      40.36700000      16.95200000
 H      20.57100000      41.30300000      15.82200000
 O      36.77300000      37.19500000      18.79700000
 H      36.88900000      38.14100000      18.50300000
 H      37.44300000      36.80300000      18.25400000
 O      30.96900000      40.39600000      11.35600000
 H      31.71700000      40.51300000      10.78900000
 H      31.34800000      39.96500000      12.11700000
 O      18.42200000      40.04300000      17.76000000
 H      17.61800000      40.65700000      17.62300000
 H      17.97600000      39.52600000      18.48900000
 O      28.89700000      34.73600000      22.74700000
 H      28.59300000      33.80500000      22.64400000
 H      29.13100000      34.91800000      21.80100000
 O      24.78800000      40.81300000      28.96300000
 H      24.50600000      40.80900000      27.97100000
 H      25.08000000      41.74100000      28.99700000
 O      23.46500000      38.43900000      36.74000000
 H      22.86800000      37.75300000      37.22600000
 H      23.42600000      37.98200000      35.84800000
 O      33.74000000      40.60000000      27.70000000
 H      34.69500000      40.44100000      27.91400000
 H      33.45200000      41.18100000      28.42500000
 O      39.49500000      36.88100000      26.93600000
 H      39.52800000      37.10800000      25.99800000
 H      39.95600000      36.00000000      26.91600000
 O       6.74400000      34.50700000      25.12500000
 H       6.95400000      33.55800000      24.90200000
 H       6.84100000      34.81100000      24.15900000
 O       8.82700000      36.48500000       9.60000000
 H       8.32400000      37.17900000       9.15400000
 H       9.71500000      36.60000000       9.19900000
 O      33.34600000      38.17600000      26.03000000
 H      33.79000000      39.05300000      26.09000000
 H      33.91900000      37.63800000      26.51600000
 O      18.17600000      35.71500000      26.36500000
 H      18.53300000      36.25000000      25.62400000
 H      18.71000000      34.92900000      26.34500000
 O      28.93800000      35.04100000      10.95500000
 H      28.82500000      35.13500000      11.91400000
 H      28.77000000      35.92500000      10.68800000
 O      12.21000000      39.96200000      18.09000000
 H      12.23100000      40.65400000      18.77200000
 H      11.66700000      40.40800000      17.41800000
 O      11.70600000      37.46500000      10.61900000
 H      11.86000000      38.42500000      10.50300000
 H      12.02300000      37.18300000       9.68700000
 O      32.57600000      40.36400000      35.56100000
 H      33.41700000      40.88200000      35.70500000
 H      32.19500000      40.83600000      34.85200000
 O      14.72600000      37.14500000      24.80100000
 H      15.33900000      36.80800000      25.43300000
 H      14.56500000      36.34000000      24.23700000
 O       7.29700000      40.15900000      15.36800000
 H       6.46300000      40.20700000      14.88300000
 H       7.93900000      39.87400000      14.72700000
 O      35.56200000      37.37200000       8.46000000
 H      36.16700000      36.66200000       8.17900000
 H      35.27900000      37.69700000       7.61400000
 O      26.61000000      40.00400000      32.43000000
 H      26.24600000      39.11300000      32.24600000
 H      27.21300000      39.77900000      33.16800000
 O      24.83800000      39.92700000      17.33000000
 H      24.56600000      40.61400000      17.98400000
 H      25.86700000      39.95900000      17.36600000
 O       9.73000000      40.13700000      10.80600000
 H       9.58700000      40.83900000      11.52800000
 H      10.38900000      40.62000000      10.31400000
 O       9.92400000      39.90400000      13.86000000
 H       9.82400000      39.01600000      13.51500000
 H      10.85800000      39.90600000      14.07500000
 O      39.81600000      36.65200000      37.59900000
 H      39.97200000      37.07500000      36.70400000
 H      39.25400000      37.37500000      37.95300000
 O      25.51700000      40.27800000       8.28800000
 H      25.45400000      40.42300000       7.31800000
 H      24.76400000      40.84300000       8.59400000
 O      36.77600000      39.05000000      30.53000000
 H      36.23200000      39.47000000      31.19400000
 H      37.00200000      38.23700000      30.91600000
 O       9.07600000      35.49900000      20.50300000
 H       9.41900000      35.55500000      19.57800000
 H       8.82300000      36.47300000      20.54100000
 O      11.87700000      40.52400000      30.53000000
 H      11.28500000      40.31100000      31.26500000
 H      11.49600000      40.01100000      29.81600000
 O      15.13000000      40.21700000      11.14600000
 H      15.75400000      40.95200000      10.84300000
 H      15.51600000      39.95800000      12.01000000
 O      15.63200000      37.07300000      39.67000000
 H      14.88300000      37.66700000      39.49800000
 H      16.36000000      37.72500000      39.63200000
 O      31.08800000      37.20700000      17.35800000
 H      31.08300000      38.15600000      17.27700000
 H      32.09300000      37.06500000      17.27700000
 O       8.82300000      37.93300000      12.06900000
 H       8.85200000      38.81700000      11.64600000
 H       8.90800000      37.42800000      11.20300000
 O       8.82200000      37.62100000      40.30600000
 H       8.70200000      36.66100000      40.45900000
 H       9.79900000      37.75800000      40.47900000
 O      21.99900000      38.41500000      23.17800000
 H      22.08600000      38.99900000      22.40600000
 H      21.86700000      39.05200000      23.93300000
 O      30.72500000      36.89800000      35.09300000
 H      30.38300000      37.30400000      35.88100000
 H      31.08900000      37.62600000      34.57400000
 O      24.14000000      40.51800000      21.76900000
 H      23.55300000      41.08700000      22.30600000
 H      24.59200000      41.12600000      21.15800000
 O      29.83300000      38.53000000      36.89300000
 H      30.15100000      39.15000000      37.60400000
 H      28.87900000      38.54900000      37.19300000
 O      12.42300000      39.58900000      36.66000000
 H      13.16300000      39.22100000      36.12300000
 H      11.67700000      39.00900000      36.23500000
 O      22.08500000      37.99100000      16.15400000
 H      21.72800000      38.81000000      15.72600000
 H      22.01500000      38.19900000      17.10000000
 O      26.97400000      34.69100000      29.25300000
 H      26.22000000      34.11100000      28.90500000
 H      26.56500000      35.59000000      29.12700000
 O      15.05000000      33.82200000      39.41600000
 H      15.50400000      33.52100000      38.61000000
 H      15.07200000      34.81600000      39.25800000
 O      18.73000000      37.89100000      16.12500000
 H      17.79100000      38.11500000      16.26000000
 H      19.16800000      38.64000000      16.51000000
 O      15.28400000      40.17400000       7.99500000
 H      14.78900000      40.97900000       8.02600000
 H      15.68900000      40.18800000       8.88800000
 O      14.69100000      34.99900000       6.72900000
 H      14.15100000      34.83700000       5.95700000
 H      14.08600000      34.57900000       7.41000000
 O      29.72700000      40.55600000      39.01600000
 H      29.09800000      41.16900000      39.50200000
 H      30.33000000      40.38400000      39.74000000
 O      13.88500000      37.00200000      27.95100000
 H      14.16100000      37.82200000      28.41200000
 H      13.27800000      36.66100000      28.61600000
 O      24.76700000      38.34300000      25.15000000
 H      25.13400000      39.19800000      25.58600000
 H      25.43900000      37.74500000      25.58400000
 O       7.59100000      37.36700000      14.28600000
 H       8.47100000      37.10000000      14.71400000
 H       8.01800000      37.51600000      13.39200000
 O      34.86500000      37.93600000      14.75600000
 H      34.71600000      37.97300000      15.78700000
 H      35.77600000      37.53600000      14.78700000
 O       6.99300000      35.57400000      27.60700000
 H       6.97500000      35.07800000      26.71600000
 H       6.98200000      34.81400000      28.23500000
 O      28.63700000      34.50100000      35.45100000
 H      29.43900000      35.05700000      35.51400000
 H      27.99300000      35.26100000      35.26000000
 O      28.34400000      38.73100000      16.66600000
 H      27.79200000      39.56300000      16.69300000
 H      29.10600000      39.02500000      16.17200000
 O      36.16100000      36.93800000      37.64700000
 H      35.98500000      37.56600000      36.88000000
 H      35.25500000      36.54400000      37.65300000
 O      27.29100000      38.14400000      37.42500000
 H      26.77700000      38.59100000      38.01200000
 H      26.70000000      37.65200000      36.84400000
 O      13.51200000      39.01300000      26.26700000
 H      13.98500000      38.53100000      25.51800000
 H      13.65200000      38.30700000      26.97200000
 O      14.27700000      48.57500000      33.73600000
 H      13.79300000      48.43300000      32.92200000
 H      13.70300000      49.24200000      34.17900000
 O      28.92400000      48.01700000      31.94600000
 H      29.72800000      47.50400000      32.14000000
 H      28.51500000      48.00900000      32.84900000
 O      12.92200000      45.59800000      29.59400000
 H      13.16200000      45.11300000      30.37800000
 H      12.06800000      45.25200000      29.34500000
 O      27.40400000      42.82600000      17.43900000
 H      27.77800000      42.96900000      18.32400000
 H      27.15600000      43.76500000      17.23500000
 O      13.51600000      43.73500000      31.85900000
 H      12.75200000      43.21200000      31.46700000
 H      13.43500000      43.49500000      32.76800000
 O      31.79000000      42.85500000      25.42400000
 H      32.56000000      43.03200000      25.98600000
 H      32.14400000      42.81300000      24.51400000
 O      19.53000000      42.99100000      34.03100000
 H      18.63100000      43.11600000      33.64000000
 H      19.99600000      43.78900000      33.64100000
 O      18.46500000      43.72500000      39.60400000
 H      18.40200000      43.29800000      38.70600000
 H      18.25200000      44.65100000      39.38100000
 O      29.32700000      44.47400000      31.17400000
 H      28.37200000      44.52800000      31.40700000
 H      29.60900000      45.34800000      31.43600000
 O      23.23700000      45.92100000       7.59000000
 H      23.52700000      45.61700000       6.70000000
 H      24.01700000      46.45800000       7.87900000
 O      32.50600000      45.46900000      20.79100000
 H      32.34300000      46.43200000      21.05300000
 H      33.46900000      45.56000000      20.64400000
 O      24.85700000      46.72500000      25.23500000
 H      25.68400000      46.96700000      25.69700000
 H      24.72000000      45.82600000      25.62900000
 O      36.15400000      45.15200000      24.08200000
 H      36.52400000      45.52400000      24.88700000
 H      36.90100000      44.70000000      23.65100000
 O      15.75000000      48.17200000      13.26900000
 H      16.29700000      48.18300000      12.43900000
 H      14.87000000      48.27400000      12.89900000
 O      21.42000000      43.85200000      10.56100000
 H      21.79700000      44.02500000      11.43200000
 H      20.89800000      43.01000000      10.77000000
 O      26.25900000      43.97900000      37.26500000
 H      25.46300000      43.59700000      36.79500000
 H      25.96500000      43.93600000      38.19300000
 O      13.87100000      45.76100000      20.42700000
 H      14.09200000      45.76100000      21.43100000
 H      14.74600000      46.07300000      20.15200000
 O      22.80000000      47.55800000      29.48700000
 H      23.36500000      48.36800000      29.46200000
 H      22.89800000      47.39100000      30.42600000
 O      20.61200000      45.48300000      36.55800000
 H      21.24600000      44.92900000      36.05900000
 H      20.94300000      45.48800000      37.44800000
 O      16.72200000      45.75300000      16.20400000
 H      17.36500000      46.14600000      16.73000000
 H      15.88800000      46.17700000      16.50200000
 O      28.21500000      48.84200000      23.47700000
 H      28.83300000      48.22200000      22.97800000
 H      28.03500000      48.22100000      24.28700000
 O       8.45800000      47.02300000      33.92400000
 H       8.99300000      47.29500000      33.12600000
 H       7.61000000      46.78300000      33.38400000
 O      29.81300000      46.99100000      21.46400000
 H      28.88900000      46.84700000      21.08000000
 H      30.31500000      47.39000000      20.75000000
 O      14.17400000      48.28600000      24.31800000
 H      13.55600000      48.69700000      24.88200000
 H      14.01600000      48.68300000      23.43700000
 O      20.17100000      49.02300000       8.24000000
 H      20.40500000      48.94300000       9.13500000
 H      19.29900000      48.63900000       8.15400000
 O      34.78600000      45.95900000      17.52500000
 H      34.71800000      44.99800000      17.31000000
 H      35.10400000      45.87000000      18.42900000
 O      37.78800000      48.04900000      24.79500000
 H      38.62400000      47.58200000      24.33800000
 H      37.60600000      47.32200000      25.41400000
 O      20.75700000      43.24400000      19.43800000
 H      20.31500000      43.53900000      20.30400000
 H      20.73300000      42.26500000      19.56600000
 O      24.44100000      47.23700000      35.69700000
 H      23.62700000      47.76600000      35.99100000
 H      23.94700000      46.35300000      35.53800000
 O      38.41400000      42.75300000      32.86000000
 H      38.11300000      43.65300000      32.56000000
 H      38.52100000      42.94900000      33.80300000
 O      25.87600000      44.89900000      28.07900000
 H      26.68600000      44.93800000      27.50900000
 H      26.12000000      45.56900000      28.75500000
 O      24.64200000      46.47800000      31.58700000
 H      25.18000000      47.02700000      32.21800000
 H      25.20300000      46.64400000      30.80700000
 O      34.17500000      46.99600000      23.80400000
 H      34.56600000      47.51100000      23.02900000
 H      34.70300000      46.14400000      23.71900000
 O      33.92900000      42.92100000      38.47500000
 H      33.31300000      42.21800000      38.09700000
 H      33.61200000      43.71700000      38.00300000
 O      28.53300000      42.91800000      36.45000000
 H      29.09500000      42.80700000      37.23400000
 H      27.71400000      43.24500000      36.86500000
 O      14.38400000      44.85600000      40.02700000
 H      14.34700000      44.50900000      39.11900000
 H      13.91800000      44.09600000      40.45900000
 O      35.54200000      42.91800000      35.26300000
 H      35.99700000      43.17900000      36.11000000
 H      35.65300000      43.83700000      34.87100000
 O      21.97500000      48.49800000      36.45200000
 H      21.37900000      49.27800000      36.33700000
 H      21.33000000      47.76900000      36.40900000
 O      20.97600000      49.20300000      39.59500000
 H      20.48900000      48.38300000      39.81600000
 H      20.47000000      49.53500000      38.77700000
 O      15.57600000      43.04900000      27.32500000
 H      16.15300000      43.14600000      28.07800000
 H      15.14500000      42.17700000      27.48300000
 O      10.83300000      48.17800000      37.43100000
 H      11.45400000      47.56000000      37.86200000
 H      11.45000000      48.99900000      37.36900000
 O      37.01100000      43.81700000      37.36500000
 H      37.05700000      44.77700000      37.53700000
 H      37.22700000      43.53500000      38.29900000
 O      38.18100000      45.70000000      17.30000000
 H      37.51900000      45.68800000      16.62500000
 H      39.00400000      45.44400000      16.82300000
 O      39.53700000      43.71200000       6.80100000
 H      39.65700000      43.04300000       6.07900000
 H      39.52800000      43.08600000       7.54800000
 O      27.33600000      46.51600000      20.25000000
 H      26.40500000      46.18700000      20.25300000
 H      27.37500000      47.03600000      19.47300000
 O      40.16700000      44.58300000      13.55500000
 H      40.17600000      44.66500000      14.54400000
 H      40.05800000      45.55200000      13.36500000
 O       8.59400000      43.64700000      20.43800000
 H       7.70200000      44.10200000      20.56600000
 H       8.64600000      43.82600000      19.47900000
 O      36.62500000      49.57400000      20.09400000
 H      36.23100000      49.45200000      19.21200000
 H      37.08300000      48.67200000      20.10100000
 O      21.27500000      47.45300000       6.48900000
 H      20.80000000      47.90200000       7.28600000
 H      21.96900000      47.01800000       6.98000000
 O      38.83900000      43.16300000      35.42800000
 H      38.07900000      43.19400000      35.99400000
 H      39.19300000      44.08300000      35.49700000
 O      12.85700000      43.67900000      34.37000000
 H      12.14800000      43.72200000      35.09100000
 H      13.33000000      44.47200000      34.73900000
 O      14.35800000      44.68200000      25.54800000
 H      14.75100000      43.88200000      25.97200000
 H      14.53800000      45.39800000      26.12700000
 O      20.53900000      46.16700000       9.68300000
 H      21.08200000      46.79100000      10.21300000
 H      20.84700000      45.30200000      10.07100000
 O      32.12000000      46.58100000      10.23000000
 H      32.18700000      47.46300000       9.77700000
 H      31.64900000      46.09900000       9.47400000
 O      21.72000000      48.04400000      11.09500000
 H      22.51900000      48.11500000      11.64600000
 H      21.06100000      48.48600000      11.67700000
 O      37.29600000      43.59700000      20.96000000
 H      37.97800000      43.20600000      20.37400000
 H      37.86500000      43.83700000      21.72300000
 O      31.30600000      46.44700000      29.78600000
 H      31.57400000      46.60700000      30.69600000
 H      31.13300000      47.35400000      29.42600000
 O       9.45000000      46.48500000      13.20200000
 H      10.33600000      46.89700000      12.99900000
 H       9.15800000      47.12100000      13.87100000
 O      37.53400000      48.42000000      27.89400000
 H      38.21400000      48.67600000      28.54100000
 H      37.75400000      47.54200000      27.70800000
 O      22.39700000      44.77200000      32.35100000
 H      22.75700000      44.05900000      31.78700000
 H      23.08900000      45.41400000      32.34100000
 O      38.74800000      48.48300000      39.99600000
 H      39.54000000      47.88800000      39.90300000
 H      38.12000000      47.89400000      40.48600000
 O      35.17900000      45.67600000      20.11400000
 H      36.02200000      45.17300000      20.18800000
 H      35.44300000      46.45800000      20.68500000
 O      25.87800000      47.58400000      33.64100000
 H      25.30300000      47.36300000      34.45900000
 H      26.66300000      47.91100000      34.12900000
 O      23.00200000      45.08800000      35.05700000
 H      23.53500000      44.26600000      35.29900000
 H      22.56100000      44.85400000      34.24000000
 O      29.99000000      48.99400000      26.58600000
 H      30.50400000      48.14000000      26.48100000
 H      30.30800000      49.41500000      25.74200000
 O      20.05700000      49.04700000      13.04500000
 H      19.77800000      48.51300000      13.79700000
 H      19.20800000      49.53300000      12.86500000
 O      35.97000000      47.63800000      22.07900000
 H      36.14400000      48.53900000      21.76200000
 H      36.56300000      47.72400000      22.87900000
 O      30.83300000      48.13300000      19.34700000
 H      31.29600000      47.51000000      18.75200000
 H      30.63100000      48.84800000      18.75600000
 O      34.21700000      44.15600000      12.50500000
 H      34.85000000      43.67600000      13.06900000
 H      34.25000000      43.47600000      11.68500000
 O       7.97800000      44.98100000      38.67300000
 H       7.01500000      45.28100000      38.62800000
 H       8.26500000      45.47800000      37.85200000
 O      18.49400000      46.11500000      30.06300000
 H      18.99400000      46.95500000      30.11200000
 H      17.61800000      46.40400000      30.38200000
 O      10.88900000      44.50200000      28.32000000
 H      11.03800000      43.94900000      27.57400000
 H      10.10200000      44.06900000      28.75300000
 O      37.09200000      46.28900000      38.00100000
 H      37.80200000      46.71200000      37.48500000
 H      37.45300000      46.39100000      38.91300000
 O      23.90200000      42.83700000      35.90500000
 H      23.10500000      42.89600000      36.46000000
 H      23.96400000      41.86300000      35.87600000
 O      39.94800000      46.79500000      23.79100000
 H      40.39900000      47.54100000      23.33000000
 H      40.82300000      46.31400000      24.04100000
 O      11.61800000      44.73600000      24.40000000
 H      12.54400000      44.93600000      24.60000000
 H      11.70600000      44.06000000      23.68800000
 O      13.62300000      47.13200000      11.28000000
 H      14.27100000      47.14200000      10.53800000
 H      12.78700000      46.94300000      10.78200000
 O      23.82700000      49.03200000      26.19800000
 H      23.98800000      48.17500000      25.75600000
 H      24.73500000      49.43200000      26.15100000
 O      22.38600000      45.04000000      17.87900000
 H      22.30500000      44.40000000      18.62400000
 H      21.51200000      44.92500000      17.39100000
 O      23.41600000      45.70900000      27.54300000
 H      23.18600000      46.39600000      28.21600000
 H      24.36300000      45.57800000      27.73100000
 O      14.04300000      46.86200000      16.29400000
 H      13.68500000      46.13700000      16.86800000
 H      13.36600000      46.79600000      15.56400000
 O      21.95300000      42.75600000      37.76300000
 H      21.30500000      42.12900000      38.09600000
 H      21.69100000      43.47600000      38.39000000
 O      38.90700000      44.64600000      29.48300000
 H      38.11000000      44.66900000      30.09800000
 H      39.13900000      43.69400000      29.58700000
 O      25.39300000      44.08000000      24.59700000
 H      25.94100000      43.73200000      23.88000000
 H      24.51200000      43.78800000      24.36500000
 O      34.62200000      48.04600000       8.26300000
 H      35.52000000      48.37500000       8.31500000
 H      34.79300000      47.10000000       8.47600000
 O      28.17500000      44.58500000      26.68500000
 H      28.58500000      43.89400000      26.09400000
 H      28.93600000      44.77400000      27.21400000
 O      10.38300000      46.91500000      17.12400000
 H      10.73100000      46.98900000      18.02900000
 H       9.73400000      47.61500000      17.15800000
 O      25.30500000      46.66300000      22.50700000
 H      24.94600000      46.60200000      23.41000000
 H      26.25600000      46.60600000      22.61200000
 O      30.66200000      46.07100000      23.92100000
 H      30.42100000      46.27200000      23.01200000
 H      31.16900000      45.29000000      23.86400000
 O      20.19900000      42.67400000       7.03900000
 H      19.63500000      42.44500000       6.22000000
 H      19.96200000      43.61800000       7.14300000
 O      36.89600000      43.62800000       9.79700000
 H      37.05300000      42.97900000       9.05000000
 H      37.74600000      44.11900000       9.83500000
 O      24.80900000      48.57400000      20.70300000
 H      25.00600000      47.81800000      21.32100000
 H      24.32100000      48.11900000      19.95500000
 O      36.08900000      43.77000000      14.89600000
 H      36.90100000      43.24700000      14.80900000
 H      35.64500000      43.32600000      15.63100000
 O      13.37000000      43.72800000      37.70300000
 H      12.73100000      43.10800000      37.29000000
 H      13.95700000      43.85200000      36.89700000
 O      33.35800000      44.49600000      29.60800000
 H      33.45700000      44.30800000      30.56900000
 H      32.61600000      45.13400000      29.66200000
 O      26.39300000      49.39800000       7.98800000
 H      25.79500000      49.82600000       7.31400000
 H      26.25600000      48.47900000       7.77500000
 O      40.23700000      45.83400000      20.05100000
 H      40.39500000      45.24100000      20.79000000
 H      41.12000000      45.82600000      19.55900000
 O      35.49600000      49.07900000      17.50600000
 H      34.93700000      48.85500000      16.80300000
 H      35.83800000      48.17000000      17.74200000
 O       6.86000000      46.88800000      12.40700000
 H       7.82500000      46.74100000      12.38500000
 H       6.74800000      46.82200000      13.39200000
 O       9.46800000      45.94000000      23.05600000
 H      10.23000000      45.73700000      23.62600000
 H       8.75900000      45.47000000      23.51600000
 O      17.30500000      46.28300000      34.33200000
 H      17.08000000      45.32900000      34.17000000
 H      16.74400000      46.68600000      33.65600000
 O      28.50200000      47.22200000       7.05000000
 H      28.90400000      46.66200000       7.75100000
 H      29.19400000      47.84100000       6.89700000
 O      34.68600000      47.98900000      27.55800000
 H      35.59600000      48.31500000      27.51700000
 H      34.22600000      48.61800000      27.00300000
 O      28.80400000      45.01200000      34.53300000
 H      28.07600000      44.72400000      34.01100000
 H      28.81500000      44.30800000      35.24700000
 O       9.49100000      47.46000000      31.39800000
 H       8.77800000      46.78300000      31.13600000
 H       9.55200000      47.87500000      30.47400000
 O      34.41300000      48.47800000      12.55000000
 H      33.52300000      48.26700000      12.20800000
 H      34.96100000      47.80100000      12.16700000
 O      18.79000000      43.41300000      13.38600000
 H      18.70600000      44.18000000      12.81300000
 H      19.22400000      43.78400000      14.13900000
 O      38.19500000      47.48700000      19.32500000
 H      38.20800000      46.74800000      18.69400000
 H      38.95700000      47.12500000      19.83800000
 O       7.93000000      47.87500000      15.29300000
 H       6.94700000      47.76600000      15.13700000
 H       7.82800000      48.24900000      16.21800000
 O      35.23900000      45.54900000       8.66500000
 H      35.98800000      45.06200000       9.04400000
 H      34.87600000      44.86700000       8.04200000
 O      23.79900000      43.80700000       9.26300000
 H      23.72100000      44.66700000       8.80500000
 H      22.82100000      43.79100000       9.50700000
 O      31.11000000      43.24700000      33.03300000
 H      31.92200000      43.73400000      32.76300000
 H      30.44300000      43.67400000      32.46300000
 O      17.57900000      47.15500000      26.68800000
 H      17.53300000      47.84200000      27.40300000
 H      16.62700000      46.97400000      26.51300000
 O      23.09100000      44.24500000      13.20700000
 H      23.33600000      43.83900000      14.09200000
 H      23.80300000      43.96100000      12.65600000
 O      11.73200000      46.75400000      14.83800000
 H      11.55900000      45.84100000      14.53000000
 H      11.23800000      46.74700000      15.66700000
 O      39.35200000      48.09700000      29.97300000
 H      38.91800000      47.50300000      30.58900000
 H      40.06300000      47.56500000      29.60700000
 O      31.54900000      44.75300000      39.94600000
 H      31.72600000      44.82300000      38.97500000
 H      30.71500000      44.25100000      39.92300000
 O      17.08500000      45.69300000      37.15300000
 H      17.25300000      46.10600000      36.30300000
 H      16.16700000      46.06900000      37.32400000
 O      36.96500000      47.65400000      31.50300000
 H      36.04500000      47.55300000      31.11800000
 H      37.04200000      48.64300000      31.31900000
 O      29.55600000      47.98600000      11.31200000
 H      29.79800000      48.93900000      11.44500000
 H      30.45200000      47.67100000      10.99500000
 O      16.73200000      46.88900000      23.44000000
 H      16.16900000      47.32700000      24.14900000
 H      15.95500000      46.44800000      22.96100000
 O       9.38900000      48.53000000      39.82900000
 H       9.67700000      48.07800000      39.04400000
 H      10.15500000      48.42700000      40.41600000
 O      32.46600000      46.18800000      12.80100000
 H      33.07300000      45.41100000      12.73800000
 H      32.36400000      46.44400000      11.89100000
 O      31.86600000      46.24000000      17.48600000
 H      32.83000000      46.43500000      17.41300000
 H      31.89400000      45.35400000      17.93600000
 O      16.46700000      47.10800000      19.80000000
 H      16.45400000      47.86900000      19.18300000
 H      17.35200000      47.15100000      20.16400000
 O       8.80700000      43.45000000      29.58400000
 H       9.12500000      42.77500000      30.22300000
 H       7.92000000      43.08300000      29.34600000
 O       9.13000000      48.97600000      23.84400000
 H       9.45200000      48.32800000      23.21800000
 H       8.67300000      49.57900000      23.21000000
 O      10.72700000      47.83600000       7.37700000
 H      10.49900000      48.78700000       7.21500000
 H       9.86900000      47.42500000       7.18700000
 O      40.68800000      48.33300000      15.99800000
 H      41.04400000      47.59200000      16.47200000
 H      40.32000000      47.92100000      15.16800000
 O      21.19200000      45.38800000      25.63400000
 H      21.90500000      45.48600000      26.26000000
 H      20.43000000      45.12400000      26.24000000
 O      20.21400000      43.39100000      21.91400000
 H      19.78800000      42.46800000      21.82200000
 H      19.57400000      43.74900000      22.59200000
 O       9.10400000      44.22900000      11.89600000
 H       9.08300000      44.54700000      10.99700000
 H       9.21700000      45.12300000      12.39800000
 O      11.37800000      45.41400000      39.26800000
 H      10.55400000      44.90200000      39.14800000
 H      11.98400000      44.74600000      38.85800000
 O      21.41600000      45.26200000      39.15400000
 H      22.15400000      45.86600000      39.46100000
 H      20.63500000      45.77800000      39.51100000
 O      38.86300000      45.34900000      10.12300000
 H      38.45400000      45.62200000      10.98200000
 H      39.78200000      45.44300000      10.30100000
 O      18.95000000      46.60800000      39.62300000
 H      18.42600000      46.52100000      38.76600000
 H      18.38000000      47.23900000      40.07400000
 O      24.09500000      46.70700000      18.64500000
 H      24.15400000      47.20700000      17.81100000
 H      23.35100000      46.11400000      18.40700000
 O      28.65400000      43.77200000      20.62400000
 H      29.12200000      44.61000000      20.58800000
 H      29.34000000      43.14200000      20.39900000
 O      18.45000000      48.60000000      35.81800000
 H      18.55400000      48.28200000      34.94600000
 H      17.46700000      48.68900000      35.89000000
 O      19.89900000      46.54400000      33.86500000
 H      20.18200000      46.15900000      34.69900000
 H      18.95700000      46.44500000      33.92600000
 O      31.68200000      43.84200000      18.76700000
 H      31.59400000      44.42500000      19.53600000
 H      32.31900000      43.18300000      19.12100000
 O      17.70000000      44.05200000      22.99300000
 H      17.36700000      44.99300000      23.10200000
 H      17.13400000      43.55400000      23.60000000
 O       9.27800000      43.28300000      33.62300000
 H       9.93600000      43.01700000      34.29600000
 H       8.64600000      43.79200000      34.21000000
 O      32.50500000      46.97700000      26.15200000
 H      33.34600000      47.06000000      26.56200000
 H      32.71900000      46.65600000      25.24300000
 O      11.21900000      46.61400000       9.87700000
 H      10.32000000      46.15500000       9.81100000
 H      11.13400000      47.27100000       9.14800000
 O      15.93100000      43.02400000      17.05700000
 H      15.37400000      43.05000000      16.28200000
 H      16.32400000      43.90200000      17.02600000
 O      24.77600000      43.86600000      39.73800000
 H      24.96900000      43.40300000      40.58300000
 H      24.43200000      44.73200000      40.12500000
 O      24.95900000      46.60800000      15.31900000
 H      25.24500000      46.14900000      14.47000000
 H      24.31600000      47.23200000      15.00900000
 O      11.34500000      42.81400000      26.16700000
 H      11.50500000      43.54000000      25.49800000
 H      12.19500000      42.31900000      26.00400000
 O      11.36100000      46.80300000      19.80200000
 H      12.05900000      46.26900000      20.31800000
 H      11.37700000      47.58900000      20.44700000
 O      37.84100000      47.24900000      35.12800000
 H      38.17900000      46.46400000      35.65000000
 H      38.51000000      47.34100000      34.49300000
 O      27.10600000      44.06300000       9.41100000
 H      26.54500000      44.84800000       9.29400000
 H      26.48700000      43.32400000       9.29800000
 O      12.74400000      46.17300000       6.47100000
 H      12.07900000      46.73400000       7.03200000
 H      12.09200000      45.46000000       6.19500000
 O       9.56400000      42.79300000      38.87500000
 H       8.72100000      43.31000000      38.77300000
 H       9.64300000      42.79700000      39.87300000
 O      16.73600000      45.48000000      13.48100000
 H      16.23100000      46.33200000      13.53400000
 H      16.93500000      45.33900000      14.44100000
 O      32.37700000      45.04400000      36.98200000
 H      31.78700000      45.59500000      36.45600000
 H      33.22900000      45.51500000      36.75400000
 O      16.80400000      43.91800000      11.00200000
 H      17.33500000      44.61400000      10.57500000
 H      16.77900000      44.18400000      11.92500000
 O      15.37400000      46.47400000       9.05300000
 H      16.16400000      46.04900000       9.37900000
 H      15.72600000      47.26500000       8.63600000
 O      26.71000000      46.77700000      29.85400000
 H      26.65800000      47.73000000      29.57200000
 H      27.62900000      46.77600000      30.24300000
 O      14.20900000      49.31600000      18.07300000
 H      14.03600000      48.44000000      17.77000000
 H      15.18900000      49.26700000      18.26900000
 O      16.89700000      42.65900000      25.13200000
 H      16.34600000      42.51700000      25.92100000
 H      17.01800000      41.75600000      24.77500000
 O      10.54100000      43.54400000      36.32200000
 H      10.26900000      43.28200000      37.21200000
 H      10.18300000      44.42300000      36.24100000
 O      17.25900000      48.63800000      10.96500000
 H      17.79200000      49.42800000      11.19600000
 H      16.50600000      49.06600000      10.55300000
 O      20.19000000      48.36600000      29.99200000
 H      21.05200000      48.45700000      29.51300000
 H      20.50400000      48.56600000      30.90500000
 O      13.54000000      45.93900000      35.40100000
 H      14.02800000      46.38100000      36.11600000
 H      13.52500000      46.65000000      34.71800000
 O      34.48500000      46.67500000      36.71500000
 H      35.36500000      46.57400000      37.10500000
 H      34.16300000      47.50800000      37.05300000
 O       6.70400000      49.23800000      34.27200000
 H       7.40800000      49.79500000      34.72000000
 H       7.18200000      48.40300000      34.13400000
 O      17.49900000      48.61900000      15.46300000
 H      16.84300000      48.22100000      14.82100000
 H      17.48900000      49.54600000      15.08900000
 O      12.28800000      48.31800000      31.97200000
 H      11.94900000      48.84400000      32.70200000
 H      11.53000000      47.70300000      31.81900000
 O      21.93900000      48.27200000      32.42200000
 H      22.83000000      48.42900000      32.78200000
 H      21.66900000      47.54000000      32.98700000
 O      20.03500000      44.02400000      31.08300000
 H      20.80000000      44.26900000      31.58100000
 H      19.73200000      44.88800000      30.71600000
 O      29.53300000      44.43400000      10.90400000
 H      28.60900000      44.05400000      10.77500000
 H      29.92000000      43.59200000      11.24600000
 O      37.42900000      45.68700000      26.41400000
 H      38.11700000      44.95500000      26.42000000
 H      36.89000000      45.42300000      27.18100000
 O      26.74700000      44.56600000      32.29300000
 H      26.48700000      43.66900000      32.54000000
 H      25.92900000      44.97100000      31.97600000
 O      18.13900000      42.88300000      36.95800000
 H      18.90500000      42.69400000      36.28000000
 H      18.02900000      43.85600000      36.75300000
 O      30.95600000      46.47800000      32.73000000
 H      30.54500000      46.32700000      33.61100000
 H      31.85700000      46.76500000      32.98000000
 O      23.67000000      43.39900000      15.51000000
 H      23.45000000      44.04700000      16.24300000
 H      23.53000000      42.58000000      15.96500000
 O      17.62600000      48.38200000       7.84500000
 H      17.47300000      49.34100000       7.81600000
 H      17.13100000      48.11300000       6.96300000
 O       9.49100000      46.07400000      36.22000000
 H       9.90300000      46.90900000      36.54500000
 H       9.19000000      46.29000000      35.28600000
 O      33.70000000      44.28900000      32.20300000
 H      34.22400000      43.49500000      32.39100000
 H      34.07100000      44.90300000      32.86500000
 O      39.67100000      45.90600000      36.79800000
 H      40.54600000      45.92200000      36.41900000
 H      39.87300000      45.83600000      37.72500000
 O      28.44500000      44.00500000       6.84300000
 H      27.90000000      43.76200000       7.59100000
 H      27.85600000      43.87300000       6.09800000
 O      26.64700000      47.99900000      27.07000000
 H      27.28200000      47.66700000      26.41900000
 H      27.17900000      48.67100000      27.52900000
 O      19.03200000      45.03900000       7.11200000
 H      19.44900000      45.72800000       6.63000000
 H      19.13700000      45.42000000       8.00600000
 O      33.13400000      48.70200000       6.25100000
 H      33.11000000      47.85500000       5.78600000
 H      33.78900000      48.57700000       6.95200000
 O       8.74900000      47.10400000      20.66400000
 H       9.00100000      46.63700000      21.46200000
 H       9.58800000      46.97600000      20.13600000
 O      34.96500000      43.08900000      17.62800000
 H      35.85700000      42.71500000      17.69800000
 H      34.50900000      42.63100000      18.40700000
 O      14.38200000      45.75800000      23.10500000
 H      14.11100000      46.57200000      23.57700000
 H      14.49000000      45.12500000      23.86100000
 O      22.49900000      44.03800000      23.53800000
 H      21.83200000      43.93300000      22.83000000
 H      22.03900000      44.54900000      24.20900000
 O      37.87800000      45.48600000      32.89000000
 H      37.55500000      46.21800000      32.33100000
 H      38.67500000      45.81300000      33.23800000
 O      17.96900000      46.07700000      10.24100000
 H      17.85800000      46.93700000      10.66600000
 H      18.95200000      46.11900000      10.00500000
 O      28.18400000      47.78800000      14.11000000
 H      28.15300000      47.03300000      13.58400000
 H      28.61600000      47.46600000      14.94000000
 O      33.06800000      47.94000000      31.73800000
 H      33.56600000      47.56100000      30.99700000
 H      33.13100000      48.86300000      31.52400000
 O      25.95400000      46.53400000       7.18900000
 H      25.70400000      46.41800000       6.26500000
 H      26.89700000      46.41900000       7.14000000
 O      10.20800000      44.29400000      15.19400000
 H       9.97900000      43.69700000      14.44500000
 H       9.38600000      44.76400000      15.34600000
 O      35.70400000      46.33400000      11.21100000
 H      35.20800000      45.63800000      11.68300000
 H      35.33900000      46.13900000      10.29600000
 O      24.08300000      47.42600000      12.30100000
 H      23.97100000      46.44600000      12.35600000
 H      24.93900000      47.47200000      11.80200000
 O      30.50100000      46.74200000      35.55600000
 H      30.18000000      47.60400000      35.95300000
 H      29.74500000      46.17500000      35.59700000
 O      17.82800000      49.28900000      23.59100000
 H      18.63800000      48.95500000      24.07000000
 H      17.51800000      48.45200000      23.22000000
 O      25.37600000      43.73300000      19.64800000
 H      24.72200000      44.28100000      19.23400000
 H      26.16300000      44.25800000      19.59600000
 O      12.14200000      43.78600000      19.52600000
 H      11.38600000      44.19400000      20.00100000
 H      12.89200000      44.32400000      19.86000000
 O      33.78600000      48.78500000      15.27600000
 H      33.77200000      48.20700000      14.48200000
 H      32.91600000      48.73600000      15.60200000
 O      30.56200000      45.09700000       8.44600000
 H      30.19400000      44.52500000       7.83900000
 H      30.19000000      44.81900000       9.32900000
 O      35.87100000      44.69300000      28.72500000
 H      35.03300000      44.67900000      29.29600000
 H      36.00200000      43.76900000      28.58900000
 O       9.71200000      48.62100000      28.89400000
 H      10.17700000      48.03600000      28.17700000
 H      10.21300000      49.41100000      28.77900000
 O      39.74700000      43.80500000      26.49700000
 H      40.68300000      44.10100000      26.46200000
 H      39.62900000      43.81100000      27.46000000
 O      34.41200000      48.13100000      33.98000000
 H      34.83800000      49.00200000      33.84500000
 H      33.91300000      48.00500000      33.15900000
 O      15.87800000      46.95600000      31.31300000
 H      16.07000000      47.81100000      31.70200000
 H      15.18500000      47.14400000      30.64200000
 O      28.59000000      42.67200000      24.95400000
 H      29.40300000      42.49300000      24.42700000
 H      27.97500000      42.87900000      24.19900000
 O      37.71400000      42.95100000      39.78400000
 H      37.45300000      43.25000000      40.70600000
 H      38.59700000      42.62800000      40.01500000
 O      26.64500000      47.06800000      11.02500000
 H      26.71000000      48.06200000      10.84500000
 H      27.55500000      46.96400000      11.27400000
 O      40.04800000      47.20700000      33.57600000
 H      40.60000000      46.88000000      34.34400000
 H      40.79200000      47.56400000      33.08400000
 O       9.14000000      44.88300000       9.30000000
 H       9.93600000      44.47400000       8.77800000
 H       8.50100000      44.73100000       8.57300000
 O      40.23700000      45.99700000      39.37000000
 H      40.85600000      45.70600000      40.07900000
 H      39.39700000      45.65700000      39.76900000
 O      13.97900000      47.94200000      29.90700000
 H      13.47400000      47.05900000      29.93600000
 H      13.35900000      48.39200000      30.59000000
 O      11.25300000      44.06800000       8.07400000
 H      12.12100000      44.51600000       8.33600000
 H      11.65000000      43.22900000       7.76500000
 O      25.25200000      43.20100000      11.44500000
 H      25.20900000      42.27100000      11.73000000
 H      24.68100000      43.20200000      10.65400000
 O      38.63200000      42.69000000      14.60200000
 H      38.81600000      41.82900000      14.14600000
 H      39.17500000      43.28600000      14.03500000
 O      23.00600000      43.10100000      26.39800000
 H      22.54700000      43.15700000      25.56800000
 H      23.37700000      43.98500000      26.49700000
 O      14.07300000      43.44900000      15.03100000
 H      14.01500000      43.92600000      14.16700000
 H      13.57600000      44.10200000      15.61100000
 O      34.88400000      46.99700000      29.86200000
 H      34.73300000      47.49900000      29.01200000
 H      35.35600000      46.26800000      29.42500000
 O      17.20300000      43.80900000      20.14300000
 H      16.29800000      43.39200000      20.40400000
 H      17.51000000      43.98100000      21.05800000
 O      26.39000000      45.11700000      13.16100000
 H      26.04000000      44.27600000      12.79300000
 H      26.22300000      45.74800000      12.44600000
 O      30.17700000      45.04700000      13.76100000
 H      29.80400000      44.95900000      12.83800000
 H      31.03500000      45.43400000      13.52100000
 O      12.57800000      49.39500000      12.30000000
 H      12.73200000      49.24000000      13.25200000
 H      12.87000000      48.55200000      11.90700000
 O      30.47900000      42.91900000      29.13800000
 H      30.03500000      43.50800000      29.86600000
 H      30.73000000      43.66800000      28.53600000
 O      35.23600000      45.32100000      34.20200000
 H      34.96900000      46.10100000      34.72800000
 H      36.09100000      45.61500000      33.83600000
 O      14.08600000      44.36400000       8.12800000
 H      13.95800000      44.77800000       7.23200000
 H      14.55800000      45.14300000       8.56600000
 O      34.25900000      49.44800000      25.03100000
 H      34.17700000      48.50500000      24.67900000
 H      34.64800000      49.82200000      24.20400000
 O      15.75800000      44.07000000      30.81400000
 H      14.91800000      43.96100000      31.27900000
 H      15.86800000      45.01300000      30.74500000
 O      26.46100000      46.96200000      37.53000000
 H      25.73900000      47.17700000      36.88300000
 H      26.41700000      45.99800000      37.67200000
 O       7.70500000      44.22700000       6.98500000
 H       7.90600000      43.31600000       6.70800000
 H       6.74900000      44.33400000       6.88200000
 O       7.50200000      48.08200000      26.51300000
 H       8.18600000      47.55100000      26.01600000
 H       7.97500000      48.87300000      26.72000000
 O       6.67600000      43.90100000      35.21000000
 H       6.39000000      43.24000000      34.55000000
 H       6.93700000      43.38300000      35.95700000
 O      12.34100000      49.28200000      14.77400000
 H      12.28000000      48.30500000      14.88100000
 H      11.75900000      49.56000000      15.50600000
 O      13.70000000      44.48500000      12.51600000
 H      13.99400000      43.94600000      11.75700000
 H      13.81000000      45.41900000      12.22600000
 O      20.15700000      47.49700000      15.46600000
 H      19.14800000      47.46200000      15.46200000
 H      20.24000000      48.13500000      16.23600000
 O       8.71000000      44.91100000      18.04000000
 H       9.43700000      45.49300000      17.71000000
 H       7.92500000      45.31900000      17.61200000
 O       8.09800000      47.11400000       6.91800000
 H       7.48800000      47.30900000       7.67700000
 H       7.76100000      46.21500000       6.70500000
 O      36.81300000      49.18000000      13.87100000
 H      36.03000000      49.14100000      13.27000000
 H      36.58900000      48.37500000      14.41600000
 O       6.79900000      49.16900000      40.31600000
 H       6.37500000      48.34100000      40.03800000
 H       7.77400000      48.94600000      40.21300000
 O      27.55400000      48.23900000      18.07700000
 H      26.95600000      48.56000000      17.38300000
 H      28.43300000      48.22900000      17.71800000
 O      29.47100000      46.64800000      16.28700000
 H      29.39600000      45.82100000      15.76700000
 H      30.40200000      46.48300000      16.64600000
 O      19.81500000      47.89000000      24.89600000
 H      20.42100000      47.11800000      25.07200000
 H      19.06000000      47.57800000      25.42500000
 O      32.84800000      48.18700000      21.13900000
 H      33.45800000      48.69700000      21.59800000
 H      32.08000000      48.80600000      20.98600000
 O       7.82300000      45.77900000      30.27400000
 H       8.23300000      44.93300000      30.04900000
 H       7.32200000      45.55200000      31.06900000
 O      12.60100000      44.79200000      17.11700000
 H      12.64100000      44.62500000      18.07100000
 H      11.64600000      44.94300000      17.03200000
 O      11.19000000      47.29000000      26.92700000
 H      12.10700000      47.59800000      26.69100000
 H      11.38500000      46.40100000      27.30300000
 O      19.85900000      44.76600000      15.56300000
 H      19.41000000      45.10900000      16.39600000
 H      20.23800000      45.58900000      15.29900000
 O      28.20800000      46.65700000      25.23500000
 H      28.11500000      45.77900000      25.70000000
 H      29.03000000      46.44400000      24.75500000
 O      40.33600000      47.26700000      13.48700000
 H      40.72600000      47.48000000      12.64200000
 H      39.34900000      47.25500000      13.28500000
 O      36.34200000      46.68300000      15.04300000
 H      35.55400000      46.75700000      15.61600000
 H      36.39700000      45.70800000      14.91600000
 O      19.25100000      45.05300000      27.57800000
 H      19.21300000      45.21200000      28.54700000
 H      18.51200000      45.60200000      27.25700000
 O      37.69700000      48.23900000       8.81800000
 H      38.06400000      47.68000000       8.08700000
 H      37.66600000      47.56100000       9.51700000
 O      18.84300000      47.10000000      20.97700000
 H      19.16300000      46.60400000      21.71500000
 H      19.29400000      48.01100000      21.17200000
 O      14.75000000      47.04800000      37.68700000
 H      14.27500000      46.79700000      38.49300000
 H      14.90700000      48.00800000      37.74000000
 O      26.81200000      45.48400000      17.03700000
 H      26.03600000      45.77500000      16.45100000
 H      27.49400000      46.07700000      16.77900000
 O      37.92000000      47.16000000      12.27700000
 H      37.04700000      46.72900000      12.14100000
 H      37.65800000      47.96200000      12.76600000
 O      40.50300000      44.80200000      16.16800000
 H      41.21200000      45.31400000      16.69000000
 H      40.70400000      43.89000000      16.51800000
 O      17.62600000      43.21000000      29.28100000
 H      18.29200000      43.41000000      29.98300000
 H      16.77000000      43.33600000      29.79200000
 O       6.86900000      43.50100000      40.58700000
 H       7.62200000      43.23800000      41.09600000
 H       7.20100000      44.14000000      39.94700000
 O      28.88800000      48.52400000      37.15800000
 H      28.52500000      49.36900000      37.51700000
 H      28.14200000      47.91200000      37.20700000
 O      18.78000000      45.01000000      18.21200000
 H      19.35800000      44.23600000      18.40400000
 H      18.05700000      44.76700000      18.87500000
 O      31.79500000      43.66800000      22.58300000
 H      32.05400000      42.93600000      21.99900000
 H      32.12100000      44.44500000      22.10400000
 O       6.97300000      42.74400000      12.65500000
 H       6.23800000      43.29400000      12.21700000
 H       7.76200000      43.08400000      12.23500000
 O      27.29400000      43.10600000      22.61800000
 H      27.36200000      42.20800000      22.22400000
 H      27.81400000      43.64300000      21.98000000
 O      14.14900000      46.95400000      27.19000000
 H      13.90400000      46.37300000      27.90900000
 H      14.35400000      47.78500000      27.66300000
 O      30.70900000      44.88800000      27.28100000
 H      31.38600000      44.60300000      26.56000000
 H      31.20200000      45.65900000      27.54100000
 O       6.58300000      45.59200000      22.99500000
 H       6.17900000      46.33700000      23.47000000
 H       7.15400000      46.07100000      22.35600000
 O      12.16200000      47.79300000      40.05500000
 H      11.99900000      46.81400000      39.81100000
 H      11.88900000      47.80300000      40.98400000
 O      38.69200000      44.57700000      23.02000000
 H      38.99800000      45.43200000      23.31200000
 H      39.52300000      44.01800000      23.11700000
 O      16.71900000      43.66000000      33.49300000
 H      16.35300000      43.39400000      32.64200000
 H      16.50600000      42.90100000      34.02900000
