717
XYZ file of cluster: frame_12000_9c92a.aab.c4d77 - created by MolEdiTo
 O      31.32400000      33.72300000      37.12600000
 H      30.64700000      34.15500000      37.73600000
 H      31.49800000      32.94900000      37.71100000
 O      30.26800000      35.08600000      39.42800000
 H      29.63900000      34.30100000      39.59000000
 H      29.56000000      35.80000000      39.62500000
 O      33.92900000       1.18000000      38.47500000
 H      33.31300000       0.47700000      38.09700000
 H      33.61200000       1.97600000      38.00300000
 O      28.53300000       1.17700000      36.45000000
 H      29.09500000       1.06600000      37.23400000
 H      27.71400000       1.50400000      36.86500000
 O      35.38400000      20.13600000      37.25100000
 H      35.10700000      19.48100000      37.90300000
 H      35.26800000      19.67800000      36.39600000
 O      32.66900000       7.82000000      35.41000000
 H      33.29300000       8.19800000      36.07800000
 H      33.30400000       7.20200000      34.92300000
 O      35.54200000       1.17700000      35.26300000
 H      35.99700000       1.43800000      36.11000000
 H      35.65300000       2.09600000      34.87100000
 O      29.82100000      23.43500000      40.60800000
 H      29.91600000      23.83300000      41.54700000
 H      29.31200000      24.10700000      40.19100000
 O      31.41000000      21.65600000      39.03200000
 H      31.17500000      22.63800000      39.05200000
 H      31.38700000      21.52200000      40.01800000
 O      37.01100000       2.07600000      37.36500000
 H      37.05700000       3.03600000      37.53700000
 H      37.22700000       1.79400000      38.29900000
 O      39.18500000      14.75800000      39.99000000
 H      38.66900000      14.62900000      39.19500000
 H      39.35200000      13.90000000      40.35000000
 O      28.88800000      18.20400000      34.30000000
 H      29.84600000      18.35800000      34.23300000
 H      28.84500000      17.43200000      34.93600000
 O      38.83900000       1.42200000      35.42800000
 H      38.07900000       1.45300000      35.99400000
 H      39.19300000       2.34200000      35.49700000
 O      31.41000000      33.97400000      34.32400000
 H      31.22400000      34.94300000      34.22700000
 H      30.96400000      33.81900000      35.17800000
 O      33.71600000      10.69700000      35.40800000
 H      33.51300000       9.89400000      34.92800000
 H      34.49200000      11.02900000      34.86600000
 O      38.74800000       6.74200000      39.99600000
 H      39.54000000       6.14700000      39.90300000
 H      38.12000000       6.15300000      40.48600000
 O      33.85300000      30.43000000      37.19200000
 H      33.69600000      30.56000000      38.16300000
 H      34.79500000      30.77300000      37.11900000
 O      40.55500000      32.17700000      36.79100000
 H      39.74100000      32.46900000      37.20400000
 H      41.11100000      32.05300000      37.61100000
 O      29.07300000      15.29900000      39.43100000
 H      29.54000000      14.80000000      40.11500000
 H      29.63300000      15.16300000      38.65000000
 O      32.79900000      38.70500000      37.55100000
 H      32.97300000      37.80900000      37.18300000
 H      32.64700000      39.17500000      36.69200000
 O      32.69200000      11.56400000      40.38300000
 H      33.00800000      11.77400000      41.30100000
 H      33.35400000      10.81000000      40.23100000
 O      37.09200000       4.54800000      38.00100000
 H      37.80200000       4.97100000      37.48500000
 H      37.45300000       4.65000000      38.91300000
 O      33.59200000      35.39100000      36.91000000
 H      34.10600000      34.79400000      36.32500000
 H      32.73100000      34.90400000      36.89900000
 O      33.35000000      26.17700000      34.54600000
 H      33.44200000      26.64600000      35.39500000
 H      32.98200000      25.33300000      34.78200000
 O      30.26900000      19.20400000      38.26200000
 H      30.91000000      18.69300000      38.86700000
 H      30.69800000      20.09300000      38.33100000
 O      37.03900000      16.33700000      38.15100000
 H      37.78600000      16.78200000      38.55600000
 H      36.40400000      17.04600000      37.95700000
 O      33.02600000      34.44700000      39.65100000
 H      33.20600000      34.99900000      38.88700000
 H      32.05500000      34.65700000      39.76400000
 O      30.92000000      15.52000000      37.33000000
 H      31.38200000      14.68400000      37.09100000
 H      31.63000000      16.05400000      37.68800000
 O      28.11600000       7.09300000      34.44700000
 H      28.84700000       7.64500000      34.04400000
 H      28.42900000       7.06300000      35.36700000
 O      28.80400000       3.27100000      34.53300000
 H      28.07600000       2.98300000      34.01100000
 H      28.81500000       2.56700000      35.24700000
 O      40.62100000      39.28000000      36.00000000
 H      40.72000000      39.49400000      36.98800000
 H      39.88300000      39.93000000      35.78600000
 O      33.46700000      22.60800000      37.49000000
 H      33.96700000      21.78800000      37.37300000
 H      32.79700000      22.38100000      38.18300000
 O      37.98600000      38.37600000      38.77400000
 H      37.28100000      37.76500000      38.51300000
 H      37.56500000      39.20900000      38.71500000
 O      39.40500000       8.87200000      35.78000000
 H      39.39500000       9.22700000      36.65200000
 H      38.74500000       8.15000000      35.82100000
 O      35.36100000      14.52900000      39.78100000
 H      36.02400000      15.13600000      39.32500000
 H      35.85200000      13.67400000      39.71400000
 O      32.68800000      14.61500000      39.45700000
 H      33.66400000      14.56800000      39.56400000
 H      32.47600000      13.64800000      39.44900000
 O      29.89500000      25.42200000      35.22100000
 H      30.06100000      25.78100000      36.13600000
 H      29.57300000      24.52600000      35.47000000
 O      31.54900000       3.01200000      39.94600000
 H      31.72600000       3.08200000      38.97500000
 H      30.71500000       2.51000000      39.92300000
 O      32.06700000      28.10900000      39.10400000
 H      32.91400000      28.50300000      39.43600000
 H      31.65500000      27.85300000      39.92500000
 O      28.85500000      15.67700000      35.54500000
 H      28.97000000      14.84200000      35.13900000
 H      29.54500000      15.55100000      36.25200000
 O      28.94300000      39.79500000      34.10900000
 H      28.86300000      40.25900000      34.94600000
 H      29.78800000      40.27100000      33.81200000
 O      34.49600000      14.46400000      36.53000000
 H      33.94100000      13.69400000      36.91800000
 H      34.85900000      14.78300000      37.38200000
 O      31.43700000      31.66700000      38.95900000
 H      31.03700000      30.84100000      39.29100000
 H      32.33700000      31.47700000      39.34400000
 O      35.04100000      10.75800000      38.38600000
 H      35.20000000       9.81700000      38.41100000
 H      34.36800000      10.82900000      37.61700000
 O      29.93300000      10.61000000      35.82400000
 H      28.99800000      10.39200000      35.95800000
 H      30.16000000       9.86000000      35.21800000
 O      36.88800000       7.88600000      35.90400000
 H      36.86800000       8.19800000      34.97000000
 H      37.21500000       6.96900000      35.78400000
 O      31.56800000      31.22000000      35.81000000
 H      32.27600000      30.92300000      36.46900000
 H      31.58500000      32.18000000      36.03500000
 O      29.34700000      29.67200000      35.98100000
 H      30.26800000      30.07000000      35.95600000
 H      28.84300000      30.51200000      35.73500000
 O      31.53300000       7.66000000      38.00300000
 H      31.95700000       7.62000000      37.15700000
 H      30.67700000       7.19000000      37.86700000
 O      39.60600000      17.18600000      38.86900000
 H      39.68000000      16.25700000      39.29400000
 H      40.48400000      17.18300000      38.44700000
 O      37.84100000       5.50800000      35.12800000
 H      38.17900000       4.72300000      35.65000000
 H      38.51000000       5.60000000      34.49300000
 O      33.77100000      30.50000000      39.82900000
 H      34.65500000      30.28000000      39.91700000
 H      33.38000000      30.31400000      40.73600000
 O      28.59600000      25.80000000      39.19200000
 H      28.00300000      25.96300000      38.44700000
 H      29.47800000      25.93100000      38.71700000
 O      38.94200000      11.55100000      34.38800000
 H      39.14500000      10.84900000      35.01300000
 H      39.84500000      11.89800000      34.23300000
 O      32.37700000       3.30300000      36.98200000
 H      31.78700000       3.85400000      36.45600000
 H      33.22900000       3.77400000      36.75400000
 O      36.95900000      30.73800000      39.02000000
 H      36.68200000      30.00700000      39.60800000
 H      37.28600000      31.38600000      39.77000000
 O      37.43200000      15.88200000      34.90400000
 H      37.44200000      16.03700000      35.87000000
 H      38.36300000      15.61500000      34.77600000
 O      39.44000000      10.15500000      38.28400000
 H      39.84800000      11.07200000      38.05900000
 H      39.90800000       9.98500000      39.13300000
 O      29.25900000      29.26900000      38.94600000
 H      28.39400000      29.66200000      38.57900000
 H      29.70100000      29.13900000      38.06200000
 O      34.48500000       4.93400000      36.71500000
 H      35.36500000       4.83300000      37.10500000
 H      34.16300000       5.76700000      37.05300000
 O      34.54900000       8.09000000      37.24300000
 H      35.43000000       8.14600000      36.84800000
 H      34.78900000       7.97100000      38.22100000
 O      40.01200000      19.83500000      39.04000000
 H      39.97500000      19.69800000      39.99600000
 H      39.50100000      18.99700000      38.76500000
 O      27.66500000      31.90100000      35.52000000
 H      28.15200000      32.78000000      35.71400000
 H      27.03000000      32.28800000      34.89000000
 O      29.52800000      13.09000000      34.22800000
 H      28.62200000      12.82800000      34.08800000
 H      29.77200000      12.43700000      34.94700000
 O      39.67100000       4.16500000      36.79800000
 H      40.54600000       4.18100000      36.41900000
 H      39.87300000       4.09500000      37.72500000
 O      36.43600000      31.92900000      36.77200000
 H      36.55900000      31.40500000      37.65800000
 H      37.02400000      32.64500000      37.00700000
 O      33.76100000      22.98300000      40.39000000
 H      34.70400000      23.15200000      40.61300000
 H      33.71400000      23.64600000      39.63700000
 O      40.34600000      37.09200000      34.57200000
 H      40.46300000      37.93800000      35.05100000
 H      40.12300000      37.45400000      33.66300000
 O      33.19500000       8.46700000      39.97800000
 H      32.63600000       8.00800000      39.30500000
 H      33.59500000       7.72500000      40.46700000
 O      29.12500000      12.55000000      37.63200000
 H      29.24300000      12.03100000      38.41600000
 H      29.57700000      11.99500000      36.99300000
 O      34.17300000      38.43100000      39.91600000
 H      34.07100000      38.67800000      38.98800000
 H      33.26600000      38.43700000      40.23500000
 O      34.86100000      18.43100000      39.23200000
 H      34.03500000      18.19400000      39.64700000
 H      35.45700000      18.18900000      39.98500000
 O      32.58000000      23.33200000      35.02100000
 H      33.01400000      22.88200000      35.73300000
 H      31.70200000      22.96400000      35.03200000
 O      38.42100000      23.83100000      37.82000000
 H      37.86100000      24.32000000      38.45000000
 H      37.92800000      23.89700000      36.97500000
 O      30.50100000       5.00100000      35.55600000
 H      30.18000000       5.86300000      35.95300000
 H      29.74500000       4.43400000      35.59700000
 O      34.27000000      18.95000000      35.21800000
 H      34.51800000      19.58900000      34.49400000
 H      33.76700000      18.28000000      34.75800000
 O      38.11100000      19.13000000      34.83800000
 H      38.03800000      18.37300000      35.48900000
 H      37.54600000      18.75500000      34.13400000
 O      32.80900000      12.45300000      37.25600000
 H      32.54900000      11.92500000      36.47200000
 H      32.79300000      11.79400000      37.97300000
 O      37.61600000      30.94800000      34.27400000
 H      37.17600000      31.36100000      35.02600000
 H      36.97800000      31.01900000      33.54700000
 O      37.71400000       1.21000000      39.78400000
 H      37.45300000       1.50900000      40.70600000
 H      38.59700000       0.88700000      40.01500000
 O      35.53800000      38.19300000      35.30200000
 H      35.01800000      38.10600000      34.42700000
 H      35.67900000      39.17900000      35.30100000
 O      27.21000000      27.59000000      35.38400000
 H      26.73000000      27.50600000      36.18100000
 H      27.76400000      28.35200000      35.49300000
 O      40.23700000       4.25600000      39.37000000
 H      40.85600000       3.96500000      40.07900000
 H      39.39700000       3.91600000      39.76900000
 O      38.28300000      33.80400000      36.99600000
 H      38.43200000      33.77400000      36.04400000
 H      38.67600000      34.63300000      37.26600000
 O      39.74500000      25.19400000      34.99800000
 H      38.75700000      24.97200000      34.74800000
 H      40.15900000      24.41800000      34.51500000
 O      38.61600000      13.05300000      37.14900000
 H      38.69500000      13.26000000      36.19300000
 H      39.54500000      12.69700000      37.31100000
 O      28.18200000      17.79700000      38.94300000
 H      28.88700000      18.34100000      38.53500000
 H      28.74700000      17.04100000      39.27000000
 O      31.03000000      25.65100000      37.84300000
 H      31.90800000      25.10400000      37.78000000
 H      31.37900000      26.47400000      38.22500000
 O      33.85300000      27.49200000      36.80000000
 H      33.42300000      27.59800000      37.66600000
 H      34.16700000      28.42000000      36.66400000
 O      32.57600000      40.36400000      35.56100000
 H      33.41700000      40.88200000      35.70500000
 H      32.19500000      40.83600000      34.85200000
 O      35.23600000       3.58000000      34.20200000
 H      34.96900000       4.36000000      34.72800000
 H      36.09100000       3.87400000      33.83600000
 O      37.20300000       8.92800000      39.11400000
 H      37.89100000       9.46000000      38.62200000
 H      37.81200000       8.17900000      39.29200000
 O      28.75100000      32.79700000      39.93200000
 H      27.85200000      33.11500000      40.25800000
 H      28.87200000      31.95400000      40.28200000
 O      40.25400000      20.92100000      34.81200000
 H      39.64400000      20.13300000      34.78300000
 H      40.09600000      21.26100000      35.70600000
 O      37.13300000      12.15000000      39.32900000
 H      36.45600000      11.61000000      38.78700000
 H      37.64900000      12.51000000      38.52700000
 O      40.03500000      21.82400000      37.30800000
 H      39.54500000      22.64500000      37.48100000
 H      39.94000000      21.32500000      38.18000000
 O      27.72800000       9.35600000      36.66700000
 H      26.94500000       9.41700000      36.05500000
 H      27.24900000       9.07500000      37.47500000
 O      39.81600000      36.65200000      37.59900000
 H      39.97200000      37.07500000      36.70400000
 H      39.25400000      37.37500000      37.95300000
 O      36.77300000      21.62100000      35.52500000
 H      37.10400000      20.74400000      35.25200000
 H      36.23900000      21.37300000      36.27200000
 O      30.72500000      36.89800000      35.09300000
 H      30.38300000      37.30400000      35.88100000
 H      31.08900000      37.62600000      34.57400000
 O      29.83300000      38.53000000      36.89300000
 H      30.15100000      39.15000000      37.60400000
 H      28.87900000      38.54900000      37.19300000
 O      30.19400000      11.61500000      40.02100000
 H      30.16400000      12.36700000      40.65700000
 H      31.23400000      11.39000000      40.16200000
 O      37.58600000      28.14400000      37.88000000
 H      37.75500000      28.16700000      36.86900000
 H      37.70800000      29.08000000      38.10500000
 O      31.46500000      18.96300000      35.10500000
 H      32.28500000      19.43200000      35.13300000
 H      31.85400000      18.06200000      34.98700000
 O      31.90000000      16.99200000      39.88500000
 H      31.31200000      16.62000000      40.60000000
 H      32.33800000      16.17600000      39.59600000
 O      28.51400000      20.46900000      35.85100000
 H      29.40400000      20.24200000      36.25700000
 H      28.33700000      19.64600000      35.39200000
 O      28.97100000       9.06300000      40.25200000
 H      28.68500000       8.47700000      39.56000000
 H      29.66200000       9.57700000      39.89500000
 O      34.25000000      25.24800000      38.69200000
 H      34.77700000      25.22300000      37.86800000
 H      34.77200000      25.88000000      39.19500000
 O      36.06800000      25.70100000      36.62000000
 H      35.31400000      26.32100000      36.51500000
 H      36.76900000      26.29500000      36.94800000
 O      37.63500000      25.85200000      39.87600000
 H      37.45700000      26.74800000      39.45800000
 H      38.34300000      26.06500000      40.53200000
 O      29.72700000      40.55600000      39.01600000
 H      29.09800000      41.16900000      39.50200000
 H      30.33000000      40.38400000      39.74000000
 O      28.63700000      34.50100000      35.45100000
 H      29.43900000      35.05700000      35.51400000
 H      27.99300000      35.26100000      35.26000000
 O      36.16100000      36.93800000      37.64700000
 H      35.98500000      37.56600000      36.88000000
 H      35.25500000      36.54400000      37.65300000
 O      28.88800000       6.78300000      37.15800000
 H      28.52500000       7.62800000      37.51700000
 H      28.14200000       6.17100000      37.20700000
 O      37.65300000      28.49700000      35.29600000
 H      37.83900000      29.41500000      34.90600000
 H      36.94600000      28.25600000      34.65800000
 O      29.76100000      22.62500000      34.75300000
 H      29.31500000      21.85600000      35.12900000
 H      29.33700000      22.72000000      33.88000000
 O      35.11400000      33.66600000      35.30100000
 H      35.90200000      33.90800000      34.79600000
 H      35.42100000      32.87100000      35.78400000
 O      37.33700000      24.25300000      34.53000000
 H      37.04400000      23.31400000      34.79000000
 H      36.73400000      24.72400000      35.13300000
 O      29.76400000      32.74500000      46.97300000
 H      30.69100000      32.92800000      46.65200000
 H      29.76700000      33.38000000      47.72700000
 O      40.27900000      34.38300000      47.30900000
 H      39.78100000      33.56900000      47.46900000
 H      39.87300000      35.04600000      47.86400000
 O      37.69700000      12.82700000      43.33600000
 H      38.67900000      12.64100000      43.20000000
 H      37.34900000      12.76300000      42.44500000
 O      29.90200000       4.91200000      42.81000000
 H      30.49900000       5.44200000      43.40900000
 H      30.50000000       4.28100000      42.44700000
 O      31.15900000      15.63500000      45.67800000
 H      31.93300000      15.79900000      45.16500000
 H      30.55900000      16.38200000      45.39400000
 O      30.19700000      30.34600000      42.89700000
 H      29.89300000      29.64400000      42.26000000
 H      29.71000000      30.10000000      43.71000000
 O      33.25500000      27.57500000      47.49400000
 H      33.97300000      28.10000000      47.89800000
 H      33.48500000      26.68700000      47.84000000
 O      34.39000000      25.02200000      47.84600000
 H      34.83200000      24.69200000      47.07400000
 H      35.02900000      24.82100000      48.55700000
 O      29.11100000      29.92700000      45.16800000
 H      28.22100000      29.69100000      45.55300000
 H      29.50400000      30.51700000      45.79400000
 O      37.56400000      27.45200000      48.86600000
 H      37.92000000      27.90100000      48.06800000
 H      37.64600000      26.53400000      48.49500000
 O      36.01800000      15.67700000      46.21500000
 H      36.07300000      16.48300000      46.70400000
 H      36.97000000      15.58700000      45.92600000
 O      39.09400000      23.01400000      43.25700000
 H      39.64700000      22.87500000      42.51400000
 H      38.63300000      22.11900000      43.29400000
 O      39.53700000       1.97100000      48.40900000
 H      39.65700000       1.30200000      47.68700000
 H      39.52800000       1.34500000      49.15600000
 O      35.67000000      28.99600000      45.30900000
 H      36.45800000      28.50300000      45.32400000
 H      34.95300000      28.33000000      45.50800000
 O      36.14900000      23.50000000      42.62600000
 H      36.92100000      22.94000000      42.84400000
 H      36.54000000      24.23100000      42.14800000
 O      33.96500000       9.68600000      45.58800000
 H      34.49600000       8.88100000      45.33300000
 H      33.30700000       9.30600000      46.15200000
 O      31.20900000       2.82800000      46.91600000
 H      30.38900000       3.07600000      47.38800000
 H      30.92000000       2.43100000      46.12500000
 O      36.89100000      35.33500000      45.77700000
 H      36.20000000      34.70500000      45.45300000
 H      37.56600000      35.10300000      45.07000000
 O      30.84100000       9.65800000      43.82700000
 H      31.66200000       9.82700000      43.35500000
 H      30.19000000       9.53400000      43.16300000
 O      28.10800000      13.88100000      47.08700000
 H      28.47200000      12.95900000      47.14300000
 H      28.67700000      14.34200000      47.73200000
 O      35.88100000      30.61000000      47.80800000
 H      36.07800000      29.95600000      47.11300000
 H      35.63900000      29.97000000      48.55800000
 O      35.65000000       7.93600000      44.51700000
 H      35.05500000       7.58000000      43.88000000
 H      36.01100000       8.75900000      44.01000000
 O      38.65300000       4.57100000      48.32300000
 H      37.88100000       4.53300000      47.70700000
 H      38.84700000       3.61300000      48.42000000
 O      34.89300000      19.50300000      44.68900000
 H      34.01300000      20.00700000      44.63100000
 H      34.85100000      19.19900000      45.62500000
 O      40.24800000      12.39200000      42.54300000
 H      40.07500000      11.43900000      42.62700000
 H      41.22400000      12.35800000      42.36700000
 O      32.00700000      23.92000000      48.52500000
 H      32.01400000      23.04400000      48.00300000
 H      32.71800000      24.37400000      48.03400000
 O      32.54400000      20.56300000      44.30500000
 H      31.93200000      20.12000000      43.67600000
 H      32.34200000      21.52100000      44.17300000
 O      31.07500000      37.27100000      43.16200000
 H      31.37200000      36.49100000      42.62800000
 H      30.15000000      37.37800000      42.80100000
 O      28.86100000      39.67500000      46.59000000
 H      29.58400000      39.45600000      47.19200000
 H      29.23500000      40.48700000      46.16300000
 O      35.08900000      11.37900000      47.78500000
 H      34.64400000      10.77000000      47.14700000
 H      35.16200000      12.19400000      47.19900000
 O      28.50200000       5.48100000      48.65800000
 H      28.90400000       4.92100000      49.35900000
 H      29.19400000       6.10000000      48.50500000
 O      32.01200000      30.59200000      46.85200000
 H      32.38300000      31.47700000      46.97600000
 H      32.12300000      30.20900000      47.72000000
 O      39.82200000      22.89000000      46.64900000
 H      40.54000000      23.00100000      45.91300000
 H      40.58100000      22.65200000      47.29700000
 O      28.49300000       8.67800000      48.10700000
 H      27.79400000       8.51100000      48.77500000
 H      29.19900000       8.02500000      48.37400000
 O      30.08100000       1.59100000      44.45500000
 H      30.76400000       1.05200000      44.00500000
 H      29.35700000       1.59600000      43.83200000
 O      37.22200000       1.84900000      43.91400000
 H      36.67900000       1.14600000      44.42600000
 H      38.10000000       1.70000000      44.32700000
 O      32.92300000      29.95100000      43.89100000
 H      32.65300000      30.42400000      44.74700000
 H      32.48200000      29.13600000      43.99000000
 O      39.21700000      34.53000000      44.14900000
 H      39.96500000      34.50400000      44.81000000
 H      39.33700000      35.40600000      43.74400000
 O      31.94700000      21.28100000      47.70200000
 H      32.18800000      20.99700000      46.80000000
 H      32.58500000      20.74500000      48.20500000
 O      36.02500000      29.07700000      42.65500000
 H      35.38400000      28.34500000      42.90300000
 H      36.22900000      29.38200000      43.56100000
 O      34.90200000       1.23700000      48.36600000
 H      35.40600000       0.64100000      47.73500000
 H      34.03600000       0.75400000      48.34900000
 O      33.23200000      24.75500000      43.86900000
 H      33.38100000      24.08500000      43.14100000
 H      32.55000000      25.30600000      43.44000000
 O      37.69900000      32.46900000      42.38600000
 H      36.90500000      32.32100000      42.87300000
 H      38.28700000      32.81300000      43.07600000
 O      36.33000000      10.11600000      42.93900000
 H      36.67600000       9.51100000      42.28700000
 H      36.51500000      10.98900000      42.56600000
 O      34.23400000      34.13000000      43.70300000
 H      33.61900000      34.21600000      42.90600000
 H      34.99600000      34.65500000      43.31500000
 O      30.48200000      38.17700000      48.36300000
 H      30.44500000      37.48800000      47.60100000
 H      29.78500000      37.84700000      48.94700000
 O      34.19200000      38.32900000      44.35200000
 H      34.53400000      37.57400000      43.85000000
 H      34.01200000      37.95500000      45.22600000
 O      28.35200000      26.58500000      47.36300000
 H      28.50400000      25.61700000      47.27900000
 H      28.58900000      26.85300000      46.43900000
 O      28.28100000      26.86400000      43.21700000
 H      28.40800000      26.50100000      42.28500000
 H      27.36800000      27.27500000      43.10300000
 O      33.16900000       4.54800000      46.49600000
 H      33.19700000       4.15300000      45.56500000
 H      32.52600000       3.88500000      46.93600000
 O      31.90100000       6.35700000      44.07900000
 H      31.59100000       7.23000000      44.33700000
 H      32.44600000       6.16000000      44.89200000
 O      30.49800000      35.88500000      45.73000000
 H      30.76900000      36.37100000      44.93500000
 H      31.04500000      35.05300000      45.61500000
 O      31.60100000      39.90600000      43.02100000
 H      31.51600000      39.03000000      43.27500000
 H      32.56400000      40.06100000      43.10300000
 O      39.95300000      30.07500000      43.55700000
 H      39.18600000      30.41700000      44.04000000
 H      40.68200000      30.59800000      43.95300000
 O      33.39700000       3.51300000      43.61800000
 H      33.93100000       2.69900000      43.42600000
 H      32.56700000       3.31600000      43.01800000
 O      29.08600000      17.56800000      45.56800000
 H      28.63800000      18.15000000      44.90300000
 H      28.59800000      17.90300000      46.37300000
 O      40.63600000       9.59300000      48.61800000
 H      39.71800000       9.56500000      48.37400000
 H      40.53500000       9.49400000      49.59400000
 O      33.78100000      15.70300000      44.23100000
 H      34.18900000      15.38700000      43.33700000
 H      34.56100000      15.76200000      44.79200000
 O      37.97400000       4.16600000      42.54900000
 H      37.94200000       4.50600000      43.46700000
 H      37.25600000       3.46300000      42.60900000
 O      38.40500000      21.63500000      48.66100000
 H      37.57500000      21.95100000      49.01800000
 H      38.67600000      22.36700000      48.01200000
 O      27.32500000       3.71600000      42.97500000
 H      28.15700000       4.21700000      42.97900000
 H      26.68400000       4.34700000      43.25000000
 O      37.05000000      26.32400000      44.68300000
 H      37.95400000      26.22500000      44.28400000
 H      37.25400000      25.94200000      45.59000000
 O      38.72000000      16.52500000      43.74100000
 H      38.97100000      15.86900000      44.41800000
 H      38.84600000      15.98800000      42.93800000
 O      40.25700000      13.21100000      45.53200000
 H      40.60700000      12.76700000      44.76200000
 H      41.11400000      13.13200000      46.09600000
 O      40.07200000       1.80700000      42.53500000
 H      40.69500000       1.10700000      42.73900000
 H      40.32000000       2.46900000      43.25600000
 O      38.55900000      28.58200000      46.03000000
 H      39.20700000      28.24000000      45.44700000
 H      38.51000000      29.50600000      45.73500000
 O      30.81100000      17.15900000      48.78700000
 H      30.67400000      16.58500000      47.95400000
 H      31.80000000      17.17800000      48.76200000
 O      30.58900000       7.37500000      48.84200000
 H      31.00700000       7.50500000      49.73100000
 H      31.37400000       7.31400000      48.30700000
 O      27.55900000      11.07900000      42.96700000
 H      27.63600000      10.11300000      43.19400000
 H      28.39100000      11.16200000      42.37600000
 O      39.44500000      37.27100000      42.69400000
 H      40.36800000      37.30400000      42.32500000
 H      38.95500000      37.74400000      42.01200000
 O      34.41600000       6.07600000      42.73400000
 H      34.78100000       5.16900000      42.74000000
 H      33.47500000       5.84700000      42.92600000
 O      35.63700000      32.01900000      44.50200000
 H      35.19800000      32.80100000      44.16600000
 H      34.91200000      31.35700000      44.58500000
 O      29.16300000      21.73000000      47.20400000
 H      30.00200000      21.57800000      47.59800000
 H      29.33100000      21.47100000      46.25500000
 O      28.76300000      11.20900000      47.02400000
 H      29.68400000      11.24300000      46.62500000
 H      28.73000000      10.24700000      47.37000000
 O      29.59900000      30.76400000      48.75800000
 H      29.79900000      31.48000000      48.09600000
 H      30.45400000      30.69600000      49.18800000
 O      32.55600000      33.47900000      45.72700000
 H      33.38900000      33.79300000      45.27700000
 H      32.07000000      33.26000000      44.85600000
 O      33.41200000      12.02700000      44.38300000
 H      34.14100000      12.62800000      44.37600000
 H      33.68600000      11.23900000      44.85400000
 O      28.44500000       2.26400000      48.45100000
 H      27.90000000       2.02100000      49.19900000
 H      27.85600000       2.13200000      47.70600000
 O      38.86100000      15.37300000      46.63200000
 H      39.39100000      14.53500000      46.45400000
 H      38.97000000      15.33300000      47.62000000
 O      33.13400000       6.96100000      47.85900000
 H      33.11000000       6.11400000      47.39400000
 H      33.78900000       6.83600000      48.56000000
 O      30.97600000      27.01100000      42.92300000
 H      29.99700000      27.03100000      43.04200000
 H      31.18400000      27.32300000      43.85300000
 O      30.30600000      24.39000000      44.77600000
 H      30.90400000      25.11100000      45.03100000
 H      29.55000000      24.50400000      45.32900000
 O      36.41200000      18.08600000      47.54200000
 H      37.10100000      18.27300000      48.17400000
 H      36.75600000      18.57900000      46.75900000
 O      35.93100000      12.88800000      45.35600000
 H      36.01200000      13.74500000      45.83400000
 H      36.67500000      13.02100000      44.69700000
 O      38.46100000      10.35200000      44.84900000
 H      38.17800000      11.05300000      45.48300000
 H      37.76900000      10.48700000      44.13200000
 O      32.59400000      39.86300000      48.05800000
 H      32.02600000      40.43800000      47.42700000
 H      31.85500000      39.33700000      48.42300000
 O      38.38700000      31.34000000      45.30800000
 H      38.44300000      31.73200000      46.25000000
 H      37.41300000      31.52000000      45.16700000
 O      40.03300000      18.98300000      43.31300000
 H      39.69500000      18.01800000      43.40400000
 H      39.52400000      19.37100000      43.98400000
 O      35.85800000      39.95400000      45.65200000
 H      35.18000000      39.42100000      45.16900000
 H      36.54200000      39.29700000      45.86000000
 O      31.13400000      33.03400000      43.48000000
 H      31.36100000      33.14800000      42.56700000
 H      30.86200000      32.12500000      43.56100000
 O      29.54300000      21.10800000      43.89400000
 H      29.48500000      21.77500000      43.19900000
 H      28.78400000      20.57600000      43.69200000
 O      29.96100000      27.99900000      48.79400000
 H      29.23800000      27.45100000      48.42200000
 H      29.68100000      28.87800000      48.64500000
 O      30.97500000      27.61400000      46.05600000
 H      30.18900000      27.98500000      46.42700000
 H      31.61500000      27.68700000      46.78500000
 O      29.81800000      14.02900000      43.27500000
 H      30.25900000      13.75100000      44.07200000
 H      28.87900000      13.69600000      43.44800000
 O      38.21700000       8.18400000      46.61600000
 H      37.71800000       8.76100000      46.03800000
 H      37.88200000       8.49000000      47.50300000
 O      27.39200000      21.72400000      49.14800000
 H      26.64500000      21.13500000      48.94500000
 H      27.95300000      21.51800000      48.32400000
 O      36.88900000      21.06900000      43.86200000
 H      36.01500000      20.62900000      43.89200000
 H      37.42800000      20.36600000      44.32400000
 O      39.59400000      40.65500000      45.44700000
 H      39.00800000      39.94700000      45.78300000
 H      40.27100000      40.24000000      44.91400000
 O      35.54000000      23.72200000      45.29600000
 H      34.75300000      24.22800000      44.94900000
 H      35.81800000      23.20800000      44.50900000
 O      34.54600000      33.10300000      48.37800000
 H      34.59600000      32.22000000      47.97800000
 H      33.78600000      33.53000000      47.98300000
 O      36.33300000      17.46400000      42.91600000
 H      37.16100000      17.17300000      43.36300000
 H      35.93800000      18.02600000      43.58300000
 O      34.70400000      26.89100000      43.54400000
 H      35.58600000      26.65100000      43.83900000
 H      34.17100000      26.09300000      43.88800000
 O      40.06100000       6.30700000      44.97100000
 H      39.19000000       5.90600000      45.05800000
 H      39.89200000       7.13700000      45.48600000
 O      37.94700000      32.30200000      48.29900000
 H      37.09800000      31.80800000      48.10000000
 H      38.06500000      32.08600000      49.22500000
 O      40.26600000       9.34800000      42.42600000
 H      40.92100000       8.59500000      42.40200000
 H      39.49100000       8.89400000      42.78900000
 O      28.08200000      24.08400000      46.60700000
 H      28.46800000      23.24800000      46.96200000
 H      27.34900000      23.64000000      46.09800000
 O      38.45000000      19.70400000      46.51600000
 H      38.48000000      20.33900000      47.25900000
 H      39.28700000      19.16600000      46.72400000
 O      34.04200000       0.92900000      42.85500000
 H      34.11400000       1.18600000      41.91500000
 H      34.55600000       0.11400000      42.95300000
 O      38.42100000      25.37600000      47.40900000
 H      39.36900000      25.61000000      47.44600000
 H      38.46400000      24.51700000      46.99900000
 O      36.23700000      35.63700000      42.52900000
 H      35.88000000      36.33400000      41.88400000
 H      37.20200000      35.71600000      42.39800000
 O      31.25700000      12.77000000      46.50900000
 H      32.11200000      12.77100000      45.99300000
 H      31.25800000      13.64900000      46.92200000
 O      33.63100000      37.38800000      47.60400000
 H      33.10600000      36.69300000      48.04200000
 H      33.15800000      38.18900000      47.90800000
 O      35.96700000       3.65300000      47.33200000
 H      35.25500000       3.90200000      47.95700000
 H      35.66400000       2.69100000      47.22500000
 O      27.33700000      32.20100000      47.06200000
 H      27.39300000      32.56000000      48.01100000
 H      28.22100000      32.60000000      46.78100000
 O      39.41100000      25.71200000      43.59700000
 H      40.31100000      25.83900000      43.78500000
 H      39.32500000      24.72000000      43.45400000
 O      33.90600000      16.39600000      48.77000000
 H      34.32200000      15.58300000      48.83700000
 H      34.56400000      16.96300000      48.33100000
 O      27.94100000       1.18100000      42.58300000
 H      27.16400000       0.80600000      43.04400000
 H      27.68900000       2.13500000      42.69400000
 O      37.21800000       5.31900000      44.82200000
 H      36.63100000       6.14700000      44.76800000
 H      36.73300000       4.83800000      45.53200000
 O      27.77000000      36.85900000      44.80000000
 H      28.31400000      36.48700000      45.52400000
 H      27.13100000      37.43800000      45.30400000
 O      38.10500000      38.29300000      46.78700000
 H      37.69600000      37.39800000      46.66900000
 H      38.57500000      38.12700000      47.64600000
 O      28.56400000      37.40000000      42.30300000
 H      28.29400000      38.29600000      41.99200000
 H      28.14600000      37.36900000      43.17800000
