1110
XYZ file of cluster: frame_12000_9a195.2bb4.74236 - created by MolEdiTo
 O      31.79000000       1.11400000      25.42400000
 H      32.56000000       1.29100000      25.98600000
 H      32.14400000       1.07200000      24.51400000
 O      29.32700000       2.73300000      31.17400000
 H      28.37200000       2.78700000      31.40700000
 H      29.60900000       3.60700000      31.43600000
 O      32.50600000       3.72800000      20.79100000
 H      32.34300000       4.69100000      21.05300000
 H      33.46900000       3.81900000      20.64400000
 O      35.77400000      28.06500000      33.28700000
 H      35.51200000      27.18100000      33.02400000
 H      35.03800000      28.60000000      32.88800000
 O      31.32400000      33.72300000      37.12600000
 H      30.64700000      34.15500000      37.73600000
 H      31.49800000      32.94900000      37.71100000
 O      28.21500000       7.10100000      23.47700000
 H      28.83300000       6.48100000      22.97800000
 H      28.03500000       6.48000000      24.28700000
 O      29.81300000       5.25000000      21.46400000
 H      28.88900000       5.10600000      21.08000000
 H      30.31500000       5.64900000      20.75000000
 O      37.78800000       6.30800000      24.79500000
 H      38.62400000       5.84100000      24.33800000
 H      37.60600000       5.58100000      25.41400000
 O      32.66900000       7.82000000      35.41000000
 H      33.29300000       8.19800000      36.07800000
 H      33.30400000       7.20200000      34.92300000
 O      35.54200000       1.17700000      35.26300000
 H      35.99700000       1.43800000      36.11000000
 H      35.65300000       2.09600000      34.87100000
 O      38.64700000      21.47300000      28.49000000
 H      39.59900000      21.69100000      28.47200000
 H      38.22800000      22.32700000      28.14400000
 O      39.18500000      14.75800000      39.99000000
 H      38.66900000      14.62900000      39.19500000
 H      39.35200000      13.90000000      40.35000000
 O      35.27600000      28.46000000      20.33300000
 H      35.13400000      28.85200000      21.17100000
 H      35.80200000      29.13100000      19.82600000
 O      35.89500000       8.84600000      33.43900000
 H      35.85900000       9.81400000      33.62100000
 H      35.85600000       8.83200000      32.49200000
 O      31.41000000      33.97400000      34.32400000
 H      31.22400000      34.94300000      34.22700000
 H      30.96400000      33.81900000      35.17800000
 O      29.30600000      14.71500000      29.46100000
 H      30.14400000      14.51500000      29.05900000
 H      29.49600000      15.54000000      29.91900000
 O      37.29600000       1.85600000      20.96000000
 H      37.97800000       1.46500000      20.37400000
 H      37.86500000       2.09600000      21.72300000
 O      30.74700000      17.33900000      28.48900000
 H      29.80700000      17.60700000      28.56300000
 H      30.97300000      17.06700000      29.39400000
 O      29.99000000       7.25300000      26.58600000
 H      30.50400000       6.39900000      26.48100000
 H      30.30800000       7.67400000      25.74200000
 O      32.79900000      38.70500000      37.55100000
 H      32.97300000      37.80900000      37.18300000
 H      32.64700000      39.17500000      36.69200000
 O      40.46600000      23.38100000      29.32700000
 H      41.38400000      23.84900000      29.29600000
 H      39.94500000      24.14000000      29.70100000
 O      32.69200000      11.56400000      40.38300000
 H      33.00800000      11.77400000      41.30100000
 H      33.35400000      10.81000000      40.23100000
 O      33.45600000      12.75800000      20.67900000
 H      32.80400000      12.09700000      21.01800000
 H      32.82100000      13.56100000      20.74600000
 O      37.09200000       4.54800000      38.00100000
 H      37.80200000       4.97100000      37.48500000
 H      37.45300000       4.65000000      38.91300000
 O      39.94800000       5.05400000      23.79100000
 H      40.39900000       5.80000000      23.33000000
 H      40.82300000       4.57300000      24.04100000
 O      38.90700000       2.90500000      29.48300000
 H      38.11000000       2.92800000      30.09800000
 H      39.13900000       1.95300000      29.58700000
 O      30.66200000       4.33000000      23.92100000
 H      30.42100000       4.53100000      23.01200000
 H      31.16900000       3.54900000      23.86400000
 O      33.35800000       2.75500000      29.60800000
 H      33.45700000       2.56700000      30.56900000
 H      32.61600000       3.39300000      29.66200000
 O      37.03900000      16.33700000      38.15100000
 H      37.78600000      16.78200000      38.55600000
 H      36.40400000      17.04600000      37.95700000
 O      33.02600000      34.44700000      39.65100000
 H      33.20600000      34.99900000      38.88700000
 H      32.05500000      34.65700000      39.76400000
 O      38.04600000      34.54400000      21.44800000
 H      37.99900000      34.18000000      22.33300000
 H      37.35200000      35.24500000      21.55000000
 O      33.46700000      22.60800000      37.49000000
 H      33.96700000      21.78800000      37.37300000
 H      32.79700000      22.38100000      38.18300000
 O      40.55700000      35.91200000      21.04200000
 H      41.08600000      35.24700000      21.50400000
 H      39.66000000      35.53600000      21.29700000
 O      34.98700000      40.51200000      24.63700000
 H      34.92800000      41.42300000      24.78100000
 H      35.89300000      40.29800000      25.07900000
 O      35.36100000      14.52900000      39.78100000
 H      36.02400000      15.13600000      39.32500000
 H      35.85200000      13.67400000      39.71400000
 O      31.15000000      34.73400000      24.09100000
 H      30.75600000      34.84400000      24.98500000
 H      30.36200000      35.00800000      23.54900000
 O      39.69400000      35.60100000      24.42500000
 H      39.36300000      34.63700000      24.36100000
 H      40.59800000      35.53500000      24.17900000
 O      28.85500000      15.67700000      35.54500000
 H      28.97000000      14.84200000      35.13900000
 H      29.54500000      15.55100000      36.25200000
 O      31.31700000      18.32000000      26.13900000
 H      31.21100000      19.27100000      26.11800000
 H      31.19200000      18.11600000      27.08400000
 O      40.28900000      32.02800000      33.61200000
 H      39.71900000      31.41200000      33.15100000
 H      39.66400000      32.40600000      34.25900000
 O      32.53900000      36.90000000      20.98200000
 H      33.00400000      36.82200000      21.84900000
 H      33.30600000      36.65000000      20.38600000
 O      32.52300000      26.39100000      30.36800000
 H      31.58200000      26.42100000      30.61700000
 H      32.55700000      27.25900000      29.91500000
 O      36.88800000       7.88600000      35.90400000
 H      36.86800000       8.19800000      34.97000000
 H      37.21500000       6.96900000      35.78400000
 O      29.34700000      29.67200000      35.98100000
 H      30.26800000      30.07000000      35.95600000
 H      28.84300000      30.51200000      35.73500000
 O      32.50500000       5.23600000      26.15200000
 H      33.34600000       5.31900000      26.56200000
 H      32.71900000       4.91500000      25.24300000
 O      37.28200000      25.72000000      25.36400000
 H      36.81700000      26.52400000      25.14100000
 H      37.69000000      25.91000000      26.22600000
 O      33.77100000      30.50000000      39.82900000
 H      34.65500000      30.28000000      39.91700000
 H      33.38000000      30.31400000      40.73600000
 O      36.14600000      34.86100000      24.06400000
 H      36.08700000      35.50100000      24.75400000
 H      35.58900000      35.19400000      23.32900000
 O      38.94200000      11.55100000      34.38800000
 H      39.14500000      10.84900000      35.01300000
 H      39.84500000      11.89800000      34.23300000
 O      38.94300000      26.69500000      27.31600000
 H      38.26200000      27.21000000      27.76300000
 H      39.61500000      26.58300000      28.02900000
 O      36.95900000      30.73800000      39.02000000
 H      36.68200000      30.00700000      39.60800000
 H      37.28600000      31.38600000      39.77000000
 O      38.54800000      20.01900000      23.50400000
 H      37.65800000      19.70800000      23.34000000
 H      38.44100000      20.32400000      24.42800000
 O      33.77400000      33.58900000      33.13300000
 H      32.88800000      33.56800000      33.59500000
 H      34.33000000      33.69300000      33.95700000
 O      37.92100000      14.14900000      25.24600000
 H      38.15000000      13.66700000      26.03200000
 H      38.46400000      13.92900000      24.60400000
 O      39.84400000      11.16000000      23.06400000
 H      40.06300000      11.55600000      22.20600000
 H      39.18200000      10.46600000      22.76200000
 O      36.55900000      31.36500000      30.31100000
 H      35.77100000      31.93300000      30.23200000
 H      36.46400000      30.93300000      31.15200000
 O      27.93200000      17.81800000      28.87000000
 H      27.06300000      17.33600000      28.72600000
 H      27.63100000      18.39100000      29.55700000
 O      29.25900000      29.26900000      38.94600000
 H      28.39400000      29.66200000      38.57900000
 H      29.70100000      29.13900000      38.06200000
 O      34.54900000       8.09000000      37.24300000
 H      35.43000000       8.14600000      36.84800000
 H      34.78900000       7.97100000      38.22100000
 O      37.00500000      23.24400000      27.10800000
 H      36.41000000      23.75000000      27.67000000
 H      37.13200000      23.81000000      26.29500000
 O      35.16100000      20.52000000      24.57000000
 H      35.72700000      20.77100000      25.33600000
 H      35.10900000      19.57400000      24.65900000
 O      38.28100000      32.19000000      28.29400000
 H      37.64100000      32.89200000      28.02900000
 H      37.75500000      31.66400000      28.90900000
 O      27.82000000      11.34100000      30.64900000
 H      28.60700000      11.36100000      30.09000000
 H      28.25700000      10.91500000      31.47700000
 O      37.87800000       3.74500000      32.89000000
 H      37.55500000       4.47700000      32.33100000
 H      38.67500000       4.07200000      33.23800000
 O      33.19500000       8.46700000      39.97800000
 H      32.63600000       8.00800000      39.30500000
 H      33.59500000       7.72500000      40.46700000
 O      34.17300000      38.43100000      39.91600000
 H      34.07100000      38.67800000      38.98800000
 H      33.26600000      38.43700000      40.23500000
 O      36.17900000      40.38900000      28.21900000
 H      36.83000000      40.06400000      28.86400000
 H      36.53000000      40.22600000      27.36900000
 O      38.11100000      19.13000000      34.83800000
 H      38.03800000      18.37300000      35.48900000
 H      37.54600000      18.75500000      34.13400000
 O      35.87100000       2.95200000      28.72500000
 H      35.03300000       2.93800000      29.29600000
 H      36.00200000       2.02800000      28.58900000
 O      31.44900000      38.52500000      32.79700000
 H      31.28800000      39.41600000      33.18500000
 H      30.88700000      38.52100000      32.00300000
 O      30.51900000      12.86700000      24.45100000
 H      30.27000000      12.41400000      23.62700000
 H      31.43100000      13.18400000      24.20500000
 O      37.71400000       1.21000000      39.78400000
 H      37.45300000       1.50900000      40.70600000
 H      38.59700000       0.88700000      40.01500000
 O      35.53800000      38.19300000      35.30200000
 H      35.01800000      38.10600000      34.42700000
 H      35.67900000      39.17900000      35.30100000
 O      28.89700000      34.73600000      22.74700000
 H      28.59300000      33.80500000      22.64400000
 H      29.13100000      34.91800000      21.80100000
 O      39.74500000      25.19400000      34.99800000
 H      38.75700000      24.97200000      34.74800000
 H      40.15900000      24.41800000      34.51500000
 O      39.49500000      36.88100000      26.93600000
 H      39.52800000      37.10800000      25.99800000
 H      39.95600000      36.00000000      26.91600000
 O      33.34600000      38.17600000      26.03000000
 H      33.79000000      39.05300000      26.09000000
 H      33.91900000      37.63800000      26.51600000
 O      35.78100000      32.33500000      25.87700000
 H      36.67700000      31.95200000      25.97000000
 H      36.03700000      33.19300000      25.46800000
 O      30.49800000      24.90000000      24.14600000
 H      30.85600000      24.74700000      23.26800000
 H      29.60100000      25.31300000      23.88600000
 O      34.92600000      31.01000000      32.62800000
 H      34.28700000      31.76900000      32.71300000
 H      34.32300000      30.33000000      32.29900000
 O      40.03500000      21.82400000      37.30800000
 H      39.54500000      22.64500000      37.48100000
 H      39.94000000      21.32500000      38.18000000
 O      29.60900000      22.33400000      21.15500000
 H      30.29300000      22.98000000      21.39600000
 H      30.13300000      21.72500000      20.57600000
 O      36.77300000      21.62100000      35.52500000
 H      37.10400000      20.74400000      35.25200000
 H      36.23900000      21.37300000      36.27200000
 O      30.72500000      36.89800000      35.09300000
 H      30.38300000      37.30400000      35.88100000
 H      31.08900000      37.62600000      34.57400000
 O      30.19400000      11.61500000      40.02100000
 H      30.16400000      12.36700000      40.65700000
 H      31.23400000      11.39000000      40.16200000
 O      35.50500000      14.46500000      24.04900000
 H      36.00700000      15.03300000      23.40900000
 H      36.26000000      14.19900000      24.62500000
 O      34.25000000      25.24800000      38.69200000
 H      34.77700000      25.22300000      37.86800000
 H      34.77200000      25.88000000      39.19500000
 O      36.06800000      25.70100000      36.62000000
 H      35.31400000      26.32100000      36.51500000
 H      36.76900000      26.29500000      36.94800000
 O      29.72700000      40.55600000      39.01600000
 H      29.09800000      41.16900000      39.50200000
 H      30.33000000      40.38400000      39.74000000
 O      36.11700000      13.09500000      28.12900000
 H      37.06100000      12.98900000      27.82200000
 H      35.65400000      12.52800000      27.44800000
 O      28.63700000      34.50100000      35.45100000
 H      29.43900000      35.05700000      35.51400000
 H      27.99300000      35.26100000      35.26000000
 O      34.12900000      24.59700000      27.40800000
 H      33.34500000      24.12600000      27.85200000
 H      34.64900000      24.67500000      28.22300000
 O      37.65300000      28.49700000      35.29600000
 H      37.83900000      29.41500000      34.90600000
 H      36.94600000      28.25600000      34.65800000
 O      39.78900000      15.13600000      22.77600000
 H      38.83000000      15.25500000      22.84400000
 H      39.91600000      15.33700000      21.83200000
 O      27.29400000       1.36500000      22.61800000
 H      27.36200000       0.46700000      22.22400000
 H      27.81400000       1.90200000      21.98000000
 O      35.11400000      33.66600000      35.30100000
 H      35.90200000      33.90800000      34.79600000
 H      35.42100000      32.87100000      35.78400000
 O      32.06200000      33.72100000      28.32400000
 H      31.59700000      34.42900000      27.77600000
 H      31.51800000      33.71800000      29.11800000
 O      37.33700000      24.25300000      34.53000000
 H      37.04400000      23.31400000      34.79000000
 H      36.73400000      24.72400000      35.13300000
 O      38.69200000       2.83600000      23.02000000
 H      38.99800000       3.69100000      23.31200000
 H      39.52300000       2.27700000      23.11700000
 O      40.47400000      34.03300000      31.64000000
 H      39.52800000      33.94900000      31.41000000
 H      40.55900000      33.31900000      32.31000000
 O      31.30600000       8.67800000      24.43000000
 H      32.29400000       8.57100000      24.62200000
 H      31.32900000       8.97600000      23.51000000
 O      28.92400000       6.27600000      31.94600000
 H      29.72800000       5.76300000      32.14000000
 H      28.51500000       6.26800000      32.84900000
 O      32.98800000      21.61000000      31.20100000
 H      33.82000000      21.78000000      30.75500000
 H      32.42300000      22.34400000      30.78000000
 O      30.36600000       8.74000000      34.01800000
 H      31.17500000       8.31600000      34.41100000
 H      30.74100000       9.43400000      33.44600000
 O      31.65800000       7.35800000      29.09300000
 H      31.30500000       7.46500000      28.20500000
 H      32.51000000       7.79400000      29.01300000
 O      36.15400000       3.41100000      24.08200000
 H      36.52400000       3.78300000      24.88700000
 H      36.90100000       2.95900000      23.65100000
 O      32.26600000      17.53300000      23.67700000
 H      32.00900000      17.95300000      24.53800000
 H      32.68300000      18.29200000      23.25200000
 O      37.80400000       8.49200000      30.92400000
 H      38.29800000       9.23700000      31.34500000
 H      38.56200000       7.85400000      30.81100000
 O      33.92900000       1.18000000      38.47500000
 H      33.31300000       0.47700000      38.09700000
 H      33.61200000       1.97600000      38.00300000
 O      30.77700000       8.41000000      21.36900000
 H      29.90600000       8.14800000      21.69500000
 H      30.56100000       8.62500000      20.43000000
 O      38.87300000      33.10100000      24.12800000
 H      39.60900000      32.47700000      23.88500000
 H      38.14500000      32.55300000      23.81700000
 O      28.53300000       1.17700000      36.45000000
 H      29.09500000       1.06600000      37.23400000
 H      27.71400000       1.50400000      36.86500000
 O      35.38400000      20.13600000      37.25100000
 H      35.10700000      19.48100000      37.90300000
 H      35.26800000      19.67800000      36.39600000
 O      29.82100000      23.43500000      40.60800000
 H      29.91600000      23.83300000      41.54700000
 H      29.31200000      24.10700000      40.19100000
 O      36.34400000      25.20000000      28.88100000
 H      35.85100000      25.61600000      29.64500000
 H      37.20100000      25.15100000      29.28300000
 O      28.88800000      18.20400000      34.30000000
 H      29.84600000      18.35800000      34.23300000
 H      28.84500000      17.43200000      34.93600000
 O      30.99100000      16.33100000      31.19400000
 H      30.99600000      17.18100000      31.76000000
 H      31.34500000      15.76100000      31.94600000
 O      29.81800000      27.02800000      30.51900000
 H      29.52500000      27.01200000      31.42700000
 H      29.14200000      27.56900000      30.08900000
 O      33.71600000      10.69700000      35.40800000
 H      33.51300000       9.89400000      34.92800000
 H      34.49200000      11.02900000      34.86600000
 O      28.14800000      37.70800000      28.15900000
 H      27.84400000      38.34900000      28.81600000
 H      29.01700000      38.08000000      27.97100000
 O      37.33000000      31.21500000      22.73000000
 H      37.88900000      31.15500000      21.94000000
 H      37.19700000      30.30700000      23.00700000
 O      29.35300000      35.22000000      32.20600000
 H      29.60300000      35.32900000      31.25200000
 H      30.05800000      34.60600000      32.56700000
 O      37.88700000      28.65800000      31.32500000
 H      37.34400000      28.57400000      32.11000000
 H      38.76500000      28.83800000      31.64800000
 O      28.17500000       2.84400000      26.68500000
 H      28.58500000       2.15300000      26.09400000
 H      28.93600000       3.03300000      27.21400000
 O      37.48500000      20.63700000      26.03800000
 H      37.15900000      21.46000000      26.39400000
 H      38.05800000      20.31200000      26.77300000
 O      30.69200000      31.77600000      32.84900000
 H      31.08900000      30.92700000      33.18500000
 H      30.85200000      32.32600000      33.64400000
 O      39.25900000      29.71700000      26.35500000
 H      38.62900000      30.36800000      26.75500000
 H      39.13100000      28.94100000      26.95600000
 O      30.92000000      15.52000000      37.33000000
 H      31.38200000      14.68400000      37.09100000
 H      31.63000000      16.05400000      37.68800000
 O      38.37200000      34.48000000      34.36400000
 H      39.05100000      35.16400000      34.48500000
 H      38.37600000      34.29700000      33.41800000
 O      28.11600000       7.09300000      34.44700000
 H      28.84700000       7.64500000      34.04400000
 H      28.42900000       7.06300000      35.36700000
 O      34.68600000       6.24800000      27.55800000
 H      35.59600000       6.57400000      27.51700000
 H      34.22600000       6.87700000      27.00300000
 O      26.92300000      22.77400000      20.69600000
 H      26.51400000      21.98300000      20.54400000
 H      27.87400000      22.48900000      20.85100000
 O      29.20700000      16.56000000      25.76400000
 H      28.75200000      16.97800000      26.52200000
 H      29.95000000      17.23600000      25.66700000
 O      40.63500000      39.19600000      22.10100000
 H      39.99100000      38.75600000      22.72600000
 H      41.09700000      38.34200000      21.83300000
 O      29.89500000      25.42200000      35.22100000
 H      30.06100000      25.78100000      36.13600000
 H      29.57300000      24.52600000      35.47000000
 O      36.82000000      15.95900000      22.18900000
 H      36.77900000      16.96100000      22.27100000
 H      36.83100000      15.94600000      21.20800000
 O      31.11000000       1.50600000      33.03300000
 H      31.92200000       1.99300000      32.76300000
 H      30.44300000       1.93300000      32.46300000
 O      38.84800000      13.19200000      27.99400000
 H      38.99400000      13.05600000      28.96100000
 H      39.79000000      13.12600000      27.70500000
 O      36.96500000       5.91300000      31.50300000
 H      36.04500000       5.81200000      31.11800000
 H      37.04200000       6.90200000      31.31900000
 O      35.76300000      19.33400000      29.54200000
 H      36.05000000      19.25400000      28.62700000
 H      34.84800000      19.00000000      29.44400000
 O      39.61700000      40.43200000      29.65300000
 H      40.30500000      39.82000000      29.25100000
 H      39.43500000      39.83800000      30.44000000
 O      28.38500000      30.51400000      24.71800000
 H      29.27000000      30.71800000      24.31000000
 H      28.42000000      30.98500000      25.52000000
 O      33.27100000      36.65800000      23.40400000
 H      32.45300000      36.14100000      23.56600000
 H      33.23500000      37.27600000      24.16200000
 O      35.27900000      40.38600000      32.52800000
 H      35.65400000      40.50000000      33.40600000
 H      35.01400000      39.43400000      32.60400000
 O      29.44700000      28.11200000      20.70100000
 H      30.15800000      28.76400000      20.36900000
 H      28.72700000      28.81000000      20.88100000
 O      39.60600000      17.18600000      38.86900000
 H      39.68000000      16.25700000      39.29400000
 H      40.48400000      17.18300000      38.44700000
 O      29.39900000      32.05500000      26.96800000
 H      28.56600000      31.80400000      27.45400000
 H      29.03100000      32.94100000      26.59700000
 O      28.62200000      21.16300000      23.36900000
 H      28.88000000      20.26600000      23.09200000
 H      29.13600000      21.70000000      22.76200000
 O      37.84100000       5.50800000      35.12800000
 H      38.17900000       4.72300000      35.65000000
 H      38.51000000       5.60000000      34.49300000
 O      34.31200000      31.97900000      28.93300000
 H      33.34900000      32.01100000      29.12700000
 H      34.38600000      31.09400000      28.57700000
 O      40.77800000      11.34900000      25.52400000
 H      40.31900000      11.10200000      24.70100000
 H      40.86800000      12.28000000      25.49400000
 O      29.30200000      27.50300000      26.16500000
 H      28.68300000      27.57500000      25.45200000
 H      29.98500000      28.19300000      25.97500000
 O      28.59600000      25.80000000      39.19200000
 H      28.00300000      25.96300000      38.44700000
 H      29.47800000      25.93100000      38.71700000
 O      31.03000000      29.57900000      26.14100000
 H      30.47000000      30.24000000      26.57800000
 H      31.72400000      30.10200000      25.75000000
 O      27.75100000      23.57000000      29.63700000
 H      28.54200000      23.31300000      29.08700000
 H      28.11900000      23.46100000      30.47900000
 O      39.44000000      10.15500000      38.28400000
 H      39.84800000      11.07200000      38.05900000
 H      39.90800000       9.98500000      39.13300000
 O      34.01200000      29.70700000      23.09300000
 H      33.65500000      30.64900000      23.22100000
 H      33.20500000      29.25500000      22.77400000
 O      28.04200000      18.54700000      22.24300000
 H      28.06300000      17.57300000      22.12800000
 H      28.96900000      18.73700000      21.98600000
 O      34.48500000       4.93400000      36.71500000
 H      35.36500000       4.83300000      37.10500000
 H      34.16300000       5.76700000      37.05300000
 O      40.01200000      19.83500000      39.04000000
 H      39.97500000      19.69800000      39.99600000
 H      39.50100000      18.99700000      38.76500000
 O      38.70800000      13.08600000      30.64300000
 H      37.88300000      13.37200000      31.16500000
 H      39.36000000      13.72100000      31.01600000
 O      35.40100000      32.53800000      20.99400000
 H      36.00500000      32.20800000      20.25100000
 H      35.93700000      32.41000000      21.74000000
 O      27.97500000      37.10800000      34.03500000
 H      28.73500000      36.71100000      33.50500000
 H      28.31500000      37.96500000      34.30200000
 O      34.03700000      14.27200000      29.38400000
 H      34.11300000      15.09200000      28.84000000
 H      34.88200000      13.84400000      29.00300000
 O      31.13100000      28.41800000      22.90600000
 H      30.95300000      29.33200000      23.21600000
 H      30.56300000      28.36100000      22.13500000
 O      31.53100000      39.39700000      21.24600000
 H      30.70800000      39.42200000      20.72500000
 H      31.69900000      38.41100000      21.30100000
 O      40.34600000      37.09200000      34.57200000
 H      40.46300000      37.93800000      35.05100000
 H      40.12300000      37.45400000      33.66300000
 O      31.67800000      24.55200000      21.67700000
 H      32.62000000      24.24300000      21.87000000
 H      31.83500000      25.37400000      21.23700000
 O      34.63400000      11.32100000      23.31700000
 H      35.16100000      11.53700000      22.50200000
 H      33.76600000      11.68700000      23.02600000
 O      30.20800000      15.82800000      22.85000000
 H      30.76700000      16.50700000      23.26000000
 H      30.08200000      15.20300000      23.52600000
 O      38.42100000      23.83100000      37.82000000
 H      37.86100000      24.32000000      38.45000000
 H      37.92800000      23.89700000      36.97500000
 O      30.50100000       5.00100000      35.55600000
 H      30.18000000       5.86300000      35.95300000
 H      29.74500000       4.43400000      35.59700000
 O      32.80900000      12.45300000      37.25600000
 H      32.54900000      11.92500000      36.47200000
 H      32.79300000      11.79400000      37.97300000
 O      29.62500000      10.83000000      28.32600000
 H      29.64300000      10.02500000      28.85700000
 H      29.21300000      10.45000000      27.50300000
 O      35.08500000      29.56700000      27.04400000
 H      34.87800000      28.68900000      26.67700000
 H      34.90500000      30.17600000      26.38400000
 O      38.28300000      33.80400000      36.99600000
 H      38.43200000      33.77400000      36.04400000
 H      38.67600000      34.63300000      37.26600000
 O      26.98000000      18.60200000      32.48900000
 H      27.75600000      18.33200000      33.05000000
 H      26.22400000      18.37600000      33.05600000
 O      28.00100000      15.94400000      21.52900000
 H      28.80000000      15.67000000      22.02700000
 H      28.41900000      16.15600000      20.64600000
 O      32.92000000      31.56400000      20.73500000
 H      33.77600000      32.07400000      20.73200000
 H      32.61600000      31.53300000      21.65600000
 O      28.18200000      17.79700000      38.94300000
 H      28.88700000      18.34100000      38.53500000
 H      28.74700000      17.04100000      39.27000000
 O      36.38300000      19.29500000      32.50200000
 H      36.38700000      19.09600000      31.53100000
 H      35.58900000      19.85300000      32.59700000
 O      33.85300000      27.49200000      36.80000000
 H      33.42300000      27.59800000      37.66600000
 H      34.16700000      28.42000000      36.66400000
 O      32.19400000      15.43200000      26.78400000
 H      31.70000000      16.11800000      27.31200000
 H      31.59000000      14.64900000      26.90400000
 O      32.57600000      40.36400000      35.56100000
 H      33.41700000      40.88200000      35.70500000
 H      32.19500000      40.83600000      34.85200000
 O      28.12900000      25.69200000      23.34100000
 H      27.80800000      26.63900000      23.37500000
 H      27.24000000      25.28800000      23.18700000
 O      33.40100000       9.11100000      27.41200000
 H      33.50700000       8.89900000      26.46800000
 H      34.11200000       9.82300000      27.48600000
 O      40.25400000      20.92100000      34.81200000
 H      39.64400000      20.13300000      34.78300000
 H      40.09600000      21.26100000      35.70600000
 O      39.81600000      36.65200000      37.59900000
 H      39.97200000      37.07500000      36.70400000
 H      39.25400000      37.37500000      37.95300000
 O      32.92800000      29.18200000      31.71800000
 H      32.18600000      29.15900000      32.31000000
 H      32.66800000      28.60900000      31.00000000
 O      29.83300000      38.53000000      36.89300000
 H      30.15100000      39.15000000      37.60400000
 H      28.87900000      38.54900000      37.19300000
 O      31.90000000      16.99200000      39.88500000
 H      31.31200000      16.62000000      40.60000000
 H      32.33800000      16.17600000      39.59600000
 O      30.84000000      25.68700000      27.79600000
 H      30.97100000      26.13900000      26.93600000
 H      30.60400000      26.43700000      28.32900000
 O      36.28700000       9.10700000      28.42400000
 H      36.36300000       8.91100000      29.36900000
 H      36.56000000       8.31600000      27.94300000
 O      36.16100000      36.93800000      37.64700000
 H      35.98500000      37.56600000      36.88000000
 H      35.25500000      36.54400000      37.65300000
 O      29.76100000      22.62500000      34.75300000
 H      29.31500000      21.85600000      35.12900000
 H      29.33700000      22.72000000      33.88000000
 O      35.27100000      14.84700000      33.80200000
 H      35.10300000      14.38300000      34.67100000
 H      36.15400000      15.28600000      34.04200000
 O      27.41600000       9.66100000      23.66100000
 H      26.51600000       9.34500000      23.57500000
 H      27.87800000       8.85900000      23.48200000
 O      29.26900000       9.85000000      25.80000000
 H      28.60500000       9.89000000      25.05900000
 H      30.02700000       9.43000000      25.30000000
 O      31.01000000      18.85600000      31.95900000
 H      30.78600000      19.60500000      31.35100000
 H      30.92500000      19.30600000      32.80300000
 O      31.25600000      23.48800000      26.21100000
 H      31.36700000      24.23200000      26.83400000
 H      30.67500000      23.86800000      25.53500000
 O      28.87400000      20.23300000      26.13100000
 H      28.15700000      19.60100000      25.99200000
 H      28.70000000      20.92100000      25.38500000
 O      31.20900000      36.60100000      26.78800000
 H      32.03000000      37.13800000      26.54000000
 H      30.58800000      37.32800000      26.82600000
 O      32.46000000      32.59000000      31.05200000
 H      31.76000000      32.26600000      31.65900000
 H      32.97600000      33.21700000      31.60000000
 O      31.41000000      21.65600000      39.03200000
 H      31.17500000      22.63800000      39.05200000
 H      31.38700000      21.52200000      40.01800000
 O      37.01100000       2.07600000      37.36500000
 H      37.05700000       3.03600000      37.53700000
 H      37.22700000       1.79400000      38.29900000
 O      28.02400000      14.03800000      25.09200000
 H      28.80000000      13.53900000      25.20500000
 H      28.37100000      14.98000000      25.08200000
 O      38.83900000       1.42200000      35.42800000
 H      38.07900000       1.45300000      35.99400000
 H      39.19300000       2.34200000      35.49700000
 O      39.07100000      24.39900000      23.68400000
 H      39.87100000      24.99600000      23.73300000
 H      38.36900000      24.97900000      24.02900000
 O      37.53400000       6.67900000      27.89400000
 H      38.21400000       6.93500000      28.54100000
 H      37.75400000       5.80100000      27.70800000
 O      38.74800000       6.74200000      39.99600000
 H      39.54000000       6.14700000      39.90300000
 H      38.12000000       6.15300000      40.48600000
 O      35.97000000       5.89700000      22.07900000
 H      36.14400000       6.79800000      21.76200000
 H      36.56300000       5.98300000      22.87900000
 O      32.28600000      10.62900000      29.35800000
 H      31.72700000      10.92100000      28.59300000
 H      32.71700000       9.82400000      29.00800000
 O      31.11000000      31.06200000      28.88700000
 H      31.39600000      31.80500000      29.40100000
 H      30.67700000      31.53500000      28.15100000
 O      32.66200000      26.57400000      24.36100000
 H      32.09800000      27.27100000      23.90300000
 H      31.89200000      25.92200000      24.45400000
 O      34.31000000      37.81100000      32.71500000
 H      33.45400000      38.21400000      32.32900000
 H      34.52700000      37.12800000      32.12900000
 O      27.50300000      38.79200000      21.62700000
 H      28.05400000      38.04200000      21.81000000
 H      26.61100000      38.48400000      21.77700000
 O      28.47100000      34.12300000      25.39500000
 H      28.43600000      34.36100000      24.46300000
 H      27.89300000      34.78000000      25.82500000
 O      37.44900000      10.81200000      26.42000000
 H      36.88000000      10.17500000      26.87900000
 H      37.69500000      10.31400000      25.62100000
 O      30.26900000      19.20400000      38.26200000
 H      30.91000000      18.69300000      38.86700000
 H      30.69800000      20.09300000      38.33100000
 O      30.57600000      19.18200000      21.63600000
 H      30.74200000      19.45600000      20.72700000
 H      31.42500000      19.25700000      22.04000000
 O      28.80400000       3.27100000      34.53300000
 H      28.07600000       2.98300000      34.01100000
 H      28.81500000       2.56700000      35.24700000
 O      40.62100000      39.28000000      36.00000000
 H      40.72000000      39.49400000      36.98800000
 H      39.88300000      39.93000000      35.78600000
 O      37.98600000      38.37600000      38.77400000
 H      37.28100000      37.76500000      38.51300000
 H      37.56500000      39.20900000      38.71500000
 O      35.18100000      39.76600000      21.77300000
 H      35.15600000      39.90800000      22.74200000
 H      35.76200000      40.52500000      21.51200000
 O      31.11200000      29.22900000      33.68600000
 H      30.31000000      28.83600000      34.03500000
 H      31.58100000      29.54000000      34.49500000
 O      38.45100000      38.49700000      23.42300000
 H      38.31200000      37.65400000      23.81400000
 H      37.71900000      38.48700000      22.75100000
 O      36.32300000      18.56800000      22.15800000
 H      36.94000000      19.11200000      21.55600000
 H      35.52100000      18.66300000      21.54500000
 O      34.49600000      14.46400000      36.53000000
 H      33.94100000      13.69400000      36.91800000
 H      34.85900000      14.78300000      37.38200000
 O      31.43700000      31.66700000      38.95900000
 H      31.03700000      30.84100000      39.29100000
 H      32.33700000      31.47700000      39.34400000
 O      35.04100000      10.75800000      38.38600000
 H      35.20000000       9.81700000      38.41100000
 H      34.36800000      10.82900000      37.61700000
 O      32.98700000      19.91800000      22.75600000
 H      33.82100000      20.50500000      22.79700000
 H      32.46900000      20.49400000      23.38600000
 O      31.53300000       7.66000000      38.00300000
 H      31.95700000       7.62000000      37.15700000
 H      30.67700000       7.19000000      37.86700000
 O      37.16600000      23.58800000      31.70400000
 H      36.98900000      24.00800000      32.58200000
 H      37.72000000      24.30300000      31.34400000
 O      32.37700000       3.30300000      36.98200000
 H      31.78700000       3.85400000      36.45600000
 H      33.22900000       3.77400000      36.75400000
 O      36.50100000      36.22800000      26.84500000
 H      37.42800000      36.43100000      27.06100000
 H      36.36100000      35.47800000      27.44400000
 O      27.61600000      13.87400000      31.44600000
 H      28.49400000      14.13800000      31.07300000
 H      27.53300000      13.00200000      31.07300000
 O      38.59400000      25.98200000      30.41900000
 H      39.47500000      26.38400000      30.29100000
 H      38.23100000      26.59400000      31.09700000
 O      36.22100000      11.55800000      33.51700000
 H      37.07400000      11.50700000      33.99200000
 H      36.31600000      12.43000000      33.12200000
 O      39.39200000      10.52000000      31.82800000
 H      39.23100000      10.85400000      30.86600000
 H      39.18300000      11.31200000      32.32400000
 O      37.42900000       3.94600000      26.41400000
 H      38.11700000       3.21400000      26.42000000
 H      36.89000000       3.68200000      27.18100000
 O      30.95600000       4.73700000      32.73000000
 H      30.54500000       4.58600000      33.61100000
 H      31.85700000       5.02400000      32.98000000
 O      39.38400000      38.80500000      32.08900000
 H      39.09900000      39.61600000      32.45600000
 H      38.57100000      38.24600000      32.06100000
 O      36.38700000      37.30700000      21.41600000
 H      36.56900000      37.31600000      20.47300000
 H      35.85800000      38.13600000      21.52600000
 O      29.52800000      13.09000000      34.22800000
 H      28.62200000      12.82800000      34.08800000
 H      29.77200000      12.43700000      34.94700000
 O      39.67100000       4.16500000      36.79800000
 H      40.54600000       4.18100000      36.41900000
 H      39.87300000       4.09500000      37.72500000
 O      36.43600000      31.92900000      36.77200000
 H      36.55900000      31.40500000      37.65800000
 H      37.02400000      32.64500000      37.00700000
 O      35.45200000      22.22300000      22.61400000
 H      35.31000000      22.92900000      23.30800000
 H      35.50600000      21.47000000      23.32800000
 O      39.09300000      28.15900000      23.85900000
 H      39.34600000      28.70100000      24.67300000
 H      38.09400000      28.37300000      23.98700000
 O      33.76100000      22.98300000      40.39000000
 H      34.70400000      23.15200000      40.61300000
 H      33.71400000      23.64600000      39.63700000
 O      33.06800000       6.19900000      31.73800000
 H      33.56600000       5.82000000      30.99700000
 H      33.13100000       7.12200000      31.52400000
 O      29.46300000       8.72200000      30.43100000
 H      30.30400000       8.35900000      30.24100000
 H      29.03800000       7.96400000      30.96100000
 O      32.87500000      16.62100000      34.07400000
 H      33.76200000      16.26900000      33.85800000
 H      32.34200000      15.82800000      33.82100000
 O      35.57000000      21.72400000      20.07600000
 H      35.60600000      21.90500000      21.09700000
 H      35.84300000      22.62600000      19.79300000
 O      39.80000000      14.92000000      34.55200000
 H      39.69100000      15.28500000      33.64500000
 H      40.65700000      14.48100000      34.41500000
 O      36.18500000      13.65100000      31.69700000
 H      35.69300000      13.98300000      30.92500000
 H      35.71600000      14.11500000      32.43900000
 O      29.70200000      22.26600000      28.12300000
 H      30.35000000      22.58800000      27.44100000
 H      29.31200000      21.49700000      27.63700000
 O      37.61600000      30.94800000      34.27400000
 H      37.17600000      31.36100000      35.02600000
 H      36.97800000      31.01900000      33.54700000
 O      39.74700000       2.06400000      26.49700000
 H      40.68300000       2.36000000      26.46200000
 H      39.62900000       2.07000000      27.46000000
 O      34.41200000       6.39000000      33.98000000
 H      34.83800000       7.26100000      33.84500000
 H      33.91300000       6.26400000      33.15900000
 O      34.07900000      23.59500000      24.59100000
 H      34.17300000      24.16000000      25.40400000
 H      33.47100000      22.91800000      24.95200000
 O      28.59000000       0.93100000      24.95400000
 H      29.40300000       0.75200000      24.42700000
 H      27.97500000       1.13800000      24.19900000
 O      27.21000000      27.59000000      35.38400000
 H      26.73000000      27.50600000      36.18100000
 H      27.76400000      28.35200000      35.49300000
 O      40.04800000       5.46600000      33.57600000
 H      40.60000000       5.13900000      34.34400000
 H      40.79200000       5.82300000      33.08400000
 O      38.61600000      13.05300000      37.14900000
 H      38.69500000      13.26000000      36.19300000
 H      39.54500000      12.69700000      37.31100000
 O      31.03000000      25.65100000      37.84300000
 H      31.90800000      25.10400000      37.78000000
 H      31.37900000      26.47400000      38.22500000
 O      28.39500000      26.51700000      33.17600000
 H      27.83100000      26.95900000      33.83800000
 H      28.98400000      25.99600000      33.76200000
 O      33.03500000      13.75700000      24.19200000
 H      32.91000000      14.13400000      25.04300000
 H      33.97900000      14.07800000      24.01600000
 O      31.48800000      10.97600000      21.72000000
 H      30.50400000      11.23900000      21.75500000
 H      31.29300000       9.99700000      21.60000000
 O      30.47900000       1.17800000      29.13800000
 H      30.03500000       1.76700000      29.86600000
 H      30.73000000       1.92700000      28.53600000
 O      35.23600000       3.58000000      34.20200000
 H      34.96900000       4.36000000      34.72800000
 H      36.09100000       3.87400000      33.83600000
 O      37.13300000      12.15000000      39.32900000
 H      36.45600000      11.61000000      38.78700000
 H      37.64900000      12.51000000      38.52700000
 O      36.77600000      39.05000000      30.53000000
 H      36.23200000      39.47000000      31.19400000
 H      37.00200000      38.23700000      30.91600000
 O      32.09500000      28.58200000      28.89300000
 H      31.61000000      29.46200000      28.95000000
 H      32.59600000      28.84000000      28.07600000
 O      33.09200000      18.90400000      29.70200000
 H      32.27800000      18.48900000      30.11100000
 H      33.14000000      19.71600000      30.27900000
 O      37.58600000      28.14400000      37.88000000
 H      37.75500000      28.16700000      36.86900000
 H      37.70800000      29.08000000      38.10500000
 O      28.20800000       4.91600000      25.23500000
 H      28.11500000       4.03800000      25.70000000
 H      29.03000000       4.70300000      24.75500000
 O      28.01700000       8.38600000      28.00600000
 H      28.77300000       8.10200000      27.41700000
 H      28.55600000       8.46900000      28.80700000
 O      28.88800000       6.78300000      37.15800000
 H      28.52500000       7.62800000      37.51700000
 H      28.14200000       6.17100000      37.20700000
 O      31.79500000       1.92700000      22.58300000
 H      32.05400000       1.19500000      21.99900000
 H      32.12100000       2.70400000      22.10400000
 O      32.04600000      23.73700000      29.71600000
 H      32.35600000      24.64900000      29.92800000
 H      31.08600000      23.88200000      29.60100000
 O      31.87500000      12.81900000      30.95600000
 H      32.54400000      13.35800000      30.40800000
 H      31.81700000      12.09700000      30.28300000
 O      27.29300000      14.01200000      27.87800000
 H      28.04100000      14.22900000      28.47600000
 H      27.67500000      13.97300000      27.03600000
 O      31.87200000      10.78000000      32.81200000
 H      32.09200000      11.40400000      32.11800000
 H      32.07900000      11.35400000      33.58600000
 O      33.99100000      35.57800000      29.81000000
 H      33.60200000      36.39100000      29.49100000
 H      33.44200000      34.92900000      29.32900000
 O      40.24800000      15.26000000      31.33400000
 H      41.14200000      15.22800000      30.98500000
 H      39.75400000      15.66300000      30.56900000
 O      36.38800000      28.61900000      23.40900000
 H      36.25700000      27.76600000      22.99900000
 H      35.52900000      28.99900000      23.49500000
 O      30.26800000      35.08600000      39.42800000
 H      29.63900000      34.30100000      39.59000000
 H      29.56000000      35.80000000      39.62500000
 O      37.55700000      40.40800000      25.60600000
 H      38.03300000      39.92600000      24.89900000
 H      38.21000000      41.08100000      25.87000000
 O      38.41400000       1.01200000      32.86000000
 H      38.11300000       1.91200000      32.56000000
 H      38.52100000       1.20800000      33.80300000
 O      34.17500000       5.25500000      23.80400000
 H      34.56600000       5.77000000      23.02900000
 H      34.70300000       4.40300000      23.71900000
 O      38.43700000       9.01200000      21.80800000
 H      39.04000000       9.13300000      21.03700000
 H      37.57500000       8.85500000      21.29400000
 O      29.84500000      35.07800000      29.51000000
 H      28.85800000      34.97200000      29.38800000
 H      29.98000000      36.01500000      29.43800000
 O      29.77100000      38.83700000      30.34600000
 H      28.82300000      38.93300000      30.48400000
 H      29.91600000      39.76400000      29.94900000
 O      34.52500000      25.96500000      32.04900000
 H      33.98000000      25.91000000      32.86200000
 H      33.87400000      26.25700000      31.41800000
 O      39.14300000      19.14300000      29.97400000
 H      39.35700000      19.39400000      30.90600000
 H      38.63000000      19.95300000      29.70900000
 O      31.30600000       4.70600000      29.78600000
 H      31.57400000       4.86600000      30.69600000
 H      31.13300000       5.61300000      29.42600000
 O      35.48600000      26.16200000      22.90300000
 H      34.76300000      26.11200000      23.52700000
 H      35.07600000      25.88800000      22.05700000
 O      33.85300000      30.43000000      37.19200000
 H      33.69600000      30.56000000      38.16300000
 H      34.79500000      30.77300000      37.11900000
 O      40.55500000      32.17700000      36.79100000
 H      39.74100000      32.46900000      37.20400000
 H      41.11100000      32.05300000      37.61100000
 O      29.07300000      15.29900000      39.43100000
 H      29.54000000      14.80000000      40.11500000
 H      29.63300000      15.16300000      38.65000000
 O      37.80800000      33.55200000      31.72100000
 H      37.09200000      34.15200000      31.51100000
 H      37.55800000      32.72700000      31.23300000
 O      28.92200000      11.48400000      22.24300000
 H      28.19200000      12.15300000      22.19600000
 H      28.35900000      10.80000000      22.77700000
 O      36.13300000      33.97200000      28.73800000
 H      35.44800000      34.51000000      29.24800000
 H      35.62400000      33.12400000      28.76500000
 O      40.23300000      20.13300000      21.44300000
 H      39.72300000      20.47000000      20.69900000
 H      39.52600000      20.08100000      22.16200000
 O      33.59200000      35.39100000      36.91000000
 H      34.10600000      34.79400000      36.32500000
 H      32.73100000      34.90400000      36.89900000
 O      31.65400000      14.38600000      33.13700000
 H      30.93100000      14.00900000      33.73300000
 H      31.74300000      13.71500000      32.46000000
 O      33.35000000      26.17700000      34.54600000
 H      33.44200000      26.64600000      35.39500000
 H      32.98200000      25.33300000      34.78200000
 O      38.50400000      21.03600000      31.86000000
 H      37.95600000      21.84900000      31.98800000
 H      38.01200000      20.46300000      32.45200000
 O      34.78100000      11.51500000      26.16900000
 H      35.67900000      11.24400000      26.04900000
 H      34.57100000      11.86000000      25.22900000
 O      33.13300000      32.21900000      23.60800000
 H      33.02000000      32.34800000      24.59400000
 H      33.55900000      33.04800000      23.40100000
 O      39.40500000       8.87200000      35.78000000
 H      39.39500000       9.22700000      36.65200000
 H      38.74500000       8.15000000      35.82100000
 O      35.45300000      22.01900000      30.21700000
 H      35.98600000      21.33900000      29.82900000
 H      36.09500000      22.62400000      30.61700000
 O      32.68800000      14.61500000      39.45700000
 H      33.66400000      14.56800000      39.56400000
 H      32.47600000      13.64800000      39.44900000
 O      38.84000000      16.44500000      29.46100000
 H      37.99900000      16.47600000      28.90400000
 H      38.93300000      17.38900000      29.67200000
 O      39.35200000       6.35600000      29.97300000
 H      38.91800000       5.76200000      30.58900000
 H      40.06300000       5.82400000      29.60700000
 O      31.54900000       3.01200000      39.94600000
 H      31.72600000       3.08200000      38.97500000
 H      30.71500000       2.51000000      39.92300000
 O      32.06700000      28.10900000      39.10400000
 H      32.91400000      28.50300000      39.43600000
 H      31.65500000      27.85300000      39.92500000
 O      28.94300000      39.79500000      34.10900000
 H      28.86300000      40.25900000      34.94600000
 H      29.78800000      40.27100000      33.81200000
 O      27.19400000      26.39100000      27.39600000
 H      28.05200000      26.49000000      26.99100000
 H      26.90200000      27.36100000      27.52900000
 O      36.56900000      16.27600000      27.53000000
 H      36.59600000      15.32900000      27.43300000
 H      35.92700000      16.58600000      26.87700000
 O      29.93300000      10.61000000      35.82400000
 H      28.99800000      10.39200000      35.95800000
 H      30.16000000       9.86000000      35.21800000
 O      31.56800000      31.22000000      35.81000000
 H      32.27600000      30.92300000      36.46900000
 H      31.58500000      32.18000000      36.03500000
 O      34.42200000      27.20400000      26.26500000
 H      34.68800000      26.34900000      26.72400000
 H      33.63700000      26.91900000      25.76300000
 O      28.47300000      31.93600000      31.29000000
 H      29.31200000      31.85300000      31.87100000
 H      27.98100000      31.17900000      31.69600000
 O      34.45800000       8.49100000      22.18400000
 H      34.50300000       9.36900000      22.59300000
 H      34.16400000       8.83000000      21.29100000
 O      34.28200000      20.76900000      33.40700000
 H      33.68500000      21.05000000      32.69200000
 H      34.42800000      21.56400000      33.94100000
 O      31.08300000      24.41600000      32.69000000
 H      30.88400000      24.85500000      33.60000000
 H      32.06300000      24.40800000      32.84900000
 O      30.07400000      39.03400000      26.79800000
 H      30.92100000      39.45000000      26.63100000
 H      29.51700000      39.61700000      26.22900000
 O      37.43200000      15.88200000      34.90400000
 H      37.44200000      16.03700000      35.87000000
 H      38.36300000      15.61500000      34.77600000
 O      28.47800000      29.93700000      29.40800000
 H      29.43300000      30.07900000      29.23600000
 H      28.24100000      30.74400000      29.89000000
 O      37.34500000      37.26600000      32.61300000
 H      37.26100000      37.37900000      33.57000000
 H      36.59900000      36.65300000      32.42400000
 O      30.60000000      13.21900000      27.15700000
 H      30.59700000      12.67900000      26.35800000
 H      30.24000000      12.59200000      27.78000000
 O      33.42400000       8.74100000      31.28200000
 H      34.08600000       9.37900000      30.91600000
 H      32.73500000       9.37000000      31.53300000
 O      39.84400000      10.63700000      28.57700000
 H      40.14200000      11.23900000      27.79000000
 H      38.90900000      10.65800000      28.35900000
 O      27.66500000      31.90100000      35.52000000
 H      28.15200000      32.78000000      35.71400000
 H      27.03000000      32.28800000      34.89000000
 O      35.56300000      34.87300000      31.66600000
 H      35.08300000      35.00600000      30.84000000
 H      34.84300000      34.44700000      32.19100000
 O      33.70000000       2.54800000      32.20300000
 H      34.22400000       1.75400000      32.39100000
 H      34.07100000       3.16200000      32.86500000
 O      40.27200000      29.26700000      32.62300000
 H      40.50300000      28.31800000      32.62900000
 H      40.86200000      29.56200000      33.40800000
 O      29.83700000      20.87500000      30.73300000
 H      28.90700000      20.74700000      30.59600000
 H      30.14200000      21.24300000      29.90600000
 O      30.34400000      31.23900000      23.06100000
 H      30.81700000      32.09500000      23.15400000
 H      29.68200000      31.47000000      22.37000000
 O      29.12500000      12.55000000      37.63200000
 H      29.24300000      12.03100000      38.41600000
 H      29.57700000      11.99500000      36.99300000
 O      34.86100000      18.43100000      39.23200000
 H      34.03500000      18.19400000      39.64700000
 H      35.45700000      18.18900000      39.98500000
 O      32.58000000      23.33200000      35.02100000
 H      33.01400000      22.88200000      35.73300000
 H      31.70200000      22.96400000      35.03200000
 O      33.06300000      32.41700000      26.30400000
 H      32.89700000      32.96200000      27.09900000
 H      34.06200000      32.33500000      26.44300000
 O      28.88400000      23.18800000      31.99900000
 H      29.31300000      22.29000000      31.90900000
 H      29.69900000      23.70700000      32.12600000
 O      34.27000000      18.95000000      35.21800000
 H      34.51800000      19.58900000      34.49400000
 H      33.76700000      18.28000000      34.75800000
 O      38.65700000       8.84600000      24.40100000
 H      38.48200000       8.90300000      23.43500000
 H      38.14700000       8.09200000      24.66700000
 O      37.43700000      28.65300000      28.53700000
 H      37.35700000      28.63800000      29.50100000
 H      36.49200000      28.81300000      28.28000000
 O      32.46600000      38.38000000      29.30900000
 H      32.56600000      38.92700000      28.48500000
 H      31.61100000      38.69800000      29.60600000
 O      40.23700000       4.25600000      39.37000000
 H      40.85600000       3.96500000      40.07900000
 H      39.39700000       3.91600000      39.76900000
 O      33.74000000      40.60000000      27.70000000
 H      34.69500000      40.44100000      27.91400000
 H      33.45200000      41.18100000      28.42500000
 O      40.50900000      22.03400000      24.12600000
 H      40.06800000      22.84000000      23.79100000
 H      39.97700000      21.34700000      23.85200000
 O      34.88400000       5.25600000      29.86200000
 H      34.73300000       5.75800000      29.01200000
 H      35.35600000       4.52700000      29.42500000
 O      34.23500000      16.83300000      25.80900000
 H      34.01900000      16.80800000      24.86300000
 H      33.55100000      16.30900000      26.20100000
 O      37.20300000       8.92800000      39.11400000
 H      37.89100000       9.46000000      38.62200000
 H      37.81200000       8.17900000      39.29200000
 O      28.75100000      32.79700000      39.93200000
 H      27.85200000      33.11500000      40.25800000
 H      28.87200000      31.95400000      40.28200000
 O      34.25900000       7.70700000      25.03100000
 H      34.17700000       6.76400000      24.67900000
 H      34.64800000       8.08100000      24.20400000
 O      27.72800000       9.35600000      36.66700000
 H      26.94500000       9.41700000      36.05500000
 H      27.24900000       9.07500000      37.47500000
 O      33.68300000      19.73500000      26.94000000
 H      33.49100000      19.53600000      27.90800000
 H      33.22400000      18.99900000      26.54900000
 O      37.04900000      24.52500000      21.40400000
 H      37.22100000      23.91000000      22.11300000
 H      36.69400000      25.29100000      21.92700000
 O      32.84800000       6.44600000      21.13900000
 H      33.45800000       6.95600000      21.59800000
 H      32.08000000       7.06500000      20.98600000
 O      31.46500000      18.96300000      35.10500000
 H      32.28500000      19.43200000      35.13300000
 H      31.85400000      18.06200000      34.98700000
 O      28.51400000      20.46900000      35.85100000
 H      29.40400000      20.24200000      36.25700000
 H      28.33700000      19.64600000      35.39200000
 O      32.11900000      20.98500000      25.10600000
 H      32.73500000      20.74600000      25.77800000
 H      31.59800000      21.67300000      25.48200000
 O      28.97100000       9.06300000      40.25200000
 H      28.68500000       8.47700000      39.56000000
 H      29.66200000       9.57700000      39.89500000
 O      37.63500000      25.85200000      39.87600000
 H      37.45700000      26.74800000      39.45800000
 H      38.34300000      26.06500000      40.53200000
 O      31.54500000      14.60900000      20.62400000
 H      30.96100000      14.90400000      21.42700000
 H      31.95600000      15.53000000      20.52000000
 O      29.04200000      32.47500000      21.11300000
 H      28.25400000      32.21500000      20.59100000
 H      29.56000000      32.93900000      20.41800000
 O      30.70900000       3.14700000      27.28100000
 H      31.38600000       2.86200000      26.56000000
 H      31.20200000       3.91800000      27.54100000
 O      35.15700000      10.82300000      30.95300000
 H      35.38800000      11.42900000      31.69700000
 H      35.68400000      11.19700000      30.20900000
