552
XYZ file of cluster: frame_12000_9bcd9.72a52.74236 - created by MolEdiTo
 O      32.98800000      21.61000000      31.20100000
 H      33.82000000      21.78000000      30.75500000
 H      32.42300000      22.34400000      30.78000000
 O      35.77400000      28.06500000      33.28700000
 H      35.51200000      27.18100000      33.02400000
 H      35.03800000      28.60000000      32.88800000
 O      33.99100000      35.57800000      29.81000000
 H      33.60200000      36.39100000      29.49100000
 H      33.44200000      34.92900000      29.32900000
 O      31.32400000      33.72300000      37.12600000
 H      30.64700000      34.15500000      37.73600000
 H      31.49800000      32.94900000      37.71100000
 O      36.38800000      28.61900000      23.40900000
 H      36.25700000      27.76600000      22.99900000
 H      35.52900000      28.99900000      23.49500000
 O      30.26800000      35.08600000      39.42800000
 H      29.63900000      34.30100000      39.59000000
 H      29.56000000      35.80000000      39.62500000
 O      37.55700000      40.40800000      25.60600000
 H      38.03300000      39.92600000      24.89900000
 H      38.21000000      41.08100000      25.87000000
 O      38.87300000      33.10100000      24.12800000
 H      39.60900000      32.47700000      23.88500000
 H      38.14500000      32.55300000      23.81700000
 O      31.25600000      23.48800000      26.21100000
 H      31.36700000      24.23200000      26.83400000
 H      30.67500000      23.86800000      25.53500000
 O      28.87400000      20.23300000      26.13100000
 H      28.15700000      19.60100000      25.99200000
 H      28.70000000      20.92100000      25.38500000
 O      31.20900000      36.60100000      26.78800000
 H      32.03000000      37.13800000      26.54000000
 H      30.58800000      37.32800000      26.82600000
 O      29.82100000      23.43500000      40.60800000
 H      29.91600000      23.83300000      41.54700000
 H      29.31200000      24.10700000      40.19100000
 O      32.46000000      32.59000000      31.05200000
 H      31.76000000      32.26600000      31.65900000
 H      32.97600000      33.21700000      31.60000000
 O      31.41000000      21.65600000      39.03200000
 H      31.17500000      22.63800000      39.05200000
 H      31.38700000      21.52200000      40.01800000
 O      38.64700000      21.47300000      28.49000000
 H      39.59900000      21.69100000      28.47200000
 H      38.22800000      22.32700000      28.14400000
 O      36.34400000      25.20000000      28.88100000
 H      35.85100000      25.61600000      29.64500000
 H      37.20100000      25.15100000      29.28300000
 O      35.27600000      28.46000000      20.33300000
 H      35.13400000      28.85200000      21.17100000
 H      35.80200000      29.13100000      19.82600000
 O      29.84500000      35.07800000      29.51000000
 H      28.85800000      34.97200000      29.38800000
 H      29.98000000      36.01500000      29.43800000
 O      29.77100000      38.83700000      30.34600000
 H      28.82300000      38.93300000      30.48400000
 H      29.91600000      39.76400000      29.94900000
 O      29.81800000      27.02800000      30.51900000
 H      29.52500000      27.01200000      31.42700000
 H      29.14200000      27.56900000      30.08900000
 O      31.41000000      33.97400000      34.32400000
 H      31.22400000      34.94300000      34.22700000
 H      30.96400000      33.81900000      35.17800000
 O      34.52500000      25.96500000      32.04900000
 H      33.98000000      25.91000000      32.86200000
 H      33.87400000      26.25700000      31.41800000
 O      39.07100000      24.39900000      23.68400000
 H      39.87100000      24.99600000      23.73300000
 H      38.36900000      24.97900000      24.02900000
 O      35.48600000      26.16200000      22.90300000
 H      34.76300000      26.11200000      23.52700000
 H      35.07600000      25.88800000      22.05700000
 O      33.85300000      30.43000000      37.19200000
 H      33.69600000      30.56000000      38.16300000
 H      34.79500000      30.77300000      37.11900000
 O      32.06200000      33.72100000      28.32400000
 H      31.59700000      34.42900000      27.77600000
 H      31.51800000      33.71800000      29.11800000
 O      40.55500000      32.17700000      36.79100000
 H      39.74100000      32.46900000      37.20400000
 H      41.11100000      32.05300000      37.61100000
 O      32.79900000      38.70500000      37.55100000
 H      32.97300000      37.80900000      37.18300000
 H      32.64700000      39.17500000      36.69200000
 O      40.46600000      23.38100000      29.32700000
 H      41.38400000      23.84900000      29.29600000
 H      39.94500000      24.14000000      29.70100000
 O      28.14800000      37.70800000      28.15900000
 H      27.84400000      38.34900000      28.81600000
 H      29.01700000      38.08000000      27.97100000
 O      37.80800000      33.55200000      31.72100000
 H      37.09200000      34.15200000      31.51100000
 H      37.55800000      32.72700000      31.23300000
 O      37.33000000      31.21500000      22.73000000
 H      37.88900000      31.15500000      21.94000000
 H      37.19700000      30.30700000      23.00700000
 O      31.11000000      31.06200000      28.88700000
 H      31.39600000      31.80500000      29.40100000
 H      30.67700000      31.53500000      28.15100000
 O      32.66200000      26.57400000      24.36100000
 H      32.09800000      27.27100000      23.90300000
 H      31.89200000      25.92200000      24.45400000
 O      29.35300000      35.22000000      32.20600000
 H      29.60300000      35.32900000      31.25200000
 H      30.05800000      34.60600000      32.56700000
 O      36.13300000      33.97200000      28.73800000
 H      35.44800000      34.51000000      29.24800000
 H      35.62400000      33.12400000      28.76500000
 O      37.88700000      28.65800000      31.32500000
 H      37.34400000      28.57400000      32.11000000
 H      38.76500000      28.83800000      31.64800000
 O      33.59200000      35.39100000      36.91000000
 H      34.10600000      34.79400000      36.32500000
 H      32.73100000      34.90400000      36.89900000
 O      37.48500000      20.63700000      26.03800000
 H      37.15900000      21.46000000      26.39400000
 H      38.05800000      20.31200000      26.77300000
 O      34.31000000      37.81100000      32.71500000
 H      33.45400000      38.21400000      32.32900000
 H      34.52700000      37.12800000      32.12900000
 O      30.69200000      31.77600000      32.84900000
 H      31.08900000      30.92700000      33.18500000
 H      30.85200000      32.32600000      33.64400000
 O      27.50300000      38.79200000      21.62700000
 H      28.05400000      38.04200000      21.81000000
 H      26.61100000      38.48400000      21.77700000
 O      28.47100000      34.12300000      25.39500000
 H      28.43600000      34.36100000      24.46300000
 H      27.89300000      34.78000000      25.82500000
 O      39.25900000      29.71700000      26.35500000
 H      38.62900000      30.36800000      26.75500000
 H      39.13100000      28.94100000      26.95600000
 O      33.35000000      26.17700000      34.54600000
 H      33.44200000      26.64600000      35.39500000
 H      32.98200000      25.33300000      34.78200000
 O      33.02600000      34.44700000      39.65100000
 H      33.20600000      34.99900000      38.88700000
 H      32.05500000      34.65700000      39.76400000
 O      38.04600000      34.54400000      21.44800000
 H      37.99900000      34.18000000      22.33300000
 H      37.35200000      35.24500000      21.55000000
 O      38.37200000      34.48000000      34.36400000
 H      39.05100000      35.16400000      34.48500000
 H      38.37600000      34.29700000      33.41800000
 O      38.50400000      21.03600000      31.86000000
 H      37.95600000      21.84900000      31.98800000
 H      38.01200000      20.46300000      32.45200000
 O      40.62100000      39.28000000      36.00000000
 H      40.72000000      39.49400000      36.98800000
 H      39.88300000      39.93000000      35.78600000
 O      26.92300000      22.77400000      20.69600000
 H      26.51400000      21.98300000      20.54400000
 H      27.87400000      22.48900000      20.85100000
 O      33.46700000      22.60800000      37.49000000
 H      33.96700000      21.78800000      37.37300000
 H      32.79700000      22.38100000      38.18300000
 O      37.98600000      38.37600000      38.77400000
 H      37.28100000      37.76500000      38.51300000
 H      37.56500000      39.20900000      38.71500000
 O      40.55700000      35.91200000      21.04200000
 H      41.08600000      35.24700000      21.50400000
 H      39.66000000      35.53600000      21.29700000
 O      33.13300000      32.21900000      23.60800000
 H      33.02000000      32.34800000      24.59400000
 H      33.55900000      33.04800000      23.40100000
 O      35.45300000      22.01900000      30.21700000
 H      35.98600000      21.33900000      29.82900000
 H      36.09500000      22.62400000      30.61700000
 O      34.98700000      40.51200000      24.63700000
 H      34.92800000      41.42300000      24.78100000
 H      35.89300000      40.29800000      25.07900000
 O      35.18100000      39.76600000      21.77300000
 H      35.15600000      39.90800000      22.74200000
 H      35.76200000      40.52500000      21.51200000
 O      40.63500000      39.19600000      22.10100000
 H      39.99100000      38.75600000      22.72600000
 H      41.09700000      38.34200000      21.83300000
 O      29.89500000      25.42200000      35.22100000
 H      30.06100000      25.78100000      36.13600000
 H      29.57300000      24.52600000      35.47000000
 O      31.11200000      29.22900000      33.68600000
 H      30.31000000      28.83600000      34.03500000
 H      31.58100000      29.54000000      34.49500000
 O      32.06700000      28.10900000      39.10400000
 H      32.91400000      28.50300000      39.43600000
 H      31.65500000      27.85300000      39.92500000
 O      31.15000000      34.73400000      24.09100000
 H      30.75600000      34.84400000      24.98500000
 H      30.36200000      35.00800000      23.54900000
 O      39.69400000      35.60100000      24.42500000
 H      39.36300000      34.63700000      24.36100000
 H      40.59800000      35.53500000      24.17900000
 O      40.28900000      32.02800000      33.61200000
 H      39.71900000      31.41200000      33.15100000
 H      39.66400000      32.40600000      34.25900000
 O      28.94300000      39.79500000      34.10900000
 H      28.86300000      40.25900000      34.94600000
 H      29.78800000      40.27100000      33.81200000
 O      39.61700000      40.43200000      29.65300000
 H      40.30500000      39.82000000      29.25100000
 H      39.43500000      39.83800000      30.44000000
 O      32.53900000      36.90000000      20.98200000
 H      33.00400000      36.82200000      21.84900000
 H      33.30600000      36.65000000      20.38600000
 O      38.45100000      38.49700000      23.42300000
 H      38.31200000      37.65400000      23.81400000
 H      37.71900000      38.48700000      22.75100000
 O      27.19400000      26.39100000      27.39600000
 H      28.05200000      26.49000000      26.99100000
 H      26.90200000      27.36100000      27.52900000
 O      28.38500000      30.51400000      24.71800000
 H      29.27000000      30.71800000      24.31000000
 H      28.42000000      30.98500000      25.52000000
 O      33.27100000      36.65800000      23.40400000
 H      32.45300000      36.14100000      23.56600000
 H      33.23500000      37.27600000      24.16200000
 O      31.43700000      31.66700000      38.95900000
 H      31.03700000      30.84100000      39.29100000
 H      32.33700000      31.47700000      39.34400000
 O      32.52300000      26.39100000      30.36800000
 H      31.58200000      26.42100000      30.61700000
 H      32.55700000      27.25900000      29.91500000
 O      31.56800000      31.22000000      35.81000000
 H      32.27600000      30.92300000      36.46900000
 H      31.58500000      32.18000000      36.03500000
 O      34.42200000      27.20400000      26.26500000
 H      34.68800000      26.34900000      26.72400000
 H      33.63700000      26.91900000      25.76300000
 O      29.34700000      29.67200000      35.98100000
 H      30.26800000      30.07000000      35.95600000
 H      28.84300000      30.51200000      35.73500000
 O      35.27900000      40.38600000      32.52800000
 H      35.65400000      40.50000000      33.40600000
 H      35.01400000      39.43400000      32.60400000
 O      29.44700000      28.11200000      20.70100000
 H      30.15800000      28.76400000      20.36900000
 H      28.72700000      28.81000000      20.88100000
 O      28.47300000      31.93600000      31.29000000
 H      29.31200000      31.85300000      31.87100000
 H      27.98100000      31.17900000      31.69600000
 O      34.28200000      20.76900000      33.40700000
 H      33.68500000      21.05000000      32.69200000
 H      34.42800000      21.56400000      33.94100000
 O      29.39900000      32.05500000      26.96800000
 H      28.56600000      31.80400000      27.45400000
 H      29.03100000      32.94100000      26.59700000
 O      31.08300000      24.41600000      32.69000000
 H      30.88400000      24.85500000      33.60000000
 H      32.06300000      24.40800000      32.84900000
 O      37.28200000      25.72000000      25.36400000
 H      36.81700000      26.52400000      25.14100000
 H      37.69000000      25.91000000      26.22600000
 O      37.16600000      23.58800000      31.70400000
 H      36.98900000      24.00800000      32.58200000
 H      37.72000000      24.30300000      31.34400000
 O      30.07400000      39.03400000      26.79800000
 H      30.92100000      39.45000000      26.63100000
 H      29.51700000      39.61700000      26.22900000
 O      28.62200000      21.16300000      23.36900000
 H      28.88000000      20.26600000      23.09200000
 H      29.13600000      21.70000000      22.76200000
 O      33.77100000      30.50000000      39.82900000
 H      34.65500000      30.28000000      39.91700000
 H      33.38000000      30.31400000      40.73600000
 O      34.31200000      31.97900000      28.93300000
 H      33.34900000      32.01100000      29.12700000
 H      34.38600000      31.09400000      28.57700000
 O      29.30200000      27.50300000      26.16500000
 H      28.68300000      27.57500000      25.45200000
 H      29.98500000      28.19300000      25.97500000
 O      36.14600000      34.86100000      24.06400000
 H      36.08700000      35.50100000      24.75400000
 H      35.58900000      35.19400000      23.32900000
 O      28.59600000      25.80000000      39.19200000
 H      28.00300000      25.96300000      38.44700000
 H      29.47800000      25.93100000      38.71700000
 O      31.03000000      29.57900000      26.14100000
 H      30.47000000      30.24000000      26.57800000
 H      31.72400000      30.10200000      25.75000000
 O      27.75100000      23.57000000      29.63700000
 H      28.54200000      23.31300000      29.08700000
 H      28.11900000      23.46100000      30.47900000
 O      38.94300000      26.69500000      27.31600000
 H      38.26200000      27.21000000      27.76300000
 H      39.61500000      26.58300000      28.02900000
 O      36.95900000      30.73800000      39.02000000
 H      36.68200000      30.00700000      39.60800000
 H      37.28600000      31.38600000      39.77000000
 O      33.77400000      33.58900000      33.13300000
 H      32.88800000      33.56800000      33.59500000
 H      34.33000000      33.69300000      33.95700000
 O      36.50100000      36.22800000      26.84500000
 H      37.42800000      36.43100000      27.06100000
 H      36.36100000      35.47800000      27.44400000
 O      36.55900000      31.36500000      30.31100000
 H      35.77100000      31.93300000      30.23200000
 H      36.46400000      30.93300000      31.15200000
 O      34.01200000      29.70700000      23.09300000
 H      33.65500000      30.64900000      23.22100000
 H      33.20500000      29.25500000      22.77400000
 O      38.59400000      25.98200000      30.41900000
 H      39.47500000      26.38400000      30.29100000
 H      38.23100000      26.59400000      31.09700000
 O      29.25900000      29.26900000      38.94600000
 H      28.39400000      29.66200000      38.57900000
 H      29.70100000      29.13900000      38.06200000
 O      28.47800000      29.93700000      29.40800000
 H      29.43300000      30.07900000      29.23600000
 H      28.24100000      30.74400000      29.89000000
 O      37.34500000      37.26600000      32.61300000
 H      37.26100000      37.37900000      33.57000000
 H      36.59900000      36.65300000      32.42400000
 O      37.00500000      23.24400000      27.10800000
 H      36.41000000      23.75000000      27.67000000
 H      37.13200000      23.81000000      26.29500000
 O      27.66500000      31.90100000      35.52000000
 H      28.15200000      32.78000000      35.71400000
 H      27.03000000      32.28800000      34.89000000
 O      38.28100000      32.19000000      28.29400000
 H      37.64100000      32.89200000      28.02900000
 H      37.75500000      31.66400000      28.90900000
 O      35.56300000      34.87300000      31.66600000
 H      35.08300000      35.00600000      30.84000000
 H      34.84300000      34.44700000      32.19100000
 O      39.38400000      38.80500000      32.08900000
 H      39.09900000      39.61600000      32.45600000
 H      38.57100000      38.24600000      32.06100000
 O      35.40100000      32.53800000      20.99400000
 H      36.00500000      32.20800000      20.25100000
 H      35.93700000      32.41000000      21.74000000
 O      36.38700000      37.30700000      21.41600000
 H      36.56900000      37.31600000      20.47300000
 H      35.85800000      38.13600000      21.52600000
 O      27.97500000      37.10800000      34.03500000
 H      28.73500000      36.71100000      33.50500000
 H      28.31500000      37.96500000      34.30200000
 O      36.43600000      31.92900000      36.77200000
 H      36.55900000      31.40500000      37.65800000
 H      37.02400000      32.64500000      37.00700000
 O      35.45200000      22.22300000      22.61400000
 H      35.31000000      22.92900000      23.30800000
 H      35.50600000      21.47000000      23.32800000
 O      40.27200000      29.26700000      32.62300000
 H      40.50300000      28.31800000      32.62900000
 H      40.86200000      29.56200000      33.40800000
 O      39.09300000      28.15900000      23.85900000
 H      39.34600000      28.70100000      24.67300000
 H      38.09400000      28.37300000      23.98700000
 O      29.83700000      20.87500000      30.73300000
 H      28.90700000      20.74700000      30.59600000
 H      30.14200000      21.24300000      29.90600000
 O      33.76100000      22.98300000      40.39000000
 H      34.70400000      23.15200000      40.61300000
 H      33.71400000      23.64600000      39.63700000
 O      30.34400000      31.23900000      23.06100000
 H      30.81700000      32.09500000      23.15400000
 H      29.68200000      31.47000000      22.37000000
 O      31.13100000      28.41800000      22.90600000
 H      30.95300000      29.33200000      23.21600000
 H      30.56300000      28.36100000      22.13500000
 O      31.53100000      39.39700000      21.24600000
 H      30.70800000      39.42200000      20.72500000
 H      31.69900000      38.41100000      21.30100000
 O      40.34600000      37.09200000      34.57200000
 H      40.46300000      37.93800000      35.05100000
 H      40.12300000      37.45400000      33.66300000
 O      31.67800000      24.55200000      21.67700000
 H      32.62000000      24.24300000      21.87000000
 H      31.83500000      25.37400000      21.23700000
 O      34.17300000      38.43100000      39.91600000
 H      34.07100000      38.67800000      38.98800000
 H      33.26600000      38.43700000      40.23500000
 O      35.57000000      21.72400000      20.07600000
 H      35.60600000      21.90500000      21.09700000
 H      35.84300000      22.62600000      19.79300000
 O      32.58000000      23.33200000      35.02100000
 H      33.01400000      22.88200000      35.73300000
 H      31.70200000      22.96400000      35.03200000
 O      38.42100000      23.83100000      37.82000000
 H      37.86100000      24.32000000      38.45000000
 H      37.92800000      23.89700000      36.97500000
 O      33.06300000      32.41700000      26.30400000
 H      32.89700000      32.96200000      27.09900000
 H      34.06200000      32.33500000      26.44300000
 O      36.17900000      40.38900000      28.21900000
 H      36.83000000      40.06400000      28.86400000
 H      36.53000000      40.22600000      27.36900000
 O      28.88400000      23.18800000      31.99900000
 H      29.31300000      22.29000000      31.90900000
 H      29.69900000      23.70700000      32.12600000
 O      29.70200000      22.26600000      28.12300000
 H      30.35000000      22.58800000      27.44100000
 H      29.31200000      21.49700000      27.63700000
 O      37.61600000      30.94800000      34.27400000
 H      37.17600000      31.36100000      35.02600000
 H      36.97800000      31.01900000      33.54700000
 O      37.43700000      28.65300000      28.53700000
 H      37.35700000      28.63800000      29.50100000
 H      36.49200000      28.81300000      28.28000000
 O      32.46600000      38.38000000      29.30900000
 H      32.56600000      38.92700000      28.48500000
 H      31.61100000      38.69800000      29.60600000
 O      31.44900000      38.52500000      32.79700000
 H      31.28800000      39.41600000      33.18500000
 H      30.88700000      38.52100000      32.00300000
 O      34.07900000      23.59500000      24.59100000
 H      34.17300000      24.16000000      25.40400000
 H      33.47100000      22.91800000      24.95200000
 O      35.53800000      38.19300000      35.30200000
 H      35.01800000      38.10600000      34.42700000
 H      35.67900000      39.17900000      35.30100000
 O      27.21000000      27.59000000      35.38400000
 H      26.73000000      27.50600000      36.18100000
 H      27.76400000      28.35200000      35.49300000
 O      35.08500000      29.56700000      27.04400000
 H      34.87800000      28.68900000      26.67700000
 H      34.90500000      30.17600000      26.38400000
 O      38.28300000      33.80400000      36.99600000
 H      38.43200000      33.77400000      36.04400000
 H      38.67600000      34.63300000      37.26600000
 O      39.74500000      25.19400000      34.99800000
 H      38.75700000      24.97200000      34.74800000
 H      40.15900000      24.41800000      34.51500000
 O      28.89700000      34.73600000      22.74700000
 H      28.59300000      33.80500000      22.64400000
 H      29.13100000      34.91800000      21.80100000
 O      33.74000000      40.60000000      27.70000000
 H      34.69500000      40.44100000      27.91400000
 H      33.45200000      41.18100000      28.42500000
 O      32.92000000      31.56400000      20.73500000
 H      33.77600000      32.07400000      20.73200000
 H      32.61600000      31.53300000      21.65600000
 O      39.49500000      36.88100000      26.93600000
 H      39.52800000      37.10800000      25.99800000
 H      39.95600000      36.00000000      26.91600000
 O      40.50900000      22.03400000      24.12600000
 H      40.06800000      22.84000000      23.79100000
 H      39.97700000      21.34700000      23.85200000
 O      33.34600000      38.17600000      26.03000000
 H      33.79000000      39.05300000      26.09000000
 H      33.91900000      37.63800000      26.51600000
 O      31.03000000      25.65100000      37.84300000
 H      31.90800000      25.10400000      37.78000000
 H      31.37900000      26.47400000      38.22500000
 O      33.85300000      27.49200000      36.80000000
 H      33.42300000      27.59800000      37.66600000
 H      34.16700000      28.42000000      36.66400000
 O      28.39500000      26.51700000      33.17600000
 H      27.83100000      26.95900000      33.83800000
 H      28.98400000      25.99600000      33.76200000
 O      35.78100000      32.33500000      25.87700000
 H      36.67700000      31.95200000      25.97000000
 H      36.03700000      33.19300000      25.46800000
 O      32.57600000      40.36400000      35.56100000
 H      33.41700000      40.88200000      35.70500000
 H      32.19500000      40.83600000      34.85200000
 O      30.49800000      24.90000000      24.14600000
 H      30.85600000      24.74700000      23.26800000
 H      29.60100000      25.31300000      23.88600000
 O      28.12900000      25.69200000      23.34100000
 H      27.80800000      26.63900000      23.37500000
 H      27.24000000      25.28800000      23.18700000
 O      34.92600000      31.01000000      32.62800000
 H      34.28700000      31.76900000      32.71300000
 H      34.32300000      30.33000000      32.29900000
 O      28.75100000      32.79700000      39.93200000
 H      27.85200000      33.11500000      40.25800000
 H      28.87200000      31.95400000      40.28200000
 O      40.25400000      20.92100000      34.81200000
 H      39.64400000      20.13300000      34.78300000
 H      40.09600000      21.26100000      35.70600000
 O      40.03500000      21.82400000      37.30800000
 H      39.54500000      22.64500000      37.48100000
 H      39.94000000      21.32500000      38.18000000
 O      29.60900000      22.33400000      21.15500000
 H      30.29300000      22.98000000      21.39600000
 H      30.13300000      21.72500000      20.57600000
 O      39.81600000      36.65200000      37.59900000
 H      39.97200000      37.07500000      36.70400000
 H      39.25400000      37.37500000      37.95300000
 O      36.77600000      39.05000000      30.53000000
 H      36.23200000      39.47000000      31.19400000
 H      37.00200000      38.23700000      30.91600000
 O      32.92800000      29.18200000      31.71800000
 H      32.18600000      29.15900000      32.31000000
 H      32.66800000      28.60900000      31.00000000
 O      32.09500000      28.58200000      28.89300000
 H      31.61000000      29.46200000      28.95000000
 H      32.59600000      28.84000000      28.07600000
 O      36.77300000      21.62100000      35.52500000
 H      37.10400000      20.74400000      35.25200000
 H      36.23900000      21.37300000      36.27200000
 O      30.72500000      36.89800000      35.09300000
 H      30.38300000      37.30400000      35.88100000
 H      31.08900000      37.62600000      34.57400000
 O      29.83300000      38.53000000      36.89300000
 H      30.15100000      39.15000000      37.60400000
 H      28.87900000      38.54900000      37.19300000
 O      37.04900000      24.52500000      21.40400000
 H      37.22100000      23.91000000      22.11300000
 H      36.69400000      25.29100000      21.92700000
 O      37.58600000      28.14400000      37.88000000
 H      37.75500000      28.16700000      36.86900000
 H      37.70800000      29.08000000      38.10500000
 O      32.11900000      20.98500000      25.10600000
 H      32.73500000      20.74600000      25.77800000
 H      31.59800000      21.67300000      25.48200000
 O      34.25000000      25.24800000      38.69200000
 H      34.77700000      25.22300000      37.86800000
 H      34.77200000      25.88000000      39.19500000
 O      36.06800000      25.70100000      36.62000000
 H      35.31400000      26.32100000      36.51500000
 H      36.76900000      26.29500000      36.94800000
 O      37.63500000      25.85200000      39.87600000
 H      37.45700000      26.74800000      39.45800000
 H      38.34300000      26.06500000      40.53200000
 O      29.72700000      40.55600000      39.01600000
 H      29.09800000      41.16900000      39.50200000
 H      30.33000000      40.38400000      39.74000000
 O      30.84000000      25.68700000      27.79600000
 H      30.97100000      26.13900000      26.93600000
 H      30.60400000      26.43700000      28.32900000
 O      28.63700000      34.50100000      35.45100000
 H      29.43900000      35.05700000      35.51400000
 H      27.99300000      35.26100000      35.26000000
 O      34.12900000      24.59700000      27.40800000
 H      33.34500000      24.12600000      27.85200000
 H      34.64900000      24.67500000      28.22300000
 O      36.16100000      36.93800000      37.64700000
 H      35.98500000      37.56600000      36.88000000
 H      35.25500000      36.54400000      37.65300000
 O      29.04200000      32.47500000      21.11300000
 H      28.25400000      32.21500000      20.59100000
 H      29.56000000      32.93900000      20.41800000
 O      37.65300000      28.49700000      35.29600000
 H      37.83900000      29.41500000      34.90600000
 H      36.94600000      28.25600000      34.65800000
 O      29.76100000      22.62500000      34.75300000
 H      29.31500000      21.85600000      35.12900000
 H      29.33700000      22.72000000      33.88000000
 O      35.11400000      33.66600000      35.30100000
 H      35.90200000      33.90800000      34.79600000
 H      35.42100000      32.87100000      35.78400000
 O      37.33700000      24.25300000      34.53000000
 H      37.04400000      23.31400000      34.79000000
 H      36.73400000      24.72400000      35.13300000
 O      32.04600000      23.73700000      29.71600000
 H      32.35600000      24.64900000      29.92800000
 H      31.08600000      23.88200000      29.60100000
 O      40.47400000      34.03300000      31.64000000
 H      39.52800000      33.94900000      31.41000000
 H      40.55900000      33.31900000      32.31000000
