342
XYZ file of cluster: frame_12000_c3f19.75c1c.a047c - created by MolEdiTo
 O      37.88700000      28.65800000      31.32500000
 H      37.34400000      28.57400000      32.11000000
 H      38.76500000      28.83800000      31.64800000
 O      38.94300000      26.69500000      27.31600000
 H      38.26200000      27.21000000      27.76300000
 H      39.61500000      26.58300000      28.02900000
 O      36.95900000      30.73800000      39.02000000
 H      36.68200000      30.00700000      39.60800000
 H      37.28600000      31.38600000      39.77000000
 O      35.77400000      28.06500000      33.28700000
 H      35.51200000      27.18100000      33.02400000
 H      35.03800000      28.60000000      32.88800000
 O      36.55900000      31.36500000      30.31100000
 H      35.77100000      31.93300000      30.23200000
 H      36.46400000      30.93300000      31.15200000
 O      36.13300000      33.97200000      28.73800000
 H      35.44800000      34.51000000      29.24800000
 H      35.62400000      33.12400000      28.76500000
 O      38.37200000      34.48000000      34.36400000
 H      39.05100000      35.16400000      34.48500000
 H      38.37600000      34.29700000      33.41800000
 O      34.92600000      31.01000000      32.62800000
 H      34.28700000      31.76900000      32.71300000
 H      34.32300000      30.33000000      32.29900000
 O      38.59400000      25.98200000      30.41900000
 H      39.47500000      26.38400000      30.29100000
 H      38.23100000      26.59400000      31.09700000
 O      38.50400000      21.03600000      31.86000000
 H      37.95600000      21.84900000      31.98800000
 H      38.01200000      20.46300000      32.45200000
 O      40.62100000      39.28000000      36.00000000
 H      40.72000000      39.49400000      36.98800000
 H      39.88300000      39.93000000      35.78600000
 O      37.34500000      37.26600000      32.61300000
 H      37.26100000      37.37900000      33.57000000
 H      36.59900000      36.65300000      32.42400000
 O      40.25400000      20.92100000      34.81200000
 H      39.64400000      20.13300000      34.78300000
 H      40.09600000      21.26100000      35.70600000
 O      40.03500000      21.82400000      37.30800000
 H      39.54500000      22.64500000      37.48100000
 H      39.94000000      21.32500000      38.18000000
 O      37.98600000      38.37600000      38.77400000
 H      37.28100000      37.76500000      38.51300000
 H      37.56500000      39.20900000      38.71500000
 O      35.45300000      22.01900000      30.21700000
 H      35.98600000      21.33900000      29.82900000
 H      36.09500000      22.62400000      30.61700000
 O      39.81600000      36.65200000      37.59900000
 H      39.97200000      37.07500000      36.70400000
 H      39.25400000      37.37500000      37.95300000
 O      36.77600000      39.05000000      30.53000000
 H      36.23200000      39.47000000      31.19400000
 H      37.00200000      38.23700000      30.91600000
 O      38.28100000      32.19000000      28.29400000
 H      37.64100000      32.89200000      28.02900000
 H      37.75500000      31.66400000      28.90900000
 O      35.56300000      34.87300000      31.66600000
 H      35.08300000      35.00600000      30.84000000
 H      34.84300000      34.44700000      32.19100000
 O      39.38400000      38.80500000      32.08900000
 H      39.09900000      39.61600000      32.45600000
 H      38.57100000      38.24600000      32.06100000
 O      36.77300000      21.62100000      35.52500000
 H      37.10400000      20.74400000      35.25200000
 H      36.23900000      21.37300000      36.27200000
 O      40.47400000      34.03300000      31.64000000
 H      39.52800000      33.94900000      31.41000000
 H      40.55900000      33.31900000      32.31000000
 O      36.43600000      31.92900000      36.77200000
 H      36.55900000      31.40500000      37.65800000
 H      37.02400000      32.64500000      37.00700000
 O      38.64700000      21.47300000      28.49000000
 H      39.59900000      21.69100000      28.47200000
 H      38.22800000      22.32700000      28.14400000
 O      36.34400000      25.20000000      28.88100000
 H      35.85100000      25.61600000      29.64500000
 H      37.20100000      25.15100000      29.28300000
 O      40.27200000      29.26700000      32.62300000
 H      40.50300000      28.31800000      32.62900000
 H      40.86200000      29.56200000      33.40800000
 O      40.28900000      32.02800000      33.61200000
 H      39.71900000      31.41200000      33.15100000
 H      39.66400000      32.40600000      34.25900000
 O      39.61700000      40.43200000      29.65300000
 H      40.30500000      39.82000000      29.25100000
 H      39.43500000      39.83800000      30.44000000
 O      33.76100000      22.98300000      40.39000000
 H      34.70400000      23.15200000      40.61300000
 H      33.71400000      23.64600000      39.63700000
 O      40.34600000      37.09200000      34.57200000
 H      40.46300000      37.93800000      35.05100000
 H      40.12300000      37.45400000      33.66300000
 O      37.58600000      28.14400000      37.88000000
 H      37.75500000      28.16700000      36.86900000
 H      37.70800000      29.08000000      38.10500000
 O      34.25000000      25.24800000      38.69200000
 H      34.77700000      25.22300000      37.86800000
 H      34.77200000      25.88000000      39.19500000
 O      36.06800000      25.70100000      36.62000000
 H      35.31400000      26.32100000      36.51500000
 H      36.76900000      26.29500000      36.94800000
 O      38.42100000      23.83100000      37.82000000
 H      37.86100000      24.32000000      38.45000000
 H      37.92800000      23.89700000      36.97500000
 O      37.63500000      25.85200000      39.87600000
 H      37.45700000      26.74800000      39.45800000
 H      38.34300000      26.06500000      40.53200000
 O      36.17900000      40.38900000      28.21900000
 H      36.83000000      40.06400000      28.86400000
 H      36.53000000      40.22600000      27.36900000
 O      33.85300000      30.43000000      37.19200000
 H      33.69600000      30.56000000      38.16300000
 H      34.79500000      30.77300000      37.11900000
 O      35.27900000      40.38600000      32.52800000
 H      35.65400000      40.50000000      33.40600000
 H      35.01400000      39.43400000      32.60400000
 O      37.61600000      30.94800000      34.27400000
 H      37.17600000      31.36100000      35.02600000
 H      36.97800000      31.01900000      33.54700000
 O      40.55500000      32.17700000      36.79100000
 H      39.74100000      32.46900000      37.20400000
 H      41.11100000      32.05300000      37.61100000
 O      40.46600000      23.38100000      29.32700000
 H      41.38400000      23.84900000      29.29600000
 H      39.94500000      24.14000000      29.70100000
 O      36.16100000      36.93800000      37.64700000
 H      35.98500000      37.56600000      36.88000000
 H      35.25500000      36.54400000      37.65300000
 O      37.80800000      33.55200000      31.72100000
 H      37.09200000      34.15200000      31.51100000
 H      37.55800000      32.72700000      31.23300000
 O      37.43700000      28.65300000      28.53700000
 H      37.35700000      28.63800000      29.50100000
 H      36.49200000      28.81300000      28.28000000
 O      34.12900000      24.59700000      27.40800000
 H      33.34500000      24.12600000      27.85200000
 H      34.64900000      24.67500000      28.22300000
 O      37.65300000      28.49700000      35.29600000
 H      37.83900000      29.41500000      34.90600000
 H      36.94600000      28.25600000      34.65800000
 O      33.74000000      40.60000000      27.70000000
 H      34.69500000      40.44100000      27.91400000
 H      33.45200000      41.18100000      28.42500000
 O      35.53800000      38.19300000      35.30200000
 H      35.01800000      38.10600000      34.42700000
 H      35.67900000      39.17900000      35.30100000
 O      35.11400000      33.66600000      35.30100000
 H      35.90200000      33.90800000      34.79600000
 H      35.42100000      32.87100000      35.78400000
 O      37.33700000      24.25300000      34.53000000
 H      37.04400000      23.31400000      34.79000000
 H      36.73400000      24.72400000      35.13300000
 O      37.16600000      23.58800000      31.70400000
 H      36.98900000      24.00800000      32.58200000
 H      37.72000000      24.30300000      31.34400000
 O      38.28300000      33.80400000      36.99600000
 H      38.43200000      33.77400000      36.04400000
 H      38.67600000      34.63300000      37.26600000
 O      33.77100000      30.50000000      39.82900000
 H      34.65500000      30.28000000      39.91700000
 H      33.38000000      30.31400000      40.73600000
 O      39.74500000      25.19400000      34.99800000
 H      38.75700000      24.97200000      34.74800000
 H      40.15900000      24.41800000      34.51500000
 O      48.88300000      33.65500000      38.20500000
 H      48.35400000      34.46400000      38.16400000
 H      49.65400000      33.96200000      37.61500000
 O      45.50400000      34.78300000      32.39200000
 H      44.77700000      35.22600000      31.90600000
 H      46.03500000      34.47100000      31.60400000
 O      42.60600000      27.96800000      40.67100000
 H      42.08200000      28.69600000      41.16900000
 H      43.49200000      28.10100000      41.10600000
 O      42.74500000      40.27000000      38.40000000
 H      42.30900000      41.01900000      38.85100000
 H      43.58600000      40.72000000      38.08600000
 O      46.20500000      28.76400000      34.05000000
 H      45.25600000      29.02700000      34.14700000
 H      46.63200000      29.16800000      34.84200000
 O      45.22000000      38.05600000      35.77100000
 H      44.88000000      37.17900000      35.95800000
 H      44.43200000      38.59400000      35.89400000
 O      43.08500000      25.53900000      39.42800000
 H      42.76400000      25.78400000      38.55400000
 H      42.98900000      26.46300000      39.84500000
 O      46.49400000      22.25500000      36.02300000
 H      46.13600000      23.18100000      36.13000000
 H      46.25900000      21.88700000      36.87300000
 O      48.00400000      24.26100000      38.84800000
 H      48.51700000      23.90800000      38.09700000
 H      47.71000000      23.44800000      39.29000000
 O      44.67500000      24.60000000      29.00200000
 H      45.47600000      24.78500000      29.48300000
 H      44.41800000      25.44100000      28.58700000
 O      45.62000000      40.47900000      30.83900000
 H      45.29500000      39.65000000      31.27300000
 H      44.99600000      41.13700000      31.14100000
 O      45.06400000      22.14000000      27.87100000
 H      44.88100000      23.05200000      28.17000000
 H      45.53700000      21.80800000      28.71100000
 O      45.10900000      20.51800000      34.22600000
 H      45.64300000      21.22300000      34.63600000
 H      44.26800000      20.61600000      34.60700000
 O      47.78700000      40.73600000      29.57900000
 H      47.00000000      40.72400000      30.23200000
 H      47.45000000      40.06600000      28.96100000
 O      43.47300000      31.76500000      39.13900000
 H      42.89900000      31.86000000      39.98100000
 H      44.31800000      31.73400000      39.58300000
 O      48.21500000      23.03800000      33.98400000
 H      47.76000000      23.20600000      33.13100000
 H      47.43200000      22.77200000      34.55700000
 O      45.52300000      27.75300000      30.88000000
 H      46.17500000      28.43700000      31.22000000
 H      46.07100000      27.19600000      30.28500000
 O      42.57400000      23.29300000      33.65300000
 H      42.63500000      23.08300000      32.68300000
 H      42.30300000      22.37200000      33.94400000
 O      46.88600000      30.98600000      35.46600000
 H      47.25900000      31.72100000      34.95200000
 H      46.58000000      31.47200000      36.22700000
 O      46.43000000      35.56800000      38.33000000
 H      46.51700000      36.51800000      38.11700000
 H      45.90200000      35.23400000      37.62600000
 O      47.21100000      26.01000000      34.18000000
 H      48.13000000      26.37200000      33.89000000
 H      46.72300000      26.87500000      34.23300000
 O      42.96100000      26.68900000      36.71500000
 H      42.96400000      27.60000000      36.30600000
 H      42.37900000      26.22300000      36.09600000
 O      46.32800000      26.24100000      39.15300000
 H      46.97000000      25.47500000      39.23200000
 H      45.52300000      25.87700000      39.60500000
 O      47.83100000      38.81800000      27.70800000
 H      47.95900000      37.87400000      27.79800000
 H      48.67200000      39.10000000      27.36200000
 O      48.66500000      27.01800000      28.94900000
 H      48.07500000      26.42700000      29.47800000
 H      48.63800000      26.53400000      28.10200000
 O      43.50800000      35.89000000      30.43100000
 H      43.58500000      35.40000000      29.58300000
 H      42.83200000      35.33100000      30.86100000
 O      43.09900000      30.08400000      30.23800000
 H      42.87200000      30.00200000      31.20800000
 H      42.48100000      29.49400000      29.85000000
 O      46.95000000      22.08800000      40.63900000
 H      46.08200000      22.51700000      40.47900000
 H      46.90800000      21.98200000      41.60800000
 O      44.70100000      29.50200000      37.42000000
 H      44.16000000      29.86200000      38.17700000
 H      45.08800000      28.70700000      37.90000000
 O      43.86700000      34.62000000      37.00100000
 H      42.89400000      34.68300000      36.95100000
 H      44.04500000      34.14700000      36.15700000
 O      42.67900000      27.03700000      29.34600000
 H      43.26000000      27.39900000      30.01900000
 H      43.29800000      27.02900000      28.55600000
 O      49.14500000      29.79500000      36.53300000
 H      48.89100000      28.88900000      36.68700000
 H      48.29900000      30.22900000      36.32700000
 O      47.95900000      35.24700000      33.49200000
 H      47.91700000      35.03700000      32.50900000
 H      46.96100000      35.21600000      33.63900000
 O      44.35400000      34.66300000      27.86800000
 H      43.86000000      33.79600000      27.94400000
 H      45.27600000      34.22500000      27.91800000
 O      44.78300000      21.38500000      38.08800000
 H      44.06100000      21.43900000      37.39900000
 H      44.36700000      21.76000000      38.83900000
 O      48.02400000      39.92800000      37.12700000
 H      48.72300000      39.28600000      37.01800000
 H      47.31000000      39.37500000      37.52300000
 O      42.69100000      21.57100000      31.08900000
 H      41.76000000      21.32600000      31.37700000
 H      42.50900000      22.23100000      30.41400000
 O      45.58200000      24.66300000      36.16600000
 H      46.25100000      25.27600000      35.83100000
 H      44.90700000      25.29700000      36.47200000
 O      46.01600000      38.84400000      38.54300000
 H      46.09500000      39.37500000      39.39100000
 H      45.01400000      38.95000000      38.53200000
 O      45.05200000      39.94300000      27.70400000
 H      45.78100000      39.32800000      27.97700000
 H      44.30700000      39.44000000      28.07300000
 O      43.32900000      35.90800000      39.43200000
 H      44.10500000      35.60600000      38.89300000
 H      42.59600000      35.91300000      38.71300000
 O      46.03500000      32.25300000      27.52000000
 H      45.97800000      32.09200000      28.48700000
 H      46.92800000      31.82500000      27.34100000
 O      44.79200000      33.16500000      34.48600000
 H      45.13000000      33.64400000      33.73400000
 H      43.89800000      32.84000000      34.22700000
 O      42.54800000      32.26900000      28.22800000
 H      42.73800000      31.68500000      28.98400000
 H      41.56100000      32.18800000      28.23700000
 O      45.81900000      21.97300000      30.26200000
 H      46.19500000      21.10400000      30.74000000
 H      44.97500000      21.94200000      30.79900000
 O      46.74900000      32.45000000      39.32200000
 H      46.27200000      33.28500000      39.10600000
 H      47.59900000      32.65300000      38.91100000
 O      48.48800000      27.42100000      37.06700000
 H      47.76500000      27.13400000      37.68100000
 H      48.79100000      26.57900000      36.65700000
 O      43.49500000      38.55200000      31.96800000
 H      43.48300000      37.73600000      31.39000000
 H      42.51500000      38.64500000      32.15900000
 O      42.77800000      38.46400000      28.76500000
 H      42.40200000      37.70100000      28.24600000
 H      43.46400000      37.86300000      29.27900000
 O      47.21600000      25.10900000      30.11300000
 H      47.88900000      24.33200000      29.98300000
 H      46.91300000      24.92000000      31.03100000
 O      46.03500000      31.16200000      30.35200000
 H      46.52200000      30.56100000      30.97100000
 H      45.20600000      30.69500000      30.26700000
 O      47.52500000      29.35600000      31.85200000
 H      47.25000000      29.21300000      32.74200000
 H      48.49800000      29.24000000      31.95100000
 O      47.28500000      33.40500000      30.77200000
 H      46.99900000      32.50700000      30.50800000
 H      48.03200000      33.41100000      30.05100000
 O      44.42900000      23.24500000      40.40000000
 H      44.37900000      23.50300000      41.35200000
 H      44.15800000      24.04300000      39.92800000
 O      48.06900000      39.07300000      32.03700000
 H      47.86800000      39.81400000      31.41800000
 H      47.51700000      39.23500000      32.80100000
 O      46.33800000      39.99100000      34.18300000
 H      45.81000000      39.34600000      34.65700000
 H      45.69100000      40.66800000      33.97600000
 O      42.37400000      26.74300000      32.84000000
 H      42.16700000      26.34000000      33.69600000
 H      43.15700000      26.32900000      32.56000000
 O      45.54300000      24.36300000      32.59200000
 H      44.86600000      23.93200000      33.18100000
 H      46.06500000      24.79500000      33.32500000
 O      43.30100000      29.66200000      34.88300000
 H      42.65400000      30.39500000      35.03900000
 H      43.91100000      29.80000000      35.67000000
