573
XYZ file of cluster: frame_3000_c32eb.26b79.c5328 - created by MolEdiTo
 O      35.61100000      34.61800000      37.15900000
 H      36.20500000      35.26100000      37.57600000
 H      34.87200000      34.52600000      37.75700000
 O      36.87200000      15.36200000      37.55800000
 H      36.63600000      14.68100000      36.85300000
 H      36.95300000      16.11500000      36.94000000
 O      37.09700000      26.76500000      38.53700000
 H      37.91900000      26.71200000      39.08200000
 H      37.07400000      25.81300000      38.23800000
 O      40.55700000      17.78000000      36.77500000
 H      40.03600000      17.37000000      37.50900000
 H      41.43300000      17.43900000      36.98700000
 O      35.78400000      25.74000000      35.24600000
 H      35.29200000      25.85100000      34.38400000
 H      35.17800000      25.06000000      35.67700000
 O      34.76200000      21.27700000      35.22400000
 H      33.92100000      20.95000000      35.61900000
 H      35.41400000      21.13300000      35.94600000
 O      37.95400000      19.45700000      39.13900000
 H      37.39900000      18.96800000      39.82000000
 H      38.55200000      18.66600000      38.92500000
 O      38.42700000      40.52800000      40.29900000
 H      38.03200000      41.37200000      39.88200000
 H      38.55700000      40.87800000      41.22600000
 O      36.93800000      36.03300000      39.15400000
 H      36.99700000      35.94100000      40.13700000
 H      37.49100000      36.80900000      39.01500000
 O      39.63200000      23.64600000      38.48800000
 H      38.71100000      23.96600000      38.49000000
 H      39.90500000      23.88700000      37.58900000
 O      35.42800000      11.13100000      35.77400000
 H      36.05200000      11.86900000      35.56000000
 H      34.62100000      11.53400000      35.41500000
 O      38.22000000      15.90600000      34.67300000
 H      39.10000000      15.88800000      34.21300000
 H      38.11500000      16.89800000      34.69200000
 O      35.91100000       7.55800000      40.11700000
 H      35.13600000       7.00500000      40.16400000
 H      35.98900000       7.71800000      39.18300000
 O      40.45200000      24.76400000      35.70800000
 H      40.93200000      24.77600000      34.85200000
 H      39.77000000      25.40600000      35.61100000
 O      39.12300000      34.57200000      37.72400000
 H      39.67300000      33.78900000      37.98900000
 H      38.53800000      34.70900000      38.46800000
 O      37.86400000      12.85300000      39.86200000
 H      38.30700000      12.07300000      40.33600000
 H      38.62400000      13.43000000      39.83700000
 O      36.72800000       7.16300000      35.03100000
 H      36.58200000       7.19300000      34.11800000
 H      37.58300000       6.69500000      35.10700000
 O      38.42400000      38.17300000      38.92400000
 H      39.30500000      37.82700000      39.12000000
 H      38.53900000      39.09700000      39.22700000
 O      39.06900000      10.93600000      34.48000000
 H      39.08400000      11.81200000      34.96400000
 H      38.30300000      11.10100000      33.90500000
 O      38.86400000      16.91100000      38.48400000
 H      38.19800000      16.32800000      38.08000000
 H      39.23100000      16.29700000      39.14200000
 O      36.86000000      30.01400000      35.41400000
 H      36.56800000      30.44300000      34.55700000
 H      36.21900000      30.40100000      36.05900000
 O      40.00300000      13.46400000      36.30200000
 H      40.36700000      13.64400000      37.20100000
 H      40.79000000      13.25500000      35.84500000
 O      34.81100000      27.56800000      40.53000000
 H      35.07300000      28.46200000      40.81500000
 H      35.73300000      27.21200000      40.27100000
 O      35.76300000       7.92900000      37.29300000
 H      36.20500000       7.79600000      36.39900000
 H      34.90300000       8.19500000      36.99800000
 O      39.67000000      30.41600000      36.06400000
 H      38.80600000      30.30300000      35.69700000
 H      40.23800000      30.11700000      35.33800000
 O      36.96900000      31.55200000      39.39900000
 H      37.59800000      30.84800000      39.04300000
 H      36.63800000      31.96100000      38.59100000
 O      40.72600000       9.54400000      36.54000000
 H      40.45000000       8.63800000      36.23200000
 H      40.27400000      10.10100000      35.86000000
 O      38.96800000      26.07700000      40.45300000
 H      38.87000000      25.78800000      41.42400000
 H      39.78700000      25.58200000      40.25400000
 O      40.36300000      37.25200000      36.92600000
 H      40.04800000      36.34600000      37.05000000
 H      39.82500000      37.46200000      36.11700000
 O      38.35800000      26.91200000      35.30200000
 H      37.43100000      26.53500000      35.31200000
 H      38.04200000      27.84000000      35.33300000
 O      37.34400000      13.22000000      35.52600000
 H      38.25200000      13.45900000      35.85500000
 H      37.18000000      14.09100000      35.02700000
 O      40.30300000       8.42200000      39.76500000
 H      39.84700000       7.60500000      39.43800000
 H      40.29800000       9.01300000      39.02400000
 O      39.94000000      28.89900000      40.46700000
 H      39.49600000      28.02400000      40.52300000
 H      39.43100000      29.22500000      39.68100000
 O      35.13700000      31.41700000      37.26000000
 H      34.52900000      31.18500000      37.99600000
 H      34.82900000      32.25800000      36.98000000
 O      38.92700000      33.10800000      34.96000000
 H      38.48300000      33.62300000      35.65900000
 H      39.15700000      32.33100000      35.45100000
 O      34.97700000      27.57900000      37.00000000
 H      35.17800000      26.88500000      36.32300000
 H      35.70000000      27.38800000      37.62400000
 O      34.20900000      19.41600000      39.76700000
 H      33.32500000      18.91100000      39.86500000
 H      34.82800000      18.71400000      39.99100000
 O      35.61500000      10.95700000      38.79800000
 H      36.30400000      11.67600000      38.96500000
 H      35.74000000      10.76500000      37.91100000
 O      39.59200000      14.88700000      40.35800000
 H      39.50500000      14.85000000      41.31700000
 H      40.30600000      14.29100000      40.13100000
 O      35.15100000      34.75200000      34.55900000
 H      35.37900000      34.62600000      35.50000000
 H      34.77900000      35.64400000      34.59600000
 O      35.38200000      17.89600000      36.52000000
 H      34.58600000      17.44700000      36.94300000
 H      34.92400000      18.42700000      35.83600000
 O      35.81000000      14.78200000      39.88900000
 H      36.09400000      14.87900000      38.95200000
 H      36.40000000      14.05000000      40.14900000
 O      38.48800000      29.39000000      38.18700000
 H      38.99400000      29.67600000      37.44600000
 H      37.69000000      28.96700000      37.77900000
 O      37.06700000      37.88400000      35.57100000
 H      37.33200000      37.52100000      36.42500000
 H      36.09200000      37.69100000      35.56300000
 O      38.75500000      19.15300000      35.08400000
 H      38.30200000      19.53800000      35.84300000
 H      39.38900000      18.52200000      35.47600000
 O      36.29800000      17.71000000      40.42800000
 H      36.06600000      16.79400000      40.05300000
 H      36.76600000      17.36400000      41.24900000
 O      36.14300000      23.36300000      40.20700000
 H      35.41400000      22.83000000      40.43800000
 H      36.87600000      23.04300000      40.78500000
 O      36.77400000      24.26600000      37.84700000
 H      35.88600000      24.10800000      37.52500000
 H      36.69600000      23.84100000      38.74900000
 O      36.85700000      20.34600000      36.77700000
 H      37.25500000      20.49100000      37.67500000
 H      36.34000000      19.55700000      36.95300000
 O      39.76300000      21.38700000      39.93100000
 H      39.71300000      22.30000000      39.54600000
 H      39.14300000      20.83300000      39.44300000
 O      34.10600000      22.57400000      45.17600000
 H      34.90400000      21.96200000      45.39300000
 H      34.09700000      22.39500000      44.21700000
 O      40.02200000      16.39300000      47.28700000
 H      40.06900000      16.99800000      48.07900000
 H      40.68100000      15.76000000      47.53800000
 O      40.11000000      37.31200000      43.60300000
 H      40.66500000      36.54500000      43.69000000
 H      40.59900000      37.87100000      42.98400000
 O      39.80600000       9.70200000      44.89100000
 H      39.63100000       9.32200000      45.76500000
 H      40.13900000       8.91000000      44.44800000
 O      36.05000000      27.62600000      47.00100000
 H      35.86300000      27.79300000      47.96300000
 H      35.94800000      26.65800000      46.97000000
 O      35.75000000      15.80700000      47.46200000
 H      36.51100000      16.38200000      47.43600000
 H      35.17900000      16.21900000      48.15100000
 O      37.06800000      21.36400000      47.94100000
 H      37.11900000      21.22100000      48.87800000
 H      38.00500000      21.59800000      47.71100000
 O      40.35500000      12.04800000      46.54900000
 H      40.43600000      12.70400000      45.82200000
 H      40.30900000      11.20000000      46.10000000
 O      37.38600000      17.17700000      44.29900000
 H      37.27400000      16.19200000      44.51300000
 H      38.12900000      17.38500000      44.88600000
 O      39.62800000      21.56900000      47.07800000
 H      40.07300000      22.21400000      47.71900000
 H      40.42400000      21.30400000      46.54000000
 O      40.51200000      26.98500000      45.35800000
 H      40.78900000      26.66100000      46.25700000
 H      40.49800000      26.11700000      44.82300000
 O      39.77700000      35.24800000      48.90200000
 H      40.52700000      35.78400000      48.56900000
 H      39.09000000      35.51500000      48.24300000
 O      37.97300000      33.29800000      42.85100000
 H      37.58200000      33.04000000      43.68600000
 H      37.55000000      32.69800000      42.19700000
 O      39.38900000       8.34300000      47.42800000
 H      40.21000000       7.86200000      47.68400000
 H      38.85100000       8.25000000      48.19600000
 O      39.59400000      24.59300000      43.98600000
 H      38.97000000      23.86800000      43.80300000
 H      40.38600000      24.03000000      43.98500000
 O      36.74900000      14.22800000      45.15000000
 H      36.53400000      14.62900000      46.00400000
 H      35.90100000      13.70000000      45.02200000
 O      40.32000000      29.54900000      44.87100000
 H      40.52800000      28.60700000      45.11200000
 H      40.17700000      29.46400000      43.94000000
 O      40.07900000      34.54000000      45.82500000
 H      40.20200000      35.10800000      46.59000000
 H      40.71700000      34.96900000      45.21300000
 O      35.22000000      39.33000000      42.31400000
 H      35.12900000      40.32200000      42.38100000
 H      36.11900000      39.16600000      42.66700000
 O      39.12600000      19.21800000      43.39000000
 H      39.69300000      18.62600000      42.82900000
 H      39.15300000      20.00000000      42.80400000
 O      36.44100000      11.40500000      44.28000000
 H      36.74200000      10.54800000      43.91300000
 H      37.20400000      11.95000000      44.06400000
 O      38.08500000      12.89100000      47.73100000
 H      38.98800000      12.77600000      47.31100000
 H      38.33000000      12.86600000      48.69400000
 O      35.38700000      30.03600000      45.85800000
 H      34.47500000      29.65100000      45.84600000
 H      35.77600000      29.28200000      46.35700000
 O      35.82300000      11.16000000      46.98700000
 H      35.97800000      10.99300000      46.01900000
 H      36.20600000      12.03500000      47.11200000
 O      37.27900000       8.94900000      43.40900000
 H      38.01000000       9.22800000      42.82800000
 H      36.84800000       8.32400000      42.76500000
 O      38.11100000      36.18300000      46.94600000
 H      38.37300000      37.12800000      46.84400000
 H      37.15500000      36.21900000      46.75200000
 O      38.59500000      19.18900000      45.90600000
 H      38.95400000      19.17200000      44.97800000
 H      38.94400000      20.05300000      46.17500000
 O      36.11000000      24.98300000      47.06300000
 H      36.30900000      25.06700000      46.12300000
 H      37.00100000      24.84400000      47.42800000
 O      34.97700000      18.31700000      45.02400000
 H      34.31900000      17.65000000      44.74900000
 H      35.78200000      17.96400000      44.54000000
 O      36.19200000      20.90900000      45.34300000
 H      36.10900000      19.99700000      44.91000000
 H      36.91400000      20.68900000      45.96400000
 O      37.36800000      36.08100000      43.34400000
 H      37.91600000      35.27000000      43.39500000
 H      38.00600000      36.77400000      43.17600000
 O      34.69400000      35.56900000      44.15400000
 H      34.67700000      35.38200000      45.12800000
 H      35.66200000      35.72800000      44.03900000
 O      39.15100000      38.45000000      46.05500000
 H      39.48100000      38.11800000      45.19400000
 H      39.81900000      39.13900000      46.30500000
 O      36.75300000       7.60400000      45.63700000
 H      37.55200000       7.60200000      46.22100000
 H      37.13100000       8.15000000      44.90300000
 O      39.38600000      14.13700000      45.13000000
 H      38.43800000      14.13800000      45.18700000
 H      39.62500000      14.95400000      45.70500000
 O      37.50300000      17.94300000      48.21200000
 H      37.28100000      18.85100000      48.46900000
 H      38.08900000      18.15400000      47.47300000
 O      34.10600000       7.96200000      45.06200000
 H      33.51200000       7.65900000      45.78100000
 H      35.00000000       7.84600000      45.43100000
 O      35.11500000      30.31800000      42.86300000
 H      34.32200000      30.79900000      43.21800000
 H      35.47900000      31.05500000      42.31900000
 O      35.43800000      37.53100000      46.76500000
 H      34.69200000      37.90200000      46.26500000
 H      35.69600000      38.26400000      47.33300000
 O      38.54000000      32.75200000      47.07100000
 H      37.78700000      32.82700000      46.36500000
 H      39.12600000      33.46900000      46.66300000
 O      40.54100000      32.27000000      43.13400000
 H      39.63100000      32.61900000      42.99300000
 H      40.38700000      31.30600000      43.20200000
 O      36.95600000       9.74400000      48.98400000
 H      36.65900000      10.21400000      48.12500000
 H      37.32100000      10.53600000      49.40400000
 O      36.49700000      32.47900000      45.37300000
 H      36.06700000      31.59600000      45.47700000
 H      35.77500000      33.05400000      45.69500000
 O      38.70300000      27.68800000      48.59900000
 H      38.81400000      28.52100000      48.10800000
 H      38.05700000      28.02100000      49.29400000
 O      38.82100000      30.14800000      47.40300000
 H      39.48800000      29.94200000      46.82900000
 H      38.63900000      31.10100000      47.36500000
 O      36.80500000      28.32900000      43.96200000
 H      36.96900000      28.85200000      44.80200000
 H      36.26400000      29.03100000      43.49600000
 O      36.51100000      25.57100000      44.42500000
 H      36.70100000      26.56500000      44.18300000
 H      36.75500000      25.13300000      43.59500000
 O      37.96600000      22.53500000      43.81500000
 H      38.59000000      21.84600000      44.05200000
 H      37.23800000      22.39600000      44.42600000
 O      39.14700000      11.44800000      43.11300000
 H      39.09900000      10.84200000      43.92400000
 H      40.12500000      11.60800000      43.18100000
 O      34.42700000      13.02600000      43.91100000
 H      33.92800000      12.72400000      43.11200000
 H      35.26000000      12.54100000      43.77900000
 O      44.53800000      22.40700000      39.66400000
 H      44.75000000      22.85200000      38.79500000
 H      44.14300000      21.55800000      39.36200000
 O      44.29100000      36.38800000      39.98200000
 H      45.28200000      36.24100000      40.17400000
 H      44.04500000      35.42900000      39.76800000
 O      46.60500000      11.73900000      36.69300000
 H      45.97700000      11.16100000      37.18400000
 H      47.44400000      11.37500000      36.92500000
 O      45.10800000      32.31800000      36.52900000
 H      45.65400000      31.50800000      36.42000000
 H      45.55400000      32.88200000      35.83300000
 O      43.57300000      19.99400000      39.08200000
 H      42.73200000      20.47500000      39.27200000
 H      43.42400000      19.14500000      39.48400000
 O      44.59600000      39.71900000      34.03500000
 H      45.39500000      39.77300000      33.45900000
 H      45.02400000      39.86500000      34.89700000
 O      45.18500000      16.86700000      37.63000000
 H      44.81000000      16.48900000      38.47400000
 H      45.60700000      16.04900000      37.25200000
 O      44.61600000      24.24200000      37.00100000
 H      44.90000000      23.75900000      36.21900000
 H      43.65500000      24.08500000      36.94800000
 O      49.45000000      29.81700000      38.55900000
 H      49.20600000      30.22600000      39.42400000
 H      48.58100000      29.31900000      38.41200000
 O      43.47800000      20.33200000      35.95000000
 H      44.24000000      19.76400000      36.22800000
 H      42.73500000      19.72900000      36.13700000
 O      45.84400000      18.86600000      35.90900000
 H      45.65900000      18.12500000      36.54600000
 H      46.80300000      19.00200000      36.04600000
 O      42.99300000      38.61200000      39.19500000
 H      42.69100000      38.12600000      38.41700000
 H      43.44100000      37.82700000      39.65900000
 O      47.07000000      14.20100000      40.16800000
 H      47.46000000      13.58500000      40.90100000
 H      47.38700000      13.59400000      39.41500000
 O      44.20100000      10.65500000      38.08500000
 H      43.47900000      10.28100000      37.54200000
 H      44.40300000       9.80100000      38.59200000
 O      43.77100000      28.01100000      34.45800000
 H      43.76200000      28.06800000      35.48700000
 H      44.67900000      27.60800000      34.36000000
 O      45.67400000      22.55400000      35.35500000
 H      46.17500000      22.00400000      34.67800000
 H      45.14500000      21.87400000      35.81400000
 O      48.02600000      23.92600000      36.96800000
 H      48.04100000      23.22300000      37.62600000
 H      47.45200000      23.50000000      36.27800000
 O      44.15600000      28.23900000      37.03600000
 H      44.04800000      29.04800000      37.59900000
 H      44.40700000      27.60900000      37.65000000
 O      44.52900000      15.88400000      40.27500000
 H      45.40800000      15.47600000      40.14300000
 H      44.00200000      15.30100000      39.66700000
 O      44.98300000       8.21000000      39.00200000
 H      45.85700000       7.79600000      38.89600000
 H      44.44700000       7.65300000      38.42300000
 O      46.87200000      39.95500000      36.10200000
 H      47.18900000      39.07600000      35.87200000
 H      47.76100000      40.45900000      35.98100000
 O      46.65300000      14.58100000      36.48800000
 H      47.22000000      14.75300000      35.65000000
 H      46.58300000      13.62400000      36.50900000
 O      48.05100000       7.66500000      37.61100000
 H      48.50600000       7.54300000      36.76800000
 H      48.69600000       7.11900000      38.20200000
 O      43.15000000      13.21300000      39.02800000
 H      43.48000000      12.84000000      39.91200000
 H      43.38500000      12.42500000      38.51100000
 O      46.97700000      30.13800000      36.07500000
 H      46.80100000      29.41800000      36.65900000
 H      47.63000000      29.81800000      35.48800000
 O      43.64400000      33.59600000      39.84600000
 H      43.13900000      33.05900000      40.46200000
 H      43.37000000      33.17300000      38.97800000
 O      48.04200000      37.29900000      36.30100000
 H      48.94600000      37.46400000      36.01900000
 H      47.73600000      36.63000000      35.60400000
 O      45.73400000       8.08900000      34.02500000
 H      46.31900000       8.78800000      34.24500000
 H      45.97600000       7.36200000      34.57300000
 O      47.24600000      33.40800000      34.71000000
 H      48.18300000      33.41800000      34.30000000
 H      47.05100000      34.38900000      34.65000000
 O      48.77500000      21.65800000      39.53600000
 H      49.51300000      21.04400000      39.36400000
 H      48.05000000      21.07900000      39.35800000
 O      44.94700000      40.29600000      39.96500000
 H      45.81600000      39.94900000      39.76700000
 H      44.38600000      39.68500000      39.42400000
 O      46.74100000      19.70600000      39.83800000
 H      47.16600000      18.82300000      39.70800000
 H      45.86600000      19.55800000      39.43400000
 O      47.53200000      33.41100000      38.12500000
 H      46.63200000      33.41200000      37.68500000
 H      47.44700000      32.76100000      38.80900000
 O      47.96400000      38.47600000      38.83800000
 H      47.82500000      37.68400000      39.40700000
 H      47.98300000      37.96000000      37.95500000
 O      44.00600000      12.16200000      35.51200000
 H      44.83900000      11.89200000      35.99600000
 H      44.40800000      12.24000000      34.62900000
 O      47.29600000      35.97300000      40.35100000
 H      47.77700000      35.46200000      41.08100000
 H      47.69300000      35.46700000      39.59000000
 O      45.93000000      31.38900000      39.74300000
 H      45.34300000      30.68000000      40.08500000
 H      45.49300000      32.16700000      39.94500000
 O      47.18200000      28.15300000      38.52100000
 H      47.89500000      27.53300000      38.27100000
 H      46.43500000      27.50600000      38.50500000
 O      42.58200000      32.59200000      37.51700000
 H      42.19200000      31.83400000      36.99000000
 H      43.52500000      32.46300000      37.22200000
 O      47.09800000      10.26300000      40.12700000
 H      46.37900000       9.60900000      40.06700000
 H      47.56400000      10.02800000      39.28300000
 O      48.06600000      17.53600000      39.27000000
 H      48.87800000      17.72900000      38.74000000
 H      47.56300000      17.02100000      38.63700000
 O      44.82900000      26.34200000      38.70100000
 H      44.75000000      25.44400000      38.26500000
 H      45.00400000      26.01300000      39.60300000
 O      47.89600000      36.54800000      46.16500000
 H      48.83900000      36.53800000      46.00100000
 H      47.86000000      36.06700000      47.02900000
 O      43.58800000      35.44000000      44.09100000
 H      44.20400000      35.16200000      43.41200000
 H      44.25000000      36.10700000      44.56900000
 O      47.11300000      23.23100000      42.34800000
 H      47.91400000      22.74200000      41.99100000
 H      46.40700000      22.57400000      42.11900000
 O      47.16900000       7.73700000      43.02800000
 H      47.35300000       8.13800000      43.92800000
 H      47.95200000       8.05800000      42.59400000
 O      47.79800000      16.89300000      43.87100000
 H      48.51200000      16.16000000      43.76900000
 H      47.79200000      17.09400000      42.87600000
 O      47.89700000      18.89600000      45.68400000
 H      47.79200000      18.04500000      45.26200000
 H      48.68900000      18.79100000      46.22600000
 O      48.36200000      12.09400000      47.66400000
 H      48.67700000      11.77000000      46.85400000
 H      48.80000000      11.51500000      48.29200000
 O      47.17800000      39.79300000      47.33400000
 H      46.39000000      39.74400000      46.71300000
 H      47.04900000      39.04100000      47.85100000
 O      43.34200000      20.81900000      45.34200000
 H      43.09700000      19.84900000      45.16400000
 H      44.00000000      20.68600000      46.06100000
 O      43.52500000      36.49400000      47.80400000
 H      44.04700000      36.56600000      46.96400000
 H      44.21200000      36.29200000      48.42900000
 O      43.97600000      32.89700000      47.93800000
 H      43.27400000      32.44200000      48.43400000
 H      43.84200000      32.46000000      47.04400000
 O      48.00200000      23.13200000      48.89700000
 H      48.72400000      23.05300000      48.22400000
 H      47.39200000      23.75800000      48.39500000
 O      43.59600000      22.85200000      43.56800000
 H      43.25200000      21.97000000      43.87300000
 H      44.04700000      22.65500000      42.74700000
 O      42.86600000       7.39200000      43.65500000
 H      42.43600000       7.60400000      42.77000000
 H      43.32300000       6.58700000      43.41100000
 O      43.22200000      11.38000000      49.17400000
 H      42.99200000      11.51600000      48.22400000
 H      44.03500000      12.00200000      49.23000000
 O      43.37100000      11.85800000      42.85400000
 H      43.73600000      10.92400000      43.06600000
 H      43.98400000      12.35800000      43.47500000
 O      43.42100000      17.66900000      44.94100000
 H      43.15100000      17.68900000      45.87900000
 H      44.23300000      17.04200000      45.02700000
 O      43.07100000      18.02700000      42.32900000
 H      43.42600000      17.14300000      42.13700000
 H      43.10300000      18.10300000      43.29000000
 O      45.36900000      12.71000000      47.94600000
 H      45.32700000      11.94600000      47.35000000
 H      46.29900000      12.69900000      48.19400000
 O      44.73200000      39.71600000      45.63000000
 H      44.31200000      40.36700000      45.06600000
 H      44.08300000      39.77900000      46.44800000
 O      45.70000000      22.93500000      45.36000000
 H      46.31600000      22.73500000      44.62400000
 H      44.86800000      22.61000000      44.90800000
 O      47.49200000      29.67100000      44.32600000
 H      46.85900000      29.14000000      43.79700000
 H      47.07200000      29.54300000      45.22200000
 O      48.28600000      34.64300000      43.84200000
 H      47.90600000      33.78600000      44.18400000
 H      48.25600000      35.12000000      44.68100000
 O      45.78400000      24.37200000      47.77400000
 H      45.42300000      25.26100000      47.70500000
 H      45.55600000      23.95600000      46.90700000
 O      49.12700000      20.84400000      44.16000000
 H      48.32600000      21.30500000      43.81700000
 H      48.68000000      20.11500000      44.67400000
 O      45.04000000      27.70000000      44.00500000
 H      45.09500000      27.37900000      44.96500000
 H      44.84600000      26.79500000      43.59100000
 O      44.68300000       9.38600000      43.52000000
 H      44.00600000       8.70800000      43.28000000
 H      45.49300000       8.77800000      43.49200000
 O      45.75500000      20.46400000      46.83600000
 H      45.86900000      21.26400000      46.29900000
 H      46.47500000      19.93800000      46.50500000
 O      45.35400000      12.65600000      44.49200000
 H      46.19500000      12.33800000      44.08100000
 H      45.09200000      11.92000000      45.06100000
 O      44.36800000      15.13400000      47.36900000
 H      44.67300000      15.22800000      46.45200000
 H      44.92300000      14.33600000      47.67600000
 O      49.16200000      25.09300000      46.16300000
 H      48.36800000      25.38600000      45.72700000
 H      49.68200000      25.89600000      46.35400000
 O      48.62600000      30.65200000      42.14700000
 H      47.78100000      30.87300000      41.70400000
 H      48.32500000      30.35000000      43.02600000
 O      43.36000000       6.88800000      48.28300000
 H      43.84000000       7.68400000      48.60000000
 H      42.67200000       6.75000000      49.03300000
 O      43.57800000      31.39500000      45.71300000
 H      43.55300000      32.09500000      45.04900000
 H      43.01400000      30.73700000      45.24600000
 O      47.52900000      32.42200000      45.33800000
 H      47.09500000      32.04200000      46.10700000
 H      47.72900000      31.50000000      44.95200000
 O      42.99500000      26.61100000      48.03200000
 H      42.34000000      27.26500000      48.34100000
 H      43.50000000      26.45600000      48.88800000
 O      45.28600000      10.35300000      46.55500000
 H      44.87600000       9.88000000      47.26300000
 H      45.87000000       9.73200000      46.12600000
 O      45.71300000      30.08500000      46.56900000
 H      44.89700000      30.54600000      46.33700000
 H      45.83100000      30.35500000      47.53900000
 O      45.39500000      27.21600000      46.55100000
 H      45.65900000      28.14100000      46.72400000
 H      44.68400000      27.08300000      47.24400000
 O      47.62600000       8.56000000      45.67100000
 H      48.46000000       9.00900000      45.73300000
 H      47.76100000       7.73000000      46.16500000
 O      45.89400000      17.39600000      48.22500000
 H      46.76600000      17.41300000      47.84800000
 H      45.45800000      16.74800000      47.69300000
 O      45.01800000      25.22100000      42.73900000
 H      44.39100000      24.51300000      42.84000000
 H      45.83100000      24.68000000      42.67700000
 O      42.98700000      39.46200000      47.45700000
 H      43.22400000      38.56800000      47.72200000
 H      42.92200000      39.92500000      48.32100000
 O      47.81600000      12.16600000      43.06500000
 H      47.78000000      11.32100000      42.54600000
 H      48.69200000      12.05700000      43.51400000
 O      46.46100000      20.57500000      43.92100000
 H      46.28200000      19.80900000      44.48300000
 H      46.48300000      20.28800000      42.99400000
 O      43.22800000      18.96000000      47.65000000
 H      44.04300000      18.88600000      48.25000000
 H      42.68300000      19.56700000      48.17200000
 O      45.10000000      37.03700000      45.52500000
 H      46.00300000      36.86600000      45.90200000
 H      45.20200000      38.00900000      45.31500000
 O      45.12700000      15.60000000      44.83300000
 H      45.72700000      16.02800000      44.23300000
 H      45.27800000      14.65100000      44.62200000
 O      44.04100000      29.82300000      42.79000000
 H      43.13800000      29.44900000      42.56600000
 H      44.37100000      29.02000000      43.32800000
