312
XYZ file of cluster: frame_3000_4c616.78126.fbf - created by MolEdiTo
 O      26.83400000      33.18800000       7.38100000
 H      25.93900000      32.74400000       7.28300000
 H      26.95400000      33.10000000       8.37300000
 O      15.48500000      31.50800000       7.02000000
 H      16.09700000      32.02400000       6.42500000
 H      14.73400000      31.48600000       6.38900000
 O      27.88100000      30.12200000       6.88100000
 H      27.01000000      30.34600000       7.23300000
 H      27.78200000      29.12800000       6.93900000
 O      22.65200000      25.32100000       3.41600000
 H      22.74900000      24.43900000       3.82000000
 H      21.74200000      25.56100000       3.74200000
 O      24.94900000      30.79900000      11.12900000
 H      24.41800000      30.30600000      10.48700000
 H      25.67600000      30.06800000      11.28900000
 O      20.78300000      24.53700000       9.12700000
 H      20.45500000      23.91200000       9.84100000
 H      21.38400000      25.09600000       9.63600000
 O      22.87900000      29.56600000       9.60900000
 H      22.13600000      29.19700000      10.15200000
 H      22.62800000      30.49300000       9.64100000
 O      27.21600000      24.95700000      13.49200000
 H      27.71500000      25.56600000      14.05200000
 H      27.40200000      24.11300000      13.93800000
 O      19.12200000      26.77400000      11.50400000
 H      19.66000000      26.21800000      10.85300000
 H      19.29400000      26.22400000      12.27500000
 O      20.30900000      21.23400000       6.52800000
 H      19.97100000      20.51100000       5.94300000
 H      19.72800000      21.21700000       7.28100000
 O      18.31200000      29.20300000       5.69700000
 H      18.76200000      28.61000000       6.33100000
 H      18.95800000      29.95400000       5.64500000
 O      26.68900000      25.39600000       5.96800000
 H      26.07400000      25.70200000       5.22100000
 H      27.08500000      26.26500000       6.16700000
 O      20.43900000      28.21300000      14.18200000
 H      19.91900000      27.76200000      14.88400000
 H      19.70400000      28.62100000      13.63900000
 O      24.28300000      31.85300000       7.22200000
 H      23.43900000      32.41000000       7.22800000
 H      23.93200000      31.01200000       6.92800000
 O      28.35100000      21.12400000       3.45100000
 H      27.68200000      21.83900000       3.45900000
 H      29.05900000      21.67700000       3.87000000
 O      20.59100000      26.89500000       4.23800000
 H      20.85600000      27.83500000       4.30900000
 H      19.76100000      26.91300000       4.78900000
 O      15.17200000      27.93800000       7.88700000
 H      15.25900000      27.20200000       7.29200000
 H      16.02600000      27.87300000       8.39300000
 O      24.87800000      26.58700000       4.35500000
 H      24.05100000      26.41900000       3.96100000
 H      25.07200000      27.48800000       4.01600000
 O      15.06500000      28.37600000      12.56300000
 H      14.53000000      29.00300000      13.09900000
 H      14.65200000      28.58800000      11.70800000
 O      24.06200000      21.28800000       3.27500000
 H      23.47800000      21.13600000       4.02400000
 H      24.70400000      20.55600000       3.38600000
 O      15.04900000      22.37600000       2.25600000
 H      14.80100000      22.92600000       2.97000000
 H      14.21300000      22.04800000       1.89600000
 O      21.96800000      32.92000000       4.10400000
 H      21.54900000      32.90800000       3.16200000
 H      22.74300000      33.44800000       3.93700000
 O      15.99100000      23.89300000       8.10900000
 H      15.66000000      23.11500000       7.75400000
 H      16.69600000      23.63100000       8.69500000
 O      20.27000000      23.30100000      11.44800000
 H      19.84700000      23.73100000      12.21800000
 H      21.18200000      23.16900000      11.80600000
 O      16.44300000      30.53800000       9.19300000
 H      16.75800000      29.68200000       8.85000000
 H      16.18200000      30.93300000       8.27500000
 O      21.13500000      33.07200000       1.57900000
 H      21.63200000      32.58500000       0.81000000
 H      21.45800000      33.98300000       1.32900000
 O      22.82800000      29.62000000       6.37500000
 H      22.63100000      28.80400000       6.86200000
 H      23.57600000      29.29000000       5.77900000
 O      27.31100000      20.78900000      10.93000000
 H      27.03400000      20.77500000       9.94500000
 H      28.08200000      21.37400000      10.81600000
 O      16.27000000      34.65700000       2.79500000
 H      17.06700000      34.18100000       3.17500000
 H      16.58900000      34.91000000       1.94000000
 O      16.33700000      20.43000000       4.11200000
 H      15.66100000      20.87000000       3.53800000
 H      17.00600000      21.13400000       4.11300000
 O      13.46000000      34.01700000       3.22300000
 H      13.04100000      34.86300000       3.05100000
 H      14.39800000      34.22200000       2.94900000
 O      24.44600000      24.15500000      12.80100000
 H      25.16900000      24.82900000      12.96000000
 H      25.02000000      23.36000000      12.79200000
 O      20.40800000      26.39800000       1.49700000
 H      19.53300000      26.17900000       1.23000000
 H      20.30400000      26.41500000       2.50100000
 O      20.16600000      28.84600000       8.01300000
 H      20.89600000      28.20900000       7.93500000
 H      20.65000000      29.70100000       7.92300000
 O      19.23500000      32.73300000      10.73800000
 H      18.48000000      33.42700000      10.61100000
 H      19.17200000      32.40400000       9.77200000
 O      22.09300000      27.04000000       7.38900000
 H      21.92200000      26.17200000       6.97200000
 H      23.03500000      26.85500000       7.64800000
 O      20.27600000      20.44300000      11.88000000
 H      20.50700000      21.41900000      11.72600000
 H      20.22200000      20.42800000      12.87200000
 O      16.23600000      28.20100000       4.13000000
 H      17.06700000      28.66000000       4.41900000
 H      16.32700000      27.39600000       4.66800000
 O      14.46900000      25.65500000       9.93100000
 H      15.06000000      26.12400000      10.51000000
 H      15.08300000      24.98200000       9.55300000
 O      22.61100000      34.28100000      13.98200000
 H      22.48500000      34.79800000      13.13000000
 H      22.12700000      33.46900000      13.65800000
 O      25.57700000      23.58800000       7.88600000
 H      25.82700000      24.19200000       7.16600000
 H      24.61300000      23.42000000       7.65800000
 O      25.53000000      31.49300000       0.82300000
 H      25.44800000      30.50600000       0.86700000
 H      26.40800000      31.54600000       0.26500000
 O      25.51100000      26.46500000      10.97400000
 H      26.26700000      25.92700000      11.28700000
 H      25.88300000      27.39000000      11.12800000
 O      17.92000000      25.44400000       0.88500000
 H      17.06100000      25.31400000       1.30100000
 H      17.71700000      26.07900000       0.16700000
 O      27.95200000      33.21900000       3.14000000
 H      28.19600000      32.36900000       3.58400000
 H      26.96400000      33.14100000       3.23400000
 O      13.75600000      22.12300000       6.40000000
 H      13.71500000      21.26400000       5.95900000
 H      14.38200000      21.96200000       7.14800000
 O      13.61500000      32.05700000       5.16600000
 H      13.54300000      32.80000000       4.46000000
 H      14.09800000      31.36800000       4.57800000
 O      14.28900000      29.77500000       3.42100000
 H      14.99000000      29.16300000       3.83400000
 H      13.47800000      29.16900000       3.68700000
 O      13.94500000      23.92000000       4.27000000
 H      13.19900000      24.56400000       4.41000000
 H      13.89500000      23.31600000       5.03000000
 O      17.87400000      24.33800000       5.21400000
 H      18.36100000      24.81500000       5.98100000
 H      16.98800000      24.69500000       5.47500000
 O      15.28300000      25.70400000       1.58000000
 H      14.88700000      25.23000000       2.32900000
 H      14.64200000      26.43200000       1.48500000
 O      24.69200000      29.44200000       3.78900000
 H      24.06000000      29.51200000       3.04900000
 H      25.24600000      30.19800000       3.57100000
 O      27.11100000      34.92500000       5.00300000
 H      26.87900000      34.30400000       5.76000000
 H      27.59000000      34.28300000       4.46400000
 O      19.16500000      25.70900000       7.28000000
 H      19.84900000      25.38900000       7.91900000
 H      18.60300000      26.29900000       7.81500000
 O      17.30100000      34.45700000      10.50000000
 H      16.77600000      34.62000000      11.29700000
 H      16.57700000      33.96900000       9.97500000
 O      24.71300000      24.34500000       1.55800000
 H      25.19800000      25.17900000       1.41000000
 H      23.94800000      24.74700000       2.08500000
 O      17.39700000      28.88500000       1.70400000
 H      17.09100000      29.81100000       1.58000000
 H      16.82400000      28.62000000       2.44900000
 O      22.76400000      20.50000000       5.39200000
 H      22.89000000      21.16700000       6.08300000
 H      21.86000000      20.59100000       5.08600000
 O      16.41200000      26.04800000      11.98100000
 H      17.16100000      26.60800000      11.67500000
 H      15.89700000      26.77600000      12.36900000
 O      18.12600000      29.15300000      13.71100000
 H      17.17100000      28.91400000      13.81300000
 H      17.99000000      29.53600000      12.79100000
 O      20.90500000      29.19300000      11.52500000
 H      21.25200000      28.93300000      12.38700000
 H      20.09300000      28.67700000      11.44700000
 O      22.94400000      25.31400000      10.64000000
 H      23.16100000      24.90500000      11.47700000
 H      23.77600000      25.82800000      10.46900000
 O      27.67400000      25.45600000       9.49100000
 H      28.42000000      24.88400000       9.73600000
 H      27.10300000      24.89500000       9.01400000
 O      17.72300000      27.84900000       8.99800000
 H      17.92400000      27.59200000       9.96800000
 H      18.54100000      28.27700000       8.78900000
 O      24.76000000      33.31700000      10.66200000
 H      24.98000000      32.39400000      10.79300000
 H      24.75000000      33.60000000      11.61900000
 O      23.03700000      23.63800000       7.32600000
 H      22.51200000      24.06900000       8.05200000
 H      22.35600000      23.59200000       6.62300000
 O      22.22900000      32.30200000      10.05100000
 H      21.41900000      32.51900000       9.71100000
 H      22.82700000      33.03500000       9.93900000
 O      27.32500000      27.62800000       7.78500000
 H      26.41600000      27.63200000       7.94300000
 H      27.66700000      26.94300000       8.39900000
 O      22.33000000      22.21300000      12.74100000
 H      23.14300000      22.39000000      12.25200000
 H      22.35000000      21.33300000      13.09600000
 O      24.49300000      21.84000000      10.02000000
 H      25.45200000      21.66900000      10.29300000
 H      24.66200000      22.68000000       9.52000000
 O      16.85700000      20.99400000      12.24600000
 H      17.20800000      20.88500000      11.35700000
 H      15.96600000      20.63200000      12.16000000
 O      22.16500000      31.63600000      12.91700000
 H      22.60500000      31.67800000      11.99900000
 H      21.24700000      31.79400000      12.58700000
 O      26.85200000      23.36600000       3.14300000
 H      25.99900000      23.54100000       2.64100000
 H      27.46200000      23.80300000       2.51000000
 O      15.65900000      25.70200000       6.21200000
 H      14.68200000      25.76600000       6.08900000
 H      15.70600000      24.90600000       6.82600000
 O      16.33100000      31.55600000      13.50700000
 H      16.57400000      30.97800000      12.78200000
 H      15.43300000      31.91600000      13.19000000
 O      24.83200000      27.57400000       8.61600000
 H      24.94400000      27.04300000       9.43900000
 H      24.31800000      28.34900000       8.91000000
 O      23.62900000      34.48300000       2.77200000
 H      24.39900000      34.78700000       2.25500000
 H      22.93500000      34.75300000       2.12100000
 O      17.62700000      22.73400000       9.83200000
 H      18.51300000      22.89700000      10.15400000
 H      17.68600000      21.79000000       9.54900000
 O      19.96600000      29.50200000       1.90300000
 H      19.88100000      29.63600000       2.87700000
 H      19.15700000      29.03800000       1.69400000
 O      13.83000000      29.46600000      10.12900000
 H      13.17100000      29.82400000       9.46000000
 H      14.66600000      29.64900000       9.64200000
 O      20.02700000      25.01100000      13.50100000
 H      20.89200000      24.86000000      13.89300000
 H      19.51400000      25.24000000      14.31200000
 O      18.74300000      22.01000000       3.83200000
 H      19.10200000      22.31500000       2.95200000
 H      18.19400000      22.81000000       4.03300000
 O      16.19300000      31.40600000       1.95600000
 H      15.47000000      30.88600000       2.40000000
 H      15.72300000      31.74700000       1.21200000
 O      17.42200000      32.77200000       5.81500000
 H      17.90800000      33.12000000       5.01700000
 H      17.70900000      33.46600000       6.50300000
 O      19.85900000      32.01000000       8.19600000
 H      19.20900000      32.03500000       7.50000000
 H      20.65800000      32.34800000       7.68400000
 O      15.88400000      24.17100000      13.95900000
 H      14.97400000      23.99500000      13.58800000
 H      16.26000000      24.60300000      13.12400000
 O      25.36800000      32.35200000       3.33000000
 H      24.67700000      33.06600000       3.28800000
 H      25.36400000      32.05200000       2.39900000
 O      20.77300000      30.45900000       4.84900000
 H      21.40100000      30.07800000       5.51700000
 H      21.24500000      31.21800000       4.53400000
 O      20.95200000      23.57100000       5.49600000
 H      20.59100000      22.72400000       5.91400000
 H      20.17400000      24.15800000       5.45500000
 O      17.66800000      30.38700000      11.39700000
 H      18.20100000      31.15500000      11.23700000
 H      17.21300000      30.46500000      10.45800000
 O      18.53300000      32.56500000       0.77500000
 H      17.93300000      32.04800000       1.24600000
 H      19.40100000      32.37600000       1.16800000
 O      17.10200000      21.34600000       0.80500000
 H      16.62100000      21.73600000       1.52200000
 H      17.94400000      21.81800000       0.79100000
 O      14.04500000      32.86200000      12.74900000
 H      13.78800000      33.34800000      11.97500000
 H      13.94900000      33.51000000      13.45800000
 O      24.76000000      21.85400000       0.69700000
 H      24.76400000      22.82600000       0.84500000
 H      24.32000000      21.61300000       1.52700000
 O      22.69800000      28.12200000       2.01300000
 H      21.78500000      28.18300000       1.66600000
 H      22.67500000      27.26900000       2.48400000
 O      27.16800000      29.20300000      11.24100000
 H      27.79600000      28.81200000      11.87500000
 H      27.66000000      30.01300000      10.96600000
 O      21.93300000      33.17800000       6.84500000
 H      21.83100000      33.05500000       5.86700000
 H      21.89100000      34.18700000       6.83800000
 O      25.53000000      21.66500000      13.19700000
 H      25.85100000      20.94500000      13.81700000
 H      26.08500000      21.46600000      12.31800000
 O      27.06200000      21.00000000       8.20000000
 H      27.53700000      20.65600000       7.39900000
 H      26.81400000      21.93300000       7.83500000
 O      19.43600000      22.94300000       1.07200000
 H      18.94600000      23.76100000       1.14900000
 H      20.05000000      23.05000000       0.36800000
 O      15.18400000      21.31800000       8.35700000
 H      14.77300000      20.86500000       9.08900000
 H      16.03100000      20.88400000       8.24100000
 O      25.29700000      28.77400000       0.87000000
 H      25.67600000      27.89800000       0.67000000
 H      24.37100000      28.55200000       0.94200000
 O      14.83400000      33.53200000       9.27500000
 H      13.81800000      33.70800000       9.19000000
 H      14.89500000      33.04600000       8.41800000
 O      18.77600000      34.21900000       3.78800000
 H      18.86000000      35.12800000       3.53300000
 H      19.67300000      33.84000000       3.66500000
