1002
XYZ file of cluster: frame_3000_49363.9bf7b.4a626 - created by MolEdiTo
 O      24.64900000      38.97400000      31.47900000
 H      24.94000000      38.26600000      30.95300000
 H      25.45900000      39.33000000      31.83500000
 O      38.17800000      40.76900000      19.91800000
 H      37.72300000      41.46400000      19.34600000
 H      38.02400000      41.21000000      20.79100000
 O      25.63500000      36.98900000      29.83700000
 H      26.59400000      37.15500000      29.99300000
 H      25.59500000      35.98800000      29.91200000
 O      16.33800000      33.43400000      37.89800000
 H      16.77700000      34.14800000      37.38700000
 H      15.38100000      33.63100000      37.66400000
 O      20.43900000      28.21300000      14.18200000
 H      19.91900000      27.76200000      14.88400000
 H      19.70400000      28.62100000      13.63900000
 O      31.93700000      39.40000000      31.66100000
 H      32.05900000      40.15200000      32.28200000
 H      32.43200000      39.70400000      30.86400000
 O      38.42400000      38.17300000      38.92400000
 H      39.30500000      37.82700000      39.12000000
 H      38.53900000      39.09700000      39.22700000
 O      29.86000000      32.16800000      36.66200000
 H      28.91400000      31.90100000      36.29700000
 H      30.10500000      31.19800000      36.84400000
 O      16.66200000      27.59100000      33.73300000
 H      17.46600000      27.94800000      33.38400000
 H      16.61400000      27.91200000      34.65200000
 O      17.12800000      33.70100000      20.47600000
 H      17.38600000      32.82000000      20.05500000
 H      16.75600000      33.35300000      21.31100000
 O      22.55900000      35.05500000      29.35700000
 H      22.86100000      34.88500000      28.43600000
 H      22.43300000      36.02800000      29.26300000
 O      21.98200000      37.10500000      25.37800000
 H      22.63200000      37.83400000      25.23400000
 H      21.21500000      37.44800000      24.81800000
 O      23.20200000      35.95400000      33.90800000
 H      23.34700000      35.34600000      33.12800000
 H      22.30500000      36.30400000      33.74400000
 O      33.21400000      34.99200000      38.51300000
 H      33.33000000      35.77700000      39.08000000
 H      33.03900000      34.31400000      39.22000000
 O      33.80700000      38.98300000      37.57200000
 H      32.92600000      38.97600000      38.08500000
 H      34.43100000      38.83100000      38.30000000
 O      37.83600000      35.59500000      31.50200000
 H      38.17200000      34.68900000      31.42900000
 H      38.04800000      35.72500000      32.46800000
 O      24.69200000      30.34500000      24.82200000
 H      25.13600000      30.67900000      24.04000000
 H      23.84400000      30.81200000      24.70600000
 O      15.37400000      27.22700000      36.73200000
 H      16.07800000      27.10800000      37.36000000
 H      14.91900000      28.02100000      36.95600000
 O      29.23400000      27.32300000      34.04100000
 H      28.93300000      28.23800000      33.84000000
 H      28.44900000      27.03300000      34.53000000
 O      27.55300000      40.35700000      17.78300000
 H      28.27300000      39.73100000      18.07900000
 H      26.75800000      39.81900000      17.99200000
 O      17.84100000      32.84500000      27.50400000
 H      18.36700000      32.39000000      26.76700000
 H      18.57200000      33.01100000      28.17100000
 O      32.91300000      34.25500000      32.19200000
 H      32.55500000      33.69800000      32.94500000
 H      32.57900000      35.10800000      32.45000000
 O      16.55700000      28.64400000      18.63800000
 H      16.28900000      29.58400000      18.95200000
 H      16.30800000      28.14500000      19.43000000
 O      13.97100000      37.46900000      29.07100000
 H      14.38100000      36.57700000      29.17500000
 H      13.39300000      37.22400000      28.26300000
 O      20.33700000      36.25300000      17.79400000
 H      20.35600000      36.39400000      16.82100000
 H      21.09000000      35.62800000      17.93100000
 O      33.19100000      31.12400000      39.15000000
 H      32.93000000      31.80100000      39.82800000
 H      32.62200000      30.41200000      39.51000000
 O      33.12600000      32.91200000      23.62100000
 H      32.61800000      32.75200000      24.41200000
 H      34.02600000      33.01700000      24.01100000
 O      40.23800000      30.93400000      18.33600000
 H      40.99300000      31.55100000      18.44700000
 H      39.51700000      31.39200000      18.82900000
 O      26.19000000      34.28700000      29.65400000
 H      26.35400000      33.37800000      29.64800000
 H      26.70600000      34.58800000      28.84200000
 O      23.04000000      35.48000000      26.99200000
 H      23.85300000      35.90500000      26.66200000
 H      22.41400000      35.96800000      26.38800000
 O      15.61400000      28.89400000      15.93700000
 H      15.29200000      28.04400000      15.59600000
 H      16.06900000      28.57400000      16.74000000
 O      20.61700000      31.50100000      27.11300000
 H      20.88200000      31.83700000      27.98200000
 H      20.05400000      30.73500000      27.38400000
 O      40.03900000      36.04900000      29.93400000
 H      39.23600000      36.01200000      30.49600000
 H      40.59500000      35.31900000      30.33300000
 O      14.69400000      37.79900000      15.97700000
 H      14.53100000      38.35200000      15.19600000
 H      15.53700000      38.10400000      16.26200000
 O      39.94000000      28.89900000      40.46700000
 H      39.49600000      28.02400000      40.52300000
 H      39.43100000      29.22500000      39.68100000
 O      40.07600000      36.45900000      27.22000000
 H      39.94300000      36.33000000      28.17400000
 H      41.06600000      36.35600000      27.24600000
 O      29.84700000      34.48300000      31.89000000
 H      30.68200000      34.91800000      32.05500000
 H      29.98700000      33.85000000      31.17400000
 O      33.12200000      39.36400000      24.76900000
 H      33.99000000      39.01600000      25.25300000
 H      32.47100000      38.79100000      25.18500000
 O      28.94500000      30.13200000      33.73900000
 H      29.84900000      30.14700000      34.04800000
 H      28.56700000      30.77700000      34.41600000
 O      35.15100000      34.75200000      34.55900000
 H      35.37900000      34.62600000      35.50000000
 H      34.77900000      35.64400000      34.59600000
 O      20.29100000      35.20400000      23.24400000
 H      21.07200000      35.42300000      22.69100000
 H      20.18000000      34.22500000      23.04500000
 O      27.63700000      37.66000000      19.41600000
 H      27.22900000      37.19300000      20.20200000
 H      27.29300000      37.11100000      18.68600000
 O      18.67600000      29.43700000      27.98500000
 H      19.16000000      29.59000000      28.82000000
 H      17.82900000      29.86700000      28.19000000
 O      28.39600000      34.53600000      19.87100000
 H      28.59900000      35.52200000      19.96300000
 H      29.17400000      34.18800000      19.46900000
 O      32.24900000      28.52900000      40.09100000
 H      33.17500000      28.39300000      40.31600000
 H      32.18900000      27.95100000      39.30100000
 O      36.76200000      30.14800000      21.33000000
 H      36.51900000      30.90100000      20.76700000
 H      37.16300000      30.66900000      22.09900000
 O      38.21100000      32.00900000      23.17300000
 H      38.24000000      32.82600000      22.67900000
 H      39.20400000      31.83100000      23.25700000
 O      32.55400000      32.69400000      29.48000000
 H      33.34200000      33.28400000      29.60900000
 H      31.83200000      33.31100000      29.56200000
 O      37.22200000      30.79200000      25.30800000
 H      38.06300000      31.00600000      25.79000000
 H      37.33300000      31.40600000      24.51200000
 O      21.80900000      38.30400000      21.36500000
 H      22.05200000      37.33100000      21.38700000
 H      20.92100000      38.19800000      20.86300000
 O      38.65300000      36.17500000      33.88800000
 H      38.06900000      36.85100000      34.29000000
 H      39.40800000      36.80000000      33.70600000
 O      15.45600000      37.09900000      25.53900000
 H      16.43600000      37.15100000      25.73500000
 H      15.34700000      37.97100000      25.02200000
 O      21.59000000      29.02100000      32.61900000
 H      21.87500000      29.50200000      33.42200000
 H      22.37100000      29.31400000      31.99900000
 O      35.47500000      32.78600000      28.04600000
 H      36.27400000      32.27300000      28.33500000
 H      35.42300000      33.44300000      28.78600000
 O      32.93000000      34.56500000      21.30300000
 H      32.79000000      34.04600000      22.13000000
 H      33.88900000      34.54300000      21.22700000
 O      28.75200000      30.36800000      16.56000000
 H      29.07000000      30.98500000      17.31500000
 H      28.82700000      29.53600000      17.03900000
 O      40.38000000      27.62600000      27.05300000
 H      39.83700000      28.34600000      27.49800000
 H      40.01200000      27.77500000      26.14200000
 O      40.29800000      35.17600000      18.30900000
 H      40.08900000      36.16000000      18.30300000
 H      40.22300000      34.97000000      17.33400000
 O      34.99200000      36.90800000      23.31200000
 H      34.28300000      37.52300000      22.95600000
 H      34.50300000      36.49400000      24.02700000
 O      28.33600000      36.51300000      36.42100000
 H      29.28200000      36.78700000      36.43300000
 H      28.30700000      36.04800000      37.27100000
 O      24.40500000      27.09100000      19.44800000
 H      24.01000000      27.97200000      19.55100000
 H      24.78700000      27.18400000      18.57300000
 O      30.24900000      32.06700000      18.22000000
 H      30.25300000      32.47900000      17.33500000
 H      30.90300000      32.75300000      18.62700000
 O      40.36300000      37.25200000      36.92600000
 H      40.04800000      36.34600000      37.05000000
 H      39.82500000      37.46200000      36.11700000
 O      35.13700000      31.41700000      37.26000000
 H      34.52900000      31.18500000      37.99600000
 H      34.82900000      32.25800000      36.98000000
 O      25.44700000      38.82100000      25.38200000
 H      24.56200000      39.10300000      25.37500000
 H      25.40600000      38.15700000      26.12900000
 O      18.90600000      28.69800000      25.13300000
 H      18.51300000      27.80100000      25.12500000
 H      18.72000000      28.97500000      26.04300000
 O      19.40400000      33.32100000      29.69200000
 H      19.18900000      33.11200000      30.68400000
 H      20.35800000      33.06200000      29.81700000
 O      30.36000000      30.06400000      20.01200000
 H      30.95400000      30.38400000      20.74400000
 H      30.52500000      30.79600000      19.38600000
 O      14.28400000      34.61300000      36.79700000
 H      13.56600000      33.90100000      36.95100000
 H      14.07000000      34.90800000      35.94400000
 O      36.75700000      34.35300000      21.99000000
 H      35.97100000      34.65600000      22.47300000
 H      36.33900000      34.14500000      21.13000000
 O      27.68100000      40.23700000      25.61500000
 H      28.35800000      39.66100000      25.17200000
 H      26.86900000      39.70000000      25.43800000
 O      21.63000000      31.41300000      24.72100000
 H      22.21000000      32.20900000      24.86200000
 H      21.21900000      31.29400000      25.63100000
 O      26.13300000      39.24400000      22.95300000
 H      26.37700000      38.34200000      22.54800000
 H      25.91500000      38.91800000      23.84800000
 O      22.85900000      39.21900000      33.75600000
 H      22.45100000      38.43500000      33.96200000
 H      23.03300000      39.14700000      32.75600000
 O      34.34400000      31.46900000      19.19900000
 H      34.54100000      32.16900000      18.54100000
 H      34.14800000      30.71700000      18.62400000
 O      13.01600000      37.86400000      20.90300000
 H      13.92400000      37.56400000      21.10200000
 H      13.15100000      38.23300000      20.01300000
 O      14.55600000      39.67100000      25.05600000
 H      13.60000000      39.52400000      25.20100000
 H      14.57000000      40.53800000      24.57900000
 O      16.88000000      40.66200000      26.55900000
 H      16.32600000      40.26300000      27.23900000
 H      16.26100000      40.46600000      25.75600000
 O      16.50100000      38.80500000      28.79400000
 H      15.79500000      38.11600000      28.66700000
 H      17.23500000      38.38700000      28.22600000
 O      37.06700000      37.88400000      35.57100000
 H      37.33200000      37.52100000      36.42500000
 H      36.09200000      37.69100000      35.56300000
 O      15.47000000      39.57000000      35.38300000
 H      15.49800000      39.33600000      34.39300000
 H      16.40200000      39.27900000      35.59500000
 O      13.87300000      32.51900000      31.11400000
 H      14.33200000      31.89700000      30.53000000
 H      14.07400000      33.38600000      30.67400000
 O      32.51300000      31.17800000      21.15000000
 H      32.55300000      31.84500000      21.86500000
 H      33.20600000      31.50600000      20.49700000
 O      17.02900000      39.51600000      16.20700000
 H      17.38400000      39.41200000      15.25200000
 H      17.33700000      38.64200000      16.46700000
 O      20.84800000      40.38500000      30.66800000
 H      21.18200000      41.36100000      30.60500000
 H      20.18900000      40.49500000      29.92600000
 O      16.56500000      33.85900000      16.98400000
 H      16.53300000      34.46300000      17.73700000
 H      15.90400000      33.17600000      17.19900000
 O      27.50500000      31.15400000      35.86900000
 H      27.11200000      30.35100000      36.27000000
 H      26.91000000      31.30600000      35.12400000
 O      19.31200000      31.06100000      20.43300000
 H      18.56000000      30.62900000      20.80600000
 H      19.28400000      30.83700000      19.48200000
 O      39.33400000      37.44100000      19.36300000
 H      38.77100000      37.94100000      18.68300000
 H      38.66500000      37.29200000      20.03200000
 O      16.00500000      28.51200000      27.06000000
 H      16.78300000      28.33600000      27.51400000
 H      15.48500000      27.71400000      27.05000000
 O      28.56900000      39.61600000      21.03200000
 H      28.30700000      38.91600000      20.38200000
 H      27.70300000      39.82500000      21.41500000
 O      20.08300000      38.87900000      23.95300000
 H      20.69300000      39.07000000      23.19900000
 H      19.75900000      39.76100000      24.17300000
 O      20.87000000      37.35400000      33.33100000
 H      20.33800000      37.77300000      34.04600000
 H      20.28000000      37.09000000      32.62200000
 O      37.32800000      32.49200000      19.56500000
 H      36.67000000      33.12900000      19.49700000
 H      38.14400000      32.96400000      19.68300000
 O      28.22400000      30.44100000      31.00900000
 H      28.44500000      29.49100000      31.01000000
 H      28.62100000      30.68800000      31.87000000
 O      20.21800000      36.50900000      37.06000000
 H      20.81000000      35.76200000      36.81800000
 H      19.40500000      36.16000000      36.61100000
 O      14.42200000      39.30300000      38.47200000
 H      15.38700000      39.52400000      38.61900000
 H      14.55400000      38.35100000      38.69900000
 O      14.07600000      34.59300000      14.82600000
 H      13.83700000      34.57800000      15.78100000
 H      14.94400000      34.98100000      14.81300000
 O      34.68500000      27.87300000      31.99700000
 H      34.90700000      27.27200000      31.21700000
 H      33.79100000      28.10300000      31.66100000
 O      23.64600000      39.71600000      37.65900000
 H      23.91700000      40.61000000      37.38000000
 H      24.46700000      39.26900000      37.35700000
 O      32.87500000      26.90400000      14.95600000
 H      32.63400000      26.76700000      14.00000000
 H      32.62600000      27.85100000      15.01100000
 O      32.42700000      38.38800000      27.68700000
 H      33.33400000      38.06500000      27.73200000
 H      32.45400000      39.04100000      28.47800000
 O      39.29300000      38.97100000      27.11500000
 H      39.71800000      38.09200000      26.97500000
 H      39.92200000      39.53600000      26.62100000
 O      21.90700000      30.70500000      40.16500000
 H      21.50000000      30.42900000      41.03200000
 H      21.81700000      29.80900000      39.72000000
 O      21.36300000      34.02600000      36.78400000
 H      21.77700000      33.87700000      37.66300000
 H      20.71700000      33.33200000      36.71200000
 O      14.68400000      36.49500000      38.89800000
 H      14.56400000      36.14100000      37.99700000
 H      14.03500000      35.92300000      39.35800000
 O      31.68100000      33.26600000      34.52900000
 H      31.78900000      32.28700000      34.27000000
 H      30.91700000      33.17000000      35.16100000
 O      24.01400000      35.93600000      38.85300000
 H      24.14100000      36.28100000      37.93900000
 H      24.30000000      35.00900000      38.73300000
 O      30.40400000      29.32200000      36.84500000
 H      31.12700000      28.96600000      36.31100000
 H      30.27500000      28.62100000      37.53400000
 O      16.54200000      30.63000000      38.64500000
 H      15.59900000      30.50100000      38.82500000
 H      16.62400000      31.57300000      38.79600000
 O      22.61100000      34.28100000      13.98200000
 H      22.48500000      34.79800000      13.13000000
 H      22.12700000      33.46900000      13.65800000
 O      26.14300000      38.24400000      36.56400000
 H      25.71300000      37.40500000      36.26900000
 H      27.08100000      37.83800000      36.60800000
 O      39.12300000      34.57200000      37.72400000
 H      39.67300000      33.78900000      37.98900000
 H      38.53800000      34.70900000      38.46800000
 O      26.32300000      28.91200000      37.18000000
 H      26.72800000      28.16800000      36.71200000
 H      26.85500000      28.91300000      37.99800000
 O      32.98000000      37.81900000      17.93000000
 H      33.01400000      37.58900000      16.95100000
 H      32.10900000      38.36200000      17.89800000
 O      36.73600000      32.13300000      16.89100000
 H      36.47600000      31.17000000      16.96000000
 H      36.99600000      32.29100000      17.82800000
 O      31.62600000      36.80300000      32.92500000
 H      31.74600000      37.71100000      32.59500000
 H      30.77800000      36.93500000      33.41300000
 O      16.93700000      35.33500000      14.85100000
 H      17.51700000      35.93400000      15.34200000
 H      17.02800000      34.53800000      15.46900000
 O      32.71600000      40.41800000      29.20200000
 H      33.54900000      40.63600000      28.67900000
 H      32.29600000      41.36200000      29.04300000
 O      19.92100000      32.63500000      22.83700000
 H      19.73100000      32.20300000      21.92400000
 H      20.43000000      31.93400000      23.22600000
 O      25.28600000      31.43000000      34.24000000
 H      25.22900000      30.79800000      33.51800000
 H      24.43100000      31.50800000      34.66000000
 O      28.44500000      28.12800000      20.41200000
 H      27.69600000      28.70600000      20.20200000
 H      29.14600000      28.77200000      20.46500000
 O      35.61100000      34.61800000      37.15900000
 H      36.20500000      35.26100000      37.57600000
 H      34.87200000      34.52600000      37.75700000
 O      37.12000000      37.21500000      25.35000000
 H      36.79400000      37.42600000      24.48500000
 H      37.57000000      38.01000000      25.63000000
 O      31.18400000      34.59500000      19.27500000
 H      31.64500000      34.66700000      20.10200000
 H      31.95700000      34.82900000      18.68700000
 O      34.76400000      33.34000000      15.35200000
 H      35.30200000      33.02800000      16.15700000
 H      35.32800000      33.11200000      14.63000000
 O      14.89900000      34.84300000      29.84400000
 H      14.87800000      34.42800000      28.99700000
 H      15.80400000      35.14800000      29.96600000
 O      32.50800000      35.50500000      36.03400000
 H      32.39700000      34.60500000      35.69100000
 H      32.69500000      35.31700000      36.98200000
 O      39.11800000      33.14600000      31.15900000
 H      39.04200000      32.29200000      31.66700000
 H      40.10100000      33.17000000      31.04000000
 O      26.65200000      39.76700000      33.86000000
 H      26.18600000      39.03300000      34.37900000
 H      27.45200000      39.89500000      34.47700000
 O      19.63500000      31.78600000      36.95600000
 H      19.08100000      31.65500000      37.73800000
 H      20.06500000      30.93700000      36.87800000
 O      21.97200000      32.35900000      29.33800000
 H      22.79000000      31.84500000      29.14900000
 H      22.41700000      33.20500000      29.62700000
 O      34.61100000      29.76100000      29.63900000
 H      35.45300000      30.11200000      29.26500000
 H      34.63200000      30.13000000      30.52700000
 O      30.08700000      30.97200000      25.78300000
 H      30.96900000      30.55500000      25.42800000
 H      29.57500000      30.18900000      25.77400000
 O      14.19500000      31.86500000      39.91600000
 H      13.39900000      31.31700000      39.87500000
 H      14.06500000      32.39500000      39.08900000
 O      14.10400000      28.59400000      32.71900000
 H      13.77000000      27.68300000      32.80100000
 H      15.05800000      28.50800000      32.77000000
 O      28.72700000      37.37200000      33.58300000
 H      28.14100000      37.07100000      34.34300000
 H      29.08300000      38.22500000      33.98700000
 O      25.86400000      34.05200000      34.77100000
 H      26.83000000      34.20500000      34.51500000
 H      25.69400000      33.17900000      34.40900000
 O      32.59000000      29.48300000      25.22300000
 H      32.92200000      30.19000000      25.81100000
 H      33.39900000      29.31500000      24.67300000
 O      18.14700000      36.83100000      22.33600000
 H      19.04700000      36.50400000      22.62500000
 H      18.40000000      37.27100000      21.49700000
 O      28.47800000      34.41400000      34.16900000
 H      28.92700000      35.12800000      34.66000000
 H      28.98300000      34.36700000      33.31200000
 O      36.54800000      29.29600000      17.18200000
 H      36.65800000      28.94700000      18.12100000
 H      37.28800000      28.76800000      16.78500000
 O      27.69200000      31.56000000      39.44200000
 H      28.49400000      31.90400000      39.81300000
 H      27.47800000      32.14900000      38.69800000
 O      38.48800000      29.39000000      38.18700000
 H      38.99400000      29.67600000      37.44600000
 H      37.69000000      28.96700000      37.77900000
 O      39.37800000      30.60100000      32.25700000
 H      40.12000000      30.54800000      32.85500000
 H      39.20000000      29.67600000      32.00700000
 O      35.20400000      37.45200000      32.34400000
 H      35.77600000      36.86500000      32.81900000
 H      34.34500000      37.41100000      32.88800000
 O      27.41900000      32.15600000      14.89300000
 H      26.74700000      31.41800000      14.73800000
 H      27.90700000      31.61300000      15.59100000
 O      17.57100000      36.92200000      17.28400000
 H      18.42700000      36.50500000      17.40900000
 H      17.04800000      36.55300000      18.05100000
 O      39.90300000      33.14400000      19.92200000
 H      40.14900000      33.93500000      19.35200000
 H      40.09600000      33.54700000      20.81800000
 O      15.41500000      34.29600000      25.15600000
 H      16.16000000      34.23300000      24.51800000
 H      15.63300000      35.17900000      25.47100000
 O      32.28900000      34.68800000      15.26400000
 H      32.25900000      34.87800000      14.31900000
 H      33.08900000      34.10500000      15.26000000
 O      32.16300000      28.39800000      31.26000000
 H      31.58700000      27.59700000      31.36200000
 H      31.46000000      29.08200000      31.18500000
 O      28.58700000      28.97300000      39.41700000
 H      28.27300000      29.90100000      39.45700000
 H      29.52000000      29.06200000      39.65600000
 O      35.12600000      39.54900000      18.07700000
 H      35.25900000      39.33700000      18.97700000
 H      34.46500000      38.86100000      17.80400000
 O      24.50400000      34.75100000      22.80900000
 H      24.23900000      34.25000000      23.65600000
 H      24.97600000      34.02400000      22.38600000
 O      17.83600000      29.34300000      36.57000000
 H      17.17800000      29.56400000      35.83700000
 H      17.19600000      29.69700000      37.30500000
 O      30.68100000      37.64500000      36.50700000
 H      31.26800000      37.08000000      35.92000000
 H      31.40200000      38.20900000      36.97700000
 O      15.51300000      31.70900000      23.22600000
 H      14.70900000      31.73400000      22.64600000
 H      15.12500000      31.61000000      24.11000000
 O      40.64800000      40.32900000      13.77200000
 H      40.95100000      39.34800000      13.91700000
 H      40.41300000      40.53900000      14.68000000
 O      39.48200000      38.47600000      23.50700000
 H      39.93600000      37.94100000      22.82000000
 H      39.81900000      39.36000000      23.21900000
 O      28.84300000      40.05500000      38.30000000
 H      28.23100000      39.56100000      37.72100000
 H      28.62200000      40.97100000      38.00300000
 O      18.41800000      28.09500000      30.84400000
 H      18.31400000      27.40300000      30.13400000
 H      19.18200000      28.56100000      30.43100000
 O      37.13100000      35.74800000      15.00400000
 H      37.15200000      34.83800000      14.74500000
 H      38.09800000      35.90900000      15.06700000
 O      24.51500000      31.43000000      28.82000000
 H      24.65900000      31.62700000      27.88200000
 H      25.43000000      31.47100000      29.13000000
 O      37.23200000      39.53300000      28.57600000
 H      37.96700000      39.38100000      27.92700000
 H      37.15200000      38.67500000      28.98800000
 O      38.42700000      40.52800000      40.29900000
 H      38.03200000      41.37200000      39.88200000
 H      38.55700000      40.87800000      41.22600000
 O      26.21100000      33.53000000      20.65500000
 H      25.70100000      33.89600000      19.92300000
 H      27.08300000      33.94000000      20.49200000
 O      40.50200000      28.41600000      19.23900000
 H      40.40400000      28.71800000      20.22300000
 H      40.61900000      29.32500000      18.90500000
 O      29.94000000      30.52500000      14.04400000
 H      29.77200000      30.63400000      15.01500000
 H      29.71500000      31.37000000      13.72300000
 O      36.80300000      40.44600000      32.67500000
 H      36.27000000      39.67400000      32.47900000
 H      36.09200000      41.00700000      33.06100000
 O      29.82900000      38.59700000      27.41700000
 H      29.32300000      38.86100000      28.14900000
 H      30.73500000      38.53700000      27.72900000
 O      28.04300000      29.62900000      23.45000000
 H      27.55100000      29.26300000      22.71600000
 H      28.85600000      29.10700000      23.45300000
 O      21.66600000      31.75100000      19.13200000
 H      20.93200000      31.88000000      19.78500000
 H      21.05800000      31.31800000      18.41900000
 O      24.68500000      39.36600000      28.16300000
 H      25.04600000      40.10200000      28.67800000
 H      24.93100000      38.58900000      28.67400000
 O      33.85000000      35.83200000      25.61800000
 H      34.29900000      36.21700000      26.40600000
 H      34.45300000      35.05700000      25.47900000
 O      29.57600000      38.69200000      14.78000000
 H      28.99400000      38.50300000      13.96000000
 H      30.44200000      38.76200000      14.26100000
 O      18.62800000      32.14600000      34.60200000
 H      17.91700000      31.47100000      34.61700000
 H      19.03700000      32.01200000      35.47800000
 O      33.31300000      38.02700000      15.17000000
 H      32.92900000      38.50000000      14.40100000
 H      33.77400000      37.32100000      14.71900000
 O      40.36600000      29.18400000      21.69200000
 H      40.56300000      29.98000000      22.18600000
 H      39.93900000      28.59500000      22.34200000
 O      17.33300000      29.71100000      22.53500000
 H      17.67700000      29.56800000      23.42500000
 H      16.76300000      30.43800000      22.63800000
 O      35.47800000      33.79900000      24.84400000
 H      35.54700000      33.21000000      25.64000000
 H      36.45000000      34.00000000      24.72600000
 O      16.54400000      36.24700000      19.70000000
 H      17.12700000      35.55300000      20.03600000
 H      16.05500000      36.51900000      20.49600000
 O      18.89100000      40.01500000      18.72200000
 H      18.11900000      39.95200000      18.09400000
 H      18.93900000      40.99000000      18.77500000
 O      31.77200000      30.43300000      33.92400000
 H      32.26600000      29.95500000      34.69200000
 H      32.43900000      30.30400000      33.24100000
 O      35.60500000      39.18100000      20.72800000
 H      36.43200000      38.69000000      20.73900000
 H      35.83200000      39.98100000      21.19300000
 O      32.35400000      27.21100000      18.55500000
 H      32.64100000      28.12500000      18.10100000
 H      33.10800000      27.10300000      19.15800000
 O      18.65200000      32.51000000      31.96700000
 H      18.65500000      32.63000000      32.95900000
 H      18.15900000      31.64400000      31.89500000
 O      33.28800000      29.38400000      35.80200000
 H      33.86600000      30.10200000      35.92900000
 H      33.82800000      28.67800000      36.23000000
 O      33.72800000      29.20700000      17.38300000
 H      33.41900000      28.99700000      16.50100000
 H      34.71900000      29.20100000      17.27500000
 O      35.49300000      28.73500000      25.67500000
 H      35.93100000      28.07000000      25.13900000
 H      35.94400000      29.57600000      25.59900000
 O      29.34800000      38.59500000      23.97400000
 H      29.01900000      39.02000000      23.15700000
 H      29.98300000      37.97800000      23.53100000
 O      25.02200000      30.14400000      17.66300000
 H      25.30700000      29.60300000      16.91500000
 H      24.82500000      31.01100000      17.33100000
 O      15.49100000      39.56500000      32.50400000
 H      16.03100000      38.85400000      32.12200000
 H      14.66500000      39.53400000      31.98700000
 O      39.26700000      34.38200000      22.73300000
 H      38.29300000      34.42000000      22.51300000
 H      39.24500000      34.39300000      23.68500000
 O      15.62000000      31.40000000      16.62300000
 H      15.58600000      30.48200000      16.31000000
 H      16.34900000      31.79000000      16.12700000
 O      30.89400000      30.31900000      29.47700000
 H      30.79800000      29.38200000      29.06100000
 H      31.78700000      30.44800000      29.47900000
 O      23.03700000      39.82200000      16.54100000
 H      22.13000000      40.04800000      16.86200000
 H      23.25600000      40.55600000      16.00500000
 O      24.13200000      32.74500000      16.08200000
 H      24.64600000      32.23000000      15.43300000
 H      23.46400000      33.17300000      15.49100000
 O      37.85600000      29.29400000      13.65000000
 H      37.43200000      29.50300000      12.76200000
 H      37.04800000      28.99800000      14.12400000
 O      30.66400000      28.47300000      23.91500000
 H      31.11400000      28.24900000      23.08400000
 H      31.39800000      28.53300000      24.54600000
 O      37.27800000      37.30400000      21.23200000
 H      36.48500000      36.90900000      21.70700000
 H      37.79200000      37.56100000      22.02900000
 O      22.24700000      37.89700000      28.92000000
 H      21.78400000      38.74200000      28.97000000
 H      23.08600000      38.19500000      28.46700000
 O      38.61300000      27.79200000      16.38700000
 H      38.32200000      27.50100000      15.46800000
 H      39.23200000      27.12000000      16.60500000
 O      25.45200000      36.16600000      25.92000000
 H      26.13300000      35.75100000      26.48200000
 H      25.87000000      36.07500000      25.04500000
 O      37.40700000      30.94500000      29.50000000
 H      37.17300000      30.25100000      30.15000000
 H      38.00300000      31.54400000      30.05500000
 O      26.08300000      33.83600000      37.99700000
 H      26.23900000      33.81200000      37.06100000
 H      26.77000000      34.44000000      38.31300000
 O      29.30900000      36.68800000      26.00400000
 H      29.01600000      37.23700000      25.25300000
 H      29.56400000      37.44800000      26.61400000
 O      36.71200000      39.02800000      14.00600000
 H      36.59200000      39.89900000      14.48700000
 H      36.25400000      38.44500000      14.63800000
 O      13.62400000      28.08400000      23.36300000
 H      12.92300000      27.39200000      23.30100000
 H      14.20800000      27.76500000      24.00300000
 O      25.24100000      36.00300000      15.05300000
 H      24.28700000      35.79900000      15.02800000
 H      25.38400000      36.11600000      14.09800000
 O      36.61100000      36.08200000      17.72400000
 H      36.87500000      36.96700000      17.61000000
 H      36.65200000      35.73400000      16.78000000
 O      36.86000000      30.01400000      35.41400000
 H      36.56800000      30.44300000      34.55700000
 H      36.21900000      30.40100000      36.05900000
 O      15.90400000      39.30700000      20.33500000
 H      16.36200000      40.09800000      20.71600000
 H      16.14800000      38.65600000      21.02600000
 O      31.15100000      34.77000000      25.66700000
 H      30.57600000      35.54200000      25.80900000
 H      32.00800000      35.23100000      25.65500000
 O      29.56400000      33.11900000      27.16600000
 H      30.30700000      33.53800000      26.66500000
 H      29.68200000      32.17700000      26.93400000
 O      15.74700000      31.20800000      19.17200000
 H      15.79100000      31.28800000      18.17800000
 H      14.97200000      31.76700000      19.39500000
 O      22.05100000      28.12100000      38.43900000
 H      21.17400000      28.24700000      37.92700000
 H      22.66800000      28.43900000      37.70500000
 O      19.16400000      30.31800000      17.69600000
 H      18.55900000      29.56300000      17.68300000
 H      19.28000000      30.56000000      16.76300000
 O      14.30100000      29.55000000      37.13100000
 H      13.95700000      30.44500000      37.04700000
 H      13.52100000      29.04500000      37.20700000
 O      22.71100000      32.97000000      38.92100000
 H      23.66800000      32.77700000      38.98900000
 H      22.30200000      32.14200000      39.15400000
 O      23.68300000      28.79500000      36.59100000
 H      24.60800000      28.96000000      36.91600000
 H      23.90000000      28.08000000      35.89600000
 O      20.43600000      29.85000000      29.92500000
 H      21.15100000      30.51400000      29.70200000
 H      20.72500000      29.64900000      30.88000000
 O      19.73000000      36.39800000      39.81200000
 H      19.92600000      36.31900000      38.83600000
 H      18.81200000      36.01500000      39.82600000
 O      26.77900000      30.00500000      19.76600000
 H      26.33300000      30.60200000      20.36100000
 H      26.09700000      30.03300000      19.05800000
 O      19.69400000      35.43000000      26.00600000
 H      20.09900000      35.46400000      25.14200000
 H      19.13000000      34.62800000      25.95200000
 O      23.02000000      39.58200000      25.38700000
 H      22.63700000      40.08600000      24.62200000
 H      22.51100000      39.95400000      26.10600000
 O      16.46700000      30.54600000      34.46500000
 H      15.55500000      30.77200000      34.43400000
 H      16.57300000      30.45700000      33.44400000
 O      22.97900000      32.88500000      34.83000000
 H      22.44600000      33.50800000      35.43000000
 H      23.55700000      33.56400000      34.45700000
 O      17.56700000      34.89200000      39.93500000
 H      17.13500000      34.41100000      39.20100000
 H      17.95000000      34.10800000      40.38600000
 O      25.70500000      31.51200000      22.27300000
 H      25.81000000      32.20300000      21.55300000
 H      26.47000000      31.81000000      22.85900000
 O      30.98200000      40.23200000      19.64400000
 H      30.71000000      39.72000000      18.85200000
 H      30.11900000      40.30300000      20.11200000
 O      37.42700000      28.24400000      19.52500000
 H      37.40400000      28.63200000      20.37800000
 H      38.27200000      28.60400000      19.15700000
 O      24.27900000      27.72500000      24.75400000
 H      24.24000000      27.42500000      23.86100000
 H      24.37800000      28.69600000      24.68100000
 O      31.26800000      39.20100000      38.76200000
 H      31.10900000      39.17000000      39.74100000
 H      30.31500000      39.46500000      38.51000000
 O      26.80800000      30.44000000      26.74600000
 H      27.29700000      29.56800000      26.65400000
 H      26.10000000      30.29900000      26.12200000
 O      30.02700000      38.73000000      17.64400000
 H      29.92900000      37.75200000      17.63900000
 H      29.82900000      38.87500000      16.70900000
 O      13.73900000      38.88800000      18.45500000
 H      14.57100000      39.04300000      18.86900000
 H      13.97600000      38.97800000      17.49400000
 O      31.21200000      36.79700000      23.07700000
 H      32.04700000      36.95700000      22.59300000
 H      31.15100000      35.81000000      23.10100000
 O      40.60000000      30.31800000      13.50800000
 H      40.74400000      29.78400000      14.35100000
 H      39.65500000      30.31500000      13.44800000
 O      29.88100000      32.93900000      29.77300000
 H      29.44200000      32.92400000      28.87800000
 H      30.17100000      32.00000000      29.78900000
 O      31.43300000      27.45300000      21.31100000
 H      30.83400000      26.66500000      21.37600000
 H      31.15600000      27.87200000      20.48100000
 O      27.16500000      31.92600000      28.97900000
 H      27.26000000      31.30100000      28.23000000
 H      27.58200000      31.42900000      29.69000000
 O      17.69200000      34.17600000      23.63300000
 H      18.38300000      33.52500000      23.51400000
 H      18.07400000      34.90100000      23.05000000
 O      13.54500000      35.53200000      17.55700000
 H      14.17000000      36.18500000      17.05400000
 H      12.74600000      36.13000000      17.52900000
 O      20.67500000      35.32300000      15.29100000
 H      21.49200000      35.16600000      14.76200000
 H      20.52300000      34.52700000      15.80400000
 O      20.20900000      40.31500000      33.52900000
 H      20.19000000      40.21000000      32.51500000
 H      21.07100000      39.93700000      33.72700000
 O      16.73000000      37.24100000      31.93700000
 H      17.56900000      37.59500000      31.50000000
 H      16.65100000      36.40600000      31.43400000
 O      40.01000000      35.94300000      15.04100000
 H      40.70100000      36.63500000      14.67100000
 H      40.72300000      35.26100000      15.30500000
 O      18.47600000      39.53900000      35.77300000
 H      19.23800000      39.24600000      36.21400000
 H      18.87900000      39.99400000      34.97300000
 O      34.30000000      37.41500000      35.39600000
 H      33.44300000      36.96300000      35.45700000
 H      34.27600000      37.99700000      36.20400000
 O      22.38800000      35.62900000      21.31500000
 H      23.12900000      35.20000000      21.81900000
 H      22.39900000      35.10300000      20.50600000
 O      16.11500000      36.35700000      34.63900000
 H      16.11300000      36.79800000      33.78500000
 H      15.23000000      36.58400000      35.04500000
 O      35.02700000      37.49700000      27.61400000
 H      35.39600000      37.14600000      28.46900000
 H      35.76200000      38.01400000      27.32200000
 O      22.16900000      38.39900000      14.05200000
 H      22.74900000      38.42000000      14.88500000
 H      22.15000000      39.37900000      13.88700000
 O      22.66100000      29.46800000      14.56700000
 H      21.76300000      28.99000000      14.44600000
 H      22.33600000      30.32000000      14.23100000
 O      30.72600000      28.29300000      27.61500000
 H      31.52000000      28.62900000      27.19600000
 H      30.54100000      27.44500000      27.16200000
 O      19.35600000      28.19200000      33.48700000
 H      19.08100000      28.09900000      32.52000000
 H      20.27000000      28.48100000      33.27500000
 O      17.24000000      27.57100000      39.00000000
 H      17.39000000      28.34100000      38.47700000
 H      16.99900000      27.95400000      39.89100000
 O      15.49000000      36.93200000      21.98400000
 H      15.06600000      36.13100000      22.28800000
 H      16.42100000      36.87200000      22.34700000
 O      30.03400000      32.85800000      39.45000000
 H      30.19800000      32.76300000      38.50100000
 H      30.24600000      33.81000000      39.63500000
 O      33.39100000      35.09400000      17.87700000
 H      33.41800000      36.04900000      17.82800000
 H      33.20600000      34.84500000      16.92300000
 O      39.52100000      39.91700000      31.86600000
 H      38.59900000      40.06700000      32.18300000
 H      39.83100000      40.81000000      31.64300000
 O      39.49600000      30.71500000      27.79800000
 H      38.68400000      30.82600000      28.34100000
 H      40.15100000      30.52500000      28.53700000
 O      23.56300000      27.39800000      16.11400000
 H      23.05000000      28.10500000      15.67000000
 H      22.81700000      27.08100000      16.74300000
 O      27.52200000      35.18400000      24.00300000
 H      28.26900000      35.37300000      24.64900000
 H      27.57100000      34.20300000      24.03800000
 O      33.30300000      38.24300000      21.65500000
 H      34.01500000      38.73600000      21.21200000
 H      32.57900000      38.81900000      21.34300000
 O      33.23800000      31.62400000      26.82100000
 H      32.79000000      32.11000000      27.56600000
 H      34.15400000      31.63300000      27.22300000
 O      26.45500000      36.71600000      21.78100000
 H      27.08500000      36.32300000      22.41900000
 H      25.71000000      36.18200000      21.98400000
 O      34.97700000      36.83000000      13.38000000
 H      35.46900000      36.19500000      13.96000000
 H      35.57400000      36.95100000      12.62100000
 O      39.67000000      30.41600000      36.06400000
 H      38.80600000      30.30300000      35.69700000
 H      40.23800000      30.11700000      35.33800000
 O      36.96900000      31.55200000      39.39900000
 H      37.59800000      30.84800000      39.04300000
 H      36.63800000      31.96100000      38.59100000
 O      27.58900000      34.92600000      27.31500000
 H      28.18600000      35.71600000      27.20700000
 H      28.30900000      34.29900000      27.63500000
 O      16.70600000      30.35100000      31.82600000
 H      16.65100000      30.89100000      31.01100000
 H      16.75300000      29.43600000      31.47400000
 O      19.25800000      31.36100000      15.20600000
 H      18.86800000      30.70800000      14.62100000
 H      18.82900000      32.18500000      14.92300000
 O      21.11300000      39.07800000      36.70800000
 H      22.10500000      39.13300000      36.91600000
 H      21.03200000      38.09900000      36.98200000
 O      35.42200000      34.59700000      19.80200000
 H      35.85200000      35.26200000      19.24100000
 H      34.51500000      34.62600000      19.35600000
 O      36.05300000      32.25300000      33.67300000
 H      37.01200000      32.44700000      33.69900000
 H      35.69500000      33.09700000      33.95400000
 O      40.52100000      38.25000000      33.94600000
 H      40.42100000      38.70300000      33.04500000
 H      41.42300000      38.60100000      34.15600000
 O      32.89200000      29.63700000      14.77000000
 H      33.37600000      30.04600000      14.01900000
 H      31.94800000      29.83200000      14.55700000
 O      21.10400000      29.15800000      22.93600000
 H      21.61100000      29.70200000      23.48500000
 H      20.22000000      29.22000000      23.41500000
 O      17.25300000      39.17900000      38.41500000
 H      17.57600000      39.16800000      37.47500000
 H      17.93600000      39.77400000      38.78500000
 O      25.90500000      29.76200000      32.04700000
 H      26.78500000      30.08700000      31.85300000
 H      26.05100000      28.77900000      32.08800000
 O      25.34200000      30.33100000      14.71500000
 H      25.76600000      29.43700000      14.80100000
 H      24.46100000      30.03100000      14.41900000
 O      35.00300000      34.02300000      30.43100000
 H      35.04600000      34.96700000      30.60600000
 H      34.62900000      33.68600000      31.25700000
 O      14.67800000      33.46400000      27.50800000
 H      14.91600000      32.55400000      27.40700000
 H      14.90200000      33.83800000      26.57400000
 O      22.30400000      30.37900000      34.65900000
 H      22.74900000      30.16100000      35.54700000
 H      22.48100000      31.32700000      34.66700000
 O      15.51600000      27.81000000      20.98400000
 H      14.70700000      27.77100000      21.52300000
 H      16.06400000      28.47700000      21.52200000
 O      39.64200000      40.63700000      16.19500000
 H      39.20100000      39.96400000      16.72600000
 H      39.02500000      41.34200000      16.22900000
 O      25.18900000      39.33600000      18.23400000
 H      24.52700000      39.54600000      17.53100000
 H      24.61400000      39.25100000      18.99900000
 O      24.62200000      36.02200000      36.13000000
 H      25.12100000      35.43300000      35.61300000
 H      23.92600000      36.38700000      35.51000000
 O      38.92700000      33.10800000      34.96000000
 H      38.48300000      33.62300000      35.65900000
 H      39.15700000      32.33100000      35.45100000
 O      23.56800000      33.34100000      25.18800000
 H      23.13600000      34.04500000      25.67500000
 H      24.46800000      33.35900000      25.61300000
 O      29.22000000      39.90600000      35.12600000
 H      29.82100000      39.53600000      35.78000000
 H      29.53100000      40.85800000      35.10200000
 O      22.39800000      38.49000000      39.57200000
 H      22.95000000      38.87400000      38.79100000
 H      23.06500000      37.75700000      39.76200000
 O      27.56300000      38.07700000      39.83500000
 H      27.66700000      37.91600000      40.75300000
 H      27.88800000      39.01000000      39.71400000
 O      22.79900000      29.48000000      19.97900000
 H      22.15200000      29.73700000      20.62800000
 H      22.90800000      30.29200000      19.50500000
 O      18.12600000      29.15300000      13.71100000
 H      17.17100000      28.91400000      13.81300000
 H      17.99000000      29.53600000      12.79100000
 O      27.59900000      34.73700000      15.48600000
 H      27.24100000      33.85900000      15.33800000
 H      26.78700000      35.34100000      15.41400000
 O      36.93800000      36.03300000      39.15400000
 H      36.99700000      35.94100000      40.13700000
 H      37.49100000      36.80900000      39.01500000
 O      38.32200000      34.76000000      25.22100000
 H      37.96500000      35.72800000      25.26900000
 H      38.88500000      34.85200000      26.01100000
 O      23.63600000      34.34100000      31.75600000
 H      22.99000000      34.75500000      31.21500000
 H      24.43800000      34.32500000      31.21600000
 O      30.04700000      33.38100000      16.01000000
 H      29.23500000      33.91400000      15.69100000
 H      30.75100000      33.86200000      15.61500000
 O      23.34400000      40.39600000      20.68400000
 H      22.76500000      39.65400000      21.07700000
 H      23.97100000      40.45200000      21.42500000
 O      14.64700000      30.70000000      27.64100000
 H      15.21800000      29.93500000      27.35400000
 H      13.77500000      30.36700000      27.31400000
 O      34.28200000      29.27000000      22.96900000
 H      35.08700000      29.57700000      22.51400000
 H      33.60700000      29.57100000      22.31800000
 O      26.17300000      27.76100000      15.94700000
 H      25.20700000      27.50400000      15.78400000
 H      26.35100000      27.12100000      16.71000000
 O      38.35800000      26.91200000      35.30200000
 H      37.43100000      26.53500000      35.31200000
 H      38.04200000      27.84000000      35.33300000
 O      38.99900000      28.15400000      24.60600000
 H      38.38100000      28.87000000      24.65500000
 H      38.43600000      27.43900000      24.24600000
 O      23.65300000      29.80700000      30.62300000
 H      23.93700000      30.56000000      29.98800000
 H      24.51600000      29.65500000      31.00700000
 O      12.95500000      37.15100000      26.44900000
 H      12.50000000      36.93000000      25.57000000
 H      13.90000000      37.07300000      26.23400000
 O      18.10300000      35.20000000      35.86600000
 H      17.26700000      35.49700000      35.45800000
 H      18.35800000      34.55000000      35.11500000
 O      37.85700000      28.36700000      31.22100000
 H      37.00800000      28.18200000      31.66100000
 H      38.37900000      27.57000000      31.55900000
 O      29.51500000      39.21200000      30.65300000
 H      30.39400000      39.17300000      31.08200000
 H      29.17000000      38.26000000      30.79100000
 O      37.94500000      39.13900000      17.94400000
 H      36.99600000      39.40800000      17.92300000
 H      38.19300000      39.73000000      18.73900000
 O      19.48800000      37.75600000      20.12700000
 H      18.97600000      38.31400000      19.41800000
 H      20.01200000      37.17700000      19.54100000
 O      22.27000000      34.47200000      18.68700000
 H      23.20800000      34.67900000      18.74900000
 H      22.33900000      33.46000000      18.61400000
 O      27.95200000      35.66600000      38.79900000
 H      28.56900000      35.45400000      39.58600000
 H      27.48500000      36.48500000      39.21600000
 O      35.84600000      40.35300000      25.66800000
 H      35.48800000      40.63600000      26.57200000
 H      36.72800000      40.80100000      25.69400000
 O      29.44400000      36.23500000      17.20800000
 H      29.79600000      35.49000000      17.66400000
 H      28.82100000      35.85700000      16.61900000
 O      20.45700000      29.07400000      36.52900000
 H      19.46600000      29.00500000      36.52700000
 H      20.61400000      29.18200000      35.62300000
 O      33.82100000      27.99700000      27.71600000
 H      34.51400000      28.10800000      27.00900000
 H      33.92500000      28.84000000      28.14200000
 O      28.54000000      36.63800000      30.60900000
 H      28.23800000      36.85800000      31.54200000
 H      29.30700000      36.10700000      30.78500000
 O      25.77000000      36.62000000      17.51600000
 H      25.66900000      37.59800000      17.60600000
 H      25.71900000      36.53000000      16.57400000
 O      19.53500000      37.29600000      27.98300000
 H      20.46800000      37.30800000      28.24600000
 H      19.53700000      36.62500000      27.30800000
 O      25.87500000      33.06800000      26.33500000
 H      26.43500000      32.28300000      26.27000000
 H      26.52000000      33.68800000      26.79000000
 O      24.99300000      34.28200000      18.27600000
 H      24.86000000      33.80900000      17.38800000
 H      25.35900000      35.09000000      18.01800000
 O      19.01700000      37.94000000      30.56800000
 H      19.13400000      37.56900000      29.68500000
 H      19.71200000      38.56900000      30.63000000
 O      34.81100000      27.56800000      40.53000000
 H      35.07300000      28.46200000      40.81500000
 H      35.73300000      27.21200000      40.27100000
 O      16.29000000      31.56000000      29.51100000
 H      16.72200000      32.25200000      28.97400000
 H      15.79200000      31.12900000      28.73000000
 O      33.63600000      31.21900000      31.95300000
 H      34.16800000      31.82600000      32.47300000
 H      33.01100000      31.77500000      31.52900000
 O      17.91600000      37.85900000      25.55900000
 H      18.51700000      37.13900000      25.91800000
 H      18.15300000      37.80700000      24.64000000
 O      36.33400000      37.23200000      29.88300000
 H      35.92800000      37.57000000      30.72100000
 H      36.91500000      36.53300000      30.29500000
 O      27.97900000      32.33700000      24.13600000
 H      27.95500000      31.38700000      23.97100000
 H      28.77400000      32.36900000      24.79500000
 O      17.50500000      35.23000000      29.95100000
 H      18.00600000      36.01900000      29.66900000
 H      18.19700000      34.53000000      29.87600000
