1599
XYZ file of cluster: frame_3000_216e7.21d3b.c38f1 - created by MolEdiTo
 O      30.03600000       9.64800000      39.01400000
 H      30.50500000      10.38500000      38.61600000
 H      29.58500000      10.08900000      39.76400000
 O      16.17100000      14.73100000      34.37600000
 H      15.25500000      14.62800000      33.95400000
 H      15.84600000      15.04300000      35.24600000
 O      16.87800000      20.66600000      36.76200000
 H      16.36700000      20.28900000      37.55100000
 H      16.99700000      21.60500000      37.04700000
 O      27.50500000      31.15400000      35.86900000
 H      27.11200000      30.35100000      36.27000000
 H      26.91000000      31.30600000      35.12400000
 O      38.42700000      40.52800000      40.29900000
 H      38.03200000      41.37200000      39.88200000
 H      38.55700000      40.87800000      41.22600000
 O      39.63200000      23.64600000      38.48800000
 H      38.71100000      23.96600000      38.49000000
 H      39.90500000      23.88700000      37.58900000
 O      35.42800000      11.13100000      35.77400000
 H      36.05200000      11.86900000      35.56000000
 H      34.62100000      11.53400000      35.41500000
 O      16.33800000      33.43400000      37.89800000
 H      16.77700000      34.14800000      37.38700000
 H      15.38100000      33.63100000      37.66400000
 O       8.59900000      21.64800000      35.48200000
 H       7.64800000      21.62200000      35.30300000
 H       8.84400000      22.56500000      35.07600000
 O      19.21300000      25.95500000      35.04100000
 H      20.08100000      25.58900000      34.81200000
 H      19.30800000      26.84300000      34.64900000
 O      14.46500000      22.83700000      35.98300000
 H      14.64800000      22.94300000      35.06100000
 H      15.25900000      23.18500000      36.44400000
 O      37.86400000      12.85300000      39.86200000
 H      38.30700000      12.07300000      40.33600000
 H      38.62400000      13.43000000      39.83700000
 O      29.86000000      32.16800000      36.66200000
 H      28.91400000      31.90100000      36.29700000
 H      30.10500000      31.19800000      36.84400000
 O      38.42400000      38.17300000      38.92400000
 H      39.30500000      37.82700000      39.12000000
 H      38.53900000      39.09700000      39.22700000
 O      33.31700000      24.27600000      39.19800000
 H      32.75000000      24.13800000      39.99000000
 H      34.20900000      24.34400000      39.59600000
 O      13.03000000      39.67100000      36.11300000
 H      13.43800000      39.64000000      36.99500000
 H      13.83600000      39.62300000      35.55000000
 O      32.16500000       6.41000000      36.36600000
 H      32.03400000       6.47700000      37.38100000
 H      32.90600000       7.10700000      36.30300000
 O      17.16500000       9.07700000      39.99900000
 H      17.49800000       8.21400000      39.71400000
 H      17.93700000       9.69900000      39.82000000
 O      10.87000000      37.55500000      38.63600000
 H      10.90100000      37.92600000      39.48300000
 H      11.43500000      36.81100000      38.64700000
 O       8.39500000      11.14100000      35.49900000
 H       8.55400000      10.33800000      34.92100000
 H       9.29800000      11.36700000      35.76600000
 O      16.66200000      27.59100000      33.73300000
 H      17.46600000      27.94800000      33.38400000
 H      16.61400000      27.91200000      34.65200000
 O      13.05700000      11.27800000      39.71000000
 H      12.63600000      10.39900000      39.66600000
 H      13.29300000      11.36400000      40.65500000
 O      40.00300000      13.46400000      36.30200000
 H      40.36700000      13.64400000      37.20100000
 H      40.79000000      13.25500000      35.84500000
 O      21.13800000      19.80400000      37.84300000
 H      21.59400000      20.26100000      38.58700000
 H      20.17700000      20.01500000      38.13000000
 O       8.83400000      27.39100000      35.61300000
 H       8.28700000      28.10700000      35.18800000
 H       9.65900000      27.55800000      35.07100000
 O      15.53900000      11.72600000      38.88800000
 H      16.03900000      11.01400000      39.40000000
 H      14.64500000      11.56000000      39.20000000
 O      12.39400000      29.92100000      40.27500000
 H      12.73500000      29.07300000      40.51400000
 H      11.71500000      29.78100000      39.63700000
 O      22.43800000      25.64000000      39.70600000
 H      22.37000000      26.40100000      39.04300000
 H      22.06400000      26.08900000      40.45700000
 O      22.42500000       9.73300000      35.32900000
 H      22.57900000       8.78700000      35.17000000
 H      22.84200000       9.82600000      36.21800000
 O      18.62800000      32.14600000      34.60200000
 H      17.91700000      31.47100000      34.61700000
 H      19.03700000      32.01200000      35.47800000
 O      28.73000000      22.27900000      37.00600000
 H      29.66800000      22.21600000      37.22500000
 H      28.54400000      21.39100000      36.73300000
 O       9.81500000      14.64600000      38.53700000
 H       9.15800000      13.91000000      38.46400000
 H       9.96800000      14.92300000      37.62800000
 O      15.11500000      19.63000000      35.20900000
 H      15.77600000      20.10300000      35.82600000
 H      14.50900000      20.35400000      35.05700000
 O      39.67000000      30.41600000      36.06400000
 H      38.80600000      30.30300000      35.69700000
 H      40.23800000      30.11700000      35.33800000
 O      26.94700000      26.93400000      35.35200000
 H      26.75200000      26.02300000      35.58100000
 H      26.13600000      27.14400000      34.82700000
 O      19.67300000      22.30300000      36.60300000
 H      18.92400000      21.87000000      37.02400000
 H      20.17600000      22.62300000      37.37500000
 O      36.96900000      31.55200000      39.39900000
 H      37.59800000      30.84800000      39.04300000
 H      36.63800000      31.96100000      38.59100000
 O      15.75300000      11.42500000      36.23000000
 H      15.74900000      11.57700000      37.20400000
 H      16.62800000      10.95000000      36.14000000
 O      10.98500000      11.21900000      35.91400000
 H      11.54000000      10.76400000      35.26200000
 H      11.56600000      11.97700000      36.13600000
 O      30.25200000       6.93600000      34.56400000
 H      31.01100000       6.64800000      35.16500000
 H      30.48900000       6.43200000      33.77500000
 O      26.06600000      21.44100000      35.20900000
 H      25.69000000      20.57800000      35.37300000
 H      26.37000000      21.33700000      34.34400000
 O      15.22300000      17.51100000      40.15600000
 H      15.91000000      17.08200000      40.71800000
 H      14.95800000      16.78900000      39.58900000
 O      21.16700000      15.05900000      36.31000000
 H      20.78700000      15.85500000      35.82400000
 H      21.72500000      15.50400000      36.95900000
 O      20.21800000      36.50900000      37.06000000
 H      20.81000000      35.76200000      36.81800000
 H      19.40500000      36.16000000      36.61100000
 O      19.13400000      17.15800000      37.05500000
 H      19.94600000      17.61300000      36.81100000
 H      19.20600000      17.16400000      38.06400000
 O       8.79100000      26.39500000      40.10800000
 H       8.98700000      25.47900000      39.84500000
 H       8.19600000      26.57800000      39.28100000
 O      14.42200000      39.30300000      38.47200000
 H      15.38700000      39.52400000      38.61900000
 H      14.55400000      38.35100000      38.69900000
 O      26.15000000      26.22200000      40.40300000
 H      27.00300000      25.74100000      40.69600000
 H      26.40800000      26.46000000      39.54800000
 O      33.21400000      34.99200000      38.51300000
 H      33.33000000      35.77700000      39.08000000
 H      33.03900000      34.31400000      39.22000000
 O      21.13800000      24.54600000      34.00600000
 H      21.44600000      23.86300000      34.63500000
 H      21.93000000      24.78700000      33.48500000
 O      33.80700000      38.98300000      37.57200000
 H      32.92600000      38.97600000      38.08500000
 H      34.43100000      38.83100000      38.30000000
 O      16.54800000      24.31700000      34.42200000
 H      17.13300000      25.09800000      34.61500000
 H      17.24400000      23.64000000      34.25700000
 O      21.11300000      39.07800000      36.70800000
 H      22.10500000      39.13300000      36.91600000
 H      21.03200000      38.09900000      36.98200000
 O      27.85300000      18.48700000      38.87600000
 H      28.75500000      18.71500000      38.86600000
 H      27.44200000      19.13400000      39.47100000
 O      23.64600000      39.71600000      37.65900000
 H      23.91700000      40.61000000      37.38000000
 H      24.46700000      39.26900000      37.35700000
 O      16.12200000       6.98500000      36.70900000
 H      15.37400000       6.35900000      36.63500000
 H      16.82500000       6.49500000      36.21700000
 O      34.06900000      24.16700000      36.57300000
 H      33.34500000      23.91500000      35.92400000
 H      33.59000000      24.10800000      37.43100000
 O      34.20900000      19.41600000      39.76700000
 H      33.32500000      18.91100000      39.86500000
 H      34.82800000      18.71400000      39.99100000
 O      35.61500000      10.95700000      38.79800000
 H      36.30400000      11.67600000      38.96500000
 H      35.74000000      10.76500000      37.91100000
 O      15.37400000      27.22700000      36.73200000
 H      16.07800000      27.10800000      37.36000000
 H      14.91900000      28.02100000      36.95600000
 O      15.07600000       8.79900000      34.35000000
 H      14.25500000       8.28800000      34.51400000
 H      15.39700000       8.82000000      35.27900000
 O      29.23400000      27.32300000      34.04100000
 H      28.93300000      28.23800000      33.84000000
 H      28.44900000      27.03300000      34.53000000
 O      31.77200000      30.43300000      33.92400000
 H      32.26600000      29.95500000      34.69200000
 H      32.43900000      30.30400000      33.24100000
 O      36.77400000      24.26600000      37.84700000
 H      35.88600000      24.10800000      37.52500000
 H      36.69600000      23.84100000      38.74900000
 O      36.85700000      20.34600000      36.77700000
 H      37.25500000      20.49100000      37.67500000
 H      36.34000000      19.55700000      36.95300000
 O      12.36800000      15.86800000      35.26100000
 H      13.02100000      16.57700000      35.47500000
 H      12.68500000      15.11400000      35.73700000
 O      10.99900000      20.95900000      34.97800000
 H      10.08100000      21.36600000      34.97100000
 H      11.44300000      21.79700000      35.11100000
 O      21.90700000      30.70500000      40.16500000
 H      21.50000000      30.42900000      41.03200000
 H      21.81700000      29.80900000      39.72000000
 O      14.32400000       6.89300000      38.86700000
 H      14.96200000       6.20900000      39.19800000
 H      14.82000000       7.27600000      38.10300000
 O      21.36300000      34.02600000      36.78400000
 H      21.77700000      33.87700000      37.66300000
 H      20.71700000      33.33200000      36.71200000
 O      20.73400000      23.85600000      38.75300000
 H      20.07900000      24.54600000      38.46600000
 H      21.48500000      24.46400000      38.97200000
 O       6.38200000      17.53600000      39.27000000
 H       7.19400000      17.72900000      38.74000000
 H       5.87900000      17.02100000      38.63700000
 O      28.40800000      11.12000000      40.42000000
 H      28.02200000      12.00700000      40.25700000
 H      27.78000000      10.77500000      41.03600000
 O      25.28200000      16.66600000      39.89600000
 H      25.51700000      16.23800000      40.71900000
 H      24.59500000      17.28500000      40.23600000
 O      14.68400000      36.49500000      38.89800000
 H      14.56400000      36.14100000      37.99700000
 H      14.03500000      35.92300000      39.35800000
 O      17.25300000      39.17900000      38.41500000
 H      17.57600000      39.16800000      37.47500000
 H      17.93600000      39.77400000      38.78500000
 O      30.55100000      21.20100000      33.83000000
 H      30.66300000      21.49400000      34.75800000
 H      31.16700000      21.73300000      33.34000000
 O      35.78400000      25.74000000      35.24600000
 H      35.29200000      25.85100000      34.38400000
 H      35.17800000      25.06000000      35.67700000
 O      10.38100000      35.01100000      34.98700000
 H      10.48100000      34.10000000      35.18900000
 H      11.24300000      35.25900000      34.64700000
 O      31.68100000      33.26600000      34.52900000
 H      31.78900000      32.28700000      34.27000000
 H      30.91700000      33.17000000      35.16100000
 O      24.01400000      35.93600000      38.85300000
 H      24.14100000      36.28100000      37.93900000
 H      24.30000000      35.00900000      38.73300000
 O       8.87500000      37.22900000      35.08300000
 H       9.24100000      36.28400000      35.16800000
 H       9.61200000      37.73700000      35.46500000
 O      18.38600000      22.31000000      34.23900000
 H      18.87400000      22.54800000      35.05600000
 H      18.75900000      21.42200000      34.08200000
 O      30.40400000      29.32200000      36.84500000
 H      31.12700000      28.96600000      36.31100000
 H      30.27500000      28.62100000      37.53400000
 O      16.54200000      30.63000000      38.64500000
 H      15.59900000      30.50100000      38.82500000
 H      16.62400000      31.57300000      38.79600000
 O       7.11300000      19.39900000      36.68900000
 H       7.69600000      18.93900000      36.03000000
 H       7.76200000      19.91600000      37.24700000
 O      33.28800000      29.38400000      35.80200000
 H      33.86600000      30.10200000      35.92900000
 H      33.82800000      28.67800000      36.23000000
 O      38.22000000      15.90600000      34.67300000
 H      39.10000000      15.88800000      34.21300000
 H      38.11500000      16.89800000      34.69200000
 O      33.19100000      31.12400000      39.15000000
 H      32.93000000      31.80100000      39.82800000
 H      32.62200000      30.41200000      39.51000000
 O       7.95100000      32.76100000      36.68300000
 H       7.94800000      31.87000000      37.17200000
 H       7.10100000      33.13900000      37.14900000
 O       7.76600000      29.81700000      38.55900000
 H       7.52200000      30.22600000      39.42400000
 H       6.89700000      29.31900000      38.41200000
 O      26.14300000      38.24400000      36.56400000
 H      25.71300000      37.40500000      36.26900000
 H      27.08100000      37.83800000      36.60800000
 O      40.45200000      24.76400000      35.70800000
 H      40.93200000      24.77600000      34.85200000
 H      39.77000000      25.40600000      35.61100000
 O      27.87400000       8.04500000      38.52600000
 H      28.11300000       7.96400000      37.56500000
 H      28.59000000       8.63200000      38.79300000
 O      39.12300000      34.57200000      37.72400000
 H      39.67300000      33.78900000      37.98900000
 H      38.53800000      34.70900000      38.46800000
 O      26.32300000      28.91200000      37.18000000
 H      26.72800000      28.16800000      36.71200000
 H      26.85500000      28.91300000      37.99800000
 O       8.17500000      12.50600000      38.40400000
 H       8.46800000      11.96400000      39.15500000
 H       7.53800000      11.95300000      37.97900000
 O      15.43400000      20.12300000      39.12800000
 H      16.06300000      20.47400000      39.79900000
 H      15.27000000      19.19900000      39.58200000
 O      36.72800000       7.16300000      35.03100000
 H      36.58200000       7.19300000      34.11800000
 H      37.58300000       6.69500000      35.10700000
 O      33.47100000      16.42700000      38.13600000
 H      33.32500000      15.79800000      38.86400000
 H      33.04300000      17.26800000      38.48200000
 O      14.82700000      14.91600000      38.86400000
 H      15.43200000      14.17300000      39.05400000
 H      15.36400000      15.36000000      38.15900000
 O      18.93300000      13.89500000      37.93300000
 H      19.79800000      14.30800000      37.86400000
 H      18.99900000      13.19500000      37.27500000
 O       8.21500000       7.17400000      35.51700000
 H       8.10400000       6.44600000      34.81700000
 H       8.58200000       7.90800000      34.92900000
 O      31.81000000       6.94000000      38.94500000
 H      31.33500000       6.57700000      39.71900000
 H      31.49200000       7.81000000      38.98200000
 O      22.30400000      30.37900000      34.65900000
 H      22.74900000      30.16100000      35.54700000
 H      22.48100000      31.32700000      34.66700000
 O      18.57200000      25.41100000      38.06300000
 H      18.11200000      26.11600000      38.50000000
 H      18.69500000      25.76800000      37.15600000
 O      32.98800000      12.09600000      35.20400000
 H      32.53900000      11.86400000      36.03900000
 H      32.23600000      12.53900000      34.80100000
 O      11.77500000       8.02200000      39.59400000
 H      12.54400000       7.65800000      39.16700000
 H      11.05300000       7.59200000      39.18000000
 O      40.72600000       9.54400000      36.54000000
 H      40.45000000       8.63800000      36.23200000
 H      40.27400000      10.10100000      35.86000000
 O      38.96800000      26.07700000      40.45300000
 H      38.87000000      25.78800000      41.42400000
 H      39.78700000      25.58200000      40.25400000
 O      29.03200000      22.29000000      39.62900000
 H      28.64700000      22.52400000      38.77300000
 H      28.42700000      21.57300000      39.92700000
 O      37.34400000      13.22000000      35.52600000
 H      38.25200000      13.45900000      35.85500000
 H      37.18000000      14.09100000      35.02700000
 O      39.94000000      28.89900000      40.46700000
 H      39.49600000      28.02400000      40.52300000
 H      39.43100000      29.22500000      39.68100000
 O      18.59700000       6.77500000      39.10300000
 H      19.22400000       7.02100000      39.81700000
 H      19.20800000       6.37100000      38.45200000
 O      24.62200000      36.02200000      36.13000000
 H      25.12100000      35.43300000      35.61300000
 H      23.92600000      36.38700000      35.51000000
 O      22.72500000      19.89800000      35.58800000
 H      22.01000000      19.73400000      36.20700000
 H      23.47400000      19.92900000      36.21000000
 O      38.92700000      33.10800000      34.96000000
 H      38.48300000      33.62300000      35.65900000
 H      39.15700000      32.33100000      35.45100000
 O      29.43000000      14.18900000      36.68700000
 H      28.62600000      14.66600000      36.98100000
 H      29.47800000      14.61500000      35.76700000
 O      34.97700000      27.57900000      37.00000000
 H      35.17800000      26.88500000      36.32300000
 H      35.70000000      27.38800000      37.62400000
 O      25.46500000      18.87400000      36.90600000
 H      26.39000000      18.60700000      37.30800000
 H      25.33700000      19.67900000      37.49600000
 O      29.22000000      39.90600000      35.12600000
 H      29.82100000      39.53600000      35.78000000
 H      29.53100000      40.85800000      35.10200000
 O      11.10800000      23.84600000      35.56100000
 H      11.06000000      24.49000000      34.81500000
 H      11.58200000      24.44700000      36.19400000
 O      35.15100000      34.75200000      34.55900000
 H      35.37900000      34.62600000      35.50000000
 H      34.77900000      35.64400000      34.59600000
 O      35.38200000      17.89600000      36.52000000
 H      34.58600000      17.44700000      36.94300000
 H      34.92400000      18.42700000      35.83600000
 O      19.56800000      10.72900000      38.98800000
 H      20.50700000      10.71000000      38.94200000
 H      19.28600000      11.10900000      38.18000000
 O      22.39800000      38.49000000      39.57200000
 H      22.95000000      38.87400000      38.79100000
 H      23.06500000      37.75700000      39.76200000
 O      27.56300000      38.07700000      39.83500000
 H      27.66700000      37.91600000      40.75300000
 H      27.88800000      39.01000000      39.71400000
 O      17.75700000       9.38900000      36.77700000
 H      18.01700000       9.03000000      35.91200000
 H      17.38800000       8.60300000      37.22000000
 O      25.28600000      31.43000000      34.24000000
 H      25.22900000      30.79800000      33.51800000
 H      24.43100000      31.50800000      34.66000000
 O      30.16700000      11.23100000      33.64500000
 H      29.87200000      11.32400000      34.53100000
 H      29.44600000      10.74900000      33.18100000
 O      38.75500000      19.15300000      35.08400000
 H      38.30200000      19.53800000      35.84300000
 H      39.38900000      18.52200000      35.47600000
 O      12.02600000      28.06000000      37.55400000
 H      11.29300000      28.36200000      38.18700000
 H      11.75900000      27.15000000      37.39800000
 O      39.76300000      21.38700000      39.93100000
 H      39.71300000      22.30000000      39.54600000
 H      39.14300000      20.83300000      39.44300000
 O      35.61100000      34.61800000      37.15900000
 H      36.20500000      35.26100000      37.57600000
 H      34.87200000      34.52600000      37.75700000
 O      36.87200000      15.36200000      37.55800000
 H      36.63600000      14.68100000      36.85300000
 H      36.95300000      16.11500000      36.94000000
 O      19.21000000      17.17300000      39.63200000
 H      18.61500000      16.91700000      40.32700000
 H      20.05400000      16.85400000      39.98700000
 O      32.24900000      28.52900000      40.09100000
 H      33.17500000      28.39300000      40.31600000
 H      32.18900000      27.95100000      39.30100000
 O      26.08300000      33.83600000      37.99700000
 H      26.23900000      33.81200000      37.06100000
 H      26.77000000      34.44000000      38.31300000
 O      32.50800000      35.50500000      36.03400000
 H      32.39700000      34.60500000      35.69100000
 H      32.69500000      35.31700000      36.98200000
 O      40.55700000      17.78000000      36.77500000
 H      40.03600000      17.37000000      37.50900000
 H      41.43300000      17.43900000      36.98700000
 O       9.29100000      18.42000000      35.13000000
 H       9.83200000      18.21800000      34.33300000
 H       9.88800000      19.05600000      35.57300000
 O      10.14600000      28.64500000      39.23500000
 H       9.73800000      28.03700000      39.90700000
 H       9.26000000      29.09500000      38.91200000
 O      16.69000000      23.09400000      37.98300000
 H      17.42200000      23.73200000      37.93000000
 H      16.14400000      23.39000000      38.72400000
 O      12.25900000      25.01800000      37.68900000
 H      12.65400000      24.54800000      38.52000000
 H      13.09200000      25.44000000      37.40500000
 O      37.95400000      19.45700000      39.13900000
 H      37.39900000      18.96800000      39.82000000
 H      38.55200000      18.66600000      38.92500000
 O      24.89900000      12.08300000      40.50000000
 H      23.97600000      12.14900000      40.69900000
 H      24.87900000      12.37200000      39.52700000
 O      36.93800000      36.03300000      39.15400000
 H      36.99700000      35.94100000      40.13700000
 H      37.49100000      36.80900000      39.01500000
 O      11.64500000      30.75100000      35.60000000
 H      12.26700000      30.66600000      34.83400000
 H      11.17600000      29.85500000      35.46000000
 O      19.63500000      31.78600000      36.95600000
 H      19.08100000      31.65500000      37.73800000
 H      20.06500000      30.93700000      36.87800000
 O      32.83400000      15.58300000      35.54900000
 H      33.13500000      15.91500000      36.42600000
 H      33.30400000      14.72500000      35.53900000
 O      22.25100000      21.58900000      39.42100000
 H      23.15100000      21.96400000      39.50900000
 H      21.67800000      22.26400000      39.14900000
 O      28.85000000       8.55400000      36.07500000
 H      29.41500000       7.85800000      35.58900000
 H      27.99500000       8.30900000      35.64200000
 O      26.02200000      10.84200000      35.64900000
 H      25.66300000      11.32300000      34.90600000
 H      26.97500000      10.90700000      35.53400000
 O      18.92000000      19.86600000      39.27500000
 H      18.26500000      20.07900000      39.92600000
 H      18.81500000      18.88800000      39.20500000
 O      25.89900000       9.07100000      39.67500000
 H      26.71700000       8.71000000      39.29900000
 H      25.77500000       8.50500000      40.48600000
 O      38.86400000      16.91100000      38.48400000
 H      38.19800000      16.32800000      38.08000000
 H      39.23100000      16.29700000      39.14200000
 O      12.29500000      34.96500000      39.81600000
 H      12.19400000      34.64200000      40.73900000
 H      11.60000000      34.50000000      39.36200000
 O      36.86000000      30.01400000      35.41400000
 H      36.56800000      30.44300000      34.55700000
 H      36.21900000      30.40100000      36.05900000
 O      23.44100000      25.30300000      36.36100000
 H      23.05700000      24.41300000      36.06500000
 H      24.03100000      24.92300000      37.06000000
 O      28.33600000      36.51300000      36.42100000
 H      29.28200000      36.78700000      36.43300000
 H      28.30700000      36.04800000      37.27100000
 O      22.01000000      17.35700000      38.35300000
 H      22.55900000      17.64300000      39.10400000
 H      21.75900000      18.21400000      38.04200000
 O       7.74100000      13.90800000      35.25100000
 H       7.80000000      13.05000000      35.64900000
 H       8.49800000      14.32800000      35.74400000
 O      14.19500000      31.86500000      39.91600000
 H      13.39900000      31.31700000      39.87500000
 H      14.06500000      32.39500000      39.08900000
 O      29.99200000      25.23600000      36.91200000
 H      30.61200000      25.69100000      37.41400000
 H      30.53700000      24.74200000      36.28100000
 O      24.01700000       9.97500000      37.72000000
 H      24.79000000       9.82000000      38.20900000
 H      24.32600000      10.34600000      36.84300000
 O       6.36700000       7.66500000      37.61100000
 H       6.82200000       7.54300000      36.76800000
 H       7.01200000       7.11900000      38.20200000
 O      14.58500000      17.10400000      35.84800000
 H      14.64900000      18.05000000      35.49000000
 H      15.32700000      17.09200000      36.49400000
 O      25.86400000      34.05200000      34.77100000
 H      26.83000000      34.20500000      34.51500000
 H      25.69400000      33.17900000      34.40900000
 O      40.36300000      37.25200000      36.92600000
 H      40.04800000      36.34600000      37.05000000
 H      39.82500000      37.46200000      36.11700000
 O       8.15600000      33.62400000      34.06700000
 H       8.27300000      33.44400000      35.04300000
 H       8.90100000      34.29600000      33.99300000
 O      24.83400000      24.16400000      38.38500000
 H      25.81900000      24.38600000      38.45400000
 H      24.50600000      24.48800000      39.19000000
 O      38.35800000      26.91200000      35.30200000
 H      37.43100000      26.53500000      35.31200000
 H      38.04200000      27.84000000      35.33300000
 O      18.62700000      19.42300000      34.87000000
 H      18.08000000      19.84600000      35.55600000
 H      17.96900000      18.90400000      34.39300000
 O      40.30300000       8.42200000      39.76500000
 H      39.84700000       7.60500000      39.43800000
 H      40.29800000       9.01300000      39.02400000
 O      35.13700000      31.41700000      37.26000000
 H      34.52900000      31.18500000      37.99600000
 H      34.82900000      32.25800000      36.98000000
 O       7.00100000      10.32300000      37.59600000
 H       7.07600000       9.35400000      37.54800000
 H       7.54500000      10.68000000      36.94800000
 O      25.11700000      21.20300000      38.06600000
 H      25.07200000      22.06600000      37.58400000
 H      25.11900000      21.48700000      38.96200000
 O      14.19300000      25.59400000      34.76300000
 H      14.39800000      26.13500000      35.52500000
 H      14.92800000      24.96800000      34.71800000
 O      22.05100000      28.12100000      38.43900000
 H      21.17400000      28.24700000      37.92700000
 H      22.66800000      28.43900000      37.70500000
 O       7.39600000      26.43200000      37.85400000
 H       8.07000000      26.68700000      37.19500000
 H       7.19500000      25.52800000      37.44300000
 O       7.09100000      21.65800000      39.53600000
 H       7.82900000      21.04400000      39.36400000
 H       6.36600000      21.07900000      39.35800000
 O      32.22200000      23.75700000      34.85800000
 H      32.50200000      23.45500000      33.95700000
 H      32.03100000      24.72100000      34.59300000
 O      18.10300000      35.20000000      35.86600000
 H      17.26700000      35.49700000      35.45800000
 H      18.35800000      34.55000000      35.11500000
 O      33.49000000       8.71400000      35.80800000
 H      34.00400000       9.56900000      35.68300000
 H      32.93300000       8.69300000      35.02800000
 O      22.35500000       6.95200000      34.87600000
 H      22.30400000       6.92700000      33.95800000
 H      22.27700000       6.03900000      35.13300000
 O      14.30100000      29.55000000      37.13100000
 H      13.95700000      30.44500000      37.04700000
 H      13.52100000      29.04500000      37.20700000
 O      13.53700000      36.82900000      35.26200000
 H      13.16800000      37.54600000      35.82100000
 H      13.24300000      37.06500000      34.37800000
 O      22.71100000      32.97000000      38.92100000
 H      23.66800000      32.77700000      38.98900000
 H      22.30200000      32.14200000      39.15400000
 O      28.47800000      34.41400000      34.16900000
 H      28.92700000      35.12800000      34.66000000
 H      28.98300000      34.36700000      33.31200000
 O      23.68300000      28.79500000      36.59100000
 H      24.60800000      28.96000000      36.91600000
 H      23.90000000      28.08000000      35.89600000
 O      35.81000000      14.78200000      39.88900000
 H      36.09400000      14.87900000      38.95200000
 H      36.40000000      14.05000000      40.14900000
 O      27.69200000      31.56000000      39.44200000
 H      28.49400000      31.90400000      39.81300000
 H      27.47800000      32.14900000      38.69800000
 O      38.48800000      29.39000000      38.18700000
 H      38.99400000      29.67600000      37.44600000
 H      37.69000000      28.96700000      37.77900000
 O      19.73000000      36.39800000      39.81200000
 H      19.92600000      36.31900000      38.83600000
 H      18.81200000      36.01500000      39.82600000
 O      16.67800000      15.95800000      37.13300000
 H      17.37100000      16.60800000      36.83800000
 H      17.17800000      15.14600000      37.36000000
 O      20.37000000      12.81200000      34.49500000
 H      19.76600000      13.34500000      33.90700000
 H      20.66000000      13.57900000      35.08200000
 O      22.23200000       9.18900000      39.95500000
 H      22.93600000       9.25800000      39.29200000
 H      22.77400000       8.87900000      40.72700000
 O      14.28400000      34.61300000      36.79700000
 H      13.56600000      33.90100000      36.95100000
 H      14.07000000      34.90800000      35.94400000
 O      17.56700000      34.89200000      39.93500000
 H      17.13500000      34.41100000      39.20100000
 H      17.95000000      34.10800000      40.38600000
 O      22.97900000      32.88500000      34.83000000
 H      22.44600000      33.50800000      35.43000000
 H      23.55700000      33.56400000      34.45700000
 O      32.32000000      27.19800000      37.57500000
 H      32.20100000      26.82700000      36.67300000
 H      33.28500000      27.22700000      37.64900000
 O      27.44700000      13.55900000      39.68100000
 H      26.98900000      13.03000000      39.04600000
 H      27.50800000      14.41300000      39.13000000
 O      27.95200000      35.66600000      38.79900000
 H      28.56900000      35.45400000      39.58600000
 H      27.48500000      36.48500000      39.21600000
 O      37.09700000      26.76500000      38.53700000
 H      37.91900000      26.71200000      39.08200000
 H      37.07400000      25.81300000      38.23800000
 O      24.21900000      15.77000000      37.60500000
 H      24.52900000      15.93600000      38.54400000
 H      23.63200000      16.54100000      37.55200000
 O       9.30800000      19.82200000      38.23700000
 H       9.90100000      20.40800000      37.76800000
 H       9.70700000      19.73500000      39.08000000
 O      25.64500000      18.41200000      33.79600000
 H      25.69700000      17.53300000      33.39500000
 H      25.46700000      18.20000000      34.71300000
 O      10.71200000      22.54900000      37.93700000
 H      11.53100000      22.03300000      37.76200000
 H      10.53300000      22.87800000      37.05000000
 O      28.73600000      11.37300000      35.97300000
 H      28.95700000      10.47400000      36.28700000
 H      29.32100000      11.90800000      36.54000000
 O      12.71500000      13.24500000      37.05600000
 H      13.69600000      13.19700000      37.13700000
 H      12.48200000      13.47200000      37.97100000
 O      31.85600000      26.58800000      34.61100000
 H      30.92700000      26.87800000      34.49600000
 H      32.27900000      27.04500000      33.83600000
 O      27.48500000      25.03600000      38.45300000
 H      27.15800000      24.64600000      37.61200000
 H      28.38100000      25.29900000      38.20400000
 O       9.83700000      15.73500000      36.09300000
 H       9.53900000      16.60500000      35.74100000
 H      10.73700000      15.60000000      35.64400000
 O      31.26800000      39.20100000      38.76200000
 H      31.10900000      39.17000000      39.74100000
 H      30.31500000      39.46500000      38.51000000
 O      34.76200000      21.27700000      35.22400000
 H      33.92100000      20.95000000      35.61900000
 H      35.41400000      21.13300000      35.94600000
 O      20.45700000      29.07400000      36.52900000
 H      19.46600000      29.00500000      36.52700000
 H      20.61400000      29.18200000      35.62300000
 O      13.58000000      23.28800000      39.50200000
 H      12.91500000      23.09800000      40.12800000
 H      13.45900000      22.66400000      38.81400000
 O      18.39000000       6.39500000      35.12400000
 H      18.29800000       7.36700000      34.80600000
 H      18.93700000       6.09300000      34.39100000
 O      12.62000000      32.42300000      37.46400000
 H      12.20800000      31.77400000      36.83100000
 H      11.80200000      32.91700000      37.75600000
 O      31.59800000      19.18900000      36.75700000
 H      31.31600000      18.45300000      37.36000000
 H      31.33600000      18.85000000      35.89900000
 O      35.91100000       7.55800000      40.11700000
 H      35.13600000       7.00500000      40.16400000
 H      35.98900000       7.71800000      39.18300000
 O      13.76700000      11.47200000      34.04300000
 H      14.12000000      10.60100000      33.84900000
 H      14.23800000      11.62500000      34.90500000
 O      31.27600000      13.34400000      40.22500000
 H      32.01300000      14.00100000      40.31400000
 H      31.89800000      12.51100000      40.23800000
 O      31.35500000      21.78700000      37.73800000
 H      31.62300000      20.91300000      37.46400000
 H      32.12400000      22.19100000      38.10900000
 O      13.02900000      21.26800000      37.57400000
 H      13.43400000      21.85700000      36.93900000
 H      13.79600000      21.11300000      38.12300000
 O      22.55200000      13.31800000      38.72900000
 H      23.15500000      13.98400000      38.43300000
 H      21.77600000      13.44200000      38.07400000
 O      25.71600000      13.01800000      37.52500000
 H      25.12200000      13.66400000      37.17400000
 H      25.81500000      12.38900000      36.82500000
 O      27.55700000      16.07000000      37.61400000
 H      26.60400000      15.99000000      37.83200000
 H      27.79000000      16.88100000      38.15200000
 O      39.06900000      10.93600000      34.48000000
 H      39.08400000      11.81200000      34.96400000
 H      38.30300000      11.10100000      33.90500000
 O      18.99500000      11.73000000      36.47500000
 H      19.54500000      11.95000000      35.69100000
 H      18.63500000      10.87000000      36.18700000
 O      28.58700000      28.97300000      39.41700000
 H      28.27300000      29.90100000      39.45700000
 H      29.52000000      29.06200000      39.65600000
 O      17.83600000      29.34300000      36.57000000
 H      17.17800000      29.56400000      35.83700000
 H      17.19600000      29.69700000      37.30500000
 O      28.52000000      19.48200000      35.68000000
 H      28.20900000      19.79600000      34.76500000
 H      28.52700000      18.51900000      35.52000000
 O      12.16400000      18.56000000      38.52100000
 H      12.82900000      18.88400000      39.09600000
 H      12.18600000      19.24100000      37.80000000
 O      17.28100000      13.88600000      40.29400000
 H      17.54600000      13.01800000      40.74800000
 H      17.81500000      13.72600000      39.44700000
 O      34.81100000      27.56800000      40.53000000
 H      35.07300000      28.46200000      40.81500000
 H      35.73300000      27.21200000      40.27100000
 O      26.75800000      24.22500000      35.90800000
 H      26.25600000      23.40900000      35.58200000
 H      27.66000000      23.76700000      36.15900000
 O      35.76300000       7.92900000      37.29300000
 H      36.20500000       7.79600000      36.39900000
 H      34.90300000       8.19500000      36.99800000
 O      30.68100000      37.64500000      36.50700000
 H      31.26800000      37.08000000      35.92000000
 H      31.40200000      38.20900000      36.97700000
 O       6.35800000      37.29900000      36.30100000
 H       7.26200000      37.46400000      36.01900000
 H       6.05200000      36.63000000      35.60400000
 O      28.84300000      40.05500000      38.30000000
 H      28.23100000      39.56100000      37.72100000
 H      28.62200000      40.97100000      38.00300000
 O      18.47600000      39.53900000      35.77300000
 H      19.23800000      39.24600000      36.21400000
 H      18.87900000      39.99400000      34.97300000
 O      34.30000000      37.41500000      35.39600000
 H      33.44300000      36.96300000      35.45700000
 H      34.27600000      37.99700000      36.20400000
 O      10.44400000      33.47000000      38.24700000
 H       9.74300000      33.61200000      37.66000000
 H      10.04600000      32.86200000      38.92300000
 O      33.35600000      11.49900000      40.40500000
 H      33.16800000      10.60800000      40.83200000
 H      34.03400000      11.19600000      39.76400000
 O      24.18400000      27.01800000      34.50400000
 H      23.60800000      26.72100000      33.83000000
 H      24.00000000      26.37100000      35.25700000
 O      16.11500000      36.35700000      34.63900000
 H      16.11300000      36.79800000      33.78500000
 H      15.23000000      36.58400000      35.04500000
 O      10.41700000      39.03700000      36.56000000
 H      10.58600000      38.48600000      37.36600000
 H      11.37600000      39.15400000      36.31700000
 O      26.49400000       8.15300000      34.51300000
 H      25.98900000       8.31000000      33.70300000
 H      26.25800000       8.92900000      35.05100000
 O      30.48000000      17.04200000      38.09600000
 H      30.08600000      16.20000000      37.92300000
 H      30.18500000      17.15300000      39.05000000
 O      39.59200000      14.88700000      40.35800000
 H      39.50500000      14.85000000      41.31700000
 H      40.30600000      14.29100000      40.13100000
 O      10.91900000      16.74900000      40.19900000
 H      11.41200000      17.23800000      39.52000000
 H      10.41500000      16.08500000      39.53900000
 O      37.06700000      37.88400000      35.57100000
 H      37.33200000      37.52100000      36.42500000
 H      36.09200000      37.69100000      35.56300000
 O      17.24000000      27.57100000      39.00000000
 H      17.39000000      28.34100000      38.47700000
 H      16.99900000      27.95400000      39.89100000
 O      15.47000000      39.57000000      35.38300000
 H      15.49800000      39.33600000      34.39300000
 H      16.40200000      39.27900000      35.59500000
 O      31.16200000      12.32100000      37.52700000
 H      30.65500000      13.12800000      37.15200000
 H      31.38700000      12.75200000      38.38900000
 O      22.29700000      22.38600000      35.60300000
 H      22.49700000      21.40400000      35.50000000
 H      21.34100000      22.39200000      35.69300000
 O      36.14300000      23.36300000      40.20700000
 H      35.41400000      22.83000000      40.43800000
 H      36.87600000      23.04300000      40.78500000
 O      36.29800000      17.71000000      40.42800000
 H      36.06600000      16.79400000      40.05300000
 H      36.76600000      17.36400000      41.24900000
 O      12.71800000       7.39200000      34.22700000
 H      11.81300000       7.44300000      34.63800000
 H      12.98100000       6.49500000      34.61800000
 O       9.28600000      23.71900000      39.97200000
 H       9.75400000      23.32400000      39.20500000
 H       8.88000000      22.84300000      40.28000000
 O      30.03400000      32.85800000      39.45000000
 H      30.19800000      32.76300000      38.50100000
 H      30.24600000      33.81000000      39.63500000
 O       7.94900000      40.09100000      40.45400000
 H       7.38200000      39.61100000      39.76900000
 H       8.41300000      39.28700000      40.77500000
 O      17.39900000      12.63000000      47.51500000
 H      17.94800000      11.82800000      47.22900000
 H      17.36900000      12.41400000      48.46700000
 O      27.88100000      30.12200000      48.30500000
 H      27.01000000      30.34600000      48.65700000
 H      27.78200000      29.12800000      48.36300000
 O      22.65200000      25.32100000      44.84000000
 H      22.74900000      24.43900000      45.24400000
 H      21.74200000      25.56100000      45.16600000
 O      15.48500000      31.50800000      48.44400000
 H      16.09700000      32.02400000      47.84900000
 H      14.73400000      31.48600000      47.81300000
 O      39.80600000       9.70200000      44.89100000
 H      39.63100000       9.32200000      45.76500000
 H      40.13900000       8.91000000      44.44800000
 O       8.42700000       8.47200000      47.88400000
 H       8.36200000       7.51800000      48.07700000
 H       8.56400000       8.88700000      48.78800000
 O      21.53400000      12.31900000      47.92200000
 H      22.07400000      12.09400000      48.76600000
 H      20.83000000      12.83600000      48.41000000
 O      25.67500000      36.19200000      43.02500000
 H      25.51700000      36.44400000      42.08100000
 H      26.57400000      35.88500000      43.03200000
 O      20.64900000       9.63400000      44.36000000
 H      21.15700000       9.07200000      45.04000000
 H      21.39700000       9.82300000      43.78500000
 O       9.23500000      31.81200000      47.14000000
 H       8.87000000      30.93200000      47.43700000
 H       9.38200000      31.55800000      46.18600000
 O      17.41200000      16.36600000      43.10300000
 H      17.08100000      16.21700000      43.99100000
 H      17.34800000      15.38700000      42.73900000
 O      18.31200000      29.20300000      47.12100000
 H      18.76200000      28.61000000      47.75500000
 H      18.95800000      29.95400000      47.06900000
 O      13.78200000      12.05800000      43.78900000
 H      13.21200000      11.83600000      44.56900000
 H      14.61500000      11.62200000      43.93900000
 O       6.21300000      18.89600000      45.68400000
 H       6.10800000      18.04500000      45.26200000
 H       7.00500000      18.79100000      46.22600000
 O      20.30900000      21.23400000      47.95200000
 H      19.97100000      20.51100000      47.36700000
 H      19.72800000      21.21700000      48.70500000
 O      26.68900000      25.39600000      47.39200000
 H      26.07400000      25.70200000      46.64500000
 H      27.08500000      26.26500000      47.59100000
 O      31.65800000      32.98700000      46.13300000
 H      30.83900000      32.63200000      45.71200000
 H      31.26800000      33.12900000      47.08800000
 O       8.63000000      39.50800000      46.45200000
 H       9.17900000      39.98300000      45.81500000
 H       7.75200000      39.91600000      46.28900000
 O       8.71400000      22.65200000      45.67700000
 H       8.12300000      23.45200000      45.72700000
 H       8.09300000      22.06700000      45.13800000
 O      36.44100000      11.40500000      44.28000000
 H      36.74200000      10.54800000      43.91300000
 H      37.20400000      11.95000000      44.06400000
 O      28.34500000      35.33700000      42.99600000
 H      28.24100000      34.46100000      43.40100000
 H      29.27900000      35.55200000      43.27900000
 O      14.38700000      13.60900000      47.25700000
 H      15.28400000      13.32100000      47.14000000
 H      13.90600000      13.04000000      46.58200000
 O      31.16600000      40.59400000      44.91300000
 H      30.92000000      40.74100000      45.85300000
 H      31.25600000      41.53600000      44.65000000
 O      10.86800000      18.49400000      46.12500000
 H      11.85200000      18.56800000      46.17600000
 H      10.72900000      18.40200000      45.15900000
 O       7.44300000      20.84400000      44.16000000
 H       6.64200000      21.30500000      43.81700000
 H       6.99600000      20.11500000      44.67400000
 O      33.14200000      31.51600000      44.27200000
 H      32.61700000      32.09600000      44.95200000
 H      33.19800000      30.69200000      44.83700000
 O      28.35100000      21.12400000      44.87500000
 H      27.68200000      21.83900000      44.88300000
 H      29.05900000      21.67700000      45.29400000
 O      23.39200000      17.83200000      47.13700000
 H      24.06800000      18.20100000      47.77800000
 H      22.98400000      18.68800000      46.93200000
 O      30.66300000      19.99900000      44.02100000
 H      31.38800000      20.05600000      44.71300000
 H      29.88100000      20.25800000      44.55000000
 O      36.11000000      24.98300000      47.06300000
 H      36.30900000      25.06700000      46.12300000
 H      37.00100000      24.84400000      47.42800000
 O      33.92500000      36.94800000      42.04000000
 H      34.14400000      36.53600000      42.90100000
 H      34.34000000      37.81400000      42.09600000
 O       7.65900000      27.93000000      45.27400000
 H       7.00500000      28.42200000      44.72000000
 H       8.33100000      27.79100000      44.57100000
 O      24.87800000      26.58700000      45.77900000
 H      24.05100000      26.41900000      45.38500000
 H      25.07200000      27.48800000      45.44000000
 O      36.19200000      20.90900000      45.34300000
 H      36.10900000      19.99700000      44.91000000
 H      36.91400000      20.68900000      45.96400000
 O      20.59100000      26.89500000      45.66200000
 H      20.85600000      27.83500000      45.73300000
 H      19.76100000      26.91300000      46.21300000
 O       8.12200000      14.61600000      47.14600000
 H       7.38500000      13.92900000      47.19600000
 H       8.81300000      14.19400000      47.72400000
 O      10.11500000       9.70200000      46.06700000
 H      10.87900000       9.14000000      46.10000000
 H       9.60800000       9.37100000      46.84500000
 O      33.41900000      33.47500000      42.28700000
 H      33.37800000      32.79100000      42.93600000
 H      33.90000000      34.14400000      42.82000000
 O      18.99900000      36.94000000      44.35600000
 H      19.73200000      37.47400000      43.90400000
 H      18.26200000      37.19000000      43.73900000
 O      24.13300000       9.60400000      47.33000000
 H      24.68100000       9.22500000      46.59900000
 H      23.35600000       9.06800000      47.23200000
 O      21.74600000      16.07100000      48.22500000
 H      22.27400000      15.21400000      48.19100000
 H      22.51500000      16.70600000      48.17600000
 O      36.75300000       7.60400000      45.63700000
 H      37.55200000       7.60200000      46.22100000
 H      37.13100000       8.15000000      44.90300000
 O      29.88600000      25.10400000      47.19000000
 H      28.92700000      24.94500000      47.14000000
 H      29.99100000      25.98000000      46.80500000
 O       9.33400000      32.48900000      41.99500000
 H       8.49500000      32.01500000      41.93200000
 H       9.68100000      32.24900000      42.85700000
 O      25.99200000       9.01300000      45.74500000
 H      26.95200000       8.84300000      45.49500000
 H      25.88500000       9.86400000      45.23700000
 O      34.10600000       7.96200000      45.06200000
 H      33.51200000       7.65900000      45.78100000
 H      35.00000000       7.84600000      45.43100000
 O      30.34800000      31.21700000      43.02600000
 H      30.13900000      31.90400000      42.30100000
 H      29.80900000      31.60500000      43.77000000
 O      14.01000000      40.60700000      46.28900000
 H      13.60000000      40.85200000      45.44800000
 H      14.62600000      39.94400000      46.06800000
 O      28.21500000      37.86400000      46.44600000
 H      27.62000000      37.17700000      46.82500000
 H      29.09100000      37.57700000      46.80400000
 O      24.06200000      21.28800000      44.69900000
 H      23.47800000      21.13600000      45.44800000
 H      24.70400000      20.55600000      44.81000000
 O      38.54000000      32.75200000      47.07100000
 H      37.78700000      32.82700000      46.36500000
 H      39.12600000      33.46900000      46.66300000
 O      15.04900000      22.37600000      43.68000000
 H      14.80100000      22.92600000      44.39400000
 H      14.21300000      22.04800000      43.32000000
 O      21.96800000      32.92000000      45.52800000
 H      21.54900000      32.90800000      44.58600000
 H      22.74300000      33.44800000      45.36100000
 O      11.87300000      31.50900000      44.06300000
 H      12.30100000      30.95400000      43.37100000
 H      12.55000000      32.22000000      44.16300000
 O      29.97300000      13.13400000      43.95500000
 H      30.42200000      13.11100000      43.06200000
 H      30.58800000      13.73700000      44.42200000
 O       8.29400000       8.85000000      43.64300000
 H       9.19400000       9.17500000      43.41900000
 H       7.97300000       9.59600000      44.18200000
 O      36.95600000       9.74400000      48.98400000
 H      36.65900000      10.21400000      48.12500000
 H      37.32100000      10.53600000      49.40400000
 O      21.26600000      16.63300000      42.92500000
 H      21.15800000      16.82500000      43.91000000
 H      21.84700000      17.35900000      42.67800000
 O       8.64900000      20.37100000      47.10200000
 H       8.51700000      21.06600000      46.42400000
 H       9.36000000      19.85500000      46.68000000
 O      15.07600000      16.95300000      46.81200000
 H      15.75400000      16.47100000      47.29600000
 H      15.23200000      16.62800000      45.89500000
 O       8.42500000       6.10400000      44.08700000
 H       8.35200000       7.06800000      43.84600000
 H       8.71800000       5.75500000      43.20700000
 O      21.13500000      33.07200000      43.00300000
 H      21.63200000      32.58500000      42.23400000
 H      21.45800000      33.98300000      42.75300000
 O      13.09900000      10.82900000      46.10800000
 H      13.11200000       9.98400000      45.58000000
 H      12.43000000      10.58200000      46.74700000
 O      22.82800000      29.62000000      47.79900000
 H      22.63100000      28.80400000      48.28600000
 H      23.57600000      29.29000000      47.20300000
 O      30.81600000      22.40000000      46.00000000
 H      31.72900000      22.25000000      45.98200000
 H      30.81600000      23.38100000      45.87100000
 O      26.20200000      11.23000000      44.33900000
 H      26.66700000      12.06800000      44.49200000
 H      25.87700000      11.37700000      43.42300000
 O      13.75300000      14.70700000      42.88600000
 H      13.98500000      13.67800000      42.94500000
 H      14.05300000      14.82300000      41.94800000
 O      39.14700000      11.44800000      43.11300000
 H      39.09900000      10.84200000      43.92400000
 H      40.12500000      11.60800000      43.18100000
 O      13.18500000      16.94100000      49.08000000
 H      13.64800000      16.73100000      48.20500000
 H      13.87100000      17.61800000      49.39800000
 O      28.36800000      24.47800000      42.81600000
 H      29.25600000      24.40400000      43.25900000
 H      28.50700000      23.97100000      42.02000000
 O      34.42700000      13.02600000      43.91100000
 H      33.92800000      12.72400000      43.11200000
 H      35.26000000      12.54100000      43.77900000
 O      14.96300000       8.25400000      42.63300000
 H      15.75900000       8.77300000      42.35100000
 H      14.69000000       7.97300000      41.70700000
 O       9.47100000      30.89100000      44.46500000
 H      10.46300000      31.00300000      44.41400000
 H       9.34200000      30.30400000      43.73000000
 O      16.27000000      34.65700000      44.21900000
 H      17.06700000      34.18100000      44.59900000
 H      16.58900000      34.91000000      43.36400000
 O      33.27700000       9.00300000      42.73900000
 H      33.53000000       8.58200000      43.61100000
 H      34.03900000       8.68900000      42.20900000
 O      16.33700000      20.43000000      45.53600000
 H      15.66100000      20.87000000      44.96200000
 H      17.00600000      21.13400000      45.53700000
 O      34.10600000      22.57400000      45.17600000
 H      34.90400000      21.96200000      45.39300000
 H      34.09700000      22.39500000      44.21700000
 O      13.46000000      34.01700000      44.64700000
 H      13.04100000      34.86300000      44.47500000
 H      14.39800000      34.22200000      44.37300000
 O       6.21200000      36.54800000      46.16500000
 H       7.15500000      36.53800000      46.00100000
 H       6.17600000      36.06700000      47.02900000
 O      20.40800000      26.39800000      42.92100000
 H      19.53300000      26.17900000      42.65400000
 H      20.30400000      26.41500000      43.92500000
 O      24.62800000      37.63700000      45.10200000
 H      25.36400000      38.20000000      45.24500000
 H      24.84700000      37.03700000      44.45300000
 O      28.95300000      27.80300000      45.29500000
 H      28.55600000      26.98600000      44.93700000
 H      29.47700000      28.08400000      44.48400000
 O      20.27200000      13.02100000      45.50900000
 H      20.60700000      12.34200000      44.90200000
 H      20.70100000      12.75400000      46.30600000
 O      22.08700000      35.43100000      42.22300000
 H      21.25300000      35.86200000      41.86000000
 H      22.71500000      35.61800000      41.42400000
 O      31.95800000      36.86500000      45.60900000
 H      32.36800000      36.47900000      44.83600000
 H      32.45200000      37.68600000      45.73300000
 O      40.35500000      12.04800000      46.54900000
 H      40.43600000      12.70400000      45.82200000
 H      40.30900000      11.20000000      46.10000000
 O      11.88300000      22.04000000      43.04700000
 H      12.36900000      21.23800000      43.31600000
 H      10.99400000      21.67000000      43.04100000
 O      19.39900000      10.39200000      47.70400000
 H      19.39100000      10.33300000      48.68600000
 H      20.16300000      11.00000000      47.56800000
 O      16.23600000      28.20100000      45.55400000
 H      17.06700000      28.66000000      45.84300000
 H      16.32700000      27.39600000      46.09200000
 O      27.62800000      12.74200000      47.31600000
 H      26.90300000      13.23300000      46.89600000
 H      27.00000000      12.09200000      47.81400000
 O      33.63000000      21.47100000      48.19000000
 H      34.57000000      21.23700000      48.51700000
 H      33.71500000      22.41900000      48.46300000
 O      17.99000000       9.13900000      45.14000000
 H      18.89400000       9.43700000      44.95000000
 H      17.83400000       9.65900000      45.93800000
 O      36.74900000      14.22800000      45.15000000
 H      36.53400000      14.62900000      46.00400000
 H      35.90100000      13.70000000      45.02200000
 O      37.97300000      33.29800000      42.85100000
 H      37.58200000      33.04000000      43.68600000
 H      37.55000000      32.69800000      42.19700000
 O      25.53000000      31.49300000      42.24700000
 H      25.44800000      30.50600000      42.29100000
 H      26.40800000      31.54600000      41.68900000
 O       9.49100000      20.57200000      42.35800000
 H       9.74100000      19.72000000      42.83900000
 H       8.68100000      20.75000000      42.89300000
 O      30.45100000      18.39500000      46.56500000
 H      31.18800000      19.04400000      46.66000000
 H      30.92900000      17.57800000      46.83800000
 O      17.92000000      25.44400000      42.30900000
 H      17.06100000      25.31400000      42.72500000
 H      17.71700000      26.07900000      41.59100000
 O      20.92900000      17.05600000      45.51600000
 H      20.22300000      17.65600000      45.82200000
 H      21.42600000      16.78300000      46.30600000
 O      33.45400000      25.79300000      43.81500000
 H      34.17800000      25.53500000      44.43200000
 H      34.04600000      25.97800000      42.99500000
 O      35.38700000      30.03600000      45.85800000
 H      34.47500000      29.65100000      45.84600000
 H      35.77600000      29.28200000      46.35700000
 O      27.95200000      33.21900000      44.56400000
 H      28.19600000      32.36900000      45.00800000
 H      26.96400000      33.14100000      44.65800000
 O      18.36800000      39.59200000      47.56100000
 H      17.65300000      39.64200000      48.20200000
 H      19.09600000      39.91300000      48.02200000
 O      37.27900000       8.94900000      43.40900000
 H      38.01000000       9.22800000      42.82800000
 H      36.84800000       8.32400000      42.76500000
 O      27.45300000      20.41900000      42.25900000
 H      27.84700000      20.43400000      43.12000000
 H      26.54700000      20.71100000      42.38800000
 O      13.75600000      22.12300000      47.82400000
 H      13.71500000      21.26400000      47.38300000
 H      14.38200000      21.96200000      48.57200000
 O      38.11100000      36.18300000      46.94600000
 H      38.37300000      37.12800000      46.84400000
 H      37.15500000      36.21900000      46.75200000
 O      34.97700000      18.31700000      45.02400000
 H      34.31900000      17.65000000      44.74900000
 H      35.78200000      17.96400000      44.54000000
 O      13.61500000      32.05700000      46.59000000
 H      13.54300000      32.80000000      45.88400000
 H      14.09800000      31.36800000      46.00200000
 O      34.69400000      35.56900000      44.15400000
 H      34.67700000      35.38200000      45.12800000
 H      35.66200000      35.72800000      44.03900000
 O      14.28900000      29.77500000      44.84500000
 H      14.99000000      29.16300000      45.25800000
 H      13.47800000      29.16900000      45.11100000
 O      29.70600000      22.35900000      48.70700000
 H      29.89600000      22.41900000      47.72200000
 H      30.27100000      23.14200000      49.00000000
 O      39.38600000      14.13700000      45.13000000
 H      38.43800000      14.13800000      45.18700000
 H      39.62500000      14.95400000      45.70500000
 O      13.94500000      23.92000000      45.69400000
 H      13.19900000      24.56400000      45.83400000
 H      13.89500000      23.31600000      46.45400000
 O      17.87400000      24.33800000      46.63800000
 H      18.36100000      24.81500000      47.40500000
 H      16.98800000      24.69500000      46.89900000
 O      29.93800000      16.04400000      45.14300000
 H      29.88900000      15.47900000      45.96100000
 H      29.83800000      16.90400000      45.56900000
 O      10.96000000      13.67000000      47.95900000
 H      11.66600000      14.12500000      47.44800000
 H      11.47300000      13.16200000      48.60300000
 O      15.28300000      25.70400000      43.00400000
 H      14.88700000      25.23000000      43.75300000
 H      14.64200000      26.43200000      42.90900000
 O      14.72300000      38.07200000      44.49700000
 H      15.50900000      37.93900000      43.93500000
 H      14.87900000      37.44600000      45.20300000
 O      24.69200000      29.44200000      45.21300000
 H      24.06000000      29.51200000      44.47300000
 H      25.24600000      30.19800000      44.99500000
 O      31.48300000      24.42200000      49.01000000
 H      30.78400000      24.64700000      48.31100000
 H      32.28900000      24.39200000      48.38600000
 O      27.11100000      34.92500000      46.42700000
 H      26.87900000      34.30400000      47.18400000
 H      27.59000000      34.28300000      45.88800000
 O      24.71300000      24.34500000      42.98200000
 H      25.19800000      25.17900000      42.83400000
 H      23.94800000      24.74700000      43.50900000
 O      17.39700000      28.88500000      43.12800000
 H      17.09100000      29.81100000      43.00400000
 H      16.82400000      28.62000000      43.87300000
 O      22.76400000      20.50000000      46.81600000
 H      22.89000000      21.16700000      47.50700000
 H      21.86000000      20.59100000      46.51000000
 O      28.46500000      30.99700000      45.65500000
 H      28.31100000      30.68000000      46.56700000
 H      28.65600000      30.13300000      45.26200000
 O      32.35000000      16.42300000      47.28800000
 H      31.65100000      15.76000000      47.50200000
 H      33.14100000      15.90700000      47.57400000
 O      36.80500000      28.32900000      43.96200000
 H      36.96900000      28.85200000      44.80200000
 H      36.26400000      29.03100000      43.49600000
 O      32.91500000      16.32300000      44.52200000
 H      33.24000000      15.89800000      45.32300000
 H      32.17700000      16.88800000      44.90900000
 O      30.26600000      10.15400000      43.90400000
 H      29.99500000      10.93400000      43.39100000
 H      31.04000000      10.47800000      44.38200000
 O      31.29700000      28.83000000      43.96700000
 H      31.55100000      28.59400000      43.02400000
 H      30.76500000      29.61700000      43.81300000
 O      23.39700000       8.17900000      43.58300000
 H      24.02100000       7.77900000      44.23500000
 H      22.76900000       7.44500000      43.48800000
 O      18.96900000      40.37200000      42.15700000
 H      19.75700000      40.59700000      41.64800000
 H      19.37000000      39.51300000      42.57700000
 O      33.06600000      27.27700000      48.26800000
 H      33.38100000      26.46300000      47.89500000
 H      33.01900000      27.84400000      47.49200000
 O      39.38900000       8.34300000      47.42800000
 H      40.21000000       7.86200000      47.68400000
 H      38.85100000       8.25000000      48.19600000
 O      29.95500000      14.18100000      47.15900000
 H      30.26000000      13.40300000      47.68200000
 H      29.00400000      13.94800000      47.23600000
 O      16.18600000      10.89200000      43.91200000
 H      16.56800000      10.00500000      44.06000000
 H      17.01600000      11.39800000      43.79600000
 O      40.11000000      37.31200000      43.60300000
 H      40.66500000      36.54500000      43.69000000
 H      40.59900000      37.87100000      42.98400000
 O      11.62900000      35.89800000      44.21100000
 H      10.72300000      35.47500000      44.04000000
 H      11.55300000      36.67300000      43.62400000
 O      13.70800000       7.91600000      48.26500000
 H      14.26000000       7.50900000      48.98700000
 H      13.66500000       7.16400000      47.63800000
 O      34.26100000      33.83800000      46.49200000
 H      34.13200000      34.28800000      47.39300000
 H      33.38000000      33.49500000      46.44900000
 O      35.75000000      15.80700000      47.46200000
 H      36.51100000      16.38200000      47.43600000
 H      35.17900000      16.21900000      48.15100000
 O      24.78700000      35.58200000      47.24700000
 H      24.64000000      35.82300000      46.31500000
 H      25.80000000      35.27700000      47.11300000
 O      31.16300000       7.61300000      43.09000000
 H      30.48200000       8.20500000      43.33300000
 H      31.92200000       8.19400000      42.89600000
 O      37.38600000      17.17700000      44.29900000
 H      37.27400000      16.19200000      44.51300000
 H      38.12900000      17.38500000      44.88600000
 O      39.62800000      21.56900000      47.07800000
 H      40.07300000      22.21400000      47.71900000
 H      40.42400000      21.30400000      46.54000000
 O      28.56000000      10.37900000      46.61500000
 H      28.97100000      10.50700000      45.74900000
 H      28.30200000      11.29900000      46.86700000
 O      40.51200000      26.98500000      45.35800000
 H      40.78900000      26.66100000      46.25700000
 H      40.49800000      26.11700000      44.82300000
 O      23.03700000      23.63800000      48.75000000
 H      22.51200000      24.06900000      49.47600000
 H      22.35600000      23.59200000      48.04700000
 O       6.67800000      12.09400000      47.66400000
 H       6.99300000      11.77000000      46.85400000
 H       7.11600000      11.51500000      48.29200000
 O      30.40500000      36.75000000      47.92000000
 H      31.05800000      36.42500000      47.17000000
 H      31.10300000      37.31300000      48.38800000
 O      25.62900000      11.44900000      48.64600000
 H      24.87800000      11.65800000      49.19300000
 H      25.17900000      10.74000000      48.04600000
 O      14.07500000      19.53900000      46.63200000
 H      14.98100000      19.51900000      46.25000000
 H      14.18100000      18.68800000      47.20200000
 O      17.13800000      15.89400000      48.38900000
 H      17.26400000      14.92800000      48.23500000
 H      17.97400000      16.04700000      48.91500000
 O      40.07900000      34.54000000      45.82500000
 H      40.20200000      35.10800000      46.59000000
 H      40.71700000      34.96900000      45.21300000
 O      40.32000000      29.54900000      44.87100000
 H      40.52800000      28.60700000      45.11200000
 H      40.17700000      29.46400000      43.94000000
 O      18.79300000      34.89700000      48.68900000
 H      19.23500000      35.53700000      48.07800000
 H      18.12800000      35.47700000      49.15400000
 O      13.00000000      19.92200000      44.21000000
 H      12.84200000      18.93900000      44.05300000
 H      13.56100000      19.87000000      44.94500000
 O      12.11200000      38.48100000      42.99400000
 H      11.84700000      39.25100000      43.58300000
 H      13.03600000      38.31900000      43.32300000
 O      35.22000000      39.33000000      42.31400000
 H      35.12900000      40.32200000      42.38100000
 H      36.11900000      39.16600000      42.66700000
 O       9.64000000      17.96600000      49.07000000
 H      10.29500000      17.79400000      48.32200000
 H       9.62600000      18.92800000      49.14800000
 O      30.76200000      24.32000000      43.87600000
 H      31.56000000      24.90700000      43.97700000
 H      31.19200000      23.58800000      43.33700000
 O      26.85200000      23.36600000      44.56700000
 H      25.99900000      23.54100000      44.06500000
 H      27.46200000      23.80300000      43.93400000
 O      15.76500000      10.35900000      48.17400000
 H      15.48800000       9.43500000      48.04700000
 H      15.37900000      10.73300000      47.32500000
 O      35.82300000      11.16000000      46.98700000
 H      35.97800000      10.99300000      46.01900000
 H      36.20600000      12.03500000      47.11200000
 O      15.65900000      25.70200000      47.63600000
 H      14.68200000      25.76600000      47.51300000
 H      15.70600000      24.90600000      48.25000000
 O      27.96500000      19.80800000      47.44700000
 H      28.23300000      20.11900000      46.51900000
 H      28.66400000      19.11900000      47.53300000
 O       7.47800000      25.09300000      46.16300000
 H       6.68400000      25.38600000      45.72700000
 H       7.99800000      25.89600000      46.35400000
 O      37.36800000      36.08100000      43.34400000
 H      37.91600000      35.27000000      43.39500000
 H      38.00600000      36.77400000      43.17600000
 O       8.98400000      36.40500000      46.07000000
 H       9.72900000      36.83800000      46.56100000
 H       8.83300000      35.60700000      46.62100000
 O       8.58100000      15.57400000      44.66100000
 H       9.50400000      15.20600000      44.52200000
 H       8.46000000      15.40000000      45.59900000
 O      12.64400000      17.35500000      43.72500000
 H      12.07900000      17.09400000      42.96000000
 H      13.25700000      16.60500000      43.77300000
 O      34.01600000      21.88100000      42.45500000
 H      33.06900000      22.11200000      42.15100000
 H      34.01600000      20.93800000      42.16900000
 O      25.08800000      38.73900000      49.25400000
 H      24.83300000      37.80100000      49.33600000
 H      25.02100000      38.90300000      48.29600000
 O      32.73300000      29.21100000      46.33600000
 H      32.02500000      29.48700000      46.97800000
 H      32.10000000      28.96500000      45.54500000
 O      23.62900000      34.48300000      44.19600000
 H      24.39900000      34.78700000      43.67900000
 H      22.93500000      34.75300000      43.54500000
 O      37.50300000      17.94300000      48.21200000
 H      37.28100000      18.85100000      48.46900000
 H      38.08900000      18.15400000      47.47300000
 O      20.74700000      38.54600000      43.10400000
 H      21.54400000      38.98700000      43.59100000
 H      21.29300000      38.40600000      42.24400000
 O      16.59600000      37.59100000      42.59100000
 H      16.40700000      36.97300000      41.88000000
 H      16.81300000      38.36600000      42.00500000
 O      19.96600000      29.50200000      43.32700000
 H      19.88100000      29.63600000      44.30100000
 H      19.15700000      29.03800000      43.11800000
 O      19.26500000      19.43300000      46.12800000
 H      18.33000000      19.32600000      46.06000000
 H      19.40900000      20.31100000      45.76400000
 O      11.58200000      32.77900000      48.20900000
 H      10.77700000      32.68900000      47.64500000
 H      12.24400000      32.83300000      47.49500000
 O       7.37500000      17.53600000      47.75000000
 H       7.60800000      16.61000000      47.46600000
 H       8.18000000      17.74300000      48.35900000
 O      15.04500000      35.88700000      46.30900000
 H      15.59000000      35.42000000      45.58400000
 H      15.61200000      35.69500000      47.07400000
 O       9.78500000      27.04900000      43.88100000
 H       9.40700000      26.89300000      42.97100000
 H      10.12400000      26.22300000      44.13800000
 O      18.74300000      22.01000000      45.25600000
 H      19.10200000      22.31500000      44.37600000
 H      18.19400000      22.81000000      45.45700000
 O       6.13200000      12.16600000      43.06500000
 H       6.09600000      11.32100000      42.54600000
 H       7.00800000      12.05700000      43.51400000
 O      16.19300000      31.40600000      43.38000000
 H      15.47000000      30.88600000      43.82400000
 H      15.72300000      31.74700000      42.63600000
 O       9.35800000      34.85700000      43.32600000
 H       9.36900000      34.36300000      42.52400000
 H       8.46900000      34.62700000      43.66500000
 O      38.70300000      27.68800000      48.59900000
 H      38.81400000      28.52100000      48.10800000
 H      38.05700000      28.02100000      49.29400000
 O      27.11800000      17.29500000      46.88000000
 H      26.98900000      18.27400000      46.80800000
 H      27.51900000      17.22800000      47.72800000
 O      38.82100000      30.14800000      47.40300000
 H      39.48800000      29.94200000      46.82900000
 H      38.63900000      31.10100000      47.36500000
 O      30.39300000      38.60100000      42.99500000
 H      29.47100000      38.64000000      43.37800000
 H      30.82500000      39.20300000      43.68200000
 O      36.51100000      25.57100000      44.42500000
 H      36.70100000      26.56500000      44.18300000
 H      36.75500000      25.13300000      43.59500000
 O      12.83200000      25.60500000      47.59500000
 H      12.53400000      26.49700000      47.95300000
 H      11.96900000      25.30500000      47.26900000
 O      17.42200000      32.77200000      47.23900000
 H      17.90800000      33.12000000      46.44100000
 H      17.70900000      33.46600000      47.92700000
 O      10.85900000      14.31000000      43.37500000
 H      10.84300000      14.51900000      42.44900000
 H      11.81700000      14.32600000      43.52800000
 O      33.39100000      39.37600000      45.72700000
 H      32.61500000      39.57600000      45.13200000
 H      33.71200000      40.26700000      45.94700000
 O      22.13200000       8.06000000      46.84800000
 H      21.79200000       8.00700000      47.77500000
 H      21.94100000       7.12600000      46.53400000
 O      40.02200000      16.39300000      47.28700000
 H      40.06900000      16.99800000      48.07900000
 H      40.68100000      15.76000000      47.53800000
 O      10.15900000      27.19500000      47.36700000
 H      10.04400000      26.24800000      47.22600000
 H      10.46000000      27.14100000      48.33100000
 O      27.29900000      13.67300000      44.00200000
 H      28.26900000      13.57100000      44.12100000
 H      27.30100000      13.73400000      43.01100000
 O      36.05000000      27.62600000      47.00100000
 H      35.86300000      27.79300000      47.96300000
 H      35.94800000      26.65800000      46.97000000
 O      12.29000000      36.32600000      46.79500000
 H      13.27300000      36.33200000      46.71900000
 H      11.95400000      35.95500000      45.97200000
 O      25.36800000      32.35200000      44.75400000
 H      24.67700000      33.06600000      44.71200000
 H      25.36400000      32.05200000      43.82300000
 O      13.09800000       8.60900000      44.64200000
 H      13.91500000       8.48000000      44.06300000
 H      13.15800000       7.76300000      45.13400000
 O      23.18500000      39.74200000      43.84900000
 H      23.60900000      40.57800000      44.22600000
 H      23.79100000      39.09100000      44.14000000
 O      37.06800000      21.36400000      47.94100000
 H      37.11900000      21.22100000      48.87800000
 H      38.00500000      21.59800000      47.71100000
 O      10.96500000       9.45800000      43.14600000
 H      11.71000000       9.13200000      43.67400000
 H      10.97200000       8.90400000      42.35000000
 O      26.84200000      40.77700000      45.33500000
 H      27.26100000      41.47800000      45.85300000
 H      26.08400000      41.16900000      44.92700000
 O      29.69400000      16.23800000      42.47200000
 H      29.66300000      16.15800000      43.45000000
 H      29.68400000      15.26300000      42.22900000
 O      39.77700000      35.24800000      48.90200000
 H      40.52700000      35.78400000      48.56900000
 H      39.09000000      35.51500000      48.24300000
 O      20.77300000      30.45900000      46.27300000
 H      21.40100000      30.07800000      46.94100000
 H      21.24500000      31.21800000      45.95800000
 O       8.23300000      38.04300000      48.77100000
 H       7.27000000      38.23000000      49.03000000
 H       8.20800000      38.35200000      47.88300000
 O      20.95200000      23.57100000      46.92000000
 H      20.59100000      22.72400000      47.33800000
 H      20.17400000      24.15800000      46.87900000
 O      39.59400000      24.59300000      43.98600000
 H      38.97000000      23.86800000      43.80300000
 H      40.38600000      24.03000000      43.98500000
 O      21.37700000      13.09400000      42.76100000
 H      21.60700000      13.01100000      41.79600000
 H      21.38500000      14.04900000      42.89100000
 O      28.45400000       7.73400000      44.97600000
 H      28.86200000       8.56100000      45.35600000
 H      29.23700000       7.15600000      44.91500000
 O       6.31800000      23.13200000      48.89700000
 H       7.04000000      23.05300000      48.22400000
 H       5.70800000      23.75800000      48.39500000
 O      27.80300000      38.63100000      43.95000000
 H      27.47400000      39.50400000      44.34800000
 H      27.91100000      38.17000000      44.84700000
 O      39.12600000      19.21800000      43.39000000
 H      39.69300000      18.62600000      42.82900000
 H      39.15300000      20.00000000      42.80400000
 O      12.77600000      40.67300000      48.67900000
 H      12.88200000      40.69300000      47.71100000
 H      12.75600000      39.68100000      48.84100000
 O      31.47700000      12.11200000      47.89100000
 H      31.15900000      11.23600000      48.10900000
 H      31.91900000      12.01500000      47.06900000
 O      19.97400000       7.92900000      42.39200000
 H      20.66700000       8.40500000      41.84800000
 H      19.98100000       8.50900000      43.15900000
 O      33.68300000      24.05000000      47.40900000
 H      33.87900000      23.51000000      46.59500000
 H      34.52200000      24.62900000      47.32400000
 O      33.15900000      15.39900000      42.01400000
 H      34.14900000      15.31900000      42.12900000
 H      32.92400000      15.74700000      42.88500000
 O      38.08500000      12.89100000      47.73100000
 H      38.98800000      12.77600000      47.31100000
 H      38.33000000      12.86600000      48.69400000
 O      23.44500000      18.34500000      42.19600000
 H      23.17900000      19.22200000      41.85900000
 H      23.93200000      18.58700000      42.99600000
 O      38.59500000      19.18900000      45.90600000
 H      38.95400000      19.17200000      44.97800000
 H      38.94400000      20.05300000      46.17500000
 O      30.60100000      29.88200000      48.10100000
 H      29.62900000      29.87300000      48.00100000
 H      30.69600000      29.58500000      49.01900000
 O      18.53300000      32.56500000      42.19900000
 H      17.93300000      32.04800000      42.67000000
 H      19.40100000      32.37600000      42.59200000
 O      17.10200000      21.34600000      42.22900000
 H      16.62100000      21.73600000      42.94600000
 H      17.94400000      21.81800000      42.21500000
 O      32.62600000      11.33400000      45.24400000
 H      33.22500000      10.63000000      45.42100000
 H      33.24500000      12.02200000      44.90500000
 O      32.44000000       6.99800000      47.19600000
 H      33.04700000       7.64500000      47.70400000
 H      32.61700000       6.23100000      47.78100000
 O      39.15100000      38.45000000      46.05500000
 H      39.48100000      38.11800000      45.19400000
 H      39.81900000      39.13900000      46.30500000
 O      12.16000000      28.31300000      45.56400000
 H      11.32100000      27.81000000      45.33100000
 H      12.13900000      28.28600000      46.50400000
 O      23.26700000      11.30600000      45.13100000
 H      23.41300000      11.12700000      46.10800000
 H      24.04600000      10.87000000      44.82200000
 O      23.59800000      14.18100000      44.88600000
 H      22.77000000      14.69300000      44.87800000
 H      23.25500000      13.31600000      44.93100000
 O       7.87800000      34.15300000      47.67500000
 H       8.12800000      33.31600000      47.28300000
 H       8.01200000      34.00800000      48.59500000
 O      24.76000000      21.85400000      42.12100000
 H      24.76400000      22.82600000      42.26900000
 H      24.32000000      21.61300000      42.95100000
 O      22.69800000      28.12200000      43.43700000
 H      21.78500000      28.18300000      43.09000000
 H      22.67500000      27.26900000      43.90800000
 O       9.59400000      18.23600000      43.63800000
 H       9.89600000      17.65700000      42.95700000
 H       8.97300000      17.63700000      44.10700000
 O      21.93300000      33.17800000      48.26900000
 H      21.83100000      33.05500000      47.29100000
 H      21.89100000      34.18700000      48.26200000
 O       7.87700000      10.90700000      45.52700000
 H       8.57100000      10.41500000      45.98000000
 H       8.49800000      11.49600000      44.98600000
 O      12.78600000      27.22300000      43.18300000
 H      12.51000000      27.76300000      43.90800000
 H      12.19800000      26.40100000      43.32900000
 O       8.71300000      29.31800000      47.49300000
 H       8.26700000      28.89300000      46.71800000
 H       9.47500000      28.72400000      47.56900000
 O      17.57700000      14.54000000      45.46100000
 H      18.48100000      14.54700000      45.09200000
 H      17.65000000      14.06000000      46.29700000
 O      35.43800000      37.53100000      46.76500000
 H      34.69200000      37.90200000      46.26500000
 H      35.69600000      38.26400000      47.33300000
 O      25.03200000      18.74200000      44.50200000
 H      25.41000000      17.82700000      44.35300000
 H      24.43400000      18.42000000      45.20800000
 O      35.11500000      30.31800000      42.86300000
 H      34.32200000      30.79900000      43.21800000
 H      35.47900000      31.05500000      42.31900000
 O      31.38800000      18.26700000      42.12900000
 H      31.33700000      18.83700000      42.89000000
 H      30.66800000      17.65700000      42.29100000
 O       8.90500000      37.85000000      43.35900000
 H       9.02900000      36.83600000      43.26000000
 H       9.15500000      38.00200000      44.27500000
 O      31.27800000      36.03200000      42.69700000
 H      32.19800000      36.25600000      42.45100000
 H      30.88200000      36.97300000      42.75200000
 O      36.49700000      32.47900000      45.37300000
 H      36.06700000      31.59600000      45.47700000
 H      35.77500000      33.05400000      45.69500000
 O      40.54100000      32.27000000      43.13400000
 H      39.63100000      32.61900000      42.99300000
 H      40.38700000      31.30600000      43.20200000
 O      19.49400000      37.12400000      47.15000000
 H      19.04100000      38.00500000      47.25900000
 H      19.45700000      37.02100000      46.18900000
 O      19.43600000      22.94300000      42.49600000
 H      18.94600000      23.76100000      42.57300000
 H      20.05000000      23.05000000      41.79200000
 O      31.22400000      22.18900000      42.28600000
 H      30.85500000      21.35400000      42.68700000
 H      30.51500000      22.38000000      41.60300000
 O      25.29700000      28.77400000      42.29400000
 H      25.67600000      27.89800000      42.09400000
 H      24.37100000      28.55200000      42.36600000
 O      37.96600000      22.53500000      43.81500000
 H      38.59000000      21.84600000      44.05200000
 H      37.23800000      22.39600000      44.42600000
 O      11.29900000      24.59700000      43.32300000
 H      10.72000000      24.37600000      42.55400000
 H      11.70900000      23.65000000      43.45500000
 O      25.56700000      16.18000000      44.10800000
 H      24.97300000      15.42800000      44.31000000
 H      26.39800000      15.76000000      44.29500000
 O      18.77600000      34.21900000      45.21200000
 H      18.86000000      35.12800000      44.95700000
 H      19.67300000      33.84000000      45.08900000
 O      16.93400000       6.44400000      44.70200000
 H      16.48200000       6.84400000      43.90500000
 H      17.28700000       7.29100000      45.04100000
 O      25.44500000      14.67500000      46.84200000
 H      24.85500000      14.43900000      46.14500000
 H      25.82700000      15.51600000      46.57500000
 O      18.94500000      11.66800000      42.82000000
 H      19.09800000      11.16000000      41.98300000
 H      19.86100000      12.08000000      42.89100000
 O       9.26900000      12.03800000      43.71100000
 H       9.85100000      11.26700000      43.43400000
 H       9.79000000      12.82600000      43.47900000
 O      10.48000000      24.50400000      46.74200000
 H      10.05900000      23.77200000      46.20400000
 H      10.09100000      24.22800000      47.64600000
 O      29.03200000      40.23800000      48.65000000
 H      28.72800000      39.58100000      47.98100000
 H      28.34900000      40.93100000      48.50200000
 O      32.76400000      19.89700000      45.96800000
 H      33.61600000      19.51000000      45.67000000
 H      33.18200000      20.55200000      46.64100000
