1593
XYZ file of cluster: frame_3000_21028.c4abe.21dd8 - created by MolEdiTo
 O      33.39100000      35.09400000      17.87700000
 H      33.41800000      36.04900000      17.82800000
 H      33.20600000      34.84500000      16.92300000
 O       8.45700000      38.98900000      16.25600000
 H       9.11500000      38.46700000      15.69300000
 H       8.12800000      39.59000000      15.59200000
 O      31.04900000      37.73100000      11.92200000
 H      30.65400000      38.37800000      11.27100000
 H      31.82300000      38.23200000      12.17600000
 O      39.52100000      39.91700000      31.86600000
 H      38.59900000      40.06700000      32.18300000
 H      39.83100000      40.81000000      31.64300000
 O      20.84800000      40.38500000      30.66800000
 H      21.18200000      41.36100000      30.60500000
 H      20.18900000      40.49500000      29.92600000
 O       8.38400000      39.93900000      26.25500000
 H       8.82600000      39.67300000      25.46100000
 H       8.63200000      39.18100000      26.87900000
 O      24.64900000      38.97400000      31.47900000
 H      24.94000000      38.26600000      30.95300000
 H      25.45900000      39.33000000      31.83500000
 O      37.23200000      39.53300000      28.57600000
 H      37.96700000      39.38100000      27.92700000
 H      37.15200000      38.67500000      28.98800000
 O      38.17800000      40.76900000      19.91800000
 H      37.72300000      41.46400000      19.34600000
 H      38.02400000      41.21000000      20.79100000
 O      27.52200000      35.18400000      24.00300000
 H      28.26900000      35.37300000      24.64900000
 H      27.57100000      34.20300000      24.03800000
 O      38.42700000      40.52800000      40.29900000
 H      38.03200000      41.37200000      39.88200000
 H      38.55700000      40.87800000      41.22600000
 O      25.63500000      36.98900000      29.83700000
 H      26.59400000      37.15500000      29.99300000
 H      25.59500000      35.98800000      29.91200000
 O      31.79100000      35.11800000       8.83900000
 H      31.58000000      34.20600000       8.57400000
 H      31.15200000      35.63600000       8.29900000
 O      36.80300000      40.44600000      32.67500000
 H      36.27000000      39.67400000      32.47900000
 H      36.09200000      41.00700000      33.06100000
 O      29.82900000      38.59700000      27.41700000
 H      29.32300000      38.86100000      28.14900000
 H      30.73500000      38.53700000      27.72900000
 O      33.30300000      38.24300000      21.65500000
 H      34.01500000      38.73600000      21.21200000
 H      32.57900000      38.81900000      21.34300000
 O      31.93700000      39.40000000      31.66100000
 H      32.05900000      40.15200000      32.28200000
 H      32.43200000      39.70400000      30.86400000
 O      26.45500000      36.71600000      21.78100000
 H      27.08500000      36.32300000      22.41900000
 H      25.71000000      36.18200000      21.98400000
 O      39.33400000      37.44100000      19.36300000
 H      38.77100000      37.94100000      18.68300000
 H      38.66500000      37.29200000      20.03200000
 O      34.97700000      36.83000000      13.38000000
 H      35.46900000      36.19500000      13.96000000
 H      35.57400000      36.95100000      12.62100000
 O      17.91200000      39.04900000      13.79500000
 H      18.69300000      38.49100000      13.63800000
 H      17.43500000      38.97500000      12.96400000
 O      38.42400000      38.17300000      38.92400000
 H      39.30500000      37.82700000      39.12000000
 H      38.53900000      39.09700000      39.22700000
 O       6.30400000      35.40100000      10.32800000
 H       5.63600000      34.73300000      10.30900000
 H       7.03700000      34.97900000       9.85600000
 O      13.03000000      39.67100000      36.11300000
 H      13.43800000      39.64000000      36.99500000
 H      13.83600000      39.62300000      35.55000000
 O      10.87000000      37.55500000      38.63600000
 H      10.90100000      37.92600000      39.48300000
 H      11.43500000      36.81100000      38.64700000
 O      12.16000000      37.63400000      32.82200000
 H      11.30600000      37.98900000      32.62300000
 H      12.69500000      38.01200000      32.11200000
 O      28.56900000      39.61600000      21.03200000
 H      28.30700000      38.91600000      20.38200000
 H      27.70300000      39.82500000      21.41500000
 O      24.68500000      39.36600000      28.16300000
 H      25.04600000      40.10200000      28.67800000
 H      24.93100000      38.58900000      28.67400000
 O      33.85000000      35.83200000      25.61800000
 H      34.29900000      36.21700000      26.40600000
 H      34.45300000      35.05700000      25.47900000
 O       8.23100000      35.03900000      23.39200000
 H       7.88200000      35.89600000      23.19100000
 H       7.40300000      34.63000000      23.84600000
 O       7.33100000      37.40700000      21.36100000
 H       8.35400000      37.53000000      21.38400000
 H       7.10000000      38.31900000      21.13100000
 O      29.57600000      38.69200000      14.78000000
 H      28.99400000      38.50300000      13.96000000
 H      30.44200000      38.76200000      14.26100000
 O      10.28700000      37.11100000      20.72800000
 H      11.23500000      37.46700000      20.93600000
 H      10.00100000      37.90500000      20.18300000
 O      20.08300000      38.87900000      23.95300000
 H      20.69300000      39.07000000      23.19900000
 H      19.75900000      39.76100000      24.17300000
 O      20.87000000      37.35400000      33.33100000
 H      20.33800000      37.77300000      34.04600000
 H      20.28000000      37.09000000      32.62200000
 O      22.55900000      35.05500000      29.35700000
 H      22.86100000      34.88500000      28.43600000
 H      22.43300000      36.02800000      29.26300000
 O      27.58900000      34.92600000      27.31500000
 H      28.18600000      35.71600000      27.20700000
 H      28.30900000      34.29900000      27.63500000
 O       6.59600000      39.91000000      11.49300000
 H       5.67700000      39.78100000      11.16700000
 H       7.01000000      40.40600000      10.77000000
 O       8.29800000      37.99400000      10.80600000
 H       7.50400000      38.56600000      11.13900000
 H       7.99900000      37.17200000      11.15100000
 O      20.21800000      36.50900000      37.06000000
 H      20.81000000      35.76200000      36.81800000
 H      19.40500000      36.16000000      36.61100000
 O      21.98200000      37.10500000      25.37800000
 H      22.63200000      37.83400000      25.23400000
 H      21.21500000      37.44800000      24.81800000
 O      33.86300000      38.87400000       9.74100000
 H      34.11100000      39.71200000       9.31200000
 H      34.60400000      38.88000000      10.40500000
 O      23.20200000      35.95400000      33.90800000
 H      23.34700000      35.34600000      33.12800000
 H      22.30500000      36.30400000      33.74400000
 O      33.21400000      34.99200000      38.51300000
 H      33.33000000      35.77700000      39.08000000
 H      33.03900000      34.31400000      39.22000000
 O      14.42200000      39.30300000      38.47200000
 H      15.38700000      39.52400000      38.61900000
 H      14.55400000      38.35100000      38.69900000
 O      33.80700000      38.98300000      37.57200000
 H      32.92600000      38.97600000      38.08500000
 H      34.43100000      38.83100000      38.30000000
 O      14.07600000      34.59300000      14.82600000
 H      13.83700000      34.57800000      15.78100000
 H      14.94400000      34.98100000      14.81300000
 O      33.31300000      38.02700000      15.17000000
 H      32.92900000      38.50000000      14.40100000
 H      33.77400000      37.32100000      14.71900000
 O      21.11300000      39.07800000      36.70800000
 H      22.10500000      39.13300000      36.91600000
 H      21.03200000      38.09900000      36.98200000
 O      23.64600000      39.71600000      37.65900000
 H      23.91700000      40.61000000      37.38000000
 H      24.46700000      39.26900000      37.35700000
 O      13.50300000      34.77400000      23.12800000
 H      13.88800000      34.28100000      23.84100000
 H      13.34400000      34.04300000      22.46400000
 O      35.42200000      34.59700000      19.80200000
 H      35.85200000      35.26200000      19.24100000
 H      34.51500000      34.62600000      19.35600000
 O      16.54400000      36.24700000      19.70000000
 H      17.12700000      35.55300000      20.03600000
 H      16.05500000      36.51900000      20.49600000
 O      18.89100000      40.01500000      18.72200000
 H      18.11900000      39.95200000      18.09400000
 H      18.93900000      40.99000000      18.77500000
 O      11.21500000      39.10000000      27.47800000
 H      11.93600000      38.56900000      27.05700000
 H      10.52600000      38.38600000      27.44200000
 O      37.83600000      35.59500000      31.50200000
 H      38.17200000      34.68900000      31.42900000
 H      38.04800000      35.72500000      32.46800000
 O      16.40100000      40.04400000       7.89500000
 H      16.78100000      40.42100000       8.67900000
 H      15.87000000      40.77200000       7.58500000
 O      40.52100000      38.25000000      33.94600000
 H      40.42100000      38.70300000      33.04500000
 H      41.42300000      38.60100000      34.15600000
 O      40.61100000      36.57900000       9.73800000
 H      40.34200000      36.05200000      10.50500000
 H      40.29400000      35.96900000       9.02400000
 O      32.42700000      38.38800000      27.68700000
 H      33.33400000      38.06500000      27.73200000
 H      32.45400000      39.04100000      28.47800000
 O       8.35800000      34.64300000      26.86400000
 H       8.41400000      33.96500000      27.51700000
 H       8.87600000      34.31800000      26.12900000
 O       8.52400000      35.45900000      11.99100000
 H       7.71500000      35.36100000      11.52700000
 H       8.22600000      35.80900000      12.85700000
 O      27.55300000      40.35700000      17.78300000
 H      28.27300000      39.73100000      18.07900000
 H      26.75800000      39.81900000      17.99200000
 O      10.00100000      37.20000000       8.95600000
 H       9.46700000      37.71200000       8.32200000
 H       9.60600000      37.53200000       9.79100000
 O      39.29300000      38.97100000      27.11500000
 H      39.71800000      38.09200000      26.97500000
 H      39.92200000      39.53600000      26.62100000
 O      32.91300000      34.25500000      32.19200000
 H      32.55500000      33.69800000      32.94500000
 H      32.57900000      35.10800000      32.45000000
 O      35.60500000      39.18100000      20.72800000
 H      36.43200000      38.69000000      20.73900000
 H      35.83200000      39.98100000      21.19300000
 O      14.68400000      36.49500000      38.89800000
 H      14.56400000      36.14100000      37.99700000
 H      14.03500000      35.92300000      39.35800000
 O      17.25300000      39.17900000      38.41500000
 H      17.57600000      39.16800000      37.47500000
 H      17.93600000      39.77400000      38.78500000
 O      10.38100000      35.01100000      34.98700000
 H      10.48100000      34.10000000      35.18900000
 H      11.24300000      35.25900000      34.64700000
 O       7.75200000      37.16400000      13.88800000
 H       8.66900000      37.25600000      14.24300000
 H       7.42400000      38.09800000      13.99700000
 O      24.01400000      35.93600000      38.85300000
 H      24.14100000      36.28100000      37.93900000
 H      24.30000000      35.00900000      38.73300000
 O       8.87500000      37.22900000      35.08300000
 H       9.24100000      36.28400000      35.16800000
 H       9.61200000      37.73700000      35.46500000
 O      13.97100000      37.46900000      29.07100000
 H      14.38100000      36.57700000      29.17500000
 H      13.39300000      37.22400000      28.26300000
 O      22.61100000      34.28100000      13.98200000
 H      22.48500000      34.79800000      13.13000000
 H      22.12700000      33.46900000      13.65800000
 O      20.33700000      36.25300000      17.79400000
 H      20.35600000      36.39400000      16.82100000
 H      21.09000000      35.62800000      17.93100000
 O       8.19000000      35.06200000      30.83500000
 H       7.89400000      34.18500000      31.16200000
 H       8.88900000      34.75800000      30.19900000
 O      35.00300000      34.02300000      30.43100000
 H      35.04600000      34.96700000      30.60600000
 H      34.62900000      33.68600000      31.25700000
 O      29.34800000      38.59500000      23.97400000
 H      29.01900000      39.02000000      23.15700000
 H      29.98300000      37.97800000      23.53100000
 O      26.14300000      38.24400000      36.56400000
 H      25.71300000      37.40500000      36.26900000
 H      27.08100000      37.83800000      36.60800000
 O      39.12300000      34.57200000      37.72400000
 H      39.67300000      33.78900000      37.98900000
 H      38.53800000      34.70900000      38.46800000
 O       9.34100000      34.59200000      20.66200000
 H       8.63200000      34.67300000      21.35800000
 H       9.88900000      35.35800000      20.84600000
 O      32.98000000      37.81900000      17.93000000
 H      33.01400000      37.58900000      16.95100000
 H      32.10900000      38.36200000      17.89800000
 O      23.04000000      35.48000000      26.99200000
 H      23.85300000      35.90500000      26.66200000
 H      22.41400000      35.96800000      26.38800000
 O      15.49100000      39.56500000      32.50400000
 H      16.03100000      38.85400000      32.12200000
 H      14.66500000      39.53400000      31.98700000
 O      34.17800000      35.85000000      10.73500000
 H      34.81500000      36.46600000      11.09000000
 H      33.37200000      36.43800000      10.68600000
 O      10.96700000      40.01500000      15.00100000
 H      10.50100000      40.75400000      15.37600000
 H      11.82900000      40.07200000      15.30200000
 O      31.62600000      36.80300000      32.92500000
 H      31.74600000      37.71100000      32.59500000
 H      30.77800000      36.93500000      33.41300000
 O      39.64200000      40.63700000      16.19500000
 H      39.20100000      39.96400000      16.72600000
 H      39.02500000      41.34200000      16.22900000
 O      40.03900000      36.04900000      29.93400000
 H      39.23600000      36.01200000      30.49600000
 H      40.59500000      35.31900000      30.33300000
 O      16.93700000      35.33500000      14.85100000
 H      17.51700000      35.93400000      15.34200000
 H      17.02800000      34.53800000      15.46900000
 O      33.02900000      39.59000000      12.75800000
 H      33.07500000      40.53700000      12.70900000
 H      33.65400000      39.28600000      12.07300000
 O      29.94500000      38.63300000       9.64800000
 H      29.62700000      39.16200000       8.94100000
 H      30.75300000      38.27400000       9.22600000
 O      10.98600000      40.62500000      11.53100000
 H      11.80500000      41.14600000      11.58000000
 H      11.34900000      39.74100000      11.26200000
 O      23.03700000      39.82200000      16.54100000
 H      22.13000000      40.04800000      16.86200000
 H      23.25600000      40.55600000      16.00500000
 O      14.69400000      37.79900000      15.97700000
 H      14.53100000      38.35200000      15.19600000
 H      15.53700000      38.10400000      16.26200000
 O      25.18900000      39.33600000      18.23400000
 H      24.52700000      39.54600000      17.53100000
 H      24.61400000      39.25100000      18.99900000
 O      12.26100000      39.06900000      23.25300000
 H      12.03700000      38.22600000      23.74200000
 H      12.53000000      38.65900000      22.39600000
 O      32.71600000      40.41800000      29.20200000
 H      33.54900000      40.63600000      28.67900000
 H      32.29600000      41.36200000      29.04300000
 O      24.62200000      36.02200000      36.13000000
 H      25.12100000      35.43300000      35.61300000
 H      23.92600000      36.38700000      35.51000000
 O      16.80300000      38.29200000      11.16100000
 H      17.20800000      39.05200000      10.72800000
 H      16.27500000      37.91600000      10.41200000
 O      32.44600000      34.23800000      12.00800000
 H      33.20600000      34.80700000      11.72600000
 H      31.70700000      34.70000000      11.60600000
 O      40.07600000      36.45900000      27.22000000
 H      39.94300000      36.33000000      28.17400000
 H      41.06600000      36.35600000      27.24600000
 O      13.90700000      38.92400000      13.70400000
 H      14.56600000      38.67000000      13.03800000
 H      13.13700000      38.35500000      13.43900000
 O      10.42500000      35.29700000      18.13700000
 H      10.82200000      36.16200000      18.01600000
 H      10.14000000      35.32100000      19.07900000
 O      29.84700000      34.48300000      31.89000000
 H      30.68200000      34.91800000      32.05500000
 H      29.98700000      33.85000000      31.17400000
 O      33.12200000      39.36400000      24.76900000
 H      33.99000000      39.01600000      25.25300000
 H      32.47100000      38.79100000      25.18500000
 O      29.69000000      35.55800000      12.19800000
 H      30.20900000      36.37600000      12.17000000
 H      28.86900000      35.89200000      11.80100000
 O      29.22000000      39.90600000      35.12600000
 H      29.82100000      39.53600000      35.78000000
 H      29.53100000      40.85800000      35.10200000
 O      34.59500000      34.93100000       7.81000000
 H      35.21100000      35.62500000       8.10300000
 H      33.80600000      35.16700000       8.27900000
 O      35.15100000      34.75200000      34.55900000
 H      35.37900000      34.62600000      35.50000000
 H      34.77900000      35.64400000      34.59600000
 O      26.68200000      39.96000000       9.70000000
 H      26.07100000      39.46700000       9.11000000
 H      26.46600000      39.50400000      10.50300000
 O      37.27800000      37.30400000      21.23200000
 H      36.48500000      36.90900000      21.70700000
 H      37.79200000      37.56100000      22.02900000
 O      22.24700000      37.89700000      28.92000000
 H      21.78400000      38.74200000      28.97000000
 H      23.08600000      38.19500000      28.46700000
 O      20.29100000      35.20400000      23.24400000
 H      21.07200000      35.42300000      22.69100000
 H      20.18000000      34.22500000      23.04500000
 O      22.39800000      38.49000000      39.57200000
 H      22.95000000      38.87400000      38.79100000
 H      23.06500000      37.75700000      39.76200000
 O      27.56300000      38.07700000      39.83500000
 H      27.66700000      37.91600000      40.75300000
 H      27.88800000      39.01000000      39.71400000
 O      17.30100000      34.45700000      10.50000000
 H      16.77600000      34.62000000      11.29700000
 H      16.57700000      33.96900000       9.97500000
 O       7.12200000      39.84700000      14.14600000
 H       6.24200000      40.35900000      14.26200000
 H       7.02000000      39.77500000      13.13700000
 O      27.63700000      37.66000000      19.41600000
 H      27.22900000      37.19300000      20.20200000
 H      27.29300000      37.11100000      18.68600000
 O      25.50600000      36.52600000      12.20300000
 H      24.74900000      37.16200000      12.06900000
 H      25.95900000      36.67500000      11.35500000
 O      22.96400000      35.78100000       7.96900000
 H      23.75400000      35.70200000       8.60800000
 H      23.53100000      35.82200000       7.14600000
 O      25.45200000      36.16600000      25.92000000
 H      26.13300000      35.75100000      26.48200000
 H      25.87000000      36.07500000      25.04500000
 O      13.30100000      39.29300000      30.93000000
 H      13.41700000      38.65600000      30.19700000
 H      12.72200000      39.93900000      30.50600000
 O      11.23900000      34.36500000      15.28000000
 H      12.19300000      34.40800000      15.07200000
 H      11.14400000      34.90200000      16.05300000
 O      28.39600000      34.53600000      19.87100000
 H      28.59900000      35.52200000      19.96300000
 H      29.17400000      34.18800000      19.46900000
 O      35.61100000      34.61800000      37.15900000
 H      36.20500000      35.26100000      37.57600000
 H      34.87200000      34.52600000      37.75700000
 O      37.12000000      37.21500000      25.35000000
 H      36.79400000      37.42600000      24.48500000
 H      37.57000000      38.01000000      25.63000000
 O      31.18400000      34.59500000      19.27500000
 H      31.64500000      34.66700000      20.10200000
 H      31.95700000      34.82900000      18.68700000
 O      14.89900000      34.84300000      29.84400000
 H      14.87800000      34.42800000      28.99700000
 H      15.80400000      35.14800000      29.96600000
 O      11.06800000      36.00300000      11.29800000
 H      11.16500000      36.36100000      10.37900000
 H      10.14500000      36.01400000      11.43100000
 O      21.80900000      38.30400000      21.36500000
 H      22.05200000      37.33100000      21.38700000
 H      20.92100000      38.19800000      20.86300000
 O      32.50800000      35.50500000      36.03400000
 H      32.39700000      34.60500000      35.69100000
 H      32.69500000      35.31700000      36.98200000
 O      29.30900000      36.68800000      26.00400000
 H      29.01600000      37.23700000      25.25300000
 H      29.56400000      37.44800000      26.61400000
 O      27.59900000      34.73700000      15.48600000
 H      27.24100000      33.85900000      15.33800000
 H      26.78700000      35.34100000      15.41400000
 O      38.65300000      36.17500000      33.88800000
 H      38.06900000      36.85100000      34.29000000
 H      39.40800000      36.80000000      33.70600000
 O      15.45600000      37.09900000      25.53900000
 H      16.43600000      37.15100000      25.73500000
 H      15.34700000      37.97100000      25.02200000
 O      36.60500000      39.34000000       7.49100000
 H      36.29700000      38.52800000       8.00100000
 H      37.56600000      39.31200000       7.53900000
 O       9.56600000      39.05500000      31.06300000
 H       9.51900000      38.12900000      31.40400000
 H       8.84500000      39.47200000      31.58300000
 O      36.93800000      36.03300000      39.15400000
 H      36.99700000      35.94100000      40.13700000
 H      37.49100000      36.80900000      39.01500000
 O      26.65200000      39.76700000      33.86000000
 H      26.18600000      39.03300000      34.37900000
 H      27.45200000      39.89500000      34.47700000
 O      20.60300000      39.67300000       8.13100000
 H      21.29900000      40.39300000       8.14300000
 H      21.19700000      38.95000000       8.28100000
 O      30.40500000      36.75000000       6.49600000
 H      31.05800000      36.42500000       5.74600000
 H      31.10300000      37.31300000       6.96400000
 O      22.01700000      35.58000000      11.86600000
 H      21.51700000      36.32200000      11.49600000
 H      22.48500000      35.21400000      11.10300000
 O      37.29600000      36.45900000      11.27800000
 H      38.14900000      35.94900000      11.29100000
 H      37.59800000      37.31800000      11.64000000
 O      36.71200000      39.02800000      14.00600000
 H      36.59200000      39.89900000      14.48700000
 H      36.25400000      38.44500000      14.63800000
 O      38.32200000      34.76000000      25.22100000
 H      37.96500000      35.72800000      25.26900000
 H      38.88500000      34.85200000      26.01100000
 O      39.14200000      38.72100000       8.72800000
 H      39.74800000      38.10200000       9.17900000
 H      39.43700000      39.55500000       8.96000000
 O       9.12900000      37.51300000      27.71200000
 H       8.30600000      37.55300000      28.24700000
 H       9.23400000      36.58900000      27.53400000
 O      23.63600000      34.34100000      31.75600000
 H      22.99000000      34.75500000      31.21500000
 H      24.43800000      34.32500000      31.21600000
 O      25.24100000      36.00300000      15.05300000
 H      24.28700000      35.79900000      15.02800000
 H      25.38400000      36.11600000      14.09800000
 O      36.61100000      36.08200000      17.72400000
 H      36.87500000      36.96700000      17.61000000
 H      36.65200000      35.73400000      16.78000000
 O      23.34400000      40.39600000      20.68400000
 H      22.76500000      39.65400000      21.07700000
 H      23.97100000      40.45200000      21.42500000
 O      12.29500000      34.96500000      39.81600000
 H      12.19400000      34.64200000      40.73900000
 H      11.60000000      34.50000000      39.36200000
 O      40.29800000      35.17600000      18.30900000
 H      40.08900000      36.16000000      18.30300000
 H      40.22300000      34.97000000      17.33400000
 O      34.99200000      36.90800000      23.31200000
 H      34.28300000      37.52300000      22.95600000
 H      34.50300000      36.49400000      24.02700000
 O      28.33600000      36.51300000      36.42100000
 H      29.28200000      36.78700000      36.43300000
 H      28.30700000      36.04800000      37.27100000
 O      15.90400000      39.30700000      20.33500000
 H      16.36200000      40.09800000      20.71600000
 H      16.14800000      38.65600000      21.02600000
 O      31.15100000      34.77000000      25.66700000
 H      30.57600000      35.54200000      25.80900000
 H      32.00800000      35.23100000      25.65500000
 O      28.72700000      37.37200000      33.58300000
 H      28.14100000      37.07100000      34.34300000
 H      29.08300000      38.22500000      33.98700000
 O      22.03100000      37.56900000       9.74900000
 H      22.45100000      37.05500000       9.01600000
 H      21.07300000      37.34600000       9.60800000
 O      12.59400000      36.67100000      13.47200000
 H      11.95100000      36.33700000      12.83900000
 H      13.19700000      35.88700000      13.50100000
 O      40.36300000      37.25200000      36.92600000
 H      40.04800000      36.34600000      37.05000000
 H      39.82500000      37.46200000      36.11700000
 O      28.71800000      35.48400000       8.13100000
 H      29.21200000      35.84000000       7.37000000
 H      28.46100000      34.61200000       7.84200000
 O      25.08800000      38.73900000       7.83000000
 H      24.83300000      37.80100000       7.91200000
 H      25.02100000      38.90300000       6.87200000
 O      32.25300000      38.50500000       7.60200000
 H      32.96100000      38.43100000       8.27400000
 H      32.53100000      39.29900000       7.14100000
 O      25.44700000      38.82100000      25.38200000
 H      24.56200000      39.10300000      25.37500000
 H      25.40600000      38.15700000      26.12900000
 O       8.36600000      40.80800000       9.28700000
 H       8.67200000      40.74300000       8.37100000
 H       9.10000000      40.34900000       9.72300000
 O      12.95500000      37.15100000      26.44900000
 H      12.50000000      36.93000000      25.57000000
 H      13.90000000      37.07300000      26.23400000
 O      18.10300000      35.20000000      35.86600000
 H      17.26700000      35.49700000      35.45800000
 H      18.35800000      34.55000000      35.11500000
 O      18.14700000      36.83100000      22.33600000
 H      19.04700000      36.50400000      22.62500000
 H      18.40000000      37.27100000      21.49700000
 O      27.59200000      37.08200000      10.31200000
 H      27.47300000      36.63400000       9.48500000
 H      28.42400000      37.58200000      10.11800000
 O      13.53700000      36.82900000      35.26200000
 H      13.16800000      37.54600000      35.82100000
 H      13.24300000      37.06500000      34.37800000
 O      28.47800000      34.41400000      34.16900000
 H      28.92700000      35.12800000      34.66000000
 H      28.98300000      34.36700000      33.31200000
 O      12.22500000      37.90200000       7.89500000
 H      11.51100000      37.59200000       8.50800000
 H      12.10900000      37.34200000       7.11800000
 O      29.51500000      39.21200000      30.65300000
 H      30.39400000      39.17300000      31.08200000
 H      29.17000000      38.26000000      30.79100000
 O      19.73000000      36.39800000      39.81200000
 H      19.92600000      36.31900000      38.83600000
 H      18.81200000      36.01500000      39.82600000
 O      19.70700000      37.24900000      13.21200000
 H      19.65900000      36.43300000      13.69200000
 H      20.70400000      37.38500000      13.12300000
 O      35.20400000      37.45200000      32.34400000
 H      35.77600000      36.86500000      32.81900000
 H      34.34500000      37.41100000      32.88800000
 O      14.28400000      34.61300000      36.79700000
 H      13.56600000      33.90100000      36.95100000
 H      14.07000000      34.90800000      35.94400000
 O      19.69400000      35.43000000      26.00600000
 H      20.09900000      35.46400000      25.14200000
 H      19.13000000      34.62800000      25.95200000
 O      34.36600000      40.62000000       7.97000000
 H      35.31000000      40.36900000       7.78500000
 H      34.14700000      41.08700000       7.16500000
 O      19.39900000      36.53500000      10.06600000
 H      18.81200000      37.10700000      10.61400000
 H      18.95500000      35.70600000      10.08700000
 O       7.09900000      40.08200000      20.15000000
 H       6.89100000      40.70600000      20.85400000
 H       6.24500000      40.02500000      19.66700000
 O      23.02000000      39.58200000      25.38700000
 H      22.63700000      40.08600000      24.62200000
 H      22.51100000      39.95400000      26.10600000
 O      17.56700000      34.89200000      39.93500000
 H      17.13500000      34.41100000      39.20100000
 H      17.95000000      34.10800000      40.38600000
 O      37.94500000      39.13900000      17.94400000
 H      36.99600000      39.40800000      17.92300000
 H      38.19300000      39.73000000      18.73900000
 O      19.48800000      37.75600000      20.12700000
 H      18.97600000      38.31400000      19.41800000
 H      20.01200000      37.17700000      19.54100000
 O      22.27000000      34.47200000      18.68700000
 H      23.20800000      34.67900000      18.74900000
 H      22.33900000      33.46000000      18.61400000
 O      23.57400000      38.44500000      11.72100000
 H      22.87100000      38.38600000      12.41200000
 H      23.07500000      38.39900000      10.91300000
 O      36.75700000      34.35300000      21.99000000
 H      35.97100000      34.65600000      22.47300000
 H      36.33900000      34.14500000      21.13000000
 O      30.98200000      40.23200000      19.64400000
 H      30.71000000      39.72000000      18.85200000
 H      30.11900000      40.30300000      20.11200000
 O      11.29000000      40.45800000      29.53800000
 H      11.32000000      40.01700000      28.66600000
 H      10.70800000      39.77400000      30.01800000
 O      17.57100000      36.92200000      17.28400000
 H      18.42700000      36.50500000      17.40900000
 H      17.04800000      36.55300000      18.05100000
 O      27.95200000      35.66600000      38.79900000
 H      28.56900000      35.45400000      39.58600000
 H      27.48500000      36.48500000      39.21600000
 O      27.68100000      40.23700000      25.61500000
 H      28.35800000      39.66100000      25.17200000
 H      26.86900000      39.70000000      25.43800000
 O      14.91000000      37.81600000       8.71800000
 H      15.17200000      38.57500000       8.14200000
 H      14.01600000      37.71100000       8.35700000
 O      35.84600000      40.35300000      25.66800000
 H      35.48800000      40.63600000      26.57200000
 H      36.72800000      40.80100000      25.69400000
 O      29.44400000      36.23500000      17.20800000
 H      29.79600000      35.49000000      17.66400000
 H      28.82100000      35.85700000      16.61900000
 O      26.13300000      39.24400000      22.95300000
 H      26.37700000      38.34200000      22.54800000
 H      25.91500000      38.91800000      23.84800000
 O      31.26800000      39.20100000      38.76200000
 H      31.10900000      39.17000000      39.74100000
 H      30.31500000      39.46500000      38.51000000
 O      22.85900000      39.21900000      33.75600000
 H      22.45100000      38.43500000      33.96200000
 H      23.03300000      39.14700000      32.75600000
 O      30.02700000      38.73000000      17.64400000
 H      29.92900000      37.75200000      17.63900000
 H      29.82900000      38.87500000      16.70900000
 O      13.73900000      38.88800000      18.45500000
 H      14.57100000      39.04300000      18.86900000
 H      13.97600000      38.97800000      17.49400000
 O      31.21200000      36.79700000      23.07700000
 H      32.04700000      36.95700000      22.59300000
 H      31.15100000      35.81000000      23.10100000
 O      15.41500000      34.29600000      25.15600000
 H      16.16000000      34.23300000      24.51800000
 H      15.63300000      35.17900000      25.47100000
 O      39.77700000      35.24800000       7.47800000
 H      40.52700000      35.78400000       7.14500000
 H      39.09000000      35.51500000       6.81900000
 O      28.54000000      36.63800000      30.60900000
 H      28.23800000      36.85800000      31.54200000
 H      29.30700000      36.10700000      30.78500000
 O      13.01600000      37.86400000      20.90300000
 H      13.92400000      37.56400000      21.10200000
 H      13.15100000      38.23300000      20.01300000
 O      32.28900000      34.68800000      15.26400000
 H      32.25900000      34.87800000      14.31900000
 H      33.08900000      34.10500000      15.26000000
 O       8.23300000      38.04300000       7.34700000
 H       7.27000000      38.23000000       7.60600000
 H       8.20800000      38.35200000       6.45900000
 O      10.25900000      37.52500000      14.55800000
 H      10.60700000      38.40900000      14.28900000
 H      11.08300000      37.03800000      14.65300000
 O      25.77000000      36.62000000      17.51600000
 H      25.66900000      37.59800000      17.60600000
 H      25.71900000      36.53000000      16.57400000
 O      16.04700000      35.65900000       7.69100000
 H      15.75700000      34.96500000       8.35000000
 H      15.74200000      36.46900000       8.23200000
 O       8.00400000      35.26600000      16.08500000
 H       8.82500000      34.78100000      15.99300000
 H       7.95100000      35.90800000      15.34600000
 O      19.53500000      37.29600000      27.98300000
 H      20.46800000      37.30800000      28.24600000
 H      19.53700000      36.62500000      27.30800000
 O      24.99300000      34.28200000      18.27600000
 H      24.86000000      33.80900000      17.38800000
 H      25.35900000      35.09000000      18.01800000
 O       9.27800000      38.95900000      19.01100000
 H       8.99900000      38.94900000      18.04200000
 H       8.43300000      39.31300000      19.41100000
 O      19.01700000      37.94000000      30.56800000
 H      19.13400000      37.56900000      29.68500000
 H      19.71200000      38.56900000      30.63000000
 O      14.55600000      39.67100000      25.05600000
 H      13.60000000      39.52400000      25.20100000
 H      14.57000000      40.53800000      24.57900000
 O      12.77600000      40.67300000       7.25500000
 H      12.88200000      40.69300000       6.28700000
 H      12.75600000      39.68100000       7.41700000
 O      35.12600000      39.54900000      18.07700000
 H      35.25900000      39.33700000      18.97700000
 H      34.46500000      38.86100000      17.80400000
 O      24.50400000      34.75100000      22.80900000
 H      24.23900000      34.25000000      23.65600000
 H      24.97600000      34.02400000      22.38600000
 O       6.92000000      37.21000000      29.36000000
 H       7.42600000      36.69400000      30.00500000
 H       6.05700000      36.86100000      29.48800000
 O      17.69200000      34.17600000      23.63300000
 H      18.38300000      33.52500000      23.51400000
 H      18.07400000      34.90100000      23.05000000
 O       6.42300000      36.68000000      32.52900000
 H       5.74300000      36.84700000      31.85600000
 H       7.12800000      36.24900000      31.99300000
 O      30.68100000      37.64500000      36.50700000
 H      31.26800000      37.08000000      35.92000000
 H      31.40200000      38.20900000      36.97700000
 O      15.88200000      35.77300000      12.64100000
 H      16.33500000      36.66500000      12.58300000
 H      16.22200000      35.54800000      13.53100000
 O      13.54500000      35.53200000      17.55700000
 H      14.17000000      36.18500000      17.05400000
 H      12.74600000      36.13000000      17.52900000
 O      20.67500000      35.32300000      15.29100000
 H      21.49200000      35.16600000      14.76200000
 H      20.52300000      34.52700000      15.80400000
 O      20.20900000      40.31500000      33.52900000
 H      20.19000000      40.21000000      32.51500000
 H      21.07100000      39.93700000      33.72700000
 O       6.35800000      37.29900000      36.30100000
 H       7.26200000      37.46400000      36.01900000
 H       6.05200000      36.63000000      35.60400000
 O      40.64800000      40.32900000      13.77200000
 H      40.95100000      39.34800000      13.91700000
 H      40.41300000      40.53900000      14.68000000
 O      16.73000000      37.24100000      31.93700000
 H      17.56900000      37.59500000      31.50000000
 H      16.65100000      36.40600000      31.43400000
 O      11.78600000      37.63400000      17.50600000
 H      11.18300000      38.41400000      17.31200000
 H      12.49300000      38.13200000      18.02300000
 O      39.48200000      38.47600000      23.50700000
 H      39.93600000      37.94100000      22.82000000
 H      39.81900000      39.36000000      23.21900000
 O      28.84300000      40.05500000      38.30000000
 H      28.23100000      39.56100000      37.72100000
 H      28.62200000      40.97100000      38.00300000
 O      39.64400000      35.31000000      12.11900000
 H      39.73200000      35.92700000      12.91100000
 H      39.59000000      34.47300000      12.54900000
 O      40.01000000      35.94300000      15.04100000
 H      40.70100000      36.63500000      14.67100000
 H      40.72300000      35.26100000      15.30500000
 O      18.47600000      39.53900000      35.77300000
 H      19.23800000      39.24600000      36.21400000
 H      18.87900000      39.99400000      34.97300000
 O      25.28000000      35.41600000       9.22500000
 H      25.13300000      34.87600000      10.02800000
 H      26.01000000      35.02400000       8.78900000
 O      34.30000000      37.41500000      35.39600000
 H      33.44300000      36.96300000      35.45700000
 H      34.27600000      37.99700000      36.20400000
 O      22.38800000      35.62900000      21.31500000
 H      23.12900000      35.20000000      21.81900000
 H      22.39900000      35.10300000      20.50600000
 O      16.88000000      40.66200000      26.55900000
 H      16.32600000      40.26300000      27.23900000
 H      16.26100000      40.46600000      25.75600000
 O      11.72000000      36.36100000      24.06500000
 H      12.45000000      35.93600000      23.56300000
 H      11.21500000      35.55300000      24.31600000
 O      38.72200000      38.46300000      12.52700000
 H      38.02000000      38.62400000      13.23900000
 H      39.32200000      39.19400000      12.71800000
 O       7.87500000      39.04200000      33.47300000
 H       8.47800000      39.64800000      33.97800000
 H       8.14900000      38.20200000      33.85900000
 O      16.11500000      36.35700000      34.63900000
 H      16.11300000      36.79800000      33.78500000
 H      15.23000000      36.58400000      35.04500000
 O      17.91600000      37.85900000      25.55900000
 H      18.51700000      37.13900000      25.91800000
 H      18.15300000      37.80700000      24.64000000
 O      16.50100000      38.80500000      28.79400000
 H      15.79500000      38.11600000      28.66700000
 H      17.23500000      38.38700000      28.22600000
 O      35.02700000      37.49700000      27.61400000
 H      35.39600000      37.14600000      28.46900000
 H      35.76200000      38.01400000      27.32200000
 O      35.65800000      39.23500000      11.48500000
 H      36.10000000      39.18600000      12.37100000
 H      36.20300000      39.95200000      11.03000000
 O      10.41700000      39.03700000      36.56000000
 H      10.58600000      38.48600000      37.36600000
 H      11.37600000      39.15400000      36.31700000
 O      22.16900000      38.39900000      14.05200000
 H      22.74900000      38.42000000      14.88500000
 H      22.15000000      39.37900000      13.88700000
 O      36.33400000      37.23200000      29.88300000
 H      35.92800000      37.57000000      30.72100000
 H      36.91500000      36.53300000      30.29500000
 O      27.75100000      38.03400000      12.97700000
 H      27.76100000      38.02100000      11.95400000
 H      26.97700000      37.36800000      13.00500000
 O      17.50500000      35.23000000      29.95100000
 H      18.00600000      36.01900000      29.66900000
 H      18.19700000      34.53000000      29.87600000
 O      37.06700000      37.88400000      35.57100000
 H      37.33200000      37.52100000      36.42500000
 H      36.09200000      37.69100000      35.56300000
 O      15.47000000      39.57000000      35.38300000
 H      15.49800000      39.33600000      34.39300000
 H      16.40200000      39.27900000      35.59500000
 O      36.67100000      36.63600000       8.51200000
 H      36.70200000      36.57400000       9.47000000
 H      37.61400000      36.82100000       8.30300000
 O      37.13100000      35.74800000      15.00400000
 H      37.15200000      34.83800000      14.74500000
 H      38.09800000      35.90900000      15.06700000
 O      17.02900000      39.51600000      16.20700000
 H      17.38400000      39.41200000      15.25200000
 H      17.33700000      38.64200000      16.46700000
 O      18.56600000      40.03400000       9.99300000
 H      19.19300000      39.77400000       9.26400000
 H      19.10600000      40.69100000      10.44900000
 O      15.49000000      36.93200000      21.98400000
 H      15.06600000      36.13100000      22.28800000
 H      16.42100000      36.87200000      22.34700000
 O      29.03200000      40.23800000       7.22600000
 H      28.72800000      39.58100000       6.55700000
 H      28.34900000      40.93100000       7.07800000
 O      18.79300000      34.89700000       7.26500000
 H      19.23500000      35.53700000       6.65400000
 H      18.12800000      35.47700000       7.73000000
 O       7.94900000      40.09100000      40.45400000
 H       7.38200000      39.61100000      39.76900000
 H       8.41300000      39.28700000      40.77500000
 O      38.77500000      46.18000000      19.64400000
 H      39.19600000      46.00800000      18.75800000
 H      38.15000000      46.88700000      19.36300000
 O      11.24500000      46.57000000      28.26800000
 H      11.42800000      45.69000000      28.57800000
 H      10.80400000      46.40300000      27.42100000
 O       9.38000000      42.60200000      34.44600000
 H       9.49500000      42.95300000      35.33500000
 H       9.85000000      43.20700000      33.83100000
 O      23.25800000      43.15400000       6.25200000
 H      22.35400000      43.26600000       6.56700000
 H      23.79800000      43.42800000       6.97700000
 O      17.92400000      44.59000000      31.49900000
 H      17.74700000      45.12900000      30.66600000
 H      17.31000000      43.83000000      31.35300000
 O      11.46400000      45.19700000      23.31400000
 H      11.14000000      45.96900000      22.80100000
 H      12.22900000      44.94500000      22.71200000
 O      29.78000000      45.74500000      10.93200000
 H      28.98900000      45.17500000      10.72800000
 H      29.70400000      46.32600000      10.14200000
 O      12.64100000      42.45900000      39.71800000
 H      13.29100000      41.94100000      39.27800000
 H      12.44900000      41.94400000      40.54500000
 O      24.24400000      46.01200000      37.74600000
 H      24.85900000      46.72100000      38.03000000
 H      24.59200000      45.26200000      38.19200000
 O      14.46600000      44.68700000      30.07200000
 H      15.04700000      43.90900000      30.01700000
 H      13.96700000      44.53200000      29.19100000
 O      26.43000000      47.48500000      38.54800000
 H      27.03000000      48.27400000      38.58300000
 H      26.86000000      47.01100000      37.84200000
 O       9.97800000      42.50400000      23.53900000
 H      10.58600000      43.33500000      23.48400000
 H      10.63600000      41.81400000      23.51200000
 O      15.95600000      48.30000000      14.81800000
 H      16.83400000      48.24400000      14.39600000
 H      16.03500000      49.19500000      15.26600000
 O      39.39900000      46.65400000      11.02400000
 H      39.29300000      45.97800000      11.73900000
 H      40.36200000      46.81200000      11.04100000
 O      31.99000000      43.35200000      33.42600000
 H      31.56600000      43.72700000      34.22800000
 H      31.49200000      43.87000000      32.76100000
 O      31.27100000      47.06600000      32.24500000
 H      31.96000000      46.48000000      31.78900000
 H      30.53700000      46.98800000      31.64800000
 O       7.96100000      47.69300000      38.92500000
 H       7.45200000      46.93000000      39.21900000
 H       8.86200000      47.46800000      39.25400000
 O       6.45100000      47.43200000      17.74700000
 H       6.97300000      48.00200000      17.19600000
 H       7.09900000      47.16400000      18.40000000
 O      16.35200000      45.57400000      17.85100000
 H      15.86700000      45.33600000      17.03300000
 H      15.66500000      45.37000000      18.55200000
 O      18.38900000      45.30900000      21.59700000
 H      18.47700000      45.41200000      22.57400000
 H      19.16400000      45.82600000      21.30800000
 O      23.49900000      43.32700000      32.79500000
 H      23.19200000      42.42300000      33.09000000
 H      22.84600000      43.45500000      32.10900000
 O      32.82900000      43.70700000      12.24700000
 H      33.42200000      43.90400000      11.45600000
 H      32.91900000      44.49900000      12.74200000
 O      40.40500000      42.67900000      37.88800000
 H      40.42200000      42.06800000      38.65300000
 H      41.26700000      42.42700000      37.53200000
 O      18.92600000      44.87100000      40.35400000
 H      18.88000000      44.63000000      39.38900000
 H      18.55900000      43.96600000      40.69400000
 O      27.62000000      45.15100000      27.72900000
 H      27.84100000      44.21000000      28.01900000
 H      27.38300000      44.87800000      26.75400000
 O      19.76500000      46.65800000      15.46900000
 H      19.27500000      47.50400000      15.50000000
 H      19.83200000      46.53900000      14.51700000
 O      32.16500000      47.94600000      36.36600000
 H      32.03400000      48.01300000      37.38100000
 H      32.90600000      48.64300000      36.30300000
 O       7.41800000      43.36200000      23.57200000
 H       8.36800000      43.19300000      23.62700000
 H       7.14200000      43.65100000      24.48100000
 O      19.31800000      42.62500000      12.46800000
 H      19.44000000      43.20700000      13.27500000
 H      19.29500000      41.74800000      12.90700000
 O      28.21700000      46.97900000      15.32100000
 H      29.06400000      46.95700000      14.74900000
 H      28.64500000      47.23600000      16.20100000
 O       8.28600000      42.47200000      37.11600000
 H       8.66100000      41.93000000      36.41200000
 H       9.07200000      42.77300000      37.62100000
 O      15.80200000      47.13900000      10.75300000
 H      16.07700000      46.82500000      11.65500000
 H      16.01100000      46.31700000      10.21800000
 O      13.51300000      44.40200000       8.74200000
 H      13.14500000      43.67400000       8.19200000
 H      12.72700000      45.00400000       8.80500000
 O      26.92900000      43.61900000      37.99400000
 H      26.46800000      43.62900000      37.13600000
 H      26.22300000      43.47300000      38.61500000
 O      37.74100000      46.29300000       7.13100000
 H      37.76400000      46.22300000       6.17800000
 H      37.24200000      47.09300000       7.29700000
 O      30.25200000      48.47200000      34.56400000
 H      31.01100000      48.18400000      35.16500000
 H      30.48900000      47.96800000      33.77500000
 O      34.50500000      45.27100000      26.68900000
 H      34.10500000      45.87000000      25.99400000
 H      33.87600000      44.50400000      26.57000000
 O      21.04500000      48.10600000      27.78000000
 H      21.05300000      48.50000000      26.87000000
 H      21.96100000      47.75900000      27.77600000
 O      10.62400000      45.51100000      10.17700000
 H      10.53000000      45.12200000      11.03500000
 H       9.79200000      45.33800000       9.73600000
 O      16.37200000      43.24400000      11.56600000
 H      17.31800000      43.25500000      11.55600000
 H      16.23500000      44.03400000      10.92000000
 O      10.39200000      44.93700000      33.20400000
 H      11.15700000      44.65200000      32.68900000
 H       9.87900000      45.42800000      32.46300000
 O      17.41300000      48.41400000      24.81300000
 H      17.24800000      49.00000000      25.62000000
 H      17.10000000      49.11400000      24.14900000
 O       7.75800000      47.22400000      20.50200000
 H       7.10700000      47.87500000      20.67800000
 H       7.38900000      46.52700000      21.05800000
 O      33.09100000      42.58700000      22.57800000
 H      32.93400000      41.79000000      23.12200000
 H      33.10500000      43.26700000      23.25500000
 O      16.12200000      48.52100000      36.70900000
 H      15.37400000      47.89500000      36.63500000
 H      16.82500000      48.03100000      36.21700000
 O      25.86000000      43.60000000      23.31900000
 H      26.02400000      42.62900000      23.50700000
 H      25.87200000      43.66100000      22.37100000
 O      37.22000000      42.57300000      10.33100000
 H      38.18200000      42.42600000      10.49400000
 H      37.29600000      43.53100000      10.09500000
 O      35.42300000      44.46000000      36.07400000
 H      35.71500000      45.32900000      36.42200000
 H      35.84800000      43.81300000      36.59700000
 O      17.57700000      46.53100000      12.99200000
 H      17.61800000      45.60700000      13.39200000
 H      18.50500000      46.74600000      12.88900000
 O      18.98900000      42.40600000      28.38000000
 H      18.27900000      42.12000000      27.74000000
 H      18.77000000      43.36700000      28.29800000
 O      32.94200000      43.44100000      25.65900000
 H      33.41800000      42.63700000      25.35900000
 H      32.33200000      42.92200000      26.32300000
 O      26.14000000      42.84400000      29.48300000
 H      26.39700000      42.73500000      30.39700000
 H      27.01700000      42.76200000      28.99500000
 O      24.79000000      43.65600000       8.43100000
 H      25.37200000      42.97800000       8.80300000
 H      25.16300000      44.47300000       8.88400000
 O      26.61000000      44.61700000      15.03700000
 H      27.14300000      45.48900000      15.26000000
 H      27.26300000      44.12300000      14.56100000
 O      40.37500000      45.21400000      35.26300000
 H      39.67000000      44.82100000      34.75700000
 H      40.37000000      44.81100000      36.11700000
 O       9.39600000      43.89100000      15.50200000
 H       8.47900000      43.81700000      15.81100000
 H       9.83800000      43.97500000      16.37800000
 O      21.40000000      45.64700000       8.76900000
 H      21.03300000      46.23400000       9.52700000
 H      22.12200000      45.22000000       9.27300000
 O      33.23600000      45.85900000      15.01500000
 H      33.55900000      45.08100000      15.53000000
 H      32.35200000      45.96100000      15.44500000
 O      37.92600000      47.76500000      15.15900000
 H      38.45300000      48.06600000      14.43100000
 H      38.45600000      48.06100000      15.96700000
 O      14.32400000      48.42900000      38.86700000
 H      14.96200000      47.74500000      39.19800000
 H      14.82000000      48.81200000      38.10300000
 O       6.84900000      45.52700000      12.09300000
 H       6.71100000      45.69200000      11.16500000
 H       7.65900000      44.98100000      12.07100000
 O      39.39400000      44.56800000      21.62200000
 H      38.65100000      44.93000000      22.09800000
 H      39.40200000      45.21500000      20.89300000
 O       7.43700000      47.19600000      33.08900000
 H       6.59700000      46.72300000      33.22700000
 H       7.81900000      46.64100000      32.36100000
 O      21.47200000      45.83500000      34.67100000
 H      20.68200000      45.25500000      34.95000000
 H      21.08700000      46.05100000      33.81000000
 O      28.41300000      46.20500000      37.04900000
 H      28.92600000      46.28000000      37.85600000
 H      27.96800000      45.32900000      37.12300000
 O      38.06700000      46.81200000      23.19200000
 H      38.70000000      46.89900000      23.93500000
 H      38.11700000      47.68400000      22.85500000
 O      16.62100000      44.87200000      25.87700000
 H      17.32500000      45.14900000      26.45000000
 H      16.60600000      43.90200000      26.09200000
 O      21.19500000      48.01100000       9.95600000
 H      22.03000000      48.46200000       9.96000000
 H      20.71200000      48.35600000       9.22800000
 O      22.63300000      43.65900000      36.89300000
 H      22.08000000      43.41200000      36.13600000
 H      22.93000000      44.55600000      36.76200000
 O      23.79800000      49.07700000      25.64600000
 H      22.88100000      49.28200000      25.35600000
 H      23.80400000      48.10600000      25.56100000
 O      14.01200000      43.07700000      14.09900000
 H      13.78400000      43.52100000      13.26200000
 H      13.86800000      42.13600000      13.85900000
 O       8.61600000      45.70500000      31.16800000
 H       8.35000000      44.84000000      30.74300000
 H       8.72300000      46.19000000      30.31900000
 O      39.04700000      47.71600000      38.63800000
 H      38.74700000      47.74500000      37.69100000
 H      39.50200000      46.80900000      38.61600000
 O      25.91400000      47.78100000      18.28500000
 H      25.90300000      46.86700000      18.06500000
 H      26.30200000      48.23700000      17.52100000
 O      27.73600000      43.82400000      11.04900000
 H      27.94000000      43.48800000      11.93700000
 H      27.48500000      43.04500000      10.51700000
 O      35.27200000      48.74100000      25.82600000
 H      35.40600000      48.64900000      26.78200000
 H      34.51000000      48.24500000      25.63500000
 O      19.59300000      46.56900000      32.80000000
 H      19.73600000      47.01800000      31.93800000
 H      19.04800000      45.73800000      32.50500000
 O      34.46300000      48.03700000      10.85400000
 H      34.69500000      47.63300000      11.68400000
 H      35.27900000      48.41000000      10.52700000
 O      24.27100000      45.40000000      34.22900000
 H      24.05700000      44.71300000      33.54200000
 H      23.31500000      45.71400000      34.33100000
 O      11.40300000      46.32100000      19.26400000
 H      11.06000000      46.70600000      20.07700000
 H      12.31800000      46.08000000      19.47900000
 O      40.71600000      47.84000000      27.68700000
 H      41.28600000      47.66700000      28.46400000
 H      40.46600000      48.78100000      27.98900000
 O      37.35400000      48.50300000      10.84900000
 H      37.48000000      49.35600000      11.41900000
 H      37.98900000      47.95600000      11.35600000
 O      36.72800000      48.69900000      35.03100000
 H      36.58200000      48.72900000      34.11800000
 H      37.58300000      48.23100000      35.10700000
 O      26.53800000      43.32100000      32.09900000
 H      25.61600000      43.62800000      32.29700000
 H      26.60900000      42.59900000      32.74600000
 O      37.55300000      45.49800000      27.08300000
 H      37.45300000      46.31900000      27.62300000
 H      36.62500000      45.34600000      26.85600000
 O      19.32200000      47.58800000      29.84900000
 H      20.08700000      47.89800000      29.21800000
 H      18.82600000      48.44900000      29.85800000
 O      15.81100000      48.73800000       8.39900000
 H      15.81600000      48.13200000       9.18500000
 H      16.77600000      49.01800000       8.45600000
 O       8.40200000      45.03400000      18.83500000
 H       8.90700000      44.40700000      19.40600000
 H       8.46800000      45.84200000      19.39000000
 O      36.72500000      42.83100000      22.43500000
 H      36.15600000      43.58300000      22.57700000
 H      37.41500000      42.99700000      23.09500000
 O      23.78700000      44.51100000      28.56600000
 H      23.46100000      43.96400000      27.84200000
 H      24.64900000      44.11200000      28.83500000
 O      31.81000000      48.47600000      38.94500000
 H      31.33500000      48.11300000      39.71900000
 H      31.49200000      49.34600000      38.98200000
 O       8.21500000      48.71000000      35.51700000
 H       8.10400000      47.98200000      34.81700000
 H       8.58200000      49.44400000      34.92900000
 O      34.70200000      47.58100000      16.71000000
 H      34.55600000      47.07000000      15.88600000
 H      33.73700000      47.80000000      16.91800000
 O      18.98300000      44.02400000      34.18600000
 H      19.48300000      43.21200000      34.03500000
 H      18.37900000      43.98100000      33.42600000
 O       8.90500000      45.67900000       7.03400000
 H       9.33300000      44.81200000       7.13600000
 H       9.00800000      45.90200000       6.09100000
 O      27.18100000      43.65200000       6.55700000
 H      26.29900000      43.69300000       7.03400000
 H      27.14100000      44.58500000       6.23200000
 O       6.91700000      48.36400000      13.40100000
 H       6.20400000      48.75800000      12.84900000
 H       7.02400000      47.50800000      12.96300000
 O      28.19800000      47.21400000      24.17900000
 H      28.07300000      46.43800000      24.76900000
 H      27.61300000      47.85200000      24.59000000
 O      28.69100000      42.58300000      27.89400000
 H      29.59400000      42.26500000      28.00100000
 H      28.33100000      42.00300000      27.17400000
 O      31.68000000      44.25100000      28.39800000
 H      32.14400000      45.04400000      28.77400000
 H      31.00800000      44.64200000      27.82700000
 O      38.35700000      43.65400000      24.80700000
 H      38.67900000      44.57600000      24.66000000
 H      39.18700000      43.22000000      25.04200000
 O      25.96600000      43.73700000      35.52700000
 H      25.42700000      44.47400000      35.22600000
 H      25.82000000      43.08900000      34.78900000
 O       9.94300000      46.48400000      14.24800000
 H       9.87600000      46.23200000      15.16800000
 H       9.79100000      45.65400000      13.76000000
 O      13.38000000      45.01700000      21.14600000
 H      13.88000000      45.77200000      20.82000000
 H      13.35400000      44.43500000      20.37400000
 O      10.08100000      43.06200000       7.22100000
 H      10.91100000      42.87400000       7.57700000
 H      10.11700000      42.73900000       6.31300000
 O      12.79600000      46.82700000      15.33600000
 H      11.86900000      46.69600000      15.43200000
 H      12.81800000      47.39100000      14.51800000
 O      34.80800000      42.99900000      33.72600000
 H      33.80200000      43.13000000      33.67800000
 H      34.93100000      43.50900000      34.52300000
 O       9.87200000      43.10700000      20.34400000
 H       9.59200000      42.23400000      19.99000000
 H       9.87200000      42.91200000      21.27800000
 O      39.83500000      46.33700000      25.74100000
 H      40.11200000      46.90500000      26.45500000
 H      39.03100000      45.94600000      26.08200000
 O      12.03300000      43.99400000      25.56000000
 H      12.99000000      44.11100000      25.36500000
 H      11.70000000      44.53200000      24.79100000
 O      35.08200000      46.59900000      31.45100000
 H      34.53000000      47.44500000      31.60100000
 H      35.95000000      46.93700000      31.79200000
 O      36.53500000      47.86600000      28.15400000
 H      35.61200000      48.01600000      28.43300000
 H      36.97900000      48.38700000      28.82600000
 O      23.90700000      44.88800000      14.55400000
 H      23.86200000      45.83500000      14.88800000
 H      24.88700000      44.79700000      14.50500000
 O      18.59700000      48.31100000      39.10300000
 H      19.22400000      48.55700000      39.81700000
 H      19.20800000      47.90700000      38.45200000
 O      13.60500000      43.78800000      11.50200000
 H      13.56400000      44.25800000      10.66100000
 H      14.58900000      43.81800000      11.68200000
 O      31.65400000      47.54400000      29.13400000
 H      31.33500000      48.41200000      29.40300000
 H      30.83500000      47.01800000      29.02200000
 O      20.04200000      47.90600000       7.08900000
 H      20.46600000      47.60000000       6.17900000
 H      20.08000000      47.08000000       7.61300000
 O      38.25100000      44.31000000      33.70200000
 H      38.05000000      43.39000000      33.36900000
 H      37.74400000      44.29300000      34.51200000
 O      20.39400000      46.31500000      20.28200000
 H      20.39500000      47.03900000      19.69100000
 H      21.25300000      45.93700000      20.16000000
 O      32.80500000      47.31100000      24.99500000
 H      32.19800000      48.01200000      24.85600000
 H      32.13300000      46.52500000      24.76500000
 O      38.61700000      44.07900000      29.21700000
 H      38.07000000      43.32500000      29.32400000
 H      38.16300000      44.65000000      28.54700000
 O      38.11600000      43.86400000      36.67000000
 H      37.79600000      44.11600000      37.57700000
 H      38.66800000      43.06500000      36.90700000
 O      10.47300000      44.14100000      38.48400000
 H      11.30300000      43.55700000      38.49400000
 H      10.83900000      45.01100000      38.49100000
 O      37.15800000      45.17700000       9.54300000
 H      37.67500000      45.93500000       9.89900000
 H      37.18600000      45.44600000       8.58700000
 O       9.32500000      44.13400000      27.29600000
 H       8.93800000      43.34500000      26.83400000
 H       9.78800000      44.58800000      26.57900000
 O      13.90400000      47.18900000      27.94400000
 H      12.93900000      47.08800000      28.20400000
 H      13.91000000      46.75100000      27.07100000
 O      30.18500000      46.59700000      21.63900000
 H      30.32600000      46.01800000      22.39000000
 H      30.12700000      47.44000000      22.11700000
 O      35.53700000      45.21700000      23.31500000
 H      35.59900000      46.20300000      23.39900000
 H      35.46600000      44.97600000      24.25800000
 O      16.94100000      48.47800000      17.96300000
 H      15.96900000      48.63800000      17.82200000
 H      16.91300000      47.50800000      17.77300000
 O      23.62800000      46.54900000       6.93700000
 H      23.01600000      46.25300000       6.23800000
 H      23.01900000      46.65600000       7.66700000
 O      11.13700000      43.54400000      17.79700000
 H      10.82700000      43.20100000      18.64900000
 H      12.13300000      43.60700000      17.98000000
 O      39.20300000      47.64000000      35.62100000
 H      39.76100000      48.23600000      35.07400000
 H      39.62600000      46.79100000      35.37100000
 O      22.20800000      44.82800000      30.73500000
 H      22.74300000      45.01600000      29.95300000
 H      22.32300000      45.61700000      31.29500000
 O      21.86800000      42.74500000      23.64000000
 H      21.64600000      43.56600000      24.19600000
 H      21.44500000      42.94100000      22.82700000
 O      27.95700000      45.99600000      20.22700000
 H      27.80600000      46.95200000      20.01700000
 H      28.71300000      46.13500000      20.86800000
 O      16.69600000      47.82100000      31.92100000
 H      16.79800000      47.60500000      30.97100000
 H      16.53200000      48.80900000      31.74300000
 O      32.49800000      46.53900000       7.62400000
 H      32.29000000      47.19900000       8.26400000
 H      32.34900000      45.68500000       8.07100000
 O      37.11300000      44.56600000      39.12900000
 H      36.86300000      45.39800000      38.72200000
 H      36.36800000      44.34400000      39.71700000
 O      35.00000000      46.57000000      13.01200000
 H      35.70800000      46.09200000      13.49800000
 H      34.32500000      46.44600000      13.68800000
 O      12.26400000      44.16000000      28.36900000
 H      12.13900000      44.16400000      27.37100000
 H      11.72100000      43.31400000      28.57100000
 O      28.77900000      43.36800000      30.81300000
 H      28.93700000      42.37500000      30.82000000
 H      27.93600000      43.35200000      31.33800000
 O      26.11600000      48.35400000      14.78500000
 H      26.37700000      48.71000000      13.87500000
 H      26.93700000      47.82100000      15.00600000
 O      14.12400000      48.53900000      17.53600000
 H      13.81400000      47.86100000      16.92100000
 H      13.55100000      49.27700000      17.25700000
 O      22.46300000      47.07300000      31.84700000
 H      23.33500000      47.15200000      31.41000000
 H      22.35700000      47.97500000      32.24100000
 O      21.40700000      42.61100000      27.20600000
 H      21.34800000      43.25200000      26.49600000
 H      20.47200000      42.68000000      27.59000000
 O      22.53000000      44.01000000      10.38300000
 H      22.33600000      43.12800000      10.73200000
 H      23.47000000      44.13800000      10.63600000
 O       8.50900000      47.72800000       8.65100000
 H       9.36600000      48.01500000       9.09400000
 H       8.79600000      46.88700000       8.27800000
 O      21.43800000      42.43700000      39.68400000
 H      21.82400000      41.98500000      38.94900000
 H      21.95300000      42.08500000      40.43200000
 O      28.40400000      48.23300000      31.52200000
 H      28.63500000      47.45600000      30.96000000
 H      27.49400000      47.89500000      31.78800000
 O      28.04200000      42.52600000      13.65400000
 H      28.94400000      42.80700000      13.98700000
 H      28.00300000      41.64300000      14.04200000
 O      36.46500000      42.95600000      15.10900000
 H      36.97500000      43.79700000      15.10700000
 H      35.77700000      43.24000000      15.72600000
 O      15.01100000      42.74600000      16.73200000
 H      15.91300000      42.30700000      16.51600000
 H      14.75000000      42.91700000      15.77600000
 O      34.13900000      46.85500000      39.73000000
 H      33.44200000      47.03900000      39.08700000
 H      33.62700000      46.05800000      40.18200000
 O      30.33900000      44.24900000      35.63000000
 H      31.15100000      44.53000000      36.07300000
 H      29.99100000      45.10600000      35.35900000
 O      12.02000000      44.87200000      31.08000000
 H      11.82400000      44.07200000      30.55700000
 H      12.93700000      45.01300000      30.81200000
 O      34.34700000      43.51300000      16.80700000
 H      33.36400000      43.26500000      16.80300000
 H      34.63300000      42.86500000      17.54400000
 O      25.43900000      46.75600000      23.47200000
 H      25.25000000      47.35900000      22.79000000
 H      26.34000000      46.58500000      23.44500000
 O      10.42700000      47.25900000      21.61100000
 H      10.66900000      47.99100000      22.21100000
 H       9.41700000      47.44900000      21.49700000
 O      10.67300000      46.10900000      35.94600000
 H      11.18400000      45.29900000      36.05200000
 H      10.38100000      46.07500000      35.05900000
 O      29.67800000      47.61400000      17.50000000
 H      29.36300000      48.22900000      18.21200000
 H      30.19300000      46.97500000      18.06900000
 O      16.28700000      44.78700000       9.22000000
 H      16.71000000      44.89300000       8.33700000
 H      15.38100000      44.58400000       8.89600000
 O      15.36500000      44.10100000      35.65200000
 H      15.83800000      44.77600000      35.13400000
 H      15.55900000      43.29800000      35.15000000
 O      22.70600000      47.34100000      15.76400000
 H      22.92300000      46.76300000      16.48600000
 H      21.75400000      47.12100000      15.67600000
 O      39.91100000      48.46300000       8.75900000
 H      39.94800000      49.11500000       9.48700000
 H      39.49300000      47.72100000       9.29400000
 O      39.42000000      45.78800000      31.65100000
 H      39.09900000      45.29000000      32.51400000
 H      39.28100000      45.02200000      31.02700000
 O      30.62200000      43.83100000      14.12900000
 H      31.30100000      43.47000000      13.55500000
 H      31.08300000      43.85000000      15.02900000
 O      37.69300000      45.17600000      15.45300000
 H      37.87600000      46.15700000      15.37900000
 H      38.49400000      45.00600000      15.99900000
 O      14.19900000      45.95600000      25.47500000
 H      15.06900000      45.45700000      25.64200000
 H      14.43700000      46.42700000      24.64900000
 O      32.84700000      45.03900000      31.38600000
 H      33.72200000      45.48400000      31.53000000
 H      33.12700000      44.12400000      31.34400000
 O      24.99400000      43.60300000      40.00900000
 H      25.09000000      42.83200000      40.59300000
 H      24.13000000      43.92700000      40.39000000
 O      23.33100000      45.24200000      20.68400000
 H      23.58500000      44.34900000      20.77300000
 H      24.09800000      45.78800000      20.99900000
 O      26.31400000      43.86600000      20.44800000
 H      26.30700000      43.86900000      19.45400000
 H      26.88300000      44.69500000      20.54000000
 O       9.90600000      46.50700000      16.92700000
 H      10.47600000      46.68600000      17.71300000
 H       9.25700000      45.86600000      17.36200000
 O      36.48200000      44.23000000      18.63000000
 H      36.03000000      44.27100000      17.78800000
 H      35.78900000      44.65300000      19.20100000
 O      35.08100000      42.63200000      28.27200000
 H      35.78800000      42.05500000      28.66200000
 H      35.31000000      43.53400000      28.64900000
 O      37.53100000      48.05400000      31.85000000
 H      38.08900000      47.26400000      31.67800000
 H      38.10700000      48.60800000      32.43200000
 O       8.09300000      48.77000000      15.80700000
 H       8.86700000      48.15400000      15.59300000
 H       7.59400000      48.67000000      14.98500000
 O      36.37800000      47.57100000      18.79200000
 H      35.94700000      47.01400000      19.40000000
 H      35.74100000      47.49100000      17.99300000
 O      30.17500000      46.36200000      13.45900000
 H      30.03900000      45.39500000      13.76400000
 H      29.97600000      46.24100000      12.50400000
 O      22.35500000      48.48800000      34.87600000
 H      22.30400000      48.46300000      33.95800000
 H      22.27700000      47.57500000      35.13300000
 O      26.10500000      44.10500000      17.58400000
 H      26.23200000      44.40600000      16.68700000
 H      26.62600000      43.24700000      17.57400000
 O      28.73500000      46.48700000       8.51400000
 H      29.01100000      47.40100000       8.37900000
 H      29.19200000      46.00700000       7.76100000
 O      29.37300000      44.12400000      17.78900000
 H      28.92700000      44.80400000      18.35700000
 H      28.75300000      43.34800000      17.84100000
 O      40.24600000      44.84100000      16.80500000
 H      40.94200000      45.34700000      16.26900000
 H      40.70500000      44.90200000      17.70300000
 O      21.26300000      46.04500000      39.49400000
 H      20.43500000      45.72500000      39.85000000
 H      21.21400000      45.95200000      38.54200000
 O      12.21700000      46.28300000      38.82400000
 H      12.95500000      46.81900000      39.07700000
 H      11.98800000      46.65900000      38.01200000
 O      25.31100000      48.48700000      21.01400000
 H      25.54100000      48.33900000      20.05000000
 H      25.97900000      49.20200000      21.19600000
 O      39.97200000      42.56500000       9.81600000
 H      40.65700000      42.88400000      10.41700000
 H      40.02100000      43.17900000       9.11800000
 O      17.18000000      42.72000000      21.74000000
 H      16.43200000      42.82300000      22.39200000
 H      17.55400000      43.59000000      21.73200000
 O      20.57800000      47.61300000      37.18600000
 H      21.31600000      48.19300000      36.98200000
 H      20.18300000      47.46200000      36.31900000
 O      33.02900000      43.67500000      20.02600000
 H      32.14300000      43.20600000      19.90300000
 H      33.19700000      43.23000000      20.95700000
 O      11.50000000      47.56100000      30.92800000
 H      11.44000000      46.63900000      31.23400000
 H      11.59000000      47.32600000      29.95100000
 O      27.45700000      44.29300000      25.30800000
 H      27.48700000      43.34800000      25.52600000
 H      26.94500000      44.13700000      24.43300000
 O      22.89200000      46.62000000      12.49800000
 H      23.12400000      46.02200000      13.19500000
 H      23.44400000      46.24600000      11.75800000
 O      32.01900000      43.99300000       8.62100000
 H      31.38900000      43.83100000       9.30100000
 H      32.84900000      43.72900000       9.02200000
 O      20.26700000      46.89700000      12.63900000
 H      20.23900000      47.33200000      11.74600000
 H      21.22000000      46.71000000      12.69000000
 O      32.01300000      48.58600000      16.65900000
 H      31.97000000      48.49200000      15.69800000
 H      31.10500000      48.34100000      16.90800000
 O       9.82600000      46.38700000      40.53000000
 H      10.74700000      46.11600000      40.30900000
 H       9.36400000      45.55600000      40.32900000
 O      14.63200000      47.11300000      19.60200000
 H      14.38500000      47.90400000      20.12400000
 H      14.35600000      47.50500000      18.71400000
 O      20.77600000      43.85600000       6.73200000
 H      20.05400000      44.26100000       6.26900000
 H      20.95800000      44.51700000       7.41400000
 O      33.15700000      48.53500000      19.17700000
 H      32.76600000      48.64900000      18.27600000
 H      32.77000000      47.67700000      19.45700000
 O       6.76700000      44.62100000      37.56600000
 H       6.34600000      44.89300000      36.72600000
 H       7.39100000      43.93400000      37.25700000
 O      31.36800000      48.69800000      13.72300000
 H      30.79700000      49.16200000      13.08900000
 H      31.01200000      47.75900000      13.47500000
 O      13.59000000      43.37800000      18.89300000
 H      14.25300000      43.28500000      18.17300000
 H      13.45300000      42.44300000      19.12800000
 O      26.39300000      47.63900000      28.76800000
 H      26.84600000      47.45600000      27.97400000
 H      26.50700000      46.77200000      29.23800000
 O      31.45800000      43.82800000      38.69600000
 H      31.16600000      43.04000000      38.17500000
 H      31.95500000      44.26100000      37.98400000
 O       8.47100000      47.29500000      29.08300000
 H       7.89100000      48.00000000      28.82400000
 H       8.98100000      47.22300000      28.29500000
 O      23.29400000      45.53100000      17.55500000
 H      24.04900000      45.17800000      18.07500000
 H      22.62300000      44.82600000      17.93300000
 O      33.43600000      48.79500000      32.05900000
 H      32.52500000      48.41400000      32.10900000
 H      33.18800000      49.72000000      32.00000000
 O      23.60500000      47.18100000      28.52400000
 H      23.51400000      46.19400000      28.51300000
 H      24.52100000      47.30100000      28.26500000
 O      22.33500000      42.66600000      14.21700000
 H      21.53300000      43.02300000      14.63800000
 H      22.88200000      43.43800000      14.32800000
 O      31.17200000      45.36400000      24.58100000
 H      30.60200000      45.62600000      25.33800000
 H      31.64600000      44.59400000      24.96500000
 O      24.28100000      43.71000000      25.70500000
 H      24.50300000      42.79900000      25.95700000
 H      24.71100000      43.74000000      24.80000000
 O      15.82600000      46.50700000      23.04200000
 H      15.59100000      47.27600000      22.55600000
 H      16.73500000      46.71700000      23.35200000
 O      18.39000000      47.93100000      35.12400000
 H      18.29800000      48.90300000      34.80600000
 H      18.93700000      47.62900000      34.39100000
 O      26.12700000      46.19600000       9.01200000
 H      27.10000000      46.04900000       8.96200000
 H      25.90500000      46.53000000       8.12500000
 O      31.65300000      43.23100000      16.51500000
 H      31.25900000      42.36100000      16.51500000
 H      31.08400000      43.70100000      17.18700000
 O      20.62800000      48.03900000      22.55300000
 H      20.60200000      47.48500000      21.69200000
 H      21.26200000      48.72000000      22.22400000
 O      28.26900000      46.35200000      34.25800000
 H      28.30400000      47.31600000      34.27500000
 H      28.19000000      46.15900000      35.17300000
 O       9.41200000      46.69200000      26.11800000
 H       9.70500000      47.11000000      25.32800000
 H       8.43500000      46.80600000      26.04400000
 O      29.88600000      46.05200000      39.38300000
 H      30.59100000      45.38900000      39.36900000
 H      29.31700000      45.72400000      40.12100000
 O      15.15000000      43.65900000      23.35800000
 H      14.36400000      43.88000000      22.79900000
 H      15.53700000      44.54800000      23.48100000
 O       9.44900000      48.52400000      12.34800000
 H       9.85300000      47.94400000      13.00000000
 H       8.53200000      48.54100000      12.72600000
 O      34.19500000      48.35800000      28.88400000
 H      34.05200000      49.17300000      29.30900000
 H      33.36500000      47.88900000      28.99600000
 O      18.40500000      45.15000000      27.94200000
 H      17.74000000      45.54600000      28.54800000
 H      19.15800000      45.78600000      28.08700000
 O      13.85200000      46.66600000      35.51200000
 H      14.58000000      46.55700000      34.81400000
 H      13.61600000      45.72300000      35.60200000
 O      34.44700000      44.77300000      10.42500000
 H      35.26100000      44.61900000       9.95200000
 H      34.56200000      45.66800000      10.82700000
 O      16.21400000      42.67400000      30.34600000
 H      16.29300000      41.86000000      29.77700000
 H      16.04000000      42.18700000      31.20800000
 O      32.61100000      45.08700000      36.45400000
 H      33.55200000      44.88500000      36.28900000
 H      32.55600000      46.04000000      36.27000000
 O      10.56100000      48.28000000      37.36100000
 H       9.57300000      48.36000000      37.44400000
 H      10.64700000      47.54400000      36.78400000
 O       9.73100000      44.23600000      12.51800000
 H       9.52300000      43.94600000      13.42700000
 H       9.91500000      43.38700000      12.06600000
 O       7.06000000      43.70900000      17.07200000
 H       6.27800000      43.99000000      17.53000000
 H       7.76500000      44.24800000      17.45400000
 O      31.06100000      43.17900000       6.10700000
 H      30.40400000      42.58300000       6.50700000
 H      31.61800000      43.41400000       6.93600000
 O      20.06300000      42.45700000      21.08800000
 H      19.32700000      42.92700000      21.49200000
 H      19.66200000      41.99000000      20.36700000
 O      12.68800000      44.17900000      36.16100000
 H      13.68000000      43.91900000      36.26000000
 H      12.37600000      43.31800000      35.79900000
 O      35.54800000      45.07100000      29.23900000
 H      35.47000000      45.66000000      30.02700000
 H      35.08400000      45.58500000      28.59400000
 O      26.18600000      46.94500000      32.63700000
 H      26.80600000      46.31900000      33.09300000
 H      25.57100000      47.06500000      33.38200000
 O      17.09100000      44.83400000      37.76900000
 H      16.54000000      44.40200000      37.09800000
 H      17.90200000      44.30300000      37.58100000
 O       6.39900000      44.63800000      28.59900000
 H       7.26500000      44.46200000      28.88200000
 H       6.09600000      43.95900000      27.98300000
 O       8.95100000      43.51800000      29.81200000
 H       9.14700000      43.75700000      28.86500000
 H       9.47000000      42.71400000      29.94800000
 O      17.15400000      43.99900000      14.28100000
 H      16.39100000      44.41800000      14.72400000
 H      16.64600000      43.39700000      13.69900000
 O      19.63300000      43.67100000      37.83900000
 H      19.80300000      43.17800000      37.06600000
 H      20.31500000      43.38200000      38.47900000
 O      25.16100000      44.99200000      11.38400000
 H      25.45000000      45.57700000      10.67200000
 H      26.00000000      44.47300000      11.51900000
 O      16.16700000      46.40000000      34.12800000
 H      16.05700000      46.83800000      33.19600000
 H      17.01400000      46.82400000      34.32900000
 O      40.29800000      45.42300000      38.29200000
 H      40.00000000      44.53200000      38.01800000
 H      41.16700000      45.12800000      38.72500000
 O      29.98900000      46.14000000      26.78900000
 H      29.09600000      46.24600000      27.22700000
 H      30.43100000      46.99600000      27.02200000
 O       9.49800000      49.05200000      32.08500000
 H      10.22100000      48.46200000      31.70100000
 H       8.82300000      48.36800000      32.23700000
 O      29.21600000      45.92900000      29.73500000
 H      28.61000000      45.64600000      29.04300000
 H      29.14500000      45.14900000      30.31800000
 O      19.01600000      46.15700000      24.45300000
 H      19.37700000      47.02000000      24.10300000
 H      18.30700000      46.56200000      24.97200000
 O      15.35300000      45.71500000      15.21400000
 H      15.64100000      46.59000000      14.91100000
 H      14.34400000      45.86700000      15.30100000
 O      35.53500000      46.77500000      37.43400000
 H      35.22300000      46.95400000      38.34200000
 H      36.03100000      47.59400000      37.27800000
 O      39.06400000      43.76300000       7.25500000
 H      39.93000000      44.13700000       6.78800000
 H      38.58900000      44.59500000       7.23900000
 O      23.62300000      46.39000000      25.28300000
 H      24.29700000      46.43800000      24.54800000
 H      23.87400000      45.50300000      25.60100000
 O      18.01900000      43.88600000      19.18900000
 H      17.59300000      44.52100000      18.62000000
 H      18.18700000      44.36700000      20.02500000
 O      19.91900000      43.85500000      15.06200000
 H      18.99300000      43.96500000      14.88500000
 H      20.22200000      44.69300000      15.38800000
 O      16.39700000      46.31200000      29.17000000
 H      15.78400000      46.79100000      28.52900000
 H      15.78300000      45.66700000      29.54700000
 O      35.03900000      45.82100000      20.39200000
 H      35.53200000      45.56500000      21.21800000
 H      34.22000000      45.30200000      20.53900000
 O      21.36900000      44.76900000      25.17800000
 H      22.00500000      45.53900000      25.12900000
 H      20.53500000      45.24600000      25.20100000
 O       7.04400000      44.86500000       9.28700000
 H       6.44200000      44.76000000       8.51600000
 H       7.52800000      44.00700000       9.21900000
 O      16.41500000      46.73200000      39.42800000
 H      16.57100000      45.97500000      38.78900000
 H      17.35300000      47.09000000      39.36400000
 O      21.82500000      43.39000000      18.58500000
 H      21.04300000      43.61800000      19.16500000
 H      22.24500000      42.74600000      19.17600000
 O      31.61500000      46.15400000      19.24100000
 H      31.19800000      46.23000000      20.16800000
 H      31.92300000      45.25600000      19.22500000
 O      38.88700000      44.73300000      12.68100000
 H      38.49300000      43.88500000      12.49500000
 H      38.72600000      44.81100000      13.70000000
 O      12.71800000      48.92800000      34.22700000
 H      11.81300000      48.97900000      34.63800000
 H      12.98100000      48.03100000      34.61800000
