714
XYZ file of cluster: frame_3000_c4d59.748a1.4a626 - created by MolEdiTo
 O      36.93000000      26.82000000      27.91400000
 H      37.19100000      27.00100000      28.84900000
 H      37.30300000      25.95700000      27.70000000
 O      39.52100000      39.91700000      31.86600000
 H      38.59900000      40.06700000      32.18300000
 H      39.83100000      40.81000000      31.64300000
 O      39.49600000      30.71500000      27.79800000
 H      38.68400000      30.82600000      28.34100000
 H      40.15100000      30.52500000      28.53700000
 O      37.23200000      39.53300000      28.57600000
 H      37.96700000      39.38100000      27.92700000
 H      37.15200000      38.67500000      28.98800000
 O      39.89900000      23.40000000      26.73400000
 H      40.70800000      23.18400000      26.22500000
 H      39.78500000      22.50100000      27.15900000
 O      34.76900000      21.33300000      16.95300000
 H      34.21600000      21.68400000      16.25300000
 H      35.44600000      20.83200000      16.35700000
 O      38.17800000      40.76900000      19.91800000
 H      37.72300000      41.46400000      19.34600000
 H      38.02400000      41.21000000      20.79100000
 O      40.28800000      21.64100000      30.77100000
 H      40.64100000      21.07100000      31.52200000
 H      39.37000000      21.68800000      31.08300000
 O      38.42700000      40.52800000      40.29900000
 H      38.03200000      41.37200000      39.88200000
 H      38.55700000      40.87800000      41.22600000
 O      39.63200000      23.64600000      38.48800000
 H      38.71100000      23.96600000      38.49000000
 H      39.90500000      23.88700000      37.58900000
 O      40.50200000      28.41600000      19.23900000
 H      40.40400000      28.71800000      20.22300000
 H      40.61900000      29.32500000      18.90500000
 O      36.19000000      25.75500000      16.76600000
 H      37.12000000      25.36200000      16.91300000
 H      35.87000000      25.63600000      17.68500000
 O      36.80300000      40.44600000      32.67500000
 H      36.27000000      39.67400000      32.47900000
 H      36.09200000      41.00700000      33.06100000
 O      34.97700000      36.83000000      13.38000000
 H      35.46900000      36.19500000      13.96000000
 H      35.57400000      36.95100000      12.62100000
 O      39.33400000      37.44100000      19.36300000
 H      38.77100000      37.94100000      18.68300000
 H      38.66500000      37.29200000      20.03200000
 O      38.42400000      38.17300000      38.92400000
 H      39.30500000      37.82700000      39.12000000
 H      38.53900000      39.09700000      39.22700000
 O      39.67000000      30.41600000      36.06400000
 H      38.80600000      30.30300000      35.69700000
 H      40.23800000      30.11700000      35.33800000
 O      36.96900000      31.55200000      39.39900000
 H      37.59800000      30.84800000      39.04300000
 H      36.63800000      31.96100000      38.59100000
 O      34.86400000      21.55900000      22.85400000
 H      35.64900000      21.61300000      23.44100000
 H      34.39300000      22.37500000      23.17200000
 O      37.32800000      32.49200000      19.56500000
 H      36.67000000      33.12900000      19.49700000
 H      38.14400000      32.96400000      19.68300000
 O      35.28000000      24.31400000      28.04400000
 H      34.63800000      23.70200000      27.56600000
 H      36.09100000      24.13200000      27.51100000
 O      40.36600000      29.18400000      21.69200000
 H      40.56300000      29.98000000      22.18600000
 H      39.93900000      28.59500000      22.34200000
 O      34.68500000      27.87300000      31.99700000
 H      34.90700000      27.27200000      31.21700000
 H      33.79100000      28.10300000      31.66100000
 O      35.47800000      33.79900000      24.84400000
 H      35.54700000      33.21000000      25.64000000
 H      36.45000000      34.00000000      24.72600000
 O      35.42200000      34.59700000      19.80200000
 H      35.85200000      35.26200000      19.24100000
 H      34.51500000      34.62600000      19.35600000
 O      36.05300000      32.25300000      33.67300000
 H      37.01200000      32.44700000      33.69900000
 H      35.69500000      33.09700000      33.95400000
 O      37.83600000      35.59500000      31.50200000
 H      38.17200000      34.68900000      31.42900000
 H      38.04800000      35.72500000      32.46800000
 O      40.52100000      38.25000000      33.94600000
 H      40.42100000      38.70300000      33.04500000
 H      41.42300000      38.60100000      34.15600000
 O      39.29300000      38.97100000      27.11500000
 H      39.71800000      38.09200000      26.97500000
 H      39.92200000      39.53600000      26.62100000
 O      36.77400000      24.26600000      37.84700000
 H      35.88600000      24.10800000      37.52500000
 H      36.69600000      23.84100000      38.74900000
 O      35.60500000      39.18100000      20.72800000
 H      36.43200000      38.69000000      20.73900000
 H      35.83200000      39.98100000      21.19300000
 O      35.82200000      23.04700000      33.03400000
 H      35.23200000      23.67100000      32.64900000
 H      35.47000000      22.84100000      33.86700000
 O      35.78400000      25.74000000      35.24600000
 H      35.29200000      25.85100000      34.38400000
 H      35.17800000      25.06000000      35.67700000
 O      35.00300000      34.02300000      30.43100000
 H      35.04600000      34.96700000      30.60600000
 H      34.62900000      33.68600000      31.25700000
 O      35.49300000      28.73500000      25.67500000
 H      35.93100000      28.07000000      25.13900000
 H      35.94400000      29.57600000      25.59900000
 O      40.45200000      24.76400000      35.70800000
 H      40.93200000      24.77600000      34.85200000
 H      39.77000000      25.40600000      35.61100000
 O      39.12300000      34.57200000      37.72400000
 H      39.67300000      33.78900000      37.98900000
 H      38.53800000      34.70900000      38.46800000
 O      37.36800000      23.96000000      26.39900000
 H      37.28300000      23.41700000      25.50700000
 H      38.34100000      23.75700000      26.49500000
 O      40.23800000      30.93400000      18.33600000
 H      40.99300000      31.55100000      18.44700000
 H      39.51700000      31.39200000      18.82900000
 O      36.32100000      24.08300000      21.73200000
 H      36.78300000      23.50300000      22.35300000
 H      35.58700000      24.40400000      22.28000000
 O      36.73600000      32.13300000      16.89100000
 H      36.47600000      31.17000000      16.96000000
 H      36.99600000      32.29100000      17.82800000
 O      39.26700000      34.38200000      22.73300000
 H      38.29300000      34.42000000      22.51300000
 H      39.24500000      34.39300000      23.68500000
 O      39.09200000      23.67700000      21.66100000
 H      38.44900000      24.33400000      21.91000000
 H      38.49800000      23.10600000      21.07500000
 O      39.64200000      40.63700000      16.19500000
 H      39.20100000      39.96400000      16.72600000
 H      39.02500000      41.34200000      16.22900000
 O      40.03900000      36.04900000      29.93400000
 H      39.23600000      36.01200000      30.49600000
 H      40.59500000      35.31900000      30.33300000
 O      38.96800000      26.07700000      40.45300000
 H      38.87000000      25.78800000      41.42400000
 H      39.78700000      25.58200000      40.25400000
 O      37.56100000      21.79200000      31.38400000
 H      37.04200000      22.39100000      31.91200000
 H      36.99000000      21.73600000      30.58600000
 O      39.84400000      27.30800000      32.89200000
 H      40.52200000      27.68100000      33.47500000
 H      39.36600000      26.73500000      33.58400000
 O      37.85900000      21.46800000      20.54100000
 H      37.47800000      20.67500000      20.93600000
 H      38.77700000      21.23200000      20.63000000
 O      39.94000000      28.89900000      40.46700000
 H      39.49600000      28.02400000      40.52300000
 H      39.43100000      29.22500000      39.68100000
 O      37.85600000      29.29400000      13.65000000
 H      37.43200000      29.50300000      12.76200000
 H      37.04800000      28.99800000      14.12400000
 O      38.92700000      33.10800000      34.96000000
 H      38.48300000      33.62300000      35.65900000
 H      39.15700000      32.33100000      35.45100000
 O      40.07600000      36.45900000      27.22000000
 H      39.94300000      36.33000000      28.17400000
 H      41.06600000      36.35600000      27.24600000
 O      34.97700000      27.57900000      37.00000000
 H      35.17800000      26.88500000      36.32300000
 H      35.70000000      27.38800000      37.62400000
 O      35.15100000      34.75200000      34.55900000
 H      35.37900000      34.62600000      35.50000000
 H      34.77900000      35.64400000      34.59600000
 O      37.27800000      37.30400000      21.23200000
 H      36.48500000      36.90900000      21.70700000
 H      37.79200000      37.56100000      22.02900000
 O      40.51100000      21.65600000      23.39700000
 H      40.76700000      21.31900000      22.51900000
 H      40.19300000      22.60100000      23.15300000
 O      38.61300000      27.79200000      16.38700000
 H      38.32200000      27.50100000      15.46800000
 H      39.23200000      27.12000000      16.60500000
 O      39.76300000      21.38700000      39.93100000
 H      39.71300000      22.30000000      39.54600000
 H      39.14300000      20.83300000      39.44300000
 O      35.61100000      34.61800000      37.15900000
 H      36.20500000      35.26100000      37.57600000
 H      34.87200000      34.52600000      37.75700000
 O      37.12000000      37.21500000      25.35000000
 H      36.79400000      37.42600000      24.48500000
 H      37.57000000      38.01000000      25.63000000
 O      34.76400000      33.34000000      15.35200000
 H      35.30200000      33.02800000      16.15700000
 H      35.32800000      33.11200000      14.63000000
 O      37.40700000      30.94500000      29.50000000
 H      37.17300000      30.25100000      30.15000000
 H      38.00300000      31.54400000      30.05500000
 O      38.21100000      32.00900000      23.17300000
 H      38.24000000      32.82600000      22.67900000
 H      39.20400000      31.83100000      23.25700000
 O      36.76200000      30.14800000      21.33000000
 H      36.51900000      30.90100000      20.76700000
 H      37.16300000      30.66900000      22.09900000
 O      37.22200000      30.79200000      25.30800000
 H      38.06300000      31.00600000      25.79000000
 H      37.33300000      31.40600000      24.51200000
 O      38.65300000      36.17500000      33.88800000
 H      38.06900000      36.85100000      34.29000000
 H      39.40800000      36.80000000      33.70600000
 O      36.93800000      36.03300000      39.15400000
 H      36.99700000      35.94100000      40.13700000
 H      37.49100000      36.80900000      39.01500000
 O      35.47500000      32.78600000      28.04600000
 H      36.27400000      32.27300000      28.33500000
 H      35.42300000      33.44300000      28.78600000
 O      39.11800000      33.14600000      31.15900000
 H      39.04200000      32.29200000      31.66700000
 H      40.10100000      33.17000000      31.04000000
 O      38.32200000      34.76000000      25.22100000
 H      37.96500000      35.72800000      25.26900000
 H      38.88500000      34.85200000      26.01100000
 O      36.71200000      39.02800000      14.00600000
 H      36.59200000      39.89900000      14.48700000
 H      36.25400000      38.44500000      14.63800000
 O      34.61100000      29.76100000      29.63900000
 H      35.45300000      30.11200000      29.26500000
 H      34.63200000      30.13000000      30.52700000
 O      40.38000000      27.62600000      27.05300000
 H      39.83700000      28.34600000      27.49800000
 H      40.01200000      27.77500000      26.14200000
 O      36.61100000      36.08200000      17.72400000
 H      36.87500000      36.96700000      17.61000000
 H      36.65200000      35.73400000      16.78000000
 O      40.29800000      35.17600000      18.30900000
 H      40.08900000      36.16000000      18.30300000
 H      40.22300000      34.97000000      17.33400000
 O      36.86000000      30.01400000      35.41400000
 H      36.56800000      30.44300000      34.55700000
 H      36.21900000      30.40100000      36.05900000
 O      34.99200000      36.90800000      23.31200000
 H      34.28300000      37.52300000      22.95600000
 H      34.50300000      36.49400000      24.02700000
 O      40.01000000      21.22900000      28.21700000
 H      40.08900000      21.48700000      29.14900000
 H      39.15000000      20.71200000      28.26300000
 O      34.28200000      29.27000000      22.96900000
 H      35.08700000      29.57700000      22.51400000
 H      33.60700000      29.57100000      22.31800000
 O      40.36300000      37.25200000      36.92600000
 H      40.04800000      36.34600000      37.05000000
 H      39.82500000      37.46200000      36.11700000
 O      38.35800000      26.91200000      35.30200000
 H      37.43100000      26.53500000      35.31200000
 H      38.04200000      27.84000000      35.33300000
 O      38.99900000      28.15400000      24.60600000
 H      38.38100000      28.87000000      24.65500000
 H      38.43600000      27.43900000      24.24600000
 O      35.13700000      31.41700000      37.26000000
 H      34.52900000      31.18500000      37.99600000
 H      34.82900000      32.25800000      36.98000000
 O      36.54800000      29.29600000      17.18200000
 H      36.65800000      28.94700000      18.12100000
 H      37.28800000      28.76800000      16.78500000
 O      37.85700000      28.36700000      31.22100000
 H      37.00800000      28.18200000      31.66100000
 H      38.37900000      27.57000000      31.55900000
 O      38.48800000      29.39000000      38.18700000
 H      38.99400000      29.67600000      37.44600000
 H      37.69000000      28.96700000      37.77900000
 O      36.92800000      22.67100000      18.29600000
 H      36.36700000      22.13800000      17.70200000
 H      37.00100000      21.98800000      19.05500000
 O      39.37800000      30.60100000      32.25700000
 H      40.12000000      30.54800000      32.85500000
 H      39.20000000      29.67600000      32.00700000
 O      35.20400000      37.45200000      32.34400000
 H      35.77600000      36.86500000      32.81900000
 H      34.34500000      37.41100000      32.88800000
 O      37.94500000      39.13900000      17.94400000
 H      36.99600000      39.40800000      17.92300000
 H      38.19300000      39.73000000      18.73900000
 O      39.78300000      25.56300000      28.58600000
 H      39.76400000      24.95200000      27.82400000
 H      39.99000000      26.40100000      28.15100000
 O      36.75700000      34.35300000      21.99000000
 H      35.97100000      34.65600000      22.47300000
 H      36.33900000      34.14500000      21.13000000
 O      37.42700000      28.24400000      19.52500000
 H      37.40400000      28.63200000      20.37800000
 H      38.27200000      28.60400000      19.15700000
 O      39.90300000      33.14400000      19.92200000
 H      40.14900000      33.93500000      19.35200000
 H      40.09600000      33.54700000      20.81800000
 O      37.09700000      26.76500000      38.53700000
 H      37.91900000      26.71200000      39.08200000
 H      37.07400000      25.81300000      38.23800000
 O      35.84600000      40.35300000      25.66800000
 H      35.48800000      40.63600000      26.57200000
 H      36.72800000      40.80100000      25.69400000
 O      36.00800000      27.47600000      14.75800000
 H      34.99300000      27.44200000      14.66400000
 H      36.10200000      26.98300000      15.60300000
 O      34.76200000      21.27700000      35.22400000
 H      33.92100000      20.95000000      35.61900000
 H      35.41400000      21.13300000      35.94600000
 O      40.60000000      30.31800000      13.50800000
 H      40.74400000      29.78400000      14.35100000
 H      39.65500000      30.31500000      13.44800000
 O      34.37200000      26.25400000      29.80400000
 H      34.90300000      25.76500000      29.09800000
 H      33.86300000      26.89300000      29.22000000
 O      40.74300000      26.30600000      17.67000000
 H      41.02900000      25.73800000      18.38700000
 H      40.66400000      27.19100000      18.12700000
 O      35.12600000      39.54900000      18.07700000
 H      35.25900000      39.33700000      18.97700000
 H      34.46500000      38.86100000      17.80400000
 O      35.88600000      21.73300000      29.06300000
 H      35.59000000      22.59100000      28.64000000
 H      34.95500000      21.41200000      29.33700000
 O      40.14200000      22.40700000      18.26400000
 H      40.57300000      22.88800000      18.96000000
 H      39.20900000      22.76300000      18.28200000
 O      34.81100000      27.56800000      40.53000000
 H      35.07300000      28.46200000      40.81500000
 H      35.73300000      27.21200000      40.27100000
 O      35.57100000      24.65900000      19.29400000
 H      36.16600000      23.91900000      18.89500000
 H      35.93500000      24.42400000      20.24300000
 O      36.73000000      26.51900000      24.28700000
 H      36.72500000      25.96300000      25.08500000
 H      35.85600000      26.29000000      23.84000000
 O      40.64800000      40.32900000      13.77200000
 H      40.95100000      39.34800000      13.91700000
 H      40.41300000      40.53900000      14.68000000
 O      39.48200000      38.47600000      23.50700000
 H      39.93600000      37.94100000      22.82000000
 H      39.81900000      39.36000000      23.21900000
 O      34.60300000      27.16700000      19.82000000
 H      35.48100000      27.55300000      19.79100000
 H      34.90300000      26.20800000      19.75600000
 O      40.01000000      35.94300000      15.04100000
 H      40.70100000      36.63500000      14.67100000
 H      40.72300000      35.26100000      15.30500000
 O      37.45800000      22.37200000      24.03200000
 H      37.06600000      21.46600000      24.29700000
 H      38.33600000      22.06500000      23.76000000
 O      35.02700000      37.49700000      27.61400000
 H      35.39600000      37.14600000      28.46900000
 H      35.76200000      38.01400000      27.32200000
 O      36.33400000      37.23200000      29.88300000
 H      35.92800000      37.57000000      30.72100000
 H      36.91500000      36.53300000      30.29500000
 O      37.06700000      37.88400000      35.57100000
 H      37.33200000      37.52100000      36.42500000
 H      36.09200000      37.69100000      35.56300000
 O      36.14300000      23.36300000      40.20700000
 H      35.41400000      22.83000000      40.43800000
 H      36.87600000      23.04300000      40.78500000
 O      37.13100000      35.74800000      15.00400000
 H      37.15200000      34.83800000      14.74500000
 H      38.09800000      35.90900000      15.06700000
 O      48.81100000      26.30600000      15.88800000
 H      49.07500000      25.33600000      15.64200000
 H      48.44700000      26.53600000      15.00200000
 O      45.72600000      21.83100000      18.34700000
 H      46.45700000      21.66600000      18.95100000
 H      46.05900000      22.64200000      17.92500000
 O      44.82900000      26.34200000      38.70100000
 H      44.75000000      25.44400000      38.26500000
 H      45.00400000      26.01300000      39.60300000
 O      44.59600000      39.71900000      34.03500000
 H      45.39500000      39.77300000      33.45900000
 H      45.02400000      39.86500000      34.89700000
 O      49.08600000      29.05700000      19.90200000
 H      49.65500000      28.85200000      20.70600000
 H      48.58100000      28.21900000      19.86600000
 O      48.30500000      30.16600000      26.15400000
 H      48.81900000      29.70000000      25.49700000
 H      47.97200000      29.40600000      26.65500000
 O      45.68400000      39.97900000      20.15300000
 H      45.94900000      40.16100000      21.03800000
 H      44.81300000      39.58800000      20.28200000
 O      42.99300000      38.61200000      39.19500000
 H      42.69100000      38.12600000      38.41700000
 H      43.44100000      37.82700000      39.65900000
 O      45.19800000      35.64700000      23.74700000
 H      45.69900000      35.67800000      22.89600000
 H      45.67800000      34.84600000      24.15900000
 O      44.50700000      25.84800000      16.12800000
 H      44.87400000      26.46800000      16.78500000
 H      43.54600000      25.98100000      16.35300000
 O      46.14900000      31.65500000      24.89400000
 H      45.36700000      31.52300000      25.44100000
 H      46.77000000      30.96200000      25.32600000
 O      45.11100000      38.79500000      17.07100000
 H      45.30800000      37.94900000      16.62600000
 H      45.99600000      39.27900000      16.85700000
 O      43.51600000      31.35800000      26.02900000
 H      43.74100000      31.67000000      26.91200000
 H      42.93700000      30.60100000      26.23100000
 O      46.80700000      35.54600000      21.29300000
 H      47.75800000      35.89900000      21.31600000
 H      46.48400000      36.24300000      20.59800000
 O      48.15200000      25.24500000      33.15400000
 H      47.51300000      24.67800000      32.65200000
 H      48.95700000      24.70700000      33.21300000
 O      44.50600000      35.60500000      27.28400000
 H      44.35500000      34.65100000      27.18100000
 H      45.46800000      35.64700000      27.25800000
 O      45.01100000      24.30300000      27.63800000
 H      44.30100000      23.79100000      27.16900000
 H      44.74800000      24.08300000      28.53700000
 O      47.53200000      33.41100000      38.12500000
 H      46.63200000      33.41200000      37.68500000
 H      47.44700000      32.76100000      38.80900000
 O      47.96400000      38.47600000      38.83800000
 H      47.82500000      37.68400000      39.40700000
 H      47.98300000      37.96000000      37.95500000
 O      42.74200000      36.55600000      22.33700000
 H      43.40100000      36.18500000      22.96800000
 H      42.10100000      35.79600000      22.28400000
 O      43.02800000      24.86000000      19.90200000
 H      43.35000000      23.94300000      19.90900000
 H      42.16100000      24.81700000      20.23600000
 O      48.56500000      30.74300000      17.54600000
 H      48.86500000      31.65100000      17.80800000
 H      48.83400000      30.20500000      18.32200000
 O      47.18200000      28.15300000      38.52100000
 H      47.89500000      27.53300000      38.27100000
 H      46.43500000      27.50600000      38.50500000
 O      42.58200000      32.59200000      37.51700000
 H      42.19200000      31.83400000      36.99000000
 H      43.52500000      32.46300000      37.22200000
 O      48.49200000      32.23000000      28.35200000
 H      48.64400000      31.68800000      27.58000000
 H      49.10700000      31.83200000      28.96400000
 O      48.74500000      27.51400000      32.07800000
 H      49.57900000      27.17200000      31.79800000
 H      48.26400000      26.64600000      32.27000000
 O      47.61700000      34.25100000      24.67700000
 H      47.29800000      34.05100000      25.54800000
 H      47.77000000      33.29000000      24.36600000
 O      44.53800000      22.40700000      39.66400000
 H      44.75000000      22.85200000      38.79500000
 H      44.14300000      21.55800000      39.36200000
 O      42.85500000      34.03000000      33.79200000
 H      42.05400000      33.61100000      34.08400000
 H      42.81300000      34.90700000      34.13700000
 O      42.55200000      31.44700000      23.40000000
 H      43.30000000      31.92300000      22.99400000
 H      42.91500000      31.21000000      24.25000000
 O      47.32000000      40.61700000      32.56800000
 H      47.49000000      40.44700000      31.57400000
 H      48.02500000      40.00300000      32.92100000
 O      44.50000000      26.61700000      21.26300000
 H      43.96800000      25.96500000      20.76300000
 H      44.15700000      27.50800000      20.87600000
 O      48.53300000      31.56800000      22.47400000
 H      48.33900000      31.45900000      21.52600000
 H      47.77300000      31.02100000      22.86400000
 O      46.50300000      35.97100000      34.46200000
 H      45.67900000      36.40600000      34.21700000
 H      47.03100000      36.16400000      33.61900000
 O      49.45000000      29.81700000      38.55900000
 H      49.20600000      30.22600000      39.42400000
 H      48.58100000      29.31900000      38.41200000
 O      45.52200000      27.52300000      30.37400000
 H      45.72000000      28.11900000      31.16200000
 H      45.10400000      26.82400000      30.79700000
 O      48.02600000      23.92600000      36.96800000
 H      48.04100000      23.22300000      37.62600000
 H      47.45200000      23.50000000      36.27800000
 O      44.80700000      39.74600000      29.37200000
 H      44.11300000      39.18300000      29.74600000
 H      44.53700000      40.61000000      29.69700000
 O      43.71900000      38.11800000      20.03700000
 H      43.42200000      37.81400000      20.92900000
 H      43.28900000      37.50500000      19.48500000
 O      47.48000000      32.80500000      20.18000000
 H      48.10900000      33.15800000      19.51900000
 H      47.64900000      33.58900000      20.84200000
 O      46.87200000      39.95500000      36.10200000
 H      47.18900000      39.07600000      35.87200000
 H      47.76100000      40.45900000      35.98100000
 O      47.37300000      27.20100000      19.90100000
 H      46.70100000      26.86000000      20.47600000
 H      46.90500000      27.48400000      19.08700000
 O      48.13900000      27.70800000      13.70000000
 H      47.33600000      27.59100000      13.20200000
 H      47.88300000      28.43000000      14.33600000
 O      44.28300000      23.84700000      14.19500000
 H      44.42700000      24.60600000      14.83200000
 H      43.91100000      23.23400000      14.81100000
 O      42.85300000      25.82400000      31.16500000
 H      42.31400000      26.39800000      31.74400000
 H      42.34900000      25.87100000      30.29600000
 O      43.19100000      21.40900000      33.40800000
 H      43.47400000      21.31000000      34.37100000
 H      43.16600000      22.40000000      33.46000000
 O      47.16900000      34.34900000      15.68700000
 H      47.05200000      33.99700000      16.60000000
 H      48.02900000      34.79700000      15.73700000
 O      46.34300000      33.04600000      13.54400000
 H      46.36700000      33.27800000      14.50600000
 H      47.31800000      33.07300000      13.33700000
 O      48.80600000      39.84700000      14.14600000
 H      47.92600000      40.35900000      14.26200000
 H      48.70400000      39.77500000      13.13700000
 O      46.36200000      29.20000000      22.05100000
 H      46.58400000      28.70200000      22.90000000
 H      46.80500000      28.64200000      21.42700000
 O      43.98700000      22.38500000      20.28900000
 H      44.01100000      21.64900000      20.93100000
 H      44.76000000      22.11600000      19.73800000
 O      45.94500000      36.80700000      30.68900000
 H      45.90600000      35.81900000      30.64100000
 H      45.18100000      37.11900000      30.13100000
 O      43.05200000      38.29600000      30.76300000
 H      42.21500000      38.86000000      31.07800000
 H      42.55200000      37.68800000      30.15200000
 O      47.47400000      24.10900000      26.18200000
 H      46.86100000      24.45900000      26.82500000
 H      47.02800000      23.35800000      25.77900000
 O      43.58800000      37.81400000      13.87200000
 H      44.51600000      37.81600000      14.23500000
 H      43.74000000      37.51900000      12.95900000
 O      44.29100000      36.38800000      39.98200000
 H      45.28200000      36.24100000      40.17400000
 H      44.04500000      35.42900000      39.76800000
 O      45.10800000      32.31800000      36.52900000
 H      45.65400000      31.50800000      36.42000000
 H      45.55400000      32.88200000      35.83300000
 O      45.02000000      20.36300000      31.39600000
 H      45.65800000      19.95900000      31.97000000
 H      44.58300000      20.97500000      31.93600000
 O      44.90400000      27.11600000      26.76000000
 H      45.14900000      26.25700000      27.08900000
 H      43.95200000      27.08700000      26.78600000
 O      47.03900000      24.20000000      21.29000000
 H      46.66800000      24.44900000      20.42200000
 H      47.31900000      23.25500000      21.12900000
 O      43.88700000      23.53100000      30.07700000
 H      43.16800000      22.94900000      30.30100000
 H      43.38200000      24.39500000      30.22100000
 O      42.71300000      22.32000000      15.69000000
 H      41.98100000      21.85600000      15.31100000
 H      42.49900000      22.35800000      16.62700000
 O      43.46500000      24.26800000      33.28900000
 H      43.15400000      24.81700000      32.49500000
 H      44.41000000      24.48800000      33.27200000
 O      44.02900000      34.41900000      20.30700000
 H      43.73200000      35.24100000      20.72700000
 H      44.22300000      33.88900000      21.13300000
 O      43.35000000      34.23200000      30.87000000
 H      44.30900000      34.41400000      30.73800000
 H      43.32700000      34.20100000      31.85800000
 O      44.70000000      32.52100000      22.25100000
 H      45.20400000      31.99100000      21.60400000
 H      45.30600000      32.43100000      23.00900000
 O      46.65300000      24.61200000      17.59400000
 H      46.09300000      25.09800000      16.91100000
 H      47.39600000      25.26900000      17.67900000
 O      46.32700000      21.20200000      25.71300000
 H      45.97600000      21.05700000      26.60700000
 H      45.90100000      20.46500000      25.21400000
 O      46.02000000      23.71500000      31.52900000
 H      46.24100000      22.79200000      31.35600000
 H      45.12700000      23.73400000      30.99300000
 O      45.81400000      36.97900000      15.15300000
 H      45.95200000      36.03400000      15.23300000
 H      46.53200000      37.14500000      14.45300000
 O      47.24600000      33.40800000      34.71000000
 H      48.18300000      33.41800000      34.30000000
 H      47.05100000      34.38900000      34.65000000
 O      48.77500000      21.65800000      39.53600000
 H      49.51300000      21.04400000      39.36400000
 H      48.05000000      21.07900000      39.35800000
 O      46.65200000      27.51600000      17.28400000
 H      46.35800000      28.38300000      16.97600000
 H      47.37400000      27.31500000      16.62500000
 O      46.33700000      34.30100000      30.40200000
 H      46.73100000      34.16500000      29.53200000
 H      47.04000000      33.82800000      30.94900000
 O      47.67400000      39.77900000      29.98300000
 H      47.92000000      38.88600000      29.67100000
 H      46.71000000      39.78400000      29.68700000
 O      45.16400000      30.86900000      30.89900000
 H      44.99300000      31.43800000      31.66500000
 H      46.09400000      30.65000000      31.04600000
 O      46.04800000      40.10500000      23.11500000
 H      45.30100000      39.49700000      23.43200000
 H      46.12500000      40.63600000      23.94100000
 O      44.66000000      32.36200000      18.63000000
 H      45.61900000      32.47300000      18.85700000
 H      44.31700000      32.94500000      19.34700000
 O      44.98900000      24.65300000      23.54700000
 H      44.69800000      25.48300000      23.09600000
 H      45.57900000      24.26900000      22.93300000
 O      47.29600000      35.97300000      40.35100000
 H      47.77700000      35.46200000      41.08100000
 H      47.69300000      35.46700000      39.59000000
 O      48.04800000      30.06800000      31.26200000
 H      48.93100000      30.32400000      30.87700000
 H      48.21100000      29.12500000      31.35800000
 O      48.78300000      40.08200000      20.15000000
 H      48.57500000      40.70600000      20.85400000
 H      47.92900000      40.02500000      19.66700000
 O      43.73300000      34.49100000      15.62000000
 H      44.20200000      34.78900000      16.41200000
 H      44.07200000      33.58100000      15.57600000
 O      43.82200000      22.89500000      25.24100000
 H      44.31900000      23.50200000      24.72400000
 H      43.30700000      22.44600000      24.53800000
 O      45.14700000      35.16200000      17.88700000
 H      45.81600000      35.71900000      18.32300000
 H      44.58600000      34.93300000      18.66100000
 O      44.27600000      32.35700000      28.40500000
 H      44.20800000      31.60400000      29.01300000
 H      44.14100000      33.15200000      28.96000000
 O      48.42900000      32.88000000      31.59000000
 H      47.89300000      32.17700000      31.24100000
 H      48.79500000      32.45000000      32.37500000
 O      46.80700000      27.15000000      24.59400000
 H      46.65100000      26.17000000      24.52900000
 H      46.09700000      27.28200000      25.35500000
 O      44.61600000      24.24200000      37.00100000
 H      44.90000000      23.75900000      36.21900000
 H      43.65500000      24.08500000      36.94800000
 O      47.82500000      39.61200000      17.27100000
 H      48.26900000      40.52300000      17.25100000
 H      48.61300000      39.11500000      16.87600000
 O      49.34300000      25.16900000      22.32200000
 H      48.52200000      24.94700000      21.86800000
 H      49.83600000      24.36600000      22.06900000
 O      43.17700000      30.62900000      33.92300000
 H      43.82100000      29.97200000      34.24800000
 H      43.70400000      31.45500000      34.03000000
 O      44.69500000      38.00800000      24.95100000
 H      43.74900000      37.75000000      25.00200000
 H      45.03900000      37.16500000      24.50400000
 O      43.77100000      28.01100000      34.45800000
 H      43.76200000      28.06800000      35.48700000
 H      44.67900000      27.60800000      34.36000000
 O      47.58300000      28.02000000      27.97100000
 H      47.27300000      28.48900000      28.75700000
 H      46.73100000      27.51100000      27.79400000
 O      45.67400000      22.55400000      35.35500000
 H      46.17500000      22.00400000      34.67800000
 H      45.14500000      21.87400000      35.81400000
 O      45.10400000      32.59700000      33.08600000
 H      44.48700000      33.31900000      33.38900000
 H      45.86600000      32.79200000      33.62900000
 O      44.15600000      28.23900000      37.03600000
 H      44.04800000      29.04800000      37.59900000
 H      44.40700000      27.60900000      37.65000000
 O      42.52200000      29.28800000      16.00700000
 H      41.95700000      28.53200000      16.16400000
 H      42.34800000      29.82500000      16.85400000
 O      47.63400000      21.53200000      20.62200000
 H      46.87900000      21.04000000      20.97800000
 H      48.04800000      20.75000000      20.12400000
 O      46.19800000      37.30200000      19.47200000
 H      45.34300000      37.82400000      19.47800000
 H      46.76500000      37.89800000      18.88600000
 O      48.60400000      37.21000000      29.36000000
 H      49.11000000      36.69400000      30.00500000
 H      47.74100000      36.86100000      29.48800000
 O      47.01000000      29.73900000      15.41700000
 H      46.48400000      30.49000000      15.53400000
 H      47.78500000      29.91900000      15.99800000
 O      48.10700000      36.68000000      32.52900000
 H      47.42700000      36.84700000      31.85600000
 H      48.81200000      36.24900000      31.99300000
 O      46.97700000      30.13800000      36.07500000
 H      46.80100000      29.41800000      36.65900000
 H      47.63000000      29.81800000      35.48800000
 O      45.01400000      20.53300000      15.85800000
 H      44.70900000      19.82700000      15.22900000
 H      44.30700000      21.15900000      15.78900000
 O      43.64400000      33.59600000      39.84600000
 H      43.13900000      33.05900000      40.46200000
 H      43.37000000      33.17300000      38.97800000
 O      48.04200000      37.29900000      36.30100000
 H      48.94600000      37.46400000      36.01900000
 H      47.73600000      36.63000000      35.60400000
 O      45.82800000      20.71600000      28.54100000
 H      45.24100000      20.81300000      29.31500000
 H      46.49200000      21.44900000      28.68000000
 O      45.10900000      40.10100000      26.79000000
 H      45.27700000      39.16800000      26.55300000
 H      44.99100000      39.96600000      27.79300000
 O      44.94700000      40.29600000      39.96500000
 H      45.81600000      39.94900000      39.76700000
 H      44.38600000      39.68500000      39.42400000
 O      46.97900000      20.66100000      33.75600000
 H      47.87400000      20.80900000      33.43700000
 H      47.10600000      19.94200000      34.39500000
 O      42.63800000      40.81400000      19.70900000
 H      41.68400000      40.73100000      19.62500000
 H      42.86900000      39.85100000      19.69300000
 O      45.93000000      31.38900000      39.74300000
 H      45.34300000      30.68000000      40.08500000
 H      45.49300000      32.16700000      39.94500000
 O      43.26100000      29.80900000      29.44400000
 H      43.83200000      30.15900000      30.12600000
 H      43.67200000      28.92600000      29.32800000
 O      43.95900000      36.48800000      32.74500000
 H      44.19700000      37.30800000      32.20300000
 H      43.24200000      36.88900000      33.27300000
 O      46.63600000      27.56200000      34.23800000
 H      47.14000000      26.77800000      34.05800000
 H      47.32200000      28.20600000      34.25100000
 O      47.29500000      34.55900000      27.76000000
 H      47.46800000      33.62200000      28.03900000
 H      48.20300000      34.84100000      27.48300000
 O      49.16900000      28.24100000      24.73500000
 H      49.46100000      28.01400000      23.77800000
 H      48.33700000      27.72000000      24.73400000
 O      44.65300000      31.49200000      16.10000000
 H      44.61900000      31.68700000      17.09700000
 H      44.04500000      30.77500000      16.02400000
