357
XYZ file of cluster: frame_3000_75748.9bf7b.9f2ed - created by MolEdiTo
 O      39.52100000      39.91700000      31.86600000
 H      38.59900000      40.06700000      32.18300000
 H      39.83100000      40.81000000      31.64300000
 O      20.84800000      40.38500000      30.66800000
 H      21.18200000      41.36100000      30.60500000
 H      20.18900000      40.49500000      29.92600000
 O      39.49600000      30.71500000      27.79800000
 H      38.68400000      30.82600000      28.34100000
 H      40.15100000      30.52500000      28.53700000
 O      24.64900000      38.97400000      31.47900000
 H      24.94000000      38.26600000      30.95300000
 H      25.45900000      39.33000000      31.83500000
 O      37.23200000      39.53300000      28.57600000
 H      37.96700000      39.38100000      27.92700000
 H      37.15200000      38.67500000      28.98800000
 O      27.50500000      31.15400000      35.86900000
 H      27.11200000      30.35100000      36.27000000
 H      26.91000000      31.30600000      35.12400000
 O      38.42700000      40.52800000      40.29900000
 H      38.03200000      41.37200000      39.88200000
 H      38.55700000      40.87800000      41.22600000
 O      25.63500000      36.98900000      29.83700000
 H      26.59400000      37.15500000      29.99300000
 H      25.59500000      35.98800000      29.91200000
 O      36.80300000      40.44600000      32.67500000
 H      36.27000000      39.67400000      32.47900000
 H      36.09200000      41.00700000      33.06100000
 O      29.82900000      38.59700000      27.41700000
 H      29.32300000      38.86100000      28.14900000
 H      30.73500000      38.53700000      27.72900000
 O      31.93700000      39.40000000      31.66100000
 H      32.05900000      40.15200000      32.28200000
 H      32.43200000      39.70400000      30.86400000
 O      29.86000000      32.16800000      36.66200000
 H      28.91400000      31.90100000      36.29700000
 H      30.10500000      31.19800000      36.84400000
 O      38.42400000      38.17300000      38.92400000
 H      39.30500000      37.82700000      39.12000000
 H      38.53900000      39.09700000      39.22700000
 O      24.68500000      39.36600000      28.16300000
 H      25.04600000      40.10200000      28.67800000
 H      24.93100000      38.58900000      28.67400000
 O      20.87000000      37.35400000      33.33100000
 H      20.33800000      37.77300000      34.04600000
 H      20.28000000      37.09000000      32.62200000
 O      39.67000000      30.41600000      36.06400000
 H      38.80600000      30.30300000      35.69700000
 H      40.23800000      30.11700000      35.33800000
 O      36.96900000      31.55200000      39.39900000
 H      37.59800000      30.84800000      39.04300000
 H      36.63800000      31.96100000      38.59100000
 O      22.55900000      35.05500000      29.35700000
 H      22.86100000      34.88500000      28.43600000
 H      22.43300000      36.02800000      29.26300000
 O      27.58900000      34.92600000      27.31500000
 H      28.18600000      35.71600000      27.20700000
 H      28.30900000      34.29900000      27.63500000
 O      28.22400000      30.44100000      31.00900000
 H      28.44500000      29.49100000      31.01000000
 H      28.62100000      30.68800000      31.87000000
 O      23.20200000      35.95400000      33.90800000
 H      23.34700000      35.34600000      33.12800000
 H      22.30500000      36.30400000      33.74400000
 O      33.21400000      34.99200000      38.51300000
 H      33.33000000      35.77700000      39.08000000
 H      33.03900000      34.31400000      39.22000000
 O      33.80700000      38.98300000      37.57200000
 H      32.92600000      38.97600000      38.08500000
 H      34.43100000      38.83100000      38.30000000
 O      21.11300000      39.07800000      36.70800000
 H      22.10500000      39.13300000      36.91600000
 H      21.03200000      38.09900000      36.98200000
 O      34.68500000      27.87300000      31.99700000
 H      34.90700000      27.27200000      31.21700000
 H      33.79100000      28.10300000      31.66100000
 O      23.64600000      39.71600000      37.65900000
 H      23.91700000      40.61000000      37.38000000
 H      24.46700000      39.26900000      37.35700000
 O      36.05300000      32.25300000      33.67300000
 H      37.01200000      32.44700000      33.69900000
 H      35.69500000      33.09700000      33.95400000
 O      37.83600000      35.59500000      31.50200000
 H      38.17200000      34.68900000      31.42900000
 H      38.04800000      35.72500000      32.46800000
 O      40.52100000      38.25000000      33.94600000
 H      40.42100000      38.70300000      33.04500000
 H      41.42300000      38.60100000      34.15600000
 O      32.42700000      38.38800000      27.68700000
 H      33.33400000      38.06500000      27.73200000
 H      32.45400000      39.04100000      28.47800000
 O      29.23400000      27.32300000      34.04100000
 H      28.93300000      28.23800000      33.84000000
 H      28.44900000      27.03300000      34.53000000
 O      31.77200000      30.43300000      33.92400000
 H      32.26600000      29.95500000      34.69200000
 H      32.43900000      30.30400000      33.24100000
 O      32.91300000      34.25500000      32.19200000
 H      32.55500000      33.69800000      32.94500000
 H      32.57900000      35.10800000      32.45000000
 O      21.90700000      30.70500000      40.16500000
 H      21.50000000      30.42900000      41.03200000
 H      21.81700000      29.80900000      39.72000000
 O      21.36300000      34.02600000      36.78400000
 H      21.77700000      33.87700000      37.66300000
 H      20.71700000      33.33200000      36.71200000
 O      31.68100000      33.26600000      34.52900000
 H      31.78900000      32.28700000      34.27000000
 H      30.91700000      33.17000000      35.16100000
 O      25.90500000      29.76200000      32.04700000
 H      26.78500000      30.08700000      31.85300000
 H      26.05100000      28.77900000      32.08800000
 O      24.01400000      35.93600000      38.85300000
 H      24.14100000      36.28100000      37.93900000
 H      24.30000000      35.00900000      38.73300000
 O      30.40400000      29.32200000      36.84500000
 H      31.12700000      28.96600000      36.31100000
 H      30.27500000      28.62100000      37.53400000
 O      33.28800000      29.38400000      35.80200000
 H      33.86600000      30.10200000      35.92900000
 H      33.82800000      28.67800000      36.23000000
 O      35.00300000      34.02300000      30.43100000
 H      35.04600000      34.96700000      30.60600000
 H      34.62900000      33.68600000      31.25700000
 O      33.19100000      31.12400000      39.15000000
 H      32.93000000      31.80100000      39.82800000
 H      32.62200000      30.41200000      39.51000000
 O      26.14300000      38.24400000      36.56400000
 H      25.71300000      37.40500000      36.26900000
 H      27.08100000      37.83800000      36.60800000
 O      39.12300000      34.57200000      37.72400000
 H      39.67300000      33.78900000      37.98900000
 H      38.53800000      34.70900000      38.46800000
 O      26.32300000      28.91200000      37.18000000
 H      26.72800000      28.16800000      36.71200000
 H      26.85500000      28.91300000      37.99800000
 O      26.19000000      34.28700000      29.65400000
 H      26.35400000      33.37800000      29.64800000
 H      26.70600000      34.58800000      28.84200000
 O      22.30400000      30.37900000      34.65900000
 H      22.74900000      30.16100000      35.54700000
 H      22.48100000      31.32700000      34.66700000
 O      20.61700000      31.50100000      27.11300000
 H      20.88200000      31.83700000      27.98200000
 H      20.05400000      30.73500000      27.38400000
 O      31.62600000      36.80300000      32.92500000
 H      31.74600000      37.71100000      32.59500000
 H      30.77800000      36.93500000      33.41300000
 O      30.89400000      30.31900000      29.47700000
 H      30.79800000      29.38200000      29.06100000
 H      31.78700000      30.44800000      29.47900000
 O      40.03900000      36.04900000      29.93400000
 H      39.23600000      36.01200000      30.49600000
 H      40.59500000      35.31900000      30.33300000
 O      39.94000000      28.89900000      40.46700000
 H      39.49600000      28.02400000      40.52300000
 H      39.43100000      29.22500000      39.68100000
 O      32.71600000      40.41800000      29.20200000
 H      33.54900000      40.63600000      28.67900000
 H      32.29600000      41.36200000      29.04300000
 O      24.62200000      36.02200000      36.13000000
 H      25.12100000      35.43300000      35.61300000
 H      23.92600000      36.38700000      35.51000000
 O      38.92700000      33.10800000      34.96000000
 H      38.48300000      33.62300000      35.65900000
 H      39.15700000      32.33100000      35.45100000
 O      40.07600000      36.45900000      27.22000000
 H      39.94300000      36.33000000      28.17400000
 H      41.06600000      36.35600000      27.24600000
 O      29.84700000      34.48300000      31.89000000
 H      30.68200000      34.91800000      32.05500000
 H      29.98700000      33.85000000      31.17400000
 O      29.22000000      39.90600000      35.12600000
 H      29.82100000      39.53600000      35.78000000
 H      29.53100000      40.85800000      35.10200000
 O      28.94500000      30.13200000      33.73900000
 H      29.84900000      30.14700000      34.04800000
 H      28.56700000      30.77700000      34.41600000
 O      35.15100000      34.75200000      34.55900000
 H      35.37900000      34.62600000      35.50000000
 H      34.77900000      35.64400000      34.59600000
 O      22.24700000      37.89700000      28.92000000
 H      21.78400000      38.74200000      28.97000000
 H      23.08600000      38.19500000      28.46700000
 O      22.39800000      38.49000000      39.57200000
 H      22.95000000      38.87400000      38.79100000
 H      23.06500000      37.75700000      39.76200000
 O      27.56300000      38.07700000      39.83500000
 H      27.66700000      37.91600000      40.75300000
 H      27.88800000      39.01000000      39.71400000
 O      25.28600000      31.43000000      34.24000000
 H      25.22900000      30.79800000      33.51800000
 H      24.43100000      31.50800000      34.66000000
 O      35.61100000      34.61800000      37.15900000
 H      36.20500000      35.26100000      37.57600000
 H      34.87200000      34.52600000      37.75700000
 O      37.40700000      30.94500000      29.50000000
 H      37.17300000      30.25100000      30.15000000
 H      38.00300000      31.54400000      30.05500000
 O      32.24900000      28.52900000      40.09100000
 H      33.17500000      28.39300000      40.31600000
 H      32.18900000      27.95100000      39.30100000
 O      26.08300000      33.83600000      37.99700000
 H      26.23900000      33.81200000      37.06100000
 H      26.77000000      34.44000000      38.31300000
 O      32.50800000      35.50500000      36.03400000
 H      32.39700000      34.60500000      35.69100000
 H      32.69500000      35.31700000      36.98200000
 O      32.55400000      32.69400000      29.48000000
 H      33.34200000      33.28400000      29.60900000
 H      31.83200000      33.31100000      29.56200000
 O      38.65300000      36.17500000      33.88800000
 H      38.06900000      36.85100000      34.29000000
 H      39.40800000      36.80000000      33.70600000
 O      21.59000000      29.02100000      32.61900000
 H      21.87500000      29.50200000      33.42200000
 H      22.37100000      29.31400000      31.99900000
 O      36.93800000      36.03300000      39.15400000
 H      36.99700000      35.94100000      40.13700000
 H      37.49100000      36.80900000      39.01500000
 O      35.47500000      32.78600000      28.04600000
 H      36.27400000      32.27300000      28.33500000
 H      35.42300000      33.44300000      28.78600000
 O      39.11800000      33.14600000      31.15900000
 H      39.04200000      32.29200000      31.66700000
 H      40.10100000      33.17000000      31.04000000
 O      26.65200000      39.76700000      33.86000000
 H      26.18600000      39.03300000      34.37900000
 H      27.45200000      39.89500000      34.47700000
 O      21.97200000      32.35900000      29.33800000
 H      22.79000000      31.84500000      29.14900000
 H      22.41700000      33.20500000      29.62700000
 O      34.61100000      29.76100000      29.63900000
 H      35.45300000      30.11200000      29.26500000
 H      34.63200000      30.13000000      30.52700000
 O      23.63600000      34.34100000      31.75600000
 H      22.99000000      34.75500000      31.21500000
 H      24.43800000      34.32500000      31.21600000
 O      36.86000000      30.01400000      35.41400000
 H      36.56800000      30.44300000      34.55700000
 H      36.21900000      30.40100000      36.05900000
 O      28.33600000      36.51300000      36.42100000
 H      29.28200000      36.78700000      36.43300000
 H      28.30700000      36.04800000      37.27100000
 O      28.72700000      37.37200000      33.58300000
 H      28.14100000      37.07100000      34.34300000
 H      29.08300000      38.22500000      33.98700000
 O      25.86400000      34.05200000      34.77100000
 H      26.83000000      34.20500000      34.51500000
 H      25.69400000      33.17900000      34.40900000
 O      40.36300000      37.25200000      36.92600000
 H      40.04800000      36.34600000      37.05000000
 H      39.82500000      37.46200000      36.11700000
 O      38.35800000      26.91200000      35.30200000
 H      37.43100000      26.53500000      35.31200000
 H      38.04200000      27.84000000      35.33300000
 O      23.65300000      29.80700000      30.62300000
 H      23.93700000      30.56000000      29.98800000
 H      24.51600000      29.65500000      31.00700000
 O      35.13700000      31.41700000      37.26000000
 H      34.52900000      31.18500000      37.99600000
 H      34.82900000      32.25800000      36.98000000
 O      22.05100000      28.12100000      38.43900000
 H      21.17400000      28.24700000      37.92700000
 H      22.66800000      28.43900000      37.70500000
 O      22.71100000      32.97000000      38.92100000
 H      23.66800000      32.77700000      38.98900000
 H      22.30200000      32.14200000      39.15400000
 O      28.47800000      34.41400000      34.16900000
 H      28.92700000      35.12800000      34.66000000
 H      28.98300000      34.36700000      33.31200000
 O      37.85700000      28.36700000      31.22100000
 H      37.00800000      28.18200000      31.66100000
 H      38.37900000      27.57000000      31.55900000
 O      23.68300000      28.79500000      36.59100000
 H      24.60800000      28.96000000      36.91600000
 H      23.90000000      28.08000000      35.89600000
 O      20.43600000      29.85000000      29.92500000
 H      21.15100000      30.51400000      29.70200000
 H      20.72500000      29.64900000      30.88000000
 O      27.69200000      31.56000000      39.44200000
 H      28.49400000      31.90400000      39.81300000
 H      27.47800000      32.14900000      38.69800000
 O      38.48800000      29.39000000      38.18700000
 H      38.99400000      29.67600000      37.44600000
 H      37.69000000      28.96700000      37.77900000
 O      29.51500000      39.21200000      30.65300000
 H      30.39400000      39.17300000      31.08200000
 H      29.17000000      38.26000000      30.79100000
 O      39.37800000      30.60100000      32.25700000
 H      40.12000000      30.54800000      32.85500000
 H      39.20000000      29.67600000      32.00700000
 O      35.20400000      37.45200000      32.34400000
 H      35.77600000      36.86500000      32.81900000
 H      34.34500000      37.41100000      32.88800000
 O      22.97900000      32.88500000      34.83000000
 H      22.44600000      33.50800000      35.43000000
 H      23.55700000      33.56400000      34.45700000
 O      27.95200000      35.66600000      38.79900000
 H      28.56900000      35.45400000      39.58600000
 H      27.48500000      36.48500000      39.21600000
 O      31.26800000      39.20100000      38.76200000
 H      31.10900000      39.17000000      39.74100000
 H      30.31500000      39.46500000      38.51000000
 O      22.85900000      39.21900000      33.75600000
 H      22.45100000      38.43500000      33.96200000
 H      23.03300000      39.14700000      32.75600000
 O      33.82100000      27.99700000      27.71600000
 H      34.51400000      28.10800000      27.00900000
 H      33.92500000      28.84000000      28.14200000
 O      28.54000000      36.63800000      30.60900000
 H      28.23800000      36.85800000      31.54200000
 H      29.30700000      36.10700000      30.78500000
 O      29.88100000      32.93900000      29.77300000
 H      29.44200000      32.92400000      28.87800000
 H      30.17100000      32.00000000      29.78900000
 O      32.16300000      28.39800000      31.26000000
 H      31.58700000      27.59700000      31.36200000
 H      31.46000000      29.08200000      31.18500000
 O      28.58700000      28.97300000      39.41700000
 H      28.27300000      29.90100000      39.45700000
 H      29.52000000      29.06200000      39.65600000
 O      34.81100000      27.56800000      40.53000000
 H      35.07300000      28.46200000      40.81500000
 H      35.73300000      27.21200000      40.27100000
 O      27.16500000      31.92600000      28.97900000
 H      27.26000000      31.30100000      28.23000000
 H      27.58200000      31.42900000      29.69000000
 O      30.68100000      37.64500000      36.50700000
 H      31.26800000      37.08000000      35.92000000
 H      31.40200000      38.20900000      36.97700000
 O      20.20900000      40.31500000      33.52900000
 H      20.19000000      40.21000000      32.51500000
 H      21.07100000      39.93700000      33.72700000
 O      28.84300000      40.05500000      38.30000000
 H      28.23100000      39.56100000      37.72100000
 H      28.62200000      40.97100000      38.00300000
 O      34.30000000      37.41500000      35.39600000
 H      33.44300000      36.96300000      35.45700000
 H      34.27600000      37.99700000      36.20400000
 O      33.63600000      31.21900000      31.95300000
 H      34.16800000      31.82600000      32.47300000
 H      33.01100000      31.77500000      31.52900000
 O      35.02700000      37.49700000      27.61400000
 H      35.39600000      37.14600000      28.46900000
 H      35.76200000      38.01400000      27.32200000
 O      36.33400000      37.23200000      29.88300000
 H      35.92800000      37.57000000      30.72100000
 H      36.91500000      36.53300000      30.29500000
 O      37.06700000      37.88400000      35.57100000
 H      37.33200000      37.52100000      36.42500000
 H      36.09200000      37.69100000      35.56300000
 O      30.03400000      32.85800000      39.45000000
 H      30.19800000      32.76300000      38.50100000
 H      30.24600000      33.81000000      39.63500000
 O      24.51500000      31.43000000      28.82000000
 H      24.65900000      31.62700000      27.88200000
 H      25.43000000      31.47100000      29.13000000
