126
XYZ file of cluster: frame_7500_70f03.4b479.c48b2 - created by MolEdiTo
 O      21.73800000      20.36200000      26.36000000
 H      22.47200000      20.39500000      25.70700000
 H      21.25200000      21.18700000      26.05400000
 O      15.87200000      21.28000000      30.33600000
 H      16.54900000      21.41900000      31.02600000
 H      16.26700000      20.76200000      29.61700000
 O      17.72100000      13.08900000      29.62900000
 H      16.88400000      13.26200000      29.18900000
 H      18.38100000      13.18100000      28.93100000
 O      25.02300000      19.51800000      28.66400000
 H      24.16000000      19.86400000      29.10400000
 H      24.73300000      18.71400000      28.16000000
 O      26.11000000      12.23000000      27.71800000
 H      25.41100000      11.85900000      27.10100000
 H      26.94800000      11.80100000      27.35500000
 O      17.58600000      10.71100000      27.14800000
 H      18.25300000      11.20100000      26.59000000
 H      16.86900000      11.25600000      27.54500000
 O      17.34600000      17.20600000      26.36600000
 H      17.76800000      16.35800000      26.67700000
 H      16.45300000      16.90400000      26.00100000
 O      23.43900000      17.59700000      26.97400000
 H      22.92200000      17.91800000      26.18100000
 H      23.25900000      16.70900000      27.11200000
 O      24.66600000      11.13200000      30.05700000
 H      25.23400000      11.63400000      30.69700000
 H      25.35400000      10.97800000      29.30700000
 O      23.70900000      14.08500000      28.13100000
 H      22.90100000      13.55500000      28.39500000
 H      24.23000000      14.13000000      28.95300000
 O      20.45300000      19.86500000      28.71700000
 H      20.61900000      19.99600000      27.76500000
 H      19.71000000      20.54000000      28.76500000
 O      20.69800000      16.91800000      28.85500000
 H      21.41000000      17.19800000      28.21900000
 H      20.37900000      17.79100000      29.10300000
 O      21.88000000      15.28700000      26.22200000
 H      21.97700000      15.16900000      25.22600000
 H      22.65000000      14.90500000      26.65200000
 O      21.73400000      10.71900000      28.14100000
 H      22.62400000      10.35600000      27.97200000
 H      21.11700000      10.35100000      27.43100000
 O      19.15800000      15.07900000      27.22000000
 H      19.95400000      14.77100000      26.69800000
 H      19.36500000      15.92300000      27.68100000
 O      26.46100000      21.87200000      29.67100000
 H      27.49400000      22.06900000      29.54100000
 H      26.18500000      20.95000000      29.37500000
 O      21.08500000      13.01100000      28.55600000
 H      21.18700000      12.07800000      28.13800000
 H      20.68300000      13.63700000      27.95500000
 O      15.99900000      20.06800000      27.76900000
 H      15.05900000      19.81200000      27.89300000
 H      16.08200000      19.99000000      26.77000000
 O      18.22300000      21.46500000      28.31500000
 H      18.07400000      22.42700000      28.10600000
 H      17.49200000      20.96200000      27.86400000
 O      22.97600000      20.79300000      29.98900000
 H      22.00600000      20.63000000      29.73500000
 H      23.18300000      20.30600000      30.83600000
 O      25.28300000      12.36400000      35.54200000
 H      24.39100000      11.91700000      35.78300000
 H      25.97000000      11.80300000      35.88800000
 O      24.82400000      17.18300000      33.28600000
 H      24.39800000      18.07700000      33.12300000
 H      25.35500000      17.35100000      34.08700000
 O      20.19100000      13.41800000      35.48800000
 H      20.17400000      12.67100000      34.84300000
 H      20.15700000      14.34000000      35.08200000
 O      20.12800000      16.99800000      36.35000000
 H      20.75000000      17.47300000      35.82000000
 H      19.61300000      17.78300000      36.52900000
 O      24.19900000      20.04100000      34.07900000
 H      24.91000000      20.52500000      34.54600000
 H      23.83400000      19.53800000      34.84300000
 O      17.62100000      14.06500000      36.45300000
 H      18.53200000      13.66900000      36.42700000
 H      17.47400000      14.72800000      37.19100000
 O      21.35300000      12.19500000      32.64500000
 H      22.22100000      12.62000000      32.80600000
 H      21.00300000      12.70500000      31.93000000
 O      26.32000000      15.00500000      32.66500000
 H      25.82800000      15.82100000      32.84100000
 H      26.75400000      14.87800000      33.57100000
 O      15.17800000      12.15700000      35.46900000
 H      14.55600000      12.93800000      35.59300000
 H      15.99200000      12.45800000      35.91600000
 O      19.27900000      15.00300000      32.50800000
 H      18.67300000      14.56200000      31.94900000
 H      20.08200000      14.99900000      31.98400000
 O      19.17100000      18.42700000      32.81000000
 H      18.86300000      17.51000000      32.59900000
 H      18.46400000      18.98200000      32.53700000
 O      18.43500000      10.74000000      36.05700000
 H      18.17000000       9.80600000      35.97800000
 H      18.19900000      11.21200000      35.21800000
 O      21.46800000      21.09400000      36.40200000
 H      21.54800000      20.86000000      37.35400000
 H      21.98300000      20.44300000      35.81000000
 O      23.67900000      10.85300000      36.37900000
 H      24.14000000      10.05900000      36.69900000
 H      22.99400000      10.62200000      35.64700000
 O      15.63300000      15.60900000      34.27100000
 H      16.47600000      15.19800000      34.49500000
 H      14.99200000      14.85900000      34.38200000
 O      15.72900000      18.17900000      32.06400000
 H      16.17100000      17.50000000      32.71300000
 H      15.30100000      17.67100000      31.40000000
 O      16.99400000      18.94900000      35.27900000
 H      17.57000000      18.34100000      35.80300000
 H      17.56200000      19.74800000      35.11300000
 O      19.49700000      10.19300000      32.89200000
 H      19.64300000      11.18900000      33.11000000
 H      18.55300000      10.18700000      32.63300000
 O      21.50400000      18.20500000      34.31900000
 H      21.54700000      17.25000000      34.02300000
 H      20.66500000      18.62300000      33.87700000
 O      23.82000000      13.38800000      32.83300000
 H      24.33700000      14.09900000      32.47600000
 H      24.38300000      12.95600000      33.42000000
 O      18.01300000      12.29900000      33.72500000
 H      17.93800000      12.63800000      32.78300000
 H      18.09600000      13.06700000      34.41300000
 O      21.77800000      10.22400000      34.54900000
 H      21.93200000      11.15200000      34.23000000
 H      20.91100000      10.04400000      34.16200000
