129
XYZ file of cluster: frame_7500_505bd.4b479.c8449 - created by MolEdiTo
 O      13.16800000      20.74300000      28.43700000
 H      13.55400000      21.63900000      28.26300000
 H      13.42700000      20.60300000      29.43600000
 O      14.59600000      12.56000000      29.52700000
 H      14.45300000      11.86700000      30.23800000
 H      13.64500000      12.76900000      29.30700000
 O      14.46800000      15.25100000      29.82900000
 H      14.99400000      15.02900000      30.65400000
 H      14.48600000      14.34800000      29.41700000
 O      11.97800000      10.54100000      29.69600000
 H      11.21000000      10.09500000      29.35300000
 H      11.78300000      11.43500000      29.37700000
 O      15.87200000      21.28000000      30.33600000
 H      16.54900000      21.41900000      31.02600000
 H      16.26700000      20.76200000      29.61700000
 O      17.72100000      13.08900000      29.62900000
 H      16.88400000      13.26200000      29.18900000
 H      18.38100000      13.18100000      28.93100000
 O      11.31800000      20.75500000      26.44600000
 H      11.82500000      20.95900000      25.70400000
 H      11.96400000      20.39300000      27.15700000
 O      17.58600000      10.71100000      27.14800000
 H      18.25300000      11.20100000      26.59000000
 H      16.86900000      11.25600000      27.54500000
 O      17.34600000      17.20600000      26.36600000
 H      17.76800000      16.35800000      26.67700000
 H      16.45300000      16.90400000      26.00100000
 O      12.00800000      13.13000000      29.67300000
 H      11.64500000      14.04900000      29.50800000
 H      11.45800000      12.76800000      30.40400000
 O      13.44100000      17.26900000      28.36600000
 H      13.82800000      16.53500000      28.96700000
 H      14.05500000      17.46100000      27.60200000
 O      20.45300000      19.86500000      28.71700000
 H      20.61900000      19.99600000      27.76500000
 H      19.71000000      20.54000000      28.76500000
 O      20.69800000      16.91800000      28.85500000
 H      21.41000000      17.19800000      28.21900000
 H      20.37900000      17.79100000      29.10300000
 O      19.15800000      15.07900000      27.22000000
 H      19.95400000      14.77100000      26.69800000
 H      19.36500000      15.92300000      27.68100000
 O      21.08500000      13.01100000      28.55600000
 H      21.18700000      12.07800000      28.13800000
 H      20.68300000      13.63700000      27.95500000
 O      15.99900000      20.06800000      27.76900000
 H      15.05900000      19.81200000      27.89300000
 H      16.08200000      19.99000000      26.77000000
 O      18.22300000      21.46500000      28.31500000
 H      18.07400000      22.42700000      28.10600000
 H      17.49200000      20.96200000      27.86400000
 O      13.91200000      11.78800000      26.58500000
 H      14.42000000      12.52700000      26.96500000
 H      14.20300000      11.00600000      27.15600000
 O      10.71200000      18.17500000      28.03900000
 H      10.36500000      18.87500000      28.55900000
 H      11.71800000      17.90900000      28.29200000
 O      20.19100000      13.41800000      35.48800000
 H      20.17400000      12.67100000      34.84300000
 H      20.15700000      14.34000000      35.08200000
 O      20.12800000      16.99800000      36.35000000
 H      20.75000000      17.47300000      35.82000000
 H      19.61300000      17.78300000      36.52900000
 O      17.62100000      14.06500000      36.45300000
 H      18.53200000      13.66900000      36.42700000
 H      17.47400000      14.72800000      37.19100000
 O      11.16000000      16.45900000      34.76300000
 H      10.35700000      16.91000000      35.07800000
 H      11.58100000      16.85400000      34.01200000
 O      14.30100000      11.60300000      33.03700000
 H      15.19400000      11.27000000      32.75700000
 H      14.48300000      11.97600000      33.94000000
 O      15.17800000      12.15700000      35.46900000
 H      14.55600000      12.93800000      35.59300000
 H      15.99200000      12.45800000      35.91600000
 O      19.27900000      15.00300000      32.50800000
 H      18.67300000      14.56200000      31.94900000
 H      20.08200000      14.99900000      31.98400000
 O      19.17100000      18.42700000      32.81000000
 H      18.86300000      17.51000000      32.59900000
 H      18.46400000      18.98200000      32.53700000
 O      18.43500000      10.74000000      36.05700000
 H      18.17000000       9.80600000      35.97800000
 H      18.19900000      11.21200000      35.21800000
 O      11.63100000      18.34500000      32.05900000
 H      12.41100000      18.98700000      32.06200000
 H      11.91100000      17.62700000      31.47700000
 O      11.94100000      19.45500000      36.34400000
 H      12.70800000      19.04600000      35.82400000
 H      11.92100000      18.89100000      37.12700000
 O      15.63300000      15.60900000      34.27100000
 H      16.47600000      15.19800000      34.49500000
 H      14.99200000      14.85900000      34.38200000
 O      15.72900000      18.17900000      32.06400000
 H      16.17100000      17.50000000      32.71300000
 H      15.30100000      17.67100000      31.40000000
 O      14.04700000      10.41600000      36.33400000
 H      14.68500000       9.90200000      35.76900000
 H      14.50400000      11.26800000      36.37900000
 O      16.99400000      18.94900000      35.27900000
 H      17.57000000      18.34100000      35.80300000
 H      17.56200000      19.74800000      35.11300000
 O      13.48000000      20.43200000      32.47300000
 H      14.49900000      20.38600000      32.51000000
 H      13.18700000      20.22600000      33.41600000
 O      11.70600000      12.46000000      36.12700000
 H      12.33700000      12.41700000      36.90100000
 H      10.89800000      11.92600000      36.47300000
 O      11.01500000      12.06000000      33.33300000
 H      10.62400000      11.23400000      33.58700000
 H      11.57000000      12.27600000      34.07000000
 O      13.43300000      14.21300000      35.36300000
 H      13.14000000      14.89000000      34.67200000
 H      12.72000000      13.53500000      35.32900000
 O      19.49700000      10.19300000      32.89200000
 H      19.64300000      11.18900000      33.11000000
 H      18.55300000      10.18700000      32.63300000
 O      14.36100000      17.90800000      35.15300000
 H      14.65100000      17.03600000      34.81400000
 H      15.20600000      18.47500000      35.07000000
 O      21.50400000      18.20500000      34.31900000
 H      21.54700000      17.25000000      34.02300000
 H      20.66500000      18.62300000      33.87700000
 O      18.01300000      12.29900000      33.72500000
 H      17.93800000      12.63800000      32.78300000
 H      18.09600000      13.06700000      34.41300000
 O      21.77800000      10.22400000      34.54900000
 H      21.93200000      11.15200000      34.23000000
 H      20.91100000      10.04400000      34.16200000
