145
XYZ file of cluster: frame_7500_694db.691cb.22ddc - created by MolEdiTo
 O      19.64900000      22.62800000      14.02300000
 H      19.20700000      22.24000000      14.83700000
 H      19.30200000      22.02600000      13.34000000
 O      25.30200000      20.51300000      11.80900000
 H      24.82400000      21.15700000      12.30000000
 H      24.57800000      19.99700000      11.42000000
 O      24.01600000      24.03300000       5.43400000
 H      24.66400000      23.49800000       5.98000000
 H      23.20100000      24.02900000       6.01100000
 O      26.54800000      21.79400000       9.35000000
 H      27.19100000      22.46900000       9.70800000
 H      26.18100000      21.32200000      10.16400000
 O      21.22300000      24.45200000      11.64800000
 H      20.95200000      24.36200000      10.68000000
 H      20.43600000      24.87800000      12.10900000
 O      15.22000000      20.10400000      15.61900000
 H      15.94400000      20.40600000      15.06100000
 H      14.58600000      19.85500000      14.87900000
 O      22.97200000      27.23700000      13.02000000
 H      23.26900000      26.36100000      13.47300000
 H      22.22400000      27.42800000      13.57200000
 O      18.61100000      18.75600000       6.52200000
 H      19.46500000      19.03500000       6.96900000
 H      18.15800000      19.60500000       6.73600000
 O      15.73300000      16.88500000      11.26100000
 H      15.79600000      17.62100000      10.58900000
 H      14.92000000      16.48100000      10.96600000
 O      22.68800000      22.72000000       9.75300000
 H      22.23600000      22.86500000      10.62900000
 H      23.18100000      23.54000000       9.48400000
 O      21.46800000      21.09400000       5.06700000
 H      21.54800000      20.86000000       6.01900000
 H      21.98300000      20.44300000       4.47500000
 O      20.77600000      19.25400000      16.03700000
 H      20.82100000      18.42200000      15.55800000
 H      20.90700000      18.82400000      16.91800000
 O      23.29800000      19.55500000      10.01800000
 H      23.25400000      20.48000000      10.38800000
 H      22.47000000      19.11600000      10.48900000
 O      15.56800000      18.69500000       9.06400000
 H      15.10500000      17.90500000       8.78100000
 H      15.99700000      19.06800000       8.25800000
 O      24.57100000      24.82700000      15.53700000
 H      25.38400000      24.43400000      15.28000000
 H      24.68500000      25.73800000      15.19500000
 O      16.04600000      19.19400000      12.98100000
 H      17.03100000      19.36400000      12.93100000
 H      16.12500000      18.26100000      13.25700000
 O      26.10300000      16.90900000       6.78000000
 H      26.78400000      17.58500000       6.77900000
 H      25.89800000      17.05200000       5.86300000
 O      16.41900000      27.10900000      14.99900000
 H      16.28800000      26.16200000      15.16000000
 H      16.63100000      27.48300000      15.92400000
 O      20.40000000      25.25700000      14.84400000
 H      20.49000000      25.17800000      15.82100000
 H      20.28900000      24.31100000      14.56800000
 O      22.68800000      16.61800000      14.71400000
 H      23.40700000      16.44900000      15.38200000
 H      22.85100000      15.97500000      14.04000000
 O      17.05300000      15.85800000       7.16900000
 H      17.25100000      15.68700000       8.16800000
 H      17.65300000      16.58700000       6.96100000
 O      15.31400000      22.91700000      13.60200000
 H      14.80600000      22.31000000      14.16000000
 H      15.92900000      23.42800000      14.15600000
 O      26.21500000      22.78300000       6.76700000
 H      27.03400000      23.22200000       6.57200000
 H      26.20400000      22.58600000       7.71800000
 O      24.30100000      21.77400000      15.53300000
 H      24.53200000      22.67300000      15.86500000
 H      23.63800000      21.50800000      16.16700000
 O      17.72000000      22.78800000      12.43300000
 H      18.07900000      22.08000000      11.93100000
 H      16.94400000      22.54100000      13.09800000
 C      14.13500000      15.92600000      15.33400000
 C      15.16200000      15.29300000      16.24000000
 C      17.20700000      16.37800000      15.30100000
 H      16.28600000      14.78500000      14.40900000
 H      14.17600000      17.29700000      16.59700000
 O      17.19000000      14.02000000      16.13400000
 O      13.57200000      15.29700000      14.44600000
 O      13.67000000      17.11400000      15.79700000
 C      16.47800000      15.06600000      15.47300000
 O      15.39800000      16.08400000      17.38100000
 H      14.77400000      14.29300000      16.60100000
 O      16.94000000      17.07400000      14.35600000
 O      18.34600000      16.53600000      15.99500000
 H      18.32900000      15.74800000      16.55200000
 H      15.97100000      15.63500000      18.10500000
 H      17.85600000      13.69200000      15.46200000
 O      19.17800000      25.29600000       9.53300000
 H      19.50000000      25.55500000       8.63800000
 H      18.23100000      25.25300000       9.58600000
 O      20.89900000      20.33600000       7.74900000
 H      20.23900000      20.75100000       8.33000000
 H      21.70300000      20.18500000       8.33200000
 O      18.14200000      25.45000000      12.93800000
 H      18.32500000      25.46300000      13.91600000
 H      17.94800000      24.53400000      12.65500000
 O      24.18400000      25.55700000       8.40200000
 H      24.03800000      26.41800000       8.93400000
 H      25.06800000      25.16700000       8.63400000
 O      25.83400000      18.24500000       9.46800000
 H      25.12900000      18.91700000       9.48700000
 H      25.21000000      17.49800000       9.43300000
 O      16.77200000      23.08500000       8.69900000
 H      17.29100000      22.39100000       8.33000000
 H      15.95300000      22.59200000       8.94000000
 O      18.15800000      18.64800000      10.76300000
 H      17.90200000      17.78600000      11.10600000
 H      17.44100000      18.89500000      10.14700000
 O      19.02000000      19.72000000      13.46500000
 H      19.18700000      18.74200000      13.39700000
 H      19.26200000      19.86100000      14.37400000
 O      21.29300000      23.85100000       5.84500000
 H      21.23000000      22.86000000       5.72500000
 H      20.76700000      24.20400000       5.02900000
 O      25.58900000      18.26200000      14.29800000
 H      24.62700000      18.41000000      14.43300000
 H      25.64000000      17.34700000      14.45100000
 O      24.17500000      23.14300000      13.03200000
 H      24.44700000      22.79700000      13.95200000
 H      23.17200000      23.22800000      12.90800000
 O      20.67400000      19.07400000      11.06500000
 H      20.56000000      19.92000000      11.50200000
 H      19.77800000      18.87500000      10.88100000
 O      16.37500000      20.15400000       7.01600000
 H      16.34400000      19.74100000       6.08800000
 H      15.49100000      20.63600000       6.94600000
 O      21.37400000      25.90100000       7.78600000
 H      22.30500000      25.67900000       8.01500000
 H      21.14400000      25.19900000       7.15100000
 O      20.59600000      16.28100000       8.81900000
 H      20.39000000      16.87100000       9.56400000
 H      21.16800000      16.84400000       8.23200000
 O      19.83800000      22.26200000       9.46200000
 H      19.42400000      23.15500000       9.41700000
 H      20.70200000      22.36100000       9.03700000
 O      20.57100000      17.33300000      13.59400000
 H      20.96300000      17.94700000      12.92800000
 H      21.31400000      16.78600000      13.76600000
 O      21.30900000      21.38800000      12.69300000
 H      20.66300000      22.04200000      13.02300000
 H      21.47400000      20.83100000      13.47800000
