138
XYZ file of cluster: frame_7500_247f.495a5.3f54 - created by MolEdiTo
 O       6.73200000      15.11700000       2.17500000
 H       7.48200000      15.73200000       2.08200000
 H       7.05800000      14.26700000       2.58800000
 O       6.22400000      19.33300000       4.80800000
 H       5.78900000      19.90100000       5.51400000
 H       6.88000000      19.96800000       4.40300000
 O       3.44500000      11.86100000       6.35700000
 H       3.72300000      11.18600000       7.02700000
 H       4.14400000      12.48900000       6.46100000
 O       1.24800000      11.01400000       8.76100000
 H       1.98000000      11.42800000       9.30600000
 H       1.69800000      10.83300000       7.89100000
 O       3.03900000      14.16300000       0.99100000
 H       3.90500000      13.64700000       0.71700000
 H       2.20300000      13.87200000       0.50800000
 O       8.71300000      15.99200000       8.13900000
 H       7.80100000      16.37000000       7.98000000
 H       9.20700000      16.32900000       7.38900000
 O       3.45900000      15.92500000       3.54600000
 H       3.99100000      15.44000000       4.20000000
 H       3.36100000      15.27000000       2.73700000
 O       6.92600000      15.90500000       5.22100000
 H       6.11400000      15.48100000       5.63600000
 H       6.73800000      15.94400000       4.26500000
 O      11.16000000      16.45900000       3.42800000
 H      10.35700000      16.91000000       3.74300000
 H      11.58100000      16.85400000       2.67700000
 O       5.38500000      10.28200000       2.14500000
 H       6.11800000      10.17600000       2.87800000
 H       4.64200000      10.72300000       2.50700000
 O       5.33500000      17.70300000       2.73300000
 H       4.36600000      17.55400000       2.82400000
 H       5.56400000      18.28600000       3.48500000
 O       3.04500000      13.90400000       8.39300000
 H       2.45500000      13.22200000       8.67500000
 H       2.70500000      14.75800000       8.62300000
 O       3.51400000      19.76300000      10.11300000
 H       2.76000000      19.88900000       9.53100000
 H       3.68300000      20.68600000      10.50000000
 O       4.21700000      20.82900000       1.57700000
 H       4.69600000      21.16000000       0.81300000
 H       4.83600000      20.27100000       2.01600000
 O       5.62800000      20.25500000       7.40800000
 H       6.05800000      21.06800000       7.56900000
 H       5.31400000      19.81600000       8.25000000
 O       5.22900000      14.04900000       6.61700000
 H       5.62000000      14.34400000       7.46800000
 H       4.38100000      14.47300000       6.81200000
 O       7.56800000      13.22400000       5.97800000
 H       7.83700000      12.79200000       6.79600000
 H       7.82900000      14.14300000       5.78200000
 O       6.06200000      14.07700000       9.22500000
 H       5.46200000      13.49400000       9.76600000
 H       6.06800000      14.90000000       9.65400000
 O       0.96400000      19.39500000       8.60000000
 H       0.61500000      20.04000000       7.94500000
 H       0.29400000      19.33500000       9.30500000
 O      10.61800000      11.13700000       8.83100000
 H      11.55000000      11.02900000       8.59400000
 H      10.19700000      11.51100000       8.06100000
 O       9.54500000      11.05200000       6.11400000
 H       9.45800000      10.06900000       6.07800000
 H       9.10100000      11.30300000       5.29600000
 O       8.02300000      10.80800000       9.87200000
 H       8.59100000      11.31700000      10.56000000
 H       8.62000000      10.76000000       9.07900000
 O       6.96200000      11.93200000       3.92900000
 H       7.25800000      12.39300000       4.73200000
 H       5.97300000      12.02000000       4.08300000
 O       8.05700000      19.38100000       6.69000000
 H       8.95200000      19.22600000       7.03300000
 H       8.20200000      20.30800000       6.34100000
 O       4.27000000      10.71200000       8.84700000
 H       4.25500000      11.52900000       9.43500000
 H       5.10500000      10.36600000       9.21100000
 O       7.57600000       9.82600000       4.80500000
 H       8.36000000       9.55500000       4.31900000
 H       7.67300000      10.79700000       4.79500000
 O       8.13600000      18.83200000       9.99700000
 H       7.26800000      18.59700000       9.60800000
 H       8.75400000      18.65200000       9.20100000
 O       2.69000000      19.59600000       6.05400000
 H       2.39900000      20.15800000       6.90000000
 H       3.08900000      20.24700000       5.39600000
 O       7.12200000      20.20300000       1.81900000
 H       7.92700000      19.55500000       1.99300000
 H       7.52400000      21.10400000       2.05400000
 O       8.17400000      11.94000000       2.76100000
 H       8.46100000      12.79300000       2.37800000
 H       7.30100000      12.32500000       3.04200000
 O      10.28600000      18.53600000       7.80500000
 H      11.09100000      18.09200000       8.22400000
 H      10.68900000      19.49800000       7.80900000
 O       7.35500000      17.43200000       7.97500000
 H       7.87100000      18.17800000       7.63800000
 H       6.71500000      17.19700000       7.28300000
 O       5.00500000      16.73700000       9.72100000
 H       4.40800000      17.51900000       9.72600000
 H       5.62500000      16.85200000       8.96600000
 O       9.40500000      19.65500000       2.51200000
 H      10.27400000      19.40900000       2.09200000
 H       9.06800000      20.32400000       1.93700000
 O       4.04600000      12.10800000       3.09500000
 H       3.15000000      12.58500000       3.08900000
 H       4.38500000      12.33700000       2.15400000
 O       2.07100000      17.40600000       0.77200000
 H       1.18300000      17.02000000       0.61400000
 H       2.05100000      17.64400000       1.77300000
 O       1.70200000      17.02400000       6.73500000
 H       1.91400000      17.00300000       5.77300000
 H       2.05200000      17.91700000       6.95100000
 O       4.83600000      17.52400000       6.47600000
 H       5.70700000      17.77600000       5.98600000
 H       4.27900000      18.25700000       6.16900000
 O       1.13100000      11.15900000       4.84100000
 H       1.28700000      10.28900000       5.27800000
 H       1.91100000      11.72300000       5.16500000
 O       8.55100000      17.05100000       5.06900000
 H       8.51600000      18.08800000       5.02200000
 H       7.64500000      16.81800000       5.31700000
 O       2.01800000      17.00600000       9.48300000
 H       1.73100000      16.97100000       8.47600000
 H       1.92800000      18.03400000       9.61400000
 O       9.24200000      21.15400000       5.18300000
 H       9.45200000      20.52300000       4.45500000
 H      10.09500000      21.54300000       5.43500000
 O       8.39400000      15.73800000      10.85100000
 H       9.18200000      15.11300000      10.78600000
 H       8.37000000      16.05600000       9.89400000
 O      10.37400000      13.70600000       8.34800000
 H      10.26100000      14.66300000       8.32900000
 H       9.42500000      13.40200000       8.27900000
 O       9.19100000      14.00500000       2.80900000
 H       9.40500000      14.47700000       3.58800000
 H      10.08600000      13.87200000       2.45800000
 O       7.72500000      12.96300000       8.88900000
 H       7.89000000      13.06600000       9.86900000
 H       6.96100000      13.60200000       8.73600000
