117
XYZ file of cluster: frame_7500_9b09b.2658a.7629c - created by MolEdiTo
 O      22.05600000       6.37200000      16.82200000
 H      22.45300000       6.80300000      16.04900000
 H      21.83100000       5.43300000      16.49900000
 O      20.85500000       8.47000000      23.69300000
 H      21.40100000       7.81400000      24.14800000
 H      19.98200000       8.27900000      24.12800000
 O      27.52000000      10.71300000      18.27100000
 H      27.43900000      11.20300000      19.10000000
 H      26.98400000       9.94400000      18.49600000
 O      29.82700000      16.51300000      22.08900000
 H      30.27200000      17.07400000      21.45700000
 H      29.56300000      15.70500000      21.52400000
 O      30.01700000       6.39700000      24.61800000
 H      30.79600000       5.78600000      24.59200000
 H      30.23400000       7.07500000      23.92300000
 O      22.23600000       6.21600000      19.52800000
 H      23.21200000       6.46200000      19.58800000
 H      21.99600000       6.40900000      18.55700000
 O      25.22300000       5.88300000      19.81900000
 H      25.65300000       5.90500000      20.69800000
 H      25.41000000       4.99500000      19.53400000
 O      25.56500000       5.70000000      16.68000000
 H      25.42300000       6.39000000      17.38500000
 H      26.34500000       6.08100000      16.22500000
 O      27.48300000      11.05600000      24.73000000
 H      27.97000000      11.84400000      24.35600000
 H      27.95000000      10.88300000      25.58600000
 O      26.69200000      13.62200000      23.74800000
 H      26.65800000      14.56900000      23.61300000
 H      26.57600000      13.57200000      24.68700000
 O      30.06800000      14.57900000      16.72500000
 H      30.02600000      15.55700000      16.74800000
 H      29.13300000      14.41700000      16.75400000
 O      28.56400000       6.84300000      17.75000000
 H      28.09600000       7.47000000      17.16800000
 H      29.00400000       6.18900000      17.14300000
 O      23.64900000       8.95400000      23.38400000
 H      23.48700000       8.04600000      23.57800000
 H      24.63500000       9.11500000      23.44900000
 O      22.34500000      13.79800000      20.36500000
 H      21.41400000      13.87600000      20.17000000
 H      22.39100000      13.58900000      21.30500000
 O      28.60400000      10.87600000      21.77100000
 H      28.66800000      11.42300000      22.58900000
 H      28.05300000      10.11900000      21.90000000
 O      26.42800000       8.36300000      24.46500000
 H      26.65600000       9.27300000      24.39400000
 H      27.17300000       7.87900000      24.34800000
 O      20.47500000      14.39300000      16.05100000
 H      21.17100000      15.05400000      16.30700000
 H      20.23400000      14.65000000      15.16600000
 O      30.56600000       8.32700000      19.23200000
 H      29.93300000       8.01200000      18.53800000
 H      29.93300000       8.36600000      20.01800000
 O      21.64400000      10.94200000      22.50300000
 H      21.76400000      10.25100000      23.16000000
 H      21.91000000      10.56300000      21.64300000
 O      23.17000000      13.11700000      25.17600000
 H      23.95300000      13.22600000      25.89000000
 H      23.30900000      12.17600000      24.96000000
 O      24.75300000      10.67100000      20.78000000
 H      25.21200000       9.90700000      20.39100000
 H      23.94200000      10.70800000      20.14800000
 O      29.50100000      12.18000000      24.01100000
 H      30.44400000      12.13900000      24.28300000
 H      29.44300000      13.00300000      23.53400000
 O      26.36400000       8.62200000      19.70100000
 H      25.79100000       7.77600000      19.78000000
 H      27.16200000       8.37200000      20.20200000
 O      21.48200000       5.69600000      22.15900000
 H      21.51500000       6.50000000      22.72500000
 H      21.55400000       5.94500000      21.23900000
 O      25.02900000      14.31500000      19.60000000
 H      25.49200000      13.51700000      20.01000000
 H      24.01200000      14.14300000      19.79900000
 O      22.78800000       6.60200000      24.82000000
 H      22.56200000       5.66000000      24.87400000
 H      23.25400000       6.92200000      25.57500000
 O      21.88000000      15.28700000      26.22200000
 H      21.97700000      15.16900000      25.22600000
 H      22.65000000      14.90500000      26.65200000
 O      23.83700000      11.24400000      17.20000000
 H      23.04100000      11.65400000      17.53000000
 H      23.63400000      11.02500000      16.29800000
 O      24.15700000      10.94300000      25.83600000
 H      24.55000000       9.99000000      25.99600000
 H      23.53200000      10.80500000      25.13500000
 O      21.73200000      12.35700000      17.22700000
 H      21.45500000      12.68100000      18.12400000
 H      21.29900000      12.97800000      16.58400000
 O      28.27100000       6.97500000      21.02500000
 H      28.82700000       6.40400000      21.69600000
 H      28.25300000       6.33600000      20.28600000
 O      27.87100000      12.32800000      16.72000000
 H      27.74300000      11.39000000      16.64800000
 H      27.87700000      12.77300000      15.80800000
 O      26.86100000      16.14700000      19.46500000
 H      26.19400000      15.43200000      19.53000000
 H      27.72100000      15.86100000      19.81700000
 O      28.05400000      13.31700000      19.36300000
 H      27.95800000      13.04200000      18.40600000
 H      27.28200000      13.02600000      19.85600000
 O      21.10700000      13.80600000      23.11500000
 H      21.56400000      14.53000000      22.67500000
 H      21.65100000      13.27300000      23.70600000
 O      22.15800000      10.28500000      19.57200000
 H      21.25100000      10.43900000      19.22200000
 H      22.39900000       9.39100000      19.31900000
 O      30.33200000       8.33400000      22.58800000
 H      30.92400000       7.74400000      22.08300000
 H      30.55600000       9.24600000      22.36200000
 O      25.94800000      12.42900000      21.29800000
 H      26.14200000      12.63100000      22.21000000
 H      25.56300000      11.49000000      21.30000000
 O      24.72900000      13.86800000      16.57100000
 H      24.75400000      12.87200000      16.36700000
 H      24.38200000      13.96400000      17.51300000
