126
XYZ file of cluster: frame_7500_4c0f7.bff5f.48c15 - created by MolEdiTo
 O      10.25200000      29.20600000      14.85300000
 H       9.80300000      29.12200000      15.76300000
 H      11.19500000      29.36800000      15.17400000
 O      14.56400000      27.20900000      19.07000000
 H      14.84400000      28.15400000      18.94300000
 H      13.63700000      27.22200000      19.35000000
 O      11.56200000      27.61200000      19.31100000
 H      11.04800000      28.31000000      18.80300000
 H      10.99300000      27.34600000      20.10300000
 O      12.74600000      30.24800000      14.04800000
 H      11.85000000      30.10300000      13.58700000
 H      12.92900000      31.17900000      13.78800000
 O      12.01400000      30.61200000      20.84400000
 H      12.78500000      30.04400000      20.53200000
 H      11.38400000      29.96800000      21.14100000
 O      13.92400000      26.24300000       9.57200000
 H      13.74100000      26.58100000      10.52000000
 H      14.81000000      26.56500000       9.33800000
 O      21.11900000      29.61400000      17.48500000
 H      20.97300000      29.05600000      18.24600000
 H      21.79300000      30.27100000      17.77900000
 O      14.97900000      30.00500000      20.32700000
 H      15.38600000      30.93300000      20.09500000
 H      15.66600000      29.63500000      20.83400000
 O      15.42100000      29.75200000      12.06300000
 H      15.37200000      30.67200000      12.46200000
 H      16.35600000      29.55700000      12.01200000
 O      15.48700000      30.13300000      15.16200000
 H      15.14900000      29.25900000      15.60400000
 H      15.65100000      29.88300000      14.25700000
 O      13.03400000      26.83300000      14.27500000
 H      13.70100000      27.49700000      14.50700000
 H      12.87200000      27.06400000      13.32700000
 O      16.41900000      27.10900000      14.99900000
 H      16.28800000      26.16200000      15.16000000
 H      16.63100000      27.48300000      15.92400000
 O      17.27300000      29.15800000      13.23500000
 H      16.82900000      28.41500000      13.67100000
 H      18.01400000      29.42500000      13.87800000
 O      10.83600000      28.30300000      12.98300000
 H      10.58300000      27.39200000      12.71300000
 H      10.25000000      28.48000000      13.79900000
 O      19.52400000      30.14400000      19.93200000
 H      19.49100000      31.11900000      20.06500000
 H      19.54000000      29.83700000      20.86000000
 O      17.37300000      28.04200000      17.72600000
 H      17.59500000      27.05500000      18.00600000
 H      17.23200000      28.52300000      18.53700000
 O      21.28300000      28.16500000      14.37900000
 H      20.86100000      28.94400000      13.96900000
 H      20.55800000      27.53600000      14.62600000
 O      20.23300000      29.94800000      12.71500000
 H      21.02700000      29.88100000      12.17500000
 H      19.73600000      29.14600000      12.46000000
 O      18.16000000      25.84400000      19.11100000
 H      18.43600000      26.65200000      19.65500000
 H      18.50500000      25.00500000      19.55500000
 O      18.76900000      29.74800000      15.70700000
 H      18.26600000      29.14800000      16.26300000
 H      19.38100000      30.20300000      16.32600000
 O      13.15700000      27.99300000      11.45100000
 H      12.72000000      28.33500000      12.22900000
 H      13.99700000      28.49300000      11.47700000
 O      19.27600000      27.61700000      11.56100000
 H      19.38300000      27.13400000      10.75700000
 H      18.71300000      27.01700000      12.05200000
 O      13.85700000      28.29000000      16.40800000
 H      14.06600000      27.99800000      17.35100000
 H      13.05800000      27.80900000      16.14000000
 O      12.95400000      33.38400000      15.71500000
 H      13.15400000      33.03500000      14.82900000
 H      13.71600000      32.97900000      16.26600000
 O      19.91000000      35.97900000      11.54500000
 H      19.91800000      35.56400000      12.47700000
 H      20.76400000      35.64800000      11.16000000
 O      20.48900000      34.85800000      19.05100000
 H      20.86800000      35.51600000      18.48300000
 H      20.14400000      34.12400000      18.51600000
 O      17.46200000      37.08900000      16.09200000
 H      17.45300000      36.98500000      17.00800000
 H      17.22900000      36.08500000      15.93400000
 O      12.19900000      36.73700000      11.20000000
 H      11.66300000      36.74200000      10.41600000
 H      12.81300000      37.40400000      10.95400000
 O      13.96000000      37.18200000      16.50800000
 H      13.94400000      38.12200000      16.66100000
 H      14.36400000      37.08500000      15.63800000
 O      12.23100000      34.53500000      18.19900000
 H      11.67000000      33.77400000      18.19900000
 H      12.31600000      34.58000000      17.20900000
 O      16.50800000      33.63600000      18.70900000
 H      16.15700000      34.49200000      18.78600000
 H      17.33000000      33.85300000      18.11000000
 O      21.47400000      35.84300000      15.71800000
 H      21.84800000      35.15100000      15.20100000
 H      20.63900000      36.03200000      15.26100000
 O      17.90100000      37.24200000      18.84200000
 H      16.99000000      36.95700000      19.07600000
 H      18.02200000      37.69700000      19.67900000
 O      16.83600000      35.06600000      12.83600000
 H      17.73200000      35.20200000      13.20300000
 H      16.92600000      35.69800000      12.06800000
 O      15.27400000      36.39100000      18.95300000
 H      14.60400000      36.51100000      18.21800000
 H      14.92300000      37.05000000      19.62200000
 O      11.74300000      35.39600000      13.44600000
 H      12.64800000      35.55300000      13.76200000
 H      11.79200000      35.63100000      12.43600000
 O      16.82000000      34.36400000      15.56000000
 H      16.15500000      33.65800000      15.63900000
 H      17.62900000      33.85400000      15.34800000
 O      10.39600000      37.12100000      17.50800000
 H      11.33900000      37.01900000      17.80800000
 H      10.48200000      37.25500000      16.54800000
 O      12.66900000      35.60700000      20.83000000
 H      12.85700000      35.51800000      19.86200000
 H      12.38700000      34.66200000      21.00400000
 O      20.14600000      34.11100000      14.06700000
 H      20.06100000      33.19600000      13.74400000
 H      21.04400000      34.37300000      13.78700000
 O      14.31300000      34.69800000      13.67800000
 H      15.31300000      34.72500000      13.80900000
 H      13.89100000      34.40200000      14.55000000
 O      10.52200000      33.41800000      11.51500000
 H      10.53700000      34.28200000      11.99300000
 H      11.25500000      33.46700000      10.92200000
