157
XYZ file of cluster: frame_2500_23eaf.2610e.63eaf - created by MolEdiTo
 O      13.29200000      14.17500000      19.54800000
 H      12.58000000      14.06000000      18.88200000
 H      13.95800000      14.78100000      19.15500000
 O      11.37500000       7.03400000      17.15400000
 H      12.14200000       7.07900000      17.82600000
 H      11.07200000       6.13300000      17.08300000
 O      11.23200000       8.18500000      23.71800000
 H      10.43900000       8.80000000      24.04700000
 H      11.95700000       8.80500000      23.59000000
 O       8.30600000       6.27000000      23.74400000
 H       8.83800000       5.88100000      24.50200000
 H       8.91500000       6.88500000      23.27700000
 O       9.34800000       8.55300000      15.67800000
 H      10.07000000       7.98100000      16.03100000
 H       9.15600000       9.25600000      16.35500000
 O      13.86800000       7.68100000      18.44900000
 H      14.50800000       6.92700000      18.33400000
 H      14.43300000       8.27900000      17.85800000
 O       4.88700000       9.71700000      26.90300000
 H       4.63100000      10.21100000      26.06300000
 H       5.53800000       9.04700000      26.49500000
 O       9.07200000       9.81200000      23.78500000
 H       8.21700000       9.75400000      23.30300000
 H       9.32200000      10.68100000      23.47200000
 O       7.87200000       6.01400000      19.84700000
 H       8.74500000       5.49100000      19.76500000
 H       8.18800000       6.94100000      19.88200000
 O       8.21300000       8.92500000      19.08700000
 H       7.65600000       9.74900000      19.18600000
 H       8.68400000       9.06000000      19.93200000
 O      12.19100000      12.14300000      26.40600000
 H      11.18700000      12.12000000      26.45400000
 H      12.46500000      11.52100000      25.79400000
 O      11.13900000      14.46700000      21.71600000
 H      12.06800000      14.27500000      21.49300000
 H      10.85400000      15.35600000      21.24900000
 O      10.45000000       5.23400000      19.71000000
 H      10.63500000       6.16500000      19.86900000
 H      10.94800000       4.91500000      20.44600000
 O      14.41200000      15.97400000      22.52200000
 H      13.69400000      16.36700000      23.14100000
 H      14.70800000      15.12500000      23.00500000
 C      16.27500000      14.32700000      16.03900000
 C      15.53800000      15.03200000      14.85000000
 C      15.01300000      17.09700000      16.17100000
 H      16.74000000      16.83400000      15.11100000
 H      16.70500000      12.99700000      14.71700000
 O      15.16800000      17.22900000      13.83000000
 O      16.33600000      14.73400000      17.15800000
 O      16.77300000      13.12200000      15.71700000
 C      15.73100000      16.56700000      14.98100000
 O      16.12900000      14.60800000      13.66300000
 H      14.45900000      14.75100000      14.96300000
 O      13.91100000      16.68900000      16.57400000
 O      15.67100000      17.93100000      16.95700000
 H      16.30600000      18.48100000      16.48900000
 H      15.55000000      14.85100000      12.87500000
 H      15.94900000      17.17900000      13.20600000
 O       9.40200000      11.19600000      16.84300000
 H       8.39700000      11.12200000      16.80700000
 H       9.59200000      11.90500000      17.43800000
 O      10.99000000      14.70300000      25.11600000
 H      10.45100000      14.06000000      25.63500000
 H      11.16900000      14.21900000      24.26400000
 O       6.71900000      10.38400000      16.47000000
 H       6.09400000      10.71000000      15.75100000
 H       6.06800000      10.08300000      17.13200000
 O      11.01200000      11.88300000      19.84100000
 H      11.36900000      10.94100000      19.95600000
 H      11.81500000      12.31500000      19.96900000
 O       8.66500000      13.95600000      19.32200000
 H       9.28700000      13.63600000      19.94500000
 H       8.97300000      14.83900000      19.32300000
 O       9.48000000      12.71600000      26.59100000
 H       9.17600000      12.38000000      27.46800000
 H       8.66400000      12.53500000      26.04000000
 O       8.20200000      11.23800000      20.65200000
 H       9.17800000      11.35800000      20.57200000
 H       7.99100000      12.20000000      20.69200000
 O       7.45400000       6.38600000      16.07500000
 H       8.11300000       7.07900000      15.79300000
 H       7.17600000       6.63900000      16.92900000
 O      12.44000000       9.43600000      19.98200000
 H      12.67600000       8.73500000      19.32600000
 H      13.31000000       9.68700000      20.34500000
 O       6.01600000      15.26800000      17.22300000
 H       6.56500000      16.08100000      17.05800000
 H       6.62500000      14.54900000      17.33000000
 O      14.11300000      14.20500000      26.74300000
 H      13.42300000      13.65300000      27.20100000
 H      14.27200000      13.85800000      25.84500000
 O       7.70600000      13.39800000      24.44200000
 H       7.79200000      14.25400000      23.94400000
 H       7.52800000      12.79400000      23.69000000
 O      11.53200000      14.85800000      17.42700000
 H      11.98800000      15.32500000      16.75200000
 H      10.70100000      14.44500000      17.06600000
 O       8.60800000       8.44100000      26.57800000
 H       8.34600000       9.37900000      26.84300000
 H       8.04400000       8.45600000      25.74000000
 O      13.53400000      10.23500000      24.25200000
 H      13.89000000      10.07900000      23.34100000
 H      13.58700000       9.40500000      24.79600000
 O       6.72100000      10.97600000      22.81900000
 H       7.19200000      11.08500000      21.98000000
 H       6.01000000      10.31400000      22.76500000
 O       5.98600000      15.08000000      26.50200000
 H       5.11900000      14.66300000      26.34300000
 H       6.53500000      14.45600000      25.93800000
 O      10.22300000       7.92000000      20.89600000
 H      10.97600000       8.17300000      20.28600000
 H      10.40100000       8.26800000      21.77900000
 O      14.40000000       6.68500000      21.52500000
 H      15.29600000       6.71500000      21.10200000
 H      13.82700000       6.26100000      20.83600000
 O       6.96300000      14.02100000      21.75200000
 H       7.33000000      14.91700000      21.86600000
 H       6.00900000      14.27000000      21.61400000
 O      12.47300000       5.38000000      24.92600000
 H      12.55000000       6.08900000      24.21600000
 H      11.82600000       5.88300000      25.49400000
 O      15.63400000       9.14900000      16.83300000
 H      14.82000000       9.47400000      16.35200000
 H      16.32800000       9.06900000      16.13400000
 O      14.78600000      10.78300000      19.43400000
 H      14.18500000      10.92500000      18.60100000
 H      15.78700000      10.80300000      19.14700000
 O      10.53700000      11.82800000      22.83300000
 H      10.33700000      12.61700000      22.31900000
 H      11.36000000      11.50000000      22.37100000
 O       5.92000000       5.37800000      21.76800000
 H       6.52900000       5.40700000      20.99200000
 H       6.21900000       6.18500000      22.16300000
 O       5.88200000      12.61800000      18.83000000
 H       5.36800000      13.25800000      18.24300000
 H       6.73400000      13.14100000      18.99200000
 O       6.10400000       7.42200000      25.45000000
 H       6.39200000       7.16900000      26.33500000
 H       6.50700000       6.66600000      24.79900000
 O      12.92600000      10.78800000      16.87500000
 H      12.87100000      11.36400000      16.04000000
 H      12.00700000      10.72800000      17.22800000
 O      14.57100000      13.38800000      24.00500000
 H      14.12100000      12.81500000      23.35100000
 H      15.24200000      12.74600000      24.35500000
 O       9.12000000      14.38500000      15.86100000
 H       8.70400000      15.19800000      15.95700000
 H       8.63400000      13.85900000      15.18600000
 O      15.16600000       9.47900000      22.29100000
 H      16.10500000       9.31400000      21.98500000
 H      14.70000000       8.64000000      22.00500000
 O       5.45200000       6.78500000      18.94000000
 H       6.05600000       6.03400000      19.11000000
 H       6.04300000       7.51300000      19.17800000
 O      13.64200000      12.36100000      21.67900000
 H      14.07100000      13.19400000      21.27000000
 H      13.87400000      11.68200000      21.00900000
