108
XYZ file of cluster: frame_2500_4e084.cb0de.c479a - created by MolEdiTo
 O      15.30600000      26.58100000      28.72300000
 H      16.22100000      26.21800000      28.80600000
 H      14.69300000      26.28000000      29.45900000
 O      15.45100000      28.98900000      30.43600000
 H      14.81100000      29.43200000      29.84400000
 H      15.42500000      28.04800000      30.02300000
 O      11.97700000      30.22600000      26.23300000
 H      11.62100000      30.65500000      25.40200000
 H      12.78900000      29.91900000      25.89700000
 O      20.59100000      27.70800000      26.89100000
 H      20.42800000      28.21000000      26.07600000
 H      21.54500000      27.60000000      26.78200000
 O      19.01700000      27.24600000      29.91400000
 H      19.63200000      27.29700000      29.12600000
 H      19.39300000      27.71000000      30.65400000
 O      16.40600000      29.95900000      27.52800000
 H      17.14600000      29.35100000      27.30700000
 H      15.65000000      29.47300000      27.05100000
 O      12.68800000      29.75600000      29.10800000
 H      12.98400000      30.48500000      29.75500000
 H      11.78500000      30.12200000      28.82400000
 O      14.20100000      28.40500000      27.01000000
 H      14.53300000      27.67000000      27.62700000
 H      13.52000000      28.75700000      27.60700000
 O      19.64800000      30.69000000      28.81700000
 H      19.52500000      29.82600000      28.50600000
 H      18.92600000      30.76000000      29.41400000
 O      17.52200000      27.14200000      25.93300000
 H      18.19900000      27.10300000      26.58300000
 H      17.72400000      27.98800000      25.31700000
 O      19.14100000      26.32000000      34.31200000
 H      19.77200000      27.05600000      33.94100000
 H      18.28600000      26.74500000      34.11900000
 O      21.18300000      27.61900000      36.56300000
 H      21.36000000      27.46800000      37.53100000
 H      20.28000000      27.35300000      36.46700000
 O      10.26000000      30.57400000      35.80300000
 H      10.83600000      31.12300000      35.28500000
 H      10.68900000      30.78600000      36.62900000
 O      20.49700000      28.44900000      33.57800000
 H      21.03600000      28.45000000      34.40700000
 H      20.56600000      29.30700000      33.08100000
 O      18.52200000      30.72900000      35.77300000
 H      19.50100000      30.78400000      35.93800000
 H      18.30900000      30.44100000      36.70200000
 O      16.95300000      27.48000000      33.83300000
 H      16.14600000      27.55400000      34.29300000
 H      16.81900000      28.02400000      33.13100000
 O      11.90600000      27.52800000      36.55500000
 H      11.44400000      28.14000000      37.20600000
 H      12.80800000      27.88900000      36.55500000
 O      14.46200000      27.82700000      34.95000000
 H      14.48000000      28.66500000      35.48600000
 H      13.62200000      27.90500000      34.43100000
 O      18.01800000      30.49200000      32.40300000
 H      18.05600000      31.35200000      32.88200000
 H      17.11800000      30.22300000      32.38100000
 O      12.26100000      28.50000000      33.25400000
 H      11.35200000      28.62000000      33.53400000
 H      12.13400000      28.68900000      32.29700000
 O      13.90900000      34.75100000      25.70300000
 H      13.39600000      35.49300000      25.32700000
 H      13.40700000      34.56700000      26.54900000
 O      16.01900000      33.74600000      28.85600000
 H      15.39800000      33.42500000      29.50700000
 H      16.11300000      32.99800000      28.30200000
 O      18.73700000      36.21400000      30.01300000
 H      19.51400000      36.31200000      30.61400000
 H      18.12900000      35.61200000      30.58300000
 O      20.98700000      34.64600000      28.67300000
 H      20.20400000      34.72500000      28.09400000
 H      20.87200000      33.76900000      29.07400000
 O      10.70400000      33.64100000      28.06600000
 H      11.59400000      34.09900000      28.15300000
 H      10.90300000      33.09600000      27.25900000
 O      14.68600000      37.47700000      27.00500000
 H      14.78600000      36.64300000      26.46800000
 H      15.55600000      37.50200000      27.42800000
 O      16.61400000      33.97700000      26.06600000
 H      15.79100000      34.33800000      25.85400000
 H      16.38300000      33.69800000      26.98000000
 O      12.94900000      35.29200000      28.34100000
 H      13.47600000      35.62100000      29.12000000
 H      12.71700000      36.07400000      27.81000000
 O      20.41700000      36.81600000      33.78800000
 H      19.84100000      36.14200000      34.16400000
 H      21.19500000      36.82800000      34.41200000
 O      10.39000000      34.58900000      34.66300000
 H      10.06100000      34.79400000      35.61900000
 H      10.76200000      35.41200000      34.35700000
 O      15.50500000      33.18800000      34.58800000
 H      15.70500000      34.05700000      34.15000000
 H      16.25000000      32.92900000      35.08600000
 O      12.69600000      33.07700000      36.61300000
 H      13.20000000      33.04400000      35.72900000
 H      13.19500000      32.42100000      37.09900000
 O      16.07100000      35.41600000      33.31400000
 H      15.36000000      35.88200000      32.72100000
 H      16.50600000      36.14900000      33.72600000
 O      15.42700000      35.90800000      36.76300000
 H      14.85800000      36.55800000      36.26300000
 H      16.19100000      36.47400000      37.03000000
 O      13.75200000      33.18400000      32.24900000
 H      13.88100000      33.04600000      33.25100000
 H      13.10100000      33.80600000      32.33800000
 O      18.59300000      35.04500000      35.28200000
 H      17.81700000      35.51100000      35.70400000
 H      18.74300000      34.16700000      35.69800000
