132
XYZ file of cluster: frame_2500_4bdc5.23c60.5ba3 - created by MolEdiTo
 O      10.74800000       5.77600000       5.04800000
 H      10.91100000       6.73800000       4.96900000
 H      10.90200000       5.52800000       4.11500000
 O      17.58300000       7.85100000       9.41900000
 H      18.27400000       7.14000000       9.41100000
 H      16.77600000       7.33200000       9.38700000
 O      16.41900000       6.84300000       2.15200000
 H      16.48200000       7.17100000       1.21400000
 H      16.45600000       7.65500000       2.79800000
 O      20.21700000      15.06200000       2.11900000
 H      19.84700000      14.75200000       1.18400000
 H      20.91200000      15.79500000       1.90500000
 O      13.22200000      15.08000000       5.80000000
 H      12.94600000      15.97800000       5.60200000
 H      13.98100000      15.00800000       5.15600000
 O      15.90300000      10.18700000       8.60900000
 H      15.49700000      10.38600000       7.77000000
 H      16.40800000       9.33600000       8.50300000
 O      12.00300000      10.12800000       1.42500000
 H      11.09900000      10.12500000       1.78100000
 H      12.13600000      10.86100000       0.73800000
 O      13.11800000       9.12600000       4.42700000
 H      12.89200000       8.73500000       5.25500000
 H      13.24300000      10.09000000       4.43800000
 O      13.02200000      13.35400000       2.59600000
 H      13.46900000      12.74600000       1.95300000
 H      13.31100000      14.28200000       2.45300000
 O      19.23300000       9.36300000       5.49300000
 H      18.39500000       8.88800000       5.05500000
 H      18.85200000      10.22000000       5.67000000
 O      20.41700000       5.29300000       2.32900000
 H      19.84100000       4.61900000       2.70500000
 H      21.19500000       5.30500000       2.95300000
 O      15.64900000      14.73100000       3.96400000
 H      15.83700000      14.20400000       3.25200000
 H      16.58400000      15.07200000       4.09300000
 O      19.88000000      11.97200000      10.23200000
 H      18.93300000      11.85500000      10.33000000
 H      20.15900000      12.49700000      11.03500000
 O      11.44100000       5.33700000       2.45100000
 H      12.38800000       5.62100000       2.42900000
 H      11.24100000       5.60200000       1.50000000
 O      20.71800000      13.04200000       7.87800000
 H      20.61100000      12.84000000       8.85500000
 H      19.80100000      12.92400000       7.49900000
 O      18.09900000      12.18800000       6.05600000
 H      17.55100000      12.87500000       6.53500000
 H      18.61100000      12.59600000       5.29700000
 O      17.17100000      12.30300000       9.95700000
 H      16.92100000      12.61200000       9.04600000
 H      16.78300000      11.39500000       9.91500000
 O      16.55600000       8.90500000       4.40600000
 H      16.03700000       8.55200000       5.20400000
 H      16.33300000       9.88300000       4.49300000
 O      10.68900000      11.35100000       4.64600000
 H      10.78500000      10.79200000       3.82400000
 H       9.83500000      11.78400000       4.45800000
 O      10.87500000       5.89300000       8.15900000
 H      11.56200000       5.81000000       7.47700000
 H      11.06400000       5.04300000       8.72700000
 O      19.74100000       8.24100000       0.94600000
 H      19.96400000       9.15300000       1.21200000
 H      20.10500000       7.72500000       1.70400000
 O      20.01400000      13.99000000       4.71700000
 H      20.25500000      14.74400000       4.20500000
 H      20.05900000      14.27600000       5.60300000
 O      19.47900000      15.29000000       9.39700000
 H      19.19600000      14.55800000       9.98800000
 H      19.13900000      14.90300000       8.58700000
 O      15.00700000      13.39700000       7.39500000
 H      14.30100000      12.74200000       7.71200000
 H      14.49700000      13.82200000       6.74100000
 O      21.79900000      10.13500000       6.77800000
 H      21.57800000      10.91500000       7.38000000
 H      20.87100000       9.94400000       6.42400000
 O      21.75200000       9.19300000       4.11400000
 H      22.28900000       8.58600000       4.59800000
 H      20.88300000       9.27500000       4.64800000
 O      10.45300000      13.12600000       1.91400000
 H      10.32900000      14.03600000       2.34500000
 H      11.32700000      12.93900000       2.29800000
 O      16.11400000      11.51900000       3.99300000
 H      15.48000000      12.15400000       3.68600000
 H      16.36600000      11.92500000       4.80900000
 O      16.20600000      14.81900000       1.04800000
 H      16.11200000      13.84600000       1.04600000
 H      15.33200000      15.12300000       1.43100000
 O      12.72300000      12.55600000       8.57700000
 H      12.68600000      12.15300000       9.49400000
 H      11.88700000      12.43100000       8.11900000
 O      17.81700000       6.23500000       5.96400000
 H      18.25600000       6.94000000       5.48600000
 H      18.53800000       5.60400000       6.27200000
 O      14.12500000       6.40200000       3.99300000
 H      14.86800000       6.37400000       3.37900000
 H      13.86700000       7.35900000       3.99300000
 O      13.16100000       5.57400000       6.68400000
 H      12.97500000       5.88300000       5.69800000
 H      13.45800000       4.71100000       6.38800000
 O      15.25300000       7.73700000       6.57100000
 H      14.26400000       7.78800000       6.69200000
 H      15.43400000       6.90700000       7.02800000
 O      19.54200000       5.81000000       9.36900000
 H      19.44100000       5.29300000      10.22800000
 H      19.74000000       5.18200000       8.60500000
 O      16.15400000      12.12600000       0.97300000
 H      17.08900000      11.79800000       0.84500000
 H      15.62300000      11.32300000       0.98400000
 O      19.90300000       9.28200000       9.10900000
 H      19.02900000       8.81600000       9.24400000
 H      19.66800000      10.20800000       8.82900000
 O      13.99100000       6.46800000       9.33600000
 H      13.65200000       5.86500000      10.05700000
 H      13.69100000       6.03100000       8.47600000
 O      10.60900000      15.54200000       3.08800000
 H      11.17300000      15.90100000       3.79600000
 H       9.78100000      16.10800000       3.05000000
 O      11.01400000      13.53900000       6.38400000
 H      10.98700000      12.90000000       5.62300000
 H      11.74500000      14.19100000       6.16900000
 O      13.98200000      15.22300000       8.84300000
 H      13.89000000      14.28000000       8.96400000
 H      14.38900000      15.12300000       7.98500000
 O      15.68500000      14.85300000      11.04600000
 H      15.74000000      13.86900000      11.03100000
 H      15.02400000      15.05800000      10.33500000
 O      17.67000000      14.95100000       6.47000000
 H      17.81800000      15.75800000       5.92000000
 H      16.78700000      15.18300000       6.83000000
 O      12.11800000       8.37400000       6.99000000
 H      11.30800000       9.03400000       7.06700000
 H      11.76700000       7.56500000       7.43700000
