141
XYZ file of cluster: frame_2500_1f3fa.a10dd.72289 - created by MolEdiTo
 O       5.45700000      24.95700000      22.67200000
 H       5.94300000      25.13200000      23.55900000
 H       5.85400000      25.60900000      22.11900000
 O      10.77200000      30.33200000      21.70300000
 H      10.75700000      31.25200000      22.01000000
 H      10.19700000      29.78100000      22.21100000
 O       6.57200000      26.45900000      24.70200000
 H       7.01400000      26.56900000      25.58000000
 H       5.80500000      27.15300000      24.68500000
 O      14.75800000      25.71000000      25.25500000
 H      15.64100000      26.05700000      25.22000000
 H      14.36400000      26.58100000      25.47200000
 O      12.22900000      27.53700000      24.51300000
 H      11.97600000      27.89600000      25.38900000
 H      11.36200000      27.31300000      24.09600000
 O      13.36400000      24.05200000      16.59000000
 H      12.56500000      23.91500000      17.12500000
 H      13.69400000      23.22700000      16.33000000
 O       8.88600000      27.55700000      26.02700000
 H       9.44200000      27.87000000      26.74200000
 H       9.32500000      26.70100000      25.91900000
 O       4.35600000      29.85100000      20.05600000
 H       5.33100000      29.53700000      20.11800000
 H       4.02900000      28.97800000      19.69900000
 O       8.55200000      25.02100000      22.29300000
 H       9.18400000      25.11500000      23.07000000
 H       8.39400000      23.99800000      22.28500000
 O      12.32300000      29.50900000      17.48400000
 H      12.54500000      29.52100000      16.55100000
 H      11.83400000      28.66900000      17.68000000
 O      11.22200000      26.69500000      15.85000000
 H      10.90000000      26.23200000      15.01000000
 H      10.53900000      27.41000000      15.92000000
 O      12.15500000      26.46600000      20.53900000
 H      11.98600000      25.77400000      21.28000000
 H      12.73400000      27.21000000      20.95100000
 O      13.61200000      22.75600000      23.49100000
 H      13.32500000      21.80400000      23.33600000
 H      14.17400000      22.74000000      24.36800000
 O      12.00800000      22.57100000      19.06600000
 H      11.79100000      21.67100000      19.34300000
 H      12.30100000      23.07300000      19.88500000
 O       9.07000000      28.27200000      23.06000000
 H       9.48300000      27.37000000      23.16700000
 H       8.25300000      27.93200000      23.41000000
 O      11.97700000      30.22600000      26.23300000
 H      11.62100000      30.65500000      25.40200000
 H      12.78900000      29.91900000      25.89700000
 O       7.54900000      25.49200000      19.84900000
 H       7.81000000      25.37500000      20.83300000
 H       7.69600000      24.63100000      19.48100000
 O       5.74000000      28.51600000      22.34000000
 H       4.77200000      28.23600000      22.26500000
 H       5.77700000      29.38100000      22.80900000
 O      10.44300000      25.20100000      24.30700000
 H      11.15500000      24.59100000      24.05700000
 H      10.40600000      25.06900000      25.29500000
 O       9.99000000      27.31400000      18.62100000
 H      10.33400000      26.49300000      18.25000000
 H      10.21100000      27.27600000      19.50900000
 O       7.34500000      28.38200000      20.14600000
 H       6.75700000      28.34800000      20.96300000
 H       7.65900000      27.43300000      19.98600000
 O       5.84000000      21.55700000      25.77100000
 H       5.86500000      22.51100000      25.98600000
 H       5.91000000      21.03700000      26.57700000
 O      14.88500000      22.43700000      19.71700000
 H      13.94400000      22.30100000      19.49300000
 H      15.33700000      22.90700000      19.01400000
 O      12.53900000      21.02700000      25.92800000
 H      12.98000000      21.87400000      25.79200000
 H      12.76100000      20.79500000      26.84500000
 O      16.08700000      24.71900000      18.19900000
 H      16.45400000      25.57500000      18.59800000
 H      15.23400000      25.01100000      17.93000000
 O       8.41300000      23.00400000      26.19300000
 H       8.34800000      22.11900000      26.56800000
 H       8.87100000      22.74100000      25.42500000
 O       9.66900000      29.99100000      19.27500000
 H       9.41900000      29.06200000      19.15400000
 H      10.13600000      29.92300000      20.19000000
 O      13.90800000      26.72600000      18.16100000
 H      13.15000000      26.62000000      18.83700000
 H      13.73100000      26.19500000      17.44200000
 O      15.91600000      23.97900000      21.75600000
 H      15.68900000      23.45100000      21.01100000
 H      15.74700000      23.33100000      22.43800000
 O      14.05900000      28.43200000      20.96600000
 H      13.81300000      28.89400000      20.12300000
 H      14.83400000      27.84700000      20.73000000
 O      16.03300000      28.74900000      18.53200000
 H      16.51600000      28.07300000      19.07100000
 H      15.40700000      28.12000000      18.00500000
 O       9.81400000      23.50900000      17.46300000
 H       8.87200000      23.44600000      17.75200000
 H      10.31500000      23.22100000      18.27100000
 O       6.88300000      30.24400000      18.24100000
 H       6.99900000      29.50500000      18.92300000
 H       7.72000000      30.61900000      17.93400000
 O       5.02400000      21.33900000      23.23400000
 H       4.08800000      21.14700000      23.22700000
 H       5.46000000      21.14200000      24.11800000
 O       9.95800000      21.76000000      21.31400000
 H       9.67900000      20.91100000      20.97000000
 H      10.32600000      21.39100000      22.16000000
 O      11.07300000      22.95500000      14.95300000
 H      10.81700000      23.41100000      15.88500000
 H      11.86200000      22.45600000      15.16900000
 O       5.62500000      23.30700000      19.83500000
 H       5.70600000      23.80800000      20.64800000
 H       6.00300000      22.34700000      19.89500000
 O      14.61600000      22.86700000      26.08400000
 H      14.41800000      23.74300000      25.64900000
 H      14.49200000      23.18100000      27.03800000
 O      16.34800000      29.95300000      24.73800000
 H      16.29800000      30.77500000      25.32400000
 H      15.41000000      29.75000000      24.54500000
 O       6.91600000      29.27500000      25.63900000
 H       7.42500000      29.93500000      25.16900000
 H       7.57900000      28.61100000      25.72900000
 O       9.61700000      29.13100000      15.55800000
 H       9.62400000      29.59400000      14.71000000
 H       9.34900000      29.85600000      16.17800000
 O       7.19700000      23.25700000      17.46700000
 H       7.10400000      22.26300000      17.69200000
 H       6.26100000      23.52800000      17.24100000
 O       4.97600000      26.94800000      18.73600000
 H       5.19200000      26.06500000      18.88700000
 H       5.74900000      27.46100000      19.08500000
 O      13.45600000      29.82600000      23.41200000
 H      13.03400000      29.05100000      23.81400000
 H      13.45100000      29.61700000      22.45400000
 O       7.79000000      26.19300000      15.87600000
 H       7.35400000      25.57800000      16.54200000
 H       8.34800000      26.73600000      16.49200000
 O      12.02200000      24.02500000      21.60000000
 H      12.85600000      23.74800000      22.09900000
 H      11.41300000      23.26700000      21.60100000
 O       7.15400000      22.66000000      22.30500000
 H       6.28100000      23.12100000      22.49800000
 H       7.09500000      21.77900000      22.77600000
