120
XYZ file of cluster: frame_2500_99e29.2045d.c6afd - created by MolEdiTo
 O      22.29100000      12.42800000      26.46600000
 H      22.27300000      13.00200000      25.70300000
 H      23.23300000      12.47000000      26.77300000
 O      30.50100000       5.39800000      26.58200000
 H      31.34800000       5.75000000      26.56100000
 H      30.49800000       4.41400000      26.88100000
 O      28.09900000      11.21100000      30.38400000
 H      28.11600000      11.76000000      31.16600000
 H      28.96700000      10.67800000      30.27300000
 O      28.54500000      10.43500000      26.30800000
 H      28.37200000      10.03300000      27.18900000
 H      28.43800000       9.70700000      25.60200000
 O      22.63700000       5.10000000      30.41200000
 H      22.13700000       5.86600000      30.69000000
 H      22.23800000       4.82000000      29.60800000
 O      27.46800000       4.90900000      29.61100000
 H      27.06000000       5.66500000      29.15700000
 H      27.26600000       4.16700000      29.00900000
 O      22.50700000      14.34100000      30.02200000
 H      21.59500000      14.12000000      29.59900000
 H      22.46800000      14.28300000      30.99900000
 O      27.76500000       9.22600000      28.51600000
 H      27.40500000       9.93400000      29.09700000
 H      28.60200000       8.73500000      28.81800000
 O      24.96500000       6.03600000      28.82600000
 H      24.63100000       6.93300000      29.09700000
 H      24.12800000       5.57100000      28.79300000
 O      26.11100000      13.11900000      29.58500000
 H      25.46500000      12.89500000      30.31500000
 H      26.73200000      12.38700000      29.71200000
 O      23.39100000       8.26000000      28.59800000
 H      23.26000000       8.95000000      29.29900000
 H      23.41600000       8.68200000      27.66900000
 O      28.70500000      13.07700000      27.58500000
 H      28.08900000      13.51700000      26.91000000
 H      29.07500000      12.20900000      27.16400000
 O      29.68900000       6.97500000      28.91500000
 H      29.48500000       6.34300000      28.15300000
 H      30.53300000       7.35700000      28.60600000
 O      24.90700000       6.33500000      25.70900000
 H      25.16200000       5.40200000      25.66900000
 H      24.94000000       6.51400000      26.72600000
 O      24.73000000      11.05200000      28.07200000
 H      24.51000000      10.49000000      28.85300000
 H      25.46300000      11.46600000      28.40700000
 O      24.13500000      14.43600000      27.71500000
 H      23.71000000      14.10900000      28.54600000
 H      25.08000000      14.12800000      27.83600000
 O      28.31500000      15.55200000      29.20900000
 H      27.33500000      15.46000000      29.26100000
 H      28.50700000      14.63500000      28.84300000
 O      21.13500000      10.70800000      28.26600000
 H      20.83900000       9.88600000      27.84100000
 H      21.58000000      11.29400000      27.59400000
 O      22.74100000      10.37800000      30.51300000
 H      22.39700000      11.00200000      31.19400000
 H      22.17800000      10.51100000      29.67300000
 O      26.59700000       8.69600000      34.18000000
 H      27.39900000       8.89700000      33.71200000
 H      26.08100000       9.53800000      33.91500000
 O      28.16800000      12.21600000      35.60400000
 H      27.80800000      12.80300000      34.93800000
 H      27.57500000      12.15700000      36.39600000
 O      29.47500000       9.41300000      33.48800000
 H      29.19100000       8.47900000      33.30700000
 H      29.94600000       9.58500000      32.64900000
 O      28.50500000       6.69600000      33.25300000
 H      27.59100000       6.85600000      33.65800000
 H      28.36400000       6.34900000      32.34700000
 O      23.52400000      11.58800000      36.16400000
 H      23.42200000      12.53900000      36.39300000
 H      22.99600000      11.10700000      36.87300000
 O      30.32900000      10.57800000      35.74400000
 H      30.45900000      10.27800000      34.80400000
 H      29.48600000      11.04000000      35.64200000
 O      20.41700000       5.29300000      33.78800000
 H      19.84100000       4.61900000      34.16400000
 H      21.19500000       5.30500000      34.41200000
 O      28.89300000      15.56200000      34.70600000
 H      27.93100000      15.76300000      34.92400000
 H      29.14500000      16.23300000      33.97800000
 O      23.54700000       4.98000000      36.21200000
 H      24.15500000       5.70200000      36.10900000
 H      23.42400000       4.72800000      37.18900000
 O      29.85800000      13.39300000      33.21100000
 H      29.60700000      14.06200000      33.95400000
 H      30.60500000      13.79100000      32.79600000
 O      25.48200000      11.03200000      34.21900000
 H      24.66600000      11.04300000      34.77200000
 H      26.00900000      11.78700000      34.67400000
 O      24.75600000       8.57400000      36.10900000
 H      24.35400000       9.48600000      35.89000000
 H      25.62200000       8.55300000      35.58900000
 O      26.36200000      13.69900000      33.92700000
 H      26.67000000      14.21600000      33.16500000
 H      25.46200000      14.08400000      34.13800000
 O      25.41000000       5.92000000      33.78100000
 H      25.46500000       6.86300000      34.11400000
 H      24.66700000       6.04800000      33.11900000
 O      21.75200000       9.19300000      35.57300000
 H      22.28900000       8.58600000      36.05700000
 H      20.88300000       9.27500000      36.10700000
 O      27.85700000       6.05800000      36.32100000
 H      27.05400000       6.32100000      36.81900000
 H      28.27400000       6.93400000      36.11600000
 O      25.39200000      16.00700000      32.04400000
 H      24.81800000      16.58300000      32.66700000
 H      24.88500000      15.32900000      31.51200000
 O      21.89500000      12.59100000      33.76300000
 H      22.35500000      12.52600000      34.56300000
 H      21.02500000      12.83100000      33.98900000
 O      23.09100000       7.89800000      33.05600000
 H      23.20900000       7.98800000      33.98600000
 H      22.89700000       8.79500000      32.67100000
 O      23.38900000      14.35700000      35.90400000
 H      23.67900000      14.29300000      36.87500000
 H      23.05000000      15.30000000      35.81900000
 O      30.35900000       5.01700000      34.51400000
 H      31.03200000       4.52800000      33.94900000
 H      29.85300000       5.59800000      33.99400000
