102
XYZ file of cluster: frame_2500_c87b9.37e3.4dc0e - created by MolEdiTo
 O      29.89000000       7.56400000      15.46600000
 H      28.95300000       7.44000000      15.18100000
 H      30.29900000       7.11200000      14.77400000
 O      28.46600000       6.53000000      19.91800000
 H      28.60100000       6.13000000      20.81300000
 H      29.35200000       6.20900000      19.51400000
 O      27.31100000       6.53700000      14.49400000
 H      27.90800000       7.03200000      13.82600000
 H      27.50200000       5.54600000      14.38600000
 O      27.07900000       2.69600000      20.82700000
 H      27.87400000       2.66300000      20.29300000
 H      26.71900000       3.58000000      20.63900000
 O      26.85000000       9.08700000      15.27100000
 H      26.71400000       8.13100000      15.09400000
 H      26.76700000       8.84900000      16.26400000
 O      29.14400000       2.09400000      19.17200000
 H      28.67800000       1.20500000      19.12900000
 H      30.08500000       1.85200000      19.38400000
 O      27.89700000       5.78700000      11.02300000
 H      27.84800000       6.66200000      11.47100000
 H      28.55400000       5.91300000      10.26000000
 O      27.59500000       9.54000000      18.56100000
 H      28.32200000       9.68400000      19.18500000
 H      27.74700000       8.59300000      18.40600000
 O      30.47300000       5.69300000      12.93900000
 H      30.72500000       5.07400000      12.21500000
 H      29.85400000       5.10400000      13.53300000
 O      27.07100000       6.64000000      17.43100000
 H      27.15400000       6.70100000      18.44300000
 H      27.68800000       5.92400000      17.20300000
 O      30.19400000       6.20900000      17.81800000
 H      30.06600000       6.82900000      17.04800000
 H      31.20900000       6.42200000      18.02100000
 O      28.72200000       2.84800000      11.46400000
 H      29.48900000       2.99900000      10.93500000
 H      28.16100000       3.67000000      11.27100000
 O      28.74600000       4.14800000      14.18100000
 H      29.34400000       3.68700000      14.86500000
 H      28.56700000       3.31600000      13.60000000
 O      28.76700000       7.91400000      12.25200000
 H      29.75400000       7.97800000      12.20200000
 H      28.41900000       8.73100000      11.90000000
 O      29.41900000      10.44700000      20.91500000
 H      30.40200000      10.24400000      20.78300000
 H      29.28800000      11.41300000      20.71800000
 O      28.79800000       3.84700000      17.06500000
 H      29.37800000       4.64300000      17.41200000
 H      28.85600000       3.24100000      17.86200000
 O      26.03700000       4.64200000      15.99700000
 H      25.84900000       5.62500000      15.94700000
 H      26.99500000       4.60500000      15.93300000
 O      36.01000000      11.08000000      14.89100000
 H      35.38100000      10.44300000      14.52700000
 H      35.43000000      11.83900000      14.83900000
 O      34.33800000       6.46700000      19.16000000
 H      35.16100000       6.87800000      18.79200000
 H      34.64800000       6.24600000      20.03300000
 O      33.14300000       8.69300000      21.17200000
 H      33.82900000       8.38000000      20.65500000
 H      32.75700000       7.92000000      21.63800000
 O      32.61900000       9.27600000      11.65700000
 H      33.23500000       9.66900000      11.07800000
 H      33.25100000       8.57700000      12.10100000
 O      36.42200000       7.65200000      14.26900000
 H      37.24900000       7.15500000      14.48500000
 H      35.84500000       7.79200000      15.08100000
 O      34.07800000       1.68100000      13.71700000
 H      33.71700000       0.79500000      13.56100000
 H      33.89200000       2.18400000      12.90700000
 O      34.33000000       8.45400000      16.01600000
 H      34.20400000       7.47600000      15.70300000
 H      33.37800000       9.04800000      15.98200000
 O      36.59300000       9.96300000      10.01900000
 H      36.39300000      10.89600000      10.36300000
 H      36.65700000       9.47900000      10.82700000
 O      33.40700000       3.41300000      15.91000000
 H      33.00300000       2.67700000      16.29400000
 H      33.66900000       2.88600000      15.12200000
 O      33.82800000       3.69000000      18.57200000
 H      34.03400000       4.59300000      18.96600000
 H      34.08100000       3.87100000      17.63100000
 O      33.21700000       3.61400000      11.10500000
 H      33.46700000       4.44700000      10.71200000
 H      33.14900000       3.09300000      10.30200000
 O      34.33500000       5.71800000      15.14300000
 H      34.12300000       5.74600000      14.23600000
 H      33.97600000       4.82200000      15.48900000
 O      34.44600000       7.46400000      12.46000000
 H      35.34900000       7.50800000      12.86400000
 H      34.39500000       6.51100000      12.11300000
 O      37.50000000       3.15500000      18.41000000
 H      36.69300000       3.66200000      18.52500000
 H      37.12400000       2.21400000      18.36300000
 O      33.31700000       1.52000000      20.03500000
 H      34.09500000       1.03900000      20.11700000
 H      33.42300000       2.34000000      19.51400000
 O      36.50500000       0.75700000      16.31500000
 H      36.87800000       1.66300000      16.01800000
 H      37.21800000       0.45100000      16.91500000
 O      35.82500000       3.75800000      12.50700000
 H      36.04100000       3.12500000      13.14600000
 H      35.58200000       3.31200000      11.69900000
