45
XYZ file of cluster: frame_1000_71feb.44820.ca24 - created by MolEdiTo
 O      14.28600000      11.15900000       4.46400000
 H      14.16600000      10.85800000       5.41900000
 H      14.73600000      10.38800000       4.04200000
 O      17.60800000       9.71400000       6.66000000
 H      16.68800000       9.52000000       6.76200000
 H      17.51300000      10.43600000       6.02900000
 O      11.69100000      12.10400000       3.37800000
 H      11.11800000      11.25300000       3.24300000
 H      12.57200000      11.75400000       3.64300000
 O      10.62700000      13.80200000       1.11700000
 H       9.95200000      13.03800000       1.16700000
 H      10.94600000      13.92700000       2.07600000
 O      18.32900000      13.71500000       6.36200000
 H      18.21800000      13.27600000       7.25700000
 H      17.50000000      13.37800000       5.90300000
 O      13.92600000      11.63500000       1.46400000
 H      13.45900000      12.23200000       2.08800000
 H      13.73200000      10.78200000       1.85300000
 O      17.15700000       7.47800000       2.61200000
 H      16.41400000       7.29500000       2.00900000
 H      17.27900000       6.69500000       3.14100000
 O      12.12200000       9.38100000       6.04000000
 H      11.44000000       8.65400000       6.07600000
 H      11.61900000      10.07200000       6.46700000
 O      10.61200000      13.76900000       5.47700000
 H      11.28700000      13.22000000       5.10900000
 H      10.54500000      14.44900000       4.77400000
 O      16.48700000      10.09000000       2.36600000
 H      16.94600000       9.22900000       2.38300000
 H      16.31900000      10.22000000       1.38500000
 O      14.99100000       8.71900000       6.08000000
 H      14.96100000       8.15600000       6.91800000
 H      14.07100000       8.62900000       5.86100000
 O      12.84500000       6.90200000       4.11600000
 H      11.99200000       7.18200000       4.56700000
 H      13.00900000       5.96600000       4.41600000
 O      15.87400000      13.53200000       4.67600000
 H      15.27400000      12.85700000       5.11200000
 H      15.94300000      13.16300000       3.80600000
 O      16.56100000      12.65500000       1.07900000
 H      15.69300000      12.54000000       1.47000000
 H      17.13800000      13.30700000       1.64300000
 O      13.34500000       8.99300000       2.09500000
 H      13.22200000       8.43600000       1.29200000
 H      13.32600000       8.27000000       2.77000000
