30
XYZ file of cluster: frame_1000_955e.a293a.20fed - created by MolEdiTo
 O       4.22000000      18.98100000       8.99700000
 H       4.22300000      18.90500000       7.99300000
 H       3.31200000      18.66700000       9.20400000
 O       5.53500000      15.68100000       3.42400000
 H       4.91600000      16.23900000       3.90000000
 H       5.42400000      14.76400000       3.81200000
 O       4.82800000      16.95600000      10.82300000
 H       4.43200000      17.35800000      11.62800000
 H       4.67000000      17.58200000      10.10200000
 O       4.70100000      17.62500000       6.15400000
 H       4.76600000      18.32900000       5.48000000
 H       4.05600000      17.04100000       5.78700000
 O       6.69900000      17.16500000       7.95900000
 H       6.25500000      17.67100000       7.27500000
 H       6.02000000      17.41600000       8.64700000
 O       1.75000000      17.77500000       9.62000000
 H       1.68900000      16.80700000       9.62000000
 H       0.81500000      18.06800000       9.38900000
 O       6.01500000      18.77800000       3.48700000
 H       5.34500000      18.63900000       2.81800000
 H       5.58400000      19.58300000       3.81400000
 O       1.59500000      14.53500000       8.82500000
 H       2.26000000      14.15800000       9.38600000
 H       1.97800000      14.53100000       7.85800000
 O       5.82900000      14.35000000       7.66500000
 H       5.85200000      15.30600000       7.89900000
 H       4.81400000      14.18300000       7.56000000
 O       3.15400000      16.65700000       4.11000000
 H       3.28500000      17.12000000       3.26300000
 H       2.25700000      16.31300000       3.98200000
