55
XYZ file of cluster: frame_1000_572b2.5c87c.65a4f - created by MolEdiTo
 O      10.25600000      16.81300000      16.91500000
 H      10.53100000      15.93600000      17.25300000
 H      11.01400000      17.25800000      16.50300000
 O       8.23700000      15.65900000      14.58600000
 H       8.28800000      15.93100000      13.65200000
 H       7.72700000      16.39700000      14.99600000
 O       7.88400000      16.71800000      17.74200000
 H       8.04400000      15.78800000      17.65700000
 H       8.70800000      16.98300000      17.26600000
 O       8.62100000      12.86200000      14.92000000
 H       9.00900000      12.35300000      14.19500000
 H       8.47800000      13.85700000      14.60000000
 O       9.66900000      12.91700000      17.40500000
 H       9.39900000      12.16800000      18.01400000
 H       9.12300000      12.81300000      16.53900000
 O      12.54500000      11.11500000      13.95200000
 H      12.08300000      11.09900000      14.79300000
 H      12.40800000      12.01900000      13.54900000
 O      10.47900000      15.68700000      12.38500000
 H       9.78500000      15.21800000      11.87000000
 H      10.07100000      16.55000000      12.58300000
 O      12.82000000      16.66900000      10.46500000
 H      12.43800000      17.59800000      10.62700000
 H      12.46900000      16.02300000      11.20300000
 C       9.20400000      10.41100000      11.10200000
 C      10.62200000      11.00900000      11.36000000
 C      11.52600000       9.37500000       9.56500000
 H      11.26500000      11.57500000       9.48800000
 H       7.61000000      10.96300000      10.28500000
 O      13.02800000      11.12900000      10.69400000
 O       8.43000000      10.59500000      12.22800000
 O       8.58300000      10.97900000       9.95400000
 C      11.60500000      10.80200000      10.24600000
 O      10.61800000      12.48300000      11.65100000
 H      11.06500000      10.57900000      12.22300000
 O      11.32000000       8.46700000      10.61800000
 O      12.71900000       8.99800000       8.91600000
 H      12.57000000       8.05800000       8.68100000
 H       9.76200000      12.97300000      11.39900000
 H      13.14500000      12.07600000      10.69600000
 O      14.36900000      15.24500000      14.23500000
 H      14.20600000      16.22700000      14.10100000
 H      14.42900000      14.75300000      13.42600000
 O      10.81100000       9.88000000      16.59000000
 H      10.57400000      10.72900000      16.22700000
 H      11.53600000      10.24400000      17.14700000
 O      13.20300000      13.83300000      11.22100000
 H      12.26200000      13.67100000      11.50400000
 H      13.02000000      14.24400000      10.31400000
 O      13.22500000      11.49700000      16.52500000
 H      13.81300000      12.31800000      16.37300000
 H      12.92000000      11.58300000      17.48500000
 O       8.52100000      14.12500000      10.94800000
 H       7.72200000      14.07600000      11.53400000
 H       8.11700000      14.53000000      10.10400000
