30
XYZ file of cluster: frame_1000_9aa88.d36a0.bb096 - created by MolEdiTo
 O      16.48500000      19.05000000      16.25900000
 H      15.70100000      19.52700000      16.73900000
 H      17.34100000      19.62800000      16.35600000
 O      18.53400000      18.55600000      18.84200000
 H      17.91300000      18.49100000      18.15700000
 H      19.45400000      18.41100000      18.36900000
 O      19.77300000      22.08500000      19.91500000
 H      19.11900000      21.41300000      20.18200000
 H      20.63900000      21.57900000      19.81800000
 O      13.74900000      24.92100000      17.60400000
 H      13.84500000      25.79800000      17.11200000
 H      14.57800000      24.41000000      17.42900000
 O      16.76300000      24.33100000      19.71500000
 H      17.29300000      24.85000000      20.34500000
 H      17.28100000      24.00700000      18.93700000
 O      16.18800000      23.80500000      16.58800000
 H      16.70800000      24.65200000      16.33600000
 H      16.64200000      23.09800000      16.04100000
 O      18.58300000      22.04300000      15.97400000
 H      18.55800000      22.98300000      16.20100000
 H      19.53600000      21.83900000      16.01200000
 O      14.35200000      21.75700000      16.93400000
 H      13.50200000      22.22400000      16.71400000
 H      15.03100000      22.49300000      16.99000000
 O      19.13500000      24.37400000      17.93100000
 H      19.33400000      23.80500000      18.75600000
 H      20.04100000      24.48700000      17.57100000
 O      14.42600000      23.28200000      20.29400000
 H      15.23600000      23.79300000      20.18700000
 H      14.04500000      23.22500000      19.41200000
