30
XYZ file of cluster: frame_1000_7a093.c8524.c85c8 - created by MolEdiTo
 O      12.48300000      18.90700000      20.55000000
 H      12.53900000      19.13500000      19.60700000
 H      12.15600000      17.93700000      20.49800000
 O      17.15900000      18.33600000      24.49400000
 H      16.33900000      17.71700000      24.49900000
 H      16.73800000      19.03700000      23.83400000
 O      16.05000000      20.37500000      22.71200000
 H      15.32100000      20.69000000      22.29700000
 H      16.55700000      21.26100000      22.81000000
 O      15.43200000      17.83500000      21.59800000
 H      15.57900000      18.78500000      21.74400000
 H      16.37600000      17.44500000      21.66600000
 O      10.65400000      19.75200000      23.31500000
 H      11.38200000      19.47100000      22.72600000
 H      10.92000000      19.25800000      24.13400000
 O      13.74900000      24.92100000      17.60400000
 H      13.84500000      25.79800000      17.11200000
 H      14.57800000      24.41000000      17.42900000
 O      16.76300000      24.33100000      19.71500000
 H      17.29300000      24.85000000      20.34500000
 H      17.28100000      24.00700000      18.93700000
 O      14.42600000      23.28200000      20.29400000
 H      15.23600000      23.79300000      20.18700000
 H      14.04500000      23.22500000      19.41200000
 O      13.82200000      25.14800000      24.58500000
 H      13.41300000      25.68800000      23.88300000
 H      13.68500000      24.31600000      24.06000000
 O      12.87600000      22.53100000      23.66400000
 H      12.07100000      22.10900000      23.58800000
 H      13.40500000      22.25900000      22.86100000
