36
XYZ file of cluster: frame_1000_9d7cd.1f885.bb396 - created by MolEdiTo
 O      13.74900000       3.66000000      17.60400000
 H      13.84500000       4.53700000      17.11200000
 H      14.57800000       3.14900000      17.42900000
 O      15.50500000       6.59000000      20.43900000
 H      15.50700000       5.82500000      19.86400000
 H      14.85200000       7.29400000      20.16900000
 O      16.54100000      10.31200000      19.57100000
 H      16.76400000      11.18700000      20.08200000
 H      16.77800000      10.66400000      18.68200000
 O      16.76300000       3.07000000      19.71500000
 H      17.29300000       3.58900000      20.34500000
 H      17.28100000       2.74600000      18.93700000
 O      17.45600000       6.27800000      16.46300000
 H      17.65900000       7.11500000      15.99000000
 H      17.78600000       6.36500000      17.43700000
 O      18.45800000       6.43500000      19.26200000
 H      19.08000000       7.13900000      19.47000000
 H      17.75900000       6.50200000      19.91100000
 O      19.61600000       9.41100000      19.74800000
 H      19.46900000       9.25100000      18.73300000
 H      18.71500000       9.73400000      20.01300000
 O      19.85900000       4.44600000      21.60800000
 H      20.33400000       3.79000000      21.08700000
 H      19.36500000       5.09500000      21.01300000
 O      19.68600000       5.09600000      24.73600000
 H      19.82800000       6.03700000      25.19200000
 H      19.58500000       5.25100000      23.76400000
 O      17.15700000       7.47800000      23.46300000
 H      16.41400000       7.29500000      22.86000000
 H      17.27900000       6.69500000      23.99200000
 O      20.15000000       7.29700000      23.07200000
 H      20.38600000       8.21400000      22.78500000
 H      19.33800000       7.39300000      23.55000000
 O      16.48700000      10.09000000      23.21700000
 H      16.94600000       9.22900000      23.23400000
 H      16.31900000      10.22000000      22.23600000
