21
XYZ file of cluster: frame_1000_a2b8e.a0ba6.9d33e - created by MolEdiTo
 O      18.53400000      18.55600000      18.84200000
 H      17.91300000      18.49100000      18.15700000
 H      19.45400000      18.41100000      18.36900000
 O      18.06500000      14.25400000      16.26800000
 H      18.38400000      15.16700000      16.12000000
 H      18.43000000      13.99700000      17.19600000
 O      18.63000000      17.19500000      15.54300000
 H      18.38600000      16.44600000      14.94600000
 H      17.78400000      17.46400000      15.99600000
 O      14.36900000      15.24500000      14.23500000
 H      14.20600000      16.22700000      14.10100000
 H      14.42900000      14.75300000      13.42600000
 O      18.33500000      16.18400000      20.29500000
 H      18.33700000      17.07700000      19.86700000
 H      19.23000000      16.13400000      20.75300000
 O      16.67500000      16.33100000      17.95900000
 H      15.77800000      16.17800000      17.74400000
 H      16.83300000      15.93700000      18.78300000
 O      16.48500000      19.05000000      16.25900000
 H      15.70100000      19.52700000      16.73900000
 H      17.34100000      19.62800000      16.35600000
