42
XYZ file of cluster: frame_1000_0.72882.9938c - created by MolEdiTo
 O       3.00300000      17.18300000      13.35400000
 H       2.94800000      17.09200000      14.32500000
 H       2.07700000      17.39600000      13.08600000
 O       1.71100000      15.29600000      17.74600000
 H       1.16400000      14.97500000      18.44700000
 H       2.70600000      15.22700000      18.13300000
 O       1.64900000      14.84000000      14.63800000
 H       2.57200000      15.05800000      14.32700000
 H       1.70800000      14.98400000      15.60800000
 O       4.55400000      16.23700000      18.18900000
 H       4.84300000      15.59000000      18.84600000
 H       5.39200000      16.59200000      17.80900000
 O       4.68300000      13.57000000      14.75500000
 H       5.46300000      13.56200000      15.29600000
 H       4.20900000      12.77000000      15.12600000
 O       5.08300000       9.97400000      18.69500000
 H       4.13700000      10.25700000      18.67400000
 H       5.46700000      10.68600000      18.08200000
 O       2.87400000      18.42400000      19.04900000
 H       2.19500000      18.78700000      18.39800000
 H       3.35300000      17.66300000      18.58500000
 O       5.61700000      16.62600000      14.79500000
 H       4.92900000      15.93700000      14.98200000
 H       5.70800000      16.98600000      15.69200000
 O       6.17000000      11.25100000      16.08700000
 H       6.95800000      11.62700000      15.74400000
 H       5.82000000      10.61400000      15.41200000
 O       0.88800000      17.92100000      17.13200000
 H       0.97000000      16.90600000      17.11200000
 H       1.17900000      18.26800000      16.30900000
 O       0.91600000      12.41100000      15.56100000
 H       1.12100000      13.37900000      15.34100000
 H       0.00000000      12.42100000      15.20200000
 O       2.78700000      13.27100000      19.60200000
 H       2.04800000      12.93800000      20.14700000
 H       3.64300000      12.85500000      19.92200000
 O       7.02200000      13.91900000      18.95600000
 H       7.24400000      14.73000000      19.49400000
 H       7.72500000      13.85800000      18.32900000
 O       3.26100000      12.33700000      16.92300000
 H       2.47000000      12.17500000      16.40200000
 H       2.96800000      12.47300000      17.87600000
