126
XYZ file of cluster: frame_4500_5978.49ce0.72bb4 - created by MolEdiTo
 O      10.49300000      11.85800000      22.72700000
 H       9.52300000      11.61000000      22.54800000
 H      10.92500000      10.98400000      22.94200000
 O      10.39200000      15.73500000      15.93500000
 H      10.48900000      16.13100000      16.84300000
 H      11.24100000      15.13300000      15.82000000
 O       6.85000000      16.56500000      15.22700000
 H       7.27500000      17.41000000      15.36100000
 H       6.65900000      16.31300000      16.16000000
 O       6.34900000      21.23800000      21.46100000
 H       6.01500000      21.94600000      22.12200000
 H       6.35100000      20.46500000      21.99900000
 O       9.16600000      18.78100000      18.41800000
 H       9.93800000      19.33900000      18.71100000
 H       9.48100000      17.80900000      18.51800000
 O       6.72700000      18.43200000      19.62000000
 H       7.50200000      18.66700000      19.04800000
 H       5.91200000      18.72600000      19.09300000
 O       7.35400000      10.71100000      21.97800000
 H       8.03400000       9.94100000      21.89800000
 H       7.02800000      10.59700000      21.05700000
 O       3.74200000      11.23800000      17.80300000
 H       3.76300000      10.38600000      18.29800000
 H       2.98000000      11.65700000      18.22600000
 O       2.20500000      19.92800000      25.11900000
 H       1.44900000      20.20400000      24.50300000
 H       2.32400000      20.71600000      25.64700000
 O       9.88100000      11.91200000      17.69100000
 H       9.41000000      11.38500000      16.96500000
 H       9.16700000      12.02400000      18.36700000
 O       5.35800000      13.60400000      17.68200000
 H       4.82900000      12.82200000      17.51400000
 H       5.11700000      13.71400000      18.58200000
 O       4.40900000      19.51800000      18.15900000
 H       3.44600000      19.51900000      18.58200000
 H       4.61100000      20.48500000      18.10600000
 O       6.77500000      18.61300000      22.51400000
 H       7.40600000      18.32800000      21.87600000
 H       5.92400000      18.45500000      22.12300000
 O       1.75500000      19.57600000      16.31300000
 H       2.09900000      20.40500000      15.93900000
 H       1.80500000      19.01000000      15.46000000
 O       7.70400000      10.29900000      16.35700000
 H       7.68500000      11.04600000      15.79000000
 H       7.96100000       9.57700000      15.72700000
 O       3.47100000      20.81200000      22.28600000
 H       3.70300000      19.83700000      22.44900000
 H       3.87300000      21.17200000      23.08200000
 O       5.81400000      16.31700000      17.78500000
 H       5.48700000      15.53600000      18.20700000
 H       6.08600000      16.70800000      18.58400000
 O       1.14100000      14.75000000      17.81500000
 H       1.95700000      15.16400000      17.43300000
 H       0.72400000      15.46300000      18.33200000
 O       6.83300000      11.18100000      24.71000000
 H       6.73500000      10.82400000      23.83000000
 H       6.60000000      12.12800000      24.73700000
 O       9.41900000      10.83700000      25.38800000
 H       9.60500000      11.64900000      25.96100000
 H       8.47000000      11.02600000      25.02500000
 O      10.63000000      14.70600000      24.03700000
 H       9.85500000      15.05100000      23.53900000
 H      10.61900000      13.73500000      23.80300000
 O       9.92400000      18.10100000      21.49500000
 H       9.70100000      18.96600000      21.78700000
 H       9.94500000      18.30700000      20.53000000
 O       8.05300000      18.29900000      24.79900000
 H       7.53600000      18.37000000      24.00300000
 H       7.42000000      17.75000000      25.32400000
 O       6.91700000      13.90100000      24.56300000
 H       7.49900000      14.49300000      24.09600000
 H       6.76700000      14.38800000      25.41200000
 O       1.34000000      12.18900000      19.10000000
 H       1.45100000      13.12000000      18.77000000
 H       1.83800000      12.11000000      19.92800000
 O       2.02100000      18.12900000      19.76200000
 H       1.40500000      17.83100000      19.05700000
 H       1.48200000      18.88700000      20.21300000
 O       4.58800000      14.51600000      15.01000000
 H       5.49600000      14.81300000      14.89900000
 H       4.67900000      14.08200000      15.86100000
 O       5.16900000      21.38200000      24.79400000
 H       5.87700000      22.05200000      24.85600000
 H       5.57400000      20.53800000      25.01500000
 O       8.35000000      15.36300000      22.78900000
 H       7.74900000      15.31800000      22.01300000
 H       8.64200000      16.29200000      22.70600000
 O      10.19100000      16.29200000      18.74900000
 H      10.22200000      16.19000000      19.76300000
 H      11.02500000      15.77600000      18.64300000
 O       4.02300000      18.01500000      21.99900000
 H       4.11600000      17.04900000      22.13600000
 H       3.37700000      18.11800000      21.23300000
 O       2.34300000      14.48100000      21.16200000
 H       1.36500000      14.61100000      21.13500000
 H       2.30300000      13.48400000      21.37000000
 O      10.24400000      18.74000000      26.03300000
 H      10.38300000      19.60900000      26.44700000
 H       9.38600000      18.81000000      25.48400000
 O       3.63900000      17.12600000      24.89400000
 H       3.10100000      17.78800000      24.56200000
 H       2.97500000      16.37100000      24.91800000
 O       3.08500000      16.84900000      16.79400000
 H       3.98200000      16.62900000      17.08200000
 H       2.94000000      17.74400000      17.15200000
 O       1.95900000      11.88000000      21.79800000
 H       1.04300000      11.71400000      22.13900000
 H       2.51200000      11.12800000      22.01500000
 O       5.13800000      14.23200000      20.32600000
 H       4.36100000      13.82300000      20.78200000
 H       5.41800000      14.88000000      21.07100000
 O       5.20500000      15.74200000      22.85100000
 H       5.38100000      14.86200000      23.24000000
 H       4.84700000      16.27600000      23.59500000
 O      10.38300000      10.13200000      20.23200000
 H      10.49700000       9.97800000      21.17300000
 H      10.89900000      10.94000000      20.14300000
 O       4.60000000      12.73300000      23.13000000
 H       5.44100000      12.56800000      23.56200000
 H       3.85600000      12.61600000      23.73500000
 O       8.22400000      13.58200000      15.43800000
 H       8.83400000      14.12400000      15.94300000
 H       8.75500000      13.12100000      14.79700000
 O       3.00100000      13.08300000      25.54400000
 H       2.34200000      12.69900000      26.21000000
 H       3.88500000      13.06900000      25.95800000
