132
XYZ file of cluster: frame_4500_4a09a.9f0fb.9c051 - created by MolEdiTo
 O      14.64700000      25.02600000      28.48100000
 H      14.62200000      24.40100000      29.26600000
 H      15.15500000      25.77900000      28.81800000
 O      17.78000000      27.54000000      24.56200000
 H      17.72500000      26.50500000      24.72100000
 H      17.15700000      27.87400000      25.26000000
 O      20.13400000      25.33300000      23.70600000
 H      19.67600000      25.98000000      24.37100000
 H      20.13000000      24.50400000      24.24500000
 O      20.00400000      30.32200000      28.14800000
 H      20.79700000      30.22100000      28.75200000
 H      20.39600000      30.21900000      27.21900000
 O      16.11200000      26.88000000      29.83600000
 H      16.53600000      26.11200000      30.22500000
 H      15.61900000      27.31200000      30.52400000
 O      17.03300000      23.05500000      28.75300000
 H      16.38100000      22.33400000      28.62900000
 H      16.87900000      23.46100000      29.62500000
 O      13.49800000      22.11900000      21.15300000
 H      13.28700000      21.73900000      20.24100000
 H      14.41700000      21.99100000      21.33300000
 O      16.50200000      22.36300000      21.45000000
 H      16.83500000      21.44300000      21.76400000
 H      17.38300000      22.75900000      21.15500000
 O      14.77600000      23.68600000      25.89000000
 H      14.87000000      24.33500000      25.14900000
 H      15.08900000      24.20300000      26.62300000
 O      12.60200000      30.50700000      29.60900000
 H      12.74200000      31.33300000      29.10200000
 H      13.53500000      30.18800000      29.94200000
 O      14.32800000      24.46100000      23.18000000
 H      14.13300000      25.17700000      23.78500000
 H      13.61600000      23.82300000      23.09900000
 O      10.96500000      27.46500000      23.38500000
 H      10.81600000      28.27800000      22.80800000
 H      10.37200000      27.60700000      24.22100000
 O      10.50400000      23.60200000      29.57600000
 H      11.31100000      23.11500000      29.71800000
 H       9.82400000      22.86400000      29.55300000
 O      20.09400000      23.19600000      25.52200000
 H      20.40300000      22.40900000      26.05200000
 H      19.19800000      22.72200000      25.36100000
 O      11.23700000      24.97500000      22.24900000
 H      11.98100000      25.11400000      21.56600000
 H      11.25300000      25.85800000      22.71800000
 O      19.04400000      28.05000000      22.07900000
 H      18.60900000      27.56400000      21.26300000
 H      18.45200000      27.71800000      22.81000000
 O      10.86700000      21.30800000      26.89000000
 H      11.02200000      21.25200000      27.83900000
 H      10.74500000      22.27700000      26.86500000
 O      13.00700000      27.63900000      21.14500000
 H      12.42800000      28.01500000      21.82200000
 H      13.54000000      28.45100000      21.03100000
 O      12.61300000      27.14200000      28.14500000
 H      12.81500000      27.90000000      28.68600000
 H      13.11500000      26.35600000      28.61900000
 O      13.02800000      22.35500000      29.55800000
 H      13.27300000      22.22200000      28.65300000
 H      13.88000000      22.21200000      29.94700000
 O      10.45300000      29.84800000      27.11900000
 H      10.85000000      29.78000000      28.06000000
 H      11.19800000      30.26300000      26.57400000
 O      17.30500000      25.55000000      27.12100000
 H      17.76000000      24.73700000      27.35500000
 H      17.58900000      26.39500000      27.51400000
 O      19.48700000      22.76100000      20.99800000
 H      19.13000000      22.51600000      20.12200000
 H      20.36700000      22.32000000      21.09800000
 O      11.76000000      23.96600000      26.74900000
 H      11.57500000      24.82500000      26.36600000
 H      11.39400000      24.13800000      27.67700000
 O      18.21100000      28.04500000      28.54700000
 H      19.11900000      28.30500000      28.79800000
 H      17.78200000      27.57000000      29.29600000
 O      20.48700000      27.82300000      25.61700000
 H      20.43100000      27.47100000      26.56200000
 H      19.50600000      28.18000000      25.34500000
 O      21.53300000      25.03200000      27.27500000
 H      21.01300000      24.76200000      28.09500000
 H      21.27300000      24.44800000      26.48900000
 O      12.90000000      26.24000000      25.05500000
 H      12.59800000      26.88000000      24.31000000
 H      12.80100000      26.78700000      25.83800000
 O      13.21700000      21.53800000      25.00700000
 H      13.59900000      22.45600000      24.95600000
 H      12.64600000      21.67300000      25.75400000
 O      15.99200000      29.45500000      22.54800000
 H      15.91900000      29.23800000      23.48900000
 H      16.23600000      28.50000000      22.24700000
 O      11.50800000      30.00800000      22.31600000
 H      11.89800000      30.66100000      23.00200000
 H      11.28500000      30.69100000      21.66600000
 O      20.05500000      25.99500000      20.81000000
 H      20.15700000      25.94900000      21.83800000
 H      19.39100000      25.29700000      20.61000000
 O      15.30700000      29.98100000      30.02200000
 H      15.99300000      30.71400000      29.74400000
 H      15.80800000      29.46600000      30.70400000
 O      16.06700000      28.51900000      26.66000000
 H      16.38000000      28.35800000      27.58100000
 H      15.67300000      29.47500000      26.83700000
 O      14.15600000      28.67800000      24.59000000
 H      14.11900000      29.28100000      25.37900000
 H      14.58100000      27.80300000      24.82000000
 O      17.60600000      21.17500000      23.98100000
 H      17.66500000      20.97200000      24.92800000
 H      16.80700000      20.68700000      23.91300000
 O      15.14300000      21.26600000      27.64200000
 H      15.80800000      20.64000000      27.19400000
 H      15.20900000      22.13600000      27.21200000
 O      19.05600000      21.53900000      30.42400000
 H      18.83500000      21.32400000      31.37600000
 H      19.99800000      21.85700000      30.46800000
 O      19.79300000      23.99700000      29.05700000
 H      18.99000000      23.41800000      28.81800000
 H      19.51400000      24.29100000      30.01400000
 O       9.95300000      27.13300000      28.34300000
 H      10.85900000      27.50100000      28.37500000
 H       9.58600000      27.57300000      27.53300000
 O      15.73300000      26.94700000      21.66000000
 H      16.20500000      26.16000000      21.99500000
 H      14.78600000      26.73100000      21.93600000
 O      11.28100000      21.44500000      22.63100000
 H      11.54000000      21.30500000      23.61800000
 H      12.10000000      21.79800000      22.21900000
 O      20.65700000      27.99300000      30.02800000
 H      21.01000000      28.87400000      29.85300000
 H      20.54600000      28.13000000      30.99900000
 O      16.94900000      24.92700000      23.44100000
 H      16.11800000      24.47100000      23.20700000
 H      17.66500000      24.22100000      23.21200000
