126
XYZ file of cluster: frame_4500_9c1da.0.9db9c - created by MolEdiTo
 O      30.83900000       9.06500000      23.61100000
 H      30.30300000       8.47800000      23.04900000
 H      30.19000000       9.73200000      23.99100000
 O      21.45300000       9.80800000      21.05800000
 H      20.96000000      10.10100000      20.34200000
 H      21.65700000       8.91400000      20.62300000
 O      23.66100000       9.85000000      25.56000000
 H      23.68900000      10.79300000      25.83000000
 H      23.92200000       9.90000000      24.58800000
 O      29.42400000       8.55600000      30.75900000
 H      28.49300000       8.44900000      30.66200000
 H      29.75100000       7.62600000      30.60100000
 O      28.56500000       5.64800000      28.21700000
 H      28.83300000       6.24500000      27.51300000
 H      28.95400000       4.75600000      28.05600000
 O      24.57200000       7.80700000      27.40600000
 H      24.53500000       8.68000000      26.93700000
 H      24.04400000       7.13400000      26.90300000
 O      23.98000000       2.25500000      27.99600000
 H      23.55000000       3.01100000      28.49000000
 H      24.83900000       2.75600000      27.72000000
 O      20.61500000       3.38400000      27.37800000
 H      20.96200000       2.42000000      27.39800000
 H      21.24800000       3.85000000      27.99200000
 O      25.98000000       8.21700000      21.88600000
 H      25.59300000       8.16500000      21.00800000
 H      25.40600000       8.90600000      22.26700000
 O      23.31400000       7.45200000      30.82100000
 H      24.11400000       7.95500000      30.53200000
 H      23.69800000       6.77600000      31.43200000
 O      26.10900000       5.87800000      23.75400000
 H      26.07900000       6.63800000      23.14500000
 H      27.04600000       5.82100000      24.03100000
 O      23.21600000       4.54200000      29.34300000
 H      24.19900000       4.76300000      29.12700000
 H      22.97200000       5.18500000      30.02000000
 O      28.92100000      10.78300000      23.85100000
 H      28.15000000      11.13600000      23.30200000
 H      28.52900000      10.49300000      24.73300000
 O      28.98000000       6.04000000      23.12900000
 H      29.46700000       5.33900000      22.59800000
 H      29.01100000       6.82700000      22.54600000
 O      26.78900000       4.96400000      20.75200000
 H      26.18000000       5.48900000      21.28900000
 H      27.54200000       4.73900000      21.37400000
 O      29.60900000       4.04700000      21.68900000
 H      29.03000000       3.31300000      21.97500000
 H      30.25100000       3.60700000      21.09000000
 O      27.64600000       2.47100000      22.77600000
 H      26.79300000       2.89600000      22.60700000
 H      27.53300000       1.53000000      22.64700000
 O      29.93700000       9.14400000      27.53000000
 H      29.33100000       8.51900000      27.02100000
 H      30.67200000       9.35000000      26.96400000
 O      28.65500000       2.82500000      25.63200000
 H      28.25000000       1.93700000      25.71000000
 H      28.59000000       3.06500000      24.69400000
 O      20.48400000       2.78500000      30.79900000
 H      20.21300000       3.56600000      30.36700000
 H      21.44900000       2.95500000      30.86100000
 O      20.80500000       8.81700000      26.40500000
 H      21.36000000       9.02500000      27.24200000
 H      21.29500000       9.38300000      25.77800000
 O      23.72400000      10.29400000      22.70100000
 H      22.93600000      10.03800000      22.26700000
 H      24.30700000      10.78100000      22.13900000
 O      21.94100000       1.24400000      26.32600000
 H      22.48000000       0.83500000      25.61700000
 H      22.61300000       1.49700000      26.94400000
 O      21.06600000       4.78700000      21.92700000
 H      20.67000000       4.55600000      22.79000000
 H      21.38900000       3.92900000      21.60800000
 O      25.71400000       8.27300000      29.99200000
 H      25.52500000       7.94500000      29.02100000
 H      26.33500000       7.59400000      30.33700000
 O      30.56000000       0.91100000      22.19100000
 H      30.07700000       0.84700000      21.34400000
 H      30.64600000       0.00000000      22.35400000
 O      25.81400000       3.04100000      25.94900000
 H      26.74100000       2.76700000      25.70500000
 H      25.53700000       3.46400000      25.13300000
 O      23.43900000       2.52600000      21.03600000
 H      24.36400000       2.17700000      20.92600000
 H      23.50200000       2.94400000      21.91700000
 O      30.57100000       6.57600000      26.21300000
 H      30.84900000       5.71700000      25.79900000
 H      29.85100000       6.89900000      25.62200000
 O      27.15000000      10.56600000      25.72200000
 H      27.33500000      10.15400000      26.60600000
 H      27.40900000      11.54900000      25.74400000
 O      23.33500000       6.46900000      22.25900000
 H      23.58000000       6.18600000      21.40900000
 H      22.54300000       5.96400000      22.45200000
 O      22.09500000       3.24900000      24.09400000
 H      21.94600000       2.49000000      23.51000000
 H      21.86600000       2.84800000      24.93800000
 O      28.74500000       8.24600000      21.30800000
 H      28.87900000       9.23400000      21.21400000
 H      27.84100000       8.11100000      20.99700000
 O      24.67800000       3.84000000      23.11600000
 H      24.96200000       4.77000000      23.22800000
 H      23.89500000       3.67300000      23.70100000
 O      30.54100000       2.99800000      27.62800000
 H      31.07400000       3.64900000      27.16400000
 H      29.84000000       3.01600000      26.99700000
 O      26.55000000      10.51900000      28.46900000
 H      25.95200000       9.72000000      28.48000000
 H      26.09200000      11.25100000      29.00100000
 O      28.11700000       7.88100000      25.08100000
 H      27.53200000       8.61000000      25.10800000
 H      28.11600000       7.61100000      24.12000000
 O      23.35300000       5.79000000      26.00300000
 H      23.77700000       5.82400000      25.13900000
 H      22.41000000       5.59800000      25.83100000
 O      26.91100000       2.49600000      30.52300000
 H      26.53800000       2.22100000      29.63300000
 H      26.65800000       3.47600000      30.38200000
 O      25.76100000       5.29600000      28.59300000
 H      25.41900000       6.18800000      28.29300000
 H      26.72900000       5.36200000      28.46700000
 O      30.76300000       5.92900000      30.20100000
 H      30.85500000       6.28000000      29.23900000
 H      30.67300000       4.96100000      30.17600000
 O      20.99000000       0.86800000      23.28900000
 H      21.58200000       0.09200000      23.15000000
 H      20.22300000       0.63100000      22.66400000
