160
XYZ file of cluster: frame_4500_498d1.2810e.6dad1 - created by MolEdiTo
 O      10.49300000      11.85800000      22.72700000
 H       9.52300000      11.61000000      22.54800000
 H      10.92500000      10.98400000      22.94200000
 O      10.39200000      15.73500000      15.93500000
 H      10.48900000      16.13100000      16.84300000
 H      11.24100000      15.13300000      15.82000000
 O      11.26500000       7.70000000      16.39200000
 H      11.10300000       6.76700000      16.47800000
 H      12.25300000       7.77700000      16.37300000
 O      20.67600000      11.27200000      24.15400000
 H      19.80900000      10.95500000      24.43300000
 H      21.10300000      11.58400000      24.93700000
 O      15.68500000       9.28100000      15.46000000
 H      16.54000000       9.03600000      15.93100000
 H      15.65500000      10.27800000      15.35200000
 O      14.51500000       9.81800000      22.74300000
 H      14.16600000      10.46300000      22.10500000
 H      15.32500000       9.57300000      22.33400000
 O      17.80200000       7.23900000      20.44000000
 H      18.57600000       6.95300000      19.93700000
 H      17.95200000       7.26800000      21.41600000
 O      10.02700000       7.96800000      25.92400000
 H      10.72200000       7.47700000      25.50400000
 H      10.08000000       8.89200000      25.55700000
 O      12.24600000       9.35000000      24.55600000
 H      12.92800000       9.00500000      23.87300000
 H      12.71600000       9.48300000      25.45300000
 O      21.45300000       9.80800000      21.05800000
 H      20.96000000      10.10100000      20.34200000
 H      21.65700000       8.91400000      20.62300000
 O      12.37000000      10.41700000      17.46500000
 H      13.30900000      10.74100000      17.38100000
 H      11.75800000      11.18200000      17.84200000
 O      18.08100000       9.55400000      24.32000000
 H      18.94600000       9.11400000      24.12400000
 H      18.00700000      10.05700000      23.46900000
 O      11.91400000      12.11300000      26.15700000
 H      11.33500000      11.44100000      25.68200000
 H      11.24600000      12.69700000      26.63400000
 O      12.15800000      16.04600000      26.29600000
 H      11.66400000      15.40800000      25.69400000
 H      11.70200000      16.92200000      26.18400000
 O      20.18900000       7.97600000      23.44500000
 H      20.87300000       8.65800000      23.18300000
 H      20.60500000       7.26100000      23.97300000
 O      14.22700000      13.72900000      24.59100000
 H      14.28300000      14.59300000      24.92300000
 H      13.32900000      13.40500000      24.79500000
 O      11.65200000       7.67800000      21.65800000
 H      12.01500000       7.93200000      20.79800000
 H      12.45200000       7.46600000      22.14700000
 O      16.22400000      11.35100000      25.42700000
 H      15.53400000      11.54600000      24.68000000
 H      16.68400000      10.59600000      25.07300000
 O      13.45600000      11.90200000      21.25000000
 H      12.57200000      12.22800000      21.55700000
 H      13.28400000      12.02600000      20.30800000
 O      15.35100000      15.31200000      22.07900000
 H      14.70100000      15.63700000      21.47200000
 H      14.98100000      15.42600000      22.93100000
 O      10.63000000      14.70600000      24.03700000
 H       9.85500000      15.05100000      23.53900000
 H      10.61900000      13.73500000      23.80300000
 C      16.96400000      15.08900000      16.99800000
 C      16.85900000      15.66900000      15.59800000
 C      14.25100000      15.71900000      15.26000000
 H      15.52000000      17.17500000      16.21300000
 H      18.44800000      16.08200000      17.00400000
 O      15.57400000      17.34500000      14.14500000
 O      16.01500000      14.50600000      17.55400000
 O      17.95300000      15.64400000      17.73700000
 C      15.58800000      16.53100000      15.35700000
 O      17.97500000      16.49000000      15.33300000
 H      16.90300000      14.76200000      14.91700000
 O      14.07700000      14.79300000      14.48100000
 O      13.20900000      16.34900000      15.97200000
 H      13.68500000      17.04200000      16.43700000
 H      18.10000000      16.29400000      14.32900000
 H      14.84400000      17.97800000      14.23400000
 O      20.19900000       8.51200000      17.15800000
 H      20.82800000       8.08600000      17.74300000
 H      19.88600000       7.84900000      16.53600000
 O      16.11400000      12.57800000      21.38400000
 H      15.21900000      12.32900000      21.28400000
 H      16.08400000      13.40500000      21.81500000
 O      19.92200000      13.50300000      16.41500000
 H      20.82700000      13.69300000      16.58600000
 H      19.88500000      13.18800000      15.53200000
 O      20.28400000       6.18800000      19.63700000
 H      20.26300000       5.19900000      19.83600000
 H      21.24600000       6.39100000      19.80800000
 O      20.80500000       8.81700000      26.40500000
 H      21.36000000       9.02500000      27.24200000
 H      21.29500000       9.38300000      25.77800000
 O      14.99200000      11.58900000      17.63200000
 H      14.97900000      12.06900000      16.73300000
 H      15.88100000      11.75400000      18.07300000
 O      10.19100000      16.29200000      18.74900000
 H      10.22200000      16.19000000      19.76300000
 H      11.02500000      15.77600000      18.64300000
 O      15.74700000       6.73300000      25.44000000
 H      16.54400000       6.31500000      25.33000000
 H      15.94800000       7.22000000      26.28600000
 O      15.79700000       8.74900000      19.38000000
 H      16.64000000       8.16000000      19.37900000
 H      15.73200000       9.29200000      18.61100000
 O      18.27200000      15.85400000      20.84100000
 H      18.24600000      15.85000000      19.83800000
 H      17.38800000      15.64600000      21.14500000
 O      17.52200000      13.44100000      24.08700000
 H      17.12500000      12.73400000      24.69600000
 H      16.76500000      14.06000000      23.85500000
 O      20.41800000      14.08800000      21.95700000
 H      19.59100000      14.57900000      21.85300000
 H      21.04500000      14.91200000      21.80500000
 O      15.05700000       5.98700000      15.65400000
 H      15.12600000       6.96700000      15.72900000
 H      15.04300000       5.80500000      16.64200000
 O      12.13600000      13.27500000      16.05100000
 H      11.84900000      13.34400000      15.08700000
 H      11.26400000      13.21500000      16.48400000
 O      17.70400000      12.73400000      19.16900000
 H      17.71000000      12.08300000      19.88300000
 H      17.06200000      13.38900000      19.47700000
 O      21.07900000      14.36700000      18.66000000
 H      21.58900000      15.02000000      18.05700000
 H      20.26100000      14.18400000      18.23500000
 O      18.12900000       6.17700000      23.47400000
 H      19.11800000       6.18500000      23.18900000
 H      18.10900000       7.09000000      23.82000000
 O      18.07900000      10.70600000      21.80600000
 H      17.14100000      11.07500000      21.58000000
 H      18.66000000      11.44400000      22.12400000
 O      20.32000000      14.06900000      25.41100000
 H      19.31900000      14.07200000      25.59500000
 H      20.32900000      14.32700000      24.46000000
 O      20.38900000       5.59900000      24.94900000
 H      19.57000000       5.21500000      24.73000000
 H      20.45600000       5.38600000      25.89600000
 O      10.38300000      10.13200000      20.23200000
 H      10.49700000       9.97800000      21.17300000
 H      10.89900000      10.94000000      20.14300000
 O      17.59900000       7.19200000      16.44100000
 H      17.58400000       6.88400000      17.36900000
 H      18.07200000       6.45000000      15.94800000
 O      12.28700000      14.55300000      18.48900000
 H      13.23700000      14.78400000      18.87300000
 H      12.45800000      14.12600000      17.61600000
 O      12.33500000       6.49000000      25.57500000
 H      12.79600000       7.38200000      25.55100000
 H      12.63800000       6.13600000      26.47500000
 O      12.97100000       8.75200000      19.45500000
 H      13.93500000       8.74800000      19.48400000
 H      12.67500000       9.29100000      18.65300000
 O      18.20200000      10.85400000      17.01200000
 H      18.38800000      11.60400000      17.45200000
 H      18.91400000      10.18000000      17.36100000
 O      14.02500000       6.80400000      22.99600000
 H      14.39900000       7.66900000      22.74200000
 H      14.63500000       6.57900000      23.75300000
