120
XYZ file of cluster: frame_4500_4a09a.9f0fb.c2ff7 - created by MolEdiTo
 O      14.64700000      25.02600000      28.48100000
 H      14.62200000      24.40100000      29.26600000
 H      15.15500000      25.77900000      28.81800000
 O      20.65700000      27.99300000      30.02800000
 H      21.01000000      28.87400000      29.85300000
 H      20.54600000      28.13000000      30.99900000
 O      20.00400000      30.32200000      28.14800000
 H      20.79700000      30.22100000      28.75200000
 H      20.39600000      30.21900000      27.21900000
 O      16.11200000      26.88000000      29.83600000
 H      16.53600000      26.11200000      30.22500000
 H      15.61900000      27.31200000      30.52400000
 O      17.03300000      23.05500000      28.75300000
 H      16.38100000      22.33400000      28.62900000
 H      16.87900000      23.46100000      29.62500000
 O      14.77600000      23.68600000      25.89000000
 H      14.87000000      24.33500000      25.14900000
 H      15.08900000      24.20300000      26.62300000
 O      12.60200000      30.50700000      29.60900000
 H      12.74200000      31.33300000      29.10200000
 H      13.53500000      30.18800000      29.94200000
 O      10.50400000      23.60200000      29.57600000
 H      11.31100000      23.11500000      29.71800000
 H       9.82400000      22.86400000      29.55300000
 O      10.86700000      21.30800000      26.89000000
 H      11.02200000      21.25200000      27.83900000
 H      10.74500000      22.27700000      26.86500000
 O      12.61300000      27.14200000      28.14500000
 H      12.81500000      27.90000000      28.68600000
 H      13.11500000      26.35600000      28.61900000
 O      13.02800000      22.35500000      29.55800000
 H      13.27300000      22.22200000      28.65300000
 H      13.88000000      22.21200000      29.94700000
 O      10.45300000      29.84800000      27.11900000
 H      10.85000000      29.78000000      28.06000000
 H      11.19800000      30.26300000      26.57400000
 O      17.30500000      25.55000000      27.12100000
 H      17.76000000      24.73700000      27.35500000
 H      17.58900000      26.39500000      27.51400000
 O      18.21100000      28.04500000      28.54700000
 H      19.11900000      28.30500000      28.79800000
 H      17.78200000      27.57000000      29.29600000
 O      20.48700000      27.82300000      25.61700000
 H      20.43100000      27.47100000      26.56200000
 H      19.50600000      28.18000000      25.34500000
 O      21.53300000      25.03200000      27.27500000
 H      21.01300000      24.76200000      28.09500000
 H      21.27300000      24.44800000      26.48900000
 O      15.30700000      29.98100000      30.02200000
 H      15.99300000      30.71400000      29.74400000
 H      15.80800000      29.46600000      30.70400000
 O      16.06700000      28.51900000      26.66000000
 H      16.38000000      28.35800000      27.58100000
 H      15.67300000      29.47500000      26.83700000
 O      15.14300000      21.26600000      27.64200000
 H      15.80800000      20.64000000      27.19400000
 H      15.20900000      22.13600000      27.21200000
 O      19.05600000      21.53900000      30.42400000
 H      18.83500000      21.32400000      31.37600000
 H      19.99800000      21.85700000      30.46800000
 O      19.79300000      23.99700000      29.05700000
 H      18.99000000      23.41800000      28.81800000
 H      19.51400000      24.29100000      30.01400000
 O       9.95300000      27.13300000      28.34300000
 H      10.85900000      27.50100000      28.37500000
 H       9.58600000      27.57300000      27.53300000
 O      11.76000000      23.96600000      26.74900000
 H      11.57500000      24.82500000      26.36600000
 H      11.39400000      24.13800000      27.67700000
 O      12.51000000      27.78400000      32.45700000
 H      11.74400000      27.88300000      33.02300000
 H      12.40200000      28.63900000      31.97300000
 O      20.43900000      23.81600000      36.46800000
 H      19.66200000      23.89200000      35.87400000
 H      20.73900000      22.88200000      36.55100000
 O      13.88700000      26.46600000      35.52200000
 H      13.14600000      26.56400000      34.88500000
 H      13.46600000      26.31300000      36.40100000
 O      16.92600000      28.81100000      33.36400000
 H      17.72000000      29.21700000      33.78100000
 H      17.15400000      27.92600000      33.56000000
 O      17.47000000      30.13800000      36.18300000
 H      18.09700000      29.40300000      36.37800000
 H      18.11100000      30.88500000      36.17200000
 O      12.48200000      24.52200000      33.68300000
 H      12.88800000      24.08300000      32.89800000
 H      12.39700000      23.88600000      34.45300000
 O      15.84700000      24.42500000      32.76200000
 H      16.49400000      24.78900000      33.41800000
 H      15.09700000      24.42600000      33.39900000
 O      19.59800000      30.45900000      33.04800000
 H      20.35900000      30.52900000      33.64500000
 H      19.85200000      31.16300000      32.46400000
 O      16.35900000      26.66800000      37.03000000
 H      15.69300000      26.58400000      36.26300000
 H      16.08000000      27.51500000      37.43100000
 O      14.72000000      21.45700000      33.16400000
 H      13.87000000      20.90400000      33.13400000
 H      14.58000000      22.01700000      33.95500000
 O      11.98700000      22.64500000      35.62600000
 H      11.28100000      22.40100000      36.28400000
 H      12.31700000      21.79600000      35.33600000
 O      14.90700000      30.66600000      35.26600000
 H      15.67000000      30.60100000      35.97500000
 H      15.30700000      30.35800000      34.45500000
 O      17.76500000      24.40200000      35.81000000
 H      17.81900000      25.38800000      36.00600000
 H      16.90600000      24.01300000      35.99400000
 O      18.34800000      25.67700000      32.76000000
 H      19.13300000      25.86000000      32.21000000
 H      18.58300000      26.36700000      33.40600000
 O      14.84500000      22.67100000      35.56800000
 H      15.26900000      22.56700000      36.46600000
 H      14.07300000      23.02400000      36.00000000
 O      19.49100000      27.53100000      34.50800000
 H      20.43400000      27.83800000      34.36900000
 H      19.46900000      27.15000000      35.37700000
 O       9.88100000      25.76500000      32.97100000
 H       9.83300000      26.22700000      32.14000000
 H      10.56700000      25.13000000      32.77500000
