126
XYZ file of cluster: frame_4500_0.235f6.9c2ec - created by MolEdiTo
 O      10.49300000      11.85800000      22.72700000
 H       9.52300000      11.61000000      22.54800000
 H      10.92500000      10.98400000      22.94200000
 O       7.35400000      10.71100000      21.97800000
 H       8.03400000       9.94100000      21.89800000
 H       7.02800000      10.59700000      21.05700000
 O       5.92800000      10.09700000      27.74700000
 H       6.94800000       9.90600000      27.74500000
 H       5.53500000       9.28900000      27.30300000
 O      10.02700000       7.96800000      25.92400000
 H      10.72200000       7.47700000      25.50400000
 H      10.08000000       8.89200000      25.55700000
 O       2.36300000      14.45600000      28.77600000
 H       2.05800000      13.57200000      28.98700000
 H       3.03200000      14.75300000      29.47900000
 O       3.15100000       5.33700000      28.45100000
 H       2.74400000       4.88000000      29.14200000
 H       3.85200000       5.92100000      28.94900000
 O      10.22500000       6.24200000      28.84300000
 H       9.90300000       6.46600000      27.91200000
 H       9.41900000       5.83400000      29.23900000
 O       8.92700000       9.51600000      28.39900000
 H       9.20600000       8.78300000      28.91700000
 H       9.31100000       9.30600000      27.52800000
 O       6.57900000      10.84900000      30.68300000
 H       7.04000000       9.97300000      30.86300000
 H       6.59500000      10.94300000      29.70100000
 O       1.59000000       9.79800000      29.83800000
 H       0.79800000       9.42800000      30.30100000
 H       1.45800000       9.42500000      28.94300000
 O       6.83300000      11.18100000      24.71000000
 H       6.73500000      10.82400000      23.83000000
 H       6.60000000      12.12800000      24.73700000
 O       9.41900000      10.83700000      25.38800000
 H       9.60500000      11.64900000      25.96100000
 H       8.47000000      11.02600000      25.02500000
 O      10.63000000      14.70600000      24.03700000
 H       9.85500000      15.05100000      23.53900000
 H      10.61900000      13.73500000      23.80300000
 O       6.91700000      13.90100000      24.56300000
 H       7.49900000      14.49300000      24.09600000
 H       6.76700000      14.38800000      25.41200000
 O       3.69600000      11.94000000      27.97700000
 H       3.63000000      11.93300000      28.97200000
 H       4.04400000      11.11600000      27.67300000
 O       3.40400000       8.43200000      26.61900000
 H       3.53300000       8.45500000      25.64500000
 H       2.83200000       7.66300000      26.87800000
 O       3.53900000       8.52000000      23.59600000
 H       3.43100000       7.57000000      23.39900000
 H       2.64600000       8.98600000      23.39700000
 O       9.66500000      13.26800000      27.45000000
 H       9.96800000      13.78300000      28.16400000
 H       9.04300000      12.70800000      27.97400000
 O       5.10800000       4.84900000      26.20400000
 H       5.19900000       5.83700000      26.20200000
 H       5.10100000       4.59000000      27.13800000
 O      10.04700000      11.51000000      30.13300000
 H       9.58100000      12.24300000      30.52900000
 H       9.46000000      11.16200000      29.40500000
 O       9.33400000       8.77300000      22.80900000
 H       9.44200000       8.54000000      23.76800000
 H      10.27800000       8.61300000      22.46900000
 O       8.35000000      15.36300000      22.78900000
 H       7.74900000      15.31800000      22.01300000
 H       8.64200000      16.29200000      22.70600000
 O       6.66900000      12.93000000      28.19200000
 H       6.47200000      12.05900000      27.82000000
 H       6.10600000      13.53500000      27.68400000
 O       3.27600000      12.01900000      30.67200000
 H       4.16400000      11.81200000      31.04600000
 H       2.74400000      11.12500000      30.51800000
 O       2.34300000      14.48100000      21.16200000
 H       1.36500000      14.61100000      21.13500000
 H       2.30300000      13.48400000      21.37000000
 O       1.84700000       5.78300000      20.64800000
 H       1.08200000       5.28900000      20.87800000
 H       2.46200000       5.90400000      21.44300000
 O       7.26100000       7.19500000      26.84900000
 H       7.86100000       6.44000000      26.65900000
 H       7.19000000       7.77900000      26.04200000
 O       6.48900000       7.33800000      21.06200000
 H       5.90200000       7.24200000      20.26400000
 H       6.41800000       6.51500000      21.49800000
 O       4.25400000      15.39600000      30.54100000
 H       4.61300000      15.26500000      31.48700000
 H       4.13100000      16.38500000      30.45100000
 O       1.95900000      11.88000000      21.79800000
 H       1.04300000      11.71400000      22.13900000
 H       2.51200000      11.12800000      22.01500000
 O      10.50700000      14.94000000      29.63600000
 H      10.54500000      15.17900000      30.56300000
 H      10.47700000      15.75000000      29.08900000
 O       6.01600000       5.52100000      28.91500000
 H       6.46900000       5.91200000      28.12100000
 H       6.76100000       5.06200000      29.39400000
 O       5.13800000      14.23200000      20.32600000
 H       4.36100000      13.82300000      20.78200000
 H       5.41800000      14.88000000      21.07100000
 O       3.91600000       9.63700000      20.53400000
 H       4.80200000       9.93700000      20.20900000
 H       4.05300000       9.16800000      21.36400000
 O      10.38300000      10.13200000      20.23200000
 H      10.49700000       9.97800000      21.17300000
 H      10.89900000      10.94000000      20.14300000
 O       7.09800000       6.83800000      23.87500000
 H       8.01300000       7.08900000      23.62400000
 H       6.53500000       7.46800000      23.40800000
 O       4.60000000      12.73300000      23.13000000
 H       5.44100000      12.56800000      23.56200000
 H       3.85600000      12.61600000      23.73500000
 O       5.20500000      15.74200000      22.85100000
 H       5.38100000      14.86200000      23.24000000
 H       4.84700000      16.27600000      23.59500000
 O       3.10800000       5.76500000      22.95900000
 H       3.81200000       5.14000000      23.18000000
 H       2.50900000       5.50100000      23.73200000
 O       0.89700000      12.13100000      27.43000000
 H       1.56600000      11.92800000      28.13900000
 H       0.00000000      12.05200000      27.78900000
 O       3.00100000      13.08300000      25.54400000
 H       2.34200000      12.69900000      26.21000000
 H       3.88500000      13.06900000      25.95800000
 O       4.61200000      14.68600000      27.01900000
 H       3.97000000      14.29800000      27.65200000
 H       4.11600000      15.36700000      26.59900000
