166
XYZ file of cluster: frame_4500_66052.4be8a.6dad1 - created by MolEdiTo
 O      24.98800000      13.22500000      24.40000000
 H      24.09400000      13.31800000      23.87800000
 H      24.82800000      12.42900000      24.96500000
 O      20.67600000      11.27200000      24.15400000
 H      19.80900000      10.95500000      24.43300000
 H      21.10300000      11.58400000      24.93700000
 O      23.26500000      14.51700000      16.86700000
 H      23.76600000      14.52100000      17.70400000
 H      23.79800000      15.25600000      16.40000000
 O      23.44500000      13.92400000      20.45800000
 H      22.53700000      13.80700000      20.17100000
 H      23.39600000      13.97800000      21.45800000
 O      23.65100000      18.01900000      20.80000000
 H      23.44400000      18.50500000      21.63900000
 H      23.04800000      17.30100000      20.79700000
 O      22.91800000      16.43800000      25.33300000
 H      22.41900000      15.58000000      25.20100000
 H      22.30200000      17.19700000      25.20400000
 O      21.02900000      17.22800000      17.82200000
 H      20.71100000      17.92200000      18.49800000
 H      20.54900000      17.43500000      16.98300000
 O      23.66100000       9.85000000      25.56000000
 H      23.68900000      10.79300000      25.83000000
 H      23.92200000       9.90000000      24.58800000
 O      25.68100000      20.93700000      22.30100000
 H      26.24500000      21.46800000      21.71700000
 H      26.19100000      20.10700000      22.32500000
 O      24.76300000      16.44800000      15.59500000
 H      24.93800000      17.27400000      15.07700000
 H      25.65800000      16.28600000      16.03600000
 O      20.13900000      20.30200000      23.19100000
 H      20.88000000      20.82000000      23.58500000
 H      19.41700000      20.98500000      23.29300000
 O      16.22400000      11.35100000      25.42700000
 H      15.53400000      11.54600000      24.68000000
 H      16.68400000      10.59600000      25.07300000
 C      16.96400000      15.08900000      16.99800000
 C      16.85900000      15.66900000      15.59800000
 C      14.25100000      15.71900000      15.26000000
 H      15.52000000      17.17500000      16.21300000
 H      18.44800000      16.08200000      17.00400000
 O      15.57400000      17.34500000      14.14500000
 O      16.01500000      14.50600000      17.55400000
 O      17.95300000      15.64400000      17.73700000
 C      15.58800000      16.53100000      15.35700000
 O      17.97500000      16.49000000      15.33300000
 H      16.90300000      14.76200000      14.91700000
 O      14.07700000      14.79300000      14.48100000
 O      13.20900000      16.34900000      15.97200000
 H      13.68500000      17.04200000      16.43700000
 H      18.10000000      16.29400000      14.32900000
 H      14.84400000      17.97800000      14.23400000
 O      16.47900000      18.83300000      26.06500000
 H      15.56500000      18.47700000      26.07800000
 H      16.93600000      18.49600000      26.87000000
 O      25.11800000      16.20800000      23.40900000
 H      24.44000000      16.47700000      24.00900000
 H      25.96800000      16.11300000      23.99400000
 O      23.07400000      20.37700000      16.26700000
 H      22.91900000      20.63200000      17.23800000
 H      23.65700000      19.59000000      16.32300000
 O      16.11400000      12.57800000      21.38400000
 H      15.21900000      12.32900000      21.28400000
 H      16.08400000      13.40500000      21.81500000
 O      23.06200000      19.69200000      22.85300000
 H      23.79400000      20.30100000      22.56200000
 H      23.22300000      19.45300000      23.79700000
 O      18.00400000      17.53000000      23.83600000
 H      18.98400000      17.54600000      24.11800000
 H      17.59800000      18.06200000      24.60500000
 O      19.92200000      13.50300000      16.41500000
 H      20.82700000      13.69300000      16.58600000
 H      19.88500000      13.18800000      15.53200000
 O      23.86500000      20.18100000      18.96200000
 H      23.55500000      20.57100000      19.81000000
 H      23.94900000      19.24600000      19.19700000
 O      17.49800000      19.28600000      21.42500000
 H      18.39200000      19.69800000      21.57100000
 H      17.56600000      18.32600000      21.77600000
 O      22.17700000      10.90300000      16.08300000
 H      21.88200000      11.35100000      16.92500000
 H      23.16300000      11.12900000      16.24700000
 O      22.06900000      11.85600000      18.67200000
 H      21.74300000      12.82300000      18.60800000
 H      22.33400000      11.71500000      19.62500000
 O      14.99200000      11.58900000      17.63200000
 H      14.97900000      12.06900000      16.73300000
 H      15.88100000      11.75400000      18.07300000
 O      23.72400000      10.29400000      22.70100000
 H      22.93600000      10.03800000      22.26700000
 H      24.30700000      10.78100000      22.13900000
 O      18.27200000      15.85400000      20.84100000
 H      18.24600000      15.85000000      19.83800000
 H      17.38800000      15.64600000      21.14500000
 O      26.57400000      14.65100000      21.38200000
 H      26.01800000      15.29500000      21.87300000
 H      26.32400000      14.92400000      20.52100000
 O      17.52200000      13.44100000      24.08700000
 H      17.12500000      12.73400000      24.69600000
 H      16.76500000      14.06000000      23.85500000
 O      20.41800000      14.08800000      21.95700000
 H      19.59100000      14.57900000      21.85300000
 H      21.04500000      14.91200000      21.80500000
 O      16.99500000      19.38000000      18.63000000
 H      17.44500000      19.04900000      19.48400000
 H      17.16800000      18.73900000      17.96200000
 O      25.51600000      15.36600000      18.79600000
 H      24.66000000      15.72800000      19.17000000
 H      25.79000000      16.03700000      18.15900000
 O      17.70400000      12.73400000      19.16900000
 H      17.71000000      12.08300000      19.88300000
 H      17.06200000      13.38900000      19.47700000
 O      21.51800000      16.39000000      21.66600000
 H      21.37800000      16.64200000      20.70200000
 H      21.48200000      17.18500000      22.23000000
 O      26.57900000      11.80000000      22.30700000
 H      26.54100000      12.45300000      21.54600000
 H      26.28000000      12.15500000      23.13000000
 O      21.07900000      14.36700000      18.66000000
 H      21.58900000      15.02000000      18.05700000
 H      20.26100000      14.18400000      18.23500000
 O      24.78700000      11.96000000      16.46300000
 H      24.17200000      12.57200000      16.91400000
 H      25.00700000      12.40900000      15.58800000
 O      17.60600000      21.17500000      23.98100000
 H      17.66500000      20.97200000      24.92800000
 H      16.80700000      20.68700000      23.91300000
 O      24.64000000      20.88400000      25.08700000
 H      25.27000000      20.36900000      25.63600000
 H      25.05600000      21.18000000      24.24900000
 O      20.50900000      19.35400000      19.68100000
 H      20.62100000      20.22600000      19.23700000
 H      20.96400000      19.61400000      20.52900000
 O      18.07900000      10.70600000      21.80600000
 H      17.14100000      11.07500000      21.58000000
 H      18.66000000      11.44400000      22.12400000
 O      20.32000000      14.06900000      25.41100000
 H      19.31900000      14.07200000      25.59500000
 H      20.32900000      14.32700000      24.46000000
 O      22.73700000      12.98800000      23.10600000
 H      21.84200000      13.33200000      22.86200000
 H      22.69700000      12.12400000      23.60900000
 O      20.86400000      18.06400000      24.48700000
 H      20.48800000      18.83300000      24.01800000
 H      21.35500000      18.51500000      25.21700000
 O      19.47100000      18.92700000      15.89400000
 H      18.76900000      18.92200000      15.19800000
 H      19.74200000      19.92300000      16.00300000
 O      26.91900000      15.21000000      25.52600000
 H      26.02300000      14.96900000      25.40400000
 H      27.45600000      14.35800000      25.65000000
 O      16.04200000      15.95400000      25.46000000
 H      16.34700000      16.12900000      24.51500000
 H      16.94800000      15.98000000      25.85100000
 O      26.60700000      12.72300000      19.15500000
 H      25.94500000      13.26000000      19.65100000
 H      26.99200000      13.29800000      18.47800000
 O      24.86900000      10.66200000      19.78000000
 H      25.56500000      11.35900000      19.72700000
 H      25.29400000      10.05200000      19.19500000
 O      18.20200000      10.85400000      17.01200000
 H      18.38800000      11.60400000      17.45200000
 H      18.91400000      10.18000000      17.36100000
 O      25.12600000      17.72600000      26.62600000
 H      25.59300000      17.19800000      27.29700000
 H      25.75000000      17.80100000      25.91200000
