144
XYZ file of cluster: frame_1000_6f0b8.226b1.453f - created by MolEdiTo
 O      18.36900000      15.39300000       4.91000000
 H      18.35600000      16.32700000       5.44200000
 H      17.64100000      14.86900000       5.36800000
 O      15.17700000       7.74800000       1.57800000
 H      15.97400000       7.28400000       1.97700000
 H      14.72100000       8.14700000       2.33200000
 O      15.30200000      13.40500000       4.37000000
 H      16.03800000      12.70300000       4.16200000
 H      14.47800000      12.97500000       3.94800000
 O      21.00700000      12.44700000       8.63500000
 H      21.33900000      13.06000000       7.90300000
 H      21.88400000      11.90200000       8.81100000
 O      17.77300000      11.52200000       6.09300000
 H      18.70200000      11.87200000       6.14400000
 H      17.28100000      11.67900000       6.89000000
 O      19.50800000      10.41900000       9.20800000
 H      19.80300000      11.41100000       9.00500000
 H      19.95800000      10.40200000      10.04400000
 O      26.07100000      14.39600000       4.00300000
 H      25.14000000      14.56500000       3.65300000
 H      26.57300000      15.02800000       3.42100000
 O      19.72000000      14.13600000       1.04200000
 H      19.04800000      14.77400000       0.99300000
 H      19.36900000      13.31600000       1.28100000
 O      18.79000000       5.09900000       7.62200000
 H      19.67000000       4.58100000       7.58500000
 H      19.18300000       5.97300000       8.02500000
 O      23.43200000      10.97200000       8.97700000
 H      24.30400000      11.37500000       9.03700000
 H      23.69300000      10.05300000       9.24000000
 O      21.72500000      10.61700000       2.79600000
 H      20.90600000      10.21600000       2.59700000
 H      22.46300000       9.89600000       2.75900000
 O      23.54200000      15.53400000       4.12000000
 H      22.80200000      15.51100000       3.57000000
 H      23.42500000      16.26600000       4.82000000
 O      17.08100000      12.77100000       1.14600000
 H      17.00800000      13.49800000       1.85900000
 H      16.14400000      12.49000000       1.08600000
 O      20.33600000       9.30100000       5.72200000
 H      20.87200000       9.89800000       6.21400000
 H      20.91300000       8.87700000       5.02600000
 O      18.04000000       6.94600000      10.96400000
 H      18.42900000       7.36400000      10.19400000
 H      18.68700000       6.20900000      11.11200000
 O      21.19000000       7.22600000       4.14400000
 H      20.25800000       6.91600000       4.36100000
 H      21.14700000       7.73900000       3.25300000
 O      22.86500000      10.90200000       6.23300000
 H      23.43700000      11.70000000       6.00700000
 H      22.87800000      10.96300000       7.24100000
 O      27.14100000       5.70400000       8.39100000
 H      27.40900000       4.94000000       7.91200000
 H      26.15600000       5.52600000       8.52200000
 O      24.32800000       5.41000000       9.88300000
 H      23.37400000       5.58900000       9.88200000
 H      24.39800000       4.44500000      10.01000000
 O      26.44200000      10.60500000      10.54500000
 H      26.83100000      11.27600000      10.00100000
 H      26.81600000      11.06400000      11.38200000
 O      19.67800000       7.63300000       8.05300000
 H      19.88500000       8.00400000       7.15500000
 H      19.80700000       8.43700000       8.63500000
 O      24.54900000       6.71800000       3.85000000
 H      24.83800000       5.94100000       3.32200000
 H      24.31800000       6.30500000       4.63800000
 O      24.71700000       8.36600000       9.00700000
 H      24.30400000       7.69500000       9.53400000
 H      25.41800000       8.79300000       9.46700000
 O      20.07300000      12.45900000       4.32700000
 H      20.68500000      11.74400000       4.08100000
 H      19.24000000      12.07500000       3.95500000
 O      25.57700000      13.57400000       8.73600000
 H      25.14000000      14.49800000       8.76700000
 H      25.69900000      13.49400000       7.82900000
 O      23.36200000      12.62700000       2.93000000
 H      23.15500000      13.13700000       3.74100000
 H      22.79500000      11.79200000       2.90100000
 O      16.56200000       5.32000000       2.45300000
 H      15.86500000       4.99000000       1.80700000
 H      17.35000000       5.49600000       1.87600000
 O      24.82500000       6.63000000       6.76900000
 H      25.76100000       6.73200000       6.56900000
 H      24.74800000       7.38000000       7.41000000
 O      21.11900000      14.51300000       6.59000000
 H      21.23600000      15.42100000       6.11900000
 H      21.04600000      13.82600000       5.87500000
 O      25.67800000      11.13400000       2.43300000
 H      24.87500000      11.70800000       2.64200000
 H      25.95700000      10.81700000       3.34600000
 O      19.85600000       4.79100000       2.46100000
 H      19.50800000       5.33600000       1.68700000
 H      18.99300000       4.72200000       2.93600000
 O      19.04300000      10.74200000       1.89800000
 H      18.12300000      11.05400000       1.54900000
 H      19.67800000      10.65300000       1.17900000
 O      21.61700000      16.05200000       8.91800000
 H      21.39500000      15.20700000       8.37900000
 H      20.71400000      16.47600000       9.05400000
 O      25.20300000       9.92900000       5.08800000
 H      24.26900000       9.69600000       5.31700000
 H      25.74200000       9.53500000       5.81900000
 O      24.26200000      15.72500000       7.84400000
 H      24.44600000      16.43300000       7.22500000
 H      23.30400000      15.50600000       7.77000000
 O      16.47600000      10.63400000       3.44000000
 H      15.61500000      10.11800000       3.48600000
 H      16.78500000      10.50300000       4.36400000
 O      24.68900000      13.10900000       5.91100000
 H      24.99000000      14.05000000       5.83000000
 H      25.18900000      12.73100000       5.21500000
 O      16.18700000      12.22300000       8.42400000
 H      16.84500000      12.87300000       8.76100000
 H      15.64500000      11.92000000       9.17900000
 O      20.84000000      15.36200000       3.35200000
 H      20.90400000      14.88100000       2.45200000
 H      20.06300000      15.05600000       3.85300000
 O      18.15400000      13.85100000       8.11200000
 H      19.11900000      13.68600000       7.82500000
 H      17.57100000      13.94400000       7.28600000
 O      23.05200000       5.47700000       1.18300000
 H      22.61200000       5.36000000       2.03100000
 H      22.91700000       4.59600000       0.83300000
 O      17.95300000       7.94400000       2.66300000
 H      17.86200000       8.93000000       2.73300000
 H      17.63100000       7.66000000       3.54100000
 O      23.43800000       8.60600000       2.45300000
 H      23.64900000       8.09000000       3.23500000
 H      22.86800000       7.97000000       1.97800000
 O      20.97200000       7.94500000       1.19100000
 H      21.23300000       7.24100000       0.55500000
 H      20.11400000       8.22400000       0.87700000
 O      17.90500000       7.87900000       5.48800000
 H      18.13800000       7.34100000       6.26000000
 H      18.27600000       8.79600000       5.70300000
 O      16.94800000       8.96700000       8.16000000
 H      16.59900000       9.10900000       7.23400000
 H      17.42000000       9.82400000       8.35500000
 O      15.38400000       6.85500000       5.60900000
 H      16.36500000       6.94600000       5.39300000
 H      15.22100000       5.88100000       5.77800000
 O      16.49500000       5.49400000       8.65300000
 H      16.51900000       6.42500000       8.56700000
 H      17.35600000       5.16800000       8.28300000
