145
XYZ file of cluster: frame_1000_66cac.4a102.4dfc5 - created by MolEdiTo
 O      17.53700000      20.54200000      13.78100000
 H      17.65300000      19.76100000      14.36500000
 H      18.35500000      20.60100000      13.28800000
 O      22.99600000      20.36200000      21.51600000
 H      23.30500000      20.23800000      20.60200000
 H      22.15300000      19.79600000      21.54100000
 O      23.63800000      15.38100000      11.10900000
 H      22.93200000      14.88800000      10.65800000
 H      23.48700000      15.22700000      12.05500000
 O      21.46400000      14.22700000      16.07400000
 H      21.99200000      13.58900000      16.63500000
 H      21.90600000      15.15300000      16.20600000
 O      23.07400000      17.11600000      20.91900000
 H      22.72700000      16.36500000      20.41400000
 H      23.41100000      16.61200000      21.71500000
 O      21.86400000      15.14900000      13.10300000
 H      22.14100000      16.04000000      13.39500000
 H      22.07300000      14.46500000      13.78300000
 O      21.70000000      19.31500000      11.59100000
 H      21.60700000      18.38600000      11.90600000
 H      21.22800000      19.44800000      10.71300000
 O      22.00700000      11.92600000      13.65300000
 H      21.22200000      11.44000000      13.98600000
 H      21.92500000      12.00300000      12.61800000
 O      16.07100000      14.28000000      19.70900000
 H      15.42500000      13.50200000      19.86400000
 H      16.20800000      14.38300000      18.74300000
 O      17.18700000      11.33400000      16.82100000
 H      16.32900000      11.04300000      16.51500000
 H      17.49900000      10.50100000      17.31500000
 O      16.40700000      19.42600000      16.48700000
 H      16.16300000      18.70500000      17.07000000
 H      17.31900000      19.26100000      16.16800000
 O      15.82800000      12.36700000      12.40800000
 H      14.95700000      12.45500000      12.78000000
 H      16.13500000      11.53900000      12.84100000
 O      25.03100000      15.58000000      15.70500000
 H      24.42600000      16.12700000      15.15700000
 H      24.93500000      14.68100000      15.27200000
 O      24.92000000      18.82500000      12.14000000
 H      23.97300000      18.57400000      11.89400000
 H      25.01000000      19.54600000      12.77300000
 O      20.49300000      19.32400000      14.45200000
 H      21.36500000      19.36100000      14.88500000
 H      20.57900000      20.02900000      13.75700000
 C      14.62800000      15.37600000      16.68800000
 C      15.81600000      14.70500000      16.03300000
 C      16.37100000      16.66600000      14.48000000
 H      17.24700000      16.28400000      16.33800000
 H      13.64500000      13.94900000      16.03400000
 O      17.94800000      14.90600000      14.89900000
 O      14.58700000      16.33200000      17.42100000
 O      13.40200000      14.76000000      16.51500000
 C      16.89100000      15.62300000      15.48100000
 O      16.51200000      13.94700000      17.08100000
 H      15.43100000      14.11900000      15.21600000
 O      15.30200000      16.52400000      13.86400000
 O      17.27000000      17.61900000      14.30300000
 H      18.03400000      17.15000000      14.79600000
 H      16.94200000      13.07000000      16.69300000
 H      18.64100000      14.83200000      15.64700000
 O      24.24200000      13.44400000      13.99800000
 H      23.49600000      12.82800000      13.80700000
 H      24.92100000      13.30700000      13.31600000
 O      26.44200000      10.60500000      10.54500000
 H      26.83100000      11.27600000      10.00100000
 H      26.81600000      11.06400000      11.38200000
 O      26.20000000      14.93700000      12.19800000
 H      26.87200000      14.54500000      11.60200000
 H      25.39600000      15.14200000      11.63700000
 O      23.62700000      11.62600000      19.48500000
 H      22.95800000      12.10200000      20.08100000
 H      23.17300000      11.58400000      18.61400000
 O      23.99300000      12.80200000      17.01100000
 H      23.73600000      12.28800000      16.24200000
 H      24.85200000      13.26000000      16.71700000
 O      19.48600000      13.09200000      12.09400000
 H      20.15500000      13.87000000      12.19200000
 H      18.71600000      13.47800000      11.50300000
 O      26.39400000      12.19800000      15.50100000
 H      25.99200000      12.96100000      15.08500000
 H      27.06200000      11.87900000      14.77800000
 O      22.49500000      16.72200000      16.86000000
 H      21.83700000      17.21500000      17.44800000
 H      23.39800000      16.90200000      17.25200000
 O      21.90400000      15.12700000      19.60900000
 H      21.50900000      14.19000000      19.45900000
 H      21.11200000      15.60200000      19.19900000
 O      17.74500000      16.68400000      19.78800000
 H      17.12200000      16.02800000      20.15400000
 H      17.94100000      16.17400000      18.98400000
 O      20.37800000      20.29400000      18.80300000
 H      19.82600000      20.45500000      17.97600000
 H      20.33900000      21.08300000      19.41500000
 O      22.94200000      17.25200000      14.23500000
 H      22.33200000      17.37500000      15.03200000
 H      23.54200000      18.04100000      14.27900000
 O      25.37700000      18.73900000      20.30700000
 H      26.09700000      18.02900000      20.20600000
 H      24.64400000      18.40500000      19.78100000
 O      27.14600000      20.93700000      20.96200000
 H      27.72400000      20.60700000      20.24300000
 H      26.51800000      20.19800000      20.95800000
 O      19.46500000      17.24500000      15.94700000
 H      19.83100000      18.00100000      15.50700000
 H      19.84500000      17.25700000      16.83700000
 O      18.46500000      13.61800000      21.11800000
 H      18.72200000      14.55300000      21.35200000
 H      17.75200000      13.67900000      20.46700000
 O      19.14100000      14.24400000      17.45800000
 H      19.94400000      14.30100000      16.83600000
 H      19.34600000      13.35000000      17.93200000
 O      19.72600000      10.09000000      12.55000000
 H      19.59100000      11.04100000      12.35400000
 H      18.79800000       9.72600000      12.59600000
 O      17.60900000      15.00400000      11.78400000
 H      17.34900000      14.68300000      12.65800000
 H      16.76800000      15.48500000      11.55700000
 O      24.90900000      18.19600000      17.08700000
 H      25.59400000      18.72300000      17.59100000
 H      25.19800000      17.27100000      17.06000000
 O      24.29400000      19.63300000      14.80800000
 H      24.51400000      19.57600000      15.80400000
 H      24.12100000      20.59800000      14.54600000
 O      18.13000000      18.74800000      11.66600000
 H      17.58200000      19.01600000      12.39900000
 H      18.66000000      17.98100000      12.06700000
 O      25.50200000       9.99500000      20.71100000
 H      24.90500000      10.60800000      20.14500000
 H      26.14100000      10.70100000      21.01600000
 O      25.05500000      14.41700000      20.53700000
 H      24.17700000      14.89100000      20.29600000
 H      24.72100000      13.54000000      20.65400000
 O      18.87200000      10.04400000      20.34900000
 H      18.21400000      10.68100000      20.66900000
 H      19.26200000       9.56500000      21.12300000
 O      19.73900000      16.55200000      12.18400000
 H      18.94900000      16.04700000      11.84300000
 H      20.45900000      15.95600000      12.55800000
 O      20.39500000      12.13100000      18.57700000
 H      20.11700000      11.43400000      19.19800000
 H      20.44000000      11.63000000      17.71800000
 O      20.38500000      17.53000000      18.67700000
 H      19.48400000      17.27800000      19.08300000
 H      20.48900000      18.51100000      18.87500000
