120
XYZ file of cluster: frame_1000_ca9fa.1412.4ed5e - created by MolEdiTo
 O      30.30300000       9.98200000      15.28300000
 H      30.21500000       9.00400000      15.49000000
 H      30.65100000      10.27400000      16.16100000
 O      29.17300000       9.80700000      20.51800000
 H      29.00600000       9.15100000      19.83200000
 H      29.66600000       9.30800000      21.17300000
 O      28.14000000       2.80500000      13.70700000
 H      28.84700000       3.39400000      14.08400000
 H      28.19500000       2.94000000      12.75800000
 O      28.04400000      10.61200000      13.64100000
 H      28.72200000      10.34900000      14.28600000
 H      28.09600000       9.94100000      12.92300000
 O      29.78700000       7.97700000      18.51700000
 H      30.58900000       7.54300000      18.13200000
 H      29.36900000       8.19100000      17.67800000
 O      30.09700000       4.54700000      17.85100000
 H      29.97100000       3.80300000      18.44700000
 H      30.84900000       4.97600000      18.29400000
 O      30.65300000       2.71600000      20.05800000
 H      31.06200000       1.90700000      19.64900000
 H      29.90100000       2.35700000      20.48200000
 O      27.15300000       6.86600000      15.20900000
 H      27.89900000       6.64400000      14.64400000
 H      26.44900000       6.73000000      14.57500000
 O      27.41100000       2.71200000      19.95600000
 H      26.41800000       2.96600000      19.71500000
 H      27.65200000       2.21600000      19.14100000
 O      28.90000000       5.63700000      13.22400000
 H      27.94800000       5.76700000      12.87900000
 H      29.40500000       5.59400000      12.36400000
 O      27.52300000       2.91900000      10.86200000
 H      27.84900000       2.27800000      10.20400000
 H      26.70100000       3.24500000      10.38200000
 O      29.07000000       1.47300000      17.13100000
 H      28.88500000       1.28900000      16.20900000
 H      30.08700000       1.45300000      17.17800000
 O      27.29900000       4.88900000      17.41600000
 H      27.36400000       5.70400000      16.83100000
 H      28.21700000       4.59400000      17.50000000
 O      27.39200000       8.21300000      11.99900000
 H      27.00400000       8.84500000      11.39400000
 H      26.69300000       7.52700000      12.29300000
 O      30.39300000       3.71900000      15.12200000
 H      30.12400000       4.53600000      14.60800000
 H      30.17600000       4.00300000      16.07300000
 O      30.31000000       8.58600000      12.19800000
 H      30.34200000       9.44700000      11.73200000
 H      29.35900000       8.21500000      12.10700000
 O      29.19800000       5.47600000      10.60200000
 H      28.71800000       4.66700000      10.26200000
 H      28.60500000       6.17100000      10.23300000
 O      37.06900000       3.00900000      15.46500000
 H      37.33600000       2.93700000      16.43300000
 H      37.62900000       3.74100000      15.16100000
 O      32.85500000       2.12800000      11.82700000
 H      32.75400000       2.29800000      10.83900000
 H      33.06300000       1.15700000      11.83300000
 O      35.44600000       1.11900000      19.39700000
 H      35.08600000       0.16200000      19.36300000
 H      34.79000000       1.58900000      18.77400000
 O      33.85300000       7.96200000      14.39700000
 H      33.33600000       8.40800000      13.71300000
 H      34.09800000       7.04000000      14.20600000
 O      36.03800000      10.18200000      19.18300000
 H      35.72300000      10.74600000      19.87000000
 H      37.00400000      10.32300000      19.24400000
 O      37.16400000       5.70600000      10.53100000
 H      36.32400000       6.24000000      10.39400000
 H      37.80000000       6.36000000      10.90400000
 O      37.48900000       2.36500000      17.98400000
 H      36.86700000       2.10500000      18.69600000
 H      38.31400000       1.80400000      18.02900000
 O      35.63800000      10.15900000      14.24100000
 H      34.79000000       9.79700000      14.55100000
 H      36.08600000       9.29700000      14.08700000
 O      36.35300000       7.02100000      21.09900000
 H      36.20200000       7.69300000      21.74500000
 H      35.43200000       7.07500000      20.73900000
 O      34.20400000       6.29800000      17.60200000
 H      34.70300000       6.27000000      18.47600000
 H      34.86700000       5.96100000      16.87200000
 O      34.85600000       7.12500000      10.48600000
 H      34.46200000       6.65300000      11.29500000
 H      34.03900000       7.57700000      10.11000000
 O      33.17100000      11.18600000      17.66800000
 H      33.84700000      10.46500000      17.77800000
 H      33.81400000      11.95800000      17.35400000
 O      33.93100000       4.86200000      11.66900000
 H      34.56700000       4.76700000      10.88400000
 H      33.04300000       4.67600000      11.33200000
 O      33.97300000       8.00100000      20.53400000
 H      33.72800000       8.43400000      19.71000000
 H      33.34000000       8.20700000      21.21800000
 O      37.23400000       4.43100000      21.19900000
 H      36.42300000       4.44700000      20.55900000
 H      37.11900000       5.28000000      21.69500000
 O      34.55200000       2.66300000      13.92100000
 H      33.65700000       2.78300000      14.38300000
 H      34.08000000       2.53600000      13.02100000
 O      34.97500000       9.28600000      17.02100000
 H      34.88700000       8.30600000      16.87100000
 H      35.59900000       9.36600000      17.83000000
 O      36.83400000       2.84900000      10.42200000
 H      36.31000000       2.87300000      11.27400000
 H      37.18400000       3.72800000      10.49100000
 O      37.11100000       5.33800000      18.02600000
 H      38.06900000       5.34100000      17.91300000
 H      36.95800000       4.41000000      18.16600000
 O      37.22500000       7.68300000      14.27500000
 H      37.50400000       7.87700000      15.24300000
 H      36.39200000       7.18000000      14.35100000
 O      33.67800000       1.60000000      17.10800000
 H      34.15300000       2.15200000      16.44200000
 H      33.54300000       0.75800000      16.58100000
 O      34.31300000       4.60700000      20.69400000
 H      33.97900000       5.01400000      21.52100000
 H      33.65300000       3.93400000      20.50400000
 O      34.95400000       5.51400000      14.30600000
 H      34.47900000       5.24000000      13.48800000
 H      35.18800000       4.63600000      14.73500000
