114
XYZ file of cluster: frame_1000_9edfd.75bff.1994 - created by MolEdiTo
 O      29.88600000      22.32000000       8.12700000
 H      29.76700000      21.73800000       8.93400000
 H      29.08000000      22.80200000       8.03900000
 O      23.10900000      18.26900000       1.83800000
 H      22.51200000      17.62900000       2.38200000
 H      22.40500000      18.92700000       1.56000000
 O      26.26300000      22.81200000       3.43300000
 H      26.18000000      22.83200000       4.39600000
 H      26.74000000      21.95600000       3.31900000
 O      28.22200000      24.09100000      11.31300000
 H      28.64200000      24.92300000      11.66800000
 H      28.37700000      24.13600000      10.36800000
 O      23.54000000      23.24600000       2.05300000
 H      23.33100000      24.07600000       1.56000000
 H      23.98200000      23.56600000       2.87700000
 O      28.32300000      24.68300000       8.49500000
 H      28.26800000      25.70400000       8.77600000
 H      28.78400000      24.66500000       7.62300000
 O      29.66900000      17.46400000       7.35500000
 H      28.82400000      17.24800000       6.75300000
 H      29.30800000      18.11000000       8.00000000
 O      22.01400000      20.86300000       1.52300000
 H      21.70600000      21.73600000       1.61900000
 H      22.22100000      20.73100000       0.61100000
 O      27.66600000      16.69400000       2.88800000
 H      27.19500000      17.54000000       3.12800000
 H      27.86700000      16.80700000       1.90400000
 O      21.67700000      23.34500000      10.19100000
 H      21.05800000      23.49700000       9.47100000
 H      21.69000000      24.24300000      10.52700000
 O      23.54200000      15.53400000       4.12000000
 H      22.80200000      15.51100000       3.57000000
 H      23.42500000      16.26600000       4.82000000
 O      23.02600000      22.24100000       7.58000000
 H      22.66100000      22.54800000       8.44800000
 H      22.62400000      21.30600000       7.38100000
 O      29.29900000      22.12600000       2.67500000
 H      28.65700000      22.52500000       3.30400000
 H      29.10800000      22.68300000       1.88500000
 O      26.76700000      26.35100000       4.03100000
 H      26.48800000      25.51900000       4.53500000
 H      26.01300000      26.96100000       4.07000000
 O      26.14000000      18.80100000       3.08100000
 H      25.30500000      18.46000000       2.65400000
 H      26.45300000      19.53100000       2.54000000
 O      25.17200000      15.94500000       0.79000000
 H      24.36900000      16.17700000       0.21700000
 H      25.23500000      16.78000000       1.24500000
 O      26.65400000      25.17200000       1.48300000
 H      26.89300000      25.42700000       2.39600000
 H      26.35400000      24.26600000       1.60300000
 O      27.63700000      17.19700000       5.78600000
 H      26.71400000      17.63900000       5.93700000
 H      27.52200000      17.10800000       4.79300000
 O      28.41300000      19.06200000       9.56700000
 H      27.90300000      19.88200000       9.58900000
 H      28.05600000      18.56100000      10.37700000
 O      28.94500000      19.47600000       1.68400000
 H      29.55100000      20.22800000       1.74200000
 H      28.06500000      19.94300000       1.68600000
 O      21.61700000      16.05200000       8.91800000
 H      21.39500000      15.20700000       8.37900000
 H      20.71400000      16.47600000       9.05400000
 O      24.26200000      15.72500000       7.84400000
 H      24.44600000      16.43300000       7.22500000
 H      23.30400000      15.50600000       7.77000000
 O      25.75500000      20.14000000       9.49400000
 H      25.45100000      19.65400000       8.69200000
 H      25.48000000      19.51200000      10.10800000
 O      26.26500000      23.90500000       6.40600000
 H      26.41900000      24.80600000       6.92400000
 H      26.79300000      23.24100000       6.88700000
 O      30.33000000      24.76300000       6.46100000
 H      31.02300000      24.99500000       5.79200000
 H      30.37900000      23.79700000       6.49800000
 O      23.89300000      20.45400000       4.63200000
 H      23.37500000      20.09500000       3.89300000
 H      24.22900000      21.32200000       4.33000000
 O      23.66700000      23.81400000       5.66000000
 H      24.60300000      23.92200000       5.90800000
 H      23.43300000      23.21400000       6.34100000
 O      27.09300000      20.75000000       6.54000000
 H      27.15900000      19.93400000       7.03500000
 H      26.23200000      20.61100000       6.11800000
 O      21.89600000      24.94300000       3.85400000
 H      22.38400000      24.46400000       4.58600000
 H      21.48700000      24.17200000       3.37800000
 O      21.35800000      22.46700000       4.16000000
 H      21.72500000      22.38700000       5.05000000
 H      21.15900000      21.56000000       3.94100000
 O      24.34900000      24.91400000       8.86400000
 H      25.05000000      24.32300000       9.20700000
 H      23.55600000      24.43300000       9.04800000
 O      26.31700000      20.66800000       0.89700000
 H      26.13300000      19.79600000       0.41600000
 H      26.20700000      21.31100000       0.20500000
 O      21.72500000      17.64200000       5.65100000
 H      20.76300000      17.49200000       5.60100000
 H      21.70900000      18.57100000       5.91100000
 O      23.53400000      18.33700000       8.73400000
 H      24.01700000      17.49300000       8.99600000
 H      22.59800000      18.16800000       9.11400000
 O      24.91800000      18.27500000       6.12800000
 H      24.80900000      18.68300000       5.24300000
 H      24.21700000      18.64500000       6.63900000
 O      24.44000000      22.56500000      10.81000000
 H      23.51800000      22.30900000      10.64300000
 H      25.03700000      22.21400000      10.05400000
 O      30.34700000      24.97100000       2.02100000
 H      29.87400000      25.37700000       2.74500000
 H      29.73000000      24.98200000       1.23800000
 O      22.13500000      25.89600000       6.91200000
 H      21.78600000      26.36500000       6.07300000
 H      23.06600000      25.67700000       6.59400000
