105
XYZ file of cluster: frame_1000_9071.c834c.c5ca6 - created by MolEdiTo
 O       2.51100000      29.21600000      28.66300000
 H       2.18400000      29.69300000      29.45500000
 H       3.36300000      29.67400000      28.51300000
 O       8.56700000      28.04100000      30.41200000
 H       7.70300000      28.21300000      30.82100000
 H       9.02700000      28.92100000      30.33100000
 O       4.84400000      27.35700000      28.03800000
 H       4.50900000      27.84400000      27.26700000
 H       5.82200000      27.47800000      28.12000000
 O       7.21800000      26.34200000      28.56200000
 H       7.96600000      26.88600000      28.90600000
 H       6.93000000      25.85600000      29.34100000
 O       9.02100000      28.24300000      26.20400000
 H       9.74100000      27.64900000      26.00700000
 H       8.59800000      28.42400000      25.36500000
 O       6.84000000      29.48000000      27.48200000
 H       7.70900000      28.97400000      27.24500000
 H       6.27700000      29.30300000      26.66800000
 O       9.80600000      30.07100000      29.03000000
 H       8.88600000      30.09600000      28.75900000
 H      10.03200000      30.88900000      28.58700000
 O       9.52800000      28.50200000      34.97600000
 H       8.82900000      29.18000000      35.11400000
 H      10.27900000      28.73000000      35.56300000
 O       8.83300000      25.93900000      35.02000000
 H       8.01400000      25.90500000      34.54100000
 H       9.03700000      26.88800000      35.20500000
 O       3.37900000      26.74800000      32.12600000
 H       2.41200000      26.90700000      32.34100000
 H       3.59400000      27.22400000      31.31900000
 O       4.58300000      26.72800000      34.94700000
 H       4.18900000      27.13900000      34.15600000
 H       4.52400000      27.35700000      35.76800000
 O      11.21100000      27.01300000      32.72700000
 H      10.56400000      26.85000000      32.00700000
 H      10.46100000      27.27300000      33.30800000
 O       1.17700000      28.03700000      34.59600000
 H       1.27100000      28.92800000      35.02900000
 H       1.70700000      27.48200000      35.14900000
 O       3.89100000      29.38900000      36.36800000
 H       2.95600000      29.39400000      36.72700000
 H       4.35500000      29.60200000      37.20900000
 O      10.69200000      30.42000000      36.86100000
 H      10.47700000      31.08500000      37.54100000
 H      11.24500000      30.97000000      36.17400000
 O       6.29800000      28.51900000      33.51200000
 H       7.17000000      28.65200000      33.92500000
 H       5.82300000      27.67000000      33.79400000
 O       4.76400000      32.29200000      29.53800000
 H       5.45900000      31.85900000      28.94700000
 H       5.05700000      32.24100000      30.44900000
 O       7.16200000      33.68500000      26.31600000
 H       7.25900000      34.19800000      27.13600000
 H       6.94800000      32.78900000      26.51600000
 O      10.32900000      33.64800000      26.71200000
 H       9.52800000      33.87400000      26.21100000
 H      10.87200000      34.44400000      26.44400000
 O       2.73300000      36.58800000      26.36600000
 H       3.06000000      37.47000000      26.25800000
 H       1.95600000      36.39100000      25.79200000
 O       3.25100000      34.65300000      28.08300000
 H       3.73800000      34.06800000      27.64100000
 H       2.98000000      35.44200000      27.48600000
 O       9.36400000      36.01400000      28.74200000
 H       8.44200000      35.67100000      28.77900000
 H       9.38100000      36.25800000      27.79200000
 O       6.93200000      34.63700000      28.78900000
 H       6.56600000      35.52000000      28.47700000
 H       6.27100000      34.28000000      29.36400000
 O       6.98000000      36.52200000      36.63700000
 H       6.94200000      37.15500000      37.38000000
 H       6.10000000      36.54700000      36.38800000
 O       6.89400000      35.98100000      33.56000000
 H       6.80200000      36.07200000      34.55400000
 H       6.02300000      35.76100000      33.19700000
 O       7.24800000      33.22300000      35.01800000
 H       6.63900000      33.02200000      34.25700000
 H       6.60400000      33.44800000      35.67700000
 O       4.55000000      32.52600000      34.12600000
 H       4.77600000      31.65100000      34.47000000
 H       4.31800000      32.98100000      34.97700000
 O       3.99200000      36.68200000      34.84900000
 H       3.50400000      36.02000000      35.36800000
 H       3.82400000      36.42400000      33.84100000
 O       3.92900000      35.85300000      32.33600000
 H       3.84300000      36.71900000      31.85900000
 H       3.91200000      35.13100000      31.64500000
 O       8.99600000      34.90600000      36.63700000
 H       8.06000000      35.25200000      36.73700000
 H       8.83000000      34.14300000      35.99300000
 O       7.18600000      32.91200000      32.10600000
 H       7.65100000      33.52600000      31.47600000
 H       7.46300000      33.23200000      32.99900000
 O       4.96400000      33.69600000      36.58400000
 H       5.20000000      33.81400000      37.52900000
 H       4.14100000      34.25000000      36.40200000
 O       2.18000000      32.82700000      32.48600000
 H       2.47500000      33.52000000      33.05500000
 H       2.98000000      32.60600000      31.95800000
 O       9.69800000      36.50700000      33.55400000
 H       8.70100000      36.36300000      33.60300000
 H       9.68300000      37.52400000      33.64600000
 O       2.12600000      35.24900000      36.24000000
 H       1.28100000      34.84500000      35.82400000
 H       1.76200000      35.82300000      36.97800000
