135
XYZ file of cluster: frame_1000_75889.6f5e9.9cca4 - created by MolEdiTo
 O      22.99600000      20.36200000      21.51600000
 H      23.30500000      20.23800000      20.60200000
 H      22.15300000      19.79600000      21.54100000
 O      23.07400000      17.11600000      20.91900000
 H      22.72700000      16.36500000      20.41400000
 H      23.41100000      16.61200000      21.71500000
 O      22.59400000      25.42300000      30.61800000
 H      22.62500000      25.22200000      29.73600000
 H      22.76000000      26.36500000      30.69100000
 O      16.19300000      21.71700000      29.10700000
 H      16.27300000      21.11300000      28.36700000
 H      16.60900000      22.54600000      28.77000000
 O      16.94600000      24.31000000      28.28600000
 H      16.58100000      25.03400000      27.74800000
 H      17.87600000      24.65300000      28.52500000
 O      19.35500000      25.66700000      28.93500000
 H      20.06100000      26.29000000      28.61500000
 H      19.04900000      25.93900000      29.79800000
 O      25.54400000      23.05300000      29.31800000
 H      24.55900000      23.05500000      29.32300000
 H      25.83400000      22.74700000      28.45100000
 O      18.41000000      21.03700000      26.36700000
 H      18.53100000      20.49600000      25.53900000
 H      17.46600000      20.82200000      26.49300000
 O      20.14800000      15.61100000      28.45300000
 H      21.11800000      15.89900000      28.19600000
 H      20.28400000      14.94500000      29.11000000
 O      23.82800000      23.74300000      25.64700000
 H      24.55600000      24.36100000      25.56300000
 H      23.90200000      23.28000000      26.54300000
 O      19.16700000      14.99300000      24.12700000
 H      19.39400000      14.38300000      24.88400000
 H      19.73800000      15.76600000      24.32100000
 O      16.48100000      20.98600000      24.05400000
 H      16.38200000      20.96000000      23.02400000
 H      16.68700000      20.01300000      24.33100000
 O      21.27600000      19.88300000      26.82200000
 H      21.10400000      20.30000000      25.92700000
 H      20.45400000      20.05900000      27.36900000
 O      19.22900000      18.85100000      29.30200000
 H      19.22200000      17.99400000      29.88600000
 H      18.48000000      19.38300000      29.60600000
 O      22.63600000      16.75700000      27.78900000
 H      22.20500000      17.37300000      28.45500000
 H      23.56600000      17.07600000      27.73200000
 O      21.34900000      23.11500000      20.31100000
 H      21.50500000      23.40500000      21.26000000
 H      20.35600000      23.24200000      20.10700000
 O      20.39900000      23.10000000      27.52600000
 H      19.62500000      22.75900000      26.97400000
 H      20.16800000      23.98600000      27.87700000
 O      21.46100000      20.60200000      24.14500000
 H      21.48300000      19.66600000      24.30100000
 H      22.06100000      20.71300000      23.38200000
 O      22.34300000      25.82300000      27.61600000
 H      22.48800000      24.95400000      27.15000000
 H      22.01400000      26.49800000      26.96100000
 O      21.63200000      23.28600000      23.05000000
 H      21.49600000      22.50800000      23.64900000
 H      22.63000000      23.38300000      23.03000000
 O      25.84400000      25.66800000      24.67900000
 H      26.13700000      24.85200000      24.21100000
 H      26.52400000      25.83400000      25.38100000
 O      18.59000000      22.84300000      21.92900000
 H      18.35100000      23.16900000      22.84800000
 H      19.26400000      23.48600000      21.58000000
 O      16.16200000      24.46600000      23.51800000
 H      15.79400000      24.52300000      22.60600000
 H      15.32400000      24.52300000      24.06400000
 O      22.72200000      26.70600000      23.07700000
 H      22.55300000      26.24800000      23.93700000
 H      23.69000000      26.66500000      23.06700000
 O      24.52500000      22.54000000      22.13100000
 H      24.56600000      23.16900000      21.38800000
 H      23.96400000      21.79200000      21.79400000
 O      22.82300000      22.17200000      27.62700000
 H      22.73700000      21.27000000      27.42300000
 H      21.82400000      22.47600000      27.72900000
 O      20.67700000      18.39400000      21.81700000
 H      20.78200000      18.02600000      22.72000000
 H      21.36700000      17.84800000      21.39400000
 O      15.81400000      18.45200000      21.47700000
 H      16.64100000      18.91500000      21.42300000
 H      16.01600000      17.65200000      21.99100000
 O      18.34300000      19.89700000      21.97000000
 H      19.21100000      19.38600000      22.16100000
 H      18.62900000      20.72200000      21.63200000
 O      19.02700000      17.49900000      26.87100000
 H      19.26900000      16.68700000      27.37300000
 H      19.39100000      18.20000000      27.42100000
 O      20.43500000      25.78700000      24.73000000
 H      19.45500000      25.93800000      24.76400000
 H      20.42900000      24.85100000      24.69800000
 O      26.01600000      18.49600000      29.19100000
 H      25.85300000      18.71500000      28.22900000
 H      25.88000000      17.60000000      29.31500000
 O      27.14600000      20.93700000      20.96200000
 H      27.72400000      20.60700000      20.24300000
 H      26.51800000      20.19800000      20.95800000
 O      25.85800000      18.78700000      26.17700000
 H      26.36400000      19.62600000      26.36000000
 H      25.61000000      18.91400000      25.23100000
 O      21.53900000      17.00100000      24.36700000
 H      21.78700000      17.50900000      25.16500000
 H      22.33300000      16.57100000      24.03100000
 O      17.78500000      26.78200000      23.32800000
 H      17.21800000      25.94100000      23.60500000
 H      17.35500000      27.09900000      22.50600000
 O      18.39600000      23.34600000      24.88400000
 H      18.48000000      22.52500000      25.36100000
 H      17.51700000      23.19700000      24.55400000
 O      16.19000000      19.58500000      27.26500000
 H      15.48900000      19.07300000      26.81700000
 H      16.62600000      18.94000000      27.85100000
 O      20.06500000      25.85300000      21.56600000
 H      20.44300000      25.91400000      22.47100000
 H      19.19300000      26.31700000      21.62300000
 O      27.07800000      20.26800000      23.71600000
 H      27.10900000      20.66800000      22.80100000
 H      26.31200000      20.66700000      24.16500000
 O      17.17400000      16.32500000      22.99800000
 H      16.79700000      15.47900000      23.32900000
 H      18.13200000      16.10900000      23.26400000
 O      18.01200000      18.82900000      24.81600000
 H      18.52900000      18.44400000      25.54700000
 H      17.81100000      18.03700000      24.26900000
 O      24.58600000      21.17900000      24.48100000
 H      24.72400000      21.48300000      23.53400000
 H      24.22400000      21.91100000      24.97900000
 O      24.07400000      18.34000000      23.63700000
 H      24.67600000      18.52600000      22.89200000
 H      23.96200000      19.25400000      24.08500000
 O      25.98300000      16.05200000      26.29600000
 H      25.94600000      16.86800000      25.80600000
 H      26.87500000      15.67600000      26.01600000
