135
XYZ file of cluster: frame_1000_6f0b8.49166.c4bef - created by MolEdiTo
 O      17.72300000      11.84000000      28.44300000
 H      17.57800000      12.19000000      29.34900000
 H      18.25300000      12.46600000      27.96600000
 O      23.99900000      13.97900000      26.57100000
 H      23.93200000      14.35800000      27.43200000
 H      24.58600000      14.59500000      26.03200000
 O      21.01100000      10.72800000      29.64800000
 H      20.72000000      11.17300000      28.82600000
 H      22.01500000      10.78300000      29.67100000
 O      18.41000000      21.03700000      26.36700000
 H      18.53100000      20.49600000      25.53900000
 H      17.46600000      20.82200000      26.49300000
 O      20.14800000      15.61100000      28.45300000
 H      21.11800000      15.89900000      28.19600000
 H      20.28400000      14.94500000      29.11000000
 O      21.27600000      19.88300000      26.82200000
 H      21.10400000      20.30000000      25.92700000
 H      20.45400000      20.05900000      27.36900000
 O      19.22900000      18.85100000      29.30200000
 H      19.22200000      17.99400000      29.88600000
 H      18.48000000      19.38300000      29.60600000
 O      20.77800000      14.06500000      26.07400000
 H      20.85700000      13.15100000      26.41500000
 H      21.66900000      14.47000000      26.05000000
 O      22.63600000      16.75700000      27.78900000
 H      22.20500000      17.37300000      28.45500000
 H      23.56600000      17.07600000      27.73200000
 O      17.76700000      14.18800000      26.99400000
 H      17.14500000      14.83000000      26.52500000
 H      18.59100000      14.82500000      27.20300000
 O      22.71800000      13.86100000      29.67000000
 H      22.52300000      13.03000000      29.96300000
 H      23.17600000      14.19100000      30.47100000
 O      20.08800000      11.30200000      27.17100000
 H      19.12000000      11.08100000      27.22900000
 H      20.50200000      10.48000000      26.74800000
 O      27.07600000      12.89400000      28.31000000
 H      26.18000000      12.62800000      28.29000000
 H      27.62400000      12.50200000      27.62000000
 O      23.84200000      11.08400000      27.74900000
 H      24.18100000      10.95300000      28.67600000
 H      24.57000000      11.56900000      27.36600000
 O      19.02700000      17.49900000      26.87100000
 H      19.26900000      16.68700000      27.37300000
 H      19.39100000      18.20000000      27.42100000
 O      26.01600000      18.49600000      29.19100000
 H      25.85300000      18.71500000      28.22900000
 H      25.88000000      17.60000000      29.31500000
 O      15.13100000      13.15100000      27.51800000
 H      15.98200000      13.67300000      27.55500000
 H      15.36400000      12.25600000      27.23400000
 O      25.85800000      18.78700000      26.17700000
 H      26.36400000      19.62600000      26.36000000
 H      25.61000000      18.91400000      25.23100000
 O      24.79900000      10.08900000      30.25800000
 H      25.24000000      10.73600000      30.85400000
 H      24.31000000       9.43900000      30.79500000
 O      16.19000000      19.58500000      27.26500000
 H      15.48900000      19.07300000      26.81700000
 H      16.62600000      18.94000000      27.85100000
 O      25.98300000      16.05200000      26.29600000
 H      25.94600000      16.86800000      25.80600000
 H      26.87500000      15.67600000      26.01600000
 O      18.36900000      15.39300000      36.21900000
 H      18.35600000      16.32700000      36.75100000
 H      17.64100000      14.86900000      36.67700000
 O      16.68300000      19.16100000      35.52200000
 H      16.33000000      20.08000000      35.43500000
 H      15.89200000      18.67200000      35.47200000
 O      15.30200000      13.40500000      35.67900000
 H      16.03800000      12.70300000      35.47100000
 H      14.47800000      12.97500000      35.25700000
 O      23.10900000      18.26900000      33.14700000
 H      22.51200000      17.62900000      33.69100000
 H      22.40500000      18.92700000      32.86900000
 O      26.07100000      14.39600000      35.31200000
 H      25.14000000      14.56500000      34.96200000
 H      26.57300000      15.02800000      34.73000000
 O      19.72000000      14.13600000      32.35100000
 H      19.04800000      14.77400000      32.30200000
 H      19.36900000      13.31600000      32.59000000
 O      17.55200000      16.39200000      32.49200000
 H      16.94900000      16.21600000      31.79100000
 H      16.98600000      16.37200000      33.31100000
 O      22.01400000      20.86300000      32.83200000
 H      21.70600000      21.73600000      32.92800000
 H      22.22100000      20.73100000      31.92000000
 O      21.72500000      10.61700000      34.10500000
 H      20.90600000      10.21600000      33.90600000
 H      22.46300000       9.89600000      34.06800000
 O      23.54200000      15.53400000      35.42900000
 H      22.80200000      15.51100000      34.87900000
 H      23.42500000      16.26600000      36.12900000
 O      17.08100000      12.77100000      32.45500000
 H      17.00800000      13.49800000      33.16800000
 H      16.14400000      12.49000000      32.39500000
 O      26.14000000      18.80100000      34.39000000
 H      25.30500000      18.46000000      33.96300000
 H      26.45300000      19.53100000      33.84900000
 O      25.17200000      15.94500000      32.09900000
 H      24.36900000      16.17700000      31.52600000
 H      25.23500000      16.78000000      32.55400000
 O      20.07300000      12.45900000      35.63600000
 H      20.68500000      11.74400000      35.39000000
 H      19.24000000      12.07500000      35.26400000
 O      23.36200000      12.62700000      34.23900000
 H      23.15500000      13.13700000      35.05000000
 H      22.79500000      11.79200000      34.21000000
 O      20.02400000      17.70200000      33.64100000
 H      20.49800000      16.89100000      33.94200000
 H      19.14600000      17.34500000      33.41600000
 O      25.67800000      11.13400000      33.74200000
 H      24.87500000      11.70800000      33.95100000
 H      25.95700000      10.81700000      34.65500000
 O      19.04300000      10.74200000      33.20700000
 H      18.12300000      11.05400000      32.85800000
 H      19.67800000      10.65300000      32.48800000
 O      19.42300000      20.16700000      35.00000000
 H      18.48700000      20.03500000      35.29500000
 H      19.64800000      19.24400000      34.76400000
 O      16.47600000      10.63400000      34.74900000
 H      15.61500000      10.11800000      34.79500000
 H      16.78500000      10.50300000      35.67300000
 O      24.68900000      13.10900000      37.22000000
 H      24.99000000      14.05000000      37.13900000
 H      25.18900000      12.73100000      36.52400000
 O      23.89300000      20.45400000      35.94100000
 H      23.37500000      20.09500000      35.20200000
 H      24.22900000      21.32200000      35.63900000
 O      20.84000000      15.36200000      34.66100000
 H      20.90400000      14.88100000      33.76100000
 H      20.06300000      15.05600000      35.16200000
 O      26.31700000      20.66800000      32.20600000
 H      26.13300000      19.79600000      31.72500000
 H      26.20700000      21.31100000      31.51400000
