366
XYZ file of cluster: frame_8000_750b3.9e5b0.c5c88 - created by MolEdiTo
 O      27.11800000      29.42300000      38.14900000
 H      27.22200000      29.60500000      37.21700000
 H      27.62900000      30.18500000      38.53000000
 O      29.69500000      40.43900000      34.78800000
 H      30.02400000      39.54200000      34.71900000
 H      30.37500000      40.93500000      34.27100000
 O      39.65700000      28.41000000      34.58100000
 H      39.60300000      27.51900000      35.04300000
 H      38.85500000      28.78500000      35.00800000
 O      30.06100000      27.13800000      35.64400000
 H      29.17400000      26.94200000      35.95700000
 H      29.85800000      27.83800000      34.96700000
 O      25.53300000      27.90200000      39.47000000
 H      26.33400000      28.37100000      39.04300000
 H      25.78100000      28.02400000      40.39300000
 O      35.68500000      30.98700000      34.89700000
 H      35.97900000      31.13200000      33.96200000
 H      35.87600000      31.91900000      35.19400000
 O      20.79100000      27.86100000      40.47900000
 H      20.26400000      27.65100000      39.67400000
 H      21.45900000      28.42300000      40.05800000
 O      21.39700000      29.15100000      37.24200000
 H      20.89500000      28.30800000      37.30300000
 H      21.80400000      29.09100000      38.12000000
 O      26.57000000      32.70800000      39.48100000
 H      26.90400000      33.64900000      39.70200000
 H      27.47600000      32.29700000      39.34600000
 O      33.58900000      32.58100000      37.48800000
 H      33.97600000      33.29500000      38.02500000
 H      33.12700000      33.10300000      36.80400000
 O      24.05700000      39.03800000      35.58500000
 H      24.63900000      38.66400000      34.92700000
 H      23.25800000      38.47800000      35.45500000
 O      40.78100000      40.08500000      37.22600000
 H      41.36500000      40.32200000      37.95200000
 H      39.95500000      39.81400000      37.63400000
 O      31.06600000      35.82300000      35.47800000
 H      31.34900000      36.69400000      35.87500000
 H      30.38200000      36.21400000      34.84000000
 O      32.08200000      34.04700000      40.17900000
 H      31.20300000      34.39600000      40.61800000
 H      31.64800000      33.58300000      39.41300000
 O      27.77800000      30.68400000      35.45500000
 H      28.23300000      30.03600000      34.88900000
 H      28.11400000      31.50500000      35.11100000
 O      37.79000000      31.64500000      38.99500000
 H      37.55300000      32.36300000      39.60700000
 H      38.10600000      32.10800000      38.21100000
 O      27.40300000      39.68300000      37.83500000
 H      27.84200000      38.80100000      37.64000000
 H      28.16100000      40.08300000      38.34500000
 O      25.08200000      36.58000000      37.17100000
 H      24.18300000      36.71200000      37.56100000
 H      25.29300000      37.56000000      37.22300000
 O      24.67800000      27.95100000      35.92400000
 H      25.61600000      27.77200000      35.64900000
 H      24.67400000      27.34200000      36.69300000
 O      35.13200000      37.38900000      39.73300000
 H      35.92400000      37.81900000      40.20100000
 H      35.13300000      37.97200000      38.94000000
 O      36.37200000      39.83800000      36.61800000
 H      37.00300000      39.15700000      36.86700000
 H      36.52500000      40.56100000      37.33000000
 O      29.24000000      37.01000000      38.58600000
 H      30.01800000      36.41800000      38.55100000
 H      29.59600000      37.84900000      38.99200000
 O      25.42000000      32.19400000      36.18200000
 H      26.37700000      31.93800000      36.07900000
 H      24.99900000      31.50600000      35.63100000
 O      30.54000000      34.47100000      37.90500000
 H      29.64800000      34.10200000      37.70900000
 H      30.62700000      35.04200000      37.10400000
 O      20.87700000      33.13900000      36.44100000
 H      20.39600000      32.50300000      36.99000000
 H      21.75700000      33.14900000      36.77800000
 O      31.69500000      30.87200000      39.06900000
 H      32.19800000      31.49100000      38.50400000
 H      31.54600000      30.16500000      38.39200000
 O      39.77000000      36.51900000      39.47000000
 H      39.83100000      37.36200000      39.96900000
 H      39.70600000      35.90100000      40.29600000
 O      26.70000000      35.28100000      35.22800000
 H      26.03200000      34.73900000      34.81600000
 H      26.19500000      35.70800000      35.95100000
 O      27.07100000      35.26000000      38.80100000
 H      27.84500000      35.84000000      38.84100000
 H      26.36700000      35.89000000      38.45600000
 O      21.78200000      33.52700000      39.44400000
 H      21.44300000      34.41100000      39.82600000
 H      22.64400000      33.89500000      39.08500000
 O      34.74700000      27.35400000      36.94500000
 H      34.87300000      28.29200000      36.86500000
 H      34.08300000      27.28500000      37.64600000
 O      35.56700000      36.15700000      36.75600000
 H      35.82400000      35.39200000      37.25400000
 H      34.70700000      35.83700000      36.34400000
 O      31.42300000      29.01100000      37.23200000
 H      31.99100000      29.40500000      36.48400000
 H      31.00000000      28.28700000      36.71600000
 O      35.92900000      39.80000000      33.76500000
 H      35.81100000      39.89900000      34.77100000
 H      36.90700000      39.69800000      33.78700000
 O      40.24300000      38.87200000      40.52600000
 H      40.59000000      39.74500000      40.39200000
 H      40.95800000      38.48100000      41.08800000
 O      32.90900000      27.20500000      39.00500000
 H      33.28800000      27.70100000      39.79500000
 H      32.32800000      27.94200000      38.56800000
 O      31.91700000      38.36500000      35.68300000
 H      32.44900000      38.52400000      36.48100000
 H      32.57900000      38.24800000      34.98200000
 O      37.05100000      29.63900000      40.61900000
 H      37.66700000      30.02000000      41.30100000
 H      37.52400000      29.96900000      39.83500000
 O      28.44600000      33.61600000      36.40300000
 H      27.92000000      34.26700000      35.78200000
 H      27.83600000      33.70300000      37.13400000
 O      34.58500000      34.57100000      39.39300000
 H      34.52000000      35.54100000      39.48600000
 H      33.78000000      34.35100000      39.94700000
 O      22.00500000      37.04200000      35.49900000
 H      21.94700000      36.75900000      34.58500000
 H      21.30200000      36.55500000      35.94500000
 O      22.87100000      29.09500000      39.60900000
 H      23.47100000      29.90900000      39.63800000
 H      23.53800000      28.34600000      39.75500000
 O      22.52000000      33.70100000      34.50200000
 H      22.72800000      32.81800000      34.09000000
 H      21.75000000      33.48300000      35.00900000
 O      38.21000000      33.10400000      36.66300000
 H      38.87600000      33.81000000      36.79600000
 H      37.90600000      33.33000000      35.76800000
 O      33.29800000      34.42800000      35.59700000
 H      32.69700000      35.21100000      35.51900000
 H      33.60800000      34.37700000      34.67500000
 O      33.63900000      39.23500000      37.67300000
 H      33.31000000      40.17600000      37.66500000
 H      34.56000000      39.43800000      37.35200000
 O      24.08000000      33.53600000      38.15400000
 H      24.28500000      33.22600000      37.22800000
 H      24.92300000      34.10300000      38.22100000
 O      36.63800000      26.91300000      34.93500000
 H      35.87200000      26.86600000      35.53300000
 H      37.00700000      27.76900000      35.27400000
 O      29.06200000      31.70000000      39.37500000
 H      29.98700000      31.56600000      39.17300000
 H      29.11000000      31.88600000      40.34700000
 O      24.72200000      39.81200000      38.25700000
 H      25.68000000      39.72500000      38.32900000
 H      24.67900000      39.89700000      37.27700000
 O      30.45400000      32.63800000      34.53500000
 H      31.36000000      32.55000000      34.83200000
 H      30.04100000      33.21200000      35.21400000
 O      37.43800000      29.47600000      35.98600000
 H      37.27200000      29.99100000      36.82700000
 H      36.70600000      29.82700000      35.47000000
 O      35.59200000      30.27200000      37.74200000
 H      35.22200000      31.13900000      37.51100000
 H      36.03100000      30.50300000      38.59800000
 O      38.46000000      38.13900000      37.74600000
 H      39.20700000      37.68300000      38.16100000
 H      37.83500000      37.35500000      37.50100000
 O      32.20300000      37.14700000      38.79100000
 H      32.50500000      37.88600000      38.24800000
 H      33.05500000      36.80800000      39.12900000
 O      24.18500000      31.42500000      40.02700000
 H      25.12800000      31.80100000      40.12100000
 H      23.84300000      32.02500000      39.31700000
 O      33.07400000      29.60100000      35.23200000
 H      33.15100000      29.24600000      34.35400000
 H      33.82600000      30.25700000      35.23300000
 O      23.02000000      30.27200000      35.51300000
 H      22.18900000      30.09200000      36.09100000
 H      23.45700000      29.39700000      35.71900000
 O      29.82600000      39.93600000      39.32000000
 H      29.99700000      40.73200000      38.82300000
 H      30.16700000      40.24200000      40.23300000
 O      38.16700000      35.37700000      43.40400000
 H      37.61600000      35.88100000      44.05300000
 H      37.48200000      34.76200000      43.08100000
 O      26.55000000      32.94700000      45.46100000
 H      26.41700000      32.84800000      44.54400000
 H      26.70400000      33.92300000      45.56800000
 O      30.92800000      39.92300000      45.61000000
 H      31.55600000      39.59900000      46.27600000
 H      30.45500000      39.11000000      45.39600000
 O      34.92600000      38.03600000      48.98900000
 H      35.54300000      38.65500000      48.57600000
 H      35.12600000      38.21000000      49.93300000
 O      30.39000000      28.55300000      47.79200000
 H      29.78100000      27.74300000      47.82600000
 H      29.97000000      29.13300000      47.19600000
 O      27.89400000      30.36900000      47.18700000
 H      27.47200000      29.55300000      46.80400000
 H      27.21100000      31.02500000      46.96100000
 O      21.86800000      38.09600000      45.42700000
 H      21.48400000      38.93800000      45.81100000
 H      21.07500000      37.63700000      45.20900000
 O      31.41400000      33.52100000      45.30700000
 H      31.69900000      34.11700000      46.01900000
 H      30.88300000      32.88200000      45.83500000
 O      37.42700000      30.65600000      46.80200000
 H      36.84300000      31.31800000      47.18500000
 H      37.67900000      31.09800000      45.95300000
 O      32.20100000      30.61800000      43.44200000
 H      32.82700000      29.89300000      43.34400000
 H      32.10000000      30.92700000      42.51400000
 O      28.76100000      34.30000000      48.60300000
 H      29.04700000      34.00800000      49.49900000
 H      28.97900000      35.27100000      48.68300000
 O      27.59300000      35.49800000      44.05400000
 H      26.83600000      35.85600000      43.63800000
 H      27.21500000      35.51600000      45.01000000
 O      30.81400000      37.33100000      42.86200000
 H      31.24700000      37.05500000      42.01400000
 H      30.34200000      36.54100000      43.13300000
 O      39.51000000      33.18800000      46.03700000
 H      39.15500000      33.26000000      47.01300000
 H      40.43900000      33.27700000      46.30100000
 O      31.11300000      36.76800000      46.26000000
 H      31.62600000      37.42900000      46.74100000
 H      31.48800000      35.91300000      46.60500000
 O      28.73100000      38.37100000      44.72200000
 H      28.26600000      37.91500000      44.01700000
 H      29.55900000      37.85600000      44.78900000
 O      21.82100000      35.86300000      42.66600000
 H      21.18100000      36.07300000      43.36600000
 H      22.29200000      36.70600000      42.57200000
 O      33.27500000      27.97300000      45.75400000
 H      32.85300000      27.31400000      45.18100000
 H      33.89800000      28.35000000      45.07000000
 O      35.49400000      35.44500000      48.12900000
 H      35.87700000      35.27700000      49.02200000
 H      35.27300000      36.42000000      48.32600000
 O      24.99200000      36.09600000      43.18300000
 H      24.33700000      36.81100000      43.30100000
 H      24.52200000      35.53300000      42.54100000
 O      27.02500000      35.69700000      46.63100000
 H      26.47100000      36.22700000      47.20200000
 H      27.81100000      35.60700000      47.17300000
 O      32.34400000      38.59900000      47.74000000
 H      33.14200000      38.19200000      48.13800000
 H      32.16100000      39.29700000      48.37400000
 O      27.75000000      29.42600000      43.57800000
 H      28.33300000      28.89300000      42.96600000
 H      28.37300000      30.10900000      43.86100000
 O      35.86000000      32.80100000      47.37000000
 H      35.76400000      32.89400000      46.39200000
 H      35.57400000      33.78300000      47.60200000
 O      40.10500000      30.60400000      47.47400000
 H      39.97700000      30.77800000      48.47700000
 H      39.25400000      31.07700000      47.25100000
 O      35.82500000      35.90500000      45.32200000
 H      34.87100000      35.82600000      45.00000000
 H      35.63300000      35.53400000      46.21400000
 O      29.62100000      31.47700000      43.71900000
 H      29.90500000      32.29200000      44.12900000
 H      30.49300000      31.07800000      43.48800000
 O      36.06700000      40.12500000      46.80300000
 H      35.76900000      40.47700000      45.90200000
 H      36.03700000      40.97400000      47.32700000
 O      22.10400000      32.29400000      43.77900000
 H      22.64700000      31.64900000      43.25000000
 H      22.11000000      33.00500000      43.11100000
 O      29.20700000      36.95300000      48.72400000
 H      29.37300000      37.67100000      48.13600000
 H      29.01800000      37.44800000      49.56400000
 O      25.14500000      29.27400000      43.46700000
 H      25.02800000      30.23300000      43.13200000
 H      26.09100000      29.31000000      43.58500000
 O      40.15200000      28.27900000      42.85300000
 H      40.36100000      29.15700000      42.46400000
 H      40.13100000      28.53000000      43.77400000
 O      36.37600000      33.15400000      42.73400000
 H      35.61500000      32.82600000      43.22200000
 H      35.86300000      33.72000000      42.03100000
 O      20.31500000      30.82700000      47.68800000
 H      21.05800000      30.25700000      47.67400000
 H      20.01300000      30.95200000      46.79300000
 O      29.95700000      34.73900000      43.34300000
 H      30.22800000      34.27500000      44.12200000
 H      29.01800000      34.96000000      43.52300000
 O      38.94600000      40.65100000      45.18900000
 H      38.61600000      39.74500000      44.92300000
 H      39.84400000      40.41300000      45.53100000
 O      40.62400000      35.20400000      44.22100000
 H      39.65000000      35.08000000      43.94200000
 H      40.42600000      35.07600000      45.17900000
 O      22.88700000      37.08000000      47.91200000
 H      22.77700000      36.11900000      47.82200000
 H      22.74400000      37.40100000      47.02700000
 O      22.45700000      32.71900000      46.48100000
 H      22.16100000      31.90800000      46.97100000
 H      22.24100000      32.46900000      45.56000000
 O      37.27600000      38.36300000      42.71000000
 H      37.70700000      38.19700000      43.57800000
 H      38.07500000      38.52500000      42.12900000
 O      29.73600000      32.18800000      47.16600000
 H      28.98500000      31.60600000      47.15200000
 H      29.32400000      32.97800000      47.64800000
 O      31.42700000      31.35000000      49.26700000
 H      31.90600000      31.07900000      48.47900000
 H      30.56600000      30.93100000      49.33500000
 O      34.10600000      28.64200000      42.57600000
 H      34.96400000      29.03500000      42.40000000
 H      34.40500000      27.79600000      43.03800000
 O      26.03000000      32.96400000      48.11600000
 H      26.46000000      33.71800000      48.51100000
 H      26.23100000      33.02500000      47.16700000
 O      32.68200000      34.70900000      47.42700000
 H      33.61800000      35.01600000      47.54500000
 H      32.54900000      34.36400000      48.37800000
 O      23.30400000      39.66700000      48.79800000
 H      23.31800000      38.67600000      48.52200000
 H      22.79000000      39.56200000      49.65400000
 O      33.04300000      35.76800000      44.52200000
 H      32.59800000      36.40500000      45.07700000
 H      32.33400000      35.42800000      43.96800000
 O      32.69800000      39.50700000      43.25600000
 H      33.40500000      38.83800000      43.02700000
 H      31.93900000      38.88700000      43.21500000
 O      33.16600000      29.70200000      47.86700000
 H      33.26800000      29.26700000      46.95500000
 H      32.36500000      29.24400000      48.16300000
 O      24.23100000      28.21000000      45.59100000
 H      24.61900000      28.55700000      44.76100000
 H      25.09500000      27.90100000      46.02000000
 O      26.76800000      28.00600000      46.14700000
 H      27.32800000      27.27700000      46.48300000
 H      27.09300000      28.12100000      45.25100000
 O      40.44300000      35.77500000      47.08500000
 H      39.66600000      35.77100000      47.67700000
 H      40.74300000      36.66300000      47.20800000
 O      23.75500000      34.53100000      48.01400000
 H      24.68300000      34.53600000      47.59700000
 H      23.37000000      33.75700000      47.53900000
 O      33.95500000      32.76700000      44.31100000
 H      33.28300000      33.51700000      44.41700000
 H      33.28800000      32.07700000      44.13600000
 O      40.60300000      28.83200000      45.39900000
 H      41.40900000      29.30300000      45.19700000
 H      40.18100000      29.41000000      46.08800000
 O      37.56800000      37.91300000      45.33300000
 H      36.91000000      37.19500000      45.44400000
 H      37.16800000      38.51700000      46.03400000
 O      37.59900000      28.09600000      47.47700000
 H      37.53300000      29.08200000      47.33400000
 H      37.14000000      27.82700000      46.64200000
 O      20.70000000      35.18600000      46.80100000
 H      21.33800000      34.46900000      46.65400000
 H      20.35600000      35.41300000      45.94700000
 O      38.53400000      33.60300000      48.47200000
 H      38.33100000      33.28400000      49.34400000
 H      38.13100000      34.45500000      48.48500000
 O      38.40900000      39.62300000      48.63000000
 H      37.85400000      39.54300000      49.45800000
 H      37.72400000      39.97800000      48.05500000
 O      38.13400000      31.63200000      44.32200000
 H      38.71500000      32.40200000      44.63600000
 H      37.35400000      32.20500000      44.03500000
 O      23.33800000      38.24000000      43.30000000
 H      23.30700000      39.15400000      43.05200000
 H      22.81700000      38.23400000      44.14300000
 O      22.88300000      29.92900000      47.39400000
 H      23.29300000      29.29600000      46.74800000
 H      23.28100000      29.52500000      48.24300000
