588
XYZ file of cluster: frame_8000_9a345.c529d.23b55 - created by MolEdiTo
 O      35.41300000      35.35700000       9.36400000
 H      35.67600000      34.63200000      10.00400000
 H      34.45500000      35.27000000       9.42900000
 O      31.32300000      37.22400000      29.93200000
 H      31.00600000      37.87300000      30.63800000
 H      30.40900000      36.91500000      29.64300000
 O      33.04500000      39.41900000      14.53400000
 H      32.35700000      38.72400000      14.72000000
 H      33.14400000      39.67600000      15.50700000
 O      38.39100000      36.22200000       7.69100000
 H      38.45100000      35.85500000       8.64100000
 H      38.60100000      37.14900000       7.90600000
 O      38.77900000      39.72200000      16.24900000
 H      39.05200000      40.66100000      16.30200000
 H      38.51700000      39.67200000      15.31800000
 O      33.29500000      40.55100000      30.22200000
 H      33.75000000      39.69400000      30.35400000
 H      34.02800000      41.15800000      30.52500000
 O      37.07200000      33.96300000      23.80400000
 H      37.12700000      34.62300000      23.11500000
 H      37.84900000      33.45000000      23.52300000
 O      36.09700000      37.42500000      18.22400000
 H      35.32900000      36.81900000      18.34700000
 H      35.79400000      38.16000000      18.78500000
 O      38.56600000      40.56400000      18.90100000
 H      37.79200000      40.20100000      19.31600000
 H      38.55600000      40.07800000      18.04700000
 O      40.09700000      37.78800000      25.25800000
 H      40.56400000      37.65900000      26.07500000
 H      39.14200000      37.51900000      25.54000000
 O      36.37200000      39.83800000      36.61800000
 H      37.00300000      39.15700000      36.86700000
 H      36.52500000      40.56100000      37.33000000
 O      31.34000000      37.29800000      15.11500000
 H      30.68800000      36.73700000      14.62300000
 H      30.84300000      37.37800000      15.96300000
 O      27.07100000      35.26000000      38.80100000
 H      27.84500000      35.84000000      38.84100000
 H      26.36700000      35.89000000      38.45600000
 O      37.85700000      37.26000000      26.47900000
 H      37.68000000      37.48300000      27.43800000
 H      36.94800000      36.84400000      26.26800000
 O      35.56700000      36.15700000      36.75600000
 H      35.82400000      35.39200000      37.25400000
 H      34.70700000      35.83700000      36.34400000
 O      37.28800000      33.70900000      15.30600000
 H      36.95000000      34.59300000      15.15600000
 H      38.16000000      33.66800000      14.85100000
 O      34.61100000      37.36700000      27.13600000
 H      34.83500000      37.64500000      28.01900000
 H      34.12000000      36.56300000      27.25800000
 O      36.60400000      36.20300000      15.71100000
 H      36.38300000      36.79000000      16.46300000
 H      35.66000000      35.97800000      15.44900000
 O      40.24300000      38.87200000      40.52600000
 H      40.59000000      39.74500000      40.39200000
 H      40.95800000      38.48100000      41.08800000
 O      34.58500000      34.57100000      39.39300000
 H      34.52000000      35.54100000      39.48600000
 H      33.78000000      34.35100000      39.94700000
 O      31.91700000      38.36500000      35.68300000
 H      32.44900000      38.52400000      36.48100000
 H      32.57900000      38.24800000      34.98200000
 O      33.66000000      37.94500000      33.65500000
 H      34.30200000      38.57600000      33.32600000
 H      34.00500000      37.11200000      33.28400000
 O      33.29800000      34.42800000      35.59700000
 H      32.69700000      35.21100000      35.51900000
 H      33.60800000      34.37700000      34.67500000
 O      33.63900000      39.23500000      37.67300000
 H      33.31000000      40.17600000      37.66500000
 H      34.56000000      39.43800000      37.35200000
 O      37.74000000      34.41000000      34.35500000
 H      37.68000000      34.30700000      33.36600000
 H      37.96700000      35.34000000      34.41600000
 O      36.17300000      39.89100000      19.92600000
 H      35.49900000      40.50000000      19.60000000
 H      35.94400000      39.90000000      20.88500000
 O      37.36000000      38.39900000      29.22000000
 H      36.47600000      38.75000000      29.44000000
 H      37.26700000      37.54000000      29.72600000
 O      38.54800000      36.95800000      34.11300000
 H      38.18300000      37.71200000      33.65500000
 H      39.42400000      37.32500000      34.37800000
 O      29.17500000      38.64700000      22.75300000
 H      28.36300000      39.14300000      23.00200000
 H      29.64700000      38.69300000      23.62500000
 O      38.16100000      40.46500000      22.50600000
 H      38.90200000      40.63300000      23.14400000
 H      38.50100000      40.92100000      21.71400000
 O      30.22200000      39.39200000      18.92100000
 H      30.68400000      39.80300000      19.64900000
 H      29.89600000      40.16100000      18.37600000
 O      33.27000000      37.43900000      12.42400000
 H      33.17000000      38.15400000      13.16000000
 H      32.48200000      37.73500000      11.91600000
 O      30.31000000      35.16100000      13.53400000
 H      29.68700000      34.39300000      13.37100000
 H      30.94500000      34.68600000      14.12400000
 O      34.00200000      35.57400000      32.59400000
 H      33.45400000      35.31200000      31.83200000
 H      34.59400000      34.82000000      32.55500000
 O      37.35000000      35.89300000      30.36000000
 H      38.21600000      35.59000000      30.69700000
 H      36.83900000      35.10400000      30.61700000
 O      37.50800000      40.31200000      11.64700000
 H      38.23300000      40.50300000      12.35400000
 H      36.93100000      41.06700000      11.95900000
 O      38.74300000      35.63200000      10.29000000
 H      39.72600000      35.76900000      10.35400000
 H      38.42500000      36.34700000      10.90000000
 O      30.78000000      38.81700000      11.37900000
 H      31.27200000      39.56500000      11.76200000
 H      30.14300000      39.31500000      10.80800000
 O      35.49400000      35.44500000       6.45000000
 H      35.87700000      35.27700000       7.34300000
 H      35.27300000      36.42000000       6.64700000
 O      30.54000000      34.47100000      37.90500000
 H      29.64800000      34.10200000      37.70900000
 H      30.62700000      35.04200000      37.10400000
 O      33.61600000      35.80000000      15.29100000
 H      33.44000000      35.78200000      16.27400000
 H      32.99800000      36.48400000      15.03200000
 O      27.60500000      37.84700000       9.26500000
 H      27.28600000      37.47800000      10.13100000
 H      27.84700000      38.77600000       9.54400000
 O      40.54100000      39.05700000       9.69500000
 H      40.72000000      39.94300000      10.09800000
 H      39.63000000      39.00600000       9.72500000
 O      29.38200000      37.73300000      16.94800000
 H      29.19200000      38.44000000      17.65600000
 H      28.66900000      38.04400000      16.30500000
 O      31.35400000      36.39900000      26.49400000
 H      30.62800000      36.39100000      27.11900000
 H      32.01100000      35.84300000      26.98600000
 O      32.52500000      35.95700000      23.84600000
 H      33.08300000      36.79100000      24.00700000
 H      31.81100000      36.12300000      24.49300000
 O      33.40100000      34.82700000      11.70600000
 H      32.50100000      34.52100000      11.91200000
 H      33.41800000      35.76600000      11.96100000
 O      35.15500000      40.61200000      22.84300000
 H      35.87900000      40.06400000      23.21700000
 H      34.49900000      40.65900000      23.50800000
 O      32.20300000      37.14700000      38.79100000
 H      32.50500000      37.88600000      38.24800000
 H      33.05500000      36.80800000      39.12900000
 O      39.01400000      34.64300000      27.53100000
 H      38.58400000      34.76300000      28.38200000
 H      39.14800000      35.59000000      27.28900000
 O      33.97500000      38.37000000      24.66600000
 H      34.93000000      38.12700000      24.36000000
 H      34.10300000      38.19100000      25.63000000
 O      38.89500000      34.35900000      18.17200000
 H      38.60400000      35.13800000      17.65200000
 H      38.27900000      33.66700000      17.81400000
 O      34.92600000      38.03600000       7.31000000
 H      35.54300000      38.65500000       6.89700000
 H      35.12600000      38.21000000       8.25400000
 O      33.40100000      34.78100000      27.16800000
 H      32.84800000      34.34600000      27.80800000
 H      34.21200000      34.32400000      27.15900000
 O      39.49100000      34.22000000      13.79300000
 H      38.91300000      34.76900000      13.19900000
 H      40.10500000      33.88800000      13.07900000
 O      40.78100000      40.08500000      37.22600000
 H      41.36500000      40.32200000      37.95200000
 H      39.95500000      39.81400000      37.63400000
 O      27.83100000      34.21900000      32.43900000
 H      28.55500000      34.79500000      32.80400000
 H      27.05300000      34.49900000      32.91000000
 O      31.06600000      35.82300000      35.47800000
 H      31.34900000      36.69400000      35.87500000
 H      30.38200000      36.21400000      34.84000000
 O      28.76100000      34.30000000       6.92400000
 H      29.04700000      34.00800000       7.82000000
 H      28.97900000      35.27100000       7.00400000
 O      38.28300000      35.75600000      21.83700000
 H      37.81300000      35.52300000      20.96600000
 H      39.12200000      36.04100000      21.52600000
 O      38.82800000      37.37200000      17.81100000
 H      38.76900000      37.97400000      17.00400000
 H      37.84500000      37.38900000      18.01700000
 O      28.27900000      40.61900000      10.12500000
 H      28.64500000      40.98200000       9.25300000
 H      27.58600000      41.25900000      10.29500000
 O      29.24000000      37.01000000      38.58600000
 H      30.01800000      36.41800000      38.55100000
 H      29.59600000      37.84900000      38.99200000
 O      39.77000000      36.51900000      39.47000000
 H      39.83100000      37.36200000      39.96900000
 H      39.70600000      35.90100000      40.29600000
 O      37.24600000      38.97000000       9.26800000
 H      37.37900000      39.46800000      10.10700000
 H      36.70500000      38.21000000       9.67300000
 O      28.02100000      35.96300000      19.63000000
 H      28.18600000      35.04200000      19.90800000
 H      28.83700000      36.41400000      19.93100000
 O      29.10800000      35.95600000      23.65400000
 H      29.03500000      36.48800000      24.41100000
 H      28.77300000      36.49300000      22.91200000
 O      35.92900000      39.80000000      33.76500000
 H      35.81100000      39.89900000      34.77100000
 H      36.90700000      39.69800000      33.78700000
 O      28.03900000      37.43900000      25.97400000
 H      28.01000000      38.39900000      26.18100000
 H      28.50000000      37.16700000      26.83300000
 O      30.94900000      36.06100000      18.48600000
 H      31.02300000      36.46400000      19.38800000
 H      30.34400000      36.74800000      18.09200000
 O      29.54700000      34.83200000       9.93000000
 H      29.24900000      34.31900000      10.70600000
 H      28.78700000      35.33000000       9.71400000
 O      40.40000000      36.77400000      19.95600000
 H      40.00800000      37.11800000      19.10800000
 H      40.86200000      37.58200000      20.21600000
 O      33.74000000      35.60500000      18.19200000
 H      33.90000000      34.67200000      18.39500000
 H      32.78500000      35.62400000      18.48200000
 O      32.66500000      40.56800000      11.88200000
 H      33.15500000      40.45600000      12.74900000
 H      32.08000000      41.29800000      12.22700000
 O      29.28000000      39.85000000      26.23300000
 H      29.73400000      40.65500000      26.47400000
 H      29.97500000      39.31500000      25.79000000
 O      36.88600000      38.07500000      22.97700000
 H      37.47700000      38.79500000      22.77600000
 H      37.32800000      37.30200000      22.64200000
 O      36.19500000      37.77500000      11.65100000
 H      35.28000000      37.52100000      12.01600000
 H      36.13800000      38.73700000      11.80500000
 O      38.46000000      38.13900000      37.74600000
 H      39.20700000      37.68300000      38.16100000
 H      37.83500000      37.35500000      37.50100000
 O      32.82100000      39.86600000      17.28000000
 H      32.22800000      39.41600000      17.93600000
 H      33.41200000      40.33300000      17.83000000
 O      38.54200000      39.91800000      32.90800000
 H      39.12900000      40.40600000      33.54400000
 H      39.06900000      39.97100000      32.09500000
 O      27.68200000      37.81000000      14.90600000
 H      27.46600000      36.90500000      15.11100000
 H      28.12500000      37.76500000      14.06000000
 O      28.86800000      36.96100000      12.51400000
 H      29.43000000      37.38400000      11.85000000
 H      29.59500000      36.36700000      12.86700000
 O      29.69500000      40.43900000      34.78800000
 H      30.02400000      39.54200000      34.71900000
 H      30.37500000      40.93500000      34.27100000
 O      27.39800000      39.91800000      24.09300000
 H      28.06600000      40.03200000      24.77300000
 H      26.66800000      40.50100000      24.42900000
 O      32.70500000      35.20900000      30.33700000
 H      32.08400000      35.92100000      30.11600000
 H      32.16700000      34.46000000      29.94800000
 O      27.40300000      39.68300000      37.83500000
 H      27.84200000      38.80100000      37.64000000
 H      28.16100000      40.08300000      38.34500000
 O      34.27700000      37.94400000      29.89100000
 H      34.55400000      37.16300000      30.29700000
 H      33.31600000      37.96900000      30.00700000
 O      27.10000000      40.63700000      15.78300000
 H      26.99700000      39.68900000      15.87400000
 H      28.03900000      40.72100000      15.88600000
 O      35.13200000      37.38900000      39.73300000
 H      35.92400000      37.81900000      40.20100000
 H      35.13300000      37.97200000      38.94000000
 O      38.41100000      36.88300000      12.95600000
 H      37.63100000      37.30900000      12.49800000
 H      38.02200000      37.00600000      13.88600000
 O      28.91600000      36.65600000      28.34800000
 H      28.25200000      37.10400000      28.80600000
 H      28.70100000      35.68000000      28.58400000
 O      29.20700000      36.95300000       7.04500000
 H      29.37300000      37.67100000       6.45700000
 H      29.01800000      37.44800000       7.88500000
 O      31.17400000      38.46800000      24.82400000
 H      31.28300000      37.73200000      25.52900000
 H      32.09200000      38.58000000      24.49700000
 O      30.34800000      36.85400000      21.17200000
 H      29.89200000      37.53700000      21.74100000
 H      30.76400000      36.31600000      21.84500000
 O      40.18700000      40.61900000      24.28200000
 H      40.07300000      39.71400000      24.68100000
 H      41.12800000      40.76200000      24.60400000
 O      38.40900000      39.62300000       6.95100000
 H      37.85400000      39.54300000       7.77900000
 H      37.72400000      39.97800000       6.37600000
 O      29.82600000      39.93600000      39.32000000
 H      29.99700000      40.73200000      38.82300000
 H      30.16700000      40.24200000      40.23300000
 O      28.71100000      36.36900000      34.04100000
 H      28.31200000      36.92500000      33.36600000
 H      27.87500000      36.05800000      34.49300000
 O      31.15300000      38.66900000      32.32400000
 H      31.61100000      38.03800000      32.83200000
 H      31.58400000      39.50100000      32.65100000
 O      37.55400000      47.78900000      12.32500000
 H      38.43100000      48.16100000      12.25600000
 H      37.03200000      48.53600000      12.73700000
 O      33.39300000      45.82300000      29.58400000
 H      32.59500000      46.31600000      29.46800000
 H      33.49500000      45.67700000      30.55300000
 O      28.94300000      45.23500000      17.92500000
 H      27.98500000      45.19500000      18.11500000
 H      29.14300000      46.10200000      18.25200000
 O      32.46900000      43.71900000      22.62200000
 H      32.09700000      43.81900000      21.72200000
 H      33.32700000      43.33800000      22.40200000
 O      37.21300000      45.23600000      13.87000000
 H      37.60500000      45.54100000      14.68900000
 H      37.05100000      46.15900000      13.47600000
 O      31.86700000      47.41300000      36.41600000
 H      32.58400000      46.80900000      36.68000000
 H      31.29700000      46.78800000      35.94900000
 O      30.54000000      43.56300000      27.15600000
 H      31.48100000      43.42100000      27.30300000
 H      30.50300000      43.81700000      26.19900000
 O      31.65700000      45.81000000      10.48500000
 H      30.65000000      45.77200000      10.42700000
 H      31.74000000      46.78100000      10.51300000
 O      34.13700000      45.29100000      16.66900000
 H      35.14200000      45.42300000      16.61500000
 H      33.93100000      46.25900000      16.63200000
 O      33.36200000      48.39700000      32.13400000
 H      33.28000000      49.09800000      32.86600000
 H      32.72200000      47.77800000      32.47500000
 O      35.74200000      48.68900000      26.23900000
 H      35.04100000      49.09400000      26.71000000
 H      35.91000000      47.86600000      26.80300000
 O      38.86900000      45.82800000      40.50800000
 H      38.04500000      46.32100000      40.55800000
 H      39.39600000      46.28500000      41.19700000
 O      36.20200000      42.17100000      31.32400000
 H      36.15400000      41.74500000      32.21200000
 H      37.16400000      42.03000000      31.13300000
 O      33.89800000      45.64500000      36.57300000
 H      34.77300000      45.71900000      37.02900000
 H      34.18800000      45.25700000      35.77000000
 O      33.34800000      48.11300000      39.83700000
 H      33.08600000      49.03100000      40.04400000
 H      33.91900000      48.22700000      39.04000000
 O      35.44400000      45.06000000      39.15500000
 H      35.28200000      45.02700000      40.09100000
 H      35.21300000      46.00600000      38.95800000
 O      37.75300000      44.94400000      29.12100000
 H      37.74000000      43.99400000      28.85600000
 H      38.61100000      45.21600000      28.82500000
 O      32.71600000      43.09900000      37.16900000
 H      32.98000000      43.95300000      36.85900000
 H      31.98900000      43.29200000      37.79000000
 O      34.71400000      47.25200000      21.99700000
 H      35.45700000      47.66500000      22.50000000
 H      34.75600000      46.30500000      22.31900000
 O      35.53800000      44.28000000      34.10500000
 H      35.86800000      43.47600000      34.51800000
 H      36.33800000      44.57000000      33.60600000
 O      37.13000000      44.46600000      19.95000000
 H      37.99400000      44.77000000      20.35000000
 H      37.47300000      43.99400000      19.13600000
 O      30.89900000      43.83700000      13.37600000
 H      31.17700000      43.88100000      14.28900000
 H      29.91000000      43.90100000      13.35800000
 O      39.51100000      46.79200000      31.20000000
 H      39.81700000      47.66300000      31.50100000
 H      39.46800000      46.99000000      30.25300000
 O      35.75900000      43.29300000      13.15800000
 H      36.30800000      44.08800000      13.46800000
 H      35.32600000      43.15500000      14.00300000
 O      27.58300000      46.96800000      15.00200000
 H      27.83300000      46.09000000      14.65200000
 H      26.96500000      46.74000000      15.73100000
 O      32.60500000      48.49600000      26.72500000
 H      32.83600000      47.69100000      26.33500000
 H      32.93000000      49.20100000      26.04000000
 O      39.75200000      46.77900000      25.50800000
 H      39.75200000      46.15800000      26.21400000
 H      39.15600000      46.26800000      24.85700000
 O      33.33800000      42.53900000       9.40000000
 H      32.47700000      42.28800000       8.96900000
 H      33.09600000      42.31500000      10.33100000
 O      36.92800000      46.13800000      17.12700000
 H      37.58100000      46.40400000      16.45500000
 H      37.08400000      46.70200000      17.87300000
 O      35.72900000      45.93700000      27.59200000
 H      35.01700000      45.89000000      28.27200000
 H      36.52800000      45.64200000      28.13200000
 O      38.82000000      46.96100000      15.44700000
 H      39.12000000      47.72200000      14.90600000
 H      39.74800000      46.70300000      15.73000000
 O      28.44700000      42.37600000       7.48600000
 H      28.41000000      43.12600000       6.83100000
 H      27.49600000      42.09200000       7.45700000
 O      40.16400000      42.15000000      30.84700000
 H      39.75500000      41.94000000      29.96100000
 H      40.47400000      43.04400000      30.70700000
 O      29.78200000      43.83800000      38.04500000
 H      30.15800000      44.68800000      38.37100000
 H      28.98500000      43.78600000      38.57300000
 O      35.73200000      44.81400000      22.49300000
 H      35.63600000      43.84100000      22.62800000
 H      36.16900000      44.84600000      21.61500000
 O      27.93800000      44.40800000      14.22200000
 H      27.69600000      43.67300000      14.81900000
 H      27.10500000      44.53500000      13.69100000
 O      36.60500000      43.90700000       6.85000000
 H      37.04800000      44.38200000       7.54700000
 H      37.18200000      44.06800000       6.09600000
 O      40.26400000      43.18400000       7.45700000
 H      39.52800000      42.55100000       7.22000000
 H      40.26300000      43.15200000       8.46300000
 O      36.39300000      47.69600000      31.56100000
 H      36.66300000      46.78100000      31.72700000
 H      35.41100000      47.60200000      31.67000000
 O      33.45700000      47.52400000       7.75900000
 H      33.40300000      46.67700000       7.24500000
 H      33.03300000      47.27500000       8.59500000
 O      29.70500000      45.27400000      29.03400000
 H      29.91100000      44.71700000      28.26300000
 H      29.53700000      44.46700000      29.64800000
 O      29.25900000      46.87900000      31.49300000
 H      28.57400000      47.57900000      31.33400000
 H      29.37800000      46.54400000      30.60900000
 O      30.22600000      47.36600000      19.13000000
 H      31.18200000      47.60700000      19.40100000
 H      29.71500000      47.90300000      19.70800000
 O      30.74100000      43.15000000      30.37100000
 H      31.65700000      42.99300000      30.60000000
 H      30.56700000      42.53300000      29.66800000
 O      31.49000000      46.26600000      33.05500000
 H      31.16200000      45.77400000      33.82200000
 H      30.64200000      46.43400000      32.53900000
 O      36.41100000      47.23900000       9.88200000
 H      35.58600000      46.67900000      10.12900000
 H      36.87400000      47.30300000      10.79600000
 O      29.59300000      42.84800000      17.09500000
 H      30.50200000      43.22500000      16.73500000
 H      29.22400000      43.71800000      17.32100000
 O      29.88600000      47.89600000      27.36600000
 H      29.95200000      46.96500000      27.71800000
 H      30.73800000      47.95200000      26.89900000
 O      39.09100000      43.90400000      16.20800000
 H      39.04300000      43.98100000      17.16900000
 H      39.68600000      44.68700000      16.01100000
 O      40.18900000      44.87100000      27.80400000
 H      40.30400000      44.20200000      28.51900000
 H      40.89600000      44.69500000      27.23100000
 O      34.18700000      43.08700000      18.94300000
 H      34.46500000      43.99500000      18.70000000
 H      33.26100000      43.40300000      19.22700000
 O      34.34200000      48.81100000      13.63600000
 H      33.93100000      47.87500000      13.53500000
 H      34.16000000      49.15600000      12.75100000
 O      28.57100000      47.00600000      37.69300000
 H      28.04800000      46.24200000      37.50100000
 H      28.17500000      47.32700000      38.51800000
 O      36.52400000      48.29200000      23.55400000
 H      36.03400000      48.39600000      24.39200000
 H      36.87800000      49.19200000      23.42300000
 O      33.50900000      44.52600000      32.04100000
 H      32.89000000      45.20800000      32.45300000
 H      34.15400000      44.42800000      32.82000000
 O      39.94000000      45.36600000      18.45600000
 H      39.96900000      45.06000000      19.39500000
 H      39.70100000      46.30000000      18.58600000
 O      29.62800000      47.04800000      24.28400000
 H      28.82700000      47.02300000      24.86600000
 H      29.32400000      47.73100000      23.64100000
 O      31.87900000      44.61500000      19.59500000
 H      31.26500000      44.87300000      18.87800000
 H      32.22000000      45.50800000      19.88800000
 O      34.18700000      45.47200000      10.69800000
 H      33.24600000      45.62900000      10.38600000
 H      34.28300000      44.53000000      10.51600000
 O      27.51900000      44.07300000      25.28700000
 H      28.44700000      44.04000000      25.09500000
 H      27.35700000      45.02500000      25.47700000
 O      31.32300000      42.30600000       7.31000000
 H      30.32700000      42.43700000       7.28300000
 H      31.58500000      42.99300000       6.66700000
 O      38.22000000      43.31500000      25.79100000
 H      38.90500000      42.91900000      25.20800000
 H      38.00100000      44.11100000      25.32600000
 O      35.08400000      43.50700000      25.59300000
 H      34.61500000      43.27000000      26.42400000
 H      36.01400000      43.36500000      25.80800000
 O      30.13100000      42.31100000      21.40200000
 H      29.88400000      41.42000000      21.66100000
 H      30.77400000      42.54800000      22.09300000
 O      33.26800000      48.21400000      16.87000000
 H      33.21100000      49.04700000      17.45500000
 H      32.62000000      48.44300000      16.22700000
 O      40.17100000      45.75500000       6.84400000
 H      40.46500000      44.82300000       6.96500000
 H      39.62400000      45.80700000       7.67200000
 O      39.01500000      42.55200000      13.60800000
 H      40.02000000      42.56100000      13.60400000
 H      38.80600000      43.08100000      14.39400000
 O      39.86500000      42.68100000      34.83300000
 H      39.49800000      43.48100000      35.33900000
 H      39.91400000      42.06600000      35.56900000
 O      31.25100000      46.94600000      14.99500000
 H      30.57700000      47.22700000      14.35200000
 H      32.05200000      47.11000000      14.46500000
 O      37.67100000      45.62900000      24.15200000
 H      37.29600000      46.53600000      23.96200000
 H      36.98600000      45.09600000      23.68700000
 O      36.93000000      43.03600000      38.41500000
 H      36.17900000      43.63600000      38.51600000
 H      37.43900000      43.22200000      39.25900000
 O      27.54800000      45.99100000      33.51000000
 H      27.53000000      46.91700000      33.91100000
 H      28.31400000      46.09200000      32.90400000
 O      27.22100000      42.87800000      35.59400000
 H      27.24100000      42.34400000      36.37000000
 H      28.07000000      42.66100000      35.15700000
 O      40.65700000      48.89200000      40.13200000
 H      40.92600000      48.07400000      40.60300000
 H      41.19200000      49.59200000      40.48100000
 O      39.70400000      44.74100000      21.32500000
 H      40.27900000      43.96500000      21.53000000
 H      40.20100000      45.43600000      21.88500000
 O      38.10800000      45.38600000       8.95400000
 H      37.60700000      46.19500000       9.22800000
 H      38.32400000      44.92600000       9.83600000
 O      38.45000000      42.27100000      28.60700000
 H      38.17400000      42.67200000      27.73300000
 H      37.92200000      41.44200000      28.55500000
 O      32.94900000      45.63300000      25.48000000
 H      33.67000000      44.92600000      25.49600000
 H      32.60600000      45.53700000      24.56000000
 O      40.26500000      44.86100000      38.49000000
 H      39.87000000      44.80400000      37.62200000
 H      39.50400000      45.18600000      39.06500000
 O      31.39000000      42.74400000      32.96700000
 H      30.80200000      42.84300000      32.14400000
 H      32.14800000      43.27500000      32.64700000
 O      39.28400000      45.17200000      11.67700000
 H      39.95900000      45.15200000      12.30500000
 H      38.46900000      45.23900000      12.24800000
 O      28.90600000      46.84800000      10.30300000
 H      28.88700000      47.76400000      10.56700000
 H      28.01100000      46.55100000      10.56000000
 O      31.24300000      45.93200000      38.87200000
 H      30.62200000      46.62300000      38.64700000
 H      31.94500000      46.46000000      39.28900000
 O      39.21700000      48.18200000      28.73600000
 H      38.42900000      48.65600000      28.85200000
 H      39.76900000      48.88900000      28.34300000
 O      40.48600000      48.96800000      10.22600000
 H      41.10400000      48.27400000       9.95800000
 H      40.03700000      48.52400000      10.98400000
 O      33.03800000      46.00100000      13.15500000
 H      33.10500000      46.07700000      12.20300000
 H      32.37700000      45.26900000      13.18500000
 O      33.15700000      43.18400000      27.66700000
 H      33.05600000      42.56000000      28.37900000
 H      33.11200000      44.05400000      28.14200000
 O      33.65100000      44.72700000       7.39300000
 H      33.72300000      44.07300000       8.13800000
 H      34.56800000      44.73600000       7.09300000
 O      27.86500000      43.02700000      20.06600000
 H      27.81300000      43.96200000      20.41400000
 H      28.81000000      42.84100000      20.30200000
 O      31.71300000      44.40000000      16.18300000
 H      32.66400000      44.42400000      16.39000000
 H      31.53400000      45.29400000      15.93200000
 O      28.09300000      46.74700000       7.35500000
 H      28.48000000      47.11500000       8.16300000
 H      28.81300000      46.25100000       6.99000000
 O      37.18700000      46.83800000      36.84000000
 H      36.43200000      47.45400000      37.12600000
 H      37.92100000      47.42400000      37.07100000
 O      37.49700000      45.00800000      32.04800000
 H      38.28500000      45.69900000      31.93100000
 H      37.46300000      44.69200000      31.15400000
 O      38.54600000      44.37000000      36.40900000
 H      38.44600000      45.28000000      36.18100000
 H      37.84600000      44.12300000      37.01500000
 O      32.79900000      47.26200000      19.70700000
 H      33.35800000      47.47000000      20.51600000
 H      33.43200000      47.44200000      18.98200000
 O      30.85400000      44.84600000      35.56500000
 H      31.33800000      43.98000000      35.59900000
 H      30.02500000      44.59000000      36.04500000
 O      30.34700000      44.38700000      24.39200000
 H      30.14400000      45.31800000      24.28900000
 H      31.12000000      44.20000000      23.82000000
