1182
XYZ file of cluster: frame_8000_233f9.c399f.4be14 - created by MolEdiTo
 O       8.97400000      40.02900000      33.86800000
 H       9.62700000      39.48700000      34.45000000
 H       8.14300000      39.61600000      34.14000000
 O      31.32300000      37.22400000      29.93200000
 H      31.00600000      37.87300000      30.63800000
 H      30.40900000      36.91500000      29.64300000
 O      33.04500000      39.41900000      14.53400000
 H      32.35700000      38.72400000      14.72000000
 H      33.14400000      39.67600000      15.50700000
 O       8.73700000      35.41900000      33.37500000
 H       8.44800000      35.78300000      32.53800000
 H       9.65100000      35.73400000      33.47400000
 O      11.52900000      34.73700000      23.17600000
 H      11.84600000      34.38400000      22.30800000
 H      11.55700000      33.91100000      23.71700000
 O      16.26900000      35.03300000      39.52300000
 H      15.50500000      34.67700000      39.14400000
 H      16.80600000      35.01100000      38.68400000
 O      38.77900000      39.72200000      16.24900000
 H      39.05200000      40.66100000      16.30200000
 H      38.51700000      39.67200000      15.31800000
 O      33.29500000      40.55100000      30.22200000
 H      33.75000000      39.69400000      30.35400000
 H      34.02800000      41.15800000      30.52500000
 O      37.07200000      33.96300000      23.80400000
 H      37.12700000      34.62300000      23.11500000
 H      37.84900000      33.45000000      23.52300000
 O      36.09700000      37.42500000      18.22400000
 H      35.32900000      36.81900000      18.34700000
 H      35.79400000      38.16000000      18.78500000
 O      10.29800000      40.64300000      38.11600000
 H       9.52500000      40.24600000      37.73900000
 H       9.92200000      41.42000000      38.53000000
 O      38.56600000      40.56400000      18.90100000
 H      37.79200000      40.20100000      19.31600000
 H      38.55600000      40.07800000      18.04700000
 O      21.90100000      38.26700000      16.35000000
 H      21.27900000      38.25100000      17.14200000
 H      22.20800000      39.19000000      16.34600000
 O      40.09700000      37.78800000      25.25800000
 H      40.56400000      37.65900000      26.07500000
 H      39.14200000      37.51900000      25.54000000
 O      22.68900000      35.12500000      20.58100000
 H      22.52700000      36.07400000      20.73000000
 H      22.34200000      34.67500000      21.34900000
 O      14.34900000      38.62500000      21.11000000
 H      15.26000000      38.32800000      21.02000000
 H      13.91600000      37.76200000      20.82300000
 O      19.92600000      37.87800000      18.08900000
 H      19.88900000      37.10100000      18.71100000
 H      19.68000000      38.60800000      18.62500000
 O      14.34800000      36.08700000      19.38100000
 H      15.25100000      36.04100000      19.20600000
 H      14.20900000      35.35200000      20.00300000
 O      10.89100000      35.45700000      30.81400000
 H      10.98700000      36.45900000      30.72300000
 H      11.78600000      35.25800000      31.18700000
 O      36.37200000      39.83800000      36.61800000
 H      37.00300000      39.15700000      36.86700000
 H      36.52500000      40.56100000      37.33000000
 O      20.08000000      36.59900000      22.38200000
 H      20.89000000      37.05800000      21.99600000
 H      20.67700000      35.91800000      22.89200000
 O      11.55100000      38.05800000      31.17200000
 H      11.27100000      38.90900000      31.64800000
 H      11.96700000      38.44100000      30.36100000
 O      24.90900000      38.46200000      22.09700000
 H      25.46100000      37.70800000      22.36400000
 H      24.55800000      38.74000000      22.95700000
 O      31.34000000      37.29800000      15.11500000
 H      30.68800000      36.73700000      14.62300000
 H      30.84300000      37.37800000      15.96300000
 O      15.81000000      40.44300000      38.54800000
 H      14.94500000      40.94400000      38.52500000
 H      15.76700000      40.11400000      37.58100000
 O      16.95300000      37.04900000      24.81000000
 H      16.98200000      36.26400000      24.21000000
 H      16.49600000      37.69800000      24.23900000
 O      14.78500000      37.06400000      29.85000000
 H      14.45900000      37.56400000      29.11000000
 H      15.60100000      37.51500000      30.07100000
 O      17.18500000      38.09600000      38.89000000
 H      16.59200000      38.91100000      38.91700000
 H      16.64200000      37.65400000      38.23800000
 O      27.07100000      35.26000000      38.80100000
 H      27.84500000      35.84000000      38.84100000
 H      26.36700000      35.89000000      38.45600000
 O      10.73300000      38.16900000      27.93100000
 H      10.03500000      37.88600000      27.31900000
 H      11.50100000      37.66100000      27.61700000
 O      37.85700000      37.26000000      26.47900000
 H      37.68000000      37.48300000      27.43800000
 H      36.94800000      36.84400000      26.26800000
 O      16.98800000      35.80200000      18.69600000
 H      17.88300000      35.56300000      18.86400000
 H      16.67600000      34.83800000      18.56800000
 O      25.84000000      37.10800000      18.46400000
 H      25.80500000      38.03100000      18.95100000
 H      26.68100000      36.75300000      18.87100000
 O      17.14000000      37.70400000      31.65700000
 H      17.42500000      36.88500000      31.24300000
 H      16.71600000      37.35600000      32.45800000
 O      18.75200000      35.90500000      38.74200000
 H      18.46000000      36.78700000      38.91700000
 H      18.58900000      35.42800000      39.58000000
 O      24.09300000      36.82200000      15.81300000
 H      24.79600000      36.69700000      16.42100000
 H      23.51900000      37.47500000      16.26500000
 O      13.94400000      36.13900000      24.29400000
 H      13.86900000      37.06400000      23.92000000
 H      13.04100000      35.85200000      24.42600000
 O      35.56700000      36.15700000      36.75600000
 H      35.82400000      35.39200000      37.25400000
 H      34.70700000      35.83700000      36.34400000
 O      37.28800000      33.70900000      15.30600000
 H      36.95000000      34.59300000      15.15600000
 H      38.16000000      33.66800000      14.85100000
 O      34.61100000      37.36700000      27.13600000
 H      34.83500000      37.64500000      28.01900000
 H      34.12000000      36.56300000      27.25800000
 O      36.60400000      36.20300000      15.71100000
 H      36.38300000      36.79000000      16.46300000
 H      35.66000000      35.97800000      15.44900000
 O      40.24300000      38.87200000      40.52600000
 H      40.59000000      39.74500000      40.39200000
 H      40.95800000      38.48100000      41.08800000
 O      34.58500000      34.57100000      39.39300000
 H      34.52000000      35.54100000      39.48600000
 H      33.78000000      34.35100000      39.94700000
 O      31.91700000      38.36500000      35.68300000
 H      32.44900000      38.52400000      36.48100000
 H      32.57900000      38.24800000      34.98200000
 O      15.00500000      35.18400000      26.69200000
 H      15.80500000      35.66700000      27.03800000
 H      14.95100000      35.49900000      25.80700000
 O      26.10100000      39.47000000      19.79200000
 H      26.85400000      39.98400000      20.22900000
 H      25.51400000      39.27600000      20.46800000
 O      22.10300000      35.05400000      23.32700000
 H      22.54700000      34.20600000      23.72900000
 H      22.81400000      35.65100000      23.57300000
 O      33.66000000      37.94500000      33.65500000
 H      34.30200000      38.57600000      33.32600000
 H      34.00500000      37.11200000      33.28400000
 O      33.29800000      34.42800000      35.59700000
 H      32.69700000      35.21100000      35.51900000
 H      33.60800000      34.37700000      34.67500000
 O      33.63900000      39.23500000      37.67300000
 H      33.31000000      40.17600000      37.66500000
 H      34.56000000      39.43800000      37.35200000
 O      24.72200000      39.81200000      38.25700000
 H      25.68000000      39.72500000      38.32900000
 H      24.67900000      39.89700000      37.27700000
 O      37.74000000      34.41000000      34.35500000
 H      37.68000000      34.30700000      33.36600000
 H      37.96700000      35.34000000      34.41600000
 O      36.17300000      39.89100000      19.92600000
 H      35.49900000      40.50000000      19.60000000
 H      35.94400000      39.90000000      20.88500000
 O      17.52400000      40.63800000      23.41000000
 H      16.82800000      39.99700000      23.39100000
 H      17.30400000      41.09900000      22.53600000
 O      15.58100000      36.96000000      37.10300000
 H      16.18000000      36.18200000      36.94900000
 H      14.81100000      36.52600000      37.41700000
 O      20.86700000      36.74500000      14.00000000
 H      20.76100000      37.45500000      14.62200000
 H      21.08800000      36.02600000      14.61400000
 O      37.36000000      38.39900000      29.22000000
 H      36.47600000      38.75000000      29.44000000
 H      37.26700000      37.54000000      29.72600000
 O      38.54800000      36.95800000      34.11300000
 H      38.18300000      37.71200000      33.65500000
 H      39.42400000      37.32500000      34.37800000
 O      29.17500000      38.64700000      22.75300000
 H      28.36300000      39.14300000      23.00200000
 H      29.64700000      38.69300000      23.62500000
 O       6.89400000      38.57500000      34.83900000
 H       6.02700000      38.22200000      34.51800000
 H       7.23800000      37.71600000      35.19100000
 O      13.26800000      35.85800000      38.60000000
 H      12.86100000      35.01300000      38.88300000
 H      12.77500000      36.04200000      37.74900000
 O      38.16100000      40.46500000      22.50600000
 H      38.90200000      40.63300000      23.14400000
 H      38.50100000      40.92100000      21.71400000
 O      30.22200000      39.39200000      18.92100000
 H      30.68400000      39.80300000      19.64900000
 H      29.89600000      40.16100000      18.37600000
 O      21.73900000      36.80600000      31.70500000
 H      21.09100000      36.10600000      32.04700000
 H      21.08700000      37.48000000      31.56100000
 O      11.64700000      36.51800000      33.47700000
 H      11.44900000      37.22100000      32.86700000
 H      12.39700000      36.90000000      33.99200000
 O      30.31000000      35.16100000      13.53400000
 H      29.68700000      34.39300000      13.37100000
 H      30.94500000      34.68600000      14.12400000
 O      34.00200000      35.57400000      32.59400000
 H      33.45400000      35.31200000      31.83200000
 H      34.59400000      34.82000000      32.55500000
 O      37.35000000      35.89300000      30.36000000
 H      38.21600000      35.59000000      30.69700000
 H      36.83900000      35.10400000      30.61700000
 O      17.78700000      35.16000000      22.81000000
 H      18.49000000      35.85300000      22.71800000
 H      18.34500000      34.39700000      22.69500000
 O      18.39900000      36.89500000      16.03400000
 H      18.26700000      35.99400000      16.26000000
 H      19.12700000      37.07900000      16.69400000
 O      21.84000000      34.81300000      15.57800000
 H      22.67800000      35.41100000      15.62200000
 H      22.01100000      34.42400000      16.47900000
 O      22.71200000      39.54600000      29.13000000
 H      22.78300000      40.44300000      28.73600000
 H      22.83400000      39.73800000      30.04900000
 O      22.31900000      37.87800000      20.96500000
 H      23.08700000      37.74700000      21.48900000
 H      22.40600000      38.80000000      20.69600000
 O      12.47600000      33.78900000      18.43800000
 H      13.14600000      33.32300000      17.97800000
 H      12.41600000      34.66500000      18.05100000
 O      25.48100000      34.28100000      20.31000000
 H      25.74200000      35.17700000      20.05800000
 H      24.50100000      34.42900000      20.49700000
 O      19.80100000      35.61200000      35.98500000
 H      19.29500000      35.74000000      36.86400000
 H      20.25800000      34.73600000      36.23800000
 O      24.05700000      39.03800000      35.58500000
 H      24.63900000      38.66400000      34.92700000
 H      23.25800000      38.47800000      35.45500000
 O      16.90800000      38.34800000      20.38100000
 H      17.04500000      37.54400000      19.93900000
 H      17.59400000      38.91000000      20.03500000
 O      27.69000000      38.13800000      32.08200000
 H      27.31400000      38.94600000      32.50400000
 H      27.60400000      38.36900000      31.15300000
 O      25.08200000      36.58000000      37.17100000
 H      24.18300000      36.71200000      37.56100000
 H      25.29300000      37.56000000      37.22300000
 O      15.73400000      36.67400000      33.76200000
 H      16.60700000      36.73700000      34.15500000
 H      15.45800000      35.81900000      34.10100000
 O      18.17800000      35.16600000      30.63300000
 H      18.68400000      35.42800000      29.81400000
 H      17.64800000      34.44000000      30.29300000
 O      30.54000000      34.47100000      37.90500000
 H      29.64800000      34.10200000      37.70900000
 H      30.62700000      35.04200000      37.10400000
 O      11.79400000      40.46000000      32.08200000
 H      11.36800000      41.28800000      32.25700000
 H      11.87400000      40.50000000      31.10500000
 O      24.45200000      38.39700000      25.17900000
 H      23.59300000      38.80400000      24.99000000
 H      24.94300000      39.27900000      25.30700000
 O      16.83400000      40.50400000      32.21900000
 H      17.02400000      39.58100000      32.09900000
 H      15.89500000      40.53200000      32.32500000
 O      33.61600000      35.80000000      15.29100000
 H      33.44000000      35.78200000      16.27400000
 H      32.99800000      36.48400000      15.03200000
 O       8.02300000      35.86800000      18.67100000
 H       8.07400000      36.21300000      19.62100000
 H       8.61400000      35.02000000      18.81300000
 O       7.92700000      39.20900000      24.87200000
 H       7.60500000      39.53600000      24.04800000
 H       7.29300000      38.47200000      25.07100000
 O      13.91600000      39.70400000      18.48200000
 H      14.09700000      39.32700000      19.33800000
 H      14.72700000      39.49100000      18.01500000
 O      21.64500000      37.44900000      27.20000000
 H      21.92300000      37.85400000      26.38200000
 H      21.92600000      38.09500000      27.89000000
 O      29.38200000      37.73300000      16.94800000
 H      29.19200000      38.44000000      17.65600000
 H      28.66900000      38.04400000      16.30500000
 O      22.00500000      37.04200000      35.49900000
 H      21.94700000      36.75900000      34.58500000
 H      21.30200000      36.55500000      35.94500000
 O      26.98300000      35.49500000      16.39800000
 H      26.67000000      36.10600000      17.10400000
 H      26.43000000      34.69400000      16.67800000
 O      31.35400000      36.39900000      26.49400000
 H      30.62800000      36.39100000      27.11900000
 H      32.01100000      35.84300000      26.98600000
 O      24.78100000      35.07800000      33.12200000
 H      24.03100000      34.64500000      33.54000000
 H      24.41700000      35.11400000      32.19900000
 O      32.52500000      35.95700000      23.84600000
 H      33.08300000      36.79100000      24.00700000
 H      31.81100000      36.12300000      24.49300000
 O      35.15500000      40.61200000      22.84300000
 H      35.87900000      40.06400000      23.21700000
 H      34.49900000      40.65900000      23.50800000
 O      32.20300000      37.14700000      38.79100000
 H      32.50500000      37.88600000      38.24800000
 H      33.05500000      36.80800000      39.12900000
 O      25.19100000      37.85900000      33.28800000
 H      24.81800000      36.95500000      33.33500000
 H      25.83700000      37.68500000      32.54400000
 O       7.79300000      40.26300000      27.64900000
 H       6.94600000      40.23000000      28.07100000
 H       7.64900000      39.79300000      26.79800000
 O       7.44300000      35.89400000      35.54900000
 H       7.12200000      35.03600000      35.82800000
 H       7.90300000      35.63100000      34.71400000
 O       9.46600000      36.52800000      26.29800000
 H       9.98200000      35.68900000      26.41000000
 H       8.66000000      36.19200000      26.70800000
 O      19.02700000      38.49100000      28.93100000
 H      18.80600000      37.60600000      28.76300000
 H      18.47000000      39.01600000      28.25500000
 O      13.65800000      37.87900000      34.92200000
 H      14.24500000      37.29900000      34.48900000
 H      14.26200000      38.38200000      35.46500000
 O      18.27600000      37.49400000      34.47600000
 H      18.74900000      36.88900000      35.18200000
 H      18.26500000      38.33400000      34.94900000
 O      39.01400000      34.64300000      27.53100000
 H      38.58400000      34.76300000      28.38200000
 H      39.14800000      35.59000000      27.28900000
 O      33.97500000      38.37000000      24.66600000
 H      34.93000000      38.12700000      24.36000000
 H      34.10300000      38.19100000      25.63000000
 O      38.89500000      34.35900000      18.17200000
 H      38.60400000      35.13800000      17.65200000
 H      38.27900000      33.66700000      17.81400000
 O      15.11700000      34.53000000      22.15200000
 H      14.83600000      34.94800000      22.98100000
 H      16.03900000      34.51000000      22.26300000
 O      14.93500000      37.14300000      40.42700000
 H      15.60700000      36.63400000      39.94700000
 H      14.15800000      37.02100000      39.87900000
 O      33.40100000      34.78100000      27.16800000
 H      32.84800000      34.34600000      27.80800000
 H      34.21200000      34.32400000      27.15900000
 O      40.78100000      40.08500000      37.22600000
 H      41.36500000      40.32200000      37.95200000
 H      39.95500000      39.81400000      37.63400000
 O      17.84800000      39.91400000      27.07100000
 H      17.33800000      40.57400000      26.58300000
 H      18.14700000      39.38700000      26.29600000
 O       6.42200000      35.67800000      23.20100000
 H       7.03800000      34.99200000      23.00400000
 H       6.32500000      36.19700000      22.38400000
 O      31.06600000      35.82300000      35.47800000
 H      31.34900000      36.69400000      35.87500000
 H      30.38200000      36.21400000      34.84000000
 O      27.83100000      34.21900000      32.43900000
 H      28.55500000      34.79500000      32.80400000
 H      27.05300000      34.49900000      32.91000000
 O      14.28200000      40.28000000      33.00500000
 H      14.41200000      39.54800000      33.60500000
 H      13.30700000      40.31000000      32.79500000
 O      20.07100000      34.97700000      32.74400000
 H      19.83000000      35.21000000      33.67000000
 H      19.18800000      34.71300000      32.37300000
 O      14.95000000      37.24400000      14.97000000
 H      14.41900000      36.69100000      14.29100000
 H      15.77400000      37.31300000      14.39500000
 O       9.00600000      38.77500000      29.78600000
 H       8.58500000      39.31400000      29.07100000
 H       9.83700000      38.49100000      29.30200000
 O      15.25200000      39.20800000      27.84800000
 H      15.03500000      40.10900000      28.12700000
 H      16.11100000      39.38500000      27.43600000
 O      38.28300000      35.75600000      21.83700000
 H      37.81300000      35.52300000      20.96600000
 H      39.12200000      36.04100000      21.52600000
 O      38.82800000      37.37200000      17.81100000
 H      38.76900000      37.97400000      17.00400000
 H      37.84500000      37.38900000      18.01700000
 O      13.17900000      40.18600000      24.57300000
 H      12.84500000      40.67600000      23.75800000
 H      12.47900000      40.43300000      25.19400000
 O      29.24000000      37.01000000      38.58600000
 H      30.01800000      36.41800000      38.55100000
 H      29.59600000      37.84900000      38.99200000
 O      19.76600000      39.75800000      20.15200000
 H      19.76100000      40.73200000      20.29400000
 H      20.77900000      39.70000000      20.36400000
 O      27.27300000      38.63100000      29.28500000
 H      27.25800000      39.57000000      28.91300000
 H      26.37500000      38.35600000      28.96500000
 O      39.77000000      36.51900000      39.47000000
 H      39.83100000      37.36200000      39.96900000
 H      39.70600000      35.90100000      40.29600000
 O      10.14700000      37.53500000      17.79800000
 H      10.89200000      37.17400000      18.25200000
 H       9.47700000      36.79300000      17.78900000
 O       8.05900000      36.42300000      30.56400000
 H       8.91400000      35.85700000      30.54400000
 H       8.53800000      37.30100000      30.38000000
 O      25.89000000      34.03900000      29.97700000
 H      25.08600000      34.59800000      29.84000000
 H      25.46700000      33.18500000      30.06000000
 O      10.06000000      39.64700000      23.25100000
 H      10.32700000      38.72700000      23.35600000
 H       9.30600000      39.63000000      23.90100000
 O      28.02100000      35.96300000      19.63000000
 H      28.18600000      35.04200000      19.90800000
 H      28.83700000      36.41400000      19.93100000
 O      29.10800000      35.95600000      23.65400000
 H      29.03500000      36.48800000      24.41100000
 H      28.77300000      36.49300000      22.91200000
 O      16.04400000      39.98700000      35.82500000
 H      16.95000000      39.89100000      36.11500000
 H      16.11200000      40.58300000      35.07100000
 O      35.92900000      39.80000000      33.76500000
 H      35.81100000      39.89900000      34.77100000
 H      36.90700000      39.69800000      33.78700000
 O      11.43000000      36.02400000      36.51100000
 H      11.13000000      35.05300000      36.47600000
 H      11.08600000      36.33800000      35.65400000
 O      28.03900000      37.43900000      25.97400000
 H      28.01000000      38.39900000      26.18100000
 H      28.50000000      37.16700000      26.83300000
 O       6.60000000      39.11200000      31.37300000
 H       7.38600000      38.68900000      30.99700000
 H       6.05900000      38.32200000      31.57400000
 O      30.94900000      36.06100000      18.48600000
 H      31.02300000      36.46400000      19.38800000
 H      30.34400000      36.74800000      18.09200000
 O      13.24700000      35.75400000      16.70200000
 H      13.82800000      35.95700000      17.47300000
 H      13.64700000      36.34500000      16.04000000
 O      40.40000000      36.77400000      19.95600000
 H      40.00800000      37.11800000      19.10800000
 H      40.86200000      37.58200000      20.21600000
 O      33.74000000      35.60500000      18.19200000
 H      33.90000000      34.67200000      18.39500000
 H      32.78500000      35.62400000      18.48200000
 O      19.76000000      35.91000000      28.15400000
 H      20.36300000      35.14500000      28.45700000
 H      20.40300000      36.33900000      27.54700000
 O      23.47200000      35.26300000      30.38500000
 H      23.00100000      36.01100000      30.84300000
 H      22.80100000      34.99100000      29.74300000
 O      29.28000000      39.85000000      26.23300000
 H      29.73400000      40.65500000      26.47400000
 H      29.97500000      39.31500000      25.79000000
 O       9.06500000      36.72200000      21.45100000
 H       8.67200000      35.87300000      21.60300000
 H       9.35900000      36.94700000      22.38200000
 O      36.88600000      38.07500000      22.97700000
 H      37.47700000      38.79500000      22.77600000
 H      37.32800000      37.30200000      22.64200000
 O      38.46000000      38.13900000      37.74600000
 H      39.20700000      37.68300000      38.16100000
 H      37.83500000      37.35500000      37.50100000
 O       9.82100000      38.15500000      14.47500000
 H      10.27400000      37.71000000      13.69300000
 H       9.33900000      37.31700000      14.81700000
 O      32.82100000      39.86600000      17.28000000
 H      32.22800000      39.41600000      17.93600000
 H      33.41200000      40.33300000      17.83000000
 O      19.95300000      38.94500000      31.41900000
 H      19.96900000      38.93800000      30.42200000
 H      19.07700000      38.53800000      31.59600000
 O      11.96000000      38.72900000      39.73100000
 H      11.43900000      37.94800000      39.59200000
 H      11.58300000      39.41000000      39.19800000
 O      38.54200000      39.91800000      32.90800000
 H      39.12900000      40.40600000      33.54400000
 H      39.06900000      39.97100000      32.09500000
 O      27.68200000      37.81000000      14.90600000
 H      27.46600000      36.90500000      15.11100000
 H      28.12500000      37.76500000      14.06000000
 O      13.25900000      37.17800000      27.21700000
 H      13.74300000      36.29600000      27.24100000
 H      13.99400000      37.77800000      27.10300000
 O      29.69500000      40.43900000      34.78800000
 H      30.02400000      39.54200000      34.71900000
 H      30.37500000      40.93500000      34.27100000
 O      27.39800000      39.91800000      24.09300000
 H      28.06600000      40.03200000      24.77300000
 H      26.66800000      40.50100000      24.42900000
 O      16.40000000      38.74700000      17.35700000
 H      15.98100000      38.55400000      16.52700000
 H      17.06900000      38.02400000      17.43700000
 O      32.70500000      35.20900000      30.33700000
 H      32.08400000      35.92100000      30.11600000
 H      32.16700000      34.46000000      29.94800000
 O      12.21300000      40.30000000      29.29900000
 H      11.72200000      39.83800000      28.62900000
 H      12.76800000      40.86900000      28.78000000
 O      17.31600000      36.99800000      13.60700000
 H      17.62600000      36.19800000      13.12400000
 H      17.91300000      36.86600000      14.37900000
 O      19.44800000      38.87200000      24.65900000
 H      18.82200000      39.27600000      24.03300000
 H      19.46500000      37.94800000      24.36000000
 O       9.00300000      37.32400000      37.98500000
 H       9.87400000      37.09200000      37.69400000
 H       8.42600000      36.90900000      37.35100000
 O       9.19800000      39.37500000      19.71300000
 H       9.39600000      38.80000000      18.93500000
 H       9.34300000      38.58100000      20.38500000
 O      15.22100000      39.07700000      23.70400000
 H      14.86700000      38.98600000      22.77500000
 H      14.37900000      39.43500000      24.18100000
 O      17.22200000      36.60200000      27.37600000
 H      17.28900000      36.77200000      26.39300000
 H      18.07900000      36.28700000      27.59600000
 O      10.18000000      37.00700000      23.74100000
 H       9.94300000      36.88200000      24.67800000
 H      10.67900000      36.17300000      23.50300000
 O      18.12200000      39.81800000      14.80600000
 H      18.14200000      38.94400000      15.18900000
 H      18.32400000      39.63500000      13.87600000
 O      27.40300000      39.68300000      37.83500000
 H      27.84200000      38.80100000      37.64000000
 H      28.16100000      40.08300000      38.34500000
 O      34.27700000      37.94400000      29.89100000
 H      34.55400000      37.16300000      30.29700000
 H      33.31600000      37.96900000      30.00700000
 O      27.10000000      40.63700000      15.78300000
 H      26.99700000      39.68900000      15.87400000
 H      28.03900000      40.72100000      15.88600000
 O       7.06100000      39.55400000      14.29200000
 H       7.15300000      40.52200000      14.28000000
 H       8.00500000      39.28900000      14.30300000
 O      21.96700000      39.68800000      25.14100000
 H      21.67100000      40.64500000      25.19200000
 H      21.07800000      39.27100000      25.02800000
 O      24.84800000      38.03600000      28.35200000
 H      24.13700000      38.42800000      28.87600000
 H      24.58600000      37.16100000      28.14700000
 O      35.13200000      37.38900000      39.73300000
 H      35.92400000      37.81900000      40.20100000
 H      35.13300000      37.97200000      38.94000000
 O      23.10400000      39.27900000      31.98100000
 H      22.33500000      38.69500000      32.06300000
 H      23.76700000      38.77800000      32.37800000
 O      13.61700000      34.98000000      31.23200000
 H      13.98300000      35.47800000      30.44400000
 H      13.85700000      35.58100000      31.95700000
 O      18.73800000      39.93500000      35.93100000
 H      19.10600000      40.28200000      35.09400000
 H      19.35000000      40.39700000      36.54200000
 O      28.91600000      36.65600000      28.34800000
 H      28.25200000      37.10400000      28.80600000
 H      28.70100000      35.68000000      28.58400000
 O      26.70000000      35.28100000      35.22800000
 H      26.03200000      34.73900000      34.81600000
 H      26.19500000      35.70800000      35.95100000
 O      25.71100000      36.15400000      26.01000000
 H      26.58500000      36.47900000      26.15600000
 H      25.26100000      36.95800000      25.80000000
 O      10.97600000      39.20500000      35.76200000
 H      11.73500000      38.64200000      35.96200000
 H      10.99600000      39.76600000      36.55800000
 O      31.17400000      38.46800000      24.82400000
 H      31.28300000      37.73200000      25.52900000
 H      32.09200000      38.58000000      24.49700000
 O      10.70800000      39.86100000      16.56500000
 H      10.68400000      39.36900000      15.71200000
 H      10.56700000      39.11300000      17.17900000
 O       8.36800000      35.91400000      14.79700000
 H       8.68600000      35.07100000      15.20400000
 H       8.08600000      35.66400000      13.93700000
 O      30.34800000      36.85400000      21.17200000
 H      29.89200000      37.53700000      21.74100000
 H      30.76400000      36.31600000      21.84500000
 O       7.35300000      34.86900000      26.66200000
 H       7.73200000      34.12800000      26.16700000
 H       6.79800000      34.37500000      27.32600000
 O      40.18700000      40.61900000      24.28200000
 H      40.07300000      39.71400000      24.68100000
 H      41.12800000      40.76200000      24.60400000
 O      25.80800000      36.23600000      23.18200000
 H      25.29400000      35.42500000      23.07900000
 H      26.06300000      36.18700000      24.13200000
 O      25.02900000      40.64100000      17.63100000
 H      25.80000000      40.95900000      17.08200000
 H      25.52400000      40.45600000      18.48600000
 O      19.69300000      35.02200000      18.75100000
 H      20.11800000      34.38900000      19.39500000
 H      19.71600000      34.53700000      17.92800000
 O      29.82600000      39.93600000      39.32000000
 H      29.99700000      40.73200000      38.82300000
 H      30.16700000      40.24200000      40.23300000
 O       7.84000000      40.30100000      36.88500000
 H       7.21800000      40.47500000      37.57400000
 H       7.38100000      39.55400000      36.42200000
 O      28.71100000      36.36900000      34.04100000
 H      28.31200000      36.92500000      33.36600000
 H      27.87500000      36.05800000      34.49300000
 O      31.15300000      38.66900000      32.32400000
 H      31.61100000      38.03800000      32.83200000
 H      31.58400000      39.50100000      32.65100000
 O      22.88200000      47.71000000      19.34400000
 H      22.60700000      48.51300000      18.93400000
 H      22.75300000      47.03000000      18.71900000
 O       7.44400000      43.79500000      13.90700000
 H       8.44600000      43.80700000      13.84500000
 H       7.27500000      44.55500000      14.47300000
 O      33.39300000      45.82300000      29.58400000
 H      32.59500000      46.31600000      29.46800000
 H      33.49500000      45.67700000      30.55300000
 O      28.94300000      45.23500000      17.92500000
 H      27.98500000      45.19500000      18.11500000
 H      29.14300000      46.10200000      18.25200000
 O      32.46900000      43.71900000      22.62200000
 H      32.09700000      43.81900000      21.72200000
 H      33.32700000      43.33800000      22.40200000
 O      22.47000000      42.15100000      20.56500000
 H      22.93800000      42.42700000      21.42200000
 H      21.86200000      42.92700000      20.48900000
 O      37.21300000      45.23600000      13.87000000
 H      37.60500000      45.54100000      14.68900000
 H      37.05100000      46.15900000      13.47600000
 O      31.86700000      47.41300000      36.41600000
 H      32.58400000      46.80900000      36.68000000
 H      31.29700000      46.78800000      35.94900000
 O      20.60800000      47.81900000      33.15500000
 H      21.46600000      48.04100000      33.57800000
 H      20.24400000      48.77400000      33.05700000
 O      30.54000000      43.56300000      27.15600000
 H      31.48100000      43.42100000      27.30300000
 H      30.50300000      43.81700000      26.19900000
 O      25.21300000      42.44200000      25.49100000
 H      25.91900000      43.15400000      25.33500000
 H      24.95200000      42.76700000      26.36800000
 O      20.88600000      47.88500000      13.75800000
 H      21.44000000      48.64000000      13.47600000
 H      20.29300000      48.33800000      14.38500000
 O      34.13700000      45.29100000      16.66900000
 H      35.14200000      45.42300000      16.61500000
 H      33.93100000      46.25900000      16.63200000
 O       7.25400000      46.08600000      16.68800000
 H       6.58300000      46.40100000      16.09700000
 H       6.92500000      45.19400000      16.88300000
 O      21.47900000      48.57700000      38.02700000
 H      21.29900000      47.57700000      37.91500000
 H      22.34300000      48.74200000      37.63200000
 O      33.36200000      48.39700000      32.13400000
 H      33.28000000      49.09800000      32.86600000
 H      32.72200000      47.77800000      32.47500000
 O      35.74200000      48.68900000      26.23900000
 H      35.04100000      49.09400000      26.71000000
 H      35.91000000      47.86600000      26.80300000
 O      38.86900000      45.82800000      40.50800000
 H      38.04500000      46.32100000      40.55800000
 H      39.39600000      46.28500000      41.19700000
 O      14.51500000      45.51100000      29.85100000
 H      15.06000000      46.26100000      29.60000000
 H      14.24600000      45.72100000      30.75200000
 O      36.20200000      42.17100000      31.32400000
 H      36.15400000      41.74500000      32.21200000
 H      37.16400000      42.03000000      31.13300000
 O      33.89800000      45.64500000      36.57300000
 H      34.77300000      45.71900000      37.02900000
 H      34.18800000      45.25700000      35.77000000
 O      33.34800000      48.11300000      39.83700000
 H      33.08600000      49.03100000      40.04400000
 H      33.91900000      48.22700000      39.04000000
 O      35.44400000      45.06000000      39.15500000
 H      35.28200000      45.02700000      40.09100000
 H      35.21300000      46.00600000      38.95800000
 O      19.53700000      44.41800000      27.95300000
 H      18.95100000      44.21600000      27.21400000
 H      19.00400000      44.44700000      28.71000000
 O      37.75300000      44.94400000      29.12100000
 H      37.74000000      43.99400000      28.85600000
 H      38.61100000      45.21600000      28.82500000
 O      13.08600000      46.38900000      21.59400000
 H      13.19400000      45.99900000      20.68700000
 H      13.79300000      47.10300000      21.51300000
 O      32.71600000      43.09900000      37.16900000
 H      32.98000000      43.95300000      36.85900000
 H      31.98900000      43.29200000      37.79000000
 O      25.05700000      48.27900000      24.96400000
 H      24.10700000      48.55800000      24.75700000
 H      25.52700000      49.10600000      24.58600000
 O      35.53800000      44.28000000      34.10500000
 H      35.86800000      43.47600000      34.51800000
 H      36.33800000      44.57000000      33.60600000
 O      34.71400000      47.25200000      21.99700000
 H      35.45700000      47.66500000      22.50000000
 H      34.75600000      46.30500000      22.31900000
 O      37.13000000      44.46600000      19.95000000
 H      37.99400000      44.77000000      20.35000000
 H      37.47300000      43.99400000      19.13600000
 O      30.89900000      43.83700000      13.37600000
 H      31.17700000      43.88100000      14.28900000
 H      29.91000000      43.90100000      13.35800000
 O      39.51100000      46.79200000      31.20000000
 H      39.81700000      47.66300000      31.50100000
 H      39.46800000      46.99000000      30.25300000
 O      17.42100000      47.13100000      20.47100000
 H      16.46900000      47.21200000      20.51100000
 H      17.77400000      48.00100000      20.32300000
 O      15.60600000      45.53900000      17.77100000
 H      15.81100000      45.44600000      16.85500000
 H      15.95700000      44.71700000      18.10800000
 O      13.98300000      44.74500000      23.43900000
 H      13.72200000      43.99900000      22.92500000
 H      13.72500000      45.45100000      22.74600000
 O      35.75900000      43.29300000      13.15800000
 H      36.30800000      44.08800000      13.46800000
 H      35.32600000      43.15500000      14.00300000
 O      17.73100000      42.82300000      40.76300000
 H      17.09600000      42.72600000      41.52900000
 H      17.21600000      42.41800000      40.02600000
 O       9.35000000      45.38900000      31.16900000
 H       9.03000000      44.46900000      31.38900000
 H       8.48100000      45.73300000      30.88000000
 O       7.00100000      44.79100000      37.25600000
 H       7.62900000      44.29700000      37.84600000
 H       7.28000000      44.36600000      36.39800000
 O      11.58800000      48.03600000      19.40500000
 H      11.67600000      47.61600000      20.30200000
 H      11.83600000      47.19400000      18.89500000
 O      27.58300000      46.96800000      15.00200000
 H      27.83300000      46.09000000      14.65200000
 H      26.96500000      46.74000000      15.73100000
 O      17.84700000      47.50700000      24.74800000
 H      18.60300000      47.26200000      25.23700000
 H      17.72100000      46.72200000      24.12800000
 O      16.77500000      42.83100000      18.30600000
 H      17.65200000      42.92900000      17.84000000
 H      16.49700000      41.96400000      18.00800000
 O      25.98100000      47.80200000      28.56600000
 H      26.64600000      47.96800000      29.25500000
 H      25.98400000      48.71900000      28.13800000
 O      32.60500000      48.49600000      26.72500000
 H      32.83600000      47.69100000      26.33500000
 H      32.93000000      49.20100000      26.04000000
 O      39.75200000      46.77900000      25.50800000
 H      39.75200000      46.15800000      26.21400000
 H      39.15600000      46.26800000      24.85700000
 O      13.46600000      43.51600000      38.43500000
 H      12.74800000      43.92500000      37.95900000
 H      13.14500000      43.57700000      39.37400000
 O      20.42100000      46.77400000      26.37300000
 H      20.35200000      45.98800000      26.96900000
 H      21.39200000      46.68300000      26.15600000
 O      23.29600000      46.45000000      26.54900000
 H      23.31900000      46.96200000      27.38900000
 H      23.86400000      46.99800000      25.97300000
 O      24.33500000      45.35500000      37.10300000
 H      23.36900000      45.50500000      36.77100000
 H      24.64400000      44.87600000      36.26400000
 O      23.26800000      45.60200000      30.09100000
 H      23.56100000      44.94900000      30.77500000
 H      24.05900000      46.15200000      30.09600000
 O      13.04200000      48.11400000      27.81700000
 H      12.89600000      49.03200000      28.07000000
 H      12.68400000      47.66900000      28.60700000
 O      36.92800000      46.13800000      17.12700000
 H      37.58100000      46.40400000      16.45500000
 H      37.08400000      46.70200000      17.87300000
 O      35.72900000      45.93700000      27.59200000
 H      35.01700000      45.89000000      28.27200000
 H      36.52800000      45.64200000      28.13200000
 O      25.60300000      44.82500000      34.68200000
 H      26.40900000      45.24100000      34.27000000
 H      26.00900000      43.97100000      34.99600000
 O      22.72000000      42.39300000      40.01900000
 H      23.27400000      43.19400000      39.89700000
 H      23.23100000      41.73500000      39.50900000
 O      38.82000000      46.96100000      15.44700000
 H      39.12000000      47.72200000      14.90600000
 H      39.74800000      46.70300000      15.73000000
 O      40.16400000      42.15000000      30.84700000
 H      39.75500000      41.94000000      29.96100000
 H      40.47400000      43.04400000      30.70700000
 O      29.78200000      43.83800000      38.04500000
 H      30.15800000      44.68800000      38.37100000
 H      28.98500000      43.78600000      38.57300000
 O       9.43600000      46.80400000      21.13800000
 H       9.13600000      47.76500000      20.91000000
 H      10.06400000      47.04700000      21.85900000
 O       6.94000000      47.00000000      40.31300000
 H       7.52300000      47.29800000      39.58700000
 H       6.30100000      47.72000000      40.29100000
 O      19.90200000      44.37700000      35.24900000
 H      19.26400000      44.86700000      34.74500000
 H      20.04000000      43.59700000      34.67300000
 O      35.73200000      44.81400000      22.49300000
 H      35.63600000      43.84100000      22.62800000
 H      36.16900000      44.84600000      21.61500000
 O       7.17600000      45.40000000      20.99400000
 H       7.05900000      45.66800000      21.88100000
 H       8.15100000      45.62200000      20.85400000
 O       8.57100000      42.95200000      16.97600000
 H       9.10600000      43.69200000      17.32300000
 H       9.29300000      42.32600000      16.72900000
 O      10.98700000      46.23700000      33.10700000
 H      10.72500000      47.13400000      33.38400000
 H      10.37200000      46.11000000      32.33600000
 O      24.96800000      47.58300000      35.12600000
 H      25.13300000      46.62500000      34.88800000
 H      25.93000000      47.85400000      35.16500000
 O      27.93800000      44.40800000      14.22200000
 H      27.69600000      43.67300000      14.81900000
 H      27.10500000      44.53500000      13.69100000
 O      18.60500000      43.65800000      16.36100000
 H      17.91700000      44.07800000      15.85500000
 H      18.54900000      42.73700000      16.01000000
 O      14.74600000      46.46800000      35.22700000
 H      15.26000000      46.07500000      35.94900000
 H      13.90900000      45.89500000      35.34000000
 O      12.46100000      45.20500000      35.69800000
 H      12.21000000      45.46900000      36.62700000
 H      11.63400000      45.30100000      35.30600000
 O      36.39300000      47.69600000      31.56100000
 H      36.66300000      46.78100000      31.72700000
 H      35.41100000      47.60200000      31.67000000
 O      10.96900000      45.78200000      28.77100000
 H      10.40700000      45.48300000      29.50300000
 H      11.61600000      45.02300000      28.68900000
 O      17.59500000      46.28600000      30.58300000
 H      18.61000000      46.17300000      30.68400000
 H      17.38500000      45.38000000      30.51700000
 O      12.93500000      42.66400000      22.08400000
 H      12.16000000      43.10000000      21.70300000
 H      13.01800000      41.91000000      21.42100000
 O      29.70500000      45.27400000      29.03400000
 H      29.91100000      44.71700000      28.26300000
 H      29.53700000      44.46700000      29.64800000
 O      14.74900000      44.71300000      26.03600000
 H      13.98200000      45.05900000      26.52300000
 H      14.36500000      44.50900000      25.17700000
 O      29.25900000      46.87900000      31.49300000
 H      28.57400000      47.57900000      31.33400000
 H      29.37800000      46.54400000      30.60900000
 O      30.22600000      47.36600000      19.13000000
 H      31.18200000      47.60700000      19.40100000
 H      29.71500000      47.90300000      19.70800000
 O      17.72900000      44.29600000      25.80800000
 H      16.81300000      44.10900000      26.05800000
 H      17.68300000      44.49100000      24.89000000
 O      15.13100000      46.28100000      39.84200000
 H      15.42300000      46.27500000      38.92900000
 H      14.50200000      47.01000000      39.80400000
 O      30.74100000      43.15000000      30.37100000
 H      31.65700000      42.99300000      30.60000000
 H      30.56700000      42.53300000      29.66800000
 O      31.49000000      46.26600000      33.05500000
 H      31.16200000      45.77400000      33.82200000
 H      30.64200000      46.43400000      32.53900000
 O      12.28200000      44.30000000      40.73900000
 H      11.54900000      44.90800000      40.75100000
 H      12.02700000      43.76900000      41.56700000
 O      21.52600000      47.31100000      21.83500000
 H      22.31300000      47.28300000      21.17600000
 H      20.82100000      47.08400000      21.18000000
 O      25.79000000      46.29800000      31.17200000
 H      26.34400000      46.31900000      31.92400000
 H      26.21500000      45.66500000      30.54800000
 O      18.18800000      45.92800000      33.90900000
 H      19.01900000      46.28100000      33.58100000
 H      17.59100000      46.32400000      33.18700000
 O      12.74800000      42.48200000      13.37500000
 H      13.64900000      42.18100000      13.66600000
 H      12.63300000      43.11000000      14.08200000
 O      19.67000000      47.69600000      40.18000000
 H      20.20100000      48.06700000      39.41600000
 H      20.06200000      46.83800000      40.28600000
 O      23.14300000      43.60000000      14.50300000
 H      22.84200000      43.28300000      15.38700000
 H      22.26400000      44.12300000      14.25700000
 O      29.59300000      42.84800000      17.09500000
 H      30.50200000      43.22500000      16.73500000
 H      29.22400000      43.71800000      17.32100000
 O      29.88600000      47.89600000      27.36600000
 H      29.95200000      46.96500000      27.71800000
 H      30.73800000      47.95200000      26.89900000
 O      25.99000000      44.66500000      19.02700000
 H      26.40400000      43.82500000      19.29800000
 H      26.15600000      45.20300000      19.82600000
 O      25.71400000      46.85400000      17.24800000
 H      25.69200000      46.05700000      17.85000000
 H      24.85600000      46.74100000      16.80600000
 O      24.33700000      44.52300000      39.60800000
 H      25.05600000      45.11300000      39.94500000
 H      24.48500000      44.71200000      38.63900000
 O      17.20800000      47.45400000      36.18900000
 H      17.60500000      46.99700000      35.42400000
 H      17.07900000      46.74900000      36.85500000
 O      39.09100000      43.90400000      16.20800000
 H      39.04300000      43.98100000      17.16900000
 H      39.68600000      44.68700000      16.01100000
 O      14.53400000      43.22900000      28.32700000
 H      14.52500000      43.88600000      29.05900000
 H      14.65200000      43.86700000      27.55400000
 O      10.16200000      46.04000000      40.60600000
 H      10.10000000      46.30300000      41.55000000
 H       9.57000000      46.73200000      40.20600000
 O      20.20700000      46.15800000      30.88200000
 H      20.38800000      46.62800000      31.75800000
 H      21.18300000      45.97900000      30.65900000
 O      40.18900000      44.87100000      27.80400000
 H      40.30400000      44.20200000      28.51900000
 H      40.89600000      44.69500000      27.23100000
 O      21.76600000      46.05200000      36.33000000
 H      21.67500000      46.91600000      35.97400000
 H      21.07800000      45.54800000      35.88700000
 O      17.22100000      45.44400000      22.87200000
 H      16.86100000      44.63700000      22.54200000
 H      17.39500000      45.94100000      22.07700000
 O      34.18700000      43.08700000      18.94300000
 H      34.46500000      43.99500000      18.70000000
 H      33.26100000      43.40300000      19.22700000
 O      23.39600000      49.01400000      30.52600000
 H      23.50500000      48.02500000      30.58000000
 H      23.96400000      49.36500000      31.22000000
 O      28.57100000      47.00600000      37.69300000
 H      28.04800000      46.24200000      37.50100000
 H      28.17500000      47.32700000      38.51800000
 O      36.52400000      48.29200000      23.55400000
 H      36.03400000      48.39600000      24.39200000
 H      36.87800000      49.19200000      23.42300000
 O       6.77000000      46.95600000      28.49800000
 H       6.25700000      47.09100000      27.64100000
 H       7.70900000      47.08800000      28.17400000
 O      33.50900000      44.52600000      32.04100000
 H      32.89000000      45.20800000      32.45300000
 H      34.15400000      44.42800000      32.82000000
 O      39.94000000      45.36600000      18.45600000
 H      39.96900000      45.06000000      19.39500000
 H      39.70100000      46.30000000      18.58600000
 O      29.62800000      47.04800000      24.28400000
 H      28.82700000      47.02300000      24.86600000
 H      29.32400000      47.73100000      23.64100000
 O      26.44100000      46.19100000      40.49700000
 H      27.17700000      46.87700000      40.26900000
 H      26.20100000      46.57900000      41.33800000
 O      15.73300000      45.15800000      37.38000000
 H      16.68900000      44.87900000      37.42800000
 H      15.27900000      44.36900000      37.67500000
 O      12.63200000      48.04000000      15.62700000
 H      12.24800000      48.81200000      16.15000000
 H      13.40800000      48.42700000      15.23700000
 O      23.24900000      48.55700000      40.71400000
 H      23.51300000      48.67600000      39.80800000
 H      22.90400000      47.66200000      40.74000000
 O      24.47500000      48.06400000      37.98000000
 H      24.57400000      47.02100000      38.03300000
 H      24.57000000      48.03400000      36.96900000
 O       7.31600000      44.30300000      26.52800000
 H       8.12700000      44.51300000      25.95700000
 H       7.72500000      43.59600000      27.10800000
 O      27.17800000      46.65700000      25.77300000
 H      26.35200000      47.09700000      25.50500000
 H      27.45700000      47.23100000      26.52700000
 O      31.87900000      44.61500000      19.59500000
 H      31.26500000      44.87300000      18.87800000
 H      32.22000000      45.50800000      19.88800000
 O      14.69400000      47.27300000      24.57600000
 H      14.89200000      46.45800000      24.13300000
 H      15.51000000      47.40300000      25.09500000
 O      11.89800000      46.19100000      38.27400000
 H      12.46000000      46.42600000      39.02500000
 H      11.06900000      46.05600000      38.75000000
 O      27.51900000      44.07300000      25.28700000
 H      28.44700000      44.04000000      25.09500000
 H      27.35700000      45.02500000      25.47700000
 O      22.58200000      42.31700000      16.88500000
 H      23.56700000      42.08400000      17.06700000
 H      22.34900000      42.54200000      17.83100000
 O      38.22000000      43.31500000      25.79100000
 H      38.90500000      42.91900000      25.20800000
 H      38.00100000      44.11100000      25.32600000
 O      35.08400000      43.50700000      25.59300000
 H      34.61500000      43.27000000      26.42400000
 H      36.01400000      43.36500000      25.80800000
 O      23.63100000      43.47800000      31.94500000
 H      24.27200000      43.67300000      32.66500000
 H      23.22300000      42.64900000      32.23200000
 O       8.85900000      47.99300000      38.65700000
 H       8.38400000      48.29200000      37.83700000
 H       9.51500000      48.74900000      38.71800000
 O      19.95500000      43.83300000      23.34400000
 H      20.46200000      43.93800000      24.15600000
 H      19.20500000      43.30700000      23.59900000
 O      10.74900000      47.43900000      23.19400000
 H      11.57500000      47.00000000      22.85700000
 H      11.11000000      47.93900000      23.95000000
 O      30.13100000      42.31100000      21.40200000
 H      29.88400000      41.42000000      21.66100000
 H      30.77400000      42.54800000      22.09300000
 O      16.72200000      48.45900000      17.56800000
 H      16.08800000      48.63000000      16.88000000
 H      16.36900000      47.60600000      17.91600000
 O      19.48300000      42.40900000      33.21800000
 H      19.93500000      41.83500000      32.56800000
 H      18.61000000      42.48000000      32.73900000
 O      33.26800000      48.21400000      16.87000000
 H      33.21100000      49.04700000      17.45500000
 H      32.62000000      48.44300000      16.22700000
 O      11.10700000      48.65500000      35.93400000
 H      11.24400000      47.97200000      36.60500000
 H      10.09600000      48.66200000      35.98100000
 O      19.34400000      48.88200000      16.12100000
 H      18.44400000      48.63100000      16.46000000
 H      19.81900000      48.09100000      16.30100000
 O      10.14400000      43.77100000      23.20600000
 H      10.00400000      42.75500000      23.36100000
 H      10.16200000      43.86100000      22.25300000
 O      12.36400000      43.08300000      17.67200000
 H      11.81800000      42.37400000      17.17100000
 H      12.98400000      42.37600000      18.09400000
 O      20.52000000      42.40700000      38.12800000
 H      21.47700000      42.49100000      38.20900000
 H      20.17400000      42.25700000      39.01200000
 O      39.01500000      42.55200000      13.60800000
 H      40.02000000      42.56100000      13.60400000
 H      38.80600000      43.08100000      14.39400000
 O      26.81900000      42.44400000      28.10200000
 H      27.09300000      42.70800000      27.16300000
 H      26.27200000      43.29600000      28.27100000
 O      39.86500000      42.68100000      34.83300000
 H      39.49800000      43.48100000      35.33900000
 H      39.91400000      42.06600000      35.56900000
 O      25.27600000      42.19800000      13.36700000
 H      25.90000000      42.12700000      14.15400000
 H      24.47600000      42.50600000      13.82100000
 O      17.51400000      43.37100000      30.11200000
 H      17.19200000      42.77800000      30.80800000
 H      17.70200000      42.69400000      29.43700000
 O      20.33500000      43.92400000      20.51600000
 H      20.12200000      44.82500000      20.29400000
 H      20.07000000      43.91100000      21.43500000
 O      31.25100000      46.94600000      14.99500000
 H      30.57700000      47.22700000      14.35200000
 H      32.05200000      47.11000000      14.46500000
 O      21.88000000      43.99400000      25.48200000
 H      21.89600000      43.86000000      26.50500000
 H      22.33300000      44.85700000      25.49700000
 O      10.12300000      44.15700000      13.37400000
 H      10.61700000      43.49300000      12.95400000
 H      10.72100000      44.47900000      14.07800000
 O      37.67100000      45.62900000      24.15200000
 H      37.29600000      46.53600000      23.96200000
 H      36.98600000      45.09600000      23.68700000
 O      36.93000000      43.03600000      38.41500000
 H      36.17900000      43.63600000      38.51600000
 H      37.43900000      43.22200000      39.25900000
 O      27.59900000      43.47400000      39.99900000
 H      26.87800000      42.92900000      39.54900000
 H      27.06700000      44.10200000      40.55400000
 O      27.54800000      45.99100000      33.51000000
 H      27.53000000      46.91700000      33.91100000
 H      28.31400000      46.09200000      32.90400000
 O      27.22100000      42.87800000      35.59400000
 H      27.24100000      42.34400000      36.37000000
 H      28.07000000      42.66100000      35.15700000
 O      19.71300000      46.64500000      19.32600000
 H      18.80900000      46.57600000      19.71800000
 H      19.68800000      47.59100000      19.07300000
 O      16.06400000      47.46100000      32.39500000
 H      16.54200000      47.08000000      31.62800000
 H      15.28600000      46.81800000      32.43300000
 O      40.65700000      48.89200000      40.13200000
 H      40.92600000      48.07400000      40.60300000
 H      41.19200000      49.59200000      40.48100000
 O      27.36900000      45.66500000      21.56900000
 H      27.63700000      45.61800000      22.50800000
 H      27.57100000      46.60700000      21.36700000
 O      18.36300000      44.63800000      37.29400000
 H      18.82200000      44.22300000      38.01200000
 H      18.96600000      44.37300000      36.51400000
 O      39.70400000      44.74100000      21.32500000
 H      40.27900000      43.96500000      21.53000000
 H      40.20100000      45.43600000      21.88500000
 O      25.29800000      45.05300000      27.80600000
 H      24.55100000      45.28000000      27.16200000
 H      25.55800000      46.01600000      28.03400000
 O      16.44900000      43.20100000      21.21700000
 H      15.66800000      42.72700000      21.01600000
 H      16.88300000      43.20400000      20.30100000
 O      38.45000000      42.27100000      28.60700000
 H      38.17400000      42.67200000      27.73300000
 H      37.92200000      41.44200000      28.55500000
 O      32.94900000      45.63300000      25.48000000
 H      33.67000000      44.92600000      25.49600000
 H      32.60600000      45.53700000      24.56000000
 O      40.26500000      44.86100000      38.49000000
 H      39.87000000      44.80400000      37.62200000
 H      39.50400000      45.18600000      39.06500000
 O      31.39000000      42.74400000      32.96700000
 H      30.80200000      42.84300000      32.14400000
 H      32.14800000      43.27500000      32.64700000
 O      21.96100000      45.85100000      40.33200000
 H      21.31100000      45.19300000      40.68000000
 H      22.76300000      45.34200000      40.19700000
 O       8.74300000      43.95900000      39.46800000
 H       9.06900000      44.91300000      39.63600000
 H       8.11900000      43.88900000      40.18500000
 O      31.24300000      45.93200000      38.87200000
 H      30.62200000      46.62300000      38.64700000
 H      31.94500000      46.46000000      39.28900000
 O       8.72800000      42.94800000      31.45500000
 H       8.67000000      42.27000000      30.79800000
 H       8.80800000      42.36100000      32.28700000
 O      39.21700000      48.18200000      28.73600000
 H      38.42900000      48.65600000      28.85200000
 H      39.76900000      48.88900000      28.34300000
 O      20.73400000      45.82700000      16.76400000
 H      20.34300000      44.99800000      16.51300000
 H      20.67400000      45.74000000      17.73400000
 O      10.62400000      43.25200000      20.28300000
 H      10.67300000      43.67300000      19.43800000
 H      10.51600000      42.30000000      20.01800000
 O      33.15700000      43.18400000      27.66700000
 H      33.05600000      42.56000000      28.37900000
 H      33.11200000      44.05400000      28.14200000
 O       9.49000000      45.20400000      18.21100000
 H       9.60100000      45.74300000      18.95900000
 H       8.87200000      45.64300000      17.59500000
 O       7.93600000      48.00300000      24.10100000
 H       7.31400000      47.18000000      24.06300000
 H       8.72700000      47.53400000      23.75900000
 O      27.86500000      43.02700000      20.06600000
 H      27.81300000      43.96200000      20.41400000
 H      28.81000000      42.84100000      20.30200000
 O      13.63800000      45.96500000      32.34300000
 H      14.01000000      45.59100000      33.19600000
 H      12.72600000      46.03200000      32.56500000
 O      15.66000000      42.13300000      13.69800000
 H      16.52800000      41.98900000      14.08100000
 H      15.81400000      43.02000000      13.31600000
 O      12.71200000      45.97800000      18.39100000
 H      12.53900000      44.96000000      18.16700000
 H      13.64800000      46.02000000      18.18600000
 O      23.28600000      46.82200000      16.19100000
 H      22.43100000      46.36700000      16.37500000
 H      23.32100000      46.97000000      15.20300000
 O       7.95600000      48.09000000      14.20300000
 H       7.08700000      48.33600000      13.86700000
 H       7.80700000      47.92100000      15.10800000
 O      11.53100000      44.96500000      15.49600000
 H      11.93800000      45.83400000      15.72200000
 H      11.69200000      44.51300000      16.39400000
 O      31.71300000      44.40000000      16.18300000
 H      32.66400000      44.42400000      16.39000000
 H      31.53400000      45.29400000      15.93200000
 O      23.48100000      42.53900000      23.16000000
 H      24.17200000      42.31900000      23.82200000
 H      22.84600000      43.14300000      23.58600000
 O       9.68600000      44.93000000      25.43700000
 H       9.71100000      44.35000000      24.59800000
 H      10.60700000      45.29200000      25.33700000
 O      37.18700000      46.83800000      36.84000000
 H      36.43200000      47.45400000      37.12600000
 H      37.92100000      47.42400000      37.07100000
 O      16.51400000      45.03700000      15.13400000
 H      16.47400000      45.98600000      14.87900000
 H      16.61100000      44.61300000      14.26200000
 O       8.07700000      43.69200000      35.07600000
 H       7.96400000      42.96900000      35.74000000
 H       8.83300000      43.43500000      34.62500000
 O      37.49700000      45.00800000      32.04800000
 H      38.28500000      45.69900000      31.93100000
 H      37.46300000      44.69200000      31.15400000
 O       9.24000000      47.34200000      27.49200000
 H       9.97800000      46.73500000      27.81700000
 H       9.14300000      46.98300000      26.58100000
 O      32.79900000      47.26200000      19.70700000
 H      33.35800000      47.47000000      20.51600000
 H      33.43200000      47.44200000      18.98200000
 O      38.54600000      44.37000000      36.40900000
 H      38.44600000      45.28000000      36.18100000
 H      37.84600000      44.12300000      37.01500000
 O      30.85400000      44.84600000      35.56500000
 H      31.33800000      43.98000000      35.59900000
 H      30.02500000      44.59000000      36.04500000
 O      22.32900000      43.89700000      28.23500000
 H      22.83400000      44.43700000      28.90100000
 H      21.42900000      44.11800000      28.50000000
 O      12.16900000      45.94600000      25.91200000
 H      12.39600000      46.68800000      26.55500000
 H      12.63300000      46.40000000      25.15100000
 O       7.31600000      42.53700000      19.79400000
 H       7.99300000      43.27100000      19.68900000
 H       7.96700000      41.78000000      19.75300000
 O      30.34700000      44.38700000      24.39200000
 H      30.14400000      45.31800000      24.28900000
 H      31.12000000      44.20000000      23.82000000
