30
XYZ file of cluster: frame_9000_cb042.81975.276c2 - created by MolEdiTo
 O      19.61600000      17.33500000       6.96700000
 H      20.47200000      17.12200000       7.33400000
 H      19.18600000      16.40200000       7.00400000
 O      18.68900000      12.61100000       7.38200000
 H      17.78400000      12.35900000       7.34100000
 H      19.07100000      12.06200000       8.17800000
 O      20.04300000      13.07200000       4.85000000
 H      19.19300000      12.70100000       5.04300000
 H      20.58500000      13.24400000       5.65300000
 O      17.85300000      15.33500000       6.85700000
 H      17.79500000      15.66500000       5.93100000
 H      17.76200000      14.39700000       6.65600000
 O      23.58500000      17.11100000       8.64900000
 H      23.46500000      17.68500000       9.50900000
 H      24.55800000      17.01600000       8.61400000
 O      22.54400000      16.16800000       4.07900000
 H      21.92800000      16.90000000       3.97600000
 H      22.69100000      16.01300000       5.09700000
 O      22.93300000      14.23700000       7.12500000
 H      22.95100000      13.27900000       7.56000000
 H      23.66400000      14.70400000       7.53700000
 O      22.82200000      13.79100000      10.78800000
 H      22.72500000      13.49100000       9.83700000
 H      22.04600000      14.31000000      11.05800000
 O      25.23600000      12.34700000       3.41000000
 H      26.07300000      12.80100000       3.83500000
 H      24.60000000      13.00600000       3.42800000
 O      23.10200000      11.85700000       8.61900000
 H      22.42900000      11.22600000       8.31200000
 H      24.00400000      11.42400000       8.61400000
