36
XYZ file of cluster: frame_9000_9e8de.47f0f.98c3a - created by MolEdiTo
 O      17.33300000      12.44900000      13.77700000
 H      17.45200000      13.23300000      13.21400000
 H      17.90500000      12.76900000      14.56200000
 O      17.26500000      13.65900000      20.22300000
 H      17.99700000      14.13500000      20.68300000
 H      16.72600000      14.39100000      19.78600000
 O      19.90800000      11.26000000      19.92300000
 H      19.76900000      10.39800000      19.50300000
 H      19.52300000      11.90900000      19.32500000
 O      15.74600000      10.37300000      19.45600000
 H      15.54900000      10.63400000      20.35600000
 H      14.94300000       9.89100000      19.13300000
 O      14.67900000      13.05200000      16.14300000
 H      14.81000000      12.04900000      16.30400000
 H      13.87200000      13.08900000      15.58000000
 O      15.16400000       7.19000000      18.82300000
 H      14.90400000       6.23200000      18.64000000
 H      14.79400000       7.51900000      19.69600000
 O      17.22000000       8.03000000      16.84800000
 H      17.24400000       7.34600000      16.11300000
 H      16.50100000       7.62700000      17.33500000
 O      17.42500000      13.94700000      17.45600000
 H      16.87400000      13.52500000      18.11500000
 H      17.97400000      13.18600000      17.16100000
 O      16.26600000       9.99000000      14.26400000
 H      16.58200000      10.88100000      14.24800000
 H      17.01700000       9.36200000      14.29700000
 O      18.78000000       7.04800000      18.82100000
 H      18.24600000       7.00900000      19.62500000
 H      18.20700000       7.37500000      18.07300000
 O      19.43000000      13.51600000      15.12200000
 H      19.92700000      14.03900000      14.46700000
 H      19.81800000      13.81600000      16.01000000
 O      17.21900000      10.84000000      16.98900000
 H      16.75000000      10.68600000      17.84400000
 H      17.14000000       9.95300000      16.53400000
