64
XYZ file of cluster: frame_9000_25085.5c3c4.19ee5 - created by MolEdiTo
 O       7.00600000      13.39700000       9.57800000
 H       7.43400000      12.78500000      10.22700000
 H       6.25900000      13.84000000      10.05100000
 O       5.57000000      11.01200000       5.58500000
 H       4.89900000      10.90300000       6.29200000
 H       5.30900000      11.93800000       5.27400000
 O      10.87700000      16.56000000      10.26100000
 H      10.73700000      17.48800000       9.90800000
 H      10.42100000      15.91600000       9.71500000
 O       6.82100000      15.68600000       3.05800000
 H       6.30100000      15.94400000       2.24300000
 H       6.60900000      16.31200000       3.68100000
 O       7.98300000      10.70200000       7.07400000
 H       8.08700000      11.20000000       6.27500000
 H       7.07600000      10.30600000       6.76700000
 O       8.21100000      17.59500000       6.25500000
 H       8.64900000      17.99200000       7.00600000
 H       7.69300000      16.83400000       6.64000000
 O       4.98900000      13.87100000       5.28600000
 H       5.76900000      14.36200000       5.71900000
 H       4.25200000      14.46200000       5.59400000
 O      10.64000000      14.56200000       7.81100000
 H      10.42100000      14.04200000       6.92800000
 H      11.58900000      14.54100000       7.84500000
 O      10.80400000      12.86700000       5.40000000
 H      11.28700000      12.21600000       4.77500000
 H       9.98300000      13.19100000       4.97400000
 O       4.04100000      16.43900000       6.27300000
 H       3.58200000      17.03800000       6.91900000
 H       4.35900000      17.06300000       5.53800000
 O      10.95900000      16.10300000       5.44200000
 H      11.43600000      16.69500000       6.12100000
 H      10.04600000      16.19700000       5.73000000
 O       8.73600000      13.85100000       4.22500000
 H       7.91800000      14.31000000       3.86900000
 H       8.91200000      13.23100000       3.51400000
 C      10.84100000      11.62700000       9.75500000
 C      10.33300000      10.19900000       9.91200000
 C      11.53300000       9.87800000      12.32200000
 H       9.48800000      10.15300000      11.87800000
 H      10.29100000      13.30300000       9.26000000
 O      10.09700000       8.16700000      11.33400000
 O      11.33700000      11.69500000       8.46200000
 O       9.88900000      12.66700000       9.91700000
 C      10.35100000       9.60400000      11.39100000
 O       9.00300000      10.10500000       9.39700000
 H      11.02200000       9.57500000       9.27600000
 O      12.70400000       9.23400000      11.87900000
 O      11.92200000      11.26700000      12.41700000
 H      12.86500000      11.28800000      12.43100000
 H       9.00600000      10.31700000       8.37600000
 H       9.25200000       7.99000000      10.96100000
 O       5.49800000      15.28200000      11.35900000
 H       5.06900000      15.72700000      10.47300000
 H       5.23600000      15.72700000      12.22200000
 O       7.68100000      14.92400000       7.45200000
 H       7.24600000      14.31000000       8.10600000
 H       8.58700000      14.66400000       7.51700000
 O       3.87600000      12.34700000       3.41000000
 H       4.71300000      12.80100000       3.83500000
 H       3.24000000      13.00600000       3.42800000
 O       5.56400000      16.49400000       8.66400000
 H       5.61600000      17.44500000       8.87400000
 H       6.48300000      16.23400000       8.21800000
