51
XYZ file of cluster: frame_9000_2000e.7cf06.c1871 - created by MolEdiTo
 O       5.34900000      15.22000000      18.08100000
 H       5.45400000      14.23800000      18.01500000
 H       5.07500000      15.50400000      17.16800000
 O      10.78200000      17.63400000      18.99300000
 H      11.73600000      17.55600000      19.35200000
 H      10.45500000      18.45500000      19.46000000
 O       8.98500000      11.04900000      18.63100000
 H       9.90700000      11.09300000      18.26100000
 H       8.74300000      11.99400000      18.81500000
 O       7.67100000      13.72200000      19.47900000
 H       7.17000000      13.31800000      20.21800000
 H       7.15600000      14.50100000      19.31800000
 O       8.01700000      16.77100000      18.47700000
 H       7.56900000      17.22000000      17.64800000
 H       8.97300000      16.94100000      18.30100000
 O       6.04400000      17.02800000      20.63100000
 H       6.75300000      17.43500000      20.06300000
 H       5.48800000      16.48100000      19.96700000
 O       7.72800000      13.61400000      16.82900000
 H       7.74200000      13.70900000      17.85800000
 H       8.28400000      12.80000000      16.74000000
 O       9.92900000      15.24900000      20.38100000
 H       9.23300000      14.62700000      19.98000000
 H      10.24400000      15.74500000      19.64300000
 O       8.86400000      11.54400000      23.88800000
 H       8.30800000      10.82300000      24.18100000
 H       8.56500000      11.45700000      22.96300000
 O       5.67600000      12.48000000      22.05300000
 H       5.19600000      11.69000000      21.69600000
 H       5.20600000      12.65600000      22.98800000
 O      11.32500000      15.38500000      23.84400000
 H      10.67600000      15.37500000      23.12400000
 H      10.82900000      15.75400000      24.61600000
 O       6.82100000      15.68600000      24.17600000
 H       6.30100000      15.94400000      23.36100000
 H       6.60900000      16.31200000      24.79900000
 O       3.69800000      15.17300000      24.05100000
 H       2.80000000      15.47600000      24.34100000
 H       3.79600000      15.71100000      23.22000000
 O       8.73600000      13.85100000      25.34300000
 H       7.91800000      14.31000000      24.98700000
 H       8.91200000      13.23100000      24.63200000
 O      11.04800000      12.61600000      22.40600000
 H      10.77600000      13.48400000      22.82100000
 H      10.63500000      11.94400000      23.01600000
 O       3.87600000      12.34700000      24.52800000
 H       4.71300000      12.80100000      24.95300000
 H       3.24000000      13.00600000      24.54600000
 O       9.09400000      17.41200000      23.57500000
 H       8.66300000      16.73700000      23.08300000
 H       9.67200000      17.80800000      22.90500000
