42
XYZ file of cluster: frame_9000_a2103.5002a.49b92 - created by MolEdiTo
 O      17.33300000      12.44900000      13.77700000
 H      17.45200000      13.23300000      13.21400000
 H      17.90500000      12.76900000      14.56200000
 O      18.91900000      12.04500000      11.69200000
 H      18.30300000      11.95800000      12.42200000
 H      18.39000000      11.65900000      10.94000000
 O      19.54300000       8.68400000      10.11500000
 H      18.90600000       9.15700000      10.72400000
 H      18.87400000       8.48800000       9.43200000
 O      17.63200000       8.39600000       8.21800000
 H      17.51900000       7.52200000       7.82300000
 H      17.55000000       8.93400000       7.38800000
 O      15.14600000      12.22800000       8.58700000
 H      14.35100000      11.74000000       8.33400000
 H      15.66600000      12.34600000       7.68800000
 O      18.58700000       8.52800000      13.37900000
 H      18.64900000       7.96800000      12.54800000
 H      19.47500000       8.37200000      13.83400000
 O      14.17900000       9.20000000       9.28600000
 H      14.19200000       9.77200000      10.09800000
 H      14.73600000       9.60100000       8.51700000
 O      15.40400000       7.56000000      13.61400000
 H      14.38200000       7.55500000      13.78100000
 H      15.75600000       8.54100000      13.85300000
 O      20.23300000       9.86600000       7.30600000
 H      20.68500000       8.93800000       7.23100000
 H      20.11000000      10.19800000       6.37700000
 O      15.72500000       6.93100000      10.69300000
 H      15.64400000       7.05200000      11.65700000
 H      15.50100000       7.81900000      10.32000000
 O      14.95900000      11.38400000      11.66100000
 H      15.02600000      12.39200000      11.73900000
 H      15.39600000      11.12200000      12.52500000
 O      18.81600000      14.71700000      11.54900000
 H      18.83800000      13.77000000      11.56500000
 H      18.16800000      14.86500000      10.92600000
 O      18.68900000      12.61100000       7.38200000
 H      17.78400000      12.35900000       7.34100000
 H      19.07100000      12.06200000       8.17800000
 O      17.50400000      10.91900000       9.72600000
 H      16.62500000      11.29600000       9.60400000
 H      17.48100000      10.25900000       9.01900000
