39
XYZ file of cluster: frame_7000_23ac7.107b6.57c1 - created by MolEdiTo
 O       8.22500000       3.46800000       2.95300000
 H       7.43600000       3.72000000       2.53700000
 H       8.82200000       4.14600000       2.65100000
 O       6.04700000       2.80800000       4.84400000
 H       7.01000000       2.58800000       4.85300000
 H       5.72000000       2.45200000       3.94600000
 O       7.46000000       6.48200000       4.68000000
 H       7.15100000       7.38800000       4.39600000
 H       7.64300000       5.99200000       3.85200000
 O       6.02300000       2.07700000       1.79200000
 H       5.16400000       1.63500000       1.81900000
 H       6.35200000       2.07800000       0.89900000
 O      10.08100000       6.82100000       3.10900000
 H      10.07000000       7.79700000       2.87500000
 H      11.03200000       6.46800000       3.13300000
 O       3.23400000       6.67800000       3.68700000
 H       3.67100000       6.11500000       4.36600000
 H       3.11700000       5.98300000       2.97900000
 O       8.93800000       5.64200000       1.09300000
 H       9.40200000       6.06100000       1.87000000
 H       9.74500000       5.41500000       0.47900000
 O       4.61300000       3.16000000       7.26000000
 H       5.23200000       2.55500000       6.76200000
 H       3.79900000       2.96400000       6.78900000
 O       7.22700000       4.63700000       7.01400000
 H       8.11000000       4.27200000       7.08100000
 H       6.70200000       3.95600000       6.58200000
 O       4.09700000       5.61400000       6.18200000
 H       4.24900000       4.82500000       6.78800000
 H       5.02800000       6.04500000       6.03200000
 O       8.66000000       2.13100000       5.35500000
 H       8.51500000       1.44600000       4.67300000
 H       8.71100000       2.95000000       4.79800000
 O      10.05400000       6.79600000       6.01100000
 H       9.57100000       6.09900000       6.45000000
 H       9.65800000       6.75200000       5.11000000
 O      10.70500000       2.60200000       1.36100000
 H      10.84300000       1.67400000       1.67500000
 H      10.07600000       2.59100000       0.62600000
