39
XYZ file of cluster: frame_7000_709b0.c2660.22c05 - created by MolEdiTo
 O      15.34700000      17.30100000       4.74900000
 H      15.20200000      18.30900000       4.87600000
 H      16.26700000      17.05500000       4.44200000
 O      12.50100000      18.43400000       9.04100000
 H      12.12200000      18.71900000       9.85600000
 H      12.37200000      17.50500000       9.14100000
 O      16.32500000      19.01000000       7.68200000
 H      15.86200000      19.15000000       8.55400000
 H      15.89800000      19.69000000       7.21200000
 O      15.61900000      20.07500000       4.35300000
 H      16.47800000      20.49300000       4.57900000
 H      15.54900000      19.74000000       3.44400000
 O      15.09200000      18.49700000       9.95700000
 H      14.25600000      18.17100000       9.51100000
 H      14.85800000      19.34100000      10.47000000
 O      11.68000000      20.80800000       5.53400000
 H      10.79100000      21.23200000       5.50100000
 H      12.03400000      21.08700000       6.36600000
 O      10.73900000      17.85800000       4.96600000
 H      11.18700000      18.76300000       5.08900000
 H       9.83900000      17.95500000       5.41400000
 O      13.40400000      25.07000000       8.29800000
 H      12.92700000      24.33500000       8.78300000
 H      13.96600000      25.37600000       9.04600000
 O      15.01400000      22.71500000       6.81500000
 H      14.50900000      23.52100000       6.79300000
 H      15.03000000      22.35000000       5.88800000
 O      12.12000000      24.60800000       3.72500000
 H      11.36100000      24.51400000       3.13600000
 H      12.88000000      24.61700000       3.03500000
 O      12.81400000      22.60800000       9.27400000
 H      12.37500000      22.21200000      10.08600000
 H      13.41400000      21.90700000       8.87800000
 O      16.03800000      23.21900000      10.06900000
 H      16.97600000      23.07600000      10.30900000
 H      16.18600000      23.30000000       9.11600000
 O      17.63800000      23.75100000       4.44200000
 H      16.87800000      24.28000000       4.90800000
 H      18.33300000      24.05000000       5.04100000
