67
XYZ file of cluster: frame_7000_4b7d7.1ae67.628a5 - created by MolEdiTo
 O      11.59800000       5.80200000      10.80400000
 H      11.47600000       6.43700000      10.05600000
 H      12.30500000       5.22600000      10.44100000
 O      12.16400000       8.09700000      18.17200000
 H      13.06600000       8.25400000      18.37800000
 H      12.17800000       8.33700000      17.21800000
 O       7.98500000       4.53700000      11.72500000
 H       7.87600000       5.34100000      12.22000000
 H       7.14800000       4.68200000      11.27800000
 O      12.34700000       4.48500000      14.84600000
 H      11.80900000       5.31000000      14.73900000
 H      13.21300000       4.82400000      14.47600000
 O       9.11200000       8.50700000      14.43200000
 H       8.75500000       8.58100000      15.33600000
 H       9.79800000       7.80700000      14.42400000
 O       7.14000000       7.34200000      12.24900000
 H       8.05600000       7.70300000      11.95700000
 H       6.59600000       8.05600000      12.53600000
 O      10.60600000       6.41600000      13.47900000
 H      11.52100000       6.70700000      13.46200000
 H      10.41900000       6.12700000      12.53800000
 O      14.32000000       4.14200000      11.22400000
 H      13.97200000       3.38800000      11.69100000
 H      15.25900000       4.02800000      11.21300000
 O       8.68500000       6.96100000      18.08900000
 H       8.78800000       6.88300000      17.12400000
 H       9.20500000       6.19700000      18.47600000
 O       7.03000000       8.76400000      16.50600000
 H       7.15300000       8.38900000      17.40500000
 H       6.84900000       9.71000000      16.83700000
 O      10.57200000      10.80100000      15.35400000
 H      10.55400000       9.88000000      15.03400000
 H       9.61600000      10.91900000      15.17700000
 C      10.91000000      12.11700000       9.94100000
 C       9.96500000      10.97800000      10.15700000
 C      11.63800000       9.52200000      11.56500000
 H      10.14900000      10.95100000      12.32200000
 H      11.24800000      13.94400000      10.21600000
 O       9.32200000       9.14900000      11.59700000
 O      10.75400000      12.68600000       8.60600000
 O      10.76500000      13.25700000      10.74600000
 C      10.26500000      10.19800000      11.51500000
 O       8.52500000      11.51000000      10.15500000
 H      10.14200000      10.24000000       9.36200000
 O      12.47700000       9.61000000      10.30900000
 O      12.40200000       9.89800000      12.67900000
 H      13.21200000       9.49000000      12.44200000
 H       8.36400000      11.61800000       9.19600000
 H       9.07200000       9.04200000      12.54900000
 O      13.34000000       6.37400000      13.01700000
 H      14.28800000       6.43300000      13.21800000
 H      13.39200000       6.29400000      12.00700000
 O      13.98100000       5.08400000      17.07600000
 H      14.40400000       4.35700000      17.63800000
 H      13.22000000       4.68900000      16.63500000
 O      10.71700000       2.79600000      11.43200000
 H       9.93700000       2.36000000      11.09100000
 H      10.43800000       3.74500000      11.60400000
 O       9.56400000       5.51900000      15.78400000
 H       9.99800000       5.96300000      14.99800000
 H       8.59400000       5.48900000      15.49300000
 O      13.13700000       7.68800000      15.56400000
 H      14.01100000       7.99800000      15.76700000
 H      13.11100000       7.04500000      14.85800000
 O      10.08400000       3.12900000      16.87800000
 H       9.96900000       3.95400000      16.34500000
 H      10.38400000       3.41000000      17.72300000
