36
XYZ file of cluster: frame_7000_847c3.4aa8b.aa032 - created by MolEdiTo
 O      12.16400000       8.09700000      18.17200000
 H      13.06600000       8.25400000      18.37800000
 H      12.17800000       8.33700000      17.21800000
 O      14.41800000      10.88700000      19.31900000
 H      13.53200000      11.28400000      19.30500000
 H      14.78800000      10.97500000      20.21800000
 O      17.94700000      10.75800000      19.38700000
 H      18.46900000       9.99200000      19.10500000
 H      17.44600000      10.29700000      20.07900000
 O      17.80100000      11.02900000      15.35200000
 H      16.84500000      11.17500000      15.05200000
 H      18.00000000      11.71000000      16.02100000
 O      15.02400000      11.43900000      15.25900000
 H      14.17700000      11.07300000      14.84800000
 H      14.74000000      12.26600000      15.72800000
 O      16.35900000      12.42300000      17.88900000
 H      17.02300000      11.76700000      18.31900000
 H      15.56300000      11.91600000      17.96800000
 O      15.27000000       9.02800000      16.68100000
 H      15.10500000       9.94200000      16.27700000
 H      16.26700000       8.83500000      16.60300000
 O      15.76600000      14.06700000      20.13100000
 H      14.82700000      13.93900000      20.35500000
 H      15.99400000      13.35200000      19.53900000
 O      14.21700000      14.73500000      17.45100000
 H      14.87800000      14.61600000      18.16900000
 H      14.46800000      14.01100000      16.85200000
 O      12.21600000      11.96300000      17.02200000
 H      11.68800000      11.29200000      16.53600000
 H      11.57600000      12.41800000      17.59600000
 O      13.13700000       7.68800000      15.56400000
 H      14.01100000       7.99800000      15.76700000
 H      13.11100000       7.04500000      14.85800000
 O      15.15400000       7.21000000      18.71600000
 H      14.90400000       6.55000000      17.97400000
 H      14.99900000       8.05800000      18.32200000
