33
XYZ file of cluster: frame_7000_6d81.24338.ca32e - created by MolEdiTo
 O       5.27100000       6.43300000      18.10800000
 H       4.37900000       6.44600000      17.65900000
 H       5.36700000       7.17400000      18.78100000
 O       4.99900000       8.41800000      20.32100000
 H       4.10200000       7.91200000      20.31500000
 H       4.75400000       9.35900000      20.24800000
 O       6.95200000       3.73000000      18.74100000
 H       6.25100000       4.41900000      18.84000000
 H       7.77900000       4.02700000      19.23700000
 O       7.91800000       8.59000000      20.18500000
 H       8.12100000       7.82700000      19.69100000
 H       6.93500000       8.52100000      20.33300000
 O       2.86800000       3.96200000      19.69100000
 H       1.98100000       3.84000000      19.39200000
 H       3.31000000       3.17600000      19.40400000
 O       2.42300000       8.57300000      19.33600000
 H       1.61500000       8.10600000      19.30900000
 H       2.44100000       8.98500000      18.44600000
 O       6.28600000       8.42000000      24.59300000
 H       5.70100000       7.71200000      24.27500000
 H       5.72800000       9.16900000      24.87500000
 O       3.23400000       6.67800000      25.00900000
 H       3.67100000       6.11500000      25.68800000
 H       3.11700000       5.98300000      24.30100000
 O       2.35400000       4.39700000      23.69000000
 H       1.37500000       4.42500000      23.64400000
 H       2.64700000       4.50200000      22.76700000
 O       4.34300000      11.08000000      23.02400000
 H       3.44200000      10.71700000      23.02000000
 H       4.98700000      10.38800000      22.84200000
 O       1.24400000      10.79800000      22.66000000
 H       1.62100000      10.54500000      21.75000000
 H       0.59800000      11.51200000      22.44800000
