%chk=cluster_304.chk
%mem=8GB
%nproc=8
#b3lyp/6-31G** scrf=(cpcm,Solvent=Water) nosymm force
iop(2/11=1)
 Geom=(NoDistance,NoAngle)
guess=checkpoint

cluster_304

0 1
 O      10.06273070     3.99625735    14.60479453
 H      10.86036363     3.49410669    14.36361668
 H      10.32435600     4.42961705    15.43622903
 O      14.98045764     4.54928276    13.76681587
 H      15.39860636     4.68539061    14.63086450
 H      14.23604034     3.94613265    13.92541763
 O      17.08577734     5.71024005    15.91974189
 H      17.23896815     6.64713163    16.09018391
 H      17.19268779     5.26877153    16.78311412
 O      14.47554013     1.88584814    18.19437872
 H      14.88442552     1.00763406    18.17908347
 H      13.58036001     1.75030224    17.82574780
 O      11.33004254     1.49105534    17.05649155
 H      10.99042848     0.85236746    16.41388618
 H      10.79542890     1.36837357    17.85973855
 O      13.25744918     1.12315938    20.75836672
 H      13.31802264     0.17537855    20.57950207
 H      13.62677655     1.53243788    19.95728116
 O      10.86048087     4.43841825    17.18326644
 H      11.82235992     4.59715528    17.19975381
 H      10.78905788     3.46377516    17.11648462
 O      11.40193298     7.02057593    18.74461748
 H      10.80643715     6.33910099    18.39019227
 H      10.97602467     7.33881196    19.54876579
 O      17.11541823     2.40900042    20.62050942
 H      17.15822663     2.98076137    21.39896061
 H      16.19703113     2.10611190    20.60770948
 O      16.94388902     4.00585029    18.32059256
 H      17.19562007     3.53065447    19.13830492
 H      16.10542826     3.58022328    18.08402025
 O      12.67111784     2.49146084    13.76541665
 H      13.39080217     2.04870501    14.26557407
 H      12.79756713     2.20435286    12.84950571
 O      15.04716871     1.70087925    15.06645592
 H      15.21078831     0.74851558    15.06711898
 H      15.00415071     1.93544159    16.00645139
 O      13.44653448     6.15707606    16.90549656
 H      13.05562564     6.74060824    17.57549561
 H      14.40631129     6.24857953    17.00681566
 O      10.06592254     2.56589947    19.84388074
 H      10.62989554     3.32502471    19.62358708
 H      10.68782753     2.00636968    20.32981178
 O      12.58974195     4.41482935    19.90394848
 H      12.44027976     5.31316732    19.56640729
 H      13.55359430     4.31328878    19.91576999

