120
XYZ file of cluster: frame_12000_98ff8.4cbc2.3f27 - created by MolEdiTo
 O      25.73700000      18.19400000       0.72300000
 H      25.02300000      17.60100000       0.99900000
 H      26.07400000      18.63100000       1.55200000
 O      20.85900000      11.32400000       8.55000000
 H      21.60500000      11.91400000       8.28200000
 H      20.08600000      11.88200000       8.49600000
 O      23.78700000      12.70400000       4.09700000
 H      23.01400000      13.21800000       3.73000000
 H      24.46900000      13.17600000       3.56800000
 O      29.38800000      10.49400000       3.65000000
 H      28.61100000      10.92800000       3.29200000
 H      29.66800000       9.84500000       2.97200000
 O      23.28100000      16.16200000       9.88900000
 H      23.38900000      17.09000000      10.11200000
 H      23.50500000      15.64900000      10.67800000
 O      29.84200000      17.61300000       4.53700000
 H      30.79300000      17.40700000       4.31400000
 H      29.27100000      17.44300000       3.75300000
 O      28.02300000      15.50900000       4.09200000
 H      28.65200000      14.70900000       3.98000000
 H      27.31000000      15.15200000       4.66100000
 O      25.15600000      14.47100000       2.19400000
 H      25.05900000      14.54600000       1.17400000
 H      25.73300000      15.19300000       2.42600000
 O      30.70000000      11.96500000      10.21700000
 H      31.17800000      12.30500000      11.03400000
 H      31.38000000      11.60000000       9.64500000
 O      25.77000000      14.55500000       5.70800000
 H      25.01100000      14.75200000       6.34500000
 H      25.39400000      13.71200000       5.31600000
 O      28.23000000      20.27100000       7.89000000
 H      28.08900000      19.94300000       8.87100000
 H      29.12100000      19.99100000       7.81000000
 O      26.46000000      11.02500000       5.15900000
 H      26.91100000      10.26500000       5.62500000
 H      25.58700000      10.95300000       5.38100000
 O      26.29600000      19.79100000       2.96300000
 H      25.91300000      20.72600000       3.12800000
 H      26.71500000      19.58100000       3.82200000
 O      30.62900000      20.50900000       2.65100000
 H      31.49300000      20.45500000       2.23100000
 H      30.45900000      19.57600000       2.53000000
 O      28.05600000      13.60700000       8.23400000
 H      27.74200000      14.45400000       8.59800000
 H      28.05600000      13.81800000       7.23800000
 O      21.17600000      21.33500000      10.40300000
 H      20.70000000      20.60700000       9.86600000
 H      20.65400000      22.10500000      10.07600000
 O      23.45500000      21.57700000       8.77100000
 H      22.99300000      21.26200000       9.63200000
 H      23.39400000      20.82100000       8.19600000
 O      28.89800000      13.48800000       1.14300000
 H      29.76700000      13.82600000       1.48000000
 H      28.66600000      14.22600000       0.56200000
 O      29.33200000      10.78800000       7.66500000
 H      29.10200000      11.35700000       8.41700000
 H      28.50700000      10.59200000       7.30900000
 O      20.61100000      15.95800000       8.62200000
 H      21.57000000      16.21800000       8.71900000
 H      20.29200000      16.83000000       8.21200000
 O      29.77600000      16.02100000       7.45000000
 H      30.09800000      16.64600000       6.80500000
 H      29.21300000      16.39800000       8.10600000
 O      23.23200000      15.15400000       7.10500000
 H      22.90600000      14.24100000       6.85600000
 H      23.28600000      15.14400000       8.08700000
 O      28.81900000      12.95500000       5.09600000
 H      29.54700000      12.36100000       5.10900000
 H      28.07800000      12.37300000       4.93600000
 O      22.50400000      19.74000000       1.19100000
 H      22.66800000      20.17500000       2.12600000
 H      22.66800000      18.77300000       1.28700000
 O      28.46300000      19.05100000      10.32900000
 H      28.51900000      19.71600000      11.07000000
 H      29.41000000      18.82400000      10.13400000
 O      24.97900000      17.96700000       5.12400000
 H      25.51700000      17.33000000       5.64100000
 H      25.31200000      17.85100000       4.18400000
 O      23.14000000      16.55000000       1.64900000
 H      22.94300000      16.31700000       2.61400000
 H      23.50400000      15.74600000       1.43000000
 O      21.52800000      19.11100000       4.35900000
 H      22.44500000      19.11200000       4.68800000
 H      21.36400000      20.07200000       4.45700000
 O      30.60500000      19.64800000       6.20300000
 H      30.28000000      18.84100000       5.75200000
 H      31.58300000      19.56700000       6.27200000
 O      27.06900000      16.66700000       9.85500000
 H      26.33400000      16.11600000      10.20600000
 H      26.96600000      17.65200000      10.03400000
 O      20.69600000      13.57300000       2.85300000
 H      19.86200000      14.02700000       3.12600000
 H      21.21100000      14.28100000       2.30200000
 O      22.50400000      18.68100000       7.45500000
 H      22.88300000      18.47800000       6.58600000
 H      23.28000000      18.68800000       8.11900000
 O      23.17300000      10.92200000      10.36800000
 H      23.79500000      11.31600000       9.70200000
 H      22.25800000      11.11800000      10.11200000
 O      25.66100000      20.56100000       6.75200000
 H      25.58100000      19.82500000       6.09000000
 H      26.50000000      20.34400000       7.32400000
 O      25.65400000      12.11500000       9.06900000
 H      25.67300000      11.16000000       8.97700000
 H      26.35900000      12.45000000       8.43700000
 O      28.30600000      17.01700000       1.25600000
 H      28.56200000      16.46600000       0.50800000
 H      27.52000000      17.44100000       0.78600000
 O      23.14000000      15.66000000       4.18000000
 H      23.98600000      15.51800000       4.59900000
 H      22.60000000      16.02400000       4.87400000
 O      24.08600000      18.64200000       9.69600000
 H      24.66400000      17.99300000       9.14800000
 H      24.63800000      18.65000000      10.51300000
 O      22.69600000      12.56300000       6.81500000
 H      22.24100000      11.74000000       6.55000000
 H      22.96900000      12.89200000       5.85500000
 O      25.32300000       9.95600000       2.73400000
 H      25.02100000      10.11600000       3.67700000
 H      25.32400000      10.89000000       2.44800000
