160
XYZ file of cluster: frame_12000_48787.49e9d.20507 - created by MolEdiTo
 O      15.72400000      11.76700000       6.92600000
 H      16.29100000      12.01800000       6.23600000
 H      16.28100000      12.12700000       7.69000000
 O      19.45500000      21.22700000      14.00500000
 H      20.11400000      20.80900000      14.65300000
 H      19.78200000      22.12700000      14.00100000
 O      20.85900000      11.32400000       8.55000000
 H      21.60500000      11.91400000       8.28200000
 H      20.08600000      11.88200000       8.49600000
 O      10.76800000      16.78400000      15.75600000
 H      11.30400000      15.99500000      15.98600000
 H      11.46400000      17.46200000      15.54200000
 O      10.98000000      19.87200000      10.25600000
 H      11.06500000      20.38200000      11.07600000
 H      10.33000000      19.18700000      10.55900000
 O      19.78500000      12.91600000      13.24700000
 H      19.94300000      13.33200000      12.39600000
 H      19.23100000      13.53500000      13.79500000
 O      20.20200000      10.94700000      15.09500000
 H      20.15300000      10.00900000      14.93100000
 H      19.79900000      11.27200000      14.19200000
 O      12.30500000      19.12300000      15.42100000
 H      12.71700000      19.31200000      14.55300000
 H      11.78500000      19.97100000      15.68000000
 O      10.71500000      10.86400000      11.36000000
 H       9.81500000      11.20400000      11.45000000
 H      10.93200000      11.16100000      10.50000000
 O      20.16400000      20.03200000       8.31500000
 H      20.78900000      19.30600000       8.08800000
 H      20.22500000      20.66600000       7.67000000
 O      19.38200000      17.20000000       6.35300000
 H      19.82300000      17.63600000       5.61600000
 H      18.81500000      17.87300000       6.75500000
 C      16.36500000      13.90900000      15.09800000
 C      15.60300000      14.99500000      15.88800000
 C      15.79900000      17.35200000      16.84900000
 H      17.33200000      16.21400000      15.98200000
 H      14.72400000      13.14900000      15.17700000
 O      16.20200000      16.94300000      14.38000000
 O      17.52700000      13.90300000      14.67300000
 O      15.58700000      12.83000000      14.81100000
 C      16.27000000      16.41800000      15.72400000
 O      14.22000000      15.14000000      15.54800000
 H      15.61100000      14.68700000      16.92900000
 O      16.57000000      17.69400000      17.72700000
 O      14.90300000      18.27100000      16.43700000
 H      14.63100000      17.92000000      15.60500000
 H      14.08000000      15.60700000      14.61900000
 H      16.93300000      17.58600000      14.18300000
 O      17.65300000      15.53200000       8.91400000
 H      18.25300000      16.32400000       9.04000000
 H      16.93100000      15.90700000       9.48400000
 O      14.40100000      14.58900000      10.88500000
 H      15.09500000      14.44100000      11.64400000
 H      13.59700000      14.73800000      11.46100000
 O      21.17600000      21.33500000      10.40300000
 H      20.70000000      20.60700000       9.86600000
 H      20.65400000      22.10500000      10.07600000
 O      18.95200000      18.05100000      10.26300000
 H      19.80600000      18.15700000      10.66200000
 H      18.31600000      18.37800000      11.03100000
 O      18.03600000      20.53900000      11.64100000
 H      18.75900000      21.02000000      12.18800000
 H      17.56300000      21.23900000      11.11800000
 O      20.61100000      15.95800000       8.62200000
 H      21.57000000      16.21800000       8.71900000
 H      20.29200000      16.83000000       8.21200000
 O      17.59000000      19.01100000       4.96200000
 H      16.70600000      18.75100000       5.41100000
 H      17.86500000      19.79900000       5.50400000
 O      11.21900000      12.79900000       8.00200000
 H      11.61800000      12.70300000       7.06500000
 H      11.84300000      12.21900000       8.48900000
 O      17.35500000       9.96800000      10.49000000
 H      17.90000000       9.48300000       9.78200000
 H      17.33900000      10.85000000      10.13200000
 O      21.58400000      13.11700000      16.18200000
 H      21.11000000      12.41500000      15.66900000
 H      22.03000000      12.76500000      16.97100000
 O      12.75800000      17.26500000       6.88100000
 H      13.05400000      16.55500000       7.53200000
 H      12.61900000      16.78800000       6.03000000
 O      13.24600000      16.40800000      13.11900000
 H      12.36000000      16.10400000      12.78000000
 H      13.44400000      17.19300000      12.56900000
 O      10.05700000      10.30000000      14.72300000
 H      10.49900000       9.67700000      15.29400000
 H      10.83900000      10.67800000      14.28200000
 O      20.37000000      15.75400000      15.12800000
 H      19.76300000      15.62800000      15.90800000
 H      20.81000000      14.84900000      14.99000000
 O      12.91300000      12.54200000       5.91000000
 H      12.95200000      11.68300000       5.48200000
 H      13.88700000      12.62200000       6.14900000
 O      13.87900000      19.35500000      10.08000000
 H      14.14500000      20.26800000       9.76700000
 H      13.03000000      19.32800000       9.63400000
 O      13.46700000      14.93100000       8.41400000
 H      12.92400000      14.63200000       9.19100000
 H      14.34000000      15.06800000       8.91600000
 O      20.19400000      14.42800000       6.25500000
 H      20.63400000      14.87000000       7.00300000
 H      19.85300000      15.14800000       5.70100000
 O      12.54800000      12.20800000      13.83900000
 H      12.87300000      11.98500000      14.74200000
 H      13.14100000      11.81600000      13.21400000
 O      10.10000000      13.58000000      13.09000000
 H      10.87600000      13.21000000      13.47600000
 H       9.40800000      13.26500000      13.66700000
 O      15.20100000      10.84800000      12.80500000
 H      15.44800000      11.08200000      13.80900000
 H      16.04800000      11.05800000      12.31900000
 O      19.82100000      15.09300000      11.14700000
 H      19.88200000      16.07000000      10.91000000
 H      20.48700000      14.61900000      10.56600000
 O      14.97200000      18.65500000       5.87100000
 H      15.56800000      18.33200000       6.58100000
 H      14.08600000      18.41900000       6.20600000
 O      11.64700000      14.43600000      10.42100000
 H      11.43400000      13.92300000       9.60300000
 H      11.25800000      13.87200000      11.17100000
 O      17.16800000      15.16800000      12.04100000
 H      17.97400000      15.25100000      11.48700000
 H      17.38900000      14.99000000      12.99700000
 O      18.13600000      18.70200000      13.54500000
 H      18.83300000      19.32400000      13.84000000
 H      17.54400000      19.33600000      13.08000000
 O      16.69000000      15.88100000       6.01200000
 H      17.54700000      16.32700000       6.09300000
 H      16.17400000      15.99000000       6.85100000
 O      16.51800000      12.60600000      10.11600000
 H      16.77400000      13.27800000      10.73300000
 H      15.79400000      13.00900000       9.68500000
 O      10.70300000      16.52700000      12.38600000
 H       9.92300000      16.16900000      12.86600000
 H      10.90000000      15.86400000      11.70900000
 O      12.55200000      15.18900000       4.97900000
 H      12.59000000      14.20400000       5.30500000
 H      11.97400000      15.18500000       4.15900000
 O      13.38200000      11.63300000       9.40100000
 H      13.66800000      11.46200000       8.48000000
 H      13.99600000      11.12300000      10.02600000
 O      16.03400000      17.62500000      10.70900000
 H      15.25500000      18.20900000      10.60300000
 H      15.75200000      16.96700000      11.42500000
 O      18.59000000      13.08800000       7.83900000
 H      19.30100000      13.64800000       7.38200000
 H      18.15300000      13.82100000       8.43000000
 O      21.29800000      17.49600000      12.10000000
 H      21.06300000      16.53900000      12.17900000
 H      21.49200000      17.81000000      12.98900000
 O      19.71500000      11.49000000       5.19800000
 H      19.57700000      12.46300000       5.36600000
 H      20.28700000      11.49500000       4.37400000
 O      12.78900000      19.72900000      12.58600000
 H      13.24100000      19.59200000      11.71300000
 H      13.41600000      20.38800000      12.98200000
 O      17.18400000      18.41900000       7.92500000
 H      16.85000000      19.33400000       8.00800000
 H      17.68500000      18.29700000       8.76700000
