108
XYZ file of cluster: frame_12000_8343.5ec7.4f1e8 - created by MolEdiTo
 O       3.52000000       1.93300000      21.49600000
 H       4.20000000       1.28500000      21.84000000
 H       3.16800000       1.56100000      20.65000000
 O      10.37900000       7.21200000      13.41200000
 H      10.15200000       8.11600000      13.62100000
 H       9.50300000       6.74100000      13.31000000
 O       5.86300000       2.79800000      15.26300000
 H       5.80300000       2.72100000      16.26200000
 H       5.48900000       3.72400000      15.12700000
 O       1.06500000       7.54000000      21.27400000
 H       1.79500000       7.70600000      20.73500000
 H       1.35400000       6.66900000      21.54500000
 O       9.42000000       5.20000000      18.80600000
 H       8.71400000       5.08400000      18.20900000
 H       8.93100000       5.13600000      19.69200000
 O       7.04900000       8.09100000      17.86300000
 H       6.98600000       8.95600000      18.15700000
 H       7.14000000       7.59500000      18.73700000
 O       2.08000000       2.01700000      18.72100000
 H       1.56600000       1.40700000      18.14600000
 H       1.52700000       2.05200000      19.51300000
 O       9.91400000       3.77100000      15.23200000
 H       9.72500000       4.64500000      15.62300000
 H       9.14200000       3.69100000      14.59800000
 O       2.61900000       3.91800000      16.65500000
 H       2.53800000       3.31100000      17.41700000
 H       2.55300000       3.27900000      15.88800000
 O       3.61000000       9.46900000      20.76600000
 H       3.39300000      10.00800000      20.02800000
 H       4.24300000       8.82700000      20.35900000
 O       4.26600000       6.89200000      18.60100000
 H       3.47600000       7.26400000      18.06100000
 H       5.07900000       7.28000000      18.11700000
 O       3.31500000       5.59600000      21.03500000
 H       3.80100000       6.16700000      20.40100000
 H       3.43300000       4.59800000      20.77400000
 O       4.29900000       9.42800000      11.04200000
 H       4.01100000       9.80200000      10.18300000
 H       4.92800000       8.62100000      10.77600000
 O       1.73000000       9.12700000      14.07100000
 H       1.68100000       8.80700000      13.11800000
 H       2.66600000       9.34200000      14.27100000
 O       8.66300000       7.84800000      11.01000000
 H       8.06400000       8.47200000      11.48200000
 H       8.95100000       7.28900000      11.74400000
 O       9.88100000       1.59200000      11.11600000
 H      10.35900000       0.76000000      11.17100000
 H       9.38300000       1.46200000      10.23700000
 O       5.55200000       2.43800000      17.97500000
 H       6.44900000       2.16600000      18.11600000
 H       5.54700000       3.33400000      18.30400000
 O       6.45000000       4.88400000      19.47300000
 H       5.90400000       5.68700000      19.53200000
 H       6.35000000       4.47500000      20.33300000
 O       7.62500000       9.46000000      13.31800000
 H       7.10400000      10.17900000      12.97400000
 H       8.50600000       9.89500000      13.38100000
 O       4.91000000       5.32200000      15.51800000
 H       4.72500000       6.16600000      15.07300000
 H       4.14800000       4.99200000      16.07100000
 O       8.33800000       3.54800000      12.82300000
 H       8.81100000       3.05000000      12.13300000
 H       7.63200000       3.05900000      13.13700000
 O      10.05700000      10.30000000      14.72300000
 H      10.49900000       9.67700000      15.29400000
 H      10.83900000      10.67800000      14.28200000
 O       8.32600000       1.70300000      17.23400000
 H       9.09100000       1.47500000      17.89600000
 H       8.83300000       1.74800000      16.36000000
 O       7.65200000       6.19600000      13.13500000
 H       7.50700000       5.19700000      13.03400000
 H       6.82300000       6.57300000      13.36200000
 O       6.42400000       7.94200000      20.61600000
 H       6.93500000       8.78300000      20.35200000
 H       6.19800000       7.96800000      21.60600000
 O       7.61500000      10.26800000      20.25600000
 H       7.73500000      10.43500000      19.27900000
 H       7.30000000      11.18500000      20.54600000
 O       2.31600000       8.09300000      17.19200000
 H       1.66700000       8.73400000      17.48800000
 H       2.31600000       8.04700000      16.21300000
 O       8.87400000      10.86600000      17.59600000
 H       9.05900000      11.79600000      17.28400000
 H       8.84600000      10.41200000      16.73300000
 O       1.31500000       7.84800000      11.59700000
 H       1.95100000       7.17000000      11.85500000
 H       1.77800000       8.06800000      10.76700000
 O       5.57800000       8.22200000      15.23000000
 H       5.60700000       8.56300000      16.11400000
 H       6.20400000       8.70000000      14.68300000
 O       3.06000000       3.31900000      11.41100000
 H       3.33600000       4.02900000      10.81400000
 H       2.26400000       3.64600000      11.78500000
 O       7.82700000       5.52000000      16.05700000
 H       7.74200000       6.34400000      15.53700000
 H       6.87100000       5.23700000      16.22200000
 O       3.62100000       6.83800000      12.98300000
 H       3.98600000       7.56100000      13.54800000
 H       4.15800000       6.99500000      12.14000000
 O       1.66100000       1.66400000      14.26800000
 H       1.43500000       2.00000000      13.34800000
 H       1.28300000       0.78900000      14.28100000
 O       5.77300000       7.03000000      10.59800000
 H       6.03600000       5.99600000      10.54400000
 H       6.59000000       7.55500000      10.35800000
 O       5.30900000       4.60300000      12.70000000
 H       4.71700000       5.15700000      13.36600000
 H       4.70000000       3.98500000      12.22200000
