99
XYZ file of cluster: frame_12000_c5b4e.9bbae.61b6 - created by MolEdiTo
 O      28.83000000      22.13400000       5.38600000
 H      29.53800000      21.47200000       5.11300000
 H      28.35300000      21.63500000       6.01500000
 O      26.18100000      27.83800000       5.98500000
 H      26.54600000      28.02400000       5.08400000
 H      25.66600000      27.05100000       5.69600000
 O      27.55600000      25.86100000       7.57100000
 H      27.00200000      25.75800000       8.33800000
 H      27.23700000      26.74900000       7.20100000
 O      28.68900000      29.20300000       9.97200000
 H      29.00400000      28.45600000       9.42100000
 H      27.70600000      29.19100000      10.01600000
 O      30.68100000      24.81500000       1.38800000
 H      31.47800000      24.99100000       0.85700000
 H      30.04300000      24.24800000       0.78600000
 O      28.50100000      25.99400000       4.71900000
 H      28.19000000      25.09600000       4.90800000
 H      28.60300000      26.32700000       5.57500000
 O      28.58500000      23.28600000       2.95600000
 H      29.08800000      23.31600000       2.12100000
 H      29.16600000      22.75700000       3.49200000
 O      27.25300000      23.32100000       8.69700000
 H      27.49500000      23.68200000       7.80000000
 H      27.89900000      22.65000000       8.77900000
 O      29.80400000      27.28800000       2.65300000
 H      29.42200000      26.94000000       3.46200000
 H      30.00800000      26.41700000       2.21100000
 O      27.13500000      25.60000000       2.07800000
 H      27.69300000      25.27100000       2.79000000
 H      26.60900000      26.29300000       2.55300000
 O      29.55900000      28.07700000       7.45100000
 H      29.37100000      28.81700000       6.88800000
 H      30.18600000      27.53300000       6.88700000
 O      25.84200000      22.59200000       3.29900000
 H      25.98300000      23.11100000       2.43100000
 H      26.76300000      22.46900000       3.55500000
 O      30.19700000      23.51900000       7.34200000
 H      30.53600000      22.71300000       7.80800000
 H      29.45600000      23.05100000       6.82800000
 O      29.21000000      30.15800000       5.57800000
 H      29.03800000      30.77100000       6.25700000
 H      28.83000000      30.53400000       4.76400000
 O      33.39000000      24.09700000       4.06700000
 H      32.90200000      24.30800000       3.17300000
 H      33.00700000      24.65000000       4.79800000
 O      37.73900000      22.83200000       1.06400000
 H      38.10400000      22.54300000       1.91700000
 H      36.78000000      22.90600000       1.28700000
 O      33.45200000      27.94100000       9.93800000
 H      32.61100000      28.45100000       9.74700000
 H      33.57600000      27.29700000       9.24300000
 O      33.01800000      25.83400000       6.37500000
 H      33.96300000      25.74100000       6.70800000
 H      32.62600000      24.97100000       6.72200000
 O      36.03600000      25.04900000       4.31300000
 H      36.41600000      24.18900000       4.56900000
 H      35.04600000      24.98400000       4.45800000
 O      35.59200000      25.54400000       1.54600000
 H      36.51800000      25.28200000       1.77500000
 H      35.02100000      24.84300000       1.90100000
 O      33.30300000      30.72900000       7.87100000
 H      32.71000000      30.60200000       7.16000000
 H      34.03600000      30.00100000       7.87600000
 O      36.81300000      26.53400000       6.43900000
 H      37.07100000      25.96100000       7.17900000
 H      36.48600000      25.92100000       5.76400000
 O      32.69500000      21.45400000       8.87500000
 H      33.29600000      21.26900000       9.61200000
 H      32.93500000      20.84600000       8.19100000
 O      34.90600000      22.67800000       1.96900000
 H      34.15500000      22.80400000       2.64300000
 H      34.58100000      22.38500000       1.13300000
 O      33.98100000      24.99100000       9.63200000
 H      33.68600000      24.33000000       8.94400000
 H      34.85800000      25.22400000       9.31900000
 O      37.38700000      24.84400000       8.76600000
 H      36.89200000      24.22600000       9.36900000
 H      38.17300000      25.09700000       9.28700000
 O      36.81200000      28.08300000       9.67100000
 H      35.96400000      28.30900000      10.04600000
 H      37.07800000      28.94900000       9.28400000
 O      37.56700000      23.42400000       6.06800000
 H      38.41500000      22.97600000       6.17800000
 H      36.95300000      22.72000000       5.68600000
 O      35.86700000      22.00000000       4.64600000
 H      35.10400000      21.39700000       4.50200000
 H      36.66500000      21.53000000       4.59500000
 O      34.88000000      23.85300000       7.35100000
 H      35.87200000      23.81700000       7.42700000
 H      34.78200000      23.29400000       6.61200000
 O      35.66400000      20.53900000       9.39700000
 H      35.69100000      21.48900000       8.98100000
 H      36.29700000      19.98000000       8.91600000
 O      33.71800000      28.34100000       4.40900000
 H      33.46400000      27.70600000       3.75800000
 H      33.03800000      29.06200000       4.32800000
 O      35.20100000      28.55200000       7.02500000
 H      34.83900000      28.28400000       6.17500000
 H      35.93800000      27.81800000       7.02200000
