117
XYZ file of cluster: frame_12000_4ae59.4a0bc.c137c - created by MolEdiTo
 O      14.77000000      11.31300000      28.33300000
 H      14.38900000      11.32000000      29.18800000
 H      15.05000000      12.27600000      28.20400000
 O      20.62100000      10.37800000      28.71900000
 H      19.76000000       9.84700000      28.48700000
 H      20.21700000      11.00100000      29.39500000
 O      11.85200000      13.27800000      29.51300000
 H      12.74800000      13.03300000      29.17600000
 H      11.41100000      12.45100000      29.47000000
 O      15.54000000      14.20700000      28.71800000
 H      15.43200000      14.80100000      29.53100000
 H      15.81200000      14.89300000      28.05400000
 O      16.75200000      15.77900000      26.05100000
 H      16.61700000      14.76800000      25.95200000
 H      17.49500000      15.76900000      26.68200000
 O      15.46900000      17.59100000      27.73900000
 H      15.97200000      16.92600000      27.16100000
 H      16.14300000      18.23100000      27.96900000
 O      10.48400000      10.96300000      29.50900000
 H       9.72300000      10.72300000      29.98100000
 H      10.73600000      10.17500000      28.98800000
 O      16.78300000      20.21500000      26.26900000
 H      16.03800000      20.36200000      26.89100000
 H      16.45400000      20.26600000      25.36600000
 O      13.05300000      19.15100000      28.29700000
 H      12.60900000      18.26300000      28.17100000
 H      14.02900000      19.01700000      28.21100000
 O      16.43600000      10.42900000      26.22800000
 H      16.35700000       9.50000000      25.76900000
 H      15.82000000      10.52800000      26.93600000
 O      12.84600000      16.00100000      26.29300000
 H      12.60100000      15.45200000      27.04300000
 H      12.02900000      16.35000000      25.82200000
 O      21.59200000      16.33700000      27.16000000
 H      20.99000000      16.25900000      27.91000000
 H      21.44400000      17.17000000      26.65700000
 O      11.67600000      19.59700000      25.62900000
 H      12.02700000      19.42200000      26.50700000
 H      12.30800000      19.59900000      24.86800000
 O      18.91700000      14.29300000      27.71300000
 H      18.63200000      13.79800000      28.54000000
 H      19.89100000      14.26200000      27.57800000
 O      18.18600000      16.69100000      28.80900000
 H      18.86700000      17.17000000      29.10600000
 H      18.47700000      15.70900000      28.97100000
 O      21.02100000      17.04900000      29.64700000
 H      21.37200000      17.91700000      29.86600000
 H      21.48700000      16.45300000      30.29400000
 O      18.50000000      13.20300000      30.12400000
 H      17.82400000      13.52300000      30.74400000
 H      18.81500000      12.31900000      30.46300000
 O      17.08800000      13.16100000      25.76000000
 H      17.83200000      13.33600000      26.37300000
 H      17.03700000      12.14800000      25.86500000
 O      19.57400000      19.82700000      32.27300000
 H      20.52100000      19.88100000      32.27400000
 H      19.33500000      20.28700000      31.42200000
 O      19.71900000      17.17900000      34.19800000
 H      20.14700000      17.78200000      34.81200000
 H      19.38800000      17.81200000      33.56700000
 O      18.92500000      11.05400000      33.61000000
 H      18.53300000      10.36700000      34.15900000
 H      19.77900000      10.62600000      33.44800000
 O      16.73800000      15.36900000      32.58500000
 H      17.16700000      16.27900000      32.62100000
 H      16.83100000      15.08100000      33.54400000
 O      16.23600000      20.66300000      33.49500000
 H      17.08000000      20.10200000      33.59100000
 H      15.70300000      20.36500000      34.22400000
 O      15.10900000      15.74000000      35.06900000
 H      14.18700000      15.48900000      35.25000000
 H      15.54400000      15.77800000      35.96700000
 O      14.29800000      14.12000000      32.80300000
 H      14.63700000      14.35100000      33.65700000
 H      15.11700000      13.91900000      32.33900000
 O      18.09100000      15.00600000      34.73600000
 H      18.77200000      15.63100000      34.38200000
 H      17.88800000      15.39500000      35.67600000
 O      17.59000000      19.01100000      36.38400000
 H      16.70600000      18.75100000      36.83300000
 H      17.86500000      19.79900000      36.92600000
 O      13.66000000      11.38900000      32.20000000
 H      13.78300000      10.74200000      32.99400000
 H      12.96400000      12.04000000      32.46800000
 O      11.34900000      18.67200000      34.03900000
 H      11.29600000      17.74500000      34.48000000
 H      12.09200000      18.51400000      33.36800000
 O      14.31600000      21.25600000      35.81500000
 H      14.54500000      20.37100000      36.19400000
 H      15.03600000      21.79900000      36.21900000
 O      16.68500000      17.83200000      34.01600000
 H      16.73100000      18.32000000      34.89000000
 H      15.98700000      17.18600000      34.22400000
 O      12.02000000      15.61300000      33.46600000
 H      11.15700000      15.21800000      33.20400000
 H      12.63200000      15.19000000      32.82800000
 O      20.69600000      13.57300000      34.27500000
 H      19.86200000      14.02700000      34.54800000
 H      21.21100000      14.28100000      33.72400000
 O      19.72400000      21.70800000      34.87100000
 H      19.26100000      20.86900000      34.70700000
 H      20.38400000      21.79000000      34.13600000
 O      11.45000000      20.66400000      36.08400000
 H      11.31400000      19.87000000      35.54500000
 H      12.38400000      20.80600000      35.89600000
 O      12.55200000      15.18900000      36.40100000
 H      12.59000000      14.20400000      36.72700000
 H      11.97400000      15.18500000      35.58100000
 O      14.18500000      17.86600000      32.73600000
 H      14.30900000      16.96200000      33.12000000
 H      15.11600000      18.17300000      32.51500000
 O      19.71500000      11.49000000      36.62000000
 H      19.57700000      12.46300000      36.78800000
 H      20.28700000      11.49500000      35.79600000
 O      17.00200000      12.52000000      35.76000000
 H      17.26000000      13.37100000      35.35600000
 H      17.46400000      11.86800000      35.12700000
