114
XYZ file of cluster: frame_12000_98ff8.249a2.45de - created by MolEdiTo
 O      30.72000000       6.83600000       3.37700000
 H      30.09600000       6.15100000       3.79400000
 H      30.21100000       7.39900000       2.81900000
 O      24.75700000       7.94200000       7.69700000
 H      25.44100000       8.63800000       7.97400000
 H      25.27300000       7.17900000       7.92100000
 O      25.48200000       7.31300000       1.90400000
 H      24.84800000       6.94500000       2.53600000
 H      25.67700000       8.20400000       2.29200000
 O      20.85900000      11.32400000       8.55000000
 H      21.60500000      11.91400000       8.28200000
 H      20.08600000      11.88200000       8.49600000
 O      23.78700000      12.70400000       4.09700000
 H      23.01400000      13.21800000       3.73000000
 H      24.46900000      13.17600000       3.56800000
 O      29.38800000      10.49400000       3.65000000
 H      28.61100000      10.92800000       3.29200000
 H      29.66800000       9.84500000       2.97200000
 O      23.28100000      16.16200000       9.88900000
 H      23.38900000      17.09000000      10.11200000
 H      23.50500000      15.64900000      10.67800000
 O      28.02300000      15.50900000       4.09200000
 H      28.65200000      14.70900000       3.98000000
 H      27.31000000      15.15200000       4.66100000
 O      23.62300000       5.42000000       6.63100000
 H      23.87700000       5.73800000       7.52200000
 H      22.78100000       5.87000000       6.46100000
 O      25.15600000      14.47100000       2.19400000
 H      25.05900000      14.54600000       1.17400000
 H      25.73300000      15.19300000       2.42600000
 O      30.70000000      11.96500000      10.21700000
 H      31.17800000      12.30500000      11.03400000
 H      31.38000000      11.60000000       9.64500000
 O      25.77000000      14.55500000       5.70800000
 H      25.01100000      14.75200000       6.34500000
 H      25.39400000      13.71200000       5.31600000
 O      23.84400000       8.10400000      10.76200000
 H      23.81400000       8.93800000      11.21000000
 H      23.20800000       8.15000000      10.05600000
 O      27.11000000       6.99300000       4.33800000
 H      26.13200000       7.13300000       4.19800000
 H      27.05400000       6.14000000       4.87600000
 O      28.44400000       8.56200000       1.87800000
 H      27.98800000       9.28700000       1.35500000
 H      27.70800000       8.10400000       2.30800000
 O      26.54300000       9.30200000       9.39700000
 H      27.45000000       8.98400000       9.37500000
 H      26.40700000       9.63100000      10.35200000
 O      26.46000000      11.02500000       5.15900000
 H      26.91100000      10.26500000       5.62500000
 H      25.58700000      10.95300000       5.38100000
 O      28.05600000      13.60700000       8.23400000
 H      27.74200000      14.45400000       8.59800000
 H      28.05600000      13.81800000       7.23800000
 O      28.89800000      13.48800000       1.14300000
 H      29.76700000      13.82600000       1.48000000
 H      28.66600000      14.22600000       0.56200000
 O      21.30000000       9.41600000       1.97300000
 H      22.17900000       9.80800000       1.66500000
 H      21.40100000       8.43800000       2.01900000
 O      29.33200000      10.78800000       7.66500000
 H      29.10200000      11.35700000       8.41700000
 H      28.50700000      10.59200000       7.30900000
 O      24.01100000       9.57300000       5.30700000
 H      24.22300000       9.35900000       6.27100000
 H      23.51000000       8.75400000       5.07200000
 O      28.79200000       7.54000000       8.40200000
 H      29.10500000       6.65100000       8.66100000
 H      29.59400000       8.05600000       7.95400000
 O      23.23200000      15.15400000       7.10500000
 H      22.90600000      14.24100000       6.85600000
 H      23.28600000      15.14400000       8.08700000
 O      28.81900000      12.95500000       5.09600000
 H      29.54700000      12.36100000       5.10900000
 H      28.07800000      12.37300000       4.93600000
 O      24.28100000       5.68200000       3.70300000
 H      24.01200000       5.45600000       4.60000000
 H      23.40500000       5.91000000       3.31900000
 O      21.01600000       5.13100000       4.93700000
 H      21.16300000       5.80700000       5.55300000
 H      20.08100000       4.69600000       5.12700000
 O      25.57900000       6.12700000       9.79600000
 H      24.93400000       6.85000000       9.75500000
 H      25.52000000       5.98000000      10.72400000
 O      20.69600000      13.57300000       2.85300000
 H      19.86200000      14.02700000       3.12600000
 H      21.21100000      14.28100000       2.30200000
 O      23.17300000      10.92200000      10.36800000
 H      23.79500000      11.31600000       9.70200000
 H      22.25800000      11.11800000      10.11200000
 O      25.65400000      12.11500000       9.06900000
 H      25.67300000      11.16000000       8.97700000
 H      26.35900000      12.45000000       8.43700000
 O      21.64900000       8.32000000       9.03200000
 H      21.14900000       7.50200000       9.01100000
 H      21.21200000       9.06100000       9.53300000
 O      27.52500000       9.00600000       6.50500000
 H      27.83900000       8.37500000       7.25900000
 H      27.66400000       8.51400000       5.67000000
 O      30.38600000       5.42300000       6.84400000
 H      30.81700000       6.25400000       7.07600000
 H      30.40500000       4.81500000       7.67000000
 O      21.60300000       7.61000000       6.23200000
 H      21.67000000       8.07100000       7.09600000
 H      20.95700000       8.12300000       5.77600000
 O      23.14000000      15.66000000       4.18000000
 H      23.98600000      15.51800000       4.59900000
 H      22.60000000      16.02400000       4.87400000
 O      22.69600000      12.56300000       6.81500000
 H      22.24100000      11.74000000       6.55000000
 H      22.96900000      12.89200000       5.85500000
 O      25.32300000       9.95600000       2.73400000
 H      25.02100000      10.11600000       3.67700000
 H      25.32400000      10.89000000       2.44800000
