138
XYZ file of cluster: frame_12000_702ff.c3fcd.73558 - created by MolEdiTo
 O      18.13300000      29.16100000      21.06000000
 H      18.03400000      30.11900000      21.01900000
 H      18.83700000      28.97800000      20.43600000
 O      20.44600000      28.59000000      16.29100000
 H      19.49000000      28.75800000      16.17800000
 H      20.82600000      29.52900000      16.44100000
 O      20.68100000      30.41100000      24.12300000
 H      20.39400000      31.17100000      24.57300000
 H      21.60500000      30.56800000      23.95200000
 O      23.19000000      28.08300000      19.48100000
 H      23.25700000      27.45400000      18.68100000
 H      23.98800000      28.01400000      20.03900000
 O      16.24300000      28.28100000      22.97200000
 H      15.96000000      29.22600000      22.77400000
 H      17.21600000      28.44200000      23.27800000
 O      20.81600000      27.71300000      23.85900000
 H      20.58200000      28.62600000      23.91300000
 H      19.97100000      27.27100000      23.77300000
 O      15.09100000      26.37100000      25.91600000
 H      15.92900000      25.85900000      26.17900000
 H      14.56400000      25.67500000      25.47800000
 O      24.79500000      30.27200000      18.40600000
 H      25.01400000      29.29900000      18.65100000
 H      23.80800000      30.39800000      18.48500000
 O      17.76400000      26.82300000      16.94600000
 H      18.48800000      26.12800000      16.96100000
 H      17.63700000      27.11900000      17.89200000
 O      21.25900000      26.90200000      26.51400000
 H      20.56000000      27.56300000      26.51200000
 H      21.65000000      27.00200000      25.56000000
 O      23.37100000      26.46000000      15.51100000
 H      22.83600000      26.12200000      16.28100000
 H      22.68800000      26.62700000      14.84400000
 O      25.55700000      29.16900000      15.36400000
 H      26.05600000      29.31400000      16.21100000
 H      24.94400000      28.35000000      15.54700000
 O      21.88800000      26.02400000      17.75600000
 H      21.01400000      26.46400000      17.61700000
 H      21.56200000      25.29700000      18.35500000
 O      23.11500000      29.00400000      22.47900000
 H      22.49300000      28.26600000      22.37900000
 H      23.01100000      29.45700000      21.59900000
 O      19.22500000      26.48600000      21.91200000
 H      19.43800000      25.60000000      21.50500000
 H      19.31800000      27.13900000      21.17500000
 O      26.75600000      29.27500000      25.81500000
 H      26.00000000      29.86900000      25.79700000
 H      27.51200000      29.92100000      25.89600000
 O      16.26900000      30.14900000      18.21500000
 H      16.24700000      29.27900000      18.71000000
 H      15.53800000      29.97000000      17.57800000
 O      15.96400000      27.67000000      20.16600000
 H      16.82900000      27.97200000      20.61600000
 H      15.36500000      27.53200000      20.98900000
 O      24.02100000      30.37200000      25.05000000
 H      24.03400000      31.23400000      24.52000000
 H      23.83100000      29.81200000      24.29300000
 O      16.40000000      25.23400000      23.39300000
 H      16.48600000      26.17000000      23.24400000
 H      15.56800000      25.14500000      22.81900000
 O      26.20300000      29.76800000      22.07800000
 H      25.48700000      30.33600000      22.56400000
 H      26.85400000      29.79900000      22.79700000
 O      25.37900000      27.00800000      18.08800000
 H      25.10300000      26.21900000      17.57800000
 H      26.31000000      26.80300000      18.23800000
 O      20.58600000      28.98800000      19.61700000
 H      21.34100000      28.46900000      19.98200000
 H      21.05000000      29.68400000      19.13000000
 O      18.08800000      28.20200000      25.18000000
 H      17.28900000      27.61100000      25.06700000
 H      18.27300000      28.24700000      26.15300000
 O      19.89400000      34.81900000      15.25800000
 H      19.61000000      35.75400000      15.42400000
 H      19.24000000      34.27100000      15.79700000
 O      23.85100000      36.34800000      21.52600000
 H      24.52700000      37.03400000      21.38100000
 H      23.03100000      36.74800000      21.27300000
 O      25.94600000      35.96800000      16.18500000
 H      25.07600000      35.73100000      16.70900000
 H      26.30900000      35.08500000      15.98500000
 O      18.06800000      32.71500000      24.63600000
 H      18.54600000      31.86500000      24.64000000
 H      17.54600000      32.73700000      25.40700000
 O      18.98400000      35.99700000      24.93100000
 H      18.78600000      36.84700000      24.44400000
 H      18.68100000      36.23000000      25.81100000
 O      20.66800000      35.14900000      19.58100000
 H      19.68600000      35.20900000      19.60000000
 H      20.95800000      36.08700000      19.35200000
 O      21.63300000      34.12400000      25.56000000
 H      21.40400000      33.93400000      26.48900000
 H      22.30600000      34.80000000      25.60400000
 O      24.77800000      34.40100000      19.87900000
 H      24.29500000      33.61000000      20.27400000
 H      24.90100000      35.00400000      20.63200000
 O      22.24300000      32.39300000      17.09500000
 H      22.66400000      32.30600000      16.25600000
 H      21.56600000      33.14100000      17.07700000
 O      23.52400000      33.68200000      22.94800000
 H      23.85200000      34.58300000      22.79000000
 H      22.80000000      33.57200000      22.30600000
 O      23.72500000      35.15700000      17.52500000
 H      23.90200000      35.62500000      18.47000000
 H      23.72700000      34.21400000      17.83700000
 O      22.05400000      33.01600000      20.47200000
 H      21.55200000      32.65100000      21.18600000
 H      21.60800000      33.88500000      20.36700000
 O      18.57400000      36.76100000      18.70500000
 H      18.05100000      35.95000000      18.39500000
 H      18.17800000      37.49800000      18.12200000
 O      18.25500000      33.17500000      20.98300000
 H      18.59700000      33.44300000      20.08600000
 H      18.79700000      33.57800000      21.70600000
 O      26.93500000      33.16300000      16.62500000
 H      26.17000000      32.70900000      17.12900000
 H      26.57100000      33.30800000      15.70500000
 O      25.45300000      35.10100000      24.86200000
 H      24.96700000      35.87500000      24.78300000
 H      25.94400000      35.12700000      24.11100000
 O      15.05500000      33.06400000      21.00100000
 H      15.96200000      32.96100000      20.57800000
 H      14.73300000      33.95400000      20.83400000
 O      16.61700000      34.58300000      23.13300000
 H      16.27500000      33.88000000      22.55700000
 H      17.35400000      34.16500000      23.58400000
 O      20.40400000      34.39700000      22.98100000
 H      19.74500000      35.10900000      23.18200000
 H      21.16200000      34.50800000      23.67400000
 O      18.10500000      33.20300000      16.53100000
 H      17.64400000      33.68400000      17.35000000
 H      17.43500000      32.47100000      16.53400000
 O      16.71300000      34.78400000      18.68100000
 H      16.14700000      34.16800000      18.11700000
 H      16.11600000      35.08100000      19.37900000
 O      16.49300000      35.73200000      26.48500000
 H      15.52400000      35.38400000      26.44400000
 H      16.73400000      35.65800000      25.59200000
