129
XYZ file of cluster: frame_7000_250ef.4aadb.9aa2f - created by MolEdiTo
 O      14.76800000      12.05000000      24.73200000
 H      15.37500000      11.47300000      25.30600000
 H      13.92400000      11.78000000      25.11500000
 O       8.24300000      15.25600000      30.34800000
 H       7.30800000      15.27200000      30.09100000
 H       8.47100000      14.57300000      30.96800000
 O      16.36200000      12.34200000      28.39400000
 H      16.70700000      12.86600000      27.58200000
 H      15.60100000      12.97900000      28.70600000
 O      16.51000000      19.42700000      25.48000000
 H      15.83900000      18.80900000      25.74200000
 H      17.29200000      18.85600000      25.14100000
 O       6.48300000      17.33800000      24.40100000
 H       6.16400000      17.74000000      25.24200000
 H       5.79200000      16.62900000      24.29900000
 O      13.38500000      13.04200000      21.09500000
 H      14.27200000      13.23800000      20.84800000
 H      12.96700000      12.64700000      20.25900000
 O      12.35300000      12.35600000      26.13400000
 H      11.60600000      12.37200000      25.47100000
 H      11.92200000      12.47300000      26.94200000
 O      10.60400000      19.82100000      27.66100000
 H      10.93200000      19.73300000      28.59100000
 H      10.35300000      18.83300000      27.58000000
 O      13.23900000      17.38100000      29.45600000
 H      13.90300000      17.07100000      30.13700000
 H      13.59800000      18.13600000      29.04500000
 O      13.88000000      20.76300000      22.78300000
 H      14.23000000      21.64500000      23.13100000
 H      13.32400000      20.48500000      23.49900000
 O       8.81700000      11.23100000      30.25800000
 H       9.28500000      10.53700000      29.81800000
 H       8.91300000      11.96900000      29.56800000
 O       8.92200000      12.20100000      26.63700000
 H       9.19900000      11.33200000      26.96500000
 H       9.37700000      12.78100000      27.30400000
 O       9.59500000      18.33200000      21.59700000
 H       9.58600000      17.99600000      22.51300000
 H      10.33300000      17.84200000      21.15300000
 O      14.88400000      14.74300000      28.70100000
 H      14.89500000      15.10800000      27.78300000
 H      15.50200000      15.34300000      29.18300000
 O       6.89500000      19.61600000      27.21800000
 H       7.51700000      18.83700000      27.31500000
 H       6.17300000      19.40200000      27.85800000
 O       9.31100000      17.03800000      24.11500000
 H       8.30900000      16.97300000      24.21100000
 H       9.63400000      17.10300000      25.05100000
 O       7.93900000      20.41900000      22.89400000
 H       8.02400000      19.70000000      22.19000000
 H       7.12800000      20.94900000      22.60300000
 O       9.11800000      21.08700000      25.73100000
 H       9.86800000      20.74300000      26.24500000
 H       8.89000000      20.39300000      25.11300000
 O      13.24300000      17.67100000      23.43900000
 H      13.28500000      16.74100000      23.48400000
 H      13.17000000      17.81900000      22.47500000
 O      11.14200000      14.22500000      22.86800000
 H      11.79900000      14.89900000      22.63800000
 H      10.46500000      14.73500000      23.32400000
 O      10.80600000      16.45400000      28.19400000
 H      11.55600000      16.60600000      28.79700000
 H      11.08200000      15.75400000      27.57100000
 O       7.62100000      10.17100000      21.42300000
 H       7.80100000       9.54600000      20.68800000
 H       6.81100000      10.62500000      21.14600000
 O       5.26400000      18.31800000      21.29500000
 H       5.35200000      18.62800000      20.35600000
 H       4.81300000      19.04200000      21.74000000
 O       8.41000000      20.06100000      30.22100000
 H       8.20700000      19.56500000      29.36200000
 H       9.29800000      19.71600000      30.57300000
 O       7.15100000      14.88200000      26.09200000
 H       6.75000000      15.44900000      25.43600000
 H       6.94600000      13.88700000      25.81200000
 O       5.91900000      15.87600000      28.34800000
 H       6.46700000      16.66500000      28.31700000
 H       6.36000000      15.31600000      27.66000000
 O      13.52500000      15.10000000      25.51700000
 H      13.42500000      14.08800000      25.55700000
 H      14.41400000      15.28300000      25.85600000
 O       5.90600000      12.76600000      30.41100000
 H       5.86400000      12.13800000      29.61900000
 H       4.97400000      13.16000000      30.37300000
 O      11.04200000      19.48100000      30.68500000
 H      11.79900000      20.15900000      30.89900000
 H      11.50700000      18.69800000      31.02500000
 O      10.30700000      13.46000000      28.58000000
 H       9.86400000      14.18400000      28.90900000
 H      11.23300000      13.66800000      28.86700000
 O      11.68500000      11.27300000      23.60900000
 H      12.36600000      11.36400000      22.94000000
 H      11.12800000      12.05300000      23.33700000
 O       6.16700000      12.64000000      24.61900000
 H       6.95400000      12.84600000      24.04200000
 H       5.76700000      11.87200000      24.17300000
 O       5.88900000      13.23400000      21.53700000
 H       5.66000000      14.14500000      21.31900000
 H       6.82800000      13.28200000      21.40900000
 O      13.72900000      17.83900000      26.26200000
 H      13.47900000      17.89200000      25.37600000
 H      13.55300000      16.93600000      26.44100000
 O       7.68500000      16.53700000      20.37100000
 H       6.83300000      16.82100000      19.99300000
 H       7.79000000      17.08900000      21.12000000
 O      14.88500000      14.93100000      22.25100000
 H      14.96800000      15.16100000      21.31300000
 H      14.14100000      14.32600000      22.25600000
 O      16.08300000      16.52600000      23.89900000
 H      15.88200000      17.36500000      23.42900000
 H      15.59400000      15.87200000      23.33500000
 O      12.58200000      13.98800000      30.19200000
 H      13.45200000      14.29600000      29.90700000
 H      12.35300000      14.41800000      31.04100000
 O      13.50100000      11.18400000      28.38000000
 H      13.05100000      11.47500000      27.55300000
 H      14.47500000      11.04900000      28.27400000
 O      14.70600000      20.76500000      29.21100000
 H      14.80100000      20.52900000      30.15700000
 H      13.94300000      21.31300000      29.05700000
 O       8.31200000      17.49200000      28.57800000
 H       9.25300000      17.15900000      28.60600000
 H       8.15600000      17.06400000      29.43900000
 O      15.76100000      18.70200000      21.82700000
 H      16.57300000      18.79800000      21.30700000
 H      15.81200000      19.54900000      22.38800000
 O       6.21600000      11.24900000      27.99600000
 H       5.96200000      10.32300000      27.77200000
 H       7.17600000      11.13800000      28.02600000
