108
XYZ file of cluster: frame_7000_2486f.642.c42dc - created by MolEdiTo
 O       5.91300000       5.85800000      26.29100000
 H       6.15500000       5.05700000      25.64900000
 H       5.63200000       5.43300000      27.06700000
 O       9.91800000       3.58000000      28.18600000
 H      10.65400000       3.77500000      28.78400000
 H      10.17000000       2.80600000      27.65100000
 O       9.31000000       2.29600000      30.65900000
 H       8.95700000       2.02500000      29.74000000
 H       8.69900000       1.94500000      31.39000000
 O      14.46100000       8.48700000      27.85500000
 H      14.76300000       8.45300000      28.82200000
 H      13.91200000       7.65900000      27.64700000
 O      12.44900000       6.69400000      26.65700000
 H      12.96400000       6.87000000      25.85400000
 H      11.61600000       6.26500000      26.45700000
 O      13.90200000       6.48900000      30.65400000
 H      13.93900000       6.79100000      31.54300000
 H      13.48500000       5.61300000      30.73100000
 O      10.32900000       9.78900000      26.22200000
 H      10.25600000       8.80500000      26.38700000
 H       9.86200000       9.97900000      25.36400000
 O       5.97100000       8.81500000      30.72300000
 H       5.72100000       8.43600000      29.85000000
 H       6.28800000       9.69300000      30.46800000
 O       5.46000000       5.53800000      30.58900000
 H       6.19800000       5.48100000      31.23200000
 H       5.75600000       4.89600000      29.85200000
 O       6.49600000       3.53200000      28.92300000
 H       7.44700000       3.52400000      28.87800000
 H       6.31200000       2.58900000      28.64200000
 O      16.15800000       0.84800000      28.73800000
 H      15.49200000       0.36200000      29.27000000
 H      16.70700000       0.05000000      28.52200000
 O      13.24900000       2.63200000      29.42500000
 H      12.48800000       3.12300000      29.80500000
 H      13.98500000       3.07800000      29.94200000
 O      16.29200000       6.63000000      29.46600000
 H      16.91000000       6.30800000      30.15000000
 H      15.52900000       6.61900000      30.11200000
 O      10.71900000       6.76600000      29.89800000
 H      11.66800000       6.61200000      29.78600000
 H      10.30500000       6.41700000      29.07700000
 O      15.39200000       9.71000000      30.29100000
 H      14.45800000       9.97800000      30.36600000
 H      15.73500000      10.02100000      31.17800000
 O      10.81300000       9.37300000      29.23500000
 H      10.97100000       8.33600000      29.34400000
 H      11.64700000       9.80900000      28.85500000
 O      13.58200000       1.53400000      26.85500000
 H      14.04000000       1.20500000      27.69100000
 H      13.31500000       2.47000000      27.11600000
 O       9.48800000       5.63900000      26.41300000
 H       9.43600000       4.81100000      26.90400000
 H       8.67600000       5.71000000      25.88800000
 O       8.62700000       1.26300000      28.13500000
 H       8.12000000       1.61500000      27.34900000
 H       8.57700000       0.26300000      28.15000000
 O       5.72100000       8.51800000      27.72700000
 H       4.74400000       8.54200000      27.41400000
 H       6.06000000       7.69300000      27.25900000
 O       6.21600000      11.24900000      27.99600000
 H       5.96200000      10.32300000      27.77200000
 H       7.17600000      11.13800000      28.02600000
 O       9.67300000       5.02600000      34.96500000
 H       9.73200000       5.81500000      35.49500000
 H       8.74200000       5.13700000      34.82200000
 O      16.27200000      10.02400000      34.65500000
 H      16.93200000       9.29200000      34.68100000
 H      15.63400000      10.04600000      35.43000000
 O      16.41000000       2.45000000      35.74300000
 H      16.29700000       3.29000000      36.39700000
 H      15.64800000       1.92000000      35.97900000
 O      12.56500000       8.06400000      34.41600000
 H      12.42400000       8.85500000      34.92600000
 H      12.33600000       7.30000000      34.87400000
 O       8.87300000       7.30500000      36.65400000
 H       8.30900000       7.31000000      37.43200000
 H       8.36300000       7.77400000      35.96600000
 O       9.18800000       2.01600000      35.38900000
 H       9.40200000       2.95500000      35.16400000
 H       8.52900000       1.89900000      36.18500000
 O      12.87900000       6.00600000      36.64500000
 H      12.97300000       5.13900000      36.13900000
 H      12.14300000       5.86900000      37.32100000
 O       6.72100000       8.40200000      34.85600000
 H       7.44900000       8.99100000      34.70900000
 H       6.20300000       8.49000000      34.00800000
 O       8.73300000      10.19700000      34.92200000
 H       9.51400000      10.20300000      34.34900000
 H       9.15700000      10.40400000      35.79100000
 O      14.97100000       3.06200000      33.21200000
 H      15.54000000       2.66700000      33.90800000
 H      14.09000000       3.03500000      33.65800000
 O      11.49100000       4.25800000      32.54300000
 H      10.90200000       3.44700000      32.70500000
 H      10.96600000       4.98700000      33.03900000
 O      15.46400000       6.86100000      35.52600000
 H      15.63300000       6.06100000      36.13500000
 H      14.57000000       7.31200000      35.63400000
 O       6.84600000       4.12100000      35.37700000
 H       6.41600000       4.76100000      36.00400000
 H       6.13000000       3.79700000      34.73200000
 O       8.21000000       6.69300000      32.94600000
 H       7.71700000       7.49800000      32.67400000
 H       9.02200000       6.76100000      32.50200000
 O      12.90500000       3.66900000      35.35800000
 H      12.49000000       3.54900000      36.23100000
 H      12.32600000       3.42800000      34.67200000
