154
XYZ file of cluster: frame_7000_49f68.69d07.6c7a1 - created by MolEdiTo
 O      16.51000000      19.42700000      25.48000000
 H      15.83900000      18.80900000      25.74200000
 H      17.29200000      18.85600000      25.14100000
 O      11.95900000      25.86300000      16.98700000
 H      12.76600000      25.63000000      16.59300000
 H      12.06100000      26.78400000      17.34100000
 O      13.53900000      21.42300000      17.83400000
 H      13.95000000      21.43000000      18.76400000
 H      12.77700000      20.86600000      17.91800000
 O      20.54800000      17.17200000      19.84200000
 H      20.95800000      16.98100000      18.98000000
 H      21.28500000      16.76200000      20.36900000
 O      20.41600000      20.84300000      21.89900000
 H      20.73000000      20.00900000      21.91500000
 H      19.46400000      20.84700000      22.17500000
 O      10.14100000      19.80200000      15.68600000
 H      10.41200000      19.93600000      16.70100000
 H      10.97800000      19.30300000      15.34600000
 O      13.22700000      18.86300000      20.45900000
 H      14.05000000      19.02500000      20.85900000
 H      12.81000000      19.74100000      20.63200000
 O      18.03900000      16.70600000      18.42700000
 H      17.64900000      17.55700000      18.68000000
 H      18.99300000      16.84100000      18.52100000
 O      11.50400000      25.67900000      24.08700000
 H      10.91500000      26.51300000      24.07000000
 H      11.38900000      25.25500000      23.26200000
 O      20.85800000      23.10000000      19.40000000
 H      20.86000000      22.29600000      19.95900000
 H      19.88400000      23.31700000      19.30200000
 O      13.88000000      20.76300000      22.78300000
 H      14.23000000      21.64500000      23.13100000
 H      13.32400000      20.48500000      23.49900000
 O      19.91800000      20.56200000      18.11600000
 H      20.32600000      21.19200000      17.48500000
 H      20.64300000      20.42600000      18.86800000
 O      17.30600000      21.54400000      22.84000000
 H      17.12800000      22.23000000      22.19100000
 H      16.51800000      21.42300000      23.38100000
 O      10.40700000      25.22600000      21.48300000
 H       9.60600000      24.64100000      21.43600000
 H      11.26300000      24.69700000      21.27100000
 O      15.76100000      18.70200000      21.82700000
 H      16.57300000      18.79800000      21.30700000
 H      15.81200000      19.54900000      22.38800000
 O      21.87100000      25.72800000      22.18400000
 H      22.39600000      26.00500000      21.39500000
 H      20.94700000      25.63600000      21.90100000
 O      20.19000000      15.63900000      23.68100000
 H      19.91600000      14.90300000      23.04300000
 H      20.75000000      16.16200000      23.11700000
 O      14.88900000      16.71600000      19.65300000
 H      14.07200000      17.20100000      19.74100000
 H      15.58100000      17.21900000      20.19800000
 O      17.60500000      25.55700000      16.06600000
 H      17.95400000      26.33600000      16.36200000
 H      18.27700000      25.28900000      15.34400000
 O      18.23800000      23.83200000      18.54100000
 H      17.51100000      23.18700000      18.44600000
 H      18.15100000      24.33600000      17.68800000
 O      19.31300000      25.94800000      20.91600000
 H      18.64200000      26.70200000      20.74500000
 H      18.97100000      25.24900000      20.35600000
 O      15.04900000      23.13100000      24.00400000
 H      15.32400000      22.87700000      24.92200000
 H      14.79400000      24.13300000      24.01700000
 C      17.13400000      14.55800000      15.45700000
 C      16.59800000      15.92700000      15.06000000
 C      14.39500000      15.31700000      16.14200000
 H      15.73500000      16.65900000      17.00400000
 H      17.55000000      15.51800000      16.86900000
 O      14.90800000      17.60200000      15.36000000
 O      16.87400000      13.52600000      14.85600000
 O      17.52200000      14.54900000      16.73600000
 C      15.43300000      16.42800000      15.98200000
 O      17.56900000      16.92300000      15.04800000
 H      16.27600000      15.85300000      14.02500000
 O      13.62000000      14.99900000      15.25300000
 O      14.29100000      14.77100000      17.39400000
 H      14.87200000      15.27400000      18.07000000
 H      18.14100000      16.89800000      14.17500000
 H      14.91200000      18.22000000      16.14900000
 O      13.24300000      17.67100000      23.43900000
 H      13.28500000      16.74100000      23.48400000
 H      13.17000000      17.81900000      22.47500000
 O      11.67000000      21.35000000      20.55400000
 H      12.06000000      22.26400000      20.68600000
 H      11.19800000      21.16700000      21.40200000
 O      12.98500000      23.87300000      21.20700000
 H      13.08600000      24.04600000      20.22100000
 H      13.78900000      24.20500000      21.71200000
 O      16.48100000      23.78400000      20.58800000
 H      17.19100000      23.35100000      19.96700000
 H      15.89800000      23.01000000      20.74300000
 O      17.57500000      20.43100000      19.64300000
 H      18.28900000      20.45500000      18.93700000
 H      17.98500000      19.68000000      20.26700000
 O      12.45500000      22.73200000      15.58500000
 H      12.68500000      22.40800000      16.50900000
 H      12.88100000      23.61100000      15.38700000
 O      16.58900000      15.75200000      26.63600000
 H      16.79900000      15.50200000      25.69100000
 H      17.39400000      15.54800000      27.08100000
 O      21.63700000      24.55400000      16.68700000
 H      20.75800000      24.22800000      16.36200000
 H      22.13200000      23.68600000      16.88800000
 O      11.52100000      15.84400000      20.66900000
 H      11.12800000      16.10500000      19.81200000
 H      11.87200000      14.99100000      20.38700000
 O      18.61100000      18.64700000      21.21900000
 H      18.55500000      18.32300000      22.14600000
 H      19.27200000      17.91600000      20.87900000
 O      13.72900000      17.83900000      26.26200000
 H      13.47900000      17.89200000      25.37600000
 H      13.55300000      16.93600000      26.44100000
 O       9.67800000      24.60900000      16.21700000
 H      10.61300000      25.01300000      16.32100000
 H       9.80500000      23.67800000      16.39400000
 O      16.08300000      16.52600000      23.89900000
 H      15.88200000      17.36500000      23.42900000
 H      15.59400000      15.87200000      23.33500000
 O      15.03800000      21.52300000      20.41500000
 H      15.74600000      20.87100000      20.30800000
 H      14.62300000      21.31500000      21.34300000
 O      17.25300000      26.32000000      23.58600000
 H      16.56400000      25.60500000      23.58800000
 H      16.68500000      27.12000000      23.35400000
 O      15.62500000      19.59300000      17.25100000
 H      15.29800000      20.32100000      17.89100000
 H      16.46400000      20.04200000      16.86000000
 O      11.77500000      19.13000000      18.14700000
 H      10.95800000      18.57400000      18.18600000
 H      12.14200000      19.13700000      18.98800000
 O      14.78200000      25.82300000      20.06900000
 H      15.19300000      26.71300000      19.81000000
 H      15.52100000      25.14400000      20.17200000
 O      18.64900000      22.92700000      26.11700000
 H      18.97800000      22.36200000      25.33100000
 H      17.70700000      22.63300000      26.10500000
 O      10.47200000      21.06900000      23.03100000
 H       9.69500000      20.87700000      23.62200000
 H      11.18900000      21.40300000      23.66900000
 O      20.03800000      17.39700000      16.39600000
 H      19.06900000      17.40900000      16.43800000
 H      20.27000000      16.60500000      15.80700000
 O      14.97800000      24.67300000      26.11700000
 H      14.21900000      25.14400000      26.60700000
 H      15.66800000      24.49700000      26.82100000
 O      12.14000000      22.26300000      25.09900000
 H      12.01800000      22.20200000      26.06400000
 H      12.43200000      23.20600000      24.98500000
 O      18.76200000      18.13000000      24.12600000
 H      18.61700000      17.28100000      23.63800000
 H      19.43400000      17.99100000      24.82800000
