117
XYZ file of cluster: frame_7000_c71b0.1f74d.c989f - created by MolEdiTo
 O      29.82400000       8.94000000      28.03600000
 H      29.44000000       8.49600000      27.19400000
 H      29.86400000       8.18700000      28.72900000
 O      27.03700000       9.84600000      30.61700000
 H      27.36800000       9.31400000      31.32300000
 H      27.09200000       9.19800000      29.90200000
 O      30.64700000      11.52300000      28.67600000
 H      31.26600000      11.72300000      29.42100000
 H      30.40400000      10.53600000      28.67200000
 O      29.16300000       4.60500000      27.01600000
 H      29.13800000       5.33100000      26.27800000
 H      29.24200000       5.14100000      27.87500000
 O      29.01600000      12.59300000      26.36600000
 H      28.45300000      13.36200000      26.61000000
 H      29.29900000      12.26700000      27.29900000
 O      30.70600000      14.30300000      28.74300000
 H      31.70800000      14.37900000      28.88900000
 H      30.62200000      13.35200000      28.74400000
 O      27.39400000      16.14600000      29.75100000
 H      27.79700000      17.06000000      29.61400000
 H      27.91500000      15.46200000      29.25600000
 O      26.56700000       7.71500000      29.03400000
 H      26.78000000       7.56500000      28.13200000
 H      26.75900000       6.89900000      29.45800000
 O      26.55400000      12.74400000      30.17000000
 H      25.92200000      12.94200000      29.48100000
 H      27.15200000      12.04600000      29.88200000
 O      26.85700000       7.17700000      26.46000000
 H      25.93500000       6.79700000      26.38800000
 H      26.89700000       8.06600000      26.05700000
 O      27.15200000      10.25400000      26.48800000
 H      26.25700000      10.68900000      26.64300000
 H      27.81800000      10.98100000      26.57500000
 O      28.26300000       7.11800000      36.86400000
 H      28.47800000       7.94900000      36.38300000
 H      27.91500000       7.39700000      37.77800000
 O      30.35800000      14.34900000      36.75000000
 H      30.36400000      14.94500000      35.95300000
 H      29.47100000      14.06100000      36.66900000
 O      27.14600000       4.52500000      37.18600000
 H      26.21500000       4.37600000      36.82000000
 H      27.43200000       5.39000000      36.77100000
 O      28.88100000      12.31800000      35.17200000
 H      28.51300000      13.23600000      35.12000000
 H      29.80100000      12.34800000      34.82300000
 O      29.29600000       8.00100000      34.04500000
 H      29.74800000       7.70900000      33.23200000
 H      28.39300000       7.70700000      33.84300000
 O      26.02800000      10.76900000      34.75800000
 H      26.45000000      10.83300000      33.83900000
 H      26.74000000      10.39300000      35.36700000
 O      26.73000000       7.37900000      33.66700000
 H      26.37900000       7.31500000      34.57600000
 H      25.85900000       7.39100000      33.16400000
 O      29.41600000      14.54600000      33.22000000
 H      29.83500000      13.86300000      32.66400000
 H      28.60000000      14.83500000      32.74600000
 O      28.76200000      10.74400000      37.32200000
 H      28.38900000      11.47500000      37.76600000
 H      28.80400000      11.18000000      36.39400000
 O      27.72900000      14.96400000      36.33000000
 H      28.01100000      15.59400000      35.66000000
 H      26.81900000      15.32400000      36.72700000
 O      34.03400000       8.96700000      30.39900000
 H      33.76000000       8.25000000      30.98200000
 H      34.55500000       8.49200000      29.67600000
 O      35.19400000      14.45900000      29.03200000
 H      36.01200000      14.81800000      28.61800000
 H      35.06100000      14.92200000      29.87300000
 O      35.48000000      12.54200000      26.68800000
 H      36.20000000      12.18300000      26.16600000
 H      35.95800000      12.82700000      27.48400000
 O      32.74000000       5.88300000      30.31100000
 H      33.24900000       5.54000000      29.54500000
 H      32.85900000       5.23900000      31.03200000
 O      37.61400000      12.76600000      30.41100000
 H      37.57200000      12.13800000      29.61900000
 H      36.68200000      13.16000000      30.37300000
 O      34.39900000       7.55200000      28.21400000
 H      34.35300000       6.60700000      27.92800000
 H      33.47900000       7.89600000      27.96200000
 O      37.42900000       8.51800000      27.72700000
 H      36.45200000       8.54200000      27.41400000
 H      37.76800000       7.69300000      27.25900000
 O      33.08300000       4.80300000      34.30900000
 H      33.60400000       4.02100000      34.62500000
 H      33.87500000       5.37900000      34.36500000
 O      34.02000000      14.97600000      33.65800000
 H      34.43200000      15.84200000      33.31300000
 H      33.10500000      15.01600000      33.77300000
 O      35.09500000      14.27000000      36.40800000
 H      35.26100000      14.20200000      35.43100000
 H      34.36600000      14.89900000      36.49600000
 O      35.58000000       7.00800000      33.76000000
 H      36.33600000       7.28400000      34.27000000
 H      35.85300000       6.31600000      33.16400000
 O      32.67500000      10.21000000      34.61600000
 H      31.93000000       9.50900000      34.46500000
 H      33.34600000       9.97500000      33.88900000
 O      35.48300000      12.02700000      34.76100000
 H      35.07900000      11.84800000      35.62500000
 H      36.40800000      11.68600000      34.76800000
 O      37.24600000      16.35000000      36.47900000
 H      36.80900000      15.60300000      36.91800000
 H      37.85900000      15.83700000      35.84600000
 O      33.71200000      11.64800000      37.13900000
 H      33.01700000      11.30300000      36.49800000
 H      33.57000000      12.59100000      37.03000000
 O      33.39500000      12.33600000      32.78000000
 H      34.00800000      13.11300000      32.88100000
 H      33.86600000      11.66900000      33.38000000
 O      35.65900000       9.60300000      37.11500000
 H      35.02100000       9.03900000      36.60300000
 H      35.22900000      10.41300000      37.47600000
 O      33.80100000       7.90200000      35.87600000
 H      32.86500000       7.57000000      35.71000000
 H      34.30900000       7.58400000      35.16200000
