1770
XYZ file of cluster: frame_1000_c47b1.0.21f0c - created by MolEdiTo
 O      40.25000000       8.73400000      34.60900000
 H      39.66700000       8.37800000      33.89200000
 H      40.17400000       9.66200000      34.46500000
 O      34.33500000      24.96000000      31.25500000
 H      34.68500000      25.55700000      30.61200000
 H      33.90800000      25.55800000      31.88300000
 O      40.80700000       9.82900000       7.81100000
 H      40.69500000      10.53300000       8.48100000
 H      41.03300000      10.45300000       6.99900000
 O      38.43800000      36.05400000      40.45600000
 H      38.49300000      36.96200000      40.69600000
 H      37.46200000      35.89500000      40.52400000
 O      38.01200000      21.81800000      27.01200000
 H      37.25700000      21.20800000      26.80200000
 H      38.58200000      21.77200000      26.23800000
 O      37.45900000      19.68100000      21.20800000
 H      36.76300000      18.99600000      20.97100000
 H      37.69500000      19.94800000      20.31800000
 O      33.69600000      31.40300000      32.46300000
 H      34.59300000      31.10500000      32.62700000
 H      33.65900000      31.38700000      31.47300000
 O      36.50600000      26.06400000      10.48400000
 H      36.43400000      25.70900000       9.55900000
 H      37.42900000      26.28400000      10.54900000
 O      40.20200000      32.30900000      27.40600000
 H      40.77800000      31.81400000      26.75000000
 H      40.41100000      33.22600000      27.21300000
 O      39.13900000       2.80800000      15.15000000
 H      38.52100000       3.53500000      15.36100000
 H      39.13800000       2.81100000      14.20200000
 O      38.28400000      12.75400000      11.73800000
 H      38.76300000      13.46600000      12.32100000
 H      38.43900000      12.01700000      12.41600000
 O      38.97000000      25.11600000      35.68300000
 H      39.42500000      24.43700000      35.15400000
 H      38.61800000      25.63600000      34.92300000
 O      38.28400000      13.78500000      34.24400000
 H      38.88500000      14.55300000      33.98300000
 H      37.57700000      13.81500000      33.59300000
 O      35.45100000      37.84700000      30.91000000
 H      35.46500000      37.98900000      31.88500000
 H      34.57900000      37.37000000      30.84700000
 O      37.33700000       9.72800000      21.27900000
 H      37.28600000      10.14600000      20.40500000
 H      38.14200000      10.09600000      21.69000000
 O      40.33900000      26.88100000      40.52900000
 H      40.11600000      26.20300000      39.86500000
 H      40.74100000      27.53900000      39.92200000
 O      39.84900000      34.48500000      12.60500000
 H      39.24000000      33.80200000      12.33700000
 H      39.18700000      35.24700000      12.69700000
 O      36.51500000      14.12300000      27.67800000
 H      36.74100000      13.26800000      27.16300000
 H      35.54500000      14.17300000      27.44100000
 O      37.64800000      27.99000000      18.52800000
 H      37.48300000      27.28300000      17.90800000
 H      38.47400000      27.67600000      18.95600000
 O      36.65300000      21.08100000       9.57400000
 H      35.74800000      21.46900000       9.72600000
 H      36.79600000      20.59700000      10.40700000
 O      40.09900000      21.93400000      25.12700000
 H      40.93700000      22.04100000      24.67000000
 H      39.77300000      21.19900000      24.51400000
 O      34.42900000       9.20300000      35.87000000
 H      35.31000000       8.82000000      36.01000000
 H      33.91600000       8.33200000      36.14100000
 O      34.20100000      21.61700000      22.72500000
 H      33.68400000      22.39600000      22.31600000
 H      34.98900000      21.73300000      22.20800000
 O      37.66400000      39.34200000      12.09100000
 H      38.41900000      38.79200000      12.37000000
 H      37.66100000      39.21700000      11.18300000
 O      37.02300000      23.93700000      39.19400000
 H      36.88900000      23.53900000      38.25800000
 H      36.13400000      24.28800000      39.34600000
 O      38.88900000       4.96200000      31.73200000
 H      38.78300000       4.02200000      31.82200000
 H      38.60400000       5.18400000      30.87700000
 O      34.08100000      21.34000000      32.07400000
 H      34.43400000      21.17400000      31.15600000
 H      34.43500000      22.23300000      32.24600000
 O      38.40100000      32.16600000      23.50400000
 H      38.62900000      31.36100000      24.06400000
 H      39.06600000      32.06200000      22.81300000
 O      39.41100000      17.33500000      28.68800000
 H      39.21900000      16.78000000      29.47000000
 H      38.70300000      16.89000000      28.11300000
 O      38.88500000       2.24400000      31.64800000
 H      39.72000000       1.83200000      31.87200000
 H      38.64100000       1.83300000      30.82300000
 O      39.38000000       7.90000000      13.00700000
 H      40.28300000       8.04400000      12.80800000
 H      39.01500000       7.61000000      12.10600000
 O      37.61400000      33.35600000      20.13200000
 H      37.87100000      34.31500000      20.29200000
 H      38.41100000      32.83500000      20.38000000
 O      35.27000000      38.72300000      33.47400000
 H      36.14700000      38.78700000      33.80200000
 H      34.73000000      38.97500000      34.25100000
 O      34.65300000      19.81000000      12.22000000
 H      34.14700000      20.49800000      11.66000000
 H      34.40400000      20.15700000      13.09300000
 O      39.59400000       7.41800000      28.10800000
 H      39.74100000       6.82500000      27.25400000
 H      38.89700000       6.90700000      28.50200000
 O      37.28600000       2.50900000      23.82800000
 H      36.56900000       2.13400000      24.36800000
 H      37.56100000       1.78300000      23.23900000
 O      37.27500000      13.74800000      16.54100000
 H      37.00100000      14.73200000      16.52500000
 H      36.40500000      13.38900000      16.24700000
 O      40.25900000      38.62000000      37.24100000
 H      40.43300000      39.61600000      37.23700000
 H      39.39600000      38.54100000      37.63700000
 O      39.05900000      25.06800000      14.42700000
 H      39.88100000      24.97600000      13.88500000
 H      38.51100000      24.42600000      14.02300000
 O      34.45800000      25.35200000      18.13400000
 H      34.09200000      26.12900000      17.74600000
 H      34.24900000      25.47800000      19.08700000
 O      40.00800000      11.50300000      34.87100000
 H      40.61100000      11.48300000      34.10600000
 H      39.53600000      12.39600000      34.66100000
 O      40.10900000      35.51000000      27.10400000
 H      40.88800000      35.19300000      27.47300000
 H      40.21200000      35.39100000      26.13500000
 O      37.08600000      38.62100000      28.82000000
 H      36.66100000      38.03300000      28.17600000
 H      36.50600000      38.38300000      29.60700000
 O      35.83300000      22.59800000      30.35700000
 H      35.41300000      23.48300000      30.33800000
 H      35.24100000      22.01300000      29.85400000
 O      37.67500000      18.27000000      17.40000000
 H      37.90900000      17.61400000      18.14700000
 H      37.75300000      19.12200000      17.92600000
 O      36.47100000       9.31800000      14.24300000
 H      37.28700000       9.72300000      13.87400000
 H      35.76900000       9.81400000      13.72600000
 O      35.38500000       6.69200000      16.80900000
 H      36.10300000       7.29300000      16.59700000
 H      34.58100000       7.26300000      16.73800000
 O      39.22200000      11.80500000      30.71100000
 H      38.76000000      10.93400000      30.86100000
 H      38.43100000      12.37700000      30.65300000
 O      38.38500000       7.20600000      18.94400000
 H      37.64500000       7.61100000      19.36700000
 H      38.73600000       8.03700000      18.42800000
 O      38.88400000      10.74700000      13.35700000
 H      39.57600000      11.13000000      13.97600000
 H      39.08900000       9.81300000      13.45200000
 O      38.38600000      28.97400000      26.59000000
 H      38.30800000      29.89300000      26.77800000
 H      38.71200000      28.63900000      27.43900000
 O      38.44100000      13.07700000       7.54800000
 H      38.48300000      13.24600000       6.55000000
 H      37.44100000      12.78900000       7.56200000
 O      38.70600000      19.00800000       8.15400000
 H      38.30200000      18.36700000       8.78000000
 H      38.34100000      18.79000000       7.32400000
 O      35.90500000      20.83300000      18.84700000
 H      36.75000000      21.16400000      18.46100000
 H      35.95300000      21.37800000      19.69300000
 O      35.66000000       6.78800000      19.62400000
 H      35.41300000       6.78500000      18.70000000
 H      35.35300000       5.91800000      19.89400000
 O      35.09400000      34.23900000      29.46400000
 H      35.48600000      34.30300000      30.41000000
 H      35.92300000      34.47500000      28.99300000
 O      34.37600000      14.01200000      37.02000000
 H      33.88200000      13.14300000      37.01800000
 H      34.70100000      14.06400000      37.91400000
 O      36.94600000      31.44900000      27.01700000
 H      36.69100000      31.27700000      27.96100000
 H      37.50000000      32.21400000      27.16700000
 O      36.94600000      18.61200000      13.29500000
 H      36.23900000      18.96200000      12.71100000
 H      36.60000000      18.79400000      14.17500000
 O      39.66800000      17.10500000      37.24400000
 H      40.13100000      17.93400000      37.01300000
 H      40.22100000      16.43600000      36.88100000
 O      39.43100000      38.23100000      25.91300000
 H      38.89800000      37.44300000      25.69300000
 H      38.78300000      38.96500000      25.59700000
 O      37.50800000       9.88600000      31.34300000
 H      36.95200000      10.20000000      32.06500000
 H      37.74600000       9.03800000      31.72000000
 O      36.01800000      39.39300000      23.08400000
 H      35.17800000      39.29100000      22.64600000
 H      36.47000000      40.01400000      22.46100000
 O      34.97800000       6.40200000       8.05100000
 H      34.87200000       6.67200000       7.10600000
 H      35.75000000       5.77900000       7.94800000
 O      37.61400000      24.56400000      19.66400000
 H      38.36700000      24.63400000      20.22100000
 H      37.22000000      25.47400000      19.79400000
 O      36.28300000      13.77500000      19.37300000
 H      35.32600000      13.88500000      19.53900000
 H      36.36400000      12.79800000      19.33400000
 O      36.88300000       3.39100000      28.17700000
 H      35.91300000       3.19200000      27.98400000
 H      37.08900000       2.60500000      28.74200000
 O      40.74100000      13.10200000      22.80800000
 H      39.94300000      13.67700000      22.67400000
 H      40.30000000      12.28500000      23.11800000
 O      40.75600000      31.91600000      10.45700000
 H      39.92000000      32.20000000      10.85600000
 H      41.13600000      32.77700000      10.14200000
 O      34.14400000      26.58900000       7.30700000
 H      34.33000000      27.23900000       6.56200000
 H      35.11800000      26.47100000       7.54600000
 O      38.24400000      40.26600000      21.57000000
 H      38.78300000      39.48000000      21.71000000
 H      38.19900000      40.23900000      20.56900000
 O      36.38000000      19.71000000      33.38400000
 H      35.49600000      19.35200000      33.64800000
 H      36.32100000      20.63100000      33.75700000
 O      36.15700000      17.29400000      20.09800000
 H      36.67500000      16.60100000      19.87900000
 H      35.26400000      17.04300000      20.38100000
 O      34.18900000       3.74400000      35.38200000
 H      33.41800000       3.23200000      35.08300000
 H      34.84700000       3.03900000      35.41500000
 O      38.55200000      29.61600000      10.48800000
 H      38.66700000      29.40000000      11.47800000
 H      39.43200000      29.26100000      10.14600000
 O      35.50200000       1.64900000      25.95200000
 H      34.86700000       1.28300000      26.64000000
 H      35.07500000       2.53600000      25.84800000
 O      37.34700000      19.79700000      29.26300000
 H      37.97800000      19.11800000      28.88900000
 H      36.80600000      19.97300000      28.50000000
 O      39.67500000      30.47900000       7.47600000
 H      39.11100000      31.23400000       7.08800000
 H      39.50700000      30.69800000       8.41300000
 O      37.40700000      10.51600000      37.77100000
 H      38.02400000      10.69100000      38.47300000
 H      37.50400000       9.57400000      37.60000000
 O      40.49200000      12.21500000       9.50600000
 H      39.87800000      12.49800000      10.25800000
 H      39.97200000      12.53700000       8.74300000
 O      34.04700000      38.50000000       8.99200000
 H      34.62200000      38.20300000       8.29100000
 H      33.39400000      39.05500000       8.61800000
 O      34.31600000      37.72300000      24.81900000
 H      34.72900000      38.41200000      24.31000000
 H      33.93500000      37.08900000      24.21500000
 O      38.38300000      32.35700000      14.98100000
 H      38.03300000      32.02400000      14.08900000
 H      38.40300000      31.49800000      15.45900000
 O      35.18300000      12.57200000      24.68500000
 H      35.01500000      12.03500000      25.49100000
 H      34.51200000      13.25900000      24.74500000
 O      37.51400000       2.59900000      10.54700000
 H      37.51000000       1.71400000      10.10200000
 H      38.13200000       3.04800000       9.94200000
 O      39.11000000      13.96400000      14.06300000
 H      39.23200000      14.92100000      14.38500000
 H      38.45100000      13.67100000      14.77400000
 O      39.96100000      40.15100000      16.48700000
 H      40.41300000      39.44200000      15.94300000
 H      40.09500000      40.89500000      15.87200000
 O      36.83800000      33.58200000      35.40000000
 H      37.41500000      32.79500000      35.58500000
 H      37.50400000      34.12200000      34.92200000
 O      38.39300000      15.69800000      18.60100000
 H      37.70300000      15.06100000      18.31000000
 H      39.14700000      15.09500000      18.32700000
 O      34.19000000      17.47100000      29.96300000
 H      35.04600000      17.24200000      30.42000000
 H      34.31300000      17.07000000      29.07800000
 O      35.48600000      28.26000000      26.87500000
 H      36.38400000      28.60200000      26.73500000
 H      35.69700000      27.33900000      27.12700000
 O      36.33000000      30.27100000      20.36600000
 H      35.99100000      31.08400000      20.00300000
 H      37.09000000      30.00400000      19.79000000
 O      37.61800000      36.47900000      24.57700000
 H      38.25000000      35.73200000      24.33400000
 H      36.96700000      36.33600000      23.88800000
 O      36.30900000      18.41600000      37.07000000
 H      35.72500000      17.69300000      36.88300000
 H      37.11300000      18.08100000      36.65000000
 O      37.28200000       2.73300000      33.63100000
 H      36.47900000       2.96900000      33.13000000
 H      37.84800000       2.36900000      33.03200000
 O      34.09500000      39.96600000      11.81900000
 H      34.73500000      40.63100000      11.54500000
 H      34.49300000      39.20800000      11.28400000
 O      37.07700000      16.73000000      27.40800000
 H      36.87200000      15.75300000      27.56400000
 H      36.21500000      17.08200000      27.24100000
 O      34.78800000      25.20400000      39.58600000
 H      34.75800000      26.03700000      40.16200000
 H      33.82000000      25.14500000      39.46000000
 O      36.51000000      26.95100000      20.82400000
 H      36.49200000      27.67400000      21.48900000
 H      36.55300000      27.44800000      19.97500000
 O      37.29500000       7.16800000      36.78000000
 H      36.90200000       6.67100000      35.99000000
 H      38.21000000       6.85700000      36.75000000
 O      34.25300000      11.33900000      10.49100000
 H      34.51500000      12.29500000      10.39600000
 H      34.76900000      10.97300000       9.73500000
 O      37.53500000      20.66000000      39.15800000
 H      36.70200000      21.11200000      39.06400000
 H      37.54300000      20.12200000      38.37300000
 O      36.55600000      17.99100000      31.22800000
 H      36.93600000      18.64600000      30.65900000
 H      36.42500000      18.57700000      32.03200000
 O      35.86000000      36.15600000      40.56600000
 H      35.26100000      35.35800000      40.39900000
 H      35.20700000      36.84000000      40.37600000
 O      35.39200000      25.99200000      14.97900000
 H      35.34900000      25.37400000      14.15900000
 H      34.51600000      26.44300000      14.88000000
 O      35.75700000      13.37600000       7.27100000
 H      34.97600000      13.81100000       7.64300000
 H      35.36400000      13.26800000       6.33200000
 O      35.33100000      10.65300000       7.87100000
 H      35.98000000      10.39100000       7.14100000
 H      35.35400000      11.58900000       7.68600000
 O      36.46200000      16.15800000      16.18900000
 H      36.61700000      17.08700000      16.55000000
 H      35.59700000      16.36000000      15.76400000
 O      37.17400000      11.31900000      26.33600000
 H      37.75700000      10.77500000      26.86200000
 H      36.83900000      10.65600000      25.73200000
 O      36.01000000       9.67700000      16.82500000
 H      36.22100000       9.50300000      15.83100000
 H      35.08700000       9.98500000      16.70400000
 O      37.55300000      39.45800000      38.65100000
 H      38.00600000      40.28100000      38.36700000
 H      36.61800000      39.73300000      38.34600000
 O      35.36500000      28.71400000      22.78800000
 H      35.28000000      29.38400000      23.51700000
 H      35.45800000      29.21000000      21.99600000
 O      37.63700000      31.68900000      39.72500000
 H      38.06600000      32.35100000      40.29700000
 H      38.19100000      30.87200000      39.99500000
 O      40.73800000      22.26300000      29.04900000
 H      40.05000000      21.87600000      29.64900000
 H      40.73800000      21.57100000      28.32700000
 O      37.44500000      39.81400000      25.46100000
 H      36.91900000      39.68900000      24.65000000
 H      36.85100000      40.45200000      25.95800000
 O      37.35500000       9.41500000      28.61800000
 H      37.33500000       9.57600000      29.52000000
 H      38.24800000       8.98200000      28.46400000
 O      36.17000000       5.83500000      10.74800000
 H      35.41600000       6.01200000      11.38000000
 H      35.76100000       5.76200000       9.91800000
 O      35.45100000       4.03400000      19.63100000
 H      35.13600000       4.08800000      20.53500000
 H      36.32600000       3.53400000      19.77700000
 O      35.90700000      38.51400000      14.75800000
 H      36.60100000      38.25000000      14.07000000
 H      35.98900000      39.46500000      14.82700000
 O      34.01600000      32.07600000      16.71800000
 H      34.41800000      31.43000000      17.27200000
 H      33.38600000      31.52600000      16.16200000
 O      40.66500000      10.54600000      25.70800000
 H      40.58800000      10.68100000      26.73600000
 H      39.79800000      10.09900000      25.59500000
 O      38.31900000      13.21100000      37.23100000
 H      37.91000000      12.29600000      37.07900000
 H      38.02600000      13.66700000      36.45100000
 O      37.65600000      40.33300000       9.07200000
 H      37.54000000      39.38200000       8.81400000
 H      37.92300000      40.70500000       8.15900000
 O      34.57700000       3.66300000      17.18400000
 H      35.05100000       3.64200000      18.05900000
 H      34.97300000       4.48700000      16.82000000
 O      35.09700000      17.62100000      10.72900000
 H      34.80600000      18.43200000      11.25500000
 H      34.78600000      17.89400000       9.82200000
 O      34.50900000      22.78200000      16.98800000
 H      34.62100000      23.67600000      17.31600000
 H      35.16800000      22.31000000      17.52000000
 O      35.37300000       3.91200000      22.75000000
 H      35.40600000       4.77200000      23.19300000
 H      36.33600000       3.66300000      22.89000000
 O      40.09500000      27.07600000      20.34100000
 H      40.78200000      27.72500000      20.53000000
 H      40.14300000      26.45700000      21.07200000
 O      40.52100000      34.76000000      18.14700000
 H      39.66400000      34.85000000      17.72700000
 H      40.84300000      35.67000000      18.06800000
 O      37.98800000      24.50200000      31.29100000
 H      37.81000000      24.58100000      30.33600000
 H      37.60700000      23.57400000      31.44200000
 O      35.52600000      24.65500000      12.71800000
 H      35.82600000      25.11300000      11.87900000
 H      36.26200000      24.02400000      12.82800000
 O      38.21600000      40.46700000      18.87000000
 H      38.16700000      41.43400000      18.94100000
 H      38.81500000      40.36300000      18.13500000
 O      35.45200000       1.75200000       8.09100000
 H      34.98800000       1.37100000       7.36800000
 H      36.02700000       1.02400000       8.42400000
 O      33.63000000      31.92300000      37.18600000
 H      33.62400000      31.45700000      36.32400000
 H      34.42900000      31.55800000      37.57200000
 O      34.81600000      31.83500000      40.52500000
 H      34.50600000      32.70900000      40.49800000
 H      35.74000000      31.92800000      40.17700000
 O      37.52000000      26.28100000      16.42400000
 H      38.12000000      26.03100000      15.72600000
 H      36.64200000      26.33200000      15.97500000
 O      39.11100000       5.37500000      23.01500000
 H      39.25100000       5.86600000      23.85200000
 H      40.01500000       5.15700000      22.75200000
 O      36.02700000      10.13200000      23.87100000
 H      35.83800000      11.09800000      23.92500000
 H      36.36800000      10.13500000      22.92100000
 O      34.16400000      39.21900000      36.01300000
 H      34.05700000      38.27600000      36.39500000
 H      34.51000000      39.66500000      36.80900000
 O      38.22100000       0.92000000      29.56600000
 H      37.98300000       0.00000000      29.23800000
 H      38.94800000       1.14900000      28.93700000
 O      39.36300000      24.69500000      22.98200000
 H      39.04000000      24.60600000      23.96900000
 H      39.19300000      23.77500000      22.66700000
 O      38.23800000      21.26900000      31.14000000
 H      37.46800000      21.38300000      31.70000000
 H      37.78300000      20.69200000      30.41000000
 O      36.55800000      22.38300000      20.78500000
 H      37.29700000      21.90600000      21.21500000
 H      36.99700000      23.12200000      20.38000000
 O      37.93500000       3.80900000      38.06900000
 H      38.56300000       4.52800000      37.83500000
 H      37.70400000       4.05100000      38.99000000
 O      39.48600000       4.74300000      17.78500000
 H      39.24400000       5.17700000      16.92800000
 H      39.13600000       5.45600000      18.37900000
 O      39.01500000      11.78000000      17.34800000
 H      38.45000000      12.53500000      16.99600000
 H      39.81200000      12.29400000      17.52900000
 O      36.78400000      22.46600000      34.03100000
 H      36.36800000      23.23800000      34.43300000
 H      37.61900000      22.81100000      33.65100000
 O      36.56500000       1.24200000      13.48900000
 H      36.98100000       0.55600000      12.90500000
 H      36.96800000       2.07600000      13.09000000
 O      37.46400000      30.39200000      13.38800000
 H      36.62800000      30.42800000      13.86900000
 H      37.46900000      29.40800000      13.08100000
 O      35.05200000      19.87000000       7.39400000
 H      35.58300000      20.34100000       8.02600000
 H      35.32200000      20.20800000       6.53800000
 O      40.02500000       4.29500000       9.03200000
 H      40.97800000       4.62700000       9.12700000
 H      39.56100000       5.12500000       8.94000000
 O      40.11900000      28.03300000      31.45900000
 H      40.18600000      28.99200000      31.50300000
 H      41.01200000      27.75800000      31.44600000
 O      35.17600000      29.37200000      17.43200000
 H      35.37900000      29.10200000      16.48700000
 H      35.93500000      28.90400000      17.89800000
 O      34.18400000      37.36200000      19.47000000
 H      33.78200000      36.94100000      18.71800000
 H      34.67100000      38.12200000      19.17800000
 O      35.82700000      33.20900000      23.69900000
 H      36.14500000      34.08800000      23.42700000
 H      36.67200000      32.68300000      23.52000000
 O      35.93500000      13.65000000      10.81800000
 H      36.86500000      13.44000000      11.07200000
 H      35.70100000      14.21100000      11.52000000
 O      34.54700000      23.42400000      25.34500000
 H      34.31000000      22.88500000      24.59500000
 H      33.89900000      23.15400000      25.99600000
 O      37.40900000      27.70300000      13.06200000
 H      37.22100000      27.13800000      12.29900000
 H      37.60400000      26.98100000      13.73200000
 O      39.18000000      22.18900000      21.38600000
 H      39.88400000      21.50000000      21.69300000
 H      39.38200000      22.16100000      20.43500000
 O      38.76200000       6.04200000      15.49500000
 H      38.60200000       6.86600000      15.98700000
 H      38.74000000       6.43600000      14.56500000
 O      40.34000000       3.79500000      12.33300000
 H      39.38700000       4.03700000      12.41000000
 H      40.73100000       4.64800000      12.12600000
 O      36.83200000       5.44200000      34.76200000
 H      37.21000000       4.56900000      34.61200000
 H      35.87900000       5.28300000      34.74200000
 O      34.50600000      18.98200000      17.03600000
 H      34.54700000      19.65300000      16.35300000
 H      34.85600000      19.52300000      17.79200000
 O      35.44800000      24.54200000      35.17300000
 H      35.51400000      25.46700000      34.94600000
 H      34.58600000      24.48700000      35.58300000
 O      37.60400000       5.94000000      29.34200000
 H      37.31400000       5.06200000      28.92100000
 H      36.69500000       6.21200000      29.65900000
 O      37.95400000       3.20400000      19.60100000
 H      38.78400000       3.20400000      20.10700000
 H      38.33300000       3.64900000      18.76800000
 O      38.57200000      29.04900000      38.99100000
 H      37.60800000      28.99600000      38.69000000
 H      38.56800000      28.52900000      39.77800000
 O      38.83600000      24.44800000      25.49900000
 H      38.10900000      24.42100000      26.07000000
 H      39.03000000      23.44900000      25.44500000
 O      35.11800000      36.88000000      11.45800000
 H      34.45000000      36.51000000      10.89200000
 H      34.65900000      37.15400000      12.24700000
 O      34.65300000       3.19900000      10.18800000
 H      35.61300000       3.10800000      10.37900000
 H      34.65100000       2.93700000       9.22600000
 O      38.72600000       7.57700000       7.82900000
 H      38.98300000       8.49600000       7.71500000
 H      38.87500000       7.23300000       6.91500000
 O      34.69000000      32.64600000      20.32200000
 H      35.59600000      33.07800000      20.37900000
 H      34.23200000      33.22500000      20.97700000
 O      36.51600000       6.47900000      22.89300000
 H      36.42800000       6.70300000      21.95100000
 H      37.45600000       6.16100000      22.88300000
 O      37.36200000      13.82900000      30.23900000
 H      37.88600000      14.65800000      30.42000000
 H      37.09100000      13.85700000      29.34900000
 O      38.36400000      22.90800000      17.44800000
 H      39.20600000      23.34300000      17.22600000
 H      37.97400000      23.52000000      18.09400000
 O      38.84500000       2.26600000       7.60400000
 H      39.69900000       1.77900000       7.81600000
 H      38.97000000       3.05600000       8.14100000
 O      37.15000000      34.11700000       8.77900000
 H      37.29100000      33.35700000       8.14100000
 H      38.08400000      34.47800000       8.78400000
 O      35.92100000      25.20800000      26.91900000
 H      35.52800000      24.65300000      26.21100000
 H      35.05700000      25.48000000      27.36100000
 O      36.22000000      35.71900000      22.33700000
 H      36.95200000      36.07300000      21.71300000
 H      35.47200000      36.18000000      22.01900000
 O      38.19900000      36.21500000      20.34700000
 H      38.79200000      36.55400000      21.08700000
 H      38.38800000      36.76800000      19.62600000
 O      40.27800000      37.85500000      12.44800000
 H      40.91600000      37.59600000      11.70100000
 H      39.81100000      36.99500000      12.59500000
 O      34.27900000      35.45200000       6.70200000
 H      34.41900000      34.59200000       7.20200000
 H      34.46800000      35.09400000       5.79100000
 O      40.44600000      21.25800000       8.86200000
 H      39.86200000      20.46200000       8.75100000
 H      40.99700000      21.20400000       8.06100000
 O      38.11000000       7.38500000      32.86200000
 H      38.51300000       6.51700000      32.59000000
 H      37.47400000       7.13400000      33.55100000
 O      37.34400000      35.34200000      17.31800000
 H      37.10600000      35.23900000      18.26200000
 H      37.49700000      36.29400000      17.26000000
 O      35.76900000      20.41300000      26.73600000
 H      34.82000000      20.57900000      26.84900000
 H      35.78700000      19.87900000      25.90800000
 O      36.17600000      36.98600000      26.89500000
 H      36.59300000      36.79500000      26.03000000
 H      35.23000000      37.12700000      26.56400000
 O      39.55100000      33.82800000      39.91300000
 H      39.20900000      34.69900000      40.23100000
 H      39.33500000      33.96400000      38.95500000
 O      37.34100000      35.01800000      28.09400000
 H      36.90600000      35.63900000      27.44800000
 H      38.31100000      35.21900000      27.95400000
 O      37.70400000      36.12700000      31.45900000
 H      36.86100000      36.07500000      31.00800000
 H      37.75500000      37.04700000      31.79200000
 O      36.78700000      37.14300000       9.32400000
 H      36.18200000      37.00100000      10.06300000
 H      36.85800000      36.26100000       8.91900000
 O      39.77400000      23.16000000      33.55200000
 H      40.30300000      23.84400000      33.11500000
 H      40.30900000      22.40400000      33.25900000
 O      38.41600000      17.32100000      25.16600000
 H      37.85300000      16.66200000      24.69800000
 H      38.04400000      17.14300000      26.10000000
 O      37.78700000      15.53400000      38.99700000
 H      38.22900000      16.17800000      38.44400000
 H      38.24600000      14.72900000      38.78700000
 O      34.20800000      20.86600000      14.74100000
 H      33.23200000      20.94800000      14.97900000
 H      34.50700000      21.65700000      15.27100000
 O      38.35200000      23.16100000      10.00200000
 H      39.09400000      22.66800000       9.49300000
 H      37.59600000      22.62000000       9.72400000
 O      36.65400000      32.06600000      32.19700000
 H      37.39900000      32.08000000      32.79700000
 H      36.26300000      32.92600000      32.27600000
 O      37.56600000       4.34600000      13.01100000
 H      37.19400000       4.56600000      12.15200000
 H      36.98600000       4.79500000      13.63000000
 O      35.51300000      27.13700000      34.12700000
 H      35.72100000      28.06000000      34.37500000
 H      36.31800000      26.84500000      33.69300000
 O      34.84500000      32.61600000       7.20200000
 H      34.45500000      33.13500000       8.01500000
 H      35.50700000      33.22100000       6.91800000
 O      39.15500000      25.70600000      10.83200000
 H      40.00700000      25.50600000      11.23900000
 H      38.77600000      24.85000000      10.60300000
 O      34.72200000       8.59700000      27.95700000
 H      34.68900000       8.90900000      28.94000000
 H      35.70900000       8.71800000      27.87100000
 O      38.46400000      34.94300000      37.45800000
 H      38.02400000      35.80400000      37.38000000
 H      37.82800000      34.44300000      36.83500000
 O      33.72000000      34.32100000      15.40200000
 H      34.58000000      34.78300000      15.55800000
 H      33.91300000      33.47700000      15.87500000
 O      34.39500000      34.39700000      36.21400000
 H      34.03200000      33.49600000      36.37200000
 H      35.28100000      34.15400000      35.95500000
 O      34.97200000       5.19700000      30.16300000
 H      34.68700000       4.55300000      30.84300000
 H      34.86200000       4.65300000      29.32400000
 O      36.95700000      37.33400000      37.24000000
 H      37.27300000      37.90800000      38.02600000
 H      36.07800000      37.16700000      37.45700000
 O      36.98100000      15.81800000       7.26400000
 H      36.15500000      16.02200000       6.73500000
 H      36.89800000      14.81100000       7.24400000
 O      40.41800000      38.10600000      21.75700000
 H      41.00300000      37.97100000      22.52300000
 H      40.87900000      38.88800000      21.34000000
 O      38.29400000      30.07400000      16.55100000
 H      39.08500000      29.65300000      16.08600000
 H      38.08600000      29.38800000      17.21800000
 O      36.76900000      34.72800000      14.80600000
 H      36.85600000      35.01600000      15.72600000
 H      37.32400000      33.89600000      14.79700000
 O      36.76900000      10.90000000      33.85000000
 H      37.53500000      10.93400000      34.42700000
 H      36.77500000      11.80400000      33.39400000
 O      38.69100000      20.60200000      18.89700000
 H      38.70200000      21.30600000      18.19600000
 H      39.63400000      20.27400000      18.81800000
 O      40.14800000      10.37500000      22.87600000
 H      40.63600000       9.61300000      22.47500000
 H      40.08300000      10.06700000      23.77600000
 O      34.38800000      31.62500000      29.90000000
 H      34.51500000      32.60500000      29.78200000
 H      35.32300000      31.35200000      29.76700000
 O      34.23900000      25.22300000      20.72100000
 H      35.15100000      25.50300000      20.90100000
 H      33.73800000      25.72600000      21.38600000
 O      37.65000000      36.10800000      12.61300000
 H      37.27600000      35.73400000      13.46800000
 H      36.75900000      36.26700000      12.16300000
 O      38.03700000      24.45300000      28.21300000
 H      38.17200000      23.52300000      27.83900000
 H      37.09200000      24.54000000      27.99900000
 O      35.45100000      14.15000000      39.52700000
 H      35.81500000      13.41500000      40.03200000
 H      36.24300000      14.78300000      39.47700000
 O      37.68100000      16.87700000       9.63300000
 H      37.39000000      16.59800000       8.71300000
 H      36.77200000      16.91400000       9.99800000
 O      39.11600000      20.54200000      35.68000000
 H      39.48400000      19.82300000      35.10500000
 H      38.47100000      20.84900000      35.03200000
 O      40.27700000       6.07600000      25.91200000
 H      39.69300000       5.26700000      25.83400000
 H      41.16000000       5.62200000      26.05100000
 O      36.04300000      29.70000000      34.74500000
 H      36.43900000      29.99200000      35.61100000
 H      35.14000000      30.06400000      34.95900000
 O      36.50700000      22.56300000      36.88600000
 H      35.88000000      23.07600000      36.33600000
 H      36.91200000      22.02200000      36.15700000
 O      38.00700000      23.40200000      12.50700000
 H      38.27500000      23.20900000      11.60200000
 H      38.17500000      22.57700000      12.96200000
 O      35.02100000      15.48900000      12.67000000
 H      35.12200000      15.59600000      13.58400000
 H      35.44100000      16.25500000      12.29000000
 O      40.82300000      16.38900000      23.20000000
 H      40.11900000      16.83400000      23.70000000
 H      41.27400000      15.97900000      23.92300000
 O      37.79500000      39.12900000      34.88600000
 H      37.53800000      38.58000000      35.63200000
 H      38.46700000      39.72500000      35.20500000
 O      37.92200000      14.13000000      21.62000000
 H      37.89600000      14.62000000      20.73000000
 H      37.18700000      13.57800000      21.44900000
 O      35.42700000      28.92500000      14.84800000
 H      34.64300000      29.08900000      14.26700000
 H      35.98000000      28.45100000      14.14400000
 O      34.47400000      30.36600000      12.56800000
 H      34.78900000      30.98500000      11.90500000
 H      33.61600000      30.74700000      12.84100000
 O      36.64400000      25.63200000       7.67900000
 H      36.34800000      24.81500000       7.22500000
 H      37.29300000      25.96200000       7.03500000
 O      40.66700000      26.85400000      25.38600000
 H      39.87100000      27.40500000      25.37800000
 H      40.26100000      25.92600000      25.49400000
 O      39.52600000      36.88900000       7.06800000
 H      39.78100000      36.14200000       7.64000000
 H      39.13300000      36.39800000       6.32300000
 O      37.99300000      39.07300000      32.16900000
 H      38.04000000      39.40800000      33.07500000
 H      37.13500000      39.42000000      31.84700000
 O      38.32100000      16.11100000      31.07400000
 H      37.66600000      16.81700000      31.24900000
 H      38.76900000      16.13500000      31.91600000
 O      35.27500000      30.85200000      24.89600000
 H      35.36700000      31.65000000      24.37500000
 H      35.83300000      31.09100000      25.67000000
 O      35.59100000      33.10500000      10.69200000
 H      34.76500000      33.63900000      10.67800000
 H      36.07100000      33.53900000       9.98400000
 O      35.81700000      18.77900000      24.48000000
 H      35.31200000      18.53600000      23.69000000
 H      36.52700000      18.05500000      24.45800000
 O      37.01600000      31.01300000      29.84500000
 H      38.00500000      30.97900000      29.77900000
 H      36.98500000      31.11600000      30.83400000
 O      36.08000000      29.69900000       9.08500000
 H      36.47600000      29.40200000       8.23500000
 H      36.84100000      29.66000000       9.66900000
 O      35.55400000      26.94600000      29.61800000
 H      35.08700000      27.77500000      29.32100000
 H      36.41200000      27.02300000      29.12400000
 O      38.99400000      31.78900000      35.71000000
 H      39.03500000      31.10800000      35.03100000
 H      39.50200000      31.35800000      36.41000000
 O      35.21900000       3.04800000      31.78500000
 H      35.67300000       2.83000000      30.96300000
 H      34.55400000       2.33000000      31.87900000
 O      38.34000000      26.28700000      33.34700000
 H      38.23000000      25.53400000      32.70100000
 H      38.86100000      26.93600000      32.75900000
 O      39.41800000      34.37100000      24.63700000
 H      38.88600000      33.54000000      24.48400000
 H      40.21200000      34.15600000      24.17200000
 O      34.44200000      10.97000000      13.16700000
 H      33.45000000      10.74500000      13.20300000
 H      34.42400000      11.16000000      12.18500000
 O      40.25000000      10.15700000      39.27800000
 H      40.69800000       9.29500000      38.96800000
 H      40.53000000      10.70800000      38.46600000
 O      35.26100000      40.01300000      18.64500000
 H      35.30800000      40.21200000      17.69200000
 H      36.17900000      40.10400000      18.98100000
 O      40.09000000      29.26000000      34.70500000
 H      40.77400000      29.42800000      34.05700000
 H      39.46600000      28.72100000      34.33700000
 O      38.61800000      35.16700000      34.39700000
 H      38.59400000      35.24600000      33.48000000
 H      39.46800000      35.77500000      34.53200000
 O      39.54300000      37.75300000      28.99100000
 H      39.55200000      37.27100000      28.18100000
 H      38.66300000      38.20800000      28.90100000
 O      38.63400000      27.65800000      28.89600000
 H      39.24300000      26.91200000      28.75400000
 H      38.87100000      27.79400000      29.86300000
 O      37.36400000      38.01300000      16.84900000
 H      37.56100000      38.88600000      17.17100000
 H      36.59600000      38.08500000      16.29100000
 O      40.43600000       5.64200000      37.84500000
 H      41.13500000       5.54700000      37.15400000
 H      40.95500000       6.22500000      38.44300000
 O      40.74800000      15.76600000      33.78000000
 H      41.20700000      15.40100000      32.99700000
 H      41.29300000      15.52900000      34.52000000
 O      36.42400000      15.51100000      23.99600000
 H      35.56200000      15.28100000      23.71100000
 H      36.96000000      14.91900000      23.40600000
 O      40.78800000      17.29400000      20.10400000
 H      40.44400000      17.11800000      21.01400000
 H      40.81600000      16.42500000      19.74200000
 O      34.80300000      18.33600000      39.43000000
 H      34.01600000      17.95900000      38.97500000
 H      35.48800000      18.26100000      38.74200000
 O      40.01400000      30.18400000      19.02500000
 H      40.32500000      29.52100000      18.40100000
 H      39.78700000      30.91400000      18.49000000
 O      39.04600000      19.75500000      23.88800000
 H      38.65200000      19.59800000      22.96500000
 H      38.80500000      19.00500000      24.36600000
 O      34.44100000      28.04300000      11.37500000
 H      35.32700000      28.03500000      10.86800000
 H      34.48400000      28.94200000      11.76300000
 O      34.79600000      10.02800000      38.45100000
 H      34.45800000      10.27500000      37.57600000
 H      35.75300000      10.03100000      38.19700000
 O      40.61500000      20.37800000      38.20600000
 H      39.75200000      20.47700000      38.72200000
 H      40.27900000      20.56500000      37.32700000
 O      33.61200000      30.64300000       8.87100000
 H      33.74000000      31.28500000       8.16900000
 H      34.56700000      30.41700000       9.03400000
 O      39.53400000      15.08600000       8.94400000
 H      38.77400000      15.63300000       9.20200000
 H      39.07000000      14.36000000       8.47800000
 O      35.91400000      28.69400000      39.45600000
 H      36.34000000      28.25200000      40.23500000
 H      34.97300000      28.45100000      39.59000000
 O      33.88200000      11.04700000      33.82500000
 H      34.87800000      11.10100000      33.68600000
 H      33.83600000      10.21200000      34.32100000
 O      39.04500000       1.19800000      37.20200000
 H      38.73200000       2.12400000      37.37000000
 H      39.87100000       1.46600000      36.66900000
 O      38.87800000      21.10000000      13.60900000
 H      39.51200000      21.18700000      14.32600000
 H      38.73900000      20.10800000      13.65900000
 O      35.10800000      40.45500000      38.33100000
 H      35.33500000      41.39600000      38.12100000
 H      34.31200000      40.62700000      38.87800000
 O      35.34300000       3.00800000      37.90600000
 H      36.29200000       3.32800000      37.90200000
 H      34.87100000       3.81600000      38.06400000
 O      38.96300000      18.14600000      11.76000000
 H      38.31000000      18.24100000      12.46200000
 H      38.52300000      17.55300000      11.12800000
 O      40.02600000      33.94900000      31.82500000
 H      39.32800000      34.55400000      31.49800000
 H      40.80300000      34.35500000      31.49700000
 O      34.51600000      16.50700000      36.33800000
 H      34.67600000      15.53300000      36.61500000
 H      33.79500000      16.68100000      36.98400000
 O      34.48300000       5.99400000      24.68700000
 H      33.85700000       6.70100000      24.48100000
 H      35.28500000       6.22600000      24.16400000
 O      36.04100000      30.73300000      37.63000000
 H      36.66700000      31.14400000      38.25900000
 H      36.06300000      29.82700000      38.01000000
 O      36.66100000       4.33500000       7.97400000
 H      37.02000000       4.30800000       7.09200000
 H      36.22800000       3.41700000       7.99600000
 O      38.07600000       4.22100000      25.86800000
 H      37.28800000       3.91600000      26.43300000
 H      37.99400000       3.66300000      25.07400000
 O      36.92000000      10.88200000      18.91500000
 H      36.48600000      10.46400000      18.07100000
 H      37.72900000      11.17200000      18.47500000
 O      37.92200000       4.39500000      40.65600000
 H      38.83100000       4.53700000      41.05400000
 H      37.61200000       5.31400000      40.65000000
 O      36.16600000      13.17400000      32.69000000
 H      35.22900000      13.43500000      32.89000000
 H      36.22600000      13.39700000      31.75100000
 O      40.22600000      31.13000000      29.86100000
 H      41.18000000      31.19700000      29.77100000
 H      39.96100000      31.75400000      29.16000000
 O      39.03800000      25.31100000      38.32800000
 H      38.14600000      24.89900000      38.55800000
 H      38.91100000      25.28400000      37.37600000
 O      39.20100000      16.32300000      15.66300000
 H      38.26800000      16.21500000      15.93300000
 H      39.39300000      17.22500000      15.93800000
 O      37.83900000      32.66300000      11.88700000
 H      37.70600000      31.80700000      12.30200000
 H      37.01300000      32.82400000      11.41000000
 O      34.92300000      34.37800000      32.27000000
 H      34.04300000      33.94000000      32.16400000
 H      34.78700000      34.93200000      33.02200000
 O      39.07700000       9.15100000      17.30100000
 H      39.08100000      10.14100000      17.38000000
 H      39.96100000       9.01300000      16.87100000
 O      38.20200000       8.95700000      25.02800000
 H      37.47000000       9.34900000      24.49900000
 H      37.84200000       8.07300000      25.18900000
 O      40.07500000      26.86700000       8.37900000
 H      39.77500000      26.63000000       9.25500000
 H      40.45300000      27.75300000       8.57600000
 O      35.42600000       5.45300000      14.35000000
 H      35.32600000       5.47100000      15.27800000
 H      35.38800000       6.40800000      14.15400000
 O      40.26700000      34.67400000       9.26800000
 H      40.51500000      35.42600000       9.83400000
 H      41.05100000      34.68500000       8.64000000
 O      38.75100000       6.96600000      10.37300000
 H      38.77000000       6.91200000       9.38100000
 H      37.78700000       6.84200000      10.39900000
 O      35.72700000       1.03900000      16.05600000
 H      36.24800000       1.23400000      15.29500000
 H      35.41300000       1.88500000      16.33400000
 O      36.05800000       6.25300000      39.38100000
 H      35.25800000       5.66400000      39.21400000
 H      36.08200000       6.72900000      38.51900000
 O      34.01300000      39.17900000      28.21800000
 H      33.33600000      39.60700000      28.75000000
 H      34.80300000      39.30900000      28.71300000
 O      44.95900000      35.16700000      38.09400000
 H      44.23000000      35.09900000      37.44500000
 H      44.59400000      35.96000000      38.62800000
 O      47.66200000      30.44800000      17.43500000
 H      47.53300000      29.57500000      17.98000000
 H      47.29900000      31.12800000      18.05100000
 O      43.75300000      28.17800000      20.89700000
 H      43.90600000      29.07500000      20.49000000
 H      44.34300000      27.70700000      20.22300000
 O      46.13800000       8.97000000      23.49000000
 H      45.43200000       9.62800000      23.33000000
 H      45.66100000       8.15800000      23.26200000
 O      47.04000000      38.71000000      32.57000000
 H      46.65700000      38.51500000      33.46700000
 H      47.98500000      38.55900000      32.79500000
 O      44.94400000      17.75600000      21.45000000
 H      45.06400000      18.58700000      21.01700000
 H      44.03800000      17.44100000      21.26000000
 O      45.39400000      24.67100000      39.41000000
 H      44.82800000      25.39100000      39.05700000
 H      44.84400000      23.86600000      39.25300000
 O      47.98000000      32.46400000      29.89000000
 H      47.45300000      32.73800000      30.65800000
 H      48.82900000      32.40200000      30.34200000
 O      42.22500000       1.27900000      11.10400000
 H      41.68100000       2.09000000      11.27200000
 H      42.16000000       1.31900000      10.12700000
 O      47.01900000      35.97300000      31.38400000
 H      47.61800000      36.18700000      30.65300000
 H      46.85300000      36.75600000      31.81100000
 O      42.46300000      29.05400000      37.37500000
 H      41.90800000      28.83700000      36.60100000
 H      41.81900000      28.92100000      38.10100000
 O      42.99900000      20.55600000      26.70300000
 H      43.42900000      19.88200000      26.06700000
 H      42.61900000      21.13200000      26.05700000
 O      44.31500000      29.81300000      23.60900000
 H      44.46800000      29.05800000      24.17400000
 H      43.81700000      29.40200000      22.84700000
 O      43.26100000      29.84300000      14.74800000
 H      43.18900000      30.83300000      14.71100000
 H      44.16800000      29.70300000      14.43000000
 O      48.18600000      36.68400000      24.46600000
 H      47.64800000      36.25100000      23.76500000
 H      47.95800000      37.63400000      24.35700000
 O      46.42900000      22.62700000       9.67700000
 H      45.51600000      22.96100000       9.42300000
 H      46.68200000      23.37500000      10.29800000
 O      46.30400000       7.02300000      14.89700000
 H      45.52800000       7.48700000      14.49200000
 H      46.47600000       6.45700000      14.11100000
 O      46.04500000      15.73500000      19.48900000
 H      46.56900000      16.29800000      18.90100000
 H      45.63200000      16.31500000      20.10400000
 O      43.13700000       5.05600000      14.71500000
 H      42.52900000       5.33900000      15.39000000
 H      42.83000000       4.14100000      14.56400000
 O      44.73200000      13.41300000      18.82800000
 H      45.36100000      14.13400000      19.12000000
 H      44.04100000      13.57100000      19.53100000
 O      45.81400000      35.81000000      16.03100000
 H      45.29300000      36.32500000      15.35600000
 H      45.23000000      34.98300000      16.00900000
 O      44.12500000      10.90400000      23.74400000
 H      43.95500000      11.65500000      23.21500000
 H      43.26600000      10.66700000      24.17800000
 O      45.65100000      21.08200000      32.13800000
 H      45.33700000      20.27400000      31.62200000
 H      44.91900000      21.73300000      32.11000000
 O      45.26500000       5.61400000      19.53100000
 H      45.93800000       5.57600000      18.79100000
 H      44.55000000       6.07800000      19.11300000
 O      44.53400000      30.53400000      19.85400000
 H      44.32900000      31.10700000      19.07000000
 H      45.49100000      30.72000000      19.98800000
 O      42.52300000      37.33500000      17.70600000
 H      42.92100000      38.12600000      18.12400000
 H      42.36200000      37.63400000      16.79700000
 O      45.01400000      35.53700000      19.88000000
 H      44.86800000      36.04400000      20.72200000
 H      44.99300000      36.23800000      19.19200000
 O      42.83700000      17.54700000      13.39200000
 H      43.42900000      18.18900000      13.05500000
 H      42.00900000      17.74600000      12.81100000
 O      43.23700000      15.06000000       6.94400000
 H      42.91800000      15.49800000       6.14300000
 H      42.59900000      15.25100000       7.61000000
 O      45.76500000      36.50500000      13.22500000
 H      45.30600000      37.39000000      13.33900000
 H      46.68700000      36.82100000      13.00800000
 O      46.02700000       1.93900000      11.08700000
 H      45.97100000       2.82000000      11.36500000
 H      46.28800000       1.42800000      11.90500000
 O      48.20500000      37.01500000      29.14500000
 H      49.16500000      37.15000000      29.47500000
 H      47.98700000      37.92600000      28.92400000
 O      44.84300000      33.25600000      16.36700000
 H      44.10500000      32.70800000      15.89100000
 H      44.48700000      33.32200000      17.29500000
 O      44.55500000      27.42400000      25.86300000
 H      44.49300000      26.98100000      26.73900000
 H      43.55500000      27.42500000      25.66400000
 O      46.06200000       1.81000000      18.49400000
 H      45.51000000       2.26900000      19.11200000
 H      46.89800000       1.73900000      18.95100000
 O      46.88100000      19.12900000      34.09800000
 H      46.39800000      19.71800000      33.49300000
 H      46.47900000      18.28600000      33.83100000
 O      48.60600000      24.51700000      20.64700000
 H      47.71100000      24.43700000      20.31100000
 H      48.93800000      23.63300000      20.52400000
 O      43.91000000      18.62400000      24.50300000
 H      43.89500000      17.82400000      24.95500000
 H      43.27000000      18.58600000      23.83700000
 O      46.53900000      26.36000000      13.90400000
 H      46.06500000      26.88900000      13.22700000
 H      47.11600000      27.04400000      14.28700000
 O      47.25700000      29.82100000      31.57000000
 H      47.66400000      30.66900000      31.89100000
 H      48.01900000      29.20300000      31.59400000
 O      48.69100000       8.94400000      24.48800000
 H      48.81600000       9.29900000      23.57200000
 H      47.74400000       8.85100000      24.60900000
 O      43.75300000       2.56200000      13.24100000
 H      43.77000000       1.67900000      12.84300000
 H      43.05200000       2.99600000      12.75300000
 O      47.04800000      32.06800000      19.98500000
 H      46.93900000      33.01800000      19.72200000
 H      48.01900000      31.94700000      19.72100000
 O      45.54300000       6.28300000      37.59200000
 H      44.97100000       6.84600000      38.14600000
 H      45.14600000       5.40700000      37.82800000
 O      48.00600000      27.03900000       9.74400000
 H      48.95200000      27.38000000       9.74100000
 H      47.63300000      27.75800000       9.25500000
 O      43.22100000      24.90100000       6.84700000
 H      43.69000000      25.62100000       6.41300000
 H      42.60300000      25.37100000       7.43100000
 O      43.48400000      38.93600000       7.58400000
 H      44.14300000      38.41300000       7.04100000
 H      42.73900000      38.28400000       7.60900000
 O      48.80700000      28.86300000      40.45100000
 H      48.07500000      29.50100000      40.66100000
 H      48.60200000      28.16700000      41.08600000
 O      44.57600000      40.00200000      34.08100000
 H      45.40600000      40.47500000      34.43600000
 H      44.89100000      39.07600000      34.14400000
 O      42.43400000      38.67600000      31.12300000
 H      42.10700000      38.35100000      30.22900000
 H      41.57800000      38.62900000      31.62500000
 O      47.15100000      34.80000000      18.61700000
 H      46.42600000      34.90400000      19.25700000
 H      46.66500000      34.93200000      17.77800000
 O      43.86000000       8.14000000      13.70000000
 H      43.48600000       7.27100000      13.96600000
 H      44.27800000       7.89300000      12.86900000
 O      44.74500000      11.96700000       9.35100000
 H      43.77100000      12.15800000       9.49200000
 H      44.87100000      11.31500000      10.07900000
 O      46.83800000      38.59900000      38.69500000
 H      47.40400000      38.38300000      39.50400000
 H      47.25800000      37.99800000      38.03500000
 O      44.60300000      38.83500000      13.89000000
 H      45.12300000      39.62000000      14.08900000
 H      44.45500000      38.93000000      12.92200000
 O      47.41800000      13.55000000      33.56200000
 H      48.39700000      13.41100000      33.68200000
 H      47.49600000      14.27800000      32.85400000
 O      44.44500000      31.39100000      11.54900000
 H      43.54100000      31.64200000      11.18300000
 H      44.21100000      31.82000000      12.44900000
 O      48.59100000      19.83500000      13.54700000
 H      48.43900000      20.69100000      14.09400000
 H      47.67300000      19.80600000      13.11500000
 O      45.76500000      16.40100000      37.34300000
 H      45.71700000      15.73500000      38.05300000
 H      46.49200000      16.90600000      37.62800000
 O      46.18900000       6.33600000      11.87300000
 H      46.33200000       6.79800000      11.02300000
 H      46.58400000       5.46100000      11.70200000
 O      45.09100000      19.10400000      30.50700000
 H      44.34400000      19.02600000      29.87000000
 H      45.83100000      19.31700000      29.89200000
 O      45.05400000       7.04100000      30.65800000
 H      44.72100000       7.24700000      29.75900000
 H      44.55800000       6.22400000      30.88600000
 O      47.57100000       5.16100000      32.61500000
 H      47.12700000       5.91300000      33.02900000
 H      47.66300000       5.53800000      31.72900000
 O      48.02500000      35.87600000       9.81000000
 H      48.39200000      34.98400000       9.88300000
 H      48.81200000      36.33600000       9.41000000
 O      46.86500000      12.88500000      22.56600000
 H      46.45300000      12.52500000      21.75900000
 H      46.88300000      13.81800000      22.38600000
 O      48.26300000       4.95900000      23.14000000
 H      48.11500000       5.84800000      22.68200000
 H      49.07900000       4.75200000      22.69100000
 O      43.10700000       1.26900000      31.99400000
 H      43.58500000       0.98000000      32.83600000
 H      43.10400000       0.39900000      31.59600000
 O      46.03800000      24.01400000      15.44100000
 H      45.27600000      23.63100000      14.99700000
 H      46.09200000      24.89600000      15.04600000
 O      42.83400000      32.35600000      33.33500000
 H      43.52900000      32.72900000      32.74600000
 H      42.01100000      32.75300000      32.96700000
 O      44.53300000       2.84700000      23.00400000
 H      44.85000000       3.70400000      23.35200000
 H      44.64200000       2.27300000      23.82900000
 O      43.15900000      14.68600000      31.64600000
 H      43.03600000      13.88000000      31.19000000
 H      44.02100000      15.04600000      31.25700000
 O      45.62900000      37.68200000      26.06200000
 H      46.48200000      37.32200000      26.43100000
 H      45.10400000      37.69800000      26.90800000
 O      45.79400000      13.43900000      14.27700000
 H      46.36700000      13.85100000      13.62600000
 H      44.92900000      13.63400000      13.95500000
 O      45.12900000       9.41700000      40.17000000
 H      44.98500000       9.44200000      41.15800000
 H      45.37700000      10.30700000      40.00300000
 O      42.66900000      32.36600000      14.68600000
 H      41.67400000      32.49100000      14.95500000
 H      42.69100000      33.19400000      14.13000000
 O      42.86800000      13.49400000      25.96500000
 H      43.24200000      13.24600000      26.82600000
 H      42.62500000      12.60100000      25.65900000
 O      47.85300000       9.01100000      16.54200000
 H      47.35700000       8.77800000      15.71300000
 H      47.76400000       9.96000000      16.40900000
 O      43.70100000      11.86700000      15.37100000
 H      44.31300000      11.74300000      14.60000000
 H      44.20000000      12.45800000      15.94000000
 O      43.49300000      18.58400000      36.64600000
 H      44.35200000      18.11800000      36.91500000
 H      43.19500000      18.88300000      37.50100000
 O      42.36500000      14.10600000      17.44300000
 H      42.33800000      14.71100000      16.63200000
 H      43.30300000      13.88900000      17.44200000
 O      47.20200000      19.86500000      28.94600000
 H      47.19500000      19.63500000      27.96600000
 H      46.72800000      20.73500000      28.85600000
 O      45.01400000      11.64300000      38.16800000
 H      44.42000000      11.12800000      37.55900000
 H      44.31900000      12.07400000      38.75900000
 O      47.10800000       4.43800000      35.46700000
 H      47.53800000       4.40600000      34.55900000
 H      47.19300000       5.42300000      35.61700000
 O      43.94500000      24.32800000      33.98200000
 H      43.53900000      24.42300000      33.09800000
 H      44.25100000      25.23000000      34.14200000
 O      46.51000000      19.28900000      19.18900000
 H      47.21100000      18.61700000      18.95500000
 H      47.04300000      19.88700000      19.74700000
 O      46.98600000      21.35900000      21.57800000
 H      46.42800000      21.07500000      22.37500000
 H      47.81200000      20.93300000      21.86000000
 O      47.66400000       9.99400000      12.08200000
 H      47.74900000      10.69200000      12.72500000
 H      46.70700000       9.79800000      12.05800000
 O      46.44000000      29.54000000      28.90000000
 H      46.88000000      29.74000000      29.73100000
 H      45.90900000      30.35900000      28.74200000
 O      47.04800000      13.65000000       9.87600000
 H      46.30200000      13.09600000       9.51200000
 H      47.78500000      13.00200000       9.88900000
 O      44.04500000      24.03400000       9.43100000
 H      43.72100000      23.18200000       9.02100000
 H      43.97200000      24.60200000       8.61000000
 O      43.66000000      21.86100000      35.44500000
 H      43.80600000      22.68400000      34.90200000
 H      42.72800000      21.78000000      35.50200000
 O      44.88900000      16.13000000      28.08700000
 H      45.11000000      16.10500000      29.06300000
 H      44.47700000      17.08400000      28.03900000
 O      45.84200000       1.38100000      25.16700000
 H      46.62000000       1.95800000      25.29700000
 H      45.26500000       1.71000000      25.88400000
 O      46.86300000      25.16100000      17.62000000
 H      46.74400000      24.63100000      16.78000000
 H      46.73300000      24.45300000      18.25000000
 O      46.94500000      40.43900000      13.29800000
 H      47.72100000      40.06000000      12.92500000
 H      47.20800000      40.50700000      14.20700000
 O      43.39100000      33.24100000      23.66300000
 H      43.40600000      32.52700000      22.98700000
 H      44.33600000      33.36200000      23.85400000
 O      43.11100000       1.60800000      35.87400000
 H      43.53400000       2.44800000      35.67300000
 H      43.68500000       1.06200000      35.25700000
 O      48.94900000      28.93700000      37.86100000
 H      48.63300000      28.79700000      38.75800000
 H      48.16400000      28.75300000      37.37300000
 O      43.60100000       8.43500000      18.67000000
 H      44.06000000       9.28300000      18.93300000
 H      43.48400000       8.70400000      17.69200000
 O      43.52300000       5.83100000      11.64700000
 H      43.57200000       5.81000000      10.65100000
 H      44.47000000       5.92100000      11.84000000
 O      46.86600000      12.08300000      30.57100000
 H      47.16500000      12.67700000      29.81900000
 H      47.72000000      11.80900000      30.97600000
 O      43.79600000      34.96600000       7.88200000
 H      44.42800000      35.30900000       8.56200000
 H      44.07000000      35.62200000       7.18900000
 O      43.89800000       8.69600000      28.30400000
 H      43.03700000       8.36500000      28.03500000
 H      43.55700000       9.66600000      28.41500000
 O      47.48100000      28.72000000      19.61800000
 H      48.44000000      28.43000000      19.76200000
 H      47.15700000      28.86400000      20.52700000
 O      43.69500000      24.55700000      22.87300000
 H      42.73200000      24.82400000      22.98200000
 H      43.79800000      24.79700000      21.94200000
 O      43.40000000      14.05300000      13.18300000
 H      43.35900000      14.66700000      12.41800000
 H      42.47700000      13.87100000      13.36000000
 O      45.84700000       3.68500000       9.03600000
 H      45.76600000       2.87500000       9.56100000
 H      46.85000000       3.79700000       9.08400000
 O      46.72300000       5.77600000      17.34100000
 H      46.32400000       6.26000000      16.55400000
 H      47.56800000       6.17200000      17.40000000
 O      45.76900000      14.53500000      39.61100000
 H      46.66600000      14.32100000      39.25800000
 H      46.05400000      15.24600000      40.23700000
 O      47.10100000      33.29700000      32.39900000
 H      47.05300000      34.25600000      32.20500000
 H      46.98400000      33.30100000      33.36200000
 O      44.52200000      10.69900000      19.35000000
 H      45.49600000      10.81100000      19.16800000
 H      44.28500000      11.68900000      19.40400000
 O      46.88900000      21.53100000       7.15900000
 H      47.08100000      22.04100000       8.00600000
 H      46.14800000      21.02400000       7.40500000
 O      48.63700000      25.78400000      27.00300000
 H      49.53200000      26.11000000      26.82500000
 H      48.07000000      26.58600000      26.84400000
 O      44.09900000      27.13800000      34.68800000
 H      44.80000000      27.13400000      34.06200000
 H      43.67100000      28.01100000      34.59400000
 O      43.22400000       6.27200000      35.33300000
 H      42.52600000       7.01900000      35.29100000
 H      43.98900000       6.82600000      35.11400000
 O      45.63900000       3.57700000      16.15600000
 H      45.13900000       2.81400000      16.52900000
 H      46.26800000       3.79600000      16.89000000
 O      46.85400000      13.84800000      28.42900000
 H      46.68800000      14.77400000      28.21500000
 H      46.96900000      13.44500000      27.51600000
 O      45.48700000      35.31700000      10.29900000
 H      45.59100000      35.07000000      11.22100000
 H      46.27200000      35.79100000      10.04300000
 O      42.18900000      28.34600000      16.69200000
 H      42.58100000      27.47700000      16.94100000
 H      42.73800000      28.57700000      15.93100000
 O      46.51400000       3.08500000      37.77300000
 H      46.85800000       3.57500000      36.98500000
 H      45.62100000       3.41900000      37.82600000
 O      42.30400000      14.38400000      36.94400000
 H      41.59600000      13.69200000      36.99000000
 H      42.97300000      13.91400000      36.43400000
 O      43.92500000       8.01200000       7.38400000
 H      43.16100000       8.51600000       7.70800000
 H      44.33400000       8.67000000       6.80800000
 O      46.21400000      12.00400000      35.30100000
 H      47.10200000      11.58400000      35.44600000
 H      46.49000000      12.70400000      34.63600000
 O      42.69300000      34.36900000      36.61600000
 H      41.85500000      34.72000000      37.06100000
 H      42.33100000      33.54600000      36.27000000
 O      46.40900000       8.48100000      27.36900000
 H      45.57900000       8.56700000      27.89900000
 H      46.31900000       7.55100000      27.07600000
 O      44.95000000      31.87600000       7.27300000
 H      44.26600000      32.49900000       7.61500000
 H      45.65100000      32.50900000       7.20900000
 O      46.24700000      39.13400000      24.00500000
 H      45.95300000      38.64600000      24.85200000
 H      46.18900000      40.07100000      24.46600000
 O      44.62000000      35.48400000      30.15100000
 H      44.23700000      35.27700000      31.03300000
 H      45.57000000      35.53100000      30.41700000
 O      47.89300000       2.42900000      32.81000000
 H      48.46100000       2.21700000      33.62900000
 H      47.91100000       3.41200000      32.91900000
 O      42.52900000       1.40200000      24.62800000
 H      41.82500000       0.73900000      24.66400000
 H      42.28600000       1.89700000      25.42300000
 O      43.94200000      13.43300000      28.61500000
 H      44.86500000      13.44900000      28.88400000
 H      43.79700000      14.37900000      28.45600000
 O      47.27600000      29.46000000       8.57100000
 H      47.75900000      29.95900000       7.94900000
 H      47.11500000      30.14800000       9.25500000
 O      46.98700000      11.22200000      18.45500000
 H      46.65600000      11.27900000      17.53500000
 H      47.43800000      12.08400000      18.52500000
 O      44.66700000      39.47200000      11.12000000
 H      43.95100000      40.05800000      10.83500000
 H      45.40500000      40.10500000      11.05600000
 O      46.24100000      30.19200000      34.70800000
 H      45.45100000      30.43900000      34.15500000
 H      46.38900000      31.04200000      35.11800000
 O      45.74400000      29.58400000      13.81500000
 H      46.11000000      30.46000000      14.08900000
 H      46.56100000      29.13600000      13.56500000
 O      42.78600000      39.93300000      27.42600000
 H      42.24600000      39.36400000      26.94200000
 H      43.55800000      39.38400000      27.70700000
 O      43.52800000      18.45200000      28.35100000
 H      43.19900000      19.27100000      28.00000000
 H      42.69000000      18.03100000      28.72700000
 O      46.20900000      26.70300000      23.67300000
 H      45.45200000      26.37400000      23.23600000
 H      45.99800000      26.82500000      24.61300000
 O      42.56900000      36.62200000      35.10900000
 H      42.24500000      37.22700000      35.81200000
 H      42.75400000      35.79700000      35.69400000
 O      46.00100000       3.81300000      13.52600000
 H      45.08100000       3.53300000      13.40100000
 H      46.08300000       3.74300000      14.53800000
 O      46.96900000      16.22400000      22.80000000
 H      46.88400000      16.38700000      23.78300000
 H      46.20600000      16.73600000      22.45000000
 O      42.30500000      31.67000000      21.22300000
 H      41.88100000      30.98700000      20.62700000
 H      42.81400000      32.15600000      20.51900000
 O      44.51900000       4.07900000      35.76400000
 H      45.36200000       4.28100000      35.48900000
 H      43.95400000       4.85700000      35.47700000
 O      44.49500000       2.70700000       6.67400000
 H      45.10500000       3.06700000       7.36600000
 H      44.31700000       3.51000000       6.17100000
 O      44.83500000      20.16400000      13.07500000
 H      45.44300000      20.60900000      12.46800000
 H      43.98300000      20.14400000      12.53400000
 O      44.32100000      34.18700000      12.85300000
 H      43.41100000      34.35700000      12.64300000
 H      44.60800000      35.17600000      12.95800000
 O      44.67800000      27.96500000      37.84900000
 H      44.25100000      27.18100000      37.38900000
 H      43.97100000      28.62000000      37.82800000
 O      43.79100000      39.52400000      19.07800000
 H      43.36100000      40.14400000      18.44000000
 H      43.64100000      40.01400000      19.92100000
 O      46.03200000      20.78600000      17.11600000
 H      46.33400000      21.61200000      17.48600000
 H      46.24500000      20.12600000      17.80700000
 O      48.29200000      21.58100000      32.52600000
 H      47.34200000      21.74300000      32.28200000
 H      48.33700000      22.00300000      33.38700000
 O      43.06100000       9.24700000      16.14100000
 H      43.42700000       8.82600000      15.32200000
 H      43.16100000      10.19800000      15.86400000
 O      47.14600000      24.96400000      11.35900000
 H      47.39000000      25.72900000      10.81700000
 H      47.09300000      25.37900000      12.26700000
 O      43.53700000      37.26800000      39.26100000
 H      42.67800000      37.55700000      39.66500000
 H      43.98100000      38.15000000      39.23600000
 O      43.16000000      13.26600000      39.73500000
 H      43.98800000      13.62700000      40.15000000
 H      42.98100000      14.09900000      39.16700000
 O      43.95500000      22.25700000      24.17000000
 H      44.74900000      22.39200000      24.66500000
 H      43.95500000      23.10000000      23.67500000
 O      47.55400000      15.87800000       8.64700000
 H      47.38500000      15.01300000       9.02900000
 H      46.63800000      16.22600000       8.55600000
 O      48.76600000      27.60200000      16.76300000
 H      49.03600000      27.38900000      15.80700000
 H      48.14700000      26.84900000      16.88000000
 O      42.76600000      40.86300000      40.32000000
 H      43.31000000      40.63600000      39.50400000
 H      43.48900000      41.26700000      40.82600000
 O      43.11800000      23.59500000      16.78300000
 H      43.40700000      23.82200000      15.90100000
 H      43.09100000      24.45000000      17.25500000
 O      42.38300000      37.94500000      15.02700000
 H      43.16500000      38.28500000      14.50200000
 H      41.79800000      37.65200000      14.27300000
 O      46.82500000      38.78600000       8.66200000
 H      45.87500000      38.93300000       8.87200000
 H      46.69300000      38.37300000       7.75500000
 O      45.93600000      33.58100000      24.28000000
 H      46.53600000      32.86500000      23.95600000
 H      46.61300000      34.26000000      24.47200000
 O      45.23200000      27.04500000      18.99700000
 H      45.92100000      27.77500000      19.08300000
 H      45.74400000      26.52600000      18.29400000
 O      46.90500000      28.08000000      36.39700000
 H      46.19500000      28.15200000      37.04400000
 H      46.55300000      28.67200000      35.71600000
 O      47.22900000      16.72000000      25.77900000
 H      46.55700000      16.69700000      26.45500000
 H      48.01300000      17.10100000      26.23400000
 O      43.86300000      15.67600000      15.36700000
 H      43.77500000      14.86600000      14.85800000
 H      43.87000000      16.37000000      14.66400000
 O      42.23300000       9.29700000      10.72200000
 H      41.63200000       9.83600000      11.26300000
 H      41.65700000       8.59400000      10.37600000
 O      42.32200000       8.19400000      21.18800000
 H      42.64100000       8.56200000      20.30600000
 H      41.87900000       7.37500000      20.88100000
 O      43.38700000      25.04900000      11.88600000
 H      43.70200000      24.81900000      10.97300000
 H      43.76600000      25.96500000      11.97400000
 O      43.30000000      29.76500000      33.00900000
 H      43.91700000      29.80600000      32.21500000
 H      42.96300000      30.69200000      32.88700000
 O      43.12600000      20.95100000      22.05100000
 H      43.60700000      21.24200000      21.32100000
 H      43.64500000      21.34300000      22.82200000
 O      42.17100000      18.66000000      34.20900000
 H      42.15900000      17.74300000      33.99400000
 H      42.83000000      18.70000000      34.96100000
 O      45.57200000      18.71100000      15.34100000
 H      45.78500000      19.57700000      15.81200000
 H      45.03600000      19.04300000      14.59500000
 O      46.14700000      37.48500000      34.88100000
 H      45.41000000      36.97400000      35.28600000
 H      46.86000000      37.21200000      35.58100000
 O      48.66800000       9.99000000      28.12300000
 H      48.96800000      10.57700000      27.36600000
 H      47.81300000       9.60900000      27.82700000
 O      48.05200000      36.84800000      36.82700000
 H      48.45300000      36.16800000      37.42400000
 H      48.67500000      36.70100000      36.05100000
 O      44.67300000      28.94500000       7.76600000
 H      44.79600000      29.86700000       7.49400000
 H      45.56800000      28.73300000       8.13600000
 O      48.62000000       8.64000000       6.39200000
 H      48.10500000       7.97300000       5.79400000
 H      48.87500000       7.98200000       7.08700000
 O      47.31800000       8.06300000      40.23300000
 H      47.78000000       8.56000000      40.94700000
 H      46.36900000       8.38300000      40.35600000
 O      43.03200000      10.47300000      36.81100000
 H      43.35000000       9.64500000      36.34800000
 H      42.46000000      10.87500000      36.09000000
 O      44.22700000       3.20500000      19.80200000
 H      44.30500000       3.10000000      20.78200000
 H      44.70200000       4.08300000      19.75200000
 O      45.97300000       7.25000000      34.39400000
 H      46.60900000       7.81200000      34.89300000
 H      45.25500000       7.79400000      34.22800000
 O      43.42200000      35.90300000      32.61800000
 H      43.21000000      36.17700000      33.56000000
 H      43.17300000      36.64200000      32.12900000
 O      44.41300000      40.19900000      38.37500000
 H      44.32300000      40.79600000      37.62800000
 H      45.06200000      39.56900000      38.13400000
 O      43.32900000      40.39400000      21.96800000
 H      43.14300000      41.19700000      22.53800000
 H      43.54200000      39.80700000      22.72300000
 O      48.07900000      17.58200000      38.25900000
 H      48.14400000      18.44700000      37.73600000
 H      48.77700000      17.68300000      38.85100000
 O      44.85000000      19.17300000       7.67200000
 H      44.18500000      19.09500000       8.36400000
 H      44.35800000      19.19400000       6.83800000
 O      43.61500000      21.99800000      19.13800000
 H      43.35700000      21.07000000      18.99000000
 H      43.23600000      22.44700000      18.32700000
 O      48.12100000      21.99900000      15.06100000
 H      48.86700000      22.39300000      15.64700000
 H      47.48300000      22.71000000      15.16800000
 O      42.90700000       1.39500000       8.25600000
 H      43.64700000       1.84700000       7.72000000
 H      43.22400000       0.43000000       8.11500000
 O      45.92000000      27.47700000      32.48500000
 H      46.33100000      28.28900000      32.44500000
 H      46.67100000      26.86600000      32.32500000
 O      43.49500000       4.74900000      31.43300000
 H      43.74400000       4.59400000      32.38800000
 H      42.56500000       4.91700000      31.53900000
 O      42.92600000      26.04100000      18.29200000
 H      42.33100000      26.24000000      19.06000000
 H      43.71700000      26.50400000      18.55600000
 O      42.54200000      20.59800000      15.59100000
 H      42.97300000      19.89900000      16.06000000
 H      43.01900000      21.39100000      15.66300000
 O      44.93200000      16.10500000       8.56100000
 H      44.65100000      17.01300000       8.41800000
 H      44.55200000      15.68300000       7.75300000
 O      43.87700000      13.24200000      34.97100000
 H      43.66500000      12.72000000      34.17300000
 H      44.66300000      12.75300000      35.31900000
 O      47.97100000      37.79500000      16.16300000
 H      47.50100000      38.56700000      16.46500000
 H      47.23800000      37.17900000      16.23100000
 O      42.52700000      24.92400000      31.73400000
 H      42.68800000      25.83100000      31.34800000
 H      41.60800000      24.78600000      31.38100000
 O      47.70500000      31.51700000      23.19800000
 H      47.41900000      31.81400000      22.30100000
 H      47.77400000      30.54100000      23.07300000
 O      47.25500000      19.99100000      26.29000000
 H      47.06100000      19.48500000      25.44100000
 H      46.84600000      20.81700000      26.11000000
 O      47.93000000      14.03500000      12.63300000
 H      48.50700000      14.93100000      12.67100000
 H      47.58700000      14.11700000      11.71600000
 O      48.72400000      30.57900000      27.44100000
 H      47.89100000      30.19500000      27.24900000
 H      48.45600000      31.10400000      28.26500000
 O      43.10900000      18.32000000       9.89100000
 H      42.39500000      18.66800000      10.39200000
 H      43.31100000      17.46700000      10.32400000
 O      47.18000000      24.55100000       7.41900000
 H      47.41200000      25.27200000       8.02900000
 H      47.88900000      23.94000000       7.64500000
 O      42.56700000      11.06900000      28.49300000
 H      41.82300000      11.30500000      29.12400000
 H      43.09800000      11.92400000      28.76300000
 O      48.13200000      28.36900000      12.77800000
 H      48.64500000      28.41800000      11.99300000
 H      48.81200000      28.26200000      13.44900000
 O      47.00900000      31.23400000      10.91900000
 H      46.06100000      31.55800000      11.06000000
 H      47.16200000      30.72600000      11.74400000
 O      46.12800000      21.95100000      36.74300000
 H      45.54000000      22.69600000      37.08000000
 H      45.48600000      21.59000000      36.08900000
 O      44.83100000      38.15000000      28.36900000
 H      45.50900000      38.35100000      29.03600000
 H      44.11800000      37.78400000      28.88600000
 O      47.27200000       1.20500000      22.24100000
 H      46.81700000       1.93100000      22.73600000
 H      46.82600000       0.45400000      22.71800000
 O      42.75200000      21.00200000      32.79000000
 H      42.38900000      20.53100000      32.02500000
 H      42.66200000      20.25900000      33.45500000
 O      45.34800000      16.11700000      30.68600000
 H      46.29200000      15.98000000      30.90500000
 H      45.21500000      16.98700000      31.11700000
 O      43.11700000      31.95500000      40.66100000
 H      42.55800000      31.25000000      41.05800000
 H      42.44300000      32.53600000      40.23800000
 O      43.33200000      25.49200000      37.29400000
 H      43.19700000      25.55100000      36.33200000
 H      42.38500000      25.39500000      37.57800000
 O      43.84000000      33.14800000      18.89300000
 H      44.34100000      33.97700000      19.16500000
 H      42.94800000      33.50600000      18.62500000
 O      46.92600000      33.70600000      39.07800000
 H      46.26400000      34.30500000      38.67100000
 H      46.46000000      32.83500000      39.00000000
 O      43.17300000      38.22300000      24.05800000
 H      42.39200000      38.23500000      24.58200000
 H      43.92600000      38.30700000      24.64000000
 O      44.30000000      26.52800000      28.27700000
 H      43.43700000      26.04700000      28.40200000
 H      44.89000000      25.83800000      28.61700000
 O      47.21200000      11.56500000      15.60300000
 H      46.69500000      12.15000000      15.11900000
 H      48.15800000      11.84700000      15.44900000
 O      42.21800000      25.08000000      28.79000000
 H      42.43100000      24.09300000      28.85900000
 H      41.29300000      24.96200000      28.45900000
 O      46.74800000      20.21900000      11.19800000
 H      47.08300000      19.66000000      10.46300000
 H      46.55300000      21.03200000      10.68500000
 O      43.47900000      22.59300000      38.91300000
 H      42.75600000      22.76100000      39.54300000
 H      43.10000000      21.88200000      38.31500000
 O      43.25700000      15.48600000      10.70400000
 H      43.89300000      15.58300000       9.97700000
 H      42.44300000      15.33400000      10.14100000
 O      43.07400000      36.67400000      10.41900000
 H      43.77000000      36.00800000      10.62300000
 H      43.65000000      37.46900000      10.21900000
 O      46.82600000      16.54300000      14.58100000
 H      46.11100000      15.87800000      14.78900000
 H      46.37500000      17.35800000      14.92600000
 O      45.15100000       9.64200000      10.67100000
 H      45.34800000       8.82100000      10.19600000
 H      44.14500000       9.63700000      10.55000000
 O      43.88000000      14.31000000      21.14900000
 H      43.65600000      15.17100000      21.48900000
 H      43.23500000      13.72400000      21.58200000
 O      47.62800000      33.80600000      35.08400000
 H      48.19800000      33.77800000      35.88000000
 H      46.79200000      33.43100000      35.41400000
 O      46.49900000      12.10800000      40.82700000
 H      47.30000000      12.52800000      41.24700000
 H      46.36000000      12.66600000      40.02700000
 O      46.54500000      19.45000000      23.76300000
 H      46.88000000      18.60900000      23.48400000
 H      45.57200000      19.26000000      23.89800000
 O      46.72500000      33.83700000      27.84100000
 H      47.06800000      33.16000000      28.38500000
 H      47.48700000      34.31200000      27.51200000
 O      43.61800000       5.35800000       9.12500000
 H      44.43500000       4.78500000       9.14500000
 H      43.78900000       5.71900000       8.15900000
 O      43.97300000      34.28200000      27.79200000
 H      44.98400000      34.29400000      27.59400000
 H      44.06700000      34.69600000      28.68500000
 O      44.77400000       9.60300000      34.69500000
 H      44.81500000       9.65800000      33.73500000
 H      45.29600000      10.37500000      34.99400000
 O      42.72700000       2.41000000      17.81300000
 H      42.39500000       3.27300000      17.44100000
 H      43.10900000       2.74100000      18.69100000
 O      44.26400000      27.71400000      11.89000000
 H      43.78500000      28.26500000      11.21300000
 H      44.62700000      28.42500000      12.47100000
 O      46.04900000       4.63400000      28.77500000
 H      45.54400000       4.47200000      27.97000000
 H      45.82400000       3.86300000      29.32600000
 O      47.24000000      27.95000000      26.85200000
 H      46.34400000      28.02900000      26.41100000
 H      47.08800000      28.32500000      27.78000000
 O      47.99400000       2.94300000      25.17700000
 H      48.02500000       3.36000000      24.29700000
 H      48.59900000       3.59800000      25.63900000
 O      46.52600000      32.69000000      14.19600000
 H      45.89400000      33.02100000      13.56500000
 H      46.17600000      33.14200000      14.98700000
 O      43.71600000      23.25200000      14.10300000
 H      43.83500000      22.35300000      13.76600000
 H      43.59300000      23.73700000      13.20400000
 O      44.20200000      17.56500000      17.34300000
 H      43.96000000      16.74300000      16.91100000
 H      44.81300000      17.93700000      16.66900000
 O      46.30000000      40.27400000      16.13000000
 H      45.33400000      40.30100000      16.00200000
 H      46.38800000      40.92700000      16.84800000
 O      46.32000000      21.65800000      39.98600000
 H      46.23400000      21.18400000      39.09100000
 H      46.30100000      22.56300000      39.66700000
 O      46.46100000      10.78400000      25.72500000
 H      45.85600000      10.39400000      25.03600000
 H      46.38900000      10.06700000      26.36000000
 O      47.99700000      22.78200000      35.03800000
 H      47.81200000      23.71600000      35.12000000
 H      47.38300000      22.43900000      35.72800000
 O      43.85500000       3.87700000      38.99500000
 H      43.30500000       3.85500000      39.82800000
 H      43.34100000       3.29500000      38.42800000
 O      46.81700000      40.76100000      35.39000000
 H      46.51100000      41.21500000      36.15500000
 H      47.76000000      40.53500000      35.67100000
 O      45.32800000      31.38400000      39.28600000
 H      45.79800000      30.82000000      39.90800000
 H      44.60200000      31.75100000      39.89600000
 O      48.95500000       5.41200000      28.58600000
 H      48.10400000       5.08500000      28.99400000
 H      48.90600000       6.34500000      28.88300000
 O      43.73600000      16.12100000      25.72800000
 H      44.22400000      16.20000000      26.54600000
 H      43.42000000      15.21500000      25.76600000
 O      46.17500000       0.91000000      31.14700000
 H      46.54500000       1.53600000      31.77900000
 H      46.43900000       0.05100000      31.55400000
 O      42.78600000      11.63000000      32.69000000
 H      43.42400000      11.05400000      32.26100000
 H      42.07200000      11.70200000      31.98200000
 O      47.63300000       8.01700000      36.51000000
 H      46.78300000       7.61800000      36.98300000
 H      47.46000000       8.95100000      36.86200000
 O      44.97500000       9.86000000      31.90900000
 H      45.06500000       8.97400000      31.44300000
 H      45.48600000      10.44200000      31.26900000
 O      46.36200000      22.77400000      19.10000000
 H      46.56800000      22.21500000      19.93500000
 H      45.40800000      22.75400000      19.12700000
 O      43.89000000      27.33900000      30.83100000
 H      44.37900000      27.54900000      29.98800000
 H      44.65400000      27.42300000      31.44400000
 O      45.81600000      16.57500000      34.44400000
 H      46.45400000      15.83100000      34.46400000
 H      45.19500000      16.28400000      35.17200000
 O      47.74700000      19.74500000      36.72000000
 H      47.18400000      20.57100000      36.84200000
 H      47.35900000      19.59700000      35.79900000
 O      44.68500000      31.36700000      25.85600000
 H      45.09700000      32.11700000      25.32600000
 H      44.50600000      30.74100000      25.14500000
 O      46.06300000      22.51600000      25.87700000
 H      45.60300000      22.66100000      26.71600000
 H      46.91600000      22.90900000      26.02900000
 O      47.70000000       7.40800000      30.54900000
 H      46.71300000       7.55400000      30.57200000
 H      47.98800000       8.32500000      30.57500000
 O      42.49400000      20.79500000      11.60000000
 H      42.44200000      21.08600000      10.69300000
 H      41.60200000      20.88500000      11.96100000
 O      47.89900000       6.85200000      20.99100000
 H      47.98400000       6.64400000      20.03700000
 H      47.83600000       7.82500000      20.93100000
 O      43.11200000       7.98200000      39.12600000
 H      42.89300000       7.82200000      40.08900000
 H      43.84500000       8.57200000      39.24300000
 O      45.69100000       5.01200000      24.29900000
 H      46.63700000       5.06100000      23.96600000
 H      45.29700000       5.60100000      23.59500000
 O      44.75600000       6.52800000      22.51100000
 H      44.98800000       6.49500000      21.50500000
 H      43.94300000       7.10100000      22.43900000
 O      42.83600000      19.39600000      18.49800000
 H      42.47700000      18.75200000      19.16900000
 H      43.55500000      18.84900000      18.10900000
 O      47.17200000      36.74200000      21.68500000
 H      47.38900000      36.29200000      20.89200000
 H      47.03200000      37.65100000      21.37800000
 O      45.86400000      37.62600000      18.73100000
 H      46.75500000      37.99400000      18.78500000
 H      45.28800000      38.41000000      18.62100000
 O      46.90700000       1.39800000      39.82800000
 H      47.02500000       0.64000000      39.23500000
 H      46.95800000       2.12100000      39.19500000
 O      43.02300000      29.12800000       9.77000000
 H      43.60200000      29.04900000       9.00500000
 H      43.02900000      30.07600000       9.92500000
 O      43.88300000       4.56700000      26.13400000
 H      44.12700000       3.67200000      26.41700000
 H      44.48400000       4.79800000      25.44600000
 O      47.82200000      13.46800000      38.19500000
 H      47.20200000      13.38900000      37.42000000
 H      48.51400000      13.96000000      37.75000000
 O      44.49600000       2.31600000      27.36700000
 H      44.37500000       2.44300000      28.36500000
 H      43.95300000       1.55700000      27.30300000
 O      43.86200000       1.08900000      15.84400000
 H      43.85400000       1.78100000      15.16100000
 H      43.48600000       1.61600000      16.63200000
 O      44.96300000      32.73800000      35.11300000
 H      44.25000000      32.58800000      34.44900000
 H      44.40400000      32.56600000      35.91400000
 O      47.81000000      28.88800000      22.64700000
 H      48.58100000      28.52100000      22.16600000
 H      47.42500000      28.07600000      23.03500000
 O      48.60400000      30.63200000      14.76100000
 H      47.92300000      31.33900000      14.67900000
 H      48.50700000      30.27900000      15.63100000
 O      43.64100000      31.57400000      37.09200000
 H      43.45900000      30.66200000      37.11300000
 H      44.02500000      31.73700000      37.94700000
 O      44.47900000       2.81800000      29.93700000
 H      44.01800000       3.59200000      30.40000000
 H      44.51800000       2.20700000      30.76200000
 O      47.24900000      39.58300000      28.82500000
 H      46.70100000      40.20800000      29.38200000
 H      47.64800000      40.19800000      28.16600000
 O      46.90200000      13.34200000      25.46700000
 H      47.05500000      12.36500000      25.39500000
 H      46.14700000      13.40900000      24.83300000
 O      46.43000000       7.63500000       9.43300000
 H      46.18100000       7.72400000       8.51400000
 H      47.40200000       7.70600000       9.45000000
 O      45.34200000      13.44600000       7.13800000
 H      44.61700000      14.10100000       7.03000000
 H      44.98900000      13.05000000       8.03600000
 O      46.38000000      22.44300000      28.75500000
 H      45.77000000      22.84500000      29.42000000
 H      47.16200000      23.01600000      29.02800000
 O      44.15800000      23.12500000      30.49300000
 H      43.41400000      22.72800000      29.96000000
 H      43.54600000      23.73000000      31.03500000
 O      47.37700000      10.53100000      37.55700000
 H      46.44800000      10.83100000      37.78100000
 H      47.84700000      11.14600000      38.14400000
 O      47.94200000      15.50800000      31.52200000
 H      48.57400000      15.51100000      30.80000000
 H      48.48600000      15.74000000      32.28100000
 O      47.55800000      25.20800000      31.93800000
 H      48.41900000      25.12900000      32.28600000
 H      47.64100000      24.71900000      31.10300000
 O      44.49400000      31.72400000      28.50700000
 H      44.12900000      32.62000000      28.22800000
 H      44.56800000      31.28400000      27.61200000
 O      46.56600000      25.25400000      36.52500000
 H      45.66900000      25.19300000      36.27400000
 H      46.75000000      26.18400000      36.51900000
 O      44.82700000      31.09000000      31.25000000
 H      45.68800000      30.75700000      31.40600000
 H      44.92200000      31.73800000      30.53900000
