891
XYZ file of cluster: frame_1000_c5188.24939.73069 - created by MolEdiTo
 O      40.25000000       8.73400000      34.60900000
 H      39.66700000       8.37800000      33.89200000
 H      40.17400000       9.66200000      34.46500000
 O      34.33500000      24.96000000      31.25500000
 H      34.68500000      25.55700000      30.61200000
 H      33.90800000      25.55800000      31.88300000
 O      38.43800000      36.05400000      40.45600000
 H      38.49300000      36.96200000      40.69600000
 H      37.46200000      35.89500000      40.52400000
 O      38.01200000      21.81800000      27.01200000
 H      37.25700000      21.20800000      26.80200000
 H      38.58200000      21.77200000      26.23800000
 O      37.45900000      19.68100000      21.20800000
 H      36.76300000      18.99600000      20.97100000
 H      37.69500000      19.94800000      20.31800000
 O      33.69600000      31.40300000      32.46300000
 H      34.59300000      31.10500000      32.62700000
 H      33.65900000      31.38700000      31.47300000
 O      40.20200000      32.30900000      27.40600000
 H      40.77800000      31.81400000      26.75000000
 H      40.41100000      33.22600000      27.21300000
 O      38.97000000      25.11600000      35.68300000
 H      39.42500000      24.43700000      35.15400000
 H      38.61800000      25.63600000      34.92300000
 O      38.28400000      13.78500000      34.24400000
 H      38.88500000      14.55300000      33.98300000
 H      37.57700000      13.81500000      33.59300000
 O      37.33700000       9.72800000      21.27900000
 H      37.28600000      10.14600000      20.40500000
 H      38.14200000      10.09600000      21.69000000
 O      35.45100000      37.84700000      30.91000000
 H      35.46500000      37.98900000      31.88500000
 H      34.57900000      37.37000000      30.84700000
 O      40.33900000      26.88100000      40.52900000
 H      40.11600000      26.20300000      39.86500000
 H      40.74100000      27.53900000      39.92200000
 O      40.09900000      21.93400000      25.12700000
 H      40.93700000      22.04100000      24.67000000
 H      39.77300000      21.19900000      24.51400000
 O      36.51500000      14.12300000      27.67800000
 H      36.74100000      13.26800000      27.16300000
 H      35.54500000      14.17300000      27.44100000
 O      34.42900000       9.20300000      35.87000000
 H      35.31000000       8.82000000      36.01000000
 H      33.91600000       8.33200000      36.14100000
 O      34.20100000      21.61700000      22.72500000
 H      33.68400000      22.39600000      22.31600000
 H      34.98900000      21.73300000      22.20800000
 O      37.02300000      23.93700000      39.19400000
 H      36.88900000      23.53900000      38.25800000
 H      36.13400000      24.28800000      39.34600000
 O      39.41100000      17.33500000      28.68800000
 H      39.21900000      16.78000000      29.47000000
 H      38.70300000      16.89000000      28.11300000
 O      34.08100000      21.34000000      32.07400000
 H      34.43400000      21.17400000      31.15600000
 H      34.43500000      22.23300000      32.24600000
 O      38.40100000      32.16600000      23.50400000
 H      38.62900000      31.36100000      24.06400000
 H      39.06600000      32.06200000      22.81300000
 O      35.27000000      38.72300000      33.47400000
 H      36.14700000      38.78700000      33.80200000
 H      34.73000000      38.97500000      34.25100000
 O      39.59400000       7.41800000      28.10800000
 H      39.74100000       6.82500000      27.25400000
 H      38.89700000       6.90700000      28.50200000
 O      40.00800000      11.50300000      34.87100000
 H      40.61100000      11.48300000      34.10600000
 H      39.53600000      12.39600000      34.66100000
 O      40.25900000      38.62000000      37.24100000
 H      40.43300000      39.61600000      37.23700000
 H      39.39600000      38.54100000      37.63700000
 O      40.10900000      35.51000000      27.10400000
 H      40.88800000      35.19300000      27.47300000
 H      40.21200000      35.39100000      26.13500000
 O      37.08600000      38.62100000      28.82000000
 H      36.66100000      38.03300000      28.17600000
 H      36.50600000      38.38300000      29.60700000
 O      35.83300000      22.59800000      30.35700000
 H      35.41300000      23.48300000      30.33800000
 H      35.24100000      22.01300000      29.85400000
 O      39.22200000      11.80500000      30.71100000
 H      38.76000000      10.93400000      30.86100000
 H      38.43100000      12.37700000      30.65300000
 O      38.38600000      28.97400000      26.59000000
 H      38.30800000      29.89300000      26.77800000
 H      38.71200000      28.63900000      27.43900000
 O      34.37600000      14.01200000      37.02000000
 H      33.88200000      13.14300000      37.01800000
 H      34.70100000      14.06400000      37.91400000
 O      36.94600000      31.44900000      27.01700000
 H      36.69100000      31.27700000      27.96100000
 H      37.50000000      32.21400000      27.16700000
 O      35.09400000      34.23900000      29.46400000
 H      35.48600000      34.30300000      30.41000000
 H      35.92300000      34.47500000      28.99300000
 O      39.66800000      17.10500000      37.24400000
 H      40.13100000      17.93400000      37.01300000
 H      40.22100000      16.43600000      36.88100000
 O      39.43100000      38.23100000      25.91300000
 H      38.89800000      37.44300000      25.69300000
 H      38.78300000      38.96500000      25.59700000
 O      37.50800000       9.88600000      31.34300000
 H      36.95200000      10.20000000      32.06500000
 H      37.74600000       9.03800000      31.72000000
 O      36.01800000      39.39300000      23.08400000
 H      35.17800000      39.29100000      22.64600000
 H      36.47000000      40.01400000      22.46100000
 O      40.74100000      13.10200000      22.80800000
 H      39.94300000      13.67700000      22.67400000
 H      40.30000000      12.28500000      23.11800000
 O      38.24400000      40.26600000      21.57000000
 H      38.78300000      39.48000000      21.71000000
 H      38.19900000      40.23900000      20.56900000
 O      36.38000000      19.71000000      33.38400000
 H      35.49600000      19.35200000      33.64800000
 H      36.32100000      20.63100000      33.75700000
 O      37.34700000      19.79700000      29.26300000
 H      37.97800000      19.11800000      28.88900000
 H      36.80600000      19.97300000      28.50000000
 O      34.31600000      37.72300000      24.81900000
 H      34.72900000      38.41200000      24.31000000
 H      33.93500000      37.08900000      24.21500000
 O      37.40700000      10.51600000      37.77100000
 H      38.02400000      10.69100000      38.47300000
 H      37.50400000       9.57400000      37.60000000
 O      35.18300000      12.57200000      24.68500000
 H      35.01500000      12.03500000      25.49100000
 H      34.51200000      13.25900000      24.74500000
 O      36.83800000      33.58200000      35.40000000
 H      37.41500000      32.79500000      35.58500000
 H      37.50400000      34.12200000      34.92200000
 O      34.19000000      17.47100000      29.96300000
 H      35.04600000      17.24200000      30.42000000
 H      34.31300000      17.07000000      29.07800000
 O      35.48600000      28.26000000      26.87500000
 H      36.38400000      28.60200000      26.73500000
 H      35.69700000      27.33900000      27.12700000
 O      37.61800000      36.47900000      24.57700000
 H      38.25000000      35.73200000      24.33400000
 H      36.96700000      36.33600000      23.88800000
 O      36.30900000      18.41600000      37.07000000
 H      35.72500000      17.69300000      36.88300000
 H      37.11300000      18.08100000      36.65000000
 O      37.07700000      16.73000000      27.40800000
 H      36.87200000      15.75300000      27.56400000
 H      36.21500000      17.08200000      27.24100000
 O      34.78800000      25.20400000      39.58600000
 H      34.75800000      26.03700000      40.16200000
 H      33.82000000      25.14500000      39.46000000
 O      36.51000000      26.95100000      20.82400000
 H      36.49200000      27.67400000      21.48900000
 H      36.55300000      27.44800000      19.97500000
 O      35.86000000      36.15600000      40.56600000
 H      35.26100000      35.35800000      40.39900000
 H      35.20700000      36.84000000      40.37600000
 O      37.29500000       7.16800000      36.78000000
 H      36.90200000       6.67100000      35.99000000
 H      38.21000000       6.85700000      36.75000000
 O      37.53500000      20.66000000      39.15800000
 H      36.70200000      21.11200000      39.06400000
 H      37.54300000      20.12200000      38.37300000
 O      36.55600000      17.99100000      31.22800000
 H      36.93600000      18.64600000      30.65900000
 H      36.42500000      18.57700000      32.03200000
 O      37.17400000      11.31900000      26.33600000
 H      37.75700000      10.77500000      26.86200000
 H      36.83900000      10.65600000      25.73200000
 O      37.55300000      39.45800000      38.65100000
 H      38.00600000      40.28100000      38.36700000
 H      36.61800000      39.73300000      38.34600000
 O      35.36500000      28.71400000      22.78800000
 H      35.28000000      29.38400000      23.51700000
 H      35.45800000      29.21000000      21.99600000
 O      37.63700000      31.68900000      39.72500000
 H      38.06600000      32.35100000      40.29700000
 H      38.19100000      30.87200000      39.99500000
 O      40.73800000      22.26300000      29.04900000
 H      40.05000000      21.87600000      29.64900000
 H      40.73800000      21.57100000      28.32700000
 O      37.44500000      39.81400000      25.46100000
 H      36.91900000      39.68900000      24.65000000
 H      36.85100000      40.45200000      25.95800000
 O      37.35500000       9.41500000      28.61800000
 H      37.33500000       9.57600000      29.52000000
 H      38.24800000       8.98200000      28.46400000
 O      40.66500000      10.54600000      25.70800000
 H      40.58800000      10.68100000      26.73600000
 H      39.79800000      10.09900000      25.59500000
 O      38.31900000      13.21100000      37.23100000
 H      37.91000000      12.29600000      37.07900000
 H      38.02600000      13.66700000      36.45100000
 O      40.09500000      27.07600000      20.34100000
 H      40.78200000      27.72500000      20.53000000
 H      40.14300000      26.45700000      21.07200000
 O      37.98800000      24.50200000      31.29100000
 H      37.81000000      24.58100000      30.33600000
 H      37.60700000      23.57400000      31.44200000
 O      33.63000000      31.92300000      37.18600000
 H      33.62400000      31.45700000      36.32400000
 H      34.42900000      31.55800000      37.57200000
 O      34.81600000      31.83500000      40.52500000
 H      34.50600000      32.70900000      40.49800000
 H      35.74000000      31.92800000      40.17700000
 O      34.16400000      39.21900000      36.01300000
 H      34.05700000      38.27600000      36.39500000
 H      34.51000000      39.66500000      36.80900000
 O      36.02700000      10.13200000      23.87100000
 H      35.83800000      11.09800000      23.92500000
 H      36.36800000      10.13500000      22.92100000
 O      39.36300000      24.69500000      22.98200000
 H      39.04000000      24.60600000      23.96900000
 H      39.19300000      23.77500000      22.66700000
 O      38.23800000      21.26900000      31.14000000
 H      37.46800000      21.38300000      31.70000000
 H      37.78300000      20.69200000      30.41000000
 O      36.55800000      22.38300000      20.78500000
 H      37.29700000      21.90600000      21.21500000
 H      36.99700000      23.12200000      20.38000000
 O      36.78400000      22.46600000      34.03100000
 H      36.36800000      23.23800000      34.43300000
 H      37.61900000      22.81100000      33.65100000
 O      40.11900000      28.03300000      31.45900000
 H      40.18600000      28.99200000      31.50300000
 H      41.01200000      27.75800000      31.44600000
 O      35.82700000      33.20900000      23.69900000
 H      36.14500000      34.08800000      23.42700000
 H      36.67200000      32.68300000      23.52000000
 O      34.54700000      23.42400000      25.34500000
 H      34.31000000      22.88500000      24.59500000
 H      33.89900000      23.15400000      25.99600000
 O      39.18000000      22.18900000      21.38600000
 H      39.88400000      21.50000000      21.69300000
 H      39.38200000      22.16100000      20.43500000
 O      35.44800000      24.54200000      35.17300000
 H      35.51400000      25.46700000      34.94600000
 H      34.58600000      24.48700000      35.58300000
 O      38.57200000      29.04900000      38.99100000
 H      37.60800000      28.99600000      38.69000000
 H      38.56800000      28.52900000      39.77800000
 O      38.83600000      24.44800000      25.49900000
 H      38.10900000      24.42100000      26.07000000
 H      39.03000000      23.44900000      25.44500000
 O      35.92100000      25.20800000      26.91900000
 H      35.52800000      24.65300000      26.21100000
 H      35.05700000      25.48000000      27.36100000
 O      34.69000000      32.64600000      20.32200000
 H      35.59600000      33.07800000      20.37900000
 H      34.23200000      33.22500000      20.97700000
 O      37.36200000      13.82900000      30.23900000
 H      37.88600000      14.65800000      30.42000000
 H      37.09100000      13.85700000      29.34900000
 O      36.22000000      35.71900000      22.33700000
 H      36.95200000      36.07300000      21.71300000
 H      35.47200000      36.18000000      22.01900000
 O      38.19900000      36.21500000      20.34700000
 H      38.79200000      36.55400000      21.08700000
 H      38.38800000      36.76800000      19.62600000
 O      38.11000000       7.38500000      32.86200000
 H      38.51300000       6.51700000      32.59000000
 H      37.47400000       7.13400000      33.55100000
 O      35.76900000      20.41300000      26.73600000
 H      34.82000000      20.57900000      26.84900000
 H      35.78700000      19.87900000      25.90800000
 O      36.17600000      36.98600000      26.89500000
 H      36.59300000      36.79500000      26.03000000
 H      35.23000000      37.12700000      26.56400000
 O      39.55100000      33.82800000      39.91300000
 H      39.20900000      34.69900000      40.23100000
 H      39.33500000      33.96400000      38.95500000
 O      37.34100000      35.01800000      28.09400000
 H      36.90600000      35.63900000      27.44800000
 H      38.31100000      35.21900000      27.95400000
 O      37.70400000      36.12700000      31.45900000
 H      36.86100000      36.07500000      31.00800000
 H      37.75500000      37.04700000      31.79200000
 O      39.77400000      23.16000000      33.55200000
 H      40.30300000      23.84400000      33.11500000
 H      40.30900000      22.40400000      33.25900000
 O      38.41600000      17.32100000      25.16600000
 H      37.85300000      16.66200000      24.69800000
 H      38.04400000      17.14300000      26.10000000
 O      37.78700000      15.53400000      38.99700000
 H      38.22900000      16.17800000      38.44400000
 H      38.24600000      14.72900000      38.78700000
 O      36.65400000      32.06600000      32.19700000
 H      37.39900000      32.08000000      32.79700000
 H      36.26300000      32.92600000      32.27600000
 O      35.51300000      27.13700000      34.12700000
 H      35.72100000      28.06000000      34.37500000
 H      36.31800000      26.84500000      33.69300000
 O      40.41800000      38.10600000      21.75700000
 H      41.00300000      37.97100000      22.52300000
 H      40.87900000      38.88800000      21.34000000
 O      34.72200000       8.59700000      27.95700000
 H      34.68900000       8.90900000      28.94000000
 H      35.70900000       8.71800000      27.87100000
 O      38.46400000      34.94300000      37.45800000
 H      38.02400000      35.80400000      37.38000000
 H      37.82800000      34.44300000      36.83500000
 O      34.39500000      34.39700000      36.21400000
 H      34.03200000      33.49600000      36.37200000
 H      35.28100000      34.15400000      35.95500000
 O      36.95700000      37.33400000      37.24000000
 H      37.27300000      37.90800000      38.02600000
 H      36.07800000      37.16700000      37.45700000
 O      36.76900000      10.90000000      33.85000000
 H      37.53500000      10.93400000      34.42700000
 H      36.77500000      11.80400000      33.39400000
 O      40.14800000      10.37500000      22.87600000
 H      40.63600000       9.61300000      22.47500000
 H      40.08300000      10.06700000      23.77600000
 O      34.23900000      25.22300000      20.72100000
 H      35.15100000      25.50300000      20.90100000
 H      33.73800000      25.72600000      21.38600000
 O      34.38800000      31.62500000      29.90000000
 H      34.51500000      32.60500000      29.78200000
 H      35.32300000      31.35200000      29.76700000
 O      38.03700000      24.45300000      28.21300000
 H      38.17200000      23.52300000      27.83900000
 H      37.09200000      24.54000000      27.99900000
 O      35.45100000      14.15000000      39.52700000
 H      35.81500000      13.41500000      40.03200000
 H      36.24300000      14.78300000      39.47700000
 O      39.11600000      20.54200000      35.68000000
 H      39.48400000      19.82300000      35.10500000
 H      38.47100000      20.84900000      35.03200000
 O      36.04300000      29.70000000      34.74500000
 H      36.43900000      29.99200000      35.61100000
 H      35.14000000      30.06400000      34.95900000
 O      36.50700000      22.56300000      36.88600000
 H      35.88000000      23.07600000      36.33600000
 H      36.91200000      22.02200000      36.15700000
 O      37.79500000      39.12900000      34.88600000
 H      37.53800000      38.58000000      35.63200000
 H      38.46700000      39.72500000      35.20500000
 O      40.82300000      16.38900000      23.20000000
 H      40.11900000      16.83400000      23.70000000
 H      41.27400000      15.97900000      23.92300000
 O      37.92200000      14.13000000      21.62000000
 H      37.89600000      14.62000000      20.73000000
 H      37.18700000      13.57800000      21.44900000
 O      40.66700000      26.85400000      25.38600000
 H      39.87100000      27.40500000      25.37800000
 H      40.26100000      25.92600000      25.49400000
 O      37.99300000      39.07300000      32.16900000
 H      38.04000000      39.40800000      33.07500000
 H      37.13500000      39.42000000      31.84700000
 O      38.32100000      16.11100000      31.07400000
 H      37.66600000      16.81700000      31.24900000
 H      38.76900000      16.13500000      31.91600000
 O      35.27500000      30.85200000      24.89600000
 H      35.36700000      31.65000000      24.37500000
 H      35.83300000      31.09100000      25.67000000
 O      35.81700000      18.77900000      24.48000000
 H      35.31200000      18.53600000      23.69000000
 H      36.52700000      18.05500000      24.45800000
 O      37.01600000      31.01300000      29.84500000
 H      38.00500000      30.97900000      29.77900000
 H      36.98500000      31.11600000      30.83400000
 O      35.55400000      26.94600000      29.61800000
 H      35.08700000      27.77500000      29.32100000
 H      36.41200000      27.02300000      29.12400000
 O      38.99400000      31.78900000      35.71000000
 H      39.03500000      31.10800000      35.03100000
 H      39.50200000      31.35800000      36.41000000
 O      38.34000000      26.28700000      33.34700000
 H      38.23000000      25.53400000      32.70100000
 H      38.86100000      26.93600000      32.75900000
 O      39.41800000      34.37100000      24.63700000
 H      38.88600000      33.54000000      24.48400000
 H      40.21200000      34.15600000      24.17200000
 O      40.25000000      10.15700000      39.27800000
 H      40.69800000       9.29500000      38.96800000
 H      40.53000000      10.70800000      38.46600000
 O      40.09000000      29.26000000      34.70500000
 H      40.77400000      29.42800000      34.05700000
 H      39.46600000      28.72100000      34.33700000
 O      38.61800000      35.16700000      34.39700000
 H      38.59400000      35.24600000      33.48000000
 H      39.46800000      35.77500000      34.53200000
 O      39.54300000      37.75300000      28.99100000
 H      39.55200000      37.27100000      28.18100000
 H      38.66300000      38.20800000      28.90100000
 O      38.63400000      27.65800000      28.89600000
 H      39.24300000      26.91200000      28.75400000
 H      38.87100000      27.79400000      29.86300000
 O      40.74800000      15.76600000      33.78000000
 H      41.20700000      15.40100000      32.99700000
 H      41.29300000      15.52900000      34.52000000
 O      36.42400000      15.51100000      23.99600000
 H      35.56200000      15.28100000      23.71100000
 H      36.96000000      14.91900000      23.40600000
 O      40.78800000      17.29400000      20.10400000
 H      40.44400000      17.11800000      21.01400000
 H      40.81600000      16.42500000      19.74200000
 O      34.80300000      18.33600000      39.43000000
 H      34.01600000      17.95900000      38.97500000
 H      35.48800000      18.26100000      38.74200000
 O      39.04600000      19.75500000      23.88800000
 H      38.65200000      19.59800000      22.96500000
 H      38.80500000      19.00500000      24.36600000
 O      40.61500000      20.37800000      38.20600000
 H      39.75200000      20.47700000      38.72200000
 H      40.27900000      20.56500000      37.32700000
 O      34.79600000      10.02800000      38.45100000
 H      34.45800000      10.27500000      37.57600000
 H      35.75300000      10.03100000      38.19700000
 O      33.88200000      11.04700000      33.82500000
 H      34.87800000      11.10100000      33.68600000
 H      33.83600000      10.21200000      34.32100000
 O      35.91400000      28.69400000      39.45600000
 H      36.34000000      28.25200000      40.23500000
 H      34.97300000      28.45100000      39.59000000
 O      35.10800000      40.45500000      38.33100000
 H      35.33500000      41.39600000      38.12100000
 H      34.31200000      40.62700000      38.87800000
 O      40.02600000      33.94900000      31.82500000
 H      39.32800000      34.55400000      31.49800000
 H      40.80300000      34.35500000      31.49700000
 O      34.51600000      16.50700000      36.33800000
 H      34.67600000      15.53300000      36.61500000
 H      33.79500000      16.68100000      36.98400000
 O      36.04100000      30.73300000      37.63000000
 H      36.66700000      31.14400000      38.25900000
 H      36.06300000      29.82700000      38.01000000
 O      36.16600000      13.17400000      32.69000000
 H      35.22900000      13.43500000      32.89000000
 H      36.22600000      13.39700000      31.75100000
 O      40.22600000      31.13000000      29.86100000
 H      41.18000000      31.19700000      29.77100000
 H      39.96100000      31.75400000      29.16000000
 O      39.03800000      25.31100000      38.32800000
 H      38.14600000      24.89900000      38.55800000
 H      38.91100000      25.28400000      37.37600000
 O      34.92300000      34.37800000      32.27000000
 H      34.04300000      33.94000000      32.16400000
 H      34.78700000      34.93200000      33.02200000
 O      38.20200000       8.95700000      25.02800000
 H      37.47000000       9.34900000      24.49900000
 H      37.84200000       8.07300000      25.18900000
 O      34.01300000      39.17900000      28.21800000
 H      33.33600000      39.60700000      28.75000000
 H      34.80300000      39.30900000      28.71300000
 O      44.95900000      35.16700000      38.09400000
 H      44.23000000      35.09900000      37.44500000
 H      44.59400000      35.96000000      38.62800000
 O      43.75300000      28.17800000      20.89700000
 H      43.90600000      29.07500000      20.49000000
 H      44.34300000      27.70700000      20.22300000
 O      46.13800000       8.97000000      23.49000000
 H      45.43200000       9.62800000      23.33000000
 H      45.66100000       8.15800000      23.26200000
 O      47.04000000      38.71000000      32.57000000
 H      46.65700000      38.51500000      33.46700000
 H      47.98500000      38.55900000      32.79500000
 O      44.94400000      17.75600000      21.45000000
 H      45.06400000      18.58700000      21.01700000
 H      44.03800000      17.44100000      21.26000000
 O      45.39400000      24.67100000      39.41000000
 H      44.82800000      25.39100000      39.05700000
 H      44.84400000      23.86600000      39.25300000
 O      47.98000000      32.46400000      29.89000000
 H      47.45300000      32.73800000      30.65800000
 H      48.82900000      32.40200000      30.34200000
 O      47.01900000      35.97300000      31.38400000
 H      47.61800000      36.18700000      30.65300000
 H      46.85300000      36.75600000      31.81100000
 O      42.46300000      29.05400000      37.37500000
 H      41.90800000      28.83700000      36.60100000
 H      41.81900000      28.92100000      38.10100000
 O      42.99900000      20.55600000      26.70300000
 H      43.42900000      19.88200000      26.06700000
 H      42.61900000      21.13200000      26.05700000
 O      44.31500000      29.81300000      23.60900000
 H      44.46800000      29.05800000      24.17400000
 H      43.81700000      29.40200000      22.84700000
 O      48.18600000      36.68400000      24.46600000
 H      47.64800000      36.25100000      23.76500000
 H      47.95800000      37.63400000      24.35700000
 O      44.12500000      10.90400000      23.74400000
 H      43.95500000      11.65500000      23.21500000
 H      43.26600000      10.66700000      24.17800000
 O      45.65100000      21.08200000      32.13800000
 H      45.33700000      20.27400000      31.62200000
 H      44.91900000      21.73300000      32.11000000
 O      48.20500000      37.01500000      29.14500000
 H      49.16500000      37.15000000      29.47500000
 H      47.98700000      37.92600000      28.92400000
 O      44.55500000      27.42400000      25.86300000
 H      44.49300000      26.98100000      26.73900000
 H      43.55500000      27.42500000      25.66400000
 O      46.88100000      19.12900000      34.09800000
 H      46.39800000      19.71800000      33.49300000
 H      46.47900000      18.28600000      33.83100000
 O      43.91000000      18.62400000      24.50300000
 H      43.89500000      17.82400000      24.95500000
 H      43.27000000      18.58600000      23.83700000
 O      47.25700000      29.82100000      31.57000000
 H      47.66400000      30.66900000      31.89100000
 H      48.01900000      29.20300000      31.59400000
 O      48.69100000       8.94400000      24.48800000
 H      48.81600000       9.29900000      23.57200000
 H      47.74400000       8.85100000      24.60900000
 O      48.80700000      28.86300000      40.45100000
 H      48.07500000      29.50100000      40.66100000
 H      48.60200000      28.16700000      41.08600000
 O      44.57600000      40.00200000      34.08100000
 H      45.40600000      40.47500000      34.43600000
 H      44.89100000      39.07600000      34.14400000
 O      42.43400000      38.67600000      31.12300000
 H      42.10700000      38.35100000      30.22900000
 H      41.57800000      38.62900000      31.62500000
 O      46.83800000      38.59900000      38.69500000
 H      47.40400000      38.38300000      39.50400000
 H      47.25800000      37.99800000      38.03500000
 O      47.41800000      13.55000000      33.56200000
 H      48.39700000      13.41100000      33.68200000
 H      47.49600000      14.27800000      32.85400000
 O      45.76500000      16.40100000      37.34300000
 H      45.71700000      15.73500000      38.05300000
 H      46.49200000      16.90600000      37.62800000
 O      45.09100000      19.10400000      30.50700000
 H      44.34400000      19.02600000      29.87000000
 H      45.83100000      19.31700000      29.89200000
 O      45.05400000       7.04100000      30.65800000
 H      44.72100000       7.24700000      29.75900000
 H      44.55800000       6.22400000      30.88600000
 O      46.86500000      12.88500000      22.56600000
 H      46.45300000      12.52500000      21.75900000
 H      46.88300000      13.81800000      22.38600000
 O      42.83400000      32.35600000      33.33500000
 H      43.52900000      32.72900000      32.74600000
 H      42.01100000      32.75300000      32.96700000
 O      43.15900000      14.68600000      31.64600000
 H      43.03600000      13.88000000      31.19000000
 H      44.02100000      15.04600000      31.25700000
 O      45.62900000      37.68200000      26.06200000
 H      46.48200000      37.32200000      26.43100000
 H      45.10400000      37.69800000      26.90800000
 O      45.12900000       9.41700000      40.17000000
 H      44.98500000       9.44200000      41.15800000
 H      45.37700000      10.30700000      40.00300000
 O      42.86800000      13.49400000      25.96500000
 H      43.24200000      13.24600000      26.82600000
 H      42.62500000      12.60100000      25.65900000
 O      43.49300000      18.58400000      36.64600000
 H      44.35200000      18.11800000      36.91500000
 H      43.19500000      18.88300000      37.50100000
 O      47.20200000      19.86500000      28.94600000
 H      47.19500000      19.63500000      27.96600000
 H      46.72800000      20.73500000      28.85600000
 O      45.01400000      11.64300000      38.16800000
 H      44.42000000      11.12800000      37.55900000
 H      44.31900000      12.07400000      38.75900000
 O      43.94500000      24.32800000      33.98200000
 H      43.53900000      24.42300000      33.09800000
 H      44.25100000      25.23000000      34.14200000
 O      46.98600000      21.35900000      21.57800000
 H      46.42800000      21.07500000      22.37500000
 H      47.81200000      20.93300000      21.86000000
 O      46.44000000      29.54000000      28.90000000
 H      46.88000000      29.74000000      29.73100000
 H      45.90900000      30.35900000      28.74200000
 O      43.66000000      21.86100000      35.44500000
 H      43.80600000      22.68400000      34.90200000
 H      42.72800000      21.78000000      35.50200000
 O      44.88900000      16.13000000      28.08700000
 H      45.11000000      16.10500000      29.06300000
 H      44.47700000      17.08400000      28.03900000
 O      43.39100000      33.24100000      23.66300000
 H      43.40600000      32.52700000      22.98700000
 H      44.33600000      33.36200000      23.85400000
 O      48.94900000      28.93700000      37.86100000
 H      48.63300000      28.79700000      38.75800000
 H      48.16400000      28.75300000      37.37300000
 O      46.86600000      12.08300000      30.57100000
 H      47.16500000      12.67700000      29.81900000
 H      47.72000000      11.80900000      30.97600000
 O      43.89800000       8.69600000      28.30400000
 H      43.03700000       8.36500000      28.03500000
 H      43.55700000       9.66600000      28.41500000
 O      43.69500000      24.55700000      22.87300000
 H      42.73200000      24.82400000      22.98200000
 H      43.79800000      24.79700000      21.94200000
 O      45.76900000      14.53500000      39.61100000
 H      46.66600000      14.32100000      39.25800000
 H      46.05400000      15.24600000      40.23700000
 O      47.10100000      33.29700000      32.39900000
 H      47.05300000      34.25600000      32.20500000
 H      46.98400000      33.30100000      33.36200000
 O      46.85400000      13.84800000      28.42900000
 H      46.68800000      14.77400000      28.21500000
 H      46.96900000      13.44500000      27.51600000
 O      48.63700000      25.78400000      27.00300000
 H      49.53200000      26.11000000      26.82500000
 H      48.07000000      26.58600000      26.84400000
 O      44.09900000      27.13800000      34.68800000
 H      44.80000000      27.13400000      34.06200000
 H      43.67100000      28.01100000      34.59400000
 O      43.22400000       6.27200000      35.33300000
 H      42.52600000       7.01900000      35.29100000
 H      43.98900000       6.82600000      35.11400000
 O      42.30400000      14.38400000      36.94400000
 H      41.59600000      13.69200000      36.99000000
 H      42.97300000      13.91400000      36.43400000
 O      46.21400000      12.00400000      35.30100000
 H      47.10200000      11.58400000      35.44600000
 H      46.49000000      12.70400000      34.63600000
 O      42.69300000      34.36900000      36.61600000
 H      41.85500000      34.72000000      37.06100000
 H      42.33100000      33.54600000      36.27000000
 O      46.40900000       8.48100000      27.36900000
 H      45.57900000       8.56700000      27.89900000
 H      46.31900000       7.55100000      27.07600000
 O      46.24700000      39.13400000      24.00500000
 H      45.95300000      38.64600000      24.85200000
 H      46.18900000      40.07100000      24.46600000
 O      44.62000000      35.48400000      30.15100000
 H      44.23700000      35.27700000      31.03300000
 H      45.57000000      35.53100000      30.41700000
 O      43.94200000      13.43300000      28.61500000
 H      44.86500000      13.44900000      28.88400000
 H      43.79700000      14.37900000      28.45600000
 O      46.24100000      30.19200000      34.70800000
 H      45.45100000      30.43900000      34.15500000
 H      46.38900000      31.04200000      35.11800000
 O      42.78600000      39.93300000      27.42600000
 H      42.24600000      39.36400000      26.94200000
 H      43.55800000      39.38400000      27.70700000
 O      43.52800000      18.45200000      28.35100000
 H      43.19900000      19.27100000      28.00000000
 H      42.69000000      18.03100000      28.72700000
 O      46.20900000      26.70300000      23.67300000
 H      45.45200000      26.37400000      23.23600000
 H      45.99800000      26.82500000      24.61300000
 O      42.56900000      36.62200000      35.10900000
 H      42.24500000      37.22700000      35.81200000
 H      42.75400000      35.79700000      35.69400000
 O      42.30500000      31.67000000      21.22300000
 H      41.88100000      30.98700000      20.62700000
 H      42.81400000      32.15600000      20.51900000
 O      46.96900000      16.22400000      22.80000000
 H      46.88400000      16.38700000      23.78300000
 H      46.20600000      16.73600000      22.45000000
 O      44.67800000      27.96500000      37.84900000
 H      44.25100000      27.18100000      37.38900000
 H      43.97100000      28.62000000      37.82800000
 O      48.29200000      21.58100000      32.52600000
 H      47.34200000      21.74300000      32.28200000
 H      48.33700000      22.00300000      33.38700000
 O      43.53700000      37.26800000      39.26100000
 H      42.67800000      37.55700000      39.66500000
 H      43.98100000      38.15000000      39.23600000
 O      43.16000000      13.26600000      39.73500000
 H      43.98800000      13.62700000      40.15000000
 H      42.98100000      14.09900000      39.16700000
 O      43.95500000      22.25700000      24.17000000
 H      44.74900000      22.39200000      24.66500000
 H      43.95500000      23.10000000      23.67500000
 O      42.76600000      40.86300000      40.32000000
 H      43.31000000      40.63600000      39.50400000
 H      43.48900000      41.26700000      40.82600000
 O      45.93600000      33.58100000      24.28000000
 H      46.53600000      32.86500000      23.95600000
 H      46.61300000      34.26000000      24.47200000
 O      46.90500000      28.08000000      36.39700000
 H      46.19500000      28.15200000      37.04400000
 H      46.55300000      28.67200000      35.71600000
 O      47.22900000      16.72000000      25.77900000
 H      46.55700000      16.69700000      26.45500000
 H      48.01300000      17.10100000      26.23400000
 O      42.32200000       8.19400000      21.18800000
 H      42.64100000       8.56200000      20.30600000
 H      41.87900000       7.37500000      20.88100000
 O      43.30000000      29.76500000      33.00900000
 H      43.91700000      29.80600000      32.21500000
 H      42.96300000      30.69200000      32.88700000
 O      43.12600000      20.95100000      22.05100000
 H      43.60700000      21.24200000      21.32100000
 H      43.64500000      21.34300000      22.82200000
 O      42.17100000      18.66000000      34.20900000
 H      42.15900000      17.74300000      33.99400000
 H      42.83000000      18.70000000      34.96100000
 O      46.14700000      37.48500000      34.88100000
 H      45.41000000      36.97400000      35.28600000
 H      46.86000000      37.21200000      35.58100000
 O      48.66800000       9.99000000      28.12300000
 H      48.96800000      10.57700000      27.36600000
 H      47.81300000       9.60900000      27.82700000
 O      48.05200000      36.84800000      36.82700000
 H      48.45300000      36.16800000      37.42400000
 H      48.67500000      36.70100000      36.05100000
 O      47.31800000       8.06300000      40.23300000
 H      47.78000000       8.56000000      40.94700000
 H      46.36900000       8.38300000      40.35600000
 O      43.03200000      10.47300000      36.81100000
 H      43.35000000       9.64500000      36.34800000
 H      42.46000000      10.87500000      36.09000000
 O      45.97300000       7.25000000      34.39400000
 H      46.60900000       7.81200000      34.89300000
 H      45.25500000       7.79400000      34.22800000
 O      43.42200000      35.90300000      32.61800000
 H      43.21000000      36.17700000      33.56000000
 H      43.17300000      36.64200000      32.12900000
 O      44.41300000      40.19900000      38.37500000
 H      44.32300000      40.79600000      37.62800000
 H      45.06200000      39.56900000      38.13400000
 O      43.32900000      40.39400000      21.96800000
 H      43.14300000      41.19700000      22.53800000
 H      43.54200000      39.80700000      22.72300000
 O      48.07900000      17.58200000      38.25900000
 H      48.14400000      18.44700000      37.73600000
 H      48.77700000      17.68300000      38.85100000
 O      45.92000000      27.47700000      32.48500000
 H      46.33100000      28.28900000      32.44500000
 H      46.67100000      26.86600000      32.32500000
 O      43.87700000      13.24200000      34.97100000
 H      43.66500000      12.72000000      34.17300000
 H      44.66300000      12.75300000      35.31900000
 O      42.52700000      24.92400000      31.73400000
 H      42.68800000      25.83100000      31.34800000
 H      41.60800000      24.78600000      31.38100000
 O      47.70500000      31.51700000      23.19800000
 H      47.41900000      31.81400000      22.30100000
 H      47.77400000      30.54100000      23.07300000
 O      47.25500000      19.99100000      26.29000000
 H      47.06100000      19.48500000      25.44100000
 H      46.84600000      20.81700000      26.11000000
 O      48.72400000      30.57900000      27.44100000
 H      47.89100000      30.19500000      27.24900000
 H      48.45600000      31.10400000      28.26500000
 O      42.56700000      11.06900000      28.49300000
 H      41.82300000      11.30500000      29.12400000
 H      43.09800000      11.92400000      28.76300000
 O      46.12800000      21.95100000      36.74300000
 H      45.54000000      22.69600000      37.08000000
 H      45.48600000      21.59000000      36.08900000
 O      44.83100000      38.15000000      28.36900000
 H      45.50900000      38.35100000      29.03600000
 H      44.11800000      37.78400000      28.88600000
 O      42.75200000      21.00200000      32.79000000
 H      42.38900000      20.53100000      32.02500000
 H      42.66200000      20.25900000      33.45500000
 O      45.34800000      16.11700000      30.68600000
 H      46.29200000      15.98000000      30.90500000
 H      45.21500000      16.98700000      31.11700000
 O      43.11700000      31.95500000      40.66100000
 H      42.55800000      31.25000000      41.05800000
 H      42.44300000      32.53600000      40.23800000
 O      43.33200000      25.49200000      37.29400000
 H      43.19700000      25.55100000      36.33200000
 H      42.38500000      25.39500000      37.57800000
 O      46.92600000      33.70600000      39.07800000
 H      46.26400000      34.30500000      38.67100000
 H      46.46000000      32.83500000      39.00000000
 O      43.17300000      38.22300000      24.05800000
 H      42.39200000      38.23500000      24.58200000
 H      43.92600000      38.30700000      24.64000000
 O      44.30000000      26.52800000      28.27700000
 H      43.43700000      26.04700000      28.40200000
 H      44.89000000      25.83800000      28.61700000
 O      42.21800000      25.08000000      28.79000000
 H      42.43100000      24.09300000      28.85900000
 H      41.29300000      24.96200000      28.45900000
 O      43.47900000      22.59300000      38.91300000
 H      42.75600000      22.76100000      39.54300000
 H      43.10000000      21.88200000      38.31500000
 O      43.88000000      14.31000000      21.14900000
 H      43.65600000      15.17100000      21.48900000
 H      43.23500000      13.72400000      21.58200000
 O      47.62800000      33.80600000      35.08400000
 H      48.19800000      33.77800000      35.88000000
 H      46.79200000      33.43100000      35.41400000
 O      46.49900000      12.10800000      40.82700000
 H      47.30000000      12.52800000      41.24700000
 H      46.36000000      12.66600000      40.02700000
 O      46.54500000      19.45000000      23.76300000
 H      46.88000000      18.60900000      23.48400000
 H      45.57200000      19.26000000      23.89800000
 O      46.72500000      33.83700000      27.84100000
 H      47.06800000      33.16000000      28.38500000
 H      47.48700000      34.31200000      27.51200000
 O      43.97300000      34.28200000      27.79200000
 H      44.98400000      34.29400000      27.59400000
 H      44.06700000      34.69600000      28.68500000
 O      44.77400000       9.60300000      34.69500000
 H      44.81500000       9.65800000      33.73500000
 H      45.29600000      10.37500000      34.99400000
 O      47.24000000      27.95000000      26.85200000
 H      46.34400000      28.02900000      26.41100000
 H      47.08800000      28.32500000      27.78000000
 O      46.32000000      21.65800000      39.98600000
 H      46.23400000      21.18400000      39.09100000
 H      46.30100000      22.56300000      39.66700000
 O      46.46100000      10.78400000      25.72500000
 H      45.85600000      10.39400000      25.03600000
 H      46.38900000      10.06700000      26.36000000
 O      47.99700000      22.78200000      35.03800000
 H      47.81200000      23.71600000      35.12000000
 H      47.38300000      22.43900000      35.72800000
 O      46.81700000      40.76100000      35.39000000
 H      46.51100000      41.21500000      36.15500000
 H      47.76000000      40.53500000      35.67100000
 O      45.32800000      31.38400000      39.28600000
 H      45.79800000      30.82000000      39.90800000
 H      44.60200000      31.75100000      39.89600000
 O      43.73600000      16.12100000      25.72800000
 H      44.22400000      16.20000000      26.54600000
 H      43.42000000      15.21500000      25.76600000
 O      42.78600000      11.63000000      32.69000000
 H      43.42400000      11.05400000      32.26100000
 H      42.07200000      11.70200000      31.98200000
 O      47.63300000       8.01700000      36.51000000
 H      46.78300000       7.61800000      36.98300000
 H      47.46000000       8.95100000      36.86200000
 O      44.97500000       9.86000000      31.90900000
 H      45.06500000       8.97400000      31.44300000
 H      45.48600000      10.44200000      31.26900000
 O      44.68500000      31.36700000      25.85600000
 H      45.09700000      32.11700000      25.32600000
 H      44.50600000      30.74100000      25.14500000
 O      43.89000000      27.33900000      30.83100000
 H      44.37900000      27.54900000      29.98800000
 H      44.65400000      27.42300000      31.44400000
 O      45.81600000      16.57500000      34.44400000
 H      46.45400000      15.83100000      34.46400000
 H      45.19500000      16.28400000      35.17200000
 O      47.74700000      19.74500000      36.72000000
 H      47.18400000      20.57100000      36.84200000
 H      47.35900000      19.59700000      35.79900000
 O      46.06300000      22.51600000      25.87700000
 H      45.60300000      22.66100000      26.71600000
 H      46.91600000      22.90900000      26.02900000
 O      47.70000000       7.40800000      30.54900000
 H      46.71300000       7.55400000      30.57200000
 H      47.98800000       8.32500000      30.57500000
 O      47.89900000       6.85200000      20.99100000
 H      47.98400000       6.64400000      20.03700000
 H      47.83600000       7.82500000      20.93100000
 O      43.11200000       7.98200000      39.12600000
 H      42.89300000       7.82200000      40.08900000
 H      43.84500000       8.57200000      39.24300000
 O      44.75600000       6.52800000      22.51100000
 H      44.98800000       6.49500000      21.50500000
 H      43.94300000       7.10100000      22.43900000
 O      47.17200000      36.74200000      21.68500000
 H      47.38900000      36.29200000      20.89200000
 H      47.03200000      37.65100000      21.37800000
 O      47.82200000      13.46800000      38.19500000
 H      47.20200000      13.38900000      37.42000000
 H      48.51400000      13.96000000      37.75000000
 O      44.96300000      32.73800000      35.11300000
 H      44.25000000      32.58800000      34.44900000
 H      44.40400000      32.56600000      35.91400000
 O      47.81000000      28.88800000      22.64700000
 H      48.58100000      28.52100000      22.16600000
 H      47.42500000      28.07600000      23.03500000
 O      43.64100000      31.57400000      37.09200000
 H      43.45900000      30.66200000      37.11300000
 H      44.02500000      31.73700000      37.94700000
 O      47.24900000      39.58300000      28.82500000
 H      46.70100000      40.20800000      29.38200000
 H      47.64800000      40.19800000      28.16600000
 O      46.90200000      13.34200000      25.46700000
 H      47.05500000      12.36500000      25.39500000
 H      46.14700000      13.40900000      24.83300000
 O      46.38000000      22.44300000      28.75500000
 H      45.77000000      22.84500000      29.42000000
 H      47.16200000      23.01600000      29.02800000
 O      44.15800000      23.12500000      30.49300000
 H      43.41400000      22.72800000      29.96000000
 H      43.54600000      23.73000000      31.03500000
 O      47.37700000      10.53100000      37.55700000
 H      46.44800000      10.83100000      37.78100000
 H      47.84700000      11.14600000      38.14400000
 O      47.94200000      15.50800000      31.52200000
 H      48.57400000      15.51100000      30.80000000
 H      48.48600000      15.74000000      32.28100000
 O      47.55800000      25.20800000      31.93800000
 H      48.41900000      25.12900000      32.28600000
 H      47.64100000      24.71900000      31.10300000
 O      44.49400000      31.72400000      28.50700000
 H      44.12900000      32.62000000      28.22800000
 H      44.56800000      31.28400000      27.61200000
 O      46.56600000      25.25400000      36.52500000
 H      45.66900000      25.19300000      36.27400000
 H      46.75000000      26.18400000      36.51900000
 O      44.82700000      31.09000000      31.25000000
 H      45.68800000      30.75700000      31.40600000
 H      44.92200000      31.73800000      30.53900000
