282
XYZ file of cluster: frame_1000_1d3b.4cb0d.181a - created by MolEdiTo
 O       9.36300000      25.88000000       2.16300000
 H      10.03100000      25.13800000       2.14000000
 H       8.53300000      25.31600000       2.25900000
 O       9.45000000      28.19900000       3.63100000
 H      10.41000000      28.30300000       3.59200000
 H       9.29700000      27.47600000       2.98300000
 O       5.13600000      22.62700000       9.67700000
 H       4.22300000      22.96100000       9.42300000
 H       5.38900000      23.37500000      10.29800000
 O       1.55300000      16.44900000       1.58400000
 H       1.91900000      17.29700000       1.96900000
 H       2.26400000      16.13600000       1.00300000
 O       8.30500000      23.52200000      11.59200000
 H       7.48400000      24.04400000      11.77700000
 H       8.93400000      24.21600000      11.96900000
 O      10.21600000      22.89100000       4.97300000
 H       9.58100000      22.41100000       4.46500000
 H       9.77400000      23.79900000       5.01500000
 O       1.54400000      17.54700000      13.39200000
 H       2.13600000      18.18900000      13.05500000
 H       0.71600000      17.74600000      12.81100000
 O       8.83600000      15.90200000       2.34900000
 H       9.72100000      15.82100000       2.47900000
 H       8.56100000      16.44400000       3.14100000
 O       1.94400000      15.06000000       6.94400000
 H       1.62500000      15.49800000       6.14300000
 H       1.30600000      15.25100000       7.61000000
 O      11.30800000      13.93500000       9.09100000
 H      11.61500000      14.18900000       8.20400000
 H      10.59900000      13.24500000       8.83800000
 O      12.90000000      25.16200000      11.72600000
 H      12.96800000      26.05600000      11.30500000
 H      13.34100000      24.63200000      11.04200000
 O       5.24600000      26.36000000      13.90400000
 H       4.77200000      26.88900000      13.22700000
 H       5.82300000      27.04400000      14.28700000
 O       5.56700000      22.38700000       3.21800000
 H       5.25800000      21.77600000       2.54400000
 H       5.00700000      22.10400000       3.98300000
 O      11.06300000      16.49200000       4.11200000
 H      11.50600000      17.38200000       4.21400000
 H      10.31700000      16.63000000       4.66700000
 O      13.37800000      19.52600000       9.65700000
 H      14.26100000      19.98000000       9.40100000
 H      13.16200000      19.03400000       8.92200000
 O       6.71300000      27.03900000       9.74400000
 H       7.65900000      27.38000000       9.74100000
 H       6.34000000      27.75800000       9.25500000
 O       1.92800000      24.90100000       6.84700000
 H       2.39700000      25.62100000       6.41300000
 H       1.31000000      25.37100000       7.43100000
 O       5.05000000      17.48100000       6.20900000
 H       4.53200000      18.20600000       6.50300000
 H       5.86600000      17.68900000       6.74300000
 O      13.61200000      23.63200000       9.46500000
 H      12.96500000      22.88100000       9.28800000
 H      14.39800000      23.24300000       8.95400000
 O       7.40400000      16.79200000      12.39100000
 H       6.90900000      17.14300000      13.13200000
 H       8.07200000      17.47000000      12.32100000
 O      12.04300000      26.05800000       1.63700000
 H      12.04300000      25.08100000       1.68400000
 H      11.06200000      26.20100000       1.61100000
 O      13.32600000      16.11900000       9.91200000
 H      12.70500000      15.45300000      10.17400000
 H      12.92600000      16.50000000       9.08600000
 O      10.75600000      18.51300000       7.03900000
 H      10.81500000      19.51600000       6.94100000
 H      10.02600000      18.56200000       7.73500000
 O       7.29800000      19.83500000      13.54700000
 H       7.14600000      20.69100000      14.09400000
 H       6.38000000      19.80600000      13.11500000
 O      12.90600000      23.07400000       5.63500000
 H      12.84500000      24.05800000       5.66900000
 H      11.94400000      22.79400000       5.60900000
 O      12.49300000      18.95300000       0.98900000
 H      12.63300000      19.57200000       0.25700000
 H      11.63800000      19.25200000       1.32500000
 O      14.02600000      13.44700000       1.23100000
 H      14.49600000      14.32400000       1.07500000
 H      13.50700000      13.74900000       2.00300000
 O       6.60900000      26.34300000       5.10800000
 H       6.45300000      27.35100000       5.28200000
 H       5.94800000      25.92500000       5.58900000
 O       4.61300000      16.73100000       3.59900000
 H       4.21800000      17.57200000       3.45100000
 H       4.89600000      16.76700000       4.55500000
 O       4.50100000      13.43900000      14.27700000
 H       5.07400000      13.85100000      13.62600000
 H       3.63600000      13.63400000      13.95500000
 O       7.09400000      24.24400000       1.96400000
 H       6.55600000      25.08300000       1.91300000
 H       6.39400000      23.64800000       2.41300000
 O       3.91200000      13.70400000       3.06300000
 H       3.84900000      14.62700000       2.96300000
 H       4.62000000      13.60100000       3.74900000
 O       5.89600000      16.30200000       1.35900000
 H       5.52000000      16.32600000       2.25200000
 H       6.80200000      16.02600000       1.54900000
 O       9.16500000      20.97200000      11.06100000
 H       8.58500000      20.60700000      11.81600000
 H       8.96200000      21.93200000      11.18300000
 O       6.95300000      20.04100000       5.65100000
 H       7.16100000      19.42200000       6.37000000
 H       6.55700000      20.81200000       6.12200000
 O       2.75200000      24.03400000       9.43100000
 H       2.42800000      23.18200000       9.02100000
 H       2.67900000      24.60200000       8.61000000
 O      10.02300000      25.43100000      12.48600000
 H      10.41400000      25.61100000      11.58300000
 H      10.83300000      25.19700000      12.97800000
 O       0.87400000      25.04500000       2.43600000
 H       1.83600000      25.28900000       2.51100000
 H       0.59400000      25.65800000       1.76300000
 O       5.46100000      26.16100000       1.56400000
 H       4.95400000      25.74000000       0.81700000
 H       4.77100000      26.17400000       2.23100000
 O       9.79500000      21.30200000       7.27000000
 H       9.30700000      22.09100000       7.72200000
 H       9.97600000      21.75900000       6.38100000
 O      13.13100000      20.00100000      13.56000000
 H      12.44600000      19.61100000      14.16000000
 H      12.99800000      19.49300000      12.74100000
 O       2.10700000      14.05300000      13.18300000
 H       2.06600000      14.66700000      12.41800000
 H       1.18400000      13.87100000      13.36000000
 O       5.59600000      21.53100000       7.15900000
 H       5.78800000      22.04100000       8.00600000
 H       4.85500000      21.02400000       7.40500000
 O       5.14700000      19.56200000       3.48500000
 H       5.78000000      19.74900000       4.20100000
 H       5.76900000      19.36300000       2.77200000
 O      13.45800000      21.33300000       3.41400000
 H      14.34800000      21.08900000       3.77600000
 H      13.42700000      22.22800000       3.75800000
 O      12.68900000      18.80900000       4.04500000
 H      12.62200000      19.81200000       4.14600000
 H      12.80400000      18.82600000       3.06300000
 O       8.56800000      26.56800000      14.44100000
 H       8.90200000      26.01500000      13.69700000
 H       9.26000000      26.34700000      15.12000000
 O      11.87900000      14.41300000       6.22400000
 H      11.60400000      14.87100000       5.41900000
 H      12.24300000      15.25700000       6.68700000
 O       3.54200000      20.16400000      13.07500000
 H       4.15000000      20.60900000      12.46800000
 H       2.69000000      20.14400000      12.53400000
 O       4.34100000      24.27100000       5.06600000
 H       3.83000000      23.38500000       4.88500000
 H       4.87000000      23.99900000       5.79800000
 O       7.46000000      17.84100000       7.44000000
 H       7.11900000      17.08000000       7.99000000
 H       8.25900000      18.17600000       7.92300000
 O       5.85300000      24.96400000      11.35900000
 H       6.09700000      25.72900000      10.81700000
 H       5.80000000      25.37900000      12.26700000
 O       6.26100000      15.87800000       8.64700000
 H       6.09200000      15.01300000       9.02900000
 H       5.34500000      16.22600000       8.55600000
 O      10.22100000      20.11200000       1.80000000
 H       9.70800000      19.49500000       1.25000000
 H       9.50700000      20.49400000       2.40000000
 O      10.70200000      28.40800000       8.36000000
 H      10.49800000      27.60400000       7.80300000
 H      11.12300000      28.96700000       7.70400000
 O       9.05300000      19.30400000       8.92100000
 H       9.15800000      19.80700000       9.75900000
 H       8.88900000      20.07200000       8.32100000
 O       3.04700000      21.69000000       4.34500000
 H       2.92400000      20.80900000       4.68500000
 H       2.69800000      21.59000000       3.38700000
 O       2.09400000      25.04900000      11.88600000
 H       2.40900000      24.81900000      10.97300000
 H       2.47300000      25.96500000      11.97400000
 O       6.81500000      20.24800000       1.43900000
 H       7.39200000      19.65200000       0.86500000
 H       6.37000000      20.80400000       0.74700000
 O      12.53200000      16.61900000       7.47200000
 H      11.72500000      17.21200000       7.31100000
 H      13.21700000      17.17900000       7.12500000
 O      10.81100000      26.28500000       6.72800000
 H      10.14000000      25.92500000       6.08200000
 H      11.60700000      26.27900000       6.12000000
 O      10.75500000      24.72000000       9.79900000
 H      11.14000000      25.37300000       9.19000000
 H      11.45800000      24.15500000      10.13500000
 O       3.55700000      19.17300000       7.67200000
 H       2.89200000      19.09500000       8.36400000
 H       3.06500000      19.19400000       6.83800000
 O      11.73400000      21.73000000       9.69500000
 H      10.81300000      21.40800000       9.92800000
 H      12.25300000      20.91200000       9.87700000
 O      13.86500000      23.05700000      13.81700000
 H      13.40800000      22.32600000      13.33200000
 H      14.19400000      23.50000000      13.00300000
 O       3.63900000      16.10500000       8.56100000
 H       3.35800000      17.01300000       8.41800000
 H       3.25900000      15.68300000       7.75300000
 O      12.84900000      26.29500000       5.03300000
 H      13.76800000      26.51900000       5.25000000
 H      12.63000000      27.04800000       4.46000000
 O       6.63700000      14.03500000      12.63300000
 H       7.21400000      14.93100000      12.67100000
 H       6.29400000      14.11700000      11.71600000
 O       1.81600000      18.32000000       9.89100000
 H       1.10200000      18.66800000      10.39200000
 H       2.01800000      17.46700000      10.32400000
 O       5.88700000      24.55100000       7.41900000
 H       6.11900000      25.27200000       8.02900000
 H       6.59600000      23.94000000       7.64500000
 O      12.83900000      14.79000000       3.29200000
 H      13.46300000      15.25500000       3.96400000
 H      12.08400000      15.47200000       3.37100000
 O      10.97400000      16.49800000      13.53000000
 H      11.39100000      17.20900000      13.07300000
 H      10.05300000      16.83200000      13.64000000
 O       9.07300000      25.21000000       5.04100000
 H       8.11700000      25.47900000       5.17000000
 H       9.19000000      25.57100000       4.18100000
 O      11.00300000      23.34100000       1.99600000
 H      11.63100000      22.66500000       2.07900000
 H      10.14800000      22.89900000       2.09000000
 O       7.39700000      13.36600000       1.95100000
 H       7.83900000      13.11400000       2.78100000
 H       7.89000000      14.17900000       1.75800000
 O       5.45500000      20.21900000      11.19800000
 H       5.79000000      19.66000000      10.46300000
 H       5.26000000      21.03200000      10.68500000
 O       1.96400000      15.48600000      10.70400000
 H       2.60000000      15.58300000       9.97700000
 H       1.15000000      15.33400000      10.14100000
 O      12.09800000      28.17400000       3.16200000
 H      12.57700000      28.77700000       2.61500000
 H      12.07700000      27.38900000       2.53700000
 O       2.52500000      27.35900000       5.75600000
 H       1.86500000      28.07300000       5.54400000
 H       2.91400000      27.75700000       6.59300000
 O      13.96300000      27.42300000      13.56700000
 H      13.66500000      26.48300000      13.32400000
 H      13.33400000      27.91800000      13.04300000
 O       2.13200000      19.30900000       5.41700000
 H       1.24400000      19.72300000       5.38900000
 H       2.03600000      18.63700000       4.69600000
 O       3.17600000      26.04600000       3.42000000
 H       3.74500000      25.43700000       3.93200000
 H       3.05600000      26.74700000       4.12600000
 O       2.42300000      23.25200000      14.10300000
 H       2.54200000      22.35300000      13.76600000
 H       2.30000000      23.73700000      13.20400000
 O       2.12900000      22.20800000       6.89600000
 H       2.59000000      21.95700000       6.10200000
 H       2.23600000      23.22000000       6.83400000
 O       2.89600000      18.69800000       2.34400000
 H       3.64100000      19.09800000       2.89200000
 H       2.77800000      19.44800000       1.75900000
 O       8.31300000      21.55200000       3.49000000
 H       7.85500000      21.27000000       4.32700000
 H       7.54900000      21.59300000       2.89600000
 O       1.20100000      20.79500000      11.60000000
 H       1.14900000      21.08600000      10.69300000
 H       0.30900000      20.88500000      11.96100000
 O       8.52700000      16.64100000       5.08000000
 H       8.12700000      17.29900000       5.60300000
 H       8.09500000      15.79900000       5.44200000
 O      12.66500000      17.99500000      11.66700000
 H      13.04800000      18.66800000      11.06700000
 H      12.80600000      17.14800000      11.16000000
 O       2.74100000      21.45200000       1.69400000
 H       1.87600000      21.81600000       1.34300000
 H       3.30900000      21.57000000       0.89000000
 O      12.68100000      27.54400000      10.17800000
 H      11.91100000      27.67100000       9.56800000
 H      12.57100000      28.32100000      10.78200000
 O       8.56300000      23.33700000       8.75900000
 H       8.19700000      23.04900000       9.62700000
 H       9.28100000      23.95500000       9.05300000
 O       7.61300000      14.65300000       6.31300000
 H       8.15100000      14.09100000       6.95800000
 H       6.94000000      14.98000000       6.94800000
 O       4.04900000      13.44600000       7.13800000
 H       3.32400000      14.10100000       7.03000000
 H       3.69600000      13.05000000       8.03600000
