504
XYZ file of cluster: frame_1000_4bbb6.9c8b0.c5d9f - created by MolEdiTo
 O      14.28300000      39.36700000      38.59300000
 H      14.19700000      40.20000000      38.05600000
 H      15.27700000      39.51100000      38.81400000
 O      16.28900000      33.90700000      34.90200000
 H      17.04900000      33.53700000      35.35900000
 H      15.88400000      34.44800000      35.64800000
 O      25.58000000      31.34500000      35.84500000
 H      26.41900000      30.79300000      35.98800000
 H      25.44200000      31.10300000      34.89500000
 O      16.21300000      35.25900000      37.28800000
 H      17.11100000      35.27900000      37.70300000
 H      15.70900000      35.42600000      38.12100000
 O      38.43800000      36.05400000      40.45600000
 H      38.49300000      36.96200000      40.69600000
 H      37.46200000      35.89500000      40.52400000
 O      24.58000000      35.78500000      35.55500000
 H      24.06800000      34.99800000      35.21000000
 H      25.43900000      35.40600000      35.61900000
 O      22.57300000      37.85200000      40.28200000
 H      23.27400000      38.44000000      40.55000000
 H      23.09400000      37.35000000      39.56700000
 O      25.30600000      35.36200000      40.71800000
 H      25.98400000      34.83400000      41.20300000
 H      25.10100000      34.73300000      39.99400000
 O      23.32400000      28.81900000      37.78900000
 H      23.65000000      28.63200000      36.88300000
 H      23.20300000      29.78200000      37.72400000
 O      20.47200000      37.63700000      37.67700000
 H      20.10000000      37.65300000      38.55500000
 H      21.19700000      38.39200000      37.71800000
 O      40.25900000      38.62000000      37.24100000
 H      40.43300000      39.61600000      37.23700000
 H      39.39600000      38.54100000      37.63700000
 O      18.47600000      29.18700000      40.38300000
 H      19.18300000      29.38400000      39.75400000
 H      18.47600000      28.19500000      40.34400000
 O      25.76700000      38.54500000      37.19500000
 H      24.95700000      38.40800000      37.68500000
 H      26.27100000      37.73000000      37.38300000
 O      30.60100000      30.78200000      38.69700000
 H      31.43500000      30.74600000      39.18400000
 H      30.00300000      31.25900000      39.24100000
 O      15.02000000      29.86200000      39.39500000
 H      14.86700000      29.15000000      38.73600000
 H      15.98900000      29.88400000      39.38900000
 O      14.91400000      27.70900000      37.26200000
 H      14.23700000      27.56900000      37.96800000
 H      15.02500000      26.74800000      37.03300000
 O      33.66700000      37.63100000      40.13400000
 H      33.39000000      38.48300000      39.67500000
 H      32.89700000      37.08700000      39.88700000
 O      14.16700000      29.64300000      35.27900000
 H      14.39400000      30.50700000      35.80400000
 H      14.62800000      29.02300000      35.98700000
 O      19.85600000      36.82700000      35.03200000
 H      20.09500000      37.10500000      35.97300000
 H      18.90000000      37.08000000      35.12400000
 O      27.43500000      38.45000000      40.13600000
 H      27.69200000      38.38900000      41.11100000
 H      26.44500000      38.26200000      40.27400000
 O      36.83800000      33.58200000      35.40000000
 H      37.41500000      32.79500000      35.58500000
 H      37.50400000      34.12200000      34.92200000
 O      27.46900000      40.38000000      35.66300000
 H      27.13700000      39.52800000      35.90300000
 H      27.96000000      40.65900000      36.45700000
 O      30.12000000      30.27000000      35.97000000
 H      30.20000000      30.01700000      36.89400000
 H      29.17000000      30.18300000      35.82000000
 O      26.75700000      33.88300000      35.43900000
 H      26.53100000      33.03300000      35.78900000
 H      27.25500000      33.64400000      34.65200000
 O      35.86000000      36.15600000      40.56600000
 H      35.26100000      35.35800000      40.39900000
 H      35.20700000      36.84000000      40.37600000
 O      23.68700000      40.67800000      40.63700000
 H      23.34900000      41.54400000      40.91600000
 H      24.05400000      40.83100000      39.75700000
 O      31.34000000      27.68600000      38.15200000
 H      31.43500000      28.63000000      38.36900000
 H      30.64900000      27.45400000      38.77900000
 O      28.84900000      27.62900000      36.73900000
 H      29.67400000      27.79200000      37.20200000
 H      28.94600000      26.63800000      36.57200000
 O      37.55300000      39.45800000      38.65100000
 H      38.00600000      40.28100000      38.36700000
 H      36.61800000      39.73300000      38.34600000
 O      37.63700000      31.68900000      39.72500000
 H      38.06600000      32.35100000      40.29700000
 H      38.19100000      30.87200000      39.99500000
 O      19.24500000      40.18000000      34.34000000
 H      20.09900000      40.10600000      34.76700000
 H      19.34900000      39.37800000      33.75800000
 O      18.11700000      32.90600000      40.22700000
 H      17.86600000      32.65600000      39.26500000
 H      18.83300000      33.52000000      40.12600000
 O      17.36500000      37.76500000      35.84400000
 H      16.96600000      36.86100000      36.04100000
 H      16.59300000      38.21100000      35.48200000
 O      23.90100000      36.34400000      38.12600000
 H      24.84400000      36.12200000      38.40000000
 H      23.97200000      36.02300000      37.18800000
 O      33.63000000      31.92300000      37.18600000
 H      33.62400000      31.45700000      36.32400000
 H      34.42900000      31.55800000      37.57200000
 O      20.61700000      27.38500000      34.87900000
 H      20.42000000      28.08300000      35.51200000
 H      20.76300000      27.82000000      34.03300000
 O      34.81600000      31.83500000      40.52500000
 H      34.50600000      32.70900000      40.49800000
 H      35.74000000      31.92800000      40.17700000
 O      34.16400000      39.21900000      36.01300000
 H      34.05700000      38.27600000      36.39500000
 H      34.51000000      39.66500000      36.80900000
 O      31.50200000      35.10400000      39.08600000
 H      30.89000000      34.38500000      38.82700000
 H      30.89400000      35.82400000      39.34200000
 O      16.72400000      40.23300000      39.39400000
 H      17.20400000      40.71400000      40.09100000
 H      17.28700000      40.40400000      38.63400000
 O      22.30100000      39.72700000      37.40900000
 H      22.37700000      39.52600000      36.41100000
 H      23.13200000      40.24500000      37.52700000
 O      19.71300000      38.58900000      40.17200000
 H      20.50500000      38.36700000      40.69300000
 H      19.75400000      39.52200000      40.21100000
 O      21.18800000      32.82900000      38.79000000
 H      21.19000000      33.53300000      38.15900000
 H      21.76000000      32.18700000      38.36700000
 O      38.57200000      29.04900000      38.99100000
 H      37.60800000      28.99600000      38.69000000
 H      38.56800000      28.52900000      39.77800000
 O      32.44300000      40.04400000      39.46800000
 H      32.19100000      40.62700000      38.75700000
 H      32.25400000      40.57700000      40.28100000
 O      22.65400000      39.80100000      34.75900000
 H      23.36400000      39.86900000      34.06600000
 H      22.55600000      40.77300000      34.92900000
 O      18.73500000      35.52800000      38.49700000
 H      18.99500000      35.20100000      39.36400000
 H      19.55900000      35.40200000      37.97500000
 O      28.88700000      35.87400000      40.68400000
 H      29.40400000      36.71700000      40.64700000
 H      28.93200000      35.74800000      41.65600000
 O      31.79400000      34.30900000      34.63800000
 H      31.41800000      34.08900000      35.54900000
 H      31.81500000      35.28900000      34.74500000
 O      34.14000000      36.72500000      37.16500000
 H      34.33600000      35.88700000      36.62700000
 H      33.72700000      36.29200000      37.93100000
 O      30.64900000      37.83900000      39.52600000
 H      30.78600000      38.10200000      38.56500000
 H      30.82200000      38.72200000      39.95200000
 O      24.29700000      32.57800000      40.08500000
 H      23.60500000      33.25800000      40.12800000
 H      24.82800000      32.83500000      39.29000000
 O      14.80900000      35.73800000      39.82900000
 H      15.68800000      36.11800000      39.99900000
 H      14.79100000      34.97600000      40.40000000
 O      39.55100000      33.82800000      39.91300000
 H      39.20900000      34.69900000      40.23100000
 H      39.33500000      33.96400000      38.95500000
 O      17.16200000      36.78200000      40.28700000
 H      17.96700000      36.49900000      39.74700000
 H      17.40500000      37.74600000      40.29900000
 O      30.84300000      33.14500000      36.98400000
 H      31.72700000      32.82300000      36.96700000
 H      30.29300000      32.35300000      37.12400000
 O      30.38400000      36.80400000      35.33400000
 H      29.62500000      36.41300000      35.85100000
 H      30.64300000      37.53400000      35.91900000
 O      17.23300000      28.02000000      36.15200000
 H      16.26300000      28.02700000      36.43800000
 H      17.10300000      28.38500000      35.26300000
 O      30.79700000      39.08300000      37.09800000
 H      30.07000000      39.65500000      37.47500000
 H      31.48900000      39.79800000      37.12400000
 O      38.46400000      34.94300000      37.45800000
 H      38.02400000      35.80400000      37.38000000
 H      37.82800000      34.44300000      36.83500000
 O      34.39500000      34.39700000      36.21400000
 H      34.03200000      33.49600000      36.37200000
 H      35.28100000      34.15400000      35.95500000
 O      19.07600000      30.16000000      36.97500000
 H      18.35600000      29.50000000      36.96300000
 H      18.91500000      30.68400000      36.12500000
 O      36.95700000      37.33400000      37.24000000
 H      37.27300000      37.90800000      38.02600000
 H      36.07800000      37.16700000      37.45700000
 O      18.92800000      33.12000000      35.35800000
 H      19.48200000      33.86200000      35.01400000
 H      19.10100000      32.42400000      34.69000000
 O      26.91100000      36.27100000      38.24600000
 H      27.42100000      36.41900000      39.10900000
 H      27.62600000      35.87700000      37.67100000
 O      14.81900000      31.60500000      36.95900000
 H      14.30600000      32.39000000      36.78100000
 H      15.75000000      31.91300000      37.08400000
 O      17.36200000      32.15900000      37.44900000
 H      18.13700000      31.55900000      37.60300000
 H      17.83500000      32.82100000      36.86900000
 O      28.69400000      33.23500000      40.09100000
 H      27.78700000      33.08900000      40.14900000
 H      28.74900000      34.22200000      40.15400000
 O      36.04300000      29.70000000      34.74500000
 H      36.43900000      29.99200000      35.61100000
 H      35.14000000      30.06400000      34.95900000
 O      28.74500000      35.18000000      36.69100000
 H      28.14700000      34.76100000      36.05700000
 H      29.29400000      34.40200000      36.90200000
 O      13.75000000      36.81700000      35.04700000
 H      14.28800000      37.63400000      35.09200000
 H      13.48600000      36.70000000      35.96100000
 O      14.50000000      32.47000000      40.17800000
 H      15.37200000      32.64100000      40.61700000
 H      14.73900000      31.87400000      39.47300000
 O      37.79500000      39.12900000      34.88600000
 H      37.53800000      38.58000000      35.63200000
 H      38.46700000      39.72500000      35.20500000
 O      28.75900000      40.17900000      38.30100000
 H      28.46100000      39.47800000      38.91000000
 H      28.23400000      40.93500000      38.65900000
 O      27.61600000      29.67400000      35.78500000
 H      27.42200000      29.22000000      34.92700000
 H      27.94200000      28.90200000      36.33500000
 O      22.97500000      33.61600000      34.79100000
 H      22.10100000      33.98400000      34.41800000
 H      23.31600000      33.31800000      33.85000000
 O      23.90900000      28.37900000      35.17500000
 H      24.19600000      28.98300000      34.46800000
 H      23.62800000      27.57100000      34.63800000
 O      25.23100000      33.55200000      37.71200000
 H      24.79700000      32.77100000      37.33700000
 H      25.90400000      33.77200000      37.07900000
 O      38.99400000      31.78900000      35.71000000
 H      39.03500000      31.10800000      35.03100000
 H      39.50200000      31.35800000      36.41000000
 O      22.87900000      31.59600000      36.85500000
 H      22.58200000      32.17800000      36.06900000
 H      23.78300000      31.38900000      36.51200000
 O      33.10500000      30.42100000      35.11100000
 H      32.94300000      30.81300000      34.24200000
 H      32.22200000      29.98400000      35.26400000
 O      35.91400000      28.69400000      39.45600000
 H      36.34000000      28.25200000      40.23500000
 H      34.97300000      28.45100000      39.59000000
 O      35.10800000      40.45500000      38.33100000
 H      35.33500000      41.39600000      38.12100000
 H      34.31200000      40.62700000      38.87800000
 O      18.11800000      40.14200000      36.97800000
 H      18.09600000      40.07700000      36.02700000
 H      18.07600000      39.21100000      37.24000000
 O      20.84500000      29.51200000      38.98300000
 H      20.66400000      29.91400000      38.10700000
 H      21.67300000      29.05000000      38.80000000
 O      33.86200000      34.36100000      40.48200000
 H      33.59200000      34.36400000      41.45000000
 H      33.00300000      34.47900000      40.02800000
 O      36.04100000      30.73300000      37.63000000
 H      36.66700000      31.14400000      38.25900000
 H      36.06300000      29.82700000      38.01000000
 O      21.17900000      34.96300000      37.10900000
 H      21.95900000      34.74000000      36.54800000
 H      21.30300000      35.94800000      37.17200000
 O      32.71500000      30.25400000      40.59700000
 H      33.54300000      30.66800000      40.26700000
 H      32.75400000      30.61700000      41.48700000
 O      15.14800000      39.42700000      34.76800000
 H      14.48000000      40.11400000      35.05800000
 H      14.96600000      39.42200000      33.79100000
 O      38.36000000      35.05400000      47.06400000
 H      37.47200000      34.98800000      46.64300000
 H      38.86600000      34.44400000      46.53300000
 O      26.63400000      40.29000000      46.33400000
 H      25.71500000      40.45400000      46.20500000
 H      26.69500000      40.32600000      47.36900000
 O      39.47900000      40.55000000      45.91400000
 H      39.88600000      39.69200000      45.61400000
 H      39.30700000      40.30300000      46.84100000
 O      15.42800000      30.20900000      47.52400000
 H      14.72900000      30.53600000      46.96600000
 H      15.45000000      29.23600000      47.35400000
 O      21.16900000      39.13600000      44.78800000
 H      21.07900000      39.83700000      44.12700000
 H      20.16400000      38.88900000      44.92400000
 O      30.80100000      32.69900000      47.13200000
 H      30.82500000      31.75400000      47.56000000
 H      30.78600000      32.36800000      46.21200000
 O      15.08000000      35.15800000      44.79400000
 H      15.77400000      34.41000000      44.74700000
 H      15.71100000      35.89000000      44.92800000
 O      18.52300000      39.30300000      45.68000000
 H      17.82200000      39.93800000      45.80700000
 H      18.13900000      38.49100000      45.45900000
 O      32.10300000      36.17500000      45.92100000
 H      31.83400000      36.15600000      46.89400000
 H      31.17500000      35.89000000      45.59400000
 O      20.52600000      30.39700000      46.28100000
 H      21.08600000      29.60700000      46.52400000
 H      20.62900000      30.32100000      45.33300000
 O      22.71700000      40.43100000      48.05500000
 H      22.96800000      40.60500000      48.97600000
 H      21.81100000      40.24900000      48.16800000
 O      39.31800000      30.57800000      43.45300000
 H      38.44400000      30.65700000      43.90600000
 H      39.70100000      29.81200000      43.87600000
 O      26.64500000      33.64200000      43.97400000
 H      26.07200000      32.90900000      44.32700000
 H      27.22400000      33.61800000      44.78400000
 O      20.13100000      40.26900000      48.41600000
 H      19.51100000      40.88200000      48.86800000
 H      19.66600000      40.10600000      47.60800000
 O      22.56000000      32.96400000      47.91000000
 H      22.84300000      33.44700000      47.11400000
 H      22.42200000      33.71100000      48.54100000
 O      40.37400000      38.47400000      42.63700000
 H      39.48200000      38.73400000      43.00000000
 H      40.63000000      39.33700000      42.36800000
 O      34.49800000      28.72700000      47.25600000
 H      34.65200000      29.58800000      46.77600000
 H      35.44500000      28.68900000      47.59200000
 O      16.85400000      32.00700000      48.91600000
 H      17.60700000      31.40900000      48.96100000
 H      16.22800000      31.42700000      48.43000000
 O      28.06300000      30.33000000      44.94300000
 H      27.12300000      30.50900000      44.85500000
 H      28.12300000      29.36500000      44.97400000
 O      21.23000000      37.09900000      47.07400000
 H      21.27500000      37.87800000      46.55100000
 H      22.15900000      36.81400000      47.14900000
 O      28.17300000      39.03000000      44.41100000
 H      29.01600000      39.12900000      44.89200000
 H      27.58500000      39.40100000      45.11400000
 O      17.26000000      30.16800000      44.31700000
 H      17.52900000      30.09300000      43.37200000
 H      17.00100000      29.20700000      44.42300000
 O      36.47000000      37.64100000      47.94100000
 H      36.34900000      37.92100000      47.02200000
 H      36.13100000      36.72900000      47.96400000
 O      24.16100000      36.67500000      47.19300000
 H      24.72300000      36.48800000      46.42300000
 H      24.71100000      36.34600000      47.93500000
 O      13.49400000      29.99600000      43.43400000
 H      14.02700000      30.00200000      42.62000000
 H      12.80900000      30.70800000      43.22800000
 O      27.74400000      34.11400000      46.67500000
 H      27.69100000      33.21100000      47.11800000
 H      27.31100000      34.57300000      47.43900000
 O      29.49600000      38.97600000      47.78300000
 H      28.84100000      39.65600000      47.67600000
 H      29.00000000      38.14200000      47.68400000
 O      30.76100000      39.13100000      45.40800000
 H      31.43600000      39.78200000      45.76600000
 H      30.36600000      38.79300000      46.26700000
 O      37.33400000      39.06900000      43.07500000
 H      37.59500000      39.94600000      43.26200000
 H      36.96400000      39.09300000      42.15000000
 O      37.22600000      28.73100000      47.99600000
 H      37.97400000      29.03400000      48.46300000
 H      37.53600000      28.56900000      47.10000000
 O      18.32400000      29.57000000      47.53700000
 H      19.12100000      30.04300000      47.16600000
 H      17.62500000      29.83400000      46.87400000
 O      25.82300000      29.21200000      47.04100000
 H      25.61400000      28.66600000      46.30800000
 H      24.99600000      29.73400000      47.17100000
 O      24.83300000      31.83200000      45.01900000
 H      24.50200000      31.10200000      44.47900000
 H      24.04200000      32.37400000      45.10500000
 O      14.15700000      39.45200000      43.67400000
 H      14.93500000      39.95800000      43.97600000
 H      14.28100000      39.40200000      42.70800000
 O      26.00100000      36.49300000      45.11100000
 H      25.90000000      35.63600000      44.74600000
 H      25.97800000      37.02600000      44.29400000
 O      22.56000000      33.42100000      45.20900000
 H      22.11200000      32.73500000      44.76500000
 H      22.34600000      34.18800000      44.64300000
 O      34.27900000      35.45200000      48.35800000
 H      34.41900000      34.59200000      48.85800000
 H      34.46800000      35.09400000      47.44700000
 O      32.15200000      31.66600000      44.70600000
 H      31.33700000      32.02600000      44.48600000
 H      31.96600000      30.71900000      44.87100000
 O      19.49300000      35.95400000      48.88900000
 H      19.83300000      36.60000000      48.22400000
 H      18.63500000      35.67700000      48.48600000
 O      36.60000000      30.82900000      44.37800000
 H      36.01000000      30.93800000      45.15500000
 H      36.08900000      31.03000000      43.61200000
 O      21.10900000      31.96400000      43.18500000
 H      20.16600000      32.20400000      43.28900000
 H      21.19800000      32.13700000      42.24200000
 O      19.99200000      28.13900000      44.71300000
 H      20.80000000      28.09300000      44.14700000
 H      19.37500000      28.32800000      44.04800000
 O      22.43700000      35.46200000      43.36200000
 H      22.05200000      36.32900000      43.32800000
 H      23.37300000      35.61800000      43.04300000
 O      16.70200000      33.01400000      44.02300000
 H      16.83300000      32.07300000      44.31800000
 H      17.32400000      33.04800000      43.27100000
 O      24.41000000      30.02700000      42.77400000
 H      24.17500000      30.83200000      42.21800000
 H      25.16600000      29.64800000      42.33900000
 O      22.04600000      28.42500000      43.00400000
 H      22.77300000      29.12900000      43.09600000
 H      21.61800000      28.76000000      42.20700000
 O      17.30100000      36.93100000      44.79100000
 H      17.15100000      36.73700000      43.84700000
 H      18.11000000      36.44600000      45.01100000
 O      19.66800000      35.42200000      45.37500000
 H      19.90600000      34.58000000      45.85500000
 H      20.05900000      36.01900000      46.05300000
 O      15.12300000      35.02900000      47.65100000
 H      16.04300000      34.77200000      47.82600000
 H      15.07500000      35.07400000      46.72900000
 O      34.84500000      32.61600000      48.85800000
 H      34.45500000      33.13500000      49.67100000
 H      35.50700000      33.22100000      48.57400000
 O      31.59300000      29.20200000      45.16200000
 H      30.69800000      29.05100000      45.54900000
 H      32.06000000      28.35100000      45.41400000
 O      25.01900000      38.76900000      43.49000000
 H      24.50000000      39.50500000      43.01300000
 H      24.68100000      38.83100000      44.40200000
 O      33.73200000      27.50600000      42.72300000
 H      33.19700000      28.26700000      42.45100000
 H      33.25500000      27.35300000      43.60600000
 O      39.24900000      32.64500000      45.64900000
 H      39.09700000      32.15000000      44.76400000
 H      40.20600000      32.54400000      45.75800000
 O      29.64400000      28.15900000      46.78200000
 H      29.89600000      27.30000000      47.21100000
 H      28.69400000      27.94900000      46.55300000
 O      36.12400000      37.41400000      44.73300000
 H      36.75800000      38.18300000      44.59100000
 H      36.08400000      37.01300000      43.82900000
 O      29.93900000      34.15200000      49.10800000
 H      30.16800000      33.60100000      48.35900000
 H      30.48500000      34.93900000      48.98300000
 O      19.81700000      32.92900000      46.50700000
 H      20.74900000      32.97200000      46.84300000
 H      19.79100000      31.93800000      46.36700000
 O      27.65000000      37.21000000      47.18900000
 H      27.11200000      37.20200000      46.36900000
 H      27.33800000      36.40800000      47.63400000
 O      22.24200000      28.21500000      47.13500000
 H      22.74900000      27.86600000      46.41000000
 H      22.16900000      27.41400000      47.69700000
 O      38.60700000      39.26000000      48.11800000
 H      37.83100000      38.61600000      48.09700000
 H      39.29000000      38.55900000      48.24600000
 O      39.52600000      36.88900000      48.72400000
 H      39.78100000      36.14200000      49.29600000
 H      39.13300000      36.39800000      47.97900000
 O      33.97600000      40.61300000      47.89700000
 H      33.84000000      40.03000000      47.16800000
 H      33.04500000      41.00300000      47.86100000
 O      27.61200000      31.76200000      48.18500000
 H      27.44300000      31.00900000      47.54600000
 H      28.21500000      31.30700000      48.82200000
 O      33.62600000      38.88700000      45.45300000
 H      32.78900000      38.49300000      45.36500000
 H      34.20100000      38.09300000      45.48900000
 O      29.76900000      32.31900000      44.04800000
 H      29.12000000      31.57100000      44.16000000
 H      29.55200000      32.54400000      43.10300000
 O      23.59600000      39.85600000      45.71300000
 H      22.69900000      39.57100000      45.38500000
 H      23.33500000      40.09000000      46.65200000
 O      19.81300000      34.93200000      42.74400000
 H      19.55000000      35.22000000      43.68100000
 H      20.75800000      35.01000000      42.79000000
 O      33.55500000      34.30800000      45.00700000
 H      33.00600000      33.55700000      45.19300000
 H      33.02500000      35.04700000      45.31600000
 O      17.79400000      34.08700000      47.78000000
 H      17.41200000      33.27100000      48.25000000
 H      18.46100000      33.66900000      47.21300000
 O      19.01100000      27.12400000      46.91500000
 H      18.82600000      28.05100000      47.29900000
 H      19.41800000      27.42900000      46.05400000
 O      29.90900000      34.94200000      45.01500000
 H      29.91300000      34.02600000      44.73300000
 H      29.34600000      34.95200000      45.81600000
 O      36.03200000      34.97800000      45.89200000
 H      36.10200000      35.84900000      45.45400000
 H      35.39000000      34.50100000      45.37300000
 O      31.70200000      36.23100000      48.53900000
 H      31.62500000      37.04900000      49.11000000
 H      32.72300000      36.13400000      48.60500000
 O      23.54900000      30.44200000      48.47300000
 H      22.84100000      29.84800000      48.16800000
 H      23.09000000      31.30000000      48.33900000
 O      34.74200000      31.25000000      46.38800000
 H      34.69500000      31.63700000      47.26200000
 H      33.75700000      31.33400000      46.08900000
 O      37.49400000      32.02700000      47.78400000
 H      36.80800000      31.49600000      47.36700000
 H      38.05300000      32.31600000      47.02400000
 O      30.27800000      30.21600000      48.39400000
 H      29.96500000      29.56000000      47.72600000
 H      30.81400000      29.58100000      48.92200000
