%chk=cluster_314.chk
%mem=1GB
%nproc=4
#b3lyp/6-311++G** scrf=(cpcm,Solvent=Water) nosymm freq
iop(2/11=1) 
 Geom=(NoDistance,NoAngle)

cluster_314

0 1
 O      14.03300000       7.30300000      19.59700000
 H      13.84200000       7.19000000      18.62600000
 H      14.99800000       7.55400000      19.73100000
 O      10.10800000      10.54900000      15.35900000
 H      10.95600000      10.00700000      15.22500000
 H      10.43400000      11.35900000      14.92600000
 O      14.89500000      10.39500000      20.08100000
 H      13.95500000      10.23200000      20.15000000
 H      15.36200000       9.53200000      19.75200000
 O      14.90800000       8.86100000      14.20600000
 H      14.79400000       7.98700000      14.55100000
 H      15.72900000       9.13000000      14.76100000
 O      13.94100000       4.15500000      20.37700000
 H      13.00300000       3.91800000      20.53600000
 H      13.80100000       4.92100000      19.83400000
 O       9.73600000       3.67200000      15.29300000
 H      10.55200000       4.11500000      15.48700000
 H       9.07900000       4.42500000      15.25800000
 O      10.18500000       7.98100000      13.58900000
 H      10.81100000       8.07000000      14.42900000
 H      10.56900000       8.58400000      12.93200000
 O      13.20300000       4.77300000      17.64900000
 H      13.18300000       3.89500000      18.07900000
 H      12.53900000       4.55600000      16.94800000
 O      14.39100000       6.34000000      15.45200000
 H      13.77000000       6.09400000      14.68600000
 H      14.04700000       5.76500000      16.14700000
 O      16.56200000       8.42100000      18.63300000
 H      16.37000000       8.53800000      17.68900000
 H      17.10000000       7.60100000      18.88400000
 O      17.31400000       5.33600000      18.77000000
 H      16.57200000       4.68500000      18.62500000
 H      17.62500000       4.99000000      19.63500000
 O      11.55500000       5.84600000      20.66200000
 H      11.45200000       5.81500000      19.68200000
 H      11.37600000       4.95900000      20.93700000
 O      15.40900000      10.34600000      16.61500000
 H      15.61300000      10.64000000      17.55000000
 H      16.28700000      10.05300000      16.34400000
 O      12.02400000       8.49600000      15.59300000
 H      12.74200000       9.12900000      15.29000000
 H      11.86400000       8.77400000      16.55300000
 O      11.18000000       9.21100000      18.26900000
 H      10.95700000       8.64100000      18.99400000
 H      11.83600000       9.81800000      18.68000000
 O      10.89900000       5.84000000      16.43000000
 H       9.99800000       6.16800000      16.38700000
 H      11.34000000       6.69900000      16.36200000

