45
XYZ file of cluster: frame_1500_0.6c02d.19600 - created by MolEdiTo
 O       3.21700000      16.97600000       4.88900000
 H       2.80700000      17.83300000       4.81300000
 H       4.13000000      17.27300000       4.72500000
 O       6.56500000      18.58400000      10.21900000
 H       7.17200000      17.96700000      10.67800000
 H       6.09700000      18.00600000       9.61900000
 O       1.07100000      12.60700000       4.47700000
 H       1.71800000      13.34600000       4.36500000
 H       0.36900000      12.77300000       3.75300000
 O       4.34200000      16.53900000      10.21300000
 H       4.83800000      15.88800000      10.72100000
 H       3.83800000      16.09200000       9.46100000
 O       4.30100000      13.64400000      10.64700000
 H       5.20200000      13.61800000      10.31700000
 H       3.90400000      13.24100000       9.84700000
 O       6.21400000      12.40000000       8.73100000
 H       5.20900000      12.28400000       8.65600000
 H       6.39700000      11.67800000       9.33100000
 O       6.51200000      15.59500000       8.12500000
 H       6.30800000      14.79300000       8.66000000
 H       7.53700000      15.57100000       7.97000000
 O       1.63200000       9.97800000       5.68000000
 H       1.34900000      10.86400000       5.32000000
 H       0.92000000       9.60700000       6.29800000
 O       0.90600000      11.65500000       8.55700000
 H       0.80900000      12.43300000       9.23500000
 H       0.00000000      11.35400000       8.22300000
 O       3.30700000      15.67500000       7.66900000
 H       2.79500000      16.10900000       6.91500000
 H       4.21200000      15.45200000       7.36800000
 O       3.50500000      12.73900000       8.27600000
 H       3.20500000      13.57600000       7.87000000
 H       2.63100000      12.36500000       8.34200000
 O       6.15000000      17.20800000       5.70500000
 H       6.11000000      18.07000000       6.15800000
 H       6.21500000      16.55900000       6.44000000
 O       5.80900000      12.25200000       4.33200000
 H       5.50900000      11.43400000       3.87800000
 H       5.18300000      12.87200000       3.96900000
 O       3.62700000      14.47900000       4.00400000
 H       3.64500000      14.67300000       3.02100000
 H       3.27300000      15.20900000       4.53400000
 O       3.23600000      11.40200000       3.12100000
 H       2.47400000      11.52400000       3.77800000
 H       2.87900000      11.36700000       2.24200000
