33
XYZ file of cluster: frame_1500_49da2.bffc1.a8af0 - created by MolEdiTo
 O      11.23300000      20.28700000      19.69900000
 H      12.13300000      19.96400000      19.61400000
 H      11.12600000      21.04800000      19.11100000
 O       6.79800000      17.98600000      16.98200000
 H       6.93000000      17.07600000      16.64900000
 H       7.45800000      18.51400000      16.51200000
 O      13.29300000      18.39900000      18.56800000
 H      13.23200000      17.48300000      18.94700000
 H      14.04900000      18.88900000      19.01900000
 O      10.51600000      18.22100000      17.16900000
 H      11.19600000      18.48100000      17.81800000
 H      10.06000000      17.53500000      17.71600000
 O      13.95800000      20.84900000      16.87200000
 H      14.71400000      20.61100000      17.36900000
 H      13.45300000      19.93600000      16.80600000
 O       7.87600000      22.85800000      15.70900000
 H       7.42100000      22.49900000      14.90400000
 H       7.70000000      22.20500000      16.39700000
 O       8.23000000      23.00800000      20.54600000
 H       7.33500000      23.02900000      20.26800000
 H       8.75000000      22.94000000      19.74400000
 O      11.49200000      24.61000000      20.70800000
 H      10.89300000      24.72100000      21.51000000
 H      11.58200000      23.63300000      20.64800000
 O       6.72400000      25.52500000      18.49600000
 H       7.65600000      25.51400000      18.25800000
 H       6.35700000      24.72900000      18.00800000
 O      10.61000000      23.00200000      16.84800000
 H      10.55000000      21.97700000      16.72300000
 H       9.94700000      23.54700000      16.36100000
 O      12.80600000      24.59800000      15.45600000
 H      13.68300000      24.39400000      15.08100000
 H      12.73000000      23.95300000      16.15800000
