172
XYZ file of cluster: frame_17500_48547.67df6.6425e - created by MolEdiTo
 O      16.38500000      26.18100000      18.93400000
 H      16.76300000      26.98200000      19.12000000
 H      16.32000000      26.13100000      17.97000000
 O      14.53900000      16.01800000      22.40500000
 H      13.52900000      16.06400000      22.34700000
 H      14.84800000      16.43400000      21.58300000
 O      10.29200000      20.15800000      21.66500000
 H      10.74900000      19.51100000      21.08700000
 H       9.35400000      20.00100000      21.45500000
 O      19.11600000      16.27200000      18.99700000
 H      18.18000000      16.68600000      18.95500000
 H      18.98100000      15.64900000      19.78000000
 O      20.26800000      20.95400000      23.95500000
 H      20.99600000      20.30400000      23.97800000
 H      19.39200000      20.58000000      24.09500000
 O      15.01500000      24.18300000      16.24200000
 H      15.95400000      24.24000000      15.85100000
 H      14.95400000      23.62200000      17.01700000
 O      20.38900000      15.80500000      15.36100000
 H      21.18200000      15.15700000      15.38000000
 H      20.37200000      16.53000000      16.07900000
 O      13.07400000      25.14300000      24.03400000
 H      12.28400000      25.48500000      23.58200000
 H      12.71400000      25.01700000      24.93500000
 O      18.66300000      25.78500000      16.11100000
 H      19.19900000      25.55800000      16.91200000
 H      18.71000000      26.73200000      16.03600000
 O      15.63200000      20.66500000      17.52600000
 H      14.96200000      20.00000000      17.33800000
 H      15.01300000      21.21100000      18.03200000
 O      20.18900000      26.46200000      19.30300000
 H      19.63700000      25.75200000      19.68000000
 H      19.76200000      27.18800000      19.77600000
 O      13.59500000      22.59200000      26.51300000
 H      14.03900000      23.13800000      25.91000000
 H      13.09900000      23.14300000      27.14700000
 O      19.81100000      21.51400000      20.90900000
 H      19.82200000      21.90700000      21.83200000
 H      19.13200000      20.77600000      20.95900000
 O      14.27300000      17.97900000      26.40000000
 H      14.75100000      17.40600000      27.08700000
 H      13.77900000      17.29500000      25.80700000
 O      10.91100000      25.50400000      21.76600000
 H       9.97600000      25.30800000      21.46200000
 H      11.51400000      25.38300000      20.98900000
 O      10.56400000      23.49000000      16.22000000
 H       9.62600000      23.28200000      16.44900000
 H      11.15000000      23.34200000      17.03700000
 O      11.47100000      18.47000000      19.45400000
 H      12.43400000      18.50600000      19.84000000
 H      11.22900000      17.52600000      19.53100000
 O      20.84600000      23.29700000      17.52200000
 H      21.03500000      24.25800000      17.41100000
 H      20.66700000      23.10000000      16.55200000
 O      19.27200000      24.37000000      26.45400000
 H      19.39200000      23.70700000      27.07500000
 H      18.70000000      23.97200000      25.75100000
 O      12.40700000      25.91700000      18.54900000
 H      12.09600000      25.07300000      18.16100000
 H      13.12100000      26.18600000      17.98800000
 C      15.72600000      14.11900000      16.29300000
 C      15.96400000      15.63300000      16.48000000
 C      15.95000000      16.34300000      13.98700000
 H      14.29000000      16.45300000      15.32000000
 H      15.88700000      14.03400000      18.07100000
 O      15.75600000      17.92100000      15.86900000
 O      15.30800000      13.61000000      15.24200000
 O      15.68600000      13.37100000      17.39400000
 C      15.35500000      16.58200000      15.37000000
 O      15.66900000      15.94900000      17.78200000
 H      17.11300000      15.72600000      16.42600000
 O      17.09800000      15.96200000      13.95300000
 O      15.24600000      16.72500000      12.91000000
 H      14.38100000      16.79600000      13.33400000
 H      15.76200000      16.98700000      17.88100000
 H      15.28000000      18.62300000      15.30300000
 O      13.05300000      19.04000000      22.94900000
 H      12.54300000      19.61300000      23.50700000
 H      12.54500000      18.20900000      22.95200000
 O      11.62900000      16.07500000      16.81200000
 H      11.38000000      16.32900000      17.73600000
 H      11.23200000      15.22100000      16.71300000
 O      11.10500000      20.93700000      15.62200000
 H      11.58300000      21.40600000      16.34000000
 H      10.60500000      21.67000000      15.19400000
 O      20.59100000      25.82900000      24.05700000
 H      20.90800000      25.75500000      25.03900000
 H      19.59900000      25.67000000      24.13400000
 O      19.08100000      23.89200000      19.60700000
 H      19.20500000      23.12400000      20.17100000
 H      19.61900000      23.64200000      18.82100000
 O      17.15000000      21.68200000      19.66400000
 H      16.92100000      21.02000000      18.98600000
 H      17.77300000      22.30100000      19.32600000
 O      13.94700000      20.74900000      21.09400000
 H      13.83600000      20.22400000      21.96000000
 H      14.15300000      21.73100000      21.36100000
 O      12.08700000      20.88300000      24.84500000
 H      12.77300000      20.87300000      25.57600000
 H      11.98900000      21.81300000      24.51000000
 O      13.16100000      19.20600000      17.06900000
 H      12.52800000      19.36500000      16.31200000
 H      12.49200000      19.19000000      17.80600000
 O      10.22500000      16.14900000      19.32800000
 H       9.30000000      15.86200000      19.35000000
 H      10.71200000      15.37800000      19.72500000
 O      11.11200000      18.34500000      26.96800000
 H      11.43100000      19.22000000      27.17600000
 H      10.59900000      18.52600000      26.15900000
 O      14.79900000      23.24000000      18.91900000
 H      15.41000000      24.03100000      18.82900000
 H      15.30500000      22.67000000      19.47800000
 O      18.04700000      19.90800000      15.46500000
 H      17.65800000      19.42300000      14.71500000
 H      17.36200000      19.87300000      16.14000000
 O      11.20700000      22.85200000      22.82200000
 H      11.11300000      23.72200000      22.33500000
 H      11.37600000      22.17100000      22.18200000
 O      19.73100000      21.25900000      26.91400000
 H      19.09500000      21.14300000      26.21800000
 H      20.37600000      20.52400000      26.74200000
 O      17.61800000      21.23900000      25.31100000
 H      16.98700000      20.61000000      24.83700000
 H      16.98400000      21.68100000      25.95700000
 O      10.02500000      26.28700000      26.36800000
 H       9.72900000      25.32700000      26.17600000
 H      10.61800000      26.28600000      27.10500000
 O      14.27400000      26.21200000      20.82100000
 H      14.17200000      25.49300000      20.08800000
 H      15.04400000      26.71800000      20.56400000
 O      19.61400000      18.98700000      18.58600000
 H      20.18600000      19.61800000      19.04100000
 H      19.52700000      18.29700000      19.26300000
 O      19.26900000      18.35000000      25.04100000
 H      19.27500000      18.02900000      26.01000000
 H      18.41700000      18.21600000      24.76200000
 O      16.98300000      18.35400000      18.42900000
 H      16.61300000      19.07500000      17.86000000
 H      17.92600000      18.45800000      18.30300000
 O      17.56500000      25.62900000      24.23300000
 H      17.25500000      26.51700000      23.98500000
 H      17.36000000      25.21100000      23.37800000
 O      18.73000000      23.07300000      23.16300000
 H      19.58100000      23.58800000      23.17600000
 H      19.01900000      22.33900000      23.81900000
 O      11.36800000      16.75100000      23.09400000
 H      11.38800000      15.84800000      22.65500000
 H      11.18900000      16.60400000      24.07800000
 O      17.21300000      17.07500000      22.30300000
 H      16.58200000      16.74400000      22.98000000
 H      17.14000000      18.06900000      22.33600000
 O      16.10100000      26.21400000      26.57300000
 H      15.97300000      27.09800000      26.33600000
 H      16.65200000      25.89100000      25.83800000
 O      11.89600000      22.91600000      18.64500000
 H      12.89100000      23.08500000      18.77000000
 H      11.55600000      22.43600000      19.42600000
 O      16.77800000      24.26600000      21.58300000
 H      17.42800000      23.92500000      22.26900000
 H      17.25500000      24.39800000      20.73400000
 O      14.23100000      23.33900000      22.09900000
 H      13.92500000      24.00300000      22.71600000
 H      15.17400000      23.45900000      21.93700000
 O      15.69000000      19.25400000      24.52600000
 H      14.95000000      19.81100000      24.30900000
 H      15.37100000      18.52700000      25.05800000
 O      14.37200000      18.01600000      19.95800000
 H      14.96800000      17.87100000      19.26000000
 H      14.65000000      18.86400000      20.35100000
 O      17.63400000      19.78000000      21.73500000
 H      17.40800000      20.56300000      21.20100000
 H      17.71600000      20.03300000      22.66500000
