120
XYZ file of cluster: frame_17500_74f8e.1364.79ee4 - created by MolEdiTo
 O      18.41000000       1.32400000      17.04400000
 H      17.45600000       1.36200000      16.82900000
 H      18.48800000       2.29100000      17.26900000
 O      16.53600000       5.96000000      19.65900000
 H      16.90600000       5.81200000      20.59500000
 H      15.71200000       5.35700000      19.52700000
 O      17.26900000       7.43400000      25.46700000
 H      17.62600000       7.74700000      24.58200000
 H      16.59600000       6.79200000      25.26600000
 O      16.80700000      10.10200000      18.78900000
 H      16.09400000      10.58500000      19.30000000
 H      16.34000000       9.25600000      18.38300000
 O      18.88700000       5.55400000      21.75600000
 H      19.44800000       5.61200000      20.99200000
 H      19.42900000       5.90200000      22.51300000
 O      25.54200000       4.73700000      20.65000000
 H      25.27400000       5.05800000      19.72500000
 H      25.20900000       3.79300000      20.55600000
 O      22.91000000       1.91400000      23.18700000
 H      23.28100000       2.12200000      24.04000000
 H      22.01700000       1.68300000      23.48700000
 O      25.61400000       7.71400000      19.60500000
 H      25.15900000       8.47000000      19.22600000
 H      25.35000000       6.87900000      19.08800000
 O      20.07500000       9.97000000      25.96700000
 H      20.31400000       9.26100000      25.35000000
 H      20.73000000       9.92100000      26.69800000
 O      17.68600000       4.14200000      25.66600000
 H      16.73800000       3.91800000      25.69800000
 H      18.15600000       3.39800000      25.17600000
 O      24.57000000       3.19100000      25.18000000
 H      25.10100000       3.75300000      25.83200000
 H      25.27000000       2.55600000      24.84800000
 O      21.35100000       2.68900000      17.07800000
 H      20.51800000       2.24800000      16.90700000
 H      21.16500000       3.63400000      17.02600000
 O      20.96900000       7.16100000      24.63300000
 H      21.64200000       6.54000000      24.28100000
 H      21.04600000       6.78800000      25.54100000
 O      17.97300000       4.21100000      16.60600000
 H      18.34400000       4.89500000      16.03300000
 H      17.08400000       4.52400000      16.68600000
 O      26.01700000       4.92200000      26.75200000
 H      26.48500000       5.41300000      26.06600000
 H      26.67100000       4.77000000      27.44200000
 O      16.61900000       1.77200000      20.31400000
 H      16.06800000       1.76100000      19.52000000
 H      17.45600000       2.07500000      19.82800000
 O      15.24200000       3.01200000      25.10500000
 H      15.83100000       2.28500000      24.81800000
 H      15.04000000       3.50800000      24.33000000
 O      24.50500000       9.54100000      22.45100000
 H      24.91300000      10.20500000      21.78200000
 H      24.90600000       8.67600000      22.10900000
 O      18.69100000       8.27900000      23.10100000
 H      18.62800000       7.94400000      22.21500000
 H      19.52300000       7.95000000      23.55500000
 O      24.46400000       2.30400000      20.94900000
 H      23.99600000       2.31900000      21.87300000
 H      23.89700000       1.75200000      20.42600000
 O      22.92100000       0.97600000      19.18000000
 H      22.69900000       0.15600000      18.64000000
 H      22.34200000       1.78400000      18.87300000
 O      18.12300000       7.30800000      17.89800000
 H      17.51200000       7.07800000      18.63900000
 H      18.86500000       6.56900000      17.91600000
 O      25.25900000       8.50700000      25.16100000
 H      24.38100000       8.35500000      24.77200000
 H      25.67800000       9.07100000      24.41100000
 O      24.62100000       5.19900000      18.22000000
 H      23.92100000       5.53800000      17.58200000
 H      24.53200000       4.22600000      17.96900000
 O      21.18000000       2.11800000      26.06900000
 H      21.84700000       2.77800000      26.48700000
 H      20.32600000       2.60300000      26.04000000
 O      18.28500000       1.96200000      24.11200000
 H      18.66600000       1.65600000      23.31400000
 H      18.21000000       1.13100000      24.62900000
 O      18.82400000       3.22400000      19.63600000
 H      19.77000000       3.21600000      19.99600000
 H      18.75700000       3.79600000      18.88700000
 O      21.75900000       5.48400000      16.86000000
 H      22.36700000       6.08500000      16.33200000
 H      21.49400000       6.12500000      17.50400000
 O      22.48800000       5.52100000      21.76000000
 H      22.34300000       6.44000000      21.46200000
 H      23.44300000       5.26500000      21.68400000
 O      23.76400000       5.74700000      24.43800000
 H      23.37900000       5.89100000      25.33000000
 H      24.09700000       4.81200000      24.46300000
 O      16.52900000       3.98300000      22.12900000
 H      17.35500000       4.50900000      22.38600000
 H      16.85000000       3.13700000      21.74700000
 O      24.42300000      10.26500000      18.83600000
 H      23.47500000      10.67800000      18.78400000
 H      24.84100000      10.69300000      19.62200000
 O      19.84600000       8.32400000      15.81900000
 H      19.03700000       7.98500000      16.42000000
 H      19.53200000       9.23600000      15.71800000
 O      19.43500000       9.76600000      20.22100000
 H      18.54800000       9.63100000      19.76100000
 H      19.24700000       9.90200000      21.19400000
 O      20.37100000       6.69000000      19.35200000
 H      20.26200000       7.69400000      19.52700000
 H      21.11700000       6.45800000      19.98100000
 O      22.50000000       8.08700000      20.82300000
 H      22.89300000       8.35400000      20.00400000
 H      22.47100000       8.92600000      21.30400000
 O      25.66200000       6.76000000      22.50300000
 H      25.48100000       6.25300000      21.64800000
 H      25.06500000       6.45100000      23.16300000
 O      24.28000000       2.68500000      16.88200000
 H      24.57700000       3.00800000      16.03900000
 H      23.43700000       2.21200000      16.76500000
 O      21.39500000       3.03200000      20.80100000
 H      21.39400000       2.34300000      21.52700000
 H      22.00900000       3.76100000      21.10700000
 O      23.56600000       7.86800000      16.65500000
 H      24.45900000       8.07600000      16.89400000
 H      23.32400000       8.70100000      16.12100000
