141
XYZ file of cluster: frame_17500_0.7608e.1fe60 - created by MolEdiTo
 O       2.80300000      22.81900000       5.14200000
 H       2.28500000      21.96700000       5.23100000
 H       3.62800000      22.56700000       5.68300000
 O       0.91900000      20.48000000      10.21300000
 H       0.00000000      20.66600000      10.66400000
 H       1.07400000      19.51000000      10.23500000
 O       9.16600000      21.51400000       9.68300000
 H       9.72200000      21.58400000       8.91300000
 H       9.70000000      21.11900000      10.35400000
 O       7.80000000      17.25400000      13.74400000
 H       7.86900000      16.42100000      13.15200000
 H       7.03600000      17.10900000      14.25000000
 O       2.19600000      24.94100000      15.55300000
 H       3.13900000      24.96700000      15.16500000
 H       2.22200000      25.88100000      15.88800000
 O       1.43000000      25.63200000      10.28300000
 H       1.64000000      26.50200000       9.86000000
 H       1.21200000      24.93600000       9.54400000
 O       4.12400000      16.00100000       9.36500000
 H       3.19500000      15.89100000       9.67500000
 H       3.90000000      16.18600000       8.37800000
 O       4.91500000      19.36600000      12.64000000
 H       4.85000000      18.96500000      13.51200000
 H       5.73500000      19.99800000      12.79400000
 O       0.77600000      25.40000000      13.20300000
 H       1.08100000      25.14600000      14.13200000
 H       1.26300000      24.86000000      12.61800000
 O       3.92800000      24.58500000      11.69300000
 H       3.97500000      24.25500000      10.70900000
 H       3.12900000      25.16000000      11.63100000
 O       8.22500000      15.50100000       9.27400000
 H       8.12800000      16.44800000       9.68400000
 H       8.61900000      15.69000000       8.39500000
 O       5.29700000      21.43300000       6.01400000
 H       6.24500000      21.23600000       5.95000000
 H       5.27500000      21.56500000       7.00500000
 O       4.75500000      25.19500000      14.26700000
 H       4.34700000      24.93300000      13.37000000
 H       5.59700000      24.71900000      14.37900000
 O       5.77800000      19.01100000       9.28200000
 H       6.71500000      18.83100000       9.44400000
 H       5.39300000      19.58700000      10.02800000
 O       3.99400000      23.65500000       9.20000000
 H       4.74900000      23.08500000       8.85900000
 H       3.26700000      23.14300000       8.69700000
 O       2.91700000      19.15700000       7.87000000
 H       3.50000000      18.83400000       8.60900000
 H       3.51500000      18.89500000       7.05200000
 O      10.50000000      18.69500000      13.99800000
 H       9.48700000      18.84300000      14.20000000
 H      11.05500000      19.47100000      14.23800000
 O       1.96300000      21.82700000       8.07400000
 H       1.65500000      21.56400000       8.94900000
 H       2.04800000      20.90300000       7.65000000
 O       9.80300000      23.41800000      13.49500000
 H       8.99600000      24.04600000      13.46200000
 H      10.37300000      23.72400000      14.19600000
 O      10.37200000      23.76800000       7.41800000
 H      10.87000000      24.47400000       7.93600000
 H       9.49600000      23.75600000       7.71300000
 O       7.10100000      21.64300000      12.43200000
 H       7.47100000      22.50000000      12.15700000
 H       7.64200000      21.08300000      11.78900000
 O       4.44100000      25.35800000       6.77600000
 H       3.82600000      26.08500000       6.87000000
 H       4.31200000      24.82200000       7.55300000
 O       9.99900000      25.13700000       4.47900000
 H       9.10300000      25.14400000       4.11200000
 H       9.69400000      25.05800000       5.41600000
 O       1.51200000      20.26400000       5.37300000
 H       1.31600000      19.58200000       4.71300000
 H       1.53600000      19.70800000       6.19400000
 O       2.45600000      21.34400000      12.45400000
 H       1.65000000      21.11100000      11.89700000
 H       2.97900000      20.60400000      12.10100000
 O      10.97100000      23.36800000      11.15400000
 H      10.63100000      23.30700000      12.09100000
 H      10.21000000      23.04800000      10.61200000
 O       8.41100000      21.45600000       5.95100000
 H       9.27900000      21.39400000       5.43100000
 H       8.10700000      20.54500000       6.21100000
 O       7.30900000      19.10800000       6.39600000
 H       6.95700000      18.98400000       5.45700000
 H       7.18100000      18.18300000       6.74100000
 O       7.92200000      19.04900000      11.24800000
 H       8.66300000      18.81300000      10.66100000
 H       7.75000000      18.27600000      11.79600000
 O       1.46300000      19.12100000      16.05300000
 H       1.32400000      19.69700000      15.23800000
 H       0.67800000      18.46000000      16.03800000
 O       4.73800000      26.88900000      10.13800000
 H       4.72600000      26.01600000      10.58500000
 H       4.46400000      27.48900000      10.95200000
 O       9.11300000      18.52700000       8.73100000
 H       8.64000000      19.15600000       8.21000000
 H       9.53200000      18.00300000       8.03700000
 O       2.51900000      18.23300000      11.23400000
 H       2.34700000      17.32400000      10.92500000
 H       3.48000000      18.31400000      11.36300000
 O       4.02800000      18.97600000       5.14600000
 H       4.16600000      19.89400000       5.46500000
 H       4.47700000      18.81800000       4.28700000
 O       1.39300000      24.57200000       7.67000000
 H       0.66600000      24.57400000       7.03200000
 H       1.34600000      23.62500000       7.77000000
 O      10.58900000      16.86300000      11.30800000
 H      10.35800000      15.96000000      10.97400000
 H      10.34100000      16.78700000      12.30300000
 O       7.82600000      24.27700000       8.60300000
 H       7.66700000      25.15900000       8.14100000
 H       7.93200000      24.53200000       9.55000000
 O       1.38900000      15.98600000       9.84100000
 H       1.26100000      15.19400000       9.24000000
 H       0.54000000      16.41500000       9.91400000
 O       8.03700000      25.65700000      14.24100000
 H       8.59200000      26.44000000      14.34200000
 H       7.74300000      25.44300000      15.12500000
 O       3.72100000      16.17200000       6.43400000
 H       3.11100000      16.77400000       5.95000000
 H       4.66400000      16.43400000       6.24500000
 O       7.25400000      16.28600000       6.39100000
 H       7.56000000      16.43800000       5.44600000
 H       7.80800000      15.52400000       6.60300000
 O       6.82200000      22.42900000      15.18700000
 H       6.95000000      21.48400000      15.43200000
 H       6.97000000      22.38700000      14.24500000
 O       7.16400000      24.76700000       5.67900000
 H       7.40000000      23.96500000       6.22700000
 H       6.15300000      24.86000000       5.81400000
 O      10.03300000      15.69900000      14.30200000
 H       9.06400000      15.50300000      14.54800000
 H      10.24600000      16.47900000      14.86500000
 O       3.92200000      22.55100000      14.80800000
 H       3.68700000      22.18800000      13.87300000
 H       4.59700000      23.26900000      14.70400000
 O       6.12400000      22.02800000       8.55100000
 H       6.91400000      22.71900000       8.70300000
 H       6.50500000      21.28900000       9.08600000
 O       7.82100000      25.19900000      11.31500000
 H       7.50200000      25.31700000      12.23700000
 H       8.81300000      25.42200000      11.34200000
