93
XYZ file of cluster: frame_17500_c76ba.c1b72.46df - created by MolEdiTo
 O      26.66500000      26.12400000       2.78700000
 H      27.30600000      26.42100000       3.33600000
 H      26.92700000      25.16600000       2.60800000
 O      29.23200000      27.06100000      10.96900000
 H      29.59500000      26.23000000      10.87800000
 H      29.67500000      27.66300000      10.31300000
 O      25.67800000      28.68200000       9.88200000
 H      25.64100000      28.85500000      10.82300000
 H      26.66100000      28.84100000       9.70200000
 O      27.53400000      30.06600000       5.40200000
 H      28.32900000      30.51500000       5.67400000
 H      27.60300000      30.16100000       4.41500000
 O      30.07500000      26.96800000       2.96400000
 H      30.14600000      26.75000000       1.98900000
 H      31.02900000      26.95800000       3.23200000
 O      28.51800000      29.78800000       9.25300000
 H      28.28100000      30.31400000       8.45600000
 H      29.03600000      29.04400000       8.86000000
 O      29.38300000      29.53900000       2.84200000
 H      29.60300000      28.64300000       3.19500000
 H      29.21700000      29.43800000       1.91000000
 O      28.93900000      27.79100000       7.18800000
 H      28.98600000      26.80800000       6.91400000
 H      28.10300000      28.09700000       6.76600000
 O      29.09300000      33.84700000       7.70900000
 H      29.38000000      33.72500000       6.76800000
 H      28.19500000      34.08100000       7.62500000
 O      29.60400000      37.26400000       8.67100000
 H      29.74900000      37.76300000       7.82100000
 H      29.70000000      36.40700000       8.33000000
 O      29.61800000      34.76900000       1.44800000
 H      29.99000000      35.07800000       0.57100000
 H      30.01100000      35.31100000       2.16400000
 O      29.60300000      33.23800000       4.79400000
 H      30.33000000      32.70500000       5.09800000
 H      29.44600000      32.84600000       3.87900000
 O      30.39100000      35.85100000       5.68400000
 H      30.03200000      35.16500000       5.06400000
 H      29.71500000      36.56000000       5.59200000
 O      27.14900000      36.12000000      11.10500000
 H      26.65400000      35.99900000      10.27800000
 H      27.41700000      37.10700000      10.96300000
 O      26.57700000      35.52700000       7.15800000
 H      25.69700000      35.47600000       6.76300000
 H      26.71400000      36.40700000       7.43300000
 O      35.17900000      28.06800000       2.62700000
 H      35.58800000      28.17200000       3.53100000
 H      34.50200000      28.78900000       2.70600000
 O      32.72600000      28.18300000       5.67500000
 H      31.73800000      28.23400000       5.82800000
 H      32.83600000      27.22700000       5.81600000
 O      32.82100000      25.63200000      10.28300000
 H      33.03100000      26.50200000       9.86000000
 H      32.60300000      24.93600000       9.54400000
 O      35.85900000      28.39900000       7.71100000
 H      35.75300000      27.96900000       8.56700000
 H      35.37700000      29.28500000       7.69100000
 O      33.55300000      28.57400000       9.95700000
 H      33.17300000      29.36100000       9.53400000
 H      34.09600000      29.13900000      10.67600000
 O      36.06800000      30.35700000      10.57000000
 H      36.19200000      30.82000000      11.40700000
 H      35.32200000      30.85300000      10.11000000
 O      36.12900000      26.88900000      10.13800000
 H      36.11700000      26.01600000      10.58500000
 H      35.85500000      27.48900000      10.95200000
 O      36.66400000      27.44600000       4.98500000
 H      36.50800000      27.97500000       5.75400000
 H      36.39600000      26.56200000       5.26900000
 O      32.54800000      32.66400000       8.96200000
 H      31.70500000      32.82100000       8.52900000
 H      32.91400000      33.54500000       8.98700000
 O      33.35200000      32.29400000       5.44300000
 H      33.28400000      31.42700000       5.83100000
 H      34.30100000      32.52600000       5.53200000
 O      32.76200000      32.42900000       1.23800000
 H      32.13300000      31.86000000       1.71700000
 H      32.66400000      33.29200000       1.61000000
 O      35.29100000      32.86300000       7.13700000
 H      34.80300000      33.41600000       7.81300000
 H      36.01800000      33.38600000       7.09500000
 O      37.15000000      35.77600000       3.26200000
 H      36.48400000      35.44900000       3.81500000
 H      37.30300000      35.04500000       2.58000000
 O      33.36300000      34.85000000       7.63800000
 H      32.61300000      34.87800000       7.03700000
 H      33.41700000      35.83100000       7.89700000
 O      35.09300000      35.41200000       5.42900000
 H      34.67700000      34.60900000       5.86900000
 H      34.84200000      36.15900000       6.07700000
 O      33.58500000      34.97300000       3.00200000
 H      33.59500000      35.87000000       3.45200000
 H      33.91400000      34.37300000       3.70600000
