117
XYZ file of cluster: frame_17500_9a39e.20355.355f - created by MolEdiTo
 O      21.80500000       4.97100000       5.70600000
 H      21.24700000       5.76300000       5.43100000
 H      21.40700000       4.14600000       5.44600000
 O      26.75200000      14.49400000       5.23000000
 H      27.01900000      15.20100000       4.54600000
 H      27.65000000      14.18100000       5.37800000
 O      29.32300000      11.94800000       7.99900000
 H      29.55400000      11.75200000       7.06700000
 H      29.48200000      12.87600000       7.96200000
 O      27.61700000      15.69500000       7.98900000
 H      28.22100000      16.41500000       8.31800000
 H      26.91700000      15.53300000       8.65300000
 O      24.73000000       5.08300000       9.62000000
 H      25.10300000       5.79400000       9.14800000
 H      23.85200000       4.99100000       9.19100000
 O      28.02300000       7.17800000      10.61900000
 H      28.54600000       6.96100000       9.79900000
 H      27.57700000       8.01000000      10.31400000
 O      28.60400000       6.41700000       4.36300000
 H      28.00200000       6.66600000       3.57300000
 H      29.38700000       6.92800000       4.03200000
 O      25.99700000       6.95500000       7.47600000
 H      26.92200000       7.20600000       7.45100000
 H      25.66800000       7.70300000       8.00100000
 O      20.75600000      11.42500000       5.65400000
 H      19.83000000      11.25600000       5.83700000
 H      21.12200000      10.98900000       6.46700000
 O      26.04600000      11.83700000       3.55200000
 H      25.82200000      12.66400000       4.07600000
 H      25.13200000      11.50800000       3.27200000
 O      26.09900000      15.76500000       0.82900000
 H      25.54300000      15.06100000       1.27300000
 H      26.50400000      16.22300000       1.59100000
 O      22.60800000      13.77000000       8.22400000
 H      22.28600000      14.53700000       7.68500000
 H      23.42200000      14.21000000       8.54800000
 O      23.24800000       8.10300000       6.37500000
 H      23.96300000       7.99100000       7.08100000
 H      22.71100000       7.28100000       6.35100000
 O      21.68700000       7.14700000       3.13000000
 H      21.43700000       8.06100000       3.22100000
 H      22.61400000       7.18400000       3.32700000
 O      23.70700000      10.57300000       3.14300000
 H      23.72700000       9.63500000       3.22400000
 H      23.14200000      10.67200000       2.36200000
 O      25.65600000      11.68500000       9.79900000
 H      25.35300000      12.38200000       9.13800000
 H      25.78700000      12.24100000      10.62200000
 O      28.60800000      12.32500000       2.64300000
 H      27.71200000      11.87700000       2.88300000
 H      28.55200000      12.53100000       1.63800000
 O      23.13900000      12.95000000       5.30500000
 H      22.70100000      12.08100000       4.90800000
 H      22.52900000      13.17300000       6.02700000
 O      24.68800000       5.86200000       3.84400000
 H      25.51600000       5.66700000       4.16200000
 H      24.02600000       5.57900000       4.46700000
 O      21.32600000      10.95100000       8.30200000
 H      21.41000000      10.05800000       8.59700000
 H      22.18900000      11.41600000       8.43300000
 O      23.59500000      14.99500000      10.94400000
 H      22.77000000      14.52500000      10.70600000
 H      23.68800000      15.87200000      10.46800000
 O      29.27000000      13.96400000       5.11600000
 H      29.44000000      13.40800000       4.30300000
 H      29.77800000      14.79700000       5.09800000
 O      24.50600000       9.11100000       8.90200000
 H      24.80300000       9.92900000       8.50900000
 H      24.75100000       9.11700000       9.82600000
 O      21.63700000      10.40700000      11.35000000
 H      21.43800000      10.55300000      10.40200000
 H      21.62700000      11.30000000      11.78800000
 O      25.47500000      13.64500000       7.57300000
 H      26.35300000      14.11600000       7.41700000
 H      25.26000000      13.27500000       6.71300000
 O      28.48100000       7.59400000       6.80100000
 H      28.55300000       8.56000000       6.56300000
 H      28.55800000       7.06900000       6.00900000
 O      28.85700000      10.24800000       5.68700000
 H      28.17800000      10.87600000       5.84900000
 H      28.98600000      10.22400000       4.74000000
 O      30.30100000      14.55100000       7.80500000
 H      29.43800000      14.92700000       7.50500000
 H      30.76700000      14.23400000       6.99300000
 O      27.14900000       4.69300000      11.10500000
 H      26.65400000       4.57200000      10.27800000
 H      27.41700000       5.68000000      10.96300000
 O      27.22400000       8.30700000       1.18000000
 H      27.83900000       8.61400000       1.87300000
 H      27.17200000       8.92100000       0.43000000
 O      29.60400000       5.83700000       8.67100000
 H      29.74900000       6.33600000       7.82100000
 H      29.70000000       4.98000000       8.33000000
 O      25.56100000      10.15200000       5.92700000
 H      24.65000000       9.81900000       5.96800000
 H      25.70500000      10.24300000       4.98000000
 O      20.87000000      12.85800000       1.59700000
 H      20.89200000      13.80200000       1.84100000
 H      21.69200000      12.59500000       1.23800000
 O      27.59300000       9.79700000       9.27800000
 H      26.82800000      10.50000000       9.26700000
 H      28.41000000      10.22700000       8.87800000
 O      23.64400000      15.34300000       3.14400000
 H      23.74700000      14.71700000       3.87100000
 H      23.40800000      16.25700000       3.41900000
 O      20.76900000      10.07200000       2.89300000
 H      20.36300000      10.83900000       2.37700000
 H      20.93200000      10.57200000       3.78900000
 O      29.09600000       9.46200000       2.79400000
 H      29.61600000       9.02400000       2.05900000
 H      29.33300000      10.40900000       2.77000000
 O      24.65500000       7.95700000       2.29000000
 H      24.97600000       7.19200000       2.84200000
 H      25.53800000       8.16000000       1.93100000
 O      24.16000000      13.25600000       1.49600000
 H      24.61800000      12.55300000       1.97800000
 H      23.74600000      13.93300000       2.15100000
