105
XYZ file of cluster: frame_8000_1cf9.c498d.486cc - created by MolEdiTo
 O       6.26000000      26.75100000      11.61200000
 H       5.70400000      27.49100000      11.97100000
 H       6.22800000      26.79600000      10.59800000
 O       8.27500000      28.78000000      12.79000000
 H       7.91500000      27.86000000      12.57600000
 H       8.34900000      28.72600000      13.70200000
 O       1.50500000      27.27400000      15.73100000
 H       1.51000000      27.76300000      16.62600000
 H       2.07100000      27.91900000      15.18700000
 O      10.29400000      26.55000000      11.37700000
 H      10.91900000      27.28400000      11.69600000
 H       9.60100000      26.95600000      10.76500000
 O       6.52500000      26.12300000      17.12900000
 H       7.27500000      26.76400000      17.20900000
 H       6.69700000      25.43900000      17.79700000
 O       6.81600000      27.71700000      14.53000000
 H       6.15600000      27.00700000      14.53400000
 H       7.17000000      27.72700000      15.46000000
 O       1.44700000      25.68100000      14.61100000
 H       1.51600000      26.32600000      15.31500000
 H       1.02500000      26.09900000      13.84000000
 O       2.80000000      29.45500000      14.62800000
 H       2.30800000      30.14800000      15.05700000
 H       3.67400000      29.74600000      14.88200000
 O       3.77900000      25.97300000      18.63400000
 H       3.00800000      26.58800000      18.47100000
 H       4.44600000      26.43000000      18.13600000
 O       8.88600000      28.23300000      19.93300000
 H       9.34800000      28.69100000      20.62700000
 H       8.59700000      28.98500000      19.47600000
 O       3.55700000      28.31400000       9.82900000
 H       4.20100000      28.89500000       9.33800000
 H       3.69200000      28.50600000      10.78600000
 O       8.28400000      30.68600000      16.43700000
 H       7.46000000      31.17200000      16.69900000
 H       9.02900000      31.30200000      16.44100000
 O       4.37800000      28.89900000      12.53400000
 H       4.54400000      29.66900000      13.11400000
 H       4.12300000      28.27100000      13.24800000
 O       1.28900000      29.09600000      18.20200000
 H       0.68100000      29.23200000      18.99900000
 H       1.47500000      29.97000000      17.86800000
 O       8.72600000      27.93100000      16.84200000
 H       9.11700000      28.87500000      16.87900000
 H       9.43000000      27.34600000      16.41600000
 O       5.58900000      30.32900000      14.53400000
 H       5.79000000      29.45600000      14.24800000
 H       6.39100000      30.66200000      14.99700000
 O       1.17100000      34.38100000      10.62700000
 H       0.88500000      33.86400000      11.42900000
 H       1.97900000      33.92800000      10.27500000
 O       8.30300000      32.69900000      10.93500000
 H       9.20200000      33.05600000      10.76700000
 H       8.48300000      31.83100000      11.26000000
 O       9.29900000      35.18700000      19.95800000
 H       8.90100000      36.09300000      19.90700000
 H      10.25700000      35.36000000      19.99100000
 O       0.92100000      35.73500000      15.90900000
 H       0.23200000      35.54800000      15.21700000
 H       1.62500000      36.00400000      15.38600000
 O       7.70100000      32.90200000      19.85000000
 H       7.17600000      33.03600000      18.99800000
 H       8.39100000      33.61400000      19.86200000
 O      11.16700000      34.05000000      17.46000000
 H      10.32900000      34.48000000      17.77100000
 H      11.69500000      33.82400000      18.18100000
 O       5.39400000      36.73600000      20.88000000
 H       6.17100000      36.86700000      20.19300000
 H       4.95800000      35.93500000      20.59500000
 O       5.71700000      33.12600000      17.57600000
 H       5.13700000      33.73500000      17.02600000
 H       5.46200000      33.37300000      18.51900000
 O       4.01500000      35.74200000      12.57700000
 H       3.42300000      36.34500000      12.11600000
 H       4.70000000      35.52700000      11.98700000
 O       3.45800000      36.37700000      15.04500000
 H       3.85500000      36.11600000      14.08500000
 H       2.97500000      37.21600000      14.87800000
 O       6.35700000      34.84200000      14.24800000
 H       7.24900000      35.17600000      14.37800000
 H       6.19700000      34.18600000      14.91400000
 O       2.03800000      33.66300000      13.57000000
 H       2.72000000      34.28000000      13.25400000
 H       2.22400000      33.41300000      14.53600000
 O       7.98400000      35.55500000      16.22800000
 H       8.54200000      35.84900000      15.51500000
 H       7.15700000      35.45600000      15.80400000
 O       8.95200000      35.57800000      14.56400000
 H       9.55600000      35.00500000      14.12000000
 H       9.17100000      36.51900000      14.33400000
 O       2.45500000      33.32200000      16.00900000
 H       1.88600000      34.12300000      16.05000000
 H       3.42300000      33.66700000      16.24800000
 O       3.32900000      34.26500000      19.38700000
 H       2.40700000      34.14400000      19.03900000
 H       3.19700000      34.37900000      20.30500000
 O       4.51600000      35.13100000      15.81900000
 H       4.63400000      35.90800000      16.54400000
 H       4.29600000      35.68300000      15.04200000
 O       6.70500000      35.32100000      11.38200000
 H       6.69500000      34.51900000      10.84300000
 H       6.84500000      34.99800000      12.26600000
 O       1.96000000      37.21200000      11.54500000
 H       1.06900000      36.78000000      11.49500000
 H       2.23300000      37.37200000      10.62500000
