126
XYZ file of cluster: frame_8000_70538.9a749.5fed - created by MolEdiTo
 O      21.29300000      27.35400000       6.41000000
 H      20.40400000      27.68000000       6.65400000
 H      21.44800000      26.55600000       7.03400000
 O      24.27500000      23.21100000       8.64200000
 H      23.52700000      22.68500000       8.99200000
 H      24.79600000      23.48400000       9.40500000
 O      19.36300000      26.17000000       9.95400000
 H      20.05000000      26.71000000      10.39300000
 H      19.37700000      25.32500000      10.46100000
 O      23.50500000      23.54700000       6.08800000
 H      23.85700000      24.37800000       5.71300000
 H      23.84200000      23.37700000       7.00800000
 O      15.58200000      24.77400000       7.53300000
 H      15.02500000      25.36200000       8.10100000
 H      16.20800000      24.56200000       8.20200000
 O      22.30200000      24.63300000       7.46600000
 H      22.74800000      25.42300000       7.93300000
 H      23.05400000      24.23900000       6.94200000
 O      17.02800000      29.29100000       2.81000000
 H      17.66000000      29.37500000       3.57100000
 H      17.58100000      29.05900000       2.02200000
 O      15.62900000      22.50100000       3.79400000
 H      15.33000000      21.95700000       2.96500000
 H      16.42400000      22.81600000       3.31000000
 O      23.12000000      20.85900000       1.76100000
 H      22.70800000      19.98600000       2.08600000
 H      22.31100000      21.47200000       1.78800000
 O      26.12900000      22.04400000       6.52700000
 H      25.90100000      22.28900000       5.62100000
 H      25.67800000      22.67500000       7.08400000
 O      22.23800000      22.44800000      10.17600000
 H      22.49700000      23.41400000      10.47600000
 H      21.95100000      22.34300000       9.22900000
 O      15.87500000      30.76600000      10.35700000
 H      15.72400000      29.75200000      10.20400000
 H      15.02300000      30.92900000      10.89000000
 O      22.81500000      20.44300000       6.16100000
 H      23.17400000      21.33100000       5.91600000
 H      22.99000000      20.54200000       7.12800000
 O      22.96100000      26.19600000       8.61600000
 H      23.69700000      26.75500000       8.40200000
 H      23.51900000      25.55500000       9.14000000
 O      15.65900000      26.39700000       4.98000000
 H      15.61500000      25.62600000       5.62400000
 H      15.40700000      27.19200000       5.47000000
 O      20.08600000      21.34100000       5.14600000
 H      19.37000000      20.69600000       4.94900000
 H      19.78200000      22.12300000       4.71100000
 O      15.35300000      26.74100000       1.82400000
 H      15.71000000      26.51000000       2.71400000
 H      14.39200000      26.70000000       2.02200000
 O      19.97700000      30.45700000       7.21300000
 H      20.72500000      31.06800000       7.40600000
 H      19.76500000      30.00900000       8.06300000
 O      22.46600000      27.73000000      10.03500000
 H      21.72700000      28.31100000       9.77700000
 H      22.93300000      27.42300000       9.22500000
 O      19.20200000      24.42700000       6.97200000
 H      20.13800000      24.25300000       7.01100000
 H      18.76400000      23.81700000       7.66600000
 O      22.21800000      28.70300000       1.96800000
 H      22.65500000      27.98000000       2.40300000
 H      22.18600000      29.35200000       2.74100000
 O      26.20700000      23.66800000       0.77800000
 H      25.90800000      24.66000000       0.77300000
 H      25.39600000      23.13800000       0.78100000
 O      21.40500000      21.15700000       7.74200000
 H      20.74600000      21.17200000       6.97200000
 H      22.05600000      20.55600000       7.37800000
 O      23.74800000      25.50300000       3.55300000
 H      24.61900000      25.70100000       3.97800000
 H      23.28600000      26.38200000       3.77900000
 O      16.84500000      25.26500000       9.85200000
 H      17.67300000      25.73300000       9.60000000
 H      17.20100000      24.31600000       9.57200000
 O      22.34600000      28.74900000       6.89800000
 H      22.93800000      28.64000000       6.12100000
 H      21.63500000      28.11600000       6.73000000
 O      25.05400000      27.96700000       8.28800000
 H      25.67300000      28.27200000       8.96500000
 H      24.43600000      28.79900000       8.16700000
 O      24.68900000      21.65900000       3.88400000
 H      25.12200000      21.33600000       3.07600000
 H      23.75800000      21.72500000       3.54200000
 O      26.02600000      26.49600000       0.90800000
 H      26.61900000      26.94300000       1.53800000
 H      25.15800000      27.00200000       0.90100000
 O      18.09100000      22.69900000       8.97000000
 H      18.57600000      22.17400000       9.64100000
 H      17.89600000      21.94200000       8.41200000
 O      18.58500000      27.25400000       7.04000000
 H      18.62700000      26.23000000       6.86000000
 H      17.68400000      27.34900000       7.40200000
 O      15.30200000      30.45800000       5.46600000
 H      15.09600000      29.59900000       5.85100000
 H      16.02700000      30.85200000       6.02800000
 O      19.63100000      23.67300000       3.72900000
 H      18.72700000      23.79100000       3.51900000
 H      19.76800000      24.45700000       4.32500000
 O      23.86400000      28.18200000       3.85400000
 H      24.66000000      28.48600000       4.26200000
 H      24.09200000      28.16900000       2.88200000
 O      25.62200000      26.23700000       5.55900000
 H      25.70100000      27.20000000       5.45700000
 H      26.29900000      26.14500000       6.34000000
 O      15.92100000      22.39600000      11.14000000
 H      16.09200000      22.15000000      10.23100000
 H      15.10700000      21.94100000      11.41700000
 O      22.83500000      22.23300000       3.79600000
 H      22.06800000      22.02200000       4.36500000
 H      23.34700000      22.87000000       4.38200000
 O      19.06600000      27.15900000       1.23300000
 H      20.02100000      26.98800000       1.32400000
 H      18.72700000      26.74600000       2.08900000
 O      25.93600000      29.25300000       5.20600000
 H      26.60300000      29.03100000       4.52100000
 H      26.47300000      29.36300000       5.99800000
 O      18.26200000      26.35900000       3.79400000
 H      17.37000000      26.22500000       4.10100000
 H      18.79100000      26.96100000       4.39600000
 O      21.33700000      25.25000000       2.14100000
 H      21.00700000      24.41200000       2.59100000
 H      22.25600000      25.07900000       2.34800000
 O      18.84400000      29.41400000       4.85000000
 H      19.65200000      28.83300000       5.01100000
 H      18.78300000      30.01100000       5.64300000
