123
XYZ file of cluster: frame_8000_4b10f.2821e.c3474 - created by MolEdiTo
 O      18.91400000      16.10300000      29.70900000
 H      19.81400000      16.38700000      29.47800000
 H      18.87400000      15.20500000      29.30600000
 O      16.57200000       6.88500000      27.54600000
 H      16.76300000       5.93800000      27.94900000
 H      16.09500000       6.60100000      26.70600000
 O      19.81500000      13.70600000      28.73400000
 H      20.69600000      13.45900000      28.58000000
 H      19.41800000      13.01600000      28.22100000
 O      20.10500000       9.25900000      29.27500000
 H      20.48400000       8.37100000      29.20700000
 H      19.14000000       9.11500000      29.13700000
 O      14.43200000      13.54500000      30.35600000
 H      14.86900000      14.47800000      30.26900000
 H      14.02600000      13.37100000      29.49500000
 O      14.63100000       6.95800000      29.68800000
 H      14.03100000       6.18200000      29.45900000
 H      14.76500000       7.37500000      28.81300000
 O      11.67100000       7.04200000      26.91400000
 H      10.86800000       7.62500000      26.66600000
 H      12.19500000       7.52900000      27.61400000
 O      19.49000000       7.51800000      26.14600000
 H      19.21200000       7.49100000      25.17800000
 H      18.61800000       7.32200000      26.61000000
 O      11.07800000      10.17700000      28.32000000
 H      10.30700000      10.64900000      28.80900000
 H      10.59800000       9.69200000      27.61200000
 O      20.05400000      14.81300000      25.70700000
 H      19.74800000      15.69900000      25.44300000
 H      20.12400000      14.81200000      26.68800000
 O      12.28900000       5.41400000      26.13500000
 H      12.26100000       6.37700000      26.42100000
 H      13.18900000       5.19300000      25.76100000
 O      13.87400000       8.94900000      28.86000000
 H      14.12500000       9.65900000      29.49100000
 H      12.93100000       8.93900000      28.75300000
 O       9.83800000       7.34400000      29.72300000
 H      10.50000000       7.51400000      30.44200000
 H       9.94700000       6.48700000      29.31400000
 O      20.72700000       6.33900000      27.48900000
 H      20.62000000       6.99300000      26.80400000
 H      20.16600000       5.55300000      27.15900000
 O      12.46000000      12.58100000      28.21200000
 H      12.00600000      12.29100000      27.35700000
 H      12.29100000      11.83000000      28.85900000
 O      20.17800000      11.82100000      26.29200000
 H      20.17900000      12.77200000      25.98300000
 H      21.13300000      11.63800000      26.50500000
 O      14.77900000      14.67300000      26.90900000
 H      15.31900000      13.91100000      26.48500000
 H      13.85200000      14.33400000      27.01900000
 O      17.90400000      11.43800000      27.91400000
 H      18.61000000      11.12600000      27.23000000
 H      17.23600000      10.66000000      27.87200000
 O      10.39300000       6.12800000      28.26700000
 H       9.61800000       5.86200000      27.73200000
 H      10.78000000       6.76300000      27.58600000
 O      16.75500000       8.71600000      28.49800000
 H      15.78400000       8.77000000      28.37300000
 H      16.97200000       7.75000000      28.31200000
 O      16.97700000      10.53900000      30.55700000
 H      17.50400000      10.03800000      29.92900000
 H      17.56100000      11.32700000      30.49800000
 O      17.91400000       6.51600000      32.38400000
 H      18.69300000       5.89200000      32.39600000
 H      17.51600000       6.31100000      31.49700000
 O      14.20400000      10.74300000      33.27300000
 H      15.17500000      10.81300000      32.98900000
 H      13.69400000      11.34100000      32.68400000
 O      20.52200000       5.95900000      34.00200000
 H      20.17400000       6.22400000      34.92700000
 H      21.41600000       5.67100000      34.36700000
 O      11.87700000       9.19900000      34.83000000
 H      12.31300000      10.07100000      34.72200000
 H      11.22400000       9.37000000      35.58000000
 O      18.73100000      12.95900000      32.54100000
 H      19.26200000      12.11100000      32.57000000
 H      19.19400000      13.43100000      31.75900000
 O      20.70000000      10.86800000      33.05800000
 H      21.51100000      10.28800000      33.33600000
 H      20.43700000      10.52300000      32.16700000
 O      10.77400000       7.48100000      34.40700000
 H      11.15800000       8.40600000      34.25100000
 H      10.75700000       7.42000000      35.34400000
 O      18.81300000       7.77900000      34.05400000
 H      19.22300000       7.14400000      33.44200000
 H      17.91300000       7.97500000      33.69800000
 O      14.37300000       6.91900000      33.77300000
 H      14.21600000       6.55100000      32.90800000
 H      14.15700000       7.88500000      33.53000000
 O      16.80300000      11.84600000      35.08900000
 H      17.50400000      12.53400000      35.25500000
 H      16.99800000      11.71200000      34.11700000
 O      15.92400000       9.20100000      36.16800000
 H      15.77200000      10.12500000      36.41500000
 H      15.06500000       9.10800000      35.67700000
 O      14.10800000       7.17700000      36.80200000
 H      14.60800000       6.78600000      37.45000000
 H      14.69800000       7.25500000      36.01400000
 O      19.97100000       9.65200000      36.57500000
 H      19.50100000      10.09200000      35.84100000
 H      19.30600000       9.16300000      36.99600000
 O      17.58500000      16.24700000      35.32700000
 H      17.56200000      16.61600000      36.19000000
 H      17.91900000      15.33000000      35.36600000
 O      11.39400000      12.72900000      32.28400000
 H      10.60600000      13.31300000      32.13900000
 H      12.17300000      13.32600000      32.23400000
 O      11.18800000      12.60200000      35.04800000
 H      11.42300000      12.31200000      34.13100000
 H      12.01700000      13.01200000      35.22900000
 O      17.40000000       7.19700000      37.18700000
 H      17.02700000       7.95900000      36.70200000
 H      17.24600000       6.53300000      36.52700000
 O      19.15400000      14.06200000      35.20500000
 H      20.07400000      14.44300000      35.47200000
 H      19.37600000      13.41500000      34.47400000
 O      14.01400000      14.27500000      34.65700000
 H      14.22600000      13.86300000      33.81800000
 H      14.76700000      14.37900000      35.19000000
 O      16.18800000       6.44200000      34.88100000
 H      16.78100000       6.21100000      34.21400000
 H      15.60300000       7.04600000      34.39000000
