123
XYZ file of cluster: frame_8000_0.462c0.4a219 - created by MolEdiTo
 O       8.74700000      16.69400000      14.36000000
 H       8.19000000      17.55800000      14.42700000
 H       8.37400000      16.22000000      13.59900000
 O       4.10300000      12.36900000      20.85300000
 H       4.02000000      12.45200000      21.78400000
 H       3.20600000      12.49600000      20.48900000
 O       0.84300000      11.16400000      16.51700000
 H       0.00000000      10.87200000      16.15100000
 H       1.60600000      10.93900000      15.83900000
 O       6.27000000      15.34700000      15.12700000
 H       6.68100000      14.44500000      14.93200000
 H       6.09800000      15.77000000      14.27600000
 O       9.64200000      11.20800000      21.67000000
 H       9.71900000      10.82100000      20.80800000
 H      10.39900000      11.84600000      21.66100000
 O       4.47300000      13.21100000      16.55900000
 H       4.88600000      13.94900000      16.02700000
 H       3.46200000      13.42400000      16.66600000
 O       7.96500000      13.69700000      11.02100000
 H       7.54300000      14.44400000      10.69200000
 H       8.53700000      14.10700000      11.66000000
 O       1.53200000      12.16700000      19.14600000
 H       2.41600000      11.94800000      18.83300000
 H       1.03300000      11.85500000      18.35200000
 O       4.52200000      16.51000000      16.90100000
 H       5.14600000      15.84200000      16.51300000
 H       3.91400000      16.78400000      16.13800000
 O       5.97700000      11.88600000      13.50000000
 H       6.21200000      12.37800000      14.40300000
 H       5.98900000      10.95200000      13.90000000
 O      11.33900000      11.07500000      14.84300000
 H      10.41700000      11.37000000      14.58000000
 H      11.34000000      10.20000000      14.50900000
 O       4.37300000      16.51000000       9.80000000
 H       4.75100000      16.65300000      10.72900000
 H       4.11100000      17.41900000       9.55800000
 O       9.60200000      13.10600000      14.57300000
 H      10.42700000      13.02300000      14.04300000
 H       9.06600000      13.13900000      13.75100000
 O       8.36100000      20.99800000      17.51500000
 H       7.78000000      20.34300000      17.07400000
 H       7.82300000      21.82100000      17.41700000
 O      10.69100000      16.91000000      10.62000000
 H      10.97800000      17.74600000      10.98700000
 H       9.90800000      17.26500000      10.07500000
 O       2.33900000      20.50400000      16.96300000
 H       2.55500000      19.69700000      17.37900000
 H       2.63200000      21.14100000      17.66100000
 O       5.69700000      21.66500000      15.43800000
 H       5.91100000      20.91800000      16.12000000
 H       4.83000000      21.43100000      15.09400000
 O       7.09800000      15.17300000      20.79900000
 H       7.39900000      16.08200000      20.90600000
 H       7.70300000      14.82000000      20.07400000
 O       2.36000000      19.77500000      14.25300000
 H       1.56700000      19.99200000      13.81200000
 H       2.38700000      20.17200000      15.16400000
 O       7.80500000       9.70800000      18.87400000
 H       7.41300000      10.62200000      19.01400000
 H       7.24700000       9.08000000      19.42100000
 O       9.01400000      13.50800000      19.11900000
 H       8.09600000      13.05700000      19.01500000
 H       8.98700000      14.02000000      18.22300000
 O       4.24400000      11.88800000      11.45900000
 H       3.60800000      12.63400000      11.32100000
 H       4.61400000      12.21700000      12.32800000
 O       3.30000000      14.47300000      11.43000000
 H       3.65700000      15.12500000      10.78200000
 H       2.32800000      14.33200000      11.23900000
 O       7.22800000      11.10000000      10.85500000
 H       6.28900000      11.22400000      11.04200000
 H       7.49200000      12.08600000      10.87400000
 O       3.08200000      13.55600000      14.76800000
 H       3.10600000      12.74000000      15.29900000
 H       3.08200000      14.29500000      15.41300000
 O       6.52600000      19.47600000      11.70300000
 H       6.67600000      20.21000000      12.36900000
 H       7.46100000      19.31300000      11.44700000
 O       3.79000000      17.43900000      15.65100000
 H       3.27500000      18.21200000      15.66000000
 H       3.99300000      17.18300000      14.72100000
 O       2.25000000      19.42000000      11.17100000
 H       2.83700000      19.67800000      10.47500000
 H       1.44200000      19.96100000      11.00500000
 O       5.06800000      21.63900000      20.69600000
 H       5.34500000      22.29400000      21.32100000
 H       5.70800000      20.91000000      20.81500000
 O       7.33000000      12.57000000      14.65600000
 H       8.21400000      12.89200000      14.43200000
 H       7.42100000      11.60300000      14.91600000
 O       8.93800000      17.21000000      19.69500000
 H       9.46600000      16.59900000      19.09200000
 H       8.26300000      17.64900000      19.12100000
 O       3.16700000      10.89000000      15.02500000
 H       3.51600000      10.22800000      14.43300000
 H       3.79600000      11.13000000      15.73700000
 O       5.92400000      14.92300000      13.64800000
 H       5.81500000      14.00600000      13.38700000
 H       5.10200000      15.39800000      13.39500000
 O       4.36100000      17.76700000      12.26700000
 H       5.04700000      18.48200000      12.19600000
 H       3.58600000      18.22800000      11.99400000
 O       6.56700000      12.20400000      18.62200000
 H       5.88700000      12.17900000      19.29800000
 H       6.07800000      12.56100000      17.82600000
 O       1.73100000      10.41600000      13.07000000
 H       1.78400000      11.02200000      12.26500000
 H       2.24900000      10.96600000      13.76300000
 O       1.66800000      13.98100000      16.13100000
 H       0.86600000      13.41300000      16.42600000
 H       1.25700000      14.84000000      16.42800000
 O      10.90600000      20.57900000      16.34100000
 H      10.70900000      21.34800000      15.85500000
 H      10.21600000      20.55600000      16.99300000
 O       8.46600000      19.51000000      15.35400000
 H       9.41000000      19.37700000      15.25700000
 H       8.27800000      20.47100000      15.46500000
 O       6.48900000      19.53800000      16.16200000
 H       5.61800000      19.08700000      16.07000000
 H       7.11200000      19.10200000      15.54600000
 O       6.19500000      17.65700000      19.11800000
 H       5.85800000      18.53800000      19.02200000
 H       5.71600000      17.21400000      18.37600000
