159
XYZ file of cluster: frame_8000_9b9e8.242cf.70a1a - created by MolEdiTo
 O      30.58800000      15.31100000      24.73500000
 H      31.16800000      15.31300000      25.56600000
 H      31.13400000      15.98900000      24.19400000
 O      23.73400000      14.05100000      26.75700000
 H      23.53500000      14.97100000      26.32500000
 H      24.10100000      13.55600000      25.93500000
 O      25.54100000      15.21400000      18.99600000
 H      26.04600000      14.58600000      18.46900000
 H      24.61500000      15.05600000      18.75500000
 O      24.14800000      13.95800000      23.48800000
 H      24.04400000      14.27400000      22.60100000
 H      25.12700000      13.71200000      23.62400000
 O      29.82300000      15.40000000      17.77500000
 H      29.10900000      15.78900000      17.19000000
 H      29.62100000      15.71700000      18.64300000
 O      27.30400000       6.99100000      21.56800000
 H      27.56400000       7.67800000      22.18900000
 H      26.98900000       7.47600000      20.80700000
 O      23.15200000       7.78500000      24.57100000
 H      23.25700000       7.15900000      23.80000000
 H      22.23000000       7.71200000      24.79700000
 O      22.01600000       7.74200000      16.30500000
 H      22.33200000       7.58600000      17.25900000
 H      22.38000000       7.05400000      15.76200000
 O      26.47700000       7.55100000      16.48900000
 H      25.91900000       8.15400000      15.95700000
 H      25.84700000       7.02000000      17.06200000
 O      30.26300000      12.51900000      23.71600000
 H      30.55900000      11.75100000      24.31800000
 H      30.65100000      13.36000000      24.06100000
 O      26.68100000       5.53400000      18.35200000
 H      27.16500000       4.95200000      18.92000000
 H      27.08900000       6.43900000      18.48200000
 O      27.97500000       7.77400000      19.56500000
 H      28.62500000       8.10800000      20.23000000
 H      27.53900000       8.67200000      19.41200000
 O      24.13200000       7.19500000      18.70000000
 H      24.06100000       7.09700000      19.69500000
 H      23.74500000       8.07900000      18.46400000
 O      22.22100000       7.02300000      18.99300000
 H      22.27400000       7.67300000      19.77200000
 H      22.68800000       6.32300000      19.30100000
 O      25.51900000       9.08500000      23.74500000
 H      25.52200000       9.72900000      22.98300000
 H      24.62800000       8.68500000      23.67600000
 O      20.78700000      10.40300000      23.32900000
 H      20.88700000       9.45200000      23.52100000
 H      21.36600000      10.57900000      22.65500000
 O      21.75900000      13.83000000      23.49800000
 H      22.10500000      14.46800000      24.12300000
 H      20.87900000      13.76600000      23.82600000
 O      30.45500000       5.81000000      24.14100000
 H      30.64500000       5.73100000      25.11500000
 H      29.63000000       6.39700000      24.13500000
 O      21.59500000       5.74400000      24.36100000
 H      20.78100000       6.24900000      24.29200000
 H      21.46100000       5.04400000      25.08200000
 O      27.89800000      15.39600000      21.65800000
 H      28.64200000      15.87300000      22.04900000
 H      28.23900000      14.55800000      21.41500000
 O      30.13800000       4.87700000      21.09100000
 H      31.02600000       4.74200000      21.45800000
 H      29.71100000       5.33900000      21.87300000
 O      21.58700000       8.54800000      20.31400000
 H      21.78000000       9.47600000      20.41100000
 H      21.42100000       8.48000000      19.39200000
 O      23.08400000      13.23900000      15.43500000
 H      22.69000000      13.28100000      14.52200000
 H      22.31000000      13.04100000      16.03900000
 O      28.19200000      15.12800000      26.15200000
 H      28.91600000      14.80500000      25.52900000
 H      28.36500000      14.60300000      26.96000000
 O      30.22700000       9.07600000      20.42700000
 H      30.52500000       8.17100000      20.14700000
 H      30.70900000       9.28600000      21.29800000
 O      24.55500000      11.14100000      26.05200000
 H      24.63600000      10.12000000      26.09000000
 H      23.63500000      11.32100000      25.78300000
 O      29.88200000       8.22500000      25.51700000
 H      29.03700000       7.79600000      25.84800000
 H      29.72600000       8.52300000      24.63100000
 O      27.02200000      13.32400000      24.01400000
 H      27.46200000      13.59200000      24.86600000
 H      27.54800000      13.86100000      23.38200000
 O      22.50200000      11.83800000      17.51800000
 H      22.46900000      11.73000000      18.49800000
 H      21.67700000      11.37800000      17.22200000
 O      27.89000000      12.25800000      16.60900000
 H      27.18100000      12.92100000      16.35700000
 H      27.76800000      11.68500000      15.77500000
 O      30.03100000       7.39000000      16.83100000
 H      29.69700000       8.34900000      16.64600000
 H      29.39800000       6.84900000      16.34700000
 O      26.28500000      16.38700000      24.50400000
 H      25.48800000      16.72600000      25.02300000
 H      26.72200000      15.73100000      25.12500000
 O      22.41900000       7.96400000      22.36000000
 H      21.82100000       8.39900000      21.65200000
 H      21.81300000       7.48700000      22.92400000
 O      20.17800000      11.82100000      26.29200000
 H      20.17900000      12.77200000      25.98300000
 H      21.13300000      11.63800000      26.50500000
 O      23.72100000       9.01000000      17.25000000
 H      23.57200000       9.98500000      17.40800000
 H      22.85100000       8.60500000      17.24300000
 O      29.87700000      13.27900000      21.14200000
 H      30.57400000      12.80200000      20.56700000
 H      29.97400000      12.84900000      22.00800000
 O      20.88400000      14.16900000      20.77500000
 H      21.40100000      14.26200000      21.62200000
 H      19.93900000      14.25600000      21.12700000
 O      27.21000000       5.41800000      15.26400000
 H      27.52600000       5.70000000      16.12100000
 H      26.35700000       4.91300000      15.32900000
 O      24.76700000       5.75300000      22.47700000
 H      25.10700000       5.27300000      23.30700000
 H      25.48400000       6.35100000      22.15800000
 O      22.48900000      14.57000000      17.97100000
 H      22.12000000      14.90500000      17.10800000
 H      22.51500000      13.60600000      17.86400000
 O      27.28100000       7.05400000      24.05000000
 H      26.51600000       7.66700000      24.13700000
 H      27.30300000       6.70200000      24.94900000
 O      20.37100000       5.06500000      18.04400000
 H      20.03800000       5.90200000      18.52400000
 H      21.00500000       4.68100000      18.63300000
 O      25.95400000      10.94200000      21.90400000
 H      26.67800000      11.06200000      21.26200000
 H      25.91200000      11.83700000      22.23200000
 O      22.13400000      11.50000000      20.39800000
 H      22.03800000      12.49000000      20.55700000
 H      22.83200000      11.22900000      20.99000000
 O      28.80600000       8.87000000      16.88600000
 H      28.08900000       8.21500000      16.65800000
 H      28.82200000       8.71000000      17.88700000
 O      23.57900000      11.56700000      24.80100000
 H      22.88100000      12.31300000      24.77200000
 H      23.44300000      11.10500000      23.87400000
 O      23.48400000       8.24100000      21.34900000
 H      22.52500000       8.05700000      21.63200000
 H      23.90400000       7.37400000      21.32700000
 O      23.72000000       5.75500000      17.58400000
 H      24.68800000       5.48000000      17.52500000
 H      23.76200000       6.76000000      17.54700000
 O      25.47800000      13.92600000      16.59900000
 H      25.33100000      14.79800000      16.23700000
 H      24.76000000      13.38500000      16.14100000
 O      28.38600000      10.37800000      24.43500000
 H      27.47300000      10.20900000      24.07400000
 H      28.65900000      11.11500000      23.88100000
 O      28.00400000      10.95000000      19.08100000
 H      27.90400000      11.29200000      18.17400000
 H      28.19300000      11.73500000      19.57500000
 O      25.31200000       6.97400000      26.06500000
 H      25.00200000       6.23100000      26.65800000
 H      24.55300000       7.14900000      25.44000000
 O      22.92500000      10.41900000      22.03800000
 H      23.82200000      10.58900000      22.30800000
 H      23.04200000       9.60200000      21.47100000
